Input Patterns
0.224 0.624 0.067 0.043 
0.11 0.502 0.051 0.043 
0.196 0.667 0.067 0.043 
0.055 0.584 0.067 0.082 
0.027 0.376 0.067 0.043 
0.306 0.71 0.086 0.043 
0.137 0.416 0.067 0.0 
0.416 0.831 0.035 0.043 
0.306 0.792 0.051 0.125 
0.388 0.749 0.118 0.082 
0.306 0.584 0.118 0.043 
0.082 0.667 0.0 0.043 
0.137 0.584 0.153 0.043 
0.196 0.584 0.102 0.125 
0.251 0.584 0.067 0.043 
0.137 0.459 0.102 0.043 
0.251 0.875 0.086 0.0 
0.165 0.459 0.086 0.043 
0.333 0.624 0.051 0.043 
0.027 0.416 0.051 0.043 
0.196 0.624 0.051 0.082 
0.027 0.502 0.051 0.043 
0.224 0.749 0.153 0.125 
0.224 0.749 0.102 0.043 
0.278 0.71 0.086 0.043 
0.165 0.416 0.067 0.043 
0.082 0.459 0.086 0.043 
0.306 0.792 0.118 0.125 
0.196 0.584 0.086 0.043 
0.165 0.459 0.086 0.0 
0.137 0.584 0.102 0.043 
0.0 0.416 0.016 0.0 
0.388 1.0 0.086 0.125 
0.224 0.624 0.067 0.082 
0.224 0.749 0.086 0.082 
0.224 0.71 0.086 0.125 
0.224 0.541 0.118 0.165 
0.196 0.416 0.102 0.043 
0.251 0.624 0.086 0.043 
0.11 0.502 0.102 0.043 
0.306 0.584 0.086 0.125 
0.333 0.918 0.067 0.043 
0.196 0.502 0.035 0.043 
0.165 0.667 0.067 0.0 
0.224 0.584 0.086 0.043 
0.055 0.125 0.051 0.082 
0.196 0.624 0.102 0.208 
0.137 0.416 0.067 0.082 
0.082 0.502 0.067 0.043 
0.196 0.541 0.067 0.043 
0.749 0.502 0.627 0.541 
0.722 0.459 0.663 0.584 
0.612 0.333 0.612 0.584 
0.557 0.541 0.627 0.624 
0.639 0.376 0.612 0.498 
0.196 0.0 0.424 0.376 
0.471 0.082 0.51 0.376 
0.361 0.376 0.439 0.498 
0.361 0.416 0.592 0.584 
0.529 0.082 0.592 0.584 
0.443 0.502 0.643 0.459 
0.557 0.208 0.663 0.584 
0.584 0.376 0.561 0.498 
0.694 0.333 0.643 0.541 
0.471 0.376 0.592 0.584 
0.333 0.169 0.475 0.416 
0.416 0.29 0.49 0.459 
0.306 0.416 0.592 0.584 
0.667 0.459 0.627 0.584 
0.361 0.416 0.525 0.498 
0.333 0.251 0.576 0.459 
0.416 0.251 0.51 0.459 
0.361 0.29 0.541 0.498 
0.388 0.376 0.541 0.498 
0.224 0.208 0.337 0.416 
0.584 0.502 0.592 0.584 
0.333 0.125 0.51 0.498 
0.388 0.333 0.592 0.498 
0.165 0.169 0.388 0.376 
0.251 0.29 0.49 0.541 
0.443 0.416 0.541 0.584 
0.498 0.376 0.627 0.541 
0.667 0.459 0.576 0.541 
0.416 0.29 0.525 0.376 
0.361 0.208 0.49 0.416 
0.498 0.333 0.51 0.498 
0.498 0.333 0.627 0.459 
0.639 0.416 0.576 0.541 
0.667 0.416 0.678 0.667 
0.388 0.251 0.424 0.376 
0.333 0.169 0.459 0.376 
0.471 0.29 0.694 0.624 
0.471 0.584 0.592 0.624 
0.557 0.125 0.576 0.498 
0.333 0.208 0.51 0.498 
0.498 0.416 0.612 0.541 
0.196 0.125 0.388 0.376 
0.388 0.416 0.541 0.459 
0.529 0.376 0.561 0.498 
0.388 0.333 0.525 0.498 
0.557 0.541 0.847 1.0 
0.776 0.416 0.831 0.831 
0.612 0.416 0.812 0.875 
0.165 0.208 0.592 0.667 
0.667 0.208 0.812 0.71 
0.612 0.502 0.694 0.792 
0.694 0.416 0.761 0.831 
0.416 0.333 0.694 0.957 
0.612 0.416 0.761 0.71 
0.945 0.251 1.0 0.918 
0.722 0.502 0.796 0.918 
0.945 0.333 0.965 0.792 
0.667 0.541 0.796 0.831 
0.529 0.333 0.643 0.71 
0.584 0.333 0.78 0.831 
0.863 0.333 0.863 0.749 
0.584 0.333 0.78 0.875 
0.498 0.251 0.78 0.541 
0.557 0.584 0.78 0.957 
0.471 0.416 0.643 0.71 
0.667 0.459 0.78 0.957 
0.416 0.29 0.694 0.749 
0.667 0.541 0.796 1.0 
0.557 0.208 0.678 0.749 
0.529 0.584 0.745 0.918 
0.416 0.29 0.694 0.749 
0.557 0.376 0.78 0.71 
0.918 0.416 0.949 0.831 
0.835 0.376 0.898 0.71 
0.804 0.667 0.863 1.0 
0.584 0.29 0.729 0.749 
0.388 0.208 0.678 0.792 
0.584 0.502 0.729 0.918 
0.945 0.749 0.965 0.875 
0.471 0.082 0.678 0.584 
0.361 0.333 0.663 0.792 
0.557 0.29 0.663 0.71 
0.804 0.502 0.847 0.71 
0.498 0.416 0.51 0.71 
0.804 0.416 0.812 0.624 
1.0 0.749 0.914 0.792 
0.557 0.333 0.694 0.584 
0.945 0.416 0.863 0.918 
0.584 0.459 0.761 0.71 
0.722 0.459 0.745 0.831 
0.722 0.459 0.694 0.918 
0.694 0.502 0.831 0.918 
0.667 0.416 0.714 0.918 
0.612 0.416 0.714 0.792 
0.443 0.416 0.694 0.71 
Teaching Patterns
1.0 0.0 0.0 
1.0 0.0 0.0 
1.0 0.0 0.0 
1.0 0.0 0.0 
1.0 0.0 0.0 
1.0 0.0 0.0 
1.0 0.0 0.0 
1.0 0.0 0.0 
1.0 0.0 0.0 
1.0 0.0 0.0 
1.0 0.0 0.0 
1.0 0.0 0.0 
1.0 0.0 0.0 
1.0 0.0 0.0 
1.0 0.0 0.0 
1.0 0.0 0.0 
1.0 0.0 0.0 
1.0 0.0 0.0 
1.0 0.0 0.0 
1.0 0.0 0.0 
1.0 0.0 0.0 
1.0 0.0 0.0 
1.0 0.0 0.0 
1.0 0.0 0.0 
1.0 0.0 0.0 
1.0 0.0 0.0 
1.0 0.0 0.0 
1.0 0.0 0.0 
1.0 0.0 0.0 
1.0 0.0 0.0 
1.0 0.0 0.0 
1.0 0.0 0.0 
1.0 0.0 0.0 
1.0 0.0 0.0 
1.0 0.0 0.0 
1.0 0.0 0.0 
1.0 0.0 0.0 
1.0 0.0 0.0 
1.0 0.0 0.0 
1.0 0.0 0.0 
1.0 0.0 0.0 
1.0 0.0 0.0 
1.0 0.0 0.0 
1.0 0.0 0.0 
1.0 0.0 0.0 
1.0 0.0 0.0 
1.0 0.0 0.0 
1.0 0.0 0.0 
1.0 0.0 0.0 
1.0 0.0 0.0 
0.0 1.0 0.0 
0.0 1.0 0.0 
0.0 1.0 0.0 
0.0 1.0 0.0 
0.0 1.0 0.0 
0.0 1.0 0.0 
0.0 1.0 0.0 
0.0 1.0 0.0 
0.0 1.0 0.0 
0.0 1.0 0.0 
0.0 1.0 0.0 
0.0 1.0 0.0 
0.0 1.0 0.0 
0.0 1.0 0.0 
0.0 1.0 0.0 
0.0 1.0 0.0 
0.0 1.0 0.0 
0.0 1.0 0.0 
0.0 1.0 0.0 
0.0 1.0 0.0 
0.0 1.0 0.0 
0.0 1.0 0.0 
0.0 1.0 0.0 
0.0 1.0 0.0 
0.0 1.0 0.0 
0.0 1.0 0.0 
0.0 1.0 0.0 
0.0 1.0 0.0 
0.0 1.0 0.0 
0.0 1.0 0.0 
0.0 1.0 0.0 
0.0 1.0 0.0 
0.0 1.0 0.0 
0.0 1.0 0.0 
0.0 1.0 0.0 
0.0 1.0 0.0 
0.0 1.0 0.0 
0.0 1.0 0.0 
0.0 1.0 0.0 
0.0 1.0 0.0 
0.0 1.0 0.0 
0.0 1.0 0.0 
0.0 1.0 0.0 
0.0 1.0 0.0 
0.0 1.0 0.0 
0.0 1.0 0.0 
0.0 1.0 0.0 
0.0 1.0 0.0 
0.0 1.0 0.0 
0.0 1.0 0.0 
0.0 0.0 1.0 
0.0 0.0 1.0 
0.0 0.0 1.0 
0.0 0.0 1.0 
0.0 0.0 1.0 
0.0 0.0 1.0 
0.0 0.0 1.0 
0.0 0.0 1.0 
0.0 0.0 1.0 
0.0 0.0 1.0 
0.0 0.0 1.0 
0.0 0.0 1.0 
0.0 0.0 1.0 
0.0 0.0 1.0 
0.0 0.0 1.0 
0.0 0.0 1.0 
0.0 0.0 1.0 
0.0 0.0 1.0 
0.0 0.0 1.0 
0.0 0.0 1.0 
0.0 0.0 1.0 
0.0 0.0 1.0 
0.0 0.0 1.0 
0.0 0.0 1.0 
0.0 0.0 1.0 
0.0 0.0 1.0 
0.0 0.0 1.0 
0.0 0.0 1.0 
0.0 0.0 1.0 
0.0 0.0 1.0 
0.0 0.0 1.0 
0.0 0.0 1.0 
0.0 0.0 1.0 
0.0 0.0 1.0 
0.0 0.0 1.0 
0.0 0.0 1.0 
0.0 0.0 1.0 
0.0 0.0 1.0 
0.0 0.0 1.0 
0.0 0.0 1.0 
0.0 0.0 1.0 
0.0 0.0 1.0 
0.0 0.0 1.0 
0.0 0.0 1.0 
0.0 0.0 1.0 
0.0 0.0 1.0 
0.0 0.0 1.0 
0.0 0.0 1.0 
0.0 0.0 1.0 
0.0 0.0 1.0 
Learning : 0.5
Momentum : 0.9
Epoch: 100, Error: 0.01341595390775547
Epoch: 200, Error: 0.01237328245635846
Epoch: 300, Error: 0.013106955322531165
Epoch: 400, Error: 0.012019687897301849
Epoch: 500, Error: 0.012381450806373285
Epoch: 600, Error: 0.013176916461167877
Epoch: 700, Error: 0.011917379453021014
Epoch: 800, Error: 0.02070922914277555
Epoch: 900, Error: 0.013511378069682414
Epoch: 1000, Error: 0.012938321006856844
Epoch: 1100, Error: 0.012231536122722484
Epoch: 1200, Error: 0.01227304287859754
Epoch: 1300, Error: 0.011968260034831462
Epoch: 1400, Error: 0.012621887311113694
Epoch: 1500, Error: 0.01655148286411001
Epoch: 1600, Error: 0.012115112110667913
Epoch: 1700, Error: 0.013054450726425118
Epoch: 1800, Error: 0.012998586449133187
Epoch: 1900, Error: 0.011845398848850745
Epoch: 2000, Error: 0.011671295984035037
Epoch: 2100, Error: 0.011847211737537422
Epoch: 2200, Error: 0.011535689790131047
Epoch: 2300, Error: 0.012417313871941347
Epoch: 2400, Error: 0.01160393581339499
Epoch: 2500, Error: 0.012931797836268766
Epoch: 2600, Error: 0.011902914976383175
Epoch: 2700, Error: 0.011853589814266189
Epoch: 2800, Error: 0.014587412842819596
Epoch: 2900, Error: 0.011835020403486328
Epoch: 3000, Error: 0.013338273271445749
Epoch: 3100, Error: 0.012298045748341938
Epoch: 3200, Error: 0.014235590077287311
Epoch: 3300, Error: 0.011718615264542417
Epoch: 3400, Error: 0.012103876953315485
Epoch: 3500, Error: 0.012144954322073073
Epoch: 3600, Error: 0.011588732550512997
Epoch: 3700, Error: 0.014055781093110791
Epoch: 3800, Error: 0.012883696245382764
Epoch: 3900, Error: 0.01239889090763649
Epoch: 4000, Error: 0.011920841524210142
Epoch: 4100, Error: 0.011831407277493048
Epoch: 4200, Error: 0.012198056658456883
Epoch: 4300, Error: 0.012184105919400312
Epoch: 4400, Error: 0.01491800647940493
Epoch: 4500, Error: 0.011409912664673115
Epoch: 4600, Error: 0.02595595803466047
Epoch: 4700, Error: 0.012249481800422174
Epoch: 4800, Error: 0.012487445110999808
Epoch: 4900, Error: 0.011318501451610345
Epoch: 5000, Error: 0.011508578605781895
Epoch: 5100, Error: 0.01216281595291179
Epoch: 5200, Error: 0.011077707725128817
Epoch: 5300, Error: 0.010838308652559612
Epoch: 5400, Error: 0.01084167434698468
Epoch: 5500, Error: 0.010841139596674376
Epoch: 5600, Error: 0.011042140866092775
Epoch: 5700, Error: 0.011268999187114246
Epoch: 5800, Error: 0.010624671310419847
Epoch: 5900, Error: 0.010924690250412983
Epoch: 6000, Error: 0.010622076190615436
Epoch: 6100, Error: 0.011316655761381439
Epoch: 6200, Error: 0.010307843715949956
Epoch: 6300, Error: 0.010546087593084737
Epoch: 6400, Error: 0.010158816029844846
Epoch: 6500, Error: 0.009257627926699177
Epoch: 6600, Error: 0.00868595209828845
Epoch: 6700, Error: 0.00847467230848344
Epoch: 6800, Error: 0.008512289717912971
Epoch: 6900, Error: 0.00828857277067855
Epoch: 7000, Error: 0.008057797909570653
Epoch: 7100, Error: 0.008024290221798992
Epoch: 7200, Error: 0.007976669800459829
Epoch: 7300, Error: 0.008065893283665377
Epoch: 7400, Error: 0.007842380920111088
Epoch: 7500, Error: 0.007800605074976112
Epoch: 7600, Error: 0.007872091127364643
Epoch: 7700, Error: 0.007647704424120062
Epoch: 7800, Error: 0.007917339611990789
Epoch: 7900, Error: 0.00752829789620333
Epoch: 8000, Error: 0.007206144883896903
Epoch: 8100, Error: 0.00727565771400501
Epoch: 8200, Error: 0.007164811941159453
Epoch: 8300, Error: 0.006778962953249521
Epoch: 8400, Error: 0.006709386940394027
Epoch: 8500, Error: 0.006661676739812128
Epoch: 8600, Error: 0.0065121140612158495
Epoch: 8700, Error: 0.006294572603521912
Epoch: 8800, Error: 0.006369409635136068
Epoch: 8900, Error: 0.006296588968391837
Epoch: 9000, Error: 0.006002593487887213
Epoch: 9100, Error: 0.0059346687761914416
Epoch: 9200, Error: 0.00619826539130887
Epoch: 9300, Error: 0.005850016530504047
Epoch: 9400, Error: 0.005925394713234881
Epoch: 9500, Error: 0.005781005374847377
Epoch: 9600, Error: 0.005594509027909931
Epoch: 9700, Error: 0.005520233739653035
Epoch: 9800, Error: 0.005598874186455307
Epoch: 9900, Error: 0.005552404997861728
Epoch: 10000, Error: 0.006232176609029082
Epoch: 10100, Error: 0.0053833988148774695
Epoch: 10200, Error: 0.005375616576040176
Epoch: 10300, Error: 0.005390479329631482
Epoch: 10400, Error: 0.00539486049160445
Epoch: 10500, Error: 0.005154963921639626
Epoch: 10600, Error: 0.005413482603700873
Epoch: 10700, Error: 0.006355863281930032
Epoch: 10800, Error: 0.005108384670939725
Epoch: 10900, Error: 0.005098684390580321
Epoch: 11000, Error: 0.005684086817934748
Epoch: 11100, Error: 0.0052034627870802585
Epoch: 11200, Error: 0.004994508171257797
Epoch: 11300, Error: 0.004927638146876715
Epoch: 11400, Error: 0.004967361219867448
Epoch: 11500, Error: 0.004995956015768243
Epoch: 11600, Error: 0.005024948934718142
Epoch: 11700, Error: 0.004931794645900474
Epoch: 11800, Error: 0.005021960380453282
Epoch: 11900, Error: 0.004845000200687564
Epoch: 12000, Error: 0.004843588013202884
Epoch: 12100, Error: 0.004751185677779744
Epoch: 12200, Error: 0.004922505921543278
Epoch: 12300, Error: 0.0047539456416184345
Epoch: 12400, Error: 0.004315929935785827
Epoch: 12500, Error: 0.004675222506225929
Epoch: 12600, Error: 0.0042151346047726345
Epoch: 12700, Error: 0.0041670438447113075
Epoch: 12800, Error: 0.004175742180672561
Epoch: 12900, Error: 0.004190469445244702
Epoch: 13000, Error: 0.0038624375076299353
Epoch: 13100, Error: 0.003791159258166611
Epoch: 13200, Error: 0.0037213009959658344
Epoch: 13300, Error: 0.003571625244180793
Epoch: 13400, Error: 0.0035421752956579992
Epoch: 13500, Error: 0.003195346191051172
Epoch: 13600, Error: 0.003032744187462022
Epoch: 13700, Error: 0.0027700036775310886
Epoch: 13800, Error: 0.002933624097711786
Epoch: 13900, Error: 0.002905962990488376
Epoch: 14000, Error: 0.002229670263875904
Epoch: 14100, Error: 0.002200655584380925
Epoch: 14200, Error: 0.0020488007056888016
Epoch: 14300, Error: 0.0016735536859777155
Epoch: 14400, Error: 0.001650250840704396
Epoch: 14500, Error: 0.0014982511551928602
Epoch: 14600, Error: 0.0016146597069892604
Epoch: 14700, Error: 0.0010986149470457456
Epoch: 14800, Error: 0.001347926973984716
Epoch: 14900, Error: 9.951588923117212E-4
Epoch: 15000, Error: 0.0010888304041664016
Epoch: 15100, Error: 8.649530695246864E-4
Epoch: 15200, Error: 8.252104561137078E-4
Epoch: 15300, Error: 7.909921862668707E-4
Epoch: 15400, Error: 7.689431528172827E-4
Epoch: 15500, Error: 7.646380924883597E-4
Epoch: 15600, Error: 7.352733356722869E-4
Epoch: 15700, Error: 7.09177620565428E-4
Epoch: 15800, Error: 7.646242937790999E-4
Epoch: 15900, Error: 7.49896860642081E-4
Epoch: 16000, Error: 6.795114693590443E-4
Epoch: 16100, Error: 6.748727983667001E-4
Epoch: 16200, Error: 6.896678534965858E-4
Epoch: 16300, Error: 6.941510981537182E-4
Epoch: 16400, Error: 6.632248594659332E-4
Epoch: 16500, Error: 6.527803373764464E-4
Epoch: 16600, Error: 6.575216012479519E-4
Epoch: 16700, Error: 6.892492439367588E-4
Epoch: 16800, Error: 6.472875567622207E-4
Epoch: 16900, Error: 6.608998877302427E-4
Epoch: 17000, Error: 6.515309721646896E-4
Epoch: 17100, Error: 6.436140169731609E-4
Epoch: 17200, Error: 6.473067626939103E-4
Epoch: 17300, Error: 6.515832685589392E-4
Epoch: 17400, Error: 6.490308659327701E-4
Epoch: 17500, Error: 6.464118620965625E-4
Epoch: 17600, Error: 6.525616942252407E-4
Epoch: 17700, Error: 6.661305075870579E-4
Epoch: 17800, Error: 6.458959859862251E-4
Epoch: 17900, Error: 6.48030365258215E-4
Epoch: 18000, Error: 6.555237131791048E-4
Epoch: 18100, Error: 6.705925117780605E-4
Epoch: 18200, Error: 7.03147128722189E-4
Epoch: 18300, Error: 6.824333746050327E-4
Epoch: 18400, Error: 6.937661962788131E-4
Epoch: 18500, Error: 7.097261071808706E-4
Epoch: 18600, Error: 6.954674453195801E-4
Epoch: 18700, Error: 7.021150235289945E-4
Epoch: 18800, Error: 7.203571031461847E-4
Epoch: 18900, Error: 7.186092359867845E-4
Epoch: 19000, Error: 7.529259419487371E-4
Epoch: 19100, Error: 7.597723124359823E-4
Epoch: 19200, Error: 7.664992950689056E-4
Epoch: 19300, Error: 7.698552318438625E-4
Epoch: 19400, Error: 7.698915959807732E-4
Epoch: 19500, Error: 7.901624595343875E-4
Epoch: 19600, Error: 7.874506333515655E-4
Epoch: 19700, Error: 7.841407308952146E-4
finished
