Input Patterns
0.224 0.624 0.067 0.043 
0.11 0.502 0.051 0.043 
0.196 0.667 0.067 0.043 
0.055 0.584 0.067 0.082 
0.027 0.376 0.067 0.043 
0.306 0.71 0.086 0.043 
0.137 0.416 0.067 0.0 
0.416 0.831 0.035 0.043 
0.306 0.792 0.051 0.125 
0.388 0.749 0.118 0.082 
0.306 0.584 0.118 0.043 
0.082 0.667 0.0 0.043 
0.137 0.584 0.153 0.043 
0.196 0.584 0.102 0.125 
0.251 0.584 0.067 0.043 
0.137 0.459 0.102 0.043 
0.251 0.875 0.086 0.0 
0.165 0.459 0.086 0.043 
0.333 0.624 0.051 0.043 
0.027 0.416 0.051 0.043 
0.196 0.624 0.051 0.082 
0.027 0.502 0.051 0.043 
0.224 0.749 0.153 0.125 
0.224 0.749 0.102 0.043 
0.278 0.71 0.086 0.043 
0.165 0.416 0.067 0.043 
0.082 0.459 0.086 0.043 
0.306 0.792 0.118 0.125 
0.196 0.584 0.086 0.043 
0.165 0.459 0.086 0.0 
0.137 0.584 0.102 0.043 
0.0 0.416 0.016 0.0 
0.388 1.0 0.086 0.125 
0.224 0.624 0.067 0.082 
0.224 0.749 0.086 0.082 
0.224 0.71 0.086 0.125 
0.224 0.541 0.118 0.165 
0.196 0.416 0.102 0.043 
0.251 0.624 0.086 0.043 
0.11 0.502 0.102 0.043 
0.306 0.584 0.086 0.125 
0.333 0.918 0.067 0.043 
0.196 0.502 0.035 0.043 
0.165 0.667 0.067 0.0 
0.224 0.584 0.086 0.043 
0.055 0.125 0.051 0.082 
0.196 0.624 0.102 0.208 
0.137 0.416 0.067 0.082 
0.082 0.502 0.067 0.043 
0.196 0.541 0.067 0.043 
0.749 0.502 0.627 0.541 
0.722 0.459 0.663 0.584 
0.612 0.333 0.612 0.584 
0.557 0.541 0.627 0.624 
0.639 0.376 0.612 0.498 
0.196 0.0 0.424 0.376 
0.471 0.082 0.51 0.376 
0.361 0.376 0.439 0.498 
0.361 0.416 0.592 0.584 
0.529 0.082 0.592 0.584 
0.443 0.502 0.643 0.459 
0.557 0.208 0.663 0.584 
0.584 0.376 0.561 0.498 
0.694 0.333 0.643 0.541 
0.471 0.376 0.592 0.584 
0.333 0.169 0.475 0.416 
0.416 0.29 0.49 0.459 
0.306 0.416 0.592 0.584 
0.667 0.459 0.627 0.584 
0.361 0.416 0.525 0.498 
0.333 0.251 0.576 0.459 
0.416 0.251 0.51 0.459 
0.361 0.29 0.541 0.498 
0.388 0.376 0.541 0.498 
0.224 0.208 0.337 0.416 
0.584 0.502 0.592 0.584 
0.333 0.125 0.51 0.498 
0.388 0.333 0.592 0.498 
0.165 0.169 0.388 0.376 
0.251 0.29 0.49 0.541 
0.443 0.416 0.541 0.584 
0.498 0.376 0.627 0.541 
0.667 0.459 0.576 0.541 
0.416 0.29 0.525 0.376 
0.361 0.208 0.49 0.416 
0.498 0.333 0.51 0.498 
0.498 0.333 0.627 0.459 
0.639 0.416 0.576 0.541 
0.667 0.416 0.678 0.667 
0.388 0.251 0.424 0.376 
0.333 0.169 0.459 0.376 
0.471 0.29 0.694 0.624 
0.471 0.584 0.592 0.624 
0.557 0.125 0.576 0.498 
0.333 0.208 0.51 0.498 
0.498 0.416 0.612 0.541 
0.196 0.125 0.388 0.376 
0.388 0.416 0.541 0.459 
0.529 0.376 0.561 0.498 
0.388 0.333 0.525 0.498 
0.557 0.541 0.847 1.0 
0.776 0.416 0.831 0.831 
0.612 0.416 0.812 0.875 
0.165 0.208 0.592 0.667 
0.667 0.208 0.812 0.71 
0.612 0.502 0.694 0.792 
0.694 0.416 0.761 0.831 
0.416 0.333 0.694 0.957 
0.612 0.416 0.761 0.71 
0.945 0.251 1.0 0.918 
0.722 0.502 0.796 0.918 
0.945 0.333 0.965 0.792 
0.667 0.541 0.796 0.831 
0.529 0.333 0.643 0.71 
0.584 0.333 0.78 0.831 
0.863 0.333 0.863 0.749 
0.584 0.333 0.78 0.875 
0.498 0.251 0.78 0.541 
0.557 0.584 0.78 0.957 
0.471 0.416 0.643 0.71 
0.667 0.459 0.78 0.957 
0.416 0.29 0.694 0.749 
0.667 0.541 0.796 1.0 
0.557 0.208 0.678 0.749 
0.529 0.584 0.745 0.918 
0.416 0.29 0.694 0.749 
0.557 0.376 0.78 0.71 
0.918 0.416 0.949 0.831 
0.835 0.376 0.898 0.71 
0.804 0.667 0.863 1.0 
0.584 0.29 0.729 0.749 
0.388 0.208 0.678 0.792 
0.584 0.502 0.729 0.918 
0.945 0.749 0.965 0.875 
0.471 0.082 0.678 0.584 
0.361 0.333 0.663 0.792 
0.557 0.29 0.663 0.71 
0.804 0.502 0.847 0.71 
0.498 0.416 0.51 0.71 
0.804 0.416 0.812 0.624 
1.0 0.749 0.914 0.792 
0.557 0.333 0.694 0.584 
0.945 0.416 0.863 0.918 
0.584 0.459 0.761 0.71 
0.722 0.459 0.745 0.831 
0.722 0.459 0.694 0.918 
0.694 0.502 0.831 0.918 
0.667 0.416 0.714 0.918 
0.612 0.416 0.714 0.792 
0.443 0.416 0.694 0.71 
Teaching Patterns
1.0 0.0 0.0 
1.0 0.0 0.0 
1.0 0.0 0.0 
1.0 0.0 0.0 
1.0 0.0 0.0 
1.0 0.0 0.0 
1.0 0.0 0.0 
1.0 0.0 0.0 
1.0 0.0 0.0 
1.0 0.0 0.0 
1.0 0.0 0.0 
1.0 0.0 0.0 
1.0 0.0 0.0 
1.0 0.0 0.0 
1.0 0.0 0.0 
1.0 0.0 0.0 
1.0 0.0 0.0 
1.0 0.0 0.0 
1.0 0.0 0.0 
1.0 0.0 0.0 
1.0 0.0 0.0 
1.0 0.0 0.0 
1.0 0.0 0.0 
1.0 0.0 0.0 
1.0 0.0 0.0 
1.0 0.0 0.0 
1.0 0.0 0.0 
1.0 0.0 0.0 
1.0 0.0 0.0 
1.0 0.0 0.0 
1.0 0.0 0.0 
1.0 0.0 0.0 
1.0 0.0 0.0 
1.0 0.0 0.0 
1.0 0.0 0.0 
1.0 0.0 0.0 
1.0 0.0 0.0 
1.0 0.0 0.0 
1.0 0.0 0.0 
1.0 0.0 0.0 
1.0 0.0 0.0 
1.0 0.0 0.0 
1.0 0.0 0.0 
1.0 0.0 0.0 
1.0 0.0 0.0 
1.0 0.0 0.0 
1.0 0.0 0.0 
1.0 0.0 0.0 
1.0 0.0 0.0 
1.0 0.0 0.0 
0.0 1.0 0.0 
0.0 1.0 0.0 
0.0 1.0 0.0 
0.0 1.0 0.0 
0.0 1.0 0.0 
0.0 1.0 0.0 
0.0 1.0 0.0 
0.0 1.0 0.0 
0.0 1.0 0.0 
0.0 1.0 0.0 
0.0 1.0 0.0 
0.0 1.0 0.0 
0.0 1.0 0.0 
0.0 1.0 0.0 
0.0 1.0 0.0 
0.0 1.0 0.0 
0.0 1.0 0.0 
0.0 1.0 0.0 
0.0 1.0 0.0 
0.0 1.0 0.0 
0.0 1.0 0.0 
0.0 1.0 0.0 
0.0 1.0 0.0 
0.0 1.0 0.0 
0.0 1.0 0.0 
0.0 1.0 0.0 
0.0 1.0 0.0 
0.0 1.0 0.0 
0.0 1.0 0.0 
0.0 1.0 0.0 
0.0 1.0 0.0 
0.0 1.0 0.0 
0.0 1.0 0.0 
0.0 1.0 0.0 
0.0 1.0 0.0 
0.0 1.0 0.0 
0.0 1.0 0.0 
0.0 1.0 0.0 
0.0 1.0 0.0 
0.0 1.0 0.0 
0.0 1.0 0.0 
0.0 1.0 0.0 
0.0 1.0 0.0 
0.0 1.0 0.0 
0.0 1.0 0.0 
0.0 1.0 0.0 
0.0 1.0 0.0 
0.0 1.0 0.0 
0.0 1.0 0.0 
0.0 1.0 0.0 
0.0 0.0 1.0 
0.0 0.0 1.0 
0.0 0.0 1.0 
0.0 0.0 1.0 
0.0 0.0 1.0 
0.0 0.0 1.0 
0.0 0.0 1.0 
0.0 0.0 1.0 
0.0 0.0 1.0 
0.0 0.0 1.0 
0.0 0.0 1.0 
0.0 0.0 1.0 
0.0 0.0 1.0 
0.0 0.0 1.0 
0.0 0.0 1.0 
0.0 0.0 1.0 
0.0 0.0 1.0 
0.0 0.0 1.0 
0.0 0.0 1.0 
0.0 0.0 1.0 
0.0 0.0 1.0 
0.0 0.0 1.0 
0.0 0.0 1.0 
0.0 0.0 1.0 
0.0 0.0 1.0 
0.0 0.0 1.0 
0.0 0.0 1.0 
0.0 0.0 1.0 
0.0 0.0 1.0 
0.0 0.0 1.0 
0.0 0.0 1.0 
0.0 0.0 1.0 
0.0 0.0 1.0 
0.0 0.0 1.0 
0.0 0.0 1.0 
0.0 0.0 1.0 
0.0 0.0 1.0 
0.0 0.0 1.0 
0.0 0.0 1.0 
0.0 0.0 1.0 
0.0 0.0 1.0 
0.0 0.0 1.0 
0.0 0.0 1.0 
0.0 0.0 1.0 
0.0 0.0 1.0 
0.0 0.0 1.0 
0.0 0.0 1.0 
0.0 0.0 1.0 
0.0 0.0 1.0 
0.0 0.0 1.0 
Learning : 0.30000001192092896
Momentum : 0.9
Epoch: 100, Error: 0.01347457998953074
Epoch: 200, Error: 0.013660620697264226
Epoch: 300, Error: 0.012818525538884204
Epoch: 400, Error: 0.012291230447995483
Epoch: 500, Error: 0.012702979474940269
Epoch: 600, Error: 0.011900929562420852
Epoch: 700, Error: 0.01219556030302928
Epoch: 800, Error: 0.011934671025367799
Epoch: 900, Error: 0.012629997180384699
Epoch: 1000, Error: 0.012599720303591942
Epoch: 1100, Error: 0.011756093642280923
Epoch: 1200, Error: 0.012391729575969936
Epoch: 1300, Error: 0.01563538739031602
Epoch: 1400, Error: 0.015411951250577259
Epoch: 1500, Error: 0.011889683005870254
Epoch: 1600, Error: 0.011782424595233666
Epoch: 1700, Error: 0.01214957735941946
Epoch: 1800, Error: 0.011816554615473292
Epoch: 1900, Error: 0.012131396115395062
Epoch: 2000, Error: 0.011846702030666156
Epoch: 2100, Error: 0.011876774062285756
Epoch: 2200, Error: 0.011866201369814578
Epoch: 2300, Error: 0.011686640392837634
Epoch: 2400, Error: 0.012357191532927447
Epoch: 2500, Error: 0.011935656418487239
Epoch: 2600, Error: 0.012076475484197999
Epoch: 2700, Error: 0.011922034048576224
Epoch: 2800, Error: 0.0118235989941424
Epoch: 2900, Error: 0.011854201408163272
Epoch: 3000, Error: 0.011712245022262872
Epoch: 3100, Error: 0.012255499497186104
Epoch: 3200, Error: 0.01226234355054324
Epoch: 3300, Error: 0.012515283618486675
Epoch: 3400, Error: 0.011936427020440636
Epoch: 3500, Error: 0.01207864179094941
Epoch: 3600, Error: 0.011937718733487736
Epoch: 3700, Error: 0.012962727418331403
Epoch: 3800, Error: 0.012919213587318996
Epoch: 3900, Error: 0.011751748064267714
Epoch: 4000, Error: 0.011990452067288661
Epoch: 4100, Error: 0.011806355242600406
Epoch: 4200, Error: 0.01173603108910646
Epoch: 4300, Error: 0.011818820102675877
Epoch: 4400, Error: 0.01185858338328612
Epoch: 4500, Error: 0.011690819627936716
Epoch: 4600, Error: 0.012083570651501606
Epoch: 4700, Error: 0.011900769797474042
Epoch: 4800, Error: 0.011789864519409927
Epoch: 4900, Error: 0.012604772826947172
Epoch: 5000, Error: 0.011715902916692191
Epoch: 5100, Error: 0.011675122994725423
Epoch: 5200, Error: 0.01272256813711628
Epoch: 5300, Error: 0.01157885977248948
Epoch: 5400, Error: 0.013987220788743893
Epoch: 5500, Error: 0.011333944886923316
Epoch: 5600, Error: 0.012581202437294303
Epoch: 5700, Error: 0.011287375223704094
Epoch: 5800, Error: 0.011416151588314079
Epoch: 5900, Error: 0.01113756255242375
Epoch: 6000, Error: 0.010922355024415888
Epoch: 6100, Error: 0.010920531033503192
Epoch: 6200, Error: 0.010520912607845009
Epoch: 6300, Error: 0.010532261817933574
Epoch: 6400, Error: 0.010544617403644744
Epoch: 6500, Error: 0.009991691100793171
Epoch: 6600, Error: 0.009701743151012533
Epoch: 6700, Error: 0.00979004237970787
Epoch: 6800, Error: 0.009519453312187481
Epoch: 6900, Error: 0.009560141604231893
Epoch: 7000, Error: 0.009282499782085299
Epoch: 7100, Error: 0.008919470013993009
Epoch: 7200, Error: 0.008805155749575837
Epoch: 7300, Error: 0.008754302759934633
Epoch: 7400, Error: 0.009003670628978621
Epoch: 7500, Error: 0.008643439173718128
Epoch: 7600, Error: 0.008641219650681896
Epoch: 7700, Error: 0.008617412568412136
Epoch: 7800, Error: 0.008415865057387192
Epoch: 7900, Error: 0.008437743734023619
Epoch: 8000, Error: 0.008367712491930046
Epoch: 8100, Error: 0.008544535100469708
Epoch: 8200, Error: 0.008947203757503486
Epoch: 8300, Error: 0.008221653674107238
Epoch: 8400, Error: 0.008206382914506505
Epoch: 8500, Error: 0.00828468383744326
Epoch: 8600, Error: 0.008715112059698943
Epoch: 8700, Error: 0.007945878191152236
Epoch: 8800, Error: 0.00788652973354128
Epoch: 8900, Error: 0.007891482510742997
Epoch: 9000, Error: 0.00801409237595525
Epoch: 9100, Error: 0.007844058972831707
Epoch: 9200, Error: 0.007926859089127094
Epoch: 9300, Error: 0.007996852063428454
Epoch: 9400, Error: 0.00792398350209485
Epoch: 9500, Error: 0.0086006891482478
Epoch: 9600, Error: 0.0075856090852656705
Epoch: 9700, Error: 0.007477082352458592
Epoch: 9800, Error: 0.0076351632753191186
Epoch: 9900, Error: 0.007559506259533285
Epoch: 10000, Error: 0.007486408210855926
Epoch: 10100, Error: 0.007508695561480684
Epoch: 10200, Error: 0.0076815567935614015
Epoch: 10300, Error: 0.007275035863514255
Epoch: 10400, Error: 0.007308433521737396
Epoch: 10500, Error: 0.007165326824711303
Epoch: 10600, Error: 0.006856210015555968
Epoch: 10700, Error: 0.006769839736632812
Epoch: 10800, Error: 0.006788930342872172
Epoch: 10900, Error: 0.007126142622694774
Epoch: 11000, Error: 0.006691515911556112
Epoch: 11100, Error: 0.006726291190051235
Epoch: 11200, Error: 0.006605667438616666
Epoch: 11300, Error: 0.00687474543135216
Epoch: 11400, Error: 0.006628820086317482
Epoch: 11500, Error: 0.006495942937610183
Epoch: 11600, Error: 0.006673558766811432
Epoch: 11700, Error: 0.00669363443043175
Epoch: 11800, Error: 0.0065273678499917515
Epoch: 11900, Error: 0.006344410087839957
Epoch: 12000, Error: 0.006355576929048736
Epoch: 12100, Error: 0.006121289368350363
Epoch: 12200, Error: 0.006322129897891491
Epoch: 12300, Error: 0.006014044077512369
Epoch: 12400, Error: 0.006015584784563679
Epoch: 12500, Error: 0.006104850291447052
Epoch: 12600, Error: 0.006225256341801676
Epoch: 12700, Error: 0.0061127956735911254
Epoch: 12800, Error: 0.00598539164447972
Epoch: 12900, Error: 0.006046707925137534
Epoch: 13000, Error: 0.006057361703758048
Epoch: 13100, Error: 0.006059379199202462
Epoch: 13200, Error: 0.0062010370203110015
Epoch: 13300, Error: 0.005737841666379173
Epoch: 13400, Error: 0.005923261910572921
Epoch: 13500, Error: 0.005830545073893666
Epoch: 13600, Error: 0.005944581394187355
Epoch: 13700, Error: 0.005932872466316537
Epoch: 13800, Error: 0.005625186625267842
Epoch: 13900, Error: 0.005763844041321433
Epoch: 14000, Error: 0.005746357878876849
Epoch: 14100, Error: 0.0058251630878073625
Epoch: 14200, Error: 0.005849627079545621
Epoch: 14300, Error: 0.005790918904594753
Epoch: 14400, Error: 0.005552229085701115
Epoch: 14500, Error: 0.005715528277970066
Epoch: 14600, Error: 0.0058241949887256755
Epoch: 14700, Error: 0.005636704763155729
Epoch: 14800, Error: 0.005726069793527495
Epoch: 14900, Error: 0.005654857311976412
Epoch: 15000, Error: 0.005459885538846429
Epoch: 15100, Error: 0.005640975313851153
Epoch: 15200, Error: 0.005615058380366063
Epoch: 15300, Error: 0.005452561022450272
Epoch: 15400, Error: 0.005470954171906511
Epoch: 15500, Error: 0.005388962051012824
Epoch: 15600, Error: 0.005271523342406932
Epoch: 15700, Error: 0.005320332987233477
Epoch: 15800, Error: 0.005394348215832462
Epoch: 15900, Error: 0.005450507236623572
Epoch: 16000, Error: 0.005235080543698215
Epoch: 16100, Error: 0.00523220230625194
Epoch: 16200, Error: 0.005164965847764507
Epoch: 16300, Error: 0.005114177102984
Epoch: 16400, Error: 0.005096054481166947
Epoch: 16500, Error: 0.004896620735061357
Epoch: 16600, Error: 0.005080081169470735
Epoch: 16700, Error: 0.005035828955328612
Epoch: 16800, Error: 0.004771794110682775
Epoch: 16900, Error: 0.004757800545565628
Epoch: 17000, Error: 0.005169642177905341
Epoch: 17100, Error: 0.0049140954408399455
Epoch: 17200, Error: 0.00489352986156431
Epoch: 17300, Error: 0.00471018982397723
Epoch: 17400, Error: 0.004640030013423002
Epoch: 17500, Error: 0.004625875084838581
Epoch: 17600, Error: 0.004486157820670623
Epoch: 17700, Error: 0.004267366011568333
Epoch: 17800, Error: 0.004158043203170928
Epoch: 17900, Error: 0.003904777686369603
Epoch: 18000, Error: 0.003797175209010319
Epoch: 18100, Error: 0.004549146348409924
Epoch: 18200, Error: 0.003660028639467539
Epoch: 18300, Error: 0.0042561060320020615
Epoch: 18400, Error: 0.0033398598391221443
Epoch: 18500, Error: 0.0035226467165479112
Epoch: 18600, Error: 0.0034835826826868535
Epoch: 18700, Error: 0.004142246497197727
Epoch: 18800, Error: 0.0036930565995512855
Epoch: 18900, Error: 0.0027175056937267235
Epoch: 19000, Error: 0.003167330393684206
Epoch: 19100, Error: 0.002498082830033518
Epoch: 19200, Error: 0.0033589988992211934
Epoch: 19300, Error: 0.00438235506010638
Epoch: 19400, Error: 0.0029801204290098525
Epoch: 19500, Error: 0.0031431452242611626
Epoch: 19600, Error: 0.0018551649256684552
Epoch: 19700, Error: 0.002321847465959203
Epoch: 19800, Error: 0.0023102776740972237
Epoch: 19900, Error: 0.0016658552174334158
Epoch: 20000, Error: 0.001509487296352732
Epoch: 20100, Error: 0.001915110530971473
Epoch: 20200, Error: 0.0013122146231081952
Epoch: 20300, Error: 0.0021909068602881418
Epoch: 20400, Error: 0.001598359013370745
Epoch: 20500, Error: 0.0010501683820659804
Epoch: 20600, Error: 0.0010202279600832504
Epoch: 20700, Error: 0.0010806316701085354
Epoch: 20800, Error: 0.0011424977362718618
Epoch: 20900, Error: 0.0011030314044897303
Epoch: 21000, Error: 7.859963719043934E-4
Epoch: 21100, Error: 0.0010915995525855122
Epoch: 21200, Error: 6.999399206968854E-4
Epoch: 21300, Error: 6.778083330832252E-4
Epoch: 21400, Error: 0.001146736051544766
Epoch: 21500, Error: 6.075282075857187E-4
Epoch: 21600, Error: 6.526664572670418E-4
Epoch: 21700, Error: 6.205905328449742E-4
Epoch: 21800, Error: 5.395792863521388E-4
Epoch: 21900, Error: 5.510276733556459E-4
Epoch: 22000, Error: 5.248637685412475E-4
Epoch: 22100, Error: 5.35297617607275E-4
Epoch: 22200, Error: 6.2352591009215E-4
Epoch: 22300, Error: 4.888313267899792E-4
Epoch: 22400, Error: 5.290372091873642E-4
Epoch: 22500, Error: 5.451758121964727E-4
Epoch: 22600, Error: 4.5699644688631044E-4
Epoch: 22700, Error: 4.5435958107313697E-4
Epoch: 22800, Error: 4.4748236280117796E-4
Epoch: 22900, Error: 4.427306727091669E-4
Epoch: 23000, Error: 4.3122149087525627E-4
Epoch: 23100, Error: 4.258391656686691E-4
Epoch: 23200, Error: 3.996159123106307E-4
Epoch: 23300, Error: 3.995390225323122E-4
Epoch: 23400, Error: 4.121575280289477E-4
Epoch: 23500, Error: 4.238320381070641E-4
Epoch: 23600, Error: 4.2953965903711654E-4
Epoch: 23700, Error: 4.1605412270085556E-4
Epoch: 23800, Error: 4.664912013077472E-4
Epoch: 23900, Error: 4.231277753798635E-4
Epoch: 24000, Error: 4.169000033555823E-4
Epoch: 24100, Error: 4.141529803893474E-4
Epoch: 24200, Error: 4.1660390164489485E-4
Epoch: 24300, Error: 4.0783791318038567E-4
Epoch: 24400, Error: 4.107100057596539E-4
Epoch: 24500, Error: 3.8184844154862737E-4
Epoch: 24600, Error: 3.585522136430437E-4
Epoch: 24700, Error: 3.55082964175479E-4
Epoch: 24800, Error: 3.364947635974226E-4
Epoch: 24900, Error: 3.530088169413201E-4
Epoch: 25000, Error: 3.702763207473548E-4
Epoch: 25100, Error: 4.0144222759134866E-4
Epoch: 25200, Error: 3.860956203313212E-4
Epoch: 25300, Error: 4.0284041975294433E-4
Epoch: 25400, Error: 3.725037722373046E-4
Epoch: 25500, Error: 3.580921674109861E-4
Epoch: 25600, Error: 3.664500110407386E-4
Epoch: 25700, Error: 3.93010849454395E-4
Epoch: 25800, Error: 3.4932049598563665E-4
Epoch: 25900, Error: 3.5617664524243044E-4
Finished
