Input Patterns
0.224 0.624 0.067 0.043 
0.11 0.502 0.051 0.043 
0.196 0.667 0.067 0.043 
0.055 0.584 0.067 0.082 
0.027 0.376 0.067 0.043 
0.306 0.71 0.086 0.043 
0.137 0.416 0.067 0.0 
0.416 0.831 0.035 0.043 
0.306 0.792 0.051 0.125 
0.388 0.749 0.118 0.082 
0.306 0.584 0.118 0.043 
0.082 0.667 0.0 0.043 
0.137 0.584 0.153 0.043 
0.196 0.584 0.102 0.125 
0.251 0.584 0.067 0.043 
0.137 0.459 0.102 0.043 
0.251 0.875 0.086 0.0 
0.165 0.459 0.086 0.043 
0.333 0.624 0.051 0.043 
0.027 0.416 0.051 0.043 
0.196 0.624 0.051 0.082 
0.027 0.502 0.051 0.043 
0.224 0.749 0.153 0.125 
0.224 0.749 0.102 0.043 
0.278 0.71 0.086 0.043 
0.165 0.416 0.067 0.043 
0.082 0.459 0.086 0.043 
0.306 0.792 0.118 0.125 
0.196 0.584 0.086 0.043 
0.165 0.459 0.086 0.0 
0.137 0.584 0.102 0.043 
0.0 0.416 0.016 0.0 
0.388 1.0 0.086 0.125 
0.224 0.624 0.067 0.082 
0.224 0.749 0.086 0.082 
0.224 0.71 0.086 0.125 
0.224 0.541 0.118 0.165 
0.196 0.416 0.102 0.043 
0.251 0.624 0.086 0.043 
0.11 0.502 0.102 0.043 
0.306 0.584 0.086 0.125 
0.333 0.918 0.067 0.043 
0.196 0.502 0.035 0.043 
0.165 0.667 0.067 0.0 
0.224 0.584 0.086 0.043 
0.055 0.125 0.051 0.082 
0.196 0.624 0.102 0.208 
0.137 0.416 0.067 0.082 
0.082 0.502 0.067 0.043 
0.196 0.541 0.067 0.043 
0.749 0.502 0.627 0.541 
0.722 0.459 0.663 0.584 
0.612 0.333 0.612 0.584 
0.557 0.541 0.627 0.624 
0.639 0.376 0.612 0.498 
0.196 0.0 0.424 0.376 
0.471 0.082 0.51 0.376 
0.361 0.376 0.439 0.498 
0.361 0.416 0.592 0.584 
0.529 0.082 0.592 0.584 
0.443 0.502 0.643 0.459 
0.557 0.208 0.663 0.584 
0.584 0.376 0.561 0.498 
0.694 0.333 0.643 0.541 
0.471 0.376 0.592 0.584 
0.333 0.169 0.475 0.416 
0.416 0.29 0.49 0.459 
0.306 0.416 0.592 0.584 
0.667 0.459 0.627 0.584 
0.361 0.416 0.525 0.498 
0.333 0.251 0.576 0.459 
0.416 0.251 0.51 0.459 
0.361 0.29 0.541 0.498 
0.388 0.376 0.541 0.498 
0.224 0.208 0.337 0.416 
0.584 0.502 0.592 0.584 
0.333 0.125 0.51 0.498 
0.388 0.333 0.592 0.498 
0.165 0.169 0.388 0.376 
0.251 0.29 0.49 0.541 
0.443 0.416 0.541 0.584 
0.498 0.376 0.627 0.541 
0.667 0.459 0.576 0.541 
0.416 0.29 0.525 0.376 
0.361 0.208 0.49 0.416 
0.498 0.333 0.51 0.498 
0.498 0.333 0.627 0.459 
0.639 0.416 0.576 0.541 
0.667 0.416 0.678 0.667 
0.388 0.251 0.424 0.376 
0.333 0.169 0.459 0.376 
0.471 0.29 0.694 0.624 
0.471 0.584 0.592 0.624 
0.557 0.125 0.576 0.498 
0.333 0.208 0.51 0.498 
0.498 0.416 0.612 0.541 
0.196 0.125 0.388 0.376 
0.388 0.416 0.541 0.459 
0.529 0.376 0.561 0.498 
0.388 0.333 0.525 0.498 
0.557 0.541 0.847 1.0 
0.776 0.416 0.831 0.831 
0.612 0.416 0.812 0.875 
0.165 0.208 0.592 0.667 
0.667 0.208 0.812 0.71 
0.612 0.502 0.694 0.792 
0.694 0.416 0.761 0.831 
0.416 0.333 0.694 0.957 
0.612 0.416 0.761 0.71 
0.945 0.251 1.0 0.918 
0.722 0.502 0.796 0.918 
0.945 0.333 0.965 0.792 
0.667 0.541 0.796 0.831 
0.529 0.333 0.643 0.71 
0.584 0.333 0.78 0.831 
0.863 0.333 0.863 0.749 
0.584 0.333 0.78 0.875 
0.498 0.251 0.78 0.541 
0.557 0.584 0.78 0.957 
0.471 0.416 0.643 0.71 
0.667 0.459 0.78 0.957 
0.416 0.29 0.694 0.749 
0.667 0.541 0.796 1.0 
0.557 0.208 0.678 0.749 
0.529 0.584 0.745 0.918 
0.416 0.29 0.694 0.749 
0.557 0.376 0.78 0.71 
0.918 0.416 0.949 0.831 
0.835 0.376 0.898 0.71 
0.804 0.667 0.863 1.0 
0.584 0.29 0.729 0.749 
0.388 0.208 0.678 0.792 
0.584 0.502 0.729 0.918 
0.945 0.749 0.965 0.875 
0.471 0.082 0.678 0.584 
0.361 0.333 0.663 0.792 
0.557 0.29 0.663 0.71 
0.804 0.502 0.847 0.71 
0.498 0.416 0.51 0.71 
0.804 0.416 0.812 0.624 
1.0 0.749 0.914 0.792 
0.557 0.333 0.694 0.584 
0.945 0.416 0.863 0.918 
0.584 0.459 0.761 0.71 
0.722 0.459 0.745 0.831 
0.722 0.459 0.694 0.918 
0.694 0.502 0.831 0.918 
0.667 0.416 0.714 0.918 
0.612 0.416 0.714 0.792 
0.443 0.416 0.694 0.71 
Teaching Patterns
1.0 0.0 0.0 
1.0 0.0 0.0 
1.0 0.0 0.0 
1.0 0.0 0.0 
1.0 0.0 0.0 
1.0 0.0 0.0 
1.0 0.0 0.0 
1.0 0.0 0.0 
1.0 0.0 0.0 
1.0 0.0 0.0 
1.0 0.0 0.0 
1.0 0.0 0.0 
1.0 0.0 0.0 
1.0 0.0 0.0 
1.0 0.0 0.0 
1.0 0.0 0.0 
1.0 0.0 0.0 
1.0 0.0 0.0 
1.0 0.0 0.0 
1.0 0.0 0.0 
1.0 0.0 0.0 
1.0 0.0 0.0 
1.0 0.0 0.0 
1.0 0.0 0.0 
1.0 0.0 0.0 
1.0 0.0 0.0 
1.0 0.0 0.0 
1.0 0.0 0.0 
1.0 0.0 0.0 
1.0 0.0 0.0 
1.0 0.0 0.0 
1.0 0.0 0.0 
1.0 0.0 0.0 
1.0 0.0 0.0 
1.0 0.0 0.0 
1.0 0.0 0.0 
1.0 0.0 0.0 
1.0 0.0 0.0 
1.0 0.0 0.0 
1.0 0.0 0.0 
1.0 0.0 0.0 
1.0 0.0 0.0 
1.0 0.0 0.0 
1.0 0.0 0.0 
1.0 0.0 0.0 
1.0 0.0 0.0 
1.0 0.0 0.0 
1.0 0.0 0.0 
1.0 0.0 0.0 
1.0 0.0 0.0 
0.0 1.0 0.0 
0.0 1.0 0.0 
0.0 1.0 0.0 
0.0 1.0 0.0 
0.0 1.0 0.0 
0.0 1.0 0.0 
0.0 1.0 0.0 
0.0 1.0 0.0 
0.0 1.0 0.0 
0.0 1.0 0.0 
0.0 1.0 0.0 
0.0 1.0 0.0 
0.0 1.0 0.0 
0.0 1.0 0.0 
0.0 1.0 0.0 
0.0 1.0 0.0 
0.0 1.0 0.0 
0.0 1.0 0.0 
0.0 1.0 0.0 
0.0 1.0 0.0 
0.0 1.0 0.0 
0.0 1.0 0.0 
0.0 1.0 0.0 
0.0 1.0 0.0 
0.0 1.0 0.0 
0.0 1.0 0.0 
0.0 1.0 0.0 
0.0 1.0 0.0 
0.0 1.0 0.0 
0.0 1.0 0.0 
0.0 1.0 0.0 
0.0 1.0 0.0 
0.0 1.0 0.0 
0.0 1.0 0.0 
0.0 1.0 0.0 
0.0 1.0 0.0 
0.0 1.0 0.0 
0.0 1.0 0.0 
0.0 1.0 0.0 
0.0 1.0 0.0 
0.0 1.0 0.0 
0.0 1.0 0.0 
0.0 1.0 0.0 
0.0 1.0 0.0 
0.0 1.0 0.0 
0.0 1.0 0.0 
0.0 1.0 0.0 
0.0 1.0 0.0 
0.0 1.0 0.0 
0.0 1.0 0.0 
0.0 0.0 1.0 
0.0 0.0 1.0 
0.0 0.0 1.0 
0.0 0.0 1.0 
0.0 0.0 1.0 
0.0 0.0 1.0 
0.0 0.0 1.0 
0.0 0.0 1.0 
0.0 0.0 1.0 
0.0 0.0 1.0 
0.0 0.0 1.0 
0.0 0.0 1.0 
0.0 0.0 1.0 
0.0 0.0 1.0 
0.0 0.0 1.0 
0.0 0.0 1.0 
0.0 0.0 1.0 
0.0 0.0 1.0 
0.0 0.0 1.0 
0.0 0.0 1.0 
0.0 0.0 1.0 
0.0 0.0 1.0 
0.0 0.0 1.0 
0.0 0.0 1.0 
0.0 0.0 1.0 
0.0 0.0 1.0 
0.0 0.0 1.0 
0.0 0.0 1.0 
0.0 0.0 1.0 
0.0 0.0 1.0 
0.0 0.0 1.0 
0.0 0.0 1.0 
0.0 0.0 1.0 
0.0 0.0 1.0 
0.0 0.0 1.0 
0.0 0.0 1.0 
0.0 0.0 1.0 
0.0 0.0 1.0 
0.0 0.0 1.0 
0.0 0.0 1.0 
0.0 0.0 1.0 
0.0 0.0 1.0 
0.0 0.0 1.0 
0.0 0.0 1.0 
0.0 0.0 1.0 
0.0 0.0 1.0 
0.0 0.0 1.0 
0.0 0.0 1.0 
0.0 0.0 1.0 
0.0 0.0 1.0 
Learning : 0.30000001192092896
Momentum : 0.9
Epoch: 100, Error: 0.016834120302735844
Epoch: 200, Error: 0.01360466529618611
Epoch: 300, Error: 0.013548071102985483
Epoch: 400, Error: 0.012201903316557109
Epoch: 500, Error: 0.011923395460462456
Epoch: 600, Error: 0.013102698364166228
Epoch: 700, Error: 0.01275547555015978
Epoch: 800, Error: 0.011838395731599918
Epoch: 900, Error: 0.012228983504231777
Epoch: 1000, Error: 0.011806171602077418
Epoch: 1100, Error: 0.011931050288106603
Epoch: 1200, Error: 0.013064726354176194
Epoch: 1300, Error: 0.011863148741762043
Epoch: 1400, Error: 0.01201108877607777
Epoch: 1500, Error: 0.011727920889065331
Epoch: 1600, Error: 0.012043053784045254
Epoch: 1700, Error: 0.011648831828782027
Epoch: 1800, Error: 0.011731427522364458
Epoch: 1900, Error: 0.011802378597945206
Epoch: 2000, Error: 0.012578746033780314
Epoch: 2100, Error: 0.012345791209689202
Epoch: 2200, Error: 0.011661520224812004
Epoch: 2300, Error: 0.011649875091669024
Epoch: 2400, Error: 0.011737186309904805
Epoch: 2500, Error: 0.01157068313112841
Epoch: 2600, Error: 0.011707053485840254
Epoch: 2700, Error: 0.011810663834329075
Epoch: 2800, Error: 0.012003857586292634
Epoch: 2900, Error: 0.01165775340572366
Epoch: 3000, Error: 0.011566181809240565
Epoch: 3100, Error: 0.011770649762083219
Epoch: 3200, Error: 0.011499528364765026
Epoch: 3300, Error: 0.011295352236096054
Epoch: 3400, Error: 0.011295795598468921
Epoch: 3500, Error: 0.011645116664619317
Epoch: 3600, Error: 0.011235594701683706
Epoch: 3700, Error: 0.011174806814161619
Epoch: 3800, Error: 0.01096618651585334
Epoch: 3900, Error: 0.010811212499771888
Epoch: 4000, Error: 0.01077129599825424
Epoch: 4100, Error: 0.010630511370146938
Epoch: 4200, Error: 0.010568218307786701
Epoch: 4300, Error: 0.01040014921783651
Epoch: 4400, Error: 0.01019468681027495
Epoch: 4500, Error: 0.010023762736657739
Epoch: 4600, Error: 0.009829893387989183
Epoch: 4700, Error: 0.009583044884912942
Epoch: 4800, Error: 0.009263116195242914
Epoch: 4900, Error: 0.00931877303098991
Epoch: 5000, Error: 0.008641731616050797
Epoch: 5100, Error: 0.008409579579995554
Epoch: 5200, Error: 0.00823132300383474
Epoch: 5300, Error: 0.008098137938922386
Epoch: 5400, Error: 0.007701106404116632
Epoch: 5500, Error: 0.007669382696227866
Epoch: 5600, Error: 0.007856038148047464
Epoch: 5700, Error: 0.008469407536583562
Epoch: 5800, Error: 0.0069648470488571255
Epoch: 5900, Error: 0.0068480314096042855
Epoch: 6000, Error: 0.006722516310979366
Epoch: 6100, Error: 0.006962042292826678
Epoch: 6200, Error: 0.006729395261539643
Epoch: 6300, Error: 0.00649127966960083
Epoch: 6400, Error: 0.006206209144425304
Epoch: 6500, Error: 0.006048648207595844
Epoch: 6600, Error: 0.006799915954863251
Epoch: 6700, Error: 0.005749462173803082
Epoch: 6800, Error: 0.005664845738176457
Epoch: 6900, Error: 0.005620416710554422
Epoch: 7000, Error: 0.005598670808940286
Epoch: 7100, Error: 0.005392569472663344
Epoch: 7200, Error: 0.005673423322596517
Epoch: 7300, Error: 0.00543206124961709
Epoch: 7400, Error: 0.005318193715743921
Epoch: 7500, Error: 0.0054952675869128715
Epoch: 7600, Error: 0.005404465853945227
Epoch: 7700, Error: 0.005366851083121678
Epoch: 7800, Error: 0.005372111441080421
Epoch: 7900, Error: 0.0052817161542181605
Epoch: 8000, Error: 0.005266418409860484
Epoch: 8100, Error: 0.0052448161026202025
Epoch: 8200, Error: 0.005220553459254277
Epoch: 8300, Error: 0.005198410853936083
Epoch: 8400, Error: 0.005271307545055414
Epoch: 8500, Error: 0.0052434256773560145
Epoch: 8600, Error: 0.005191312577378519
Epoch: 8700, Error: 0.005182050473766966
Epoch: 8800, Error: 0.005236016457247095
Epoch: 8900, Error: 0.00517669921532061
Epoch: 9000, Error: 0.005164768031672304
Epoch: 9100, Error: 0.005150491859144199
Epoch: 9200, Error: 0.005120262997688274
Epoch: 9300, Error: 0.005301090504037142
Epoch: 9400, Error: 0.005126520215360957
Epoch: 9500, Error: 0.005131055144485654
Epoch: 9600, Error: 0.005131301236687044
Epoch: 9700, Error: 0.005132485401951389
Epoch: 9800, Error: 0.005134927551395517
Epoch: 9900, Error: 0.005129951762566271
Epoch: 10000, Error: 0.005156427942781601
Epoch: 10100, Error: 0.005104187837883737
Epoch: 10200, Error: 0.005124270028706211
Epoch: 10300, Error: 0.005246456323928847
Epoch: 10400, Error: 0.005257853842870047
Epoch: 10500, Error: 0.0052494128904025565
Epoch: 10600, Error: 0.00525025666999989
Epoch: 10700, Error: 0.005256987528054242
Epoch: 10800, Error: 0.005223373972712734
Epoch: 10900, Error: 0.005245046946035821
Epoch: 11000, Error: 0.005233893435077274
Epoch: 11100, Error: 0.005243706432411586
Epoch: 11200, Error: 0.005222533938150026
Epoch: 11300, Error: 0.005211309704136291
Finished
