Input Patterns
0.224 0.624 0.067 0.043 
0.11 0.502 0.051 0.043 
0.196 0.667 0.067 0.043 
0.055 0.584 0.067 0.082 
0.027 0.376 0.067 0.043 
0.306 0.71 0.086 0.043 
0.137 0.416 0.067 0.0 
0.416 0.831 0.035 0.043 
0.306 0.792 0.051 0.125 
0.388 0.749 0.118 0.082 
0.306 0.584 0.118 0.043 
0.082 0.667 0.0 0.043 
0.137 0.584 0.153 0.043 
0.196 0.584 0.102 0.125 
0.251 0.584 0.067 0.043 
0.137 0.459 0.102 0.043 
0.251 0.875 0.086 0.0 
0.165 0.459 0.086 0.043 
0.333 0.624 0.051 0.043 
0.027 0.416 0.051 0.043 
0.196 0.624 0.051 0.082 
0.027 0.502 0.051 0.043 
0.224 0.749 0.153 0.125 
0.224 0.749 0.102 0.043 
0.278 0.71 0.086 0.043 
0.165 0.416 0.067 0.043 
0.082 0.459 0.086 0.043 
0.306 0.792 0.118 0.125 
0.196 0.584 0.086 0.043 
0.165 0.459 0.086 0.0 
0.137 0.584 0.102 0.043 
0.0 0.416 0.016 0.0 
0.388 1.0 0.086 0.125 
0.224 0.624 0.067 0.082 
0.224 0.749 0.086 0.082 
0.224 0.71 0.086 0.125 
0.224 0.541 0.118 0.165 
0.196 0.416 0.102 0.043 
0.251 0.624 0.086 0.043 
0.11 0.502 0.102 0.043 
0.306 0.584 0.086 0.125 
0.333 0.918 0.067 0.043 
0.196 0.502 0.035 0.043 
0.165 0.667 0.067 0.0 
0.224 0.584 0.086 0.043 
0.055 0.125 0.051 0.082 
0.196 0.624 0.102 0.208 
0.137 0.416 0.067 0.082 
0.082 0.502 0.067 0.043 
0.196 0.541 0.067 0.043 
0.749 0.502 0.627 0.541 
0.722 0.459 0.663 0.584 
0.612 0.333 0.612 0.584 
0.557 0.541 0.627 0.624 
0.639 0.376 0.612 0.498 
0.196 0.0 0.424 0.376 
0.471 0.082 0.51 0.376 
0.361 0.376 0.439 0.498 
0.361 0.416 0.592 0.584 
0.529 0.082 0.592 0.584 
0.443 0.502 0.643 0.459 
0.557 0.208 0.663 0.584 
0.584 0.376 0.561 0.498 
0.694 0.333 0.643 0.541 
0.471 0.376 0.592 0.584 
0.333 0.169 0.475 0.416 
0.416 0.29 0.49 0.459 
0.306 0.416 0.592 0.584 
0.667 0.459 0.627 0.584 
0.361 0.416 0.525 0.498 
0.333 0.251 0.576 0.459 
0.416 0.251 0.51 0.459 
0.361 0.29 0.541 0.498 
0.388 0.376 0.541 0.498 
0.224 0.208 0.337 0.416 
0.584 0.502 0.592 0.584 
0.333 0.125 0.51 0.498 
0.388 0.333 0.592 0.498 
0.165 0.169 0.388 0.376 
0.251 0.29 0.49 0.541 
0.443 0.416 0.541 0.584 
0.498 0.376 0.627 0.541 
0.667 0.459 0.576 0.541 
0.416 0.29 0.525 0.376 
0.361 0.208 0.49 0.416 
0.498 0.333 0.51 0.498 
0.498 0.333 0.627 0.459 
0.639 0.416 0.576 0.541 
0.667 0.416 0.678 0.667 
0.388 0.251 0.424 0.376 
0.333 0.169 0.459 0.376 
0.471 0.29 0.694 0.624 
0.471 0.584 0.592 0.624 
0.557 0.125 0.576 0.498 
0.333 0.208 0.51 0.498 
0.498 0.416 0.612 0.541 
0.196 0.125 0.388 0.376 
0.388 0.416 0.541 0.459 
0.529 0.376 0.561 0.498 
0.388 0.333 0.525 0.498 
0.557 0.541 0.847 1.0 
0.776 0.416 0.831 0.831 
0.612 0.416 0.812 0.875 
0.165 0.208 0.592 0.667 
0.667 0.208 0.812 0.71 
0.612 0.502 0.694 0.792 
0.694 0.416 0.761 0.831 
0.416 0.333 0.694 0.957 
0.612 0.416 0.761 0.71 
0.945 0.251 1.0 0.918 
0.722 0.502 0.796 0.918 
0.945 0.333 0.965 0.792 
0.667 0.541 0.796 0.831 
0.529 0.333 0.643 0.71 
0.584 0.333 0.78 0.831 
0.863 0.333 0.863 0.749 
0.584 0.333 0.78 0.875 
0.498 0.251 0.78 0.541 
0.557 0.584 0.78 0.957 
0.471 0.416 0.643 0.71 
0.667 0.459 0.78 0.957 
0.416 0.29 0.694 0.749 
0.667 0.541 0.796 1.0 
0.557 0.208 0.678 0.749 
0.529 0.584 0.745 0.918 
0.416 0.29 0.694 0.749 
0.557 0.376 0.78 0.71 
0.918 0.416 0.949 0.831 
0.835 0.376 0.898 0.71 
0.804 0.667 0.863 1.0 
0.584 0.29 0.729 0.749 
0.388 0.208 0.678 0.792 
0.584 0.502 0.729 0.918 
0.945 0.749 0.965 0.875 
0.471 0.082 0.678 0.584 
0.361 0.333 0.663 0.792 
0.557 0.29 0.663 0.71 
0.804 0.502 0.847 0.71 
0.498 0.416 0.51 0.71 
0.804 0.416 0.812 0.624 
1.0 0.749 0.914 0.792 
0.557 0.333 0.694 0.584 
0.945 0.416 0.863 0.918 
0.584 0.459 0.761 0.71 
0.722 0.459 0.745 0.831 
0.722 0.459 0.694 0.918 
0.694 0.502 0.831 0.918 
0.667 0.416 0.714 0.918 
0.612 0.416 0.714 0.792 
0.443 0.416 0.694 0.71 
Teaching Patterns
1.0 0.0 0.0 
1.0 0.0 0.0 
1.0 0.0 0.0 
1.0 0.0 0.0 
1.0 0.0 0.0 
1.0 0.0 0.0 
1.0 0.0 0.0 
1.0 0.0 0.0 
1.0 0.0 0.0 
1.0 0.0 0.0 
1.0 0.0 0.0 
1.0 0.0 0.0 
1.0 0.0 0.0 
1.0 0.0 0.0 
1.0 0.0 0.0 
1.0 0.0 0.0 
1.0 0.0 0.0 
1.0 0.0 0.0 
1.0 0.0 0.0 
1.0 0.0 0.0 
1.0 0.0 0.0 
1.0 0.0 0.0 
1.0 0.0 0.0 
1.0 0.0 0.0 
1.0 0.0 0.0 
1.0 0.0 0.0 
1.0 0.0 0.0 
1.0 0.0 0.0 
1.0 0.0 0.0 
1.0 0.0 0.0 
1.0 0.0 0.0 
1.0 0.0 0.0 
1.0 0.0 0.0 
1.0 0.0 0.0 
1.0 0.0 0.0 
1.0 0.0 0.0 
1.0 0.0 0.0 
1.0 0.0 0.0 
1.0 0.0 0.0 
1.0 0.0 0.0 
1.0 0.0 0.0 
1.0 0.0 0.0 
1.0 0.0 0.0 
1.0 0.0 0.0 
1.0 0.0 0.0 
1.0 0.0 0.0 
1.0 0.0 0.0 
1.0 0.0 0.0 
1.0 0.0 0.0 
1.0 0.0 0.0 
0.0 1.0 0.0 
0.0 1.0 0.0 
0.0 1.0 0.0 
0.0 1.0 0.0 
0.0 1.0 0.0 
0.0 1.0 0.0 
0.0 1.0 0.0 
0.0 1.0 0.0 
0.0 1.0 0.0 
0.0 1.0 0.0 
0.0 1.0 0.0 
0.0 1.0 0.0 
0.0 1.0 0.0 
0.0 1.0 0.0 
0.0 1.0 0.0 
0.0 1.0 0.0 
0.0 1.0 0.0 
0.0 1.0 0.0 
0.0 1.0 0.0 
0.0 1.0 0.0 
0.0 1.0 0.0 
0.0 1.0 0.0 
0.0 1.0 0.0 
0.0 1.0 0.0 
0.0 1.0 0.0 
0.0 1.0 0.0 
0.0 1.0 0.0 
0.0 1.0 0.0 
0.0 1.0 0.0 
0.0 1.0 0.0 
0.0 1.0 0.0 
0.0 1.0 0.0 
0.0 1.0 0.0 
0.0 1.0 0.0 
0.0 1.0 0.0 
0.0 1.0 0.0 
0.0 1.0 0.0 
0.0 1.0 0.0 
0.0 1.0 0.0 
0.0 1.0 0.0 
0.0 1.0 0.0 
0.0 1.0 0.0 
0.0 1.0 0.0 
0.0 1.0 0.0 
0.0 1.0 0.0 
0.0 1.0 0.0 
0.0 1.0 0.0 
0.0 1.0 0.0 
0.0 1.0 0.0 
0.0 1.0 0.0 
0.0 0.0 1.0 
0.0 0.0 1.0 
0.0 0.0 1.0 
0.0 0.0 1.0 
0.0 0.0 1.0 
0.0 0.0 1.0 
0.0 0.0 1.0 
0.0 0.0 1.0 
0.0 0.0 1.0 
0.0 0.0 1.0 
0.0 0.0 1.0 
0.0 0.0 1.0 
0.0 0.0 1.0 
0.0 0.0 1.0 
0.0 0.0 1.0 
0.0 0.0 1.0 
0.0 0.0 1.0 
0.0 0.0 1.0 
0.0 0.0 1.0 
0.0 0.0 1.0 
0.0 0.0 1.0 
0.0 0.0 1.0 
0.0 0.0 1.0 
0.0 0.0 1.0 
0.0 0.0 1.0 
0.0 0.0 1.0 
0.0 0.0 1.0 
0.0 0.0 1.0 
0.0 0.0 1.0 
0.0 0.0 1.0 
0.0 0.0 1.0 
0.0 0.0 1.0 
0.0 0.0 1.0 
0.0 0.0 1.0 
0.0 0.0 1.0 
0.0 0.0 1.0 
0.0 0.0 1.0 
0.0 0.0 1.0 
0.0 0.0 1.0 
0.0 0.0 1.0 
0.0 0.0 1.0 
0.0 0.0 1.0 
0.0 0.0 1.0 
0.0 0.0 1.0 
0.0 0.0 1.0 
0.0 0.0 1.0 
0.0 0.0 1.0 
0.0 0.0 1.0 
0.0 0.0 1.0 
0.0 0.0 1.0 
Learning : 0.30000001192092896
Momentum : 0.9
Epoch: 100, Error: 0.015115969142285985
Epoch: 200, Error: 0.013575645415595666
Epoch: 300, Error: 0.01548702404061597
Epoch: 400, Error: 0.01322811362865212
Epoch: 500, Error: 0.01365741808495381
Epoch: 600, Error: 0.012393040887235206
Epoch: 700, Error: 0.012014782694701184
Epoch: 800, Error: 0.011917237032192484
Epoch: 900, Error: 0.012688916765960508
Epoch: 1000, Error: 0.012012706730711914
Epoch: 1100, Error: 0.012086105051797127
Epoch: 1200, Error: 0.012622724304359281
Epoch: 1300, Error: 0.012311054108680908
Epoch: 1400, Error: 0.012124129344979114
Epoch: 1500, Error: 0.012109797688729608
Epoch: 1600, Error: 0.012268275026794064
Epoch: 1700, Error: 0.012285560059567435
Epoch: 1800, Error: 0.012670543478112879
Epoch: 1900, Error: 0.012005611679846194
Epoch: 2000, Error: 0.013395123808520074
Epoch: 2100, Error: 0.011874487862240182
Epoch: 2200, Error: 0.01218973635773843
Epoch: 2300, Error: 0.011799131572710885
Epoch: 2400, Error: 0.012120777913867235
Epoch: 2500, Error: 0.01164190371517357
Epoch: 2600, Error: 0.011956375208643082
Epoch: 2700, Error: 0.011599887583492459
Epoch: 2800, Error: 0.011428028967050443
Epoch: 2900, Error: 0.011260358312148602
Epoch: 3000, Error: 0.011090328924586442
Epoch: 3100, Error: 0.012056660043581146
Epoch: 3200, Error: 0.010473156417917712
Epoch: 3300, Error: 0.010156078590119934
Epoch: 3400, Error: 0.009316536019561422
Epoch: 3500, Error: 0.008488594151945675
Epoch: 3600, Error: 0.007999302060156149
Epoch: 3700, Error: 0.007665000504765572
Epoch: 3800, Error: 0.007140456787147015
Epoch: 3900, Error: 0.006848211283319859
Epoch: 4000, Error: 0.007051420017120323
Epoch: 4100, Error: 0.006450642021129325
Epoch: 4200, Error: 0.006666053194517975
Epoch: 4300, Error: 0.006057336997017796
Epoch: 4400, Error: 0.005920090360723739
Epoch: 4500, Error: 0.005846065141496823
Epoch: 4600, Error: 0.005672065970883681
Epoch: 4700, Error: 0.005546038400916061
Epoch: 4800, Error: 0.005472812912092371
Epoch: 4900, Error: 0.0053732126948330934
Epoch: 5000, Error: 0.005350433181545222
Epoch: 5100, Error: 0.005310499955670989
Epoch: 5200, Error: 0.005256764410242802
Epoch: 5300, Error: 0.005222296901645227
Epoch: 5400, Error: 0.005264688430945646
Epoch: 5500, Error: 0.005189726643430376
Epoch: 5600, Error: 0.005183672835243565
Epoch: 5700, Error: 0.005210824059267183
Epoch: 5800, Error: 0.005153099161611485
Epoch: 5900, Error: 0.005148466713894847
Epoch: 6000, Error: 0.005137110664662094
Epoch: 6100, Error: 0.0051104607846536
Epoch: 6200, Error: 0.005104627334910108
Epoch: 6300, Error: 0.005081596003544536
Epoch: 6400, Error: 0.005071438226473456
Epoch: 6500, Error: 0.005080838582183528
Epoch: 6600, Error: 0.00507854885188338
Epoch: 6700, Error: 0.0050485523027398145
Epoch: 6800, Error: 0.005040485259459071
Epoch: 6900, Error: 0.005037384212982224
Epoch: 7000, Error: 0.005054087331684856
Epoch: 7100, Error: 0.005017838251937834
Epoch: 7200, Error: 0.005004805158879132
Epoch: 7300, Error: 0.004994623777538538
Epoch: 7400, Error: 0.005054747801923523
Epoch: 7500, Error: 0.004980015873931854
Epoch: 7600, Error: 0.004972264225578252
Epoch: 7700, Error: 0.004962925716484993
Epoch: 7800, Error: 0.004947069200438577
Epoch: 7900, Error: 0.0049592483780520995
Epoch: 8000, Error: 0.0049359473354818485
Epoch: 8100, Error: 0.004906036573460172
Epoch: 8200, Error: 0.004913152323125254
Epoch: 8300, Error: 0.004890872919849961
Epoch: 8400, Error: 0.004879165690348883
Epoch: 8500, Error: 0.004868823536361854
Epoch: 8600, Error: 0.00485950640858582
Epoch: 8700, Error: 0.0048748795735288454
Epoch: 8800, Error: 0.004829701972726008
Epoch: 8900, Error: 0.004800762102964885
Epoch: 9000, Error: 0.004803801092728331
Epoch: 9100, Error: 0.004776974827407245
Epoch: 9200, Error: 0.00483550451065104
Epoch: 9300, Error: 0.004832222342568916
Epoch: 9400, Error: 0.004744975425734521
Epoch: 9500, Error: 0.004733742618931389
Epoch: 9600, Error: 0.00474124879321968
Epoch: 9700, Error: 0.004646441713586285
Epoch: 9800, Error: 0.004717564245215021
Epoch: 9900, Error: 0.004714641432083832
Epoch: 10000, Error: 0.004583135568962253
Epoch: 10100, Error: 0.004509041965788497
Epoch: 10200, Error: 0.004645788276787461
Epoch: 10300, Error: 0.004501980438228737
Epoch: 10400, Error: 0.004595324021733548
Epoch: 10500, Error: 0.004517772577624991
Epoch: 10600, Error: 0.004423215552240903
Epoch: 10700, Error: 0.004355585266281843
Epoch: 10800, Error: 0.004330149348016659
Epoch: 10900, Error: 0.004436606990142878
Epoch: 11000, Error: 0.004165443590980561
Epoch: 11100, Error: 0.004104740342478181
Epoch: 11200, Error: 0.004114883514378336
Epoch: 11300, Error: 0.0038412510601378465
Epoch: 11400, Error: 0.003949705777554656
Epoch: 11500, Error: 0.003691579578334114
Epoch: 11600, Error: 0.003988987011842159
Epoch: 11700, Error: 0.0035072596859918054
Epoch: 11800, Error: 0.0038172097500835524
Epoch: 11900, Error: 0.003547321450313837
Epoch: 12000, Error: 0.003312812507122608
Epoch: 12100, Error: 0.0031696514808746646
Epoch: 12200, Error: 0.0037446933991670474
Epoch: 12300, Error: 0.0035393372856496147
Epoch: 12400, Error: 0.002744686027003826
Epoch: 12500, Error: 0.0027852323607740247
Epoch: 12600, Error: 0.0030454212234039637
Epoch: 12700, Error: 0.0029329816209243327
Epoch: 12800, Error: 0.0022512313600384667
Epoch: 12900, Error: 0.0029051440970439754
Epoch: 13000, Error: 0.004562159742621666
Epoch: 13100, Error: 0.0019289357628814383
Epoch: 13200, Error: 0.0022203320127273133
Epoch: 13300, Error: 0.002682310643240384
Epoch: 13400, Error: 0.0017139093487325257
Epoch: 13500, Error: 0.0032131696054263454
Epoch: 13600, Error: 0.0034042129949165344
Epoch: 13700, Error: 0.0026534194877087464
Epoch: 13800, Error: 0.0020827945486008546
Epoch: 13900, Error: 0.0033607777745162633
Epoch: 14000, Error: 0.001641861233576577
Epoch: 14100, Error: 0.0021703748834019806
Epoch: 14200, Error: 0.002476194547333069
Epoch: 14300, Error: 0.0012638052116140854
Epoch: 14400, Error: 0.0026921509300105915
Epoch: 14500, Error: 0.0013293610795212386
Epoch: 14600, Error: 0.0014773213080605352
Epoch: 14700, Error: 0.0015212402273366793
Epoch: 14800, Error: 0.0015691049291826956
Epoch: 14900, Error: 0.0013896635850736312
Epoch: 15000, Error: 0.0012642261061003254
Epoch: 15100, Error: 0.0011464127952397522
Epoch: 15200, Error: 0.001162731324476392
Epoch: 15300, Error: 0.0013367475417237773
Epoch: 15400, Error: 0.0014083964315311352
Epoch: 15500, Error: 0.0012645178182540632
Epoch: 15600, Error: 0.0015354348888363368
Epoch: 15700, Error: 0.0014383499315379386
Epoch: 15800, Error: 0.001160716108052679
Epoch: 15900, Error: 0.001121649756987665
Epoch: 16000, Error: 0.0012090849811389472
Epoch: 16100, Error: 0.0011973512839027016
Epoch: 16200, Error: 0.0012322080239766163
Epoch: 16300, Error: 0.0010982075945958378
Epoch: 16400, Error: 0.0011212068381750582
Epoch: 16500, Error: 0.001099676532392018
Epoch: 16600, Error: 0.0011077987700397415
Epoch: 16700, Error: 0.0011380691346242037
Epoch: 16800, Error: 0.0011235901639899946
Epoch: 16900, Error: 0.0011195675017539504
Epoch: 17000, Error: 0.0011127722757945063
Epoch: 17100, Error: 0.0010990475281080771
Epoch: 17200, Error: 0.0011274188158105628
Epoch: 17300, Error: 0.0012026882881776824
Epoch: 17400, Error: 0.0010754026724428994
Epoch: 17500, Error: 0.0010797836049723207
Epoch: 17600, Error: 0.0010576160828990096
Epoch: 17700, Error: 0.0010663617069757308
Epoch: 17800, Error: 0.0011050184218153517
Epoch: 17900, Error: 0.0010879452964521993
Epoch: 18000, Error: 0.001100465972189252
Epoch: 18100, Error: 0.0011032001496848578
Epoch: 18200, Error: 0.0011249078191926856
Epoch: 18300, Error: 0.0010866952718082724
Epoch: 18400, Error: 0.0010944522368014293
Epoch: 18500, Error: 0.0010776831693634387
Epoch: 18600, Error: 0.0010954969158557884
Epoch: 18700, Error: 0.0011007768032567204
Epoch: 18800, Error: 0.0010974220529727445
Epoch: 18900, Error: 0.0010512125838092337
Epoch: 19000, Error: 0.0010416608137681332
Epoch: 19100, Error: 0.0010695864237472293
Epoch: 19200, Error: 0.00107770329323867
Epoch: 19300, Error: 0.0010629015784432714
Epoch: 19400, Error: 0.0010718488030675905
Epoch: 19500, Error: 0.0010409462478578083
Epoch: 19600, Error: 0.0010528460035561299
Epoch: 19700, Error: 0.0010355421536616589
Epoch: 19800, Error: 0.0010538768652185316
Epoch: 19900, Error: 0.0010452515883063434
Finished
