Input Patterns
0.224 0.624 0.067 0.043 
0.11 0.502 0.051 0.043 
0.196 0.667 0.067 0.043 
0.055 0.584 0.067 0.082 
0.027 0.376 0.067 0.043 
0.306 0.71 0.086 0.043 
0.137 0.416 0.067 0.0 
0.416 0.831 0.035 0.043 
0.306 0.792 0.051 0.125 
0.388 0.749 0.118 0.082 
0.306 0.584 0.118 0.043 
0.082 0.667 0.0 0.043 
0.137 0.584 0.153 0.043 
0.196 0.584 0.102 0.125 
0.251 0.584 0.067 0.043 
0.137 0.459 0.102 0.043 
0.251 0.875 0.086 0.0 
0.165 0.459 0.086 0.043 
0.333 0.624 0.051 0.043 
0.027 0.416 0.051 0.043 
0.196 0.624 0.051 0.082 
0.027 0.502 0.051 0.043 
0.224 0.749 0.153 0.125 
0.224 0.749 0.102 0.043 
0.278 0.71 0.086 0.043 
0.165 0.416 0.067 0.043 
0.082 0.459 0.086 0.043 
0.306 0.792 0.118 0.125 
0.196 0.584 0.086 0.043 
0.165 0.459 0.086 0.0 
0.137 0.584 0.102 0.043 
0.0 0.416 0.016 0.0 
0.388 1.0 0.086 0.125 
0.224 0.624 0.067 0.082 
0.224 0.749 0.086 0.082 
0.224 0.71 0.086 0.125 
0.224 0.541 0.118 0.165 
0.196 0.416 0.102 0.043 
0.251 0.624 0.086 0.043 
0.11 0.502 0.102 0.043 
0.306 0.584 0.086 0.125 
0.333 0.918 0.067 0.043 
0.196 0.502 0.035 0.043 
0.165 0.667 0.067 0.0 
0.224 0.584 0.086 0.043 
0.055 0.125 0.051 0.082 
0.196 0.624 0.102 0.208 
0.137 0.416 0.067 0.082 
0.082 0.502 0.067 0.043 
0.196 0.541 0.067 0.043 
0.749 0.502 0.627 0.541 
0.722 0.459 0.663 0.584 
0.612 0.333 0.612 0.584 
0.557 0.541 0.627 0.624 
0.639 0.376 0.612 0.498 
0.196 0.0 0.424 0.376 
0.471 0.082 0.51 0.376 
0.361 0.376 0.439 0.498 
0.361 0.416 0.592 0.584 
0.529 0.082 0.592 0.584 
0.443 0.502 0.643 0.459 
0.557 0.208 0.663 0.584 
0.584 0.376 0.561 0.498 
0.694 0.333 0.643 0.541 
0.471 0.376 0.592 0.584 
0.333 0.169 0.475 0.416 
0.416 0.29 0.49 0.459 
0.306 0.416 0.592 0.584 
0.667 0.459 0.627 0.584 
0.361 0.416 0.525 0.498 
0.333 0.251 0.576 0.459 
0.416 0.251 0.51 0.459 
0.361 0.29 0.541 0.498 
0.388 0.376 0.541 0.498 
0.224 0.208 0.337 0.416 
0.584 0.502 0.592 0.584 
0.333 0.125 0.51 0.498 
0.388 0.333 0.592 0.498 
0.165 0.169 0.388 0.376 
0.251 0.29 0.49 0.541 
0.443 0.416 0.541 0.584 
0.498 0.376 0.627 0.541 
0.667 0.459 0.576 0.541 
0.416 0.29 0.525 0.376 
0.361 0.208 0.49 0.416 
0.498 0.333 0.51 0.498 
0.498 0.333 0.627 0.459 
0.639 0.416 0.576 0.541 
0.667 0.416 0.678 0.667 
0.388 0.251 0.424 0.376 
0.333 0.169 0.459 0.376 
0.471 0.29 0.694 0.624 
0.471 0.584 0.592 0.624 
0.557 0.125 0.576 0.498 
0.333 0.208 0.51 0.498 
0.498 0.416 0.612 0.541 
0.196 0.125 0.388 0.376 
0.388 0.416 0.541 0.459 
0.529 0.376 0.561 0.498 
0.388 0.333 0.525 0.498 
0.557 0.541 0.847 1.0 
0.776 0.416 0.831 0.831 
0.612 0.416 0.812 0.875 
0.165 0.208 0.592 0.667 
0.667 0.208 0.812 0.71 
0.612 0.502 0.694 0.792 
0.694 0.416 0.761 0.831 
0.416 0.333 0.694 0.957 
0.612 0.416 0.761 0.71 
0.945 0.251 1.0 0.918 
0.722 0.502 0.796 0.918 
0.945 0.333 0.965 0.792 
0.667 0.541 0.796 0.831 
0.529 0.333 0.643 0.71 
0.584 0.333 0.78 0.831 
0.863 0.333 0.863 0.749 
0.584 0.333 0.78 0.875 
0.498 0.251 0.78 0.541 
0.557 0.584 0.78 0.957 
0.471 0.416 0.643 0.71 
0.667 0.459 0.78 0.957 
0.416 0.29 0.694 0.749 
0.667 0.541 0.796 1.0 
0.557 0.208 0.678 0.749 
0.529 0.584 0.745 0.918 
0.416 0.29 0.694 0.749 
0.557 0.376 0.78 0.71 
0.918 0.416 0.949 0.831 
0.835 0.376 0.898 0.71 
0.804 0.667 0.863 1.0 
0.584 0.29 0.729 0.749 
0.388 0.208 0.678 0.792 
0.584 0.502 0.729 0.918 
0.945 0.749 0.965 0.875 
0.471 0.082 0.678 0.584 
0.361 0.333 0.663 0.792 
0.557 0.29 0.663 0.71 
0.804 0.502 0.847 0.71 
0.498 0.416 0.51 0.71 
0.804 0.416 0.812 0.624 
1.0 0.749 0.914 0.792 
0.557 0.333 0.694 0.584 
0.945 0.416 0.863 0.918 
0.584 0.459 0.761 0.71 
0.722 0.459 0.745 0.831 
0.722 0.459 0.694 0.918 
0.694 0.502 0.831 0.918 
0.667 0.416 0.714 0.918 
0.612 0.416 0.714 0.792 
0.443 0.416 0.694 0.71 
Teaching Patterns
1.0 0.0 0.0 
1.0 0.0 0.0 
1.0 0.0 0.0 
1.0 0.0 0.0 
1.0 0.0 0.0 
1.0 0.0 0.0 
1.0 0.0 0.0 
1.0 0.0 0.0 
1.0 0.0 0.0 
1.0 0.0 0.0 
1.0 0.0 0.0 
1.0 0.0 0.0 
1.0 0.0 0.0 
1.0 0.0 0.0 
1.0 0.0 0.0 
1.0 0.0 0.0 
1.0 0.0 0.0 
1.0 0.0 0.0 
1.0 0.0 0.0 
1.0 0.0 0.0 
1.0 0.0 0.0 
1.0 0.0 0.0 
1.0 0.0 0.0 
1.0 0.0 0.0 
1.0 0.0 0.0 
1.0 0.0 0.0 
1.0 0.0 0.0 
1.0 0.0 0.0 
1.0 0.0 0.0 
1.0 0.0 0.0 
1.0 0.0 0.0 
1.0 0.0 0.0 
1.0 0.0 0.0 
1.0 0.0 0.0 
1.0 0.0 0.0 
1.0 0.0 0.0 
1.0 0.0 0.0 
1.0 0.0 0.0 
1.0 0.0 0.0 
1.0 0.0 0.0 
1.0 0.0 0.0 
1.0 0.0 0.0 
1.0 0.0 0.0 
1.0 0.0 0.0 
1.0 0.0 0.0 
1.0 0.0 0.0 
1.0 0.0 0.0 
1.0 0.0 0.0 
1.0 0.0 0.0 
1.0 0.0 0.0 
0.0 1.0 0.0 
0.0 1.0 0.0 
0.0 1.0 0.0 
0.0 1.0 0.0 
0.0 1.0 0.0 
0.0 1.0 0.0 
0.0 1.0 0.0 
0.0 1.0 0.0 
0.0 1.0 0.0 
0.0 1.0 0.0 
0.0 1.0 0.0 
0.0 1.0 0.0 
0.0 1.0 0.0 
0.0 1.0 0.0 
0.0 1.0 0.0 
0.0 1.0 0.0 
0.0 1.0 0.0 
0.0 1.0 0.0 
0.0 1.0 0.0 
0.0 1.0 0.0 
0.0 1.0 0.0 
0.0 1.0 0.0 
0.0 1.0 0.0 
0.0 1.0 0.0 
0.0 1.0 0.0 
0.0 1.0 0.0 
0.0 1.0 0.0 
0.0 1.0 0.0 
0.0 1.0 0.0 
0.0 1.0 0.0 
0.0 1.0 0.0 
0.0 1.0 0.0 
0.0 1.0 0.0 
0.0 1.0 0.0 
0.0 1.0 0.0 
0.0 1.0 0.0 
0.0 1.0 0.0 
0.0 1.0 0.0 
0.0 1.0 0.0 
0.0 1.0 0.0 
0.0 1.0 0.0 
0.0 1.0 0.0 
0.0 1.0 0.0 
0.0 1.0 0.0 
0.0 1.0 0.0 
0.0 1.0 0.0 
0.0 1.0 0.0 
0.0 1.0 0.0 
0.0 1.0 0.0 
0.0 1.0 0.0 
0.0 0.0 1.0 
0.0 0.0 1.0 
0.0 0.0 1.0 
0.0 0.0 1.0 
0.0 0.0 1.0 
0.0 0.0 1.0 
0.0 0.0 1.0 
0.0 0.0 1.0 
0.0 0.0 1.0 
0.0 0.0 1.0 
0.0 0.0 1.0 
0.0 0.0 1.0 
0.0 0.0 1.0 
0.0 0.0 1.0 
0.0 0.0 1.0 
0.0 0.0 1.0 
0.0 0.0 1.0 
0.0 0.0 1.0 
0.0 0.0 1.0 
0.0 0.0 1.0 
0.0 0.0 1.0 
0.0 0.0 1.0 
0.0 0.0 1.0 
0.0 0.0 1.0 
0.0 0.0 1.0 
0.0 0.0 1.0 
0.0 0.0 1.0 
0.0 0.0 1.0 
0.0 0.0 1.0 
0.0 0.0 1.0 
0.0 0.0 1.0 
0.0 0.0 1.0 
0.0 0.0 1.0 
0.0 0.0 1.0 
0.0 0.0 1.0 
0.0 0.0 1.0 
0.0 0.0 1.0 
0.0 0.0 1.0 
0.0 0.0 1.0 
0.0 0.0 1.0 
0.0 0.0 1.0 
0.0 0.0 1.0 
0.0 0.0 1.0 
0.0 0.0 1.0 
0.0 0.0 1.0 
0.0 0.0 1.0 
0.0 0.0 1.0 
0.0 0.0 1.0 
0.0 0.0 1.0 
0.0 0.0 1.0 
Learning : 0.30000001192092896
Momentum : 0.9
Epoch: 100, Error: 0.014454256079229847
Epoch: 200, Error: 0.012371198813102613
Epoch: 300, Error: 0.015490350030625065
Epoch: 400, Error: 0.012450870048665087
Epoch: 500, Error: 0.011941682185685636
Epoch: 600, Error: 0.01190299645089318
Epoch: 700, Error: 0.012229268522159331
Epoch: 800, Error: 0.013855807985949811
Epoch: 900, Error: 0.015342657480604538
Epoch: 1000, Error: 0.012270062075800685
Epoch: 1100, Error: 0.011930907078317227
Epoch: 1200, Error: 0.011905256000943302
Epoch: 1300, Error: 0.012526335176357506
Epoch: 1400, Error: 0.012110096212312571
Epoch: 1500, Error: 0.011904476229613251
Epoch: 1600, Error: 0.014776132500189217
Epoch: 1700, Error: 0.012880235180392456
Epoch: 1800, Error: 0.012098406617896181
Epoch: 1900, Error: 0.012360667664021677
Epoch: 2000, Error: 0.011830569667532398
Epoch: 2100, Error: 0.011822490105243375
Epoch: 2200, Error: 0.011995673180549187
Epoch: 2300, Error: 0.011756188013520241
Epoch: 2400, Error: 0.012497708099506413
Epoch: 2500, Error: 0.012094051789077118
Epoch: 2600, Error: 0.011739488423101357
Epoch: 2700, Error: 0.011464592336166417
Epoch: 2800, Error: 0.011363166900903431
Epoch: 2900, Error: 0.01132198683216562
Epoch: 3000, Error: 0.011523649802131879
Epoch: 3100, Error: 0.011166616599758789
Epoch: 3200, Error: 0.010615233600265095
Epoch: 3300, Error: 0.010261037973125928
Epoch: 3400, Error: 0.010793874587379824
Epoch: 3500, Error: 0.009092896219416332
Epoch: 3600, Error: 0.00859414884325659
Epoch: 3700, Error: 0.008045598009812723
Epoch: 3800, Error: 0.007588275758860598
Epoch: 3900, Error: 0.00799478455380307
Epoch: 4000, Error: 0.006833256927206503
Epoch: 4100, Error: 0.0066957062844669605
Epoch: 4200, Error: 0.006354851569039554
Epoch: 4300, Error: 0.006273438732794095
Epoch: 4400, Error: 0.006143318417684056
Epoch: 4500, Error: 0.006004558331133046
Epoch: 4600, Error: 0.006020882128542459
Epoch: 4700, Error: 0.005884905622333717
Epoch: 4800, Error: 0.0060052531635157586
Epoch: 4900, Error: 0.005880567516358146
Epoch: 5000, Error: 0.005757759059998322
Epoch: 5100, Error: 0.005814760218318333
Epoch: 5200, Error: 0.005726689767542517
Epoch: 5300, Error: 0.005754729502213576
Epoch: 5400, Error: 0.005781579874697111
Epoch: 5500, Error: 0.0057730671493646
Epoch: 5600, Error: 0.005791480722505983
Epoch: 5700, Error: 0.005857906315304226
Epoch: 5800, Error: 0.00579757683911837
Epoch: 5900, Error: 0.005822604044519456
Epoch: 6000, Error: 0.005785753686385059
Epoch: 6100, Error: 0.00578325380107214
Epoch: 6200, Error: 0.005852170179522663
Epoch: 6300, Error: 0.005791639952801834
Epoch: 6400, Error: 0.005732472463157694
Epoch: 6500, Error: 0.005804388676959888
Epoch: 6600, Error: 0.0058249234499800065
Epoch: 6700, Error: 0.005756225953964762
Epoch: 6800, Error: 0.005708515113983414
Epoch: 6900, Error: 0.005770735501794073
Epoch: 7000, Error: 0.005726282011155468
Epoch: 7100, Error: 0.005730002233363887
Epoch: 7200, Error: 0.005717028567312037
Epoch: 7300, Error: 0.0057060766920233544
Epoch: 7400, Error: 0.005733008406341876
Epoch: 7500, Error: 0.005707258490386971
Epoch: 7600, Error: 0.0056858261858378
Epoch: 7700, Error: 0.005686901198044582
Epoch: 7800, Error: 0.005609435673623622
Epoch: 7900, Error: 0.005589484362526789
Epoch: 8000, Error: 0.005562404324255966
Epoch: 8100, Error: 0.005589466840899421
Epoch: 8200, Error: 0.005528817393634026
Epoch: 8300, Error: 0.005460120462801467
Epoch: 8400, Error: 0.005421756285896279
Epoch: 8500, Error: 0.005380032688601491
Epoch: 8600, Error: 0.005391594091501565
Epoch: 8700, Error: 0.005389596881623847
Epoch: 8800, Error: 0.005383659184172606
Epoch: 8900, Error: 0.0053483660255766955
Epoch: 9000, Error: 0.005347008908363842
Epoch: 9100, Error: 0.0053404034159814685
Epoch: 9200, Error: 0.0053414959408371425
Epoch: 9300, Error: 0.0052931773781937095
Epoch: 9400, Error: 0.005289283331205659
Epoch: 9500, Error: 0.005275903624769156
Epoch: 9600, Error: 0.005241461102842929
Epoch: 9700, Error: 0.005194777443917428
Epoch: 9800, Error: 0.005182904618579606
Epoch: 9900, Error: 0.0051386085837619175
Epoch: 10000, Error: 0.005133928747936281
Epoch: 10100, Error: 0.0050994384257545215
Epoch: 10200, Error: 0.0051049159952791575
Epoch: 10300, Error: 0.0050875823197189295
Epoch: 10400, Error: 0.005057928563198441
Epoch: 10500, Error: 0.004980832806568905
Epoch: 10600, Error: 0.00489343137557508
Epoch: 10700, Error: 0.004854322178674993
Epoch: 10800, Error: 0.004803339884536658
Epoch: 10900, Error: 0.004740915423824458
Epoch: 11000, Error: 0.004626393579432664
Epoch: 11100, Error: 0.004621903696847343
Epoch: 11200, Error: 0.004611614287563626
Epoch: 11300, Error: 0.004515676290647522
Epoch: 11400, Error: 0.004481400235347701
Epoch: 11500, Error: 0.0045382179720831525
Epoch: 11600, Error: 0.004434768922324895
Epoch: 11700, Error: 0.004296430095858153
Epoch: 11800, Error: 0.004253820679412632
Epoch: 11900, Error: 0.004263136525455674
Epoch: 12000, Error: 0.004057245999923512
Epoch: 12100, Error: 0.00403213889158577
Epoch: 12200, Error: 0.004037927074192737
Epoch: 12300, Error: 0.0042224246911199
Epoch: 12400, Error: 0.0037502753271213955
Epoch: 12500, Error: 0.00361346775680903
Epoch: 12600, Error: 0.004166553424112514
Epoch: 12700, Error: 0.003793202931672345
Epoch: 12800, Error: 0.005009094255535384
Epoch: 12900, Error: 0.003808883802866129
Epoch: 13000, Error: 0.003506421220008005
Epoch: 13100, Error: 0.003229296982041808
Epoch: 13200, Error: 0.0042743373512660705
Epoch: 13300, Error: 0.003037315715336584
Epoch: 13400, Error: 0.00515004659732049
Epoch: 13500, Error: 0.00282848107887063
Epoch: 13600, Error: 0.002561571030184622
Epoch: 13700, Error: 0.0024731488331803148
Epoch: 13800, Error: 0.0026983182094612868
Epoch: 13900, Error: 0.002448661499388063
Epoch: 14000, Error: 0.0026012396916350925
Epoch: 14100, Error: 0.0023323172366382008
Epoch: 14200, Error: 0.003227444321626015
Epoch: 14300, Error: 0.0024379575704570325
Epoch: 14400, Error: 0.0028021859131555837
Epoch: 14500, Error: 0.0026243704214780252
Epoch: 14600, Error: 0.003520770869672941
Epoch: 14700, Error: 0.002258635526612118
Epoch: 14800, Error: 0.0028412104035727957
Epoch: 14900, Error: 0.0035235237747985497
Epoch: 15000, Error: 0.003355395142882921
Epoch: 15100, Error: 0.0010862358263267423
Epoch: 15200, Error: 0.0019589515557985517
Epoch: 15300, Error: 0.0010033245839483145
Epoch: 15400, Error: 0.0010457023091921108
Epoch: 15500, Error: 0.0011832291501436543
Epoch: 15600, Error: 0.0016340061925250158
Epoch: 15700, Error: 7.957839524691868E-4
Epoch: 15800, Error: 0.0015207337616987596
Epoch: 15900, Error: 0.0012644438426223515
Epoch: 16000, Error: 7.939234154482876E-4
Epoch: 16100, Error: 7.711979314864356E-4
Epoch: 16200, Error: 6.834178165072512E-4
Epoch: 16300, Error: 8.998390583076796E-4
Epoch: 16400, Error: 0.0017829048343191772
Epoch: 16500, Error: 6.195843557076015E-4
Epoch: 16600, Error: 6.00711013759383E-4
Epoch: 16700, Error: 6.870992185214374E-4
Epoch: 16800, Error: 6.009273394471066E-4
Epoch: 16900, Error: 5.74248938308454E-4
Epoch: 17000, Error: 5.555681106698613E-4
Epoch: 17100, Error: 5.928177212374556E-4
Epoch: 17200, Error: 6.322503824404123E-4
Epoch: 17300, Error: 6.78740369620929E-4
Epoch: 17400, Error: 5.792621863172397E-4
Epoch: 17500, Error: 5.078431740863418E-4
Epoch: 17600, Error: 5.552503001291418E-4
Epoch: 17700, Error: 5.229482345733187E-4
Epoch: 17800, Error: 5.132636965556005E-4
Epoch: 17900, Error: 5.706760827532272E-4
Epoch: 18000, Error: 5.309564970551422E-4
Epoch: 18100, Error: 4.8096853765932664E-4
Epoch: 18200, Error: 5.297036544516437E-4
Epoch: 18300, Error: 5.983965966538549E-4
Epoch: 18400, Error: 5.563065642197896E-4
Epoch: 18500, Error: 4.698112378871469E-4
Epoch: 18600, Error: 4.8763150781500406E-4
Epoch: 18700, Error: 4.842944357079918E-4
Epoch: 18800, Error: 4.8188823286883113E-4
Epoch: 18900, Error: 4.622142202296379E-4
Epoch: 19000, Error: 5.198396011557213E-4
Epoch: 19100, Error: 4.3851121604611025E-4
Epoch: 19200, Error: 4.997467780497536E-4
Epoch: 19300, Error: 5.270546892089724E-4
Epoch: 19400, Error: 4.7878725057091845E-4
Epoch: 19500, Error: 5.018153268746358E-4
Epoch: 19600, Error: 4.7078253698179133E-4
Epoch: 19700, Error: 6.040986494243771E-4
Epoch: 19800, Error: 4.636236309647623E-4
Epoch: 19900, Error: 4.615459090888191E-4
Epoch: 20000, Error: 4.654029119905598E-4
Epoch: 20100, Error: 4.3933304662270177E-4
Epoch: 20200, Error: 4.069465404730483E-4
Epoch: 20300, Error: 3.9889026838811045E-4
Epoch: 20400, Error: 4.316860075339856E-4
Epoch: 20500, Error: 4.1610554884412255E-4
Epoch: 20600, Error: 4.1125544070838577E-4
Epoch: 20700, Error: 4.0612427665175966E-4
Epoch: 20800, Error: 4.198076422049673E-4
Epoch: 20900, Error: 3.9988360586965286E-4
Epoch: 21000, Error: 4.1125190622295606E-4
Epoch: 21100, Error: 3.652114146932383E-4
Epoch: 21200, Error: 3.6901371068288424E-4
Epoch: 21300, Error: 3.6286880921763417E-4
Epoch: 21400, Error: 3.574004187882466E-4
Epoch: 21500, Error: 3.548291287879045E-4
Epoch: 21600, Error: 3.635553373154631E-4
Epoch: 21700, Error: 3.7224024123708627E-4
Epoch: 21800, Error: 3.656916965145643E-4
Epoch: 21900, Error: 3.659386272969245E-4
Epoch: 22000, Error: 3.624825630082407E-4
Epoch: 22100, Error: 3.890490761372235E-4
Epoch: 22200, Error: 3.8120675666412256E-4
Epoch: 22300, Error: 3.838470046814081E-4
Epoch: 22400, Error: 3.769109101532555E-4
Epoch: 22500, Error: 3.710025016669071E-4
Finished
