Input Patterns
0.224 0.624 0.067 0.043 
0.11 0.502 0.051 0.043 
0.196 0.667 0.067 0.043 
0.055 0.584 0.067 0.082 
0.027 0.376 0.067 0.043 
0.306 0.71 0.086 0.043 
0.137 0.416 0.067 0.0 
0.416 0.831 0.035 0.043 
0.306 0.792 0.051 0.125 
0.388 0.749 0.118 0.082 
0.306 0.584 0.118 0.043 
0.082 0.667 0.0 0.043 
0.137 0.584 0.153 0.043 
0.196 0.584 0.102 0.125 
0.251 0.584 0.067 0.043 
0.137 0.459 0.102 0.043 
0.251 0.875 0.086 0.0 
0.165 0.459 0.086 0.043 
0.333 0.624 0.051 0.043 
0.027 0.416 0.051 0.043 
0.196 0.624 0.051 0.082 
0.027 0.502 0.051 0.043 
0.224 0.749 0.153 0.125 
0.224 0.749 0.102 0.043 
0.278 0.71 0.086 0.043 
0.165 0.416 0.067 0.043 
0.082 0.459 0.086 0.043 
0.306 0.792 0.118 0.125 
0.196 0.584 0.086 0.043 
0.165 0.459 0.086 0.0 
0.137 0.584 0.102 0.043 
0.0 0.416 0.016 0.0 
0.388 1.0 0.086 0.125 
0.224 0.624 0.067 0.082 
0.224 0.749 0.086 0.082 
0.224 0.71 0.086 0.125 
0.224 0.541 0.118 0.165 
0.196 0.416 0.102 0.043 
0.251 0.624 0.086 0.043 
0.11 0.502 0.102 0.043 
0.306 0.584 0.086 0.125 
0.333 0.918 0.067 0.043 
0.196 0.502 0.035 0.043 
0.165 0.667 0.067 0.0 
0.224 0.584 0.086 0.043 
0.055 0.125 0.051 0.082 
0.196 0.624 0.102 0.208 
0.137 0.416 0.067 0.082 
0.082 0.502 0.067 0.043 
0.196 0.541 0.067 0.043 
0.749 0.502 0.627 0.541 
0.722 0.459 0.663 0.584 
0.612 0.333 0.612 0.584 
0.557 0.541 0.627 0.624 
0.639 0.376 0.612 0.498 
0.196 0.0 0.424 0.376 
0.471 0.082 0.51 0.376 
0.361 0.376 0.439 0.498 
0.361 0.416 0.592 0.584 
0.529 0.082 0.592 0.584 
0.443 0.502 0.643 0.459 
0.557 0.208 0.663 0.584 
0.584 0.376 0.561 0.498 
0.694 0.333 0.643 0.541 
0.471 0.376 0.592 0.584 
0.333 0.169 0.475 0.416 
0.416 0.29 0.49 0.459 
0.306 0.416 0.592 0.584 
0.667 0.459 0.627 0.584 
0.361 0.416 0.525 0.498 
0.333 0.251 0.576 0.459 
0.416 0.251 0.51 0.459 
0.361 0.29 0.541 0.498 
0.388 0.376 0.541 0.498 
0.224 0.208 0.337 0.416 
0.584 0.502 0.592 0.584 
0.333 0.125 0.51 0.498 
0.388 0.333 0.592 0.498 
0.165 0.169 0.388 0.376 
0.251 0.29 0.49 0.541 
0.443 0.416 0.541 0.584 
0.498 0.376 0.627 0.541 
0.667 0.459 0.576 0.541 
0.416 0.29 0.525 0.376 
0.361 0.208 0.49 0.416 
0.498 0.333 0.51 0.498 
0.498 0.333 0.627 0.459 
0.639 0.416 0.576 0.541 
0.667 0.416 0.678 0.667 
0.388 0.251 0.424 0.376 
0.333 0.169 0.459 0.376 
0.471 0.29 0.694 0.624 
0.471 0.584 0.592 0.624 
0.557 0.125 0.576 0.498 
0.333 0.208 0.51 0.498 
0.498 0.416 0.612 0.541 
0.196 0.125 0.388 0.376 
0.388 0.416 0.541 0.459 
0.529 0.376 0.561 0.498 
0.388 0.333 0.525 0.498 
0.557 0.541 0.847 1.0 
0.776 0.416 0.831 0.831 
0.612 0.416 0.812 0.875 
0.165 0.208 0.592 0.667 
0.667 0.208 0.812 0.71 
0.612 0.502 0.694 0.792 
0.694 0.416 0.761 0.831 
0.416 0.333 0.694 0.957 
0.612 0.416 0.761 0.71 
0.945 0.251 1.0 0.918 
0.722 0.502 0.796 0.918 
0.945 0.333 0.965 0.792 
0.667 0.541 0.796 0.831 
0.529 0.333 0.643 0.71 
0.584 0.333 0.78 0.831 
0.863 0.333 0.863 0.749 
0.584 0.333 0.78 0.875 
0.498 0.251 0.78 0.541 
0.557 0.584 0.78 0.957 
0.471 0.416 0.643 0.71 
0.667 0.459 0.78 0.957 
0.416 0.29 0.694 0.749 
0.667 0.541 0.796 1.0 
0.557 0.208 0.678 0.749 
0.529 0.584 0.745 0.918 
0.416 0.29 0.694 0.749 
0.557 0.376 0.78 0.71 
0.918 0.416 0.949 0.831 
0.835 0.376 0.898 0.71 
0.804 0.667 0.863 1.0 
0.584 0.29 0.729 0.749 
0.388 0.208 0.678 0.792 
0.584 0.502 0.729 0.918 
0.945 0.749 0.965 0.875 
0.471 0.082 0.678 0.584 
0.361 0.333 0.663 0.792 
0.557 0.29 0.663 0.71 
0.804 0.502 0.847 0.71 
0.498 0.416 0.51 0.71 
0.804 0.416 0.812 0.624 
1.0 0.749 0.914 0.792 
0.557 0.333 0.694 0.584 
0.945 0.416 0.863 0.918 
0.584 0.459 0.761 0.71 
0.722 0.459 0.745 0.831 
0.722 0.459 0.694 0.918 
0.694 0.502 0.831 0.918 
0.667 0.416 0.714 0.918 
0.612 0.416 0.714 0.792 
0.443 0.416 0.694 0.71 
Teaching Patterns
1.0 0.0 0.0 
1.0 0.0 0.0 
1.0 0.0 0.0 
1.0 0.0 0.0 
1.0 0.0 0.0 
1.0 0.0 0.0 
1.0 0.0 0.0 
1.0 0.0 0.0 
1.0 0.0 0.0 
1.0 0.0 0.0 
1.0 0.0 0.0 
1.0 0.0 0.0 
1.0 0.0 0.0 
1.0 0.0 0.0 
1.0 0.0 0.0 
1.0 0.0 0.0 
1.0 0.0 0.0 
1.0 0.0 0.0 
1.0 0.0 0.0 
1.0 0.0 0.0 
1.0 0.0 0.0 
1.0 0.0 0.0 
1.0 0.0 0.0 
1.0 0.0 0.0 
1.0 0.0 0.0 
1.0 0.0 0.0 
1.0 0.0 0.0 
1.0 0.0 0.0 
1.0 0.0 0.0 
1.0 0.0 0.0 
1.0 0.0 0.0 
1.0 0.0 0.0 
1.0 0.0 0.0 
1.0 0.0 0.0 
1.0 0.0 0.0 
1.0 0.0 0.0 
1.0 0.0 0.0 
1.0 0.0 0.0 
1.0 0.0 0.0 
1.0 0.0 0.0 
1.0 0.0 0.0 
1.0 0.0 0.0 
1.0 0.0 0.0 
1.0 0.0 0.0 
1.0 0.0 0.0 
1.0 0.0 0.0 
1.0 0.0 0.0 
1.0 0.0 0.0 
1.0 0.0 0.0 
1.0 0.0 0.0 
0.0 1.0 0.0 
0.0 1.0 0.0 
0.0 1.0 0.0 
0.0 1.0 0.0 
0.0 1.0 0.0 
0.0 1.0 0.0 
0.0 1.0 0.0 
0.0 1.0 0.0 
0.0 1.0 0.0 
0.0 1.0 0.0 
0.0 1.0 0.0 
0.0 1.0 0.0 
0.0 1.0 0.0 
0.0 1.0 0.0 
0.0 1.0 0.0 
0.0 1.0 0.0 
0.0 1.0 0.0 
0.0 1.0 0.0 
0.0 1.0 0.0 
0.0 1.0 0.0 
0.0 1.0 0.0 
0.0 1.0 0.0 
0.0 1.0 0.0 
0.0 1.0 0.0 
0.0 1.0 0.0 
0.0 1.0 0.0 
0.0 1.0 0.0 
0.0 1.0 0.0 
0.0 1.0 0.0 
0.0 1.0 0.0 
0.0 1.0 0.0 
0.0 1.0 0.0 
0.0 1.0 0.0 
0.0 1.0 0.0 
0.0 1.0 0.0 
0.0 1.0 0.0 
0.0 1.0 0.0 
0.0 1.0 0.0 
0.0 1.0 0.0 
0.0 1.0 0.0 
0.0 1.0 0.0 
0.0 1.0 0.0 
0.0 1.0 0.0 
0.0 1.0 0.0 
0.0 1.0 0.0 
0.0 1.0 0.0 
0.0 1.0 0.0 
0.0 1.0 0.0 
0.0 1.0 0.0 
0.0 1.0 0.0 
0.0 0.0 1.0 
0.0 0.0 1.0 
0.0 0.0 1.0 
0.0 0.0 1.0 
0.0 0.0 1.0 
0.0 0.0 1.0 
0.0 0.0 1.0 
0.0 0.0 1.0 
0.0 0.0 1.0 
0.0 0.0 1.0 
0.0 0.0 1.0 
0.0 0.0 1.0 
0.0 0.0 1.0 
0.0 0.0 1.0 
0.0 0.0 1.0 
0.0 0.0 1.0 
0.0 0.0 1.0 
0.0 0.0 1.0 
0.0 0.0 1.0 
0.0 0.0 1.0 
0.0 0.0 1.0 
0.0 0.0 1.0 
0.0 0.0 1.0 
0.0 0.0 1.0 
0.0 0.0 1.0 
0.0 0.0 1.0 
0.0 0.0 1.0 
0.0 0.0 1.0 
0.0 0.0 1.0 
0.0 0.0 1.0 
0.0 0.0 1.0 
0.0 0.0 1.0 
0.0 0.0 1.0 
0.0 0.0 1.0 
0.0 0.0 1.0 
0.0 0.0 1.0 
0.0 0.0 1.0 
0.0 0.0 1.0 
0.0 0.0 1.0 
0.0 0.0 1.0 
0.0 0.0 1.0 
0.0 0.0 1.0 
0.0 0.0 1.0 
0.0 0.0 1.0 
0.0 0.0 1.0 
0.0 0.0 1.0 
0.0 0.0 1.0 
0.0 0.0 1.0 
0.0 0.0 1.0 
0.0 0.0 1.0 
Learning : 0.6000000238418579
Momentum : 0.9
Epoch: 100, Error: 0.016233913897897814
Epoch: 200, Error: 0.012073724124114142
Epoch: 300, Error: 0.01341873407143139
Epoch: 400, Error: 0.01283277675342499
Epoch: 500, Error: 0.013292589269075799
Epoch: 600, Error: 0.012490911224970003
Epoch: 700, Error: 0.012835212322096248
Epoch: 800, Error: 0.013098615005965052
Epoch: 900, Error: 0.01292182889656279
Epoch: 1000, Error: 0.013372584834020495
Epoch: 1100, Error: 0.01256503387912386
Epoch: 1200, Error: 0.014278365168877323
Epoch: 1300, Error: 0.012771055716184249
Epoch: 1400, Error: 0.012792723598106064
Epoch: 1500, Error: 0.013997602576115875
Epoch: 1600, Error: 0.012920436686293332
Epoch: 1700, Error: 0.012689206896901156
Epoch: 1800, Error: 0.013027009283207248
Epoch: 1900, Error: 0.012692029144013165
Epoch: 2000, Error: 0.01244726642295731
Epoch: 2100, Error: 0.01727819857725853
Epoch: 2200, Error: 0.012591360363029425
Epoch: 2300, Error: 0.01270170548080374
Epoch: 2400, Error: 0.011851855474141129
Epoch: 2500, Error: 0.012237003931804475
Epoch: 2600, Error: 0.012479586833627668
Epoch: 2700, Error: 0.011453547906602682
Epoch: 2800, Error: 0.012242807436603642
Epoch: 2900, Error: 0.013135993102029966
Epoch: 3000, Error: 0.011941269148775578
Epoch: 3100, Error: 0.012001918928646528
Epoch: 3200, Error: 0.012707703868681421
Epoch: 3300, Error: 0.011184730106211694
Epoch: 3400, Error: 0.010762433783682138
Epoch: 3500, Error: 0.01063073333693216
Epoch: 3600, Error: 0.010517145202987487
Epoch: 3700, Error: 0.010947943388467905
Epoch: 3800, Error: 0.010235526025677266
Epoch: 3900, Error: 0.011743494090751115
Epoch: 4000, Error: 0.009734230764744002
Epoch: 4100, Error: 0.00963881335221518
Epoch: 4200, Error: 0.0124803848360906
Epoch: 4300, Error: 0.011843405974064677
Epoch: 4400, Error: 0.010510712653454645
Epoch: 4500, Error: 0.009945157883253819
Epoch: 4600, Error: 0.008657168165394344
Epoch: 4700, Error: 0.008184468915830384
Epoch: 4800, Error: 0.007812259979148579
Epoch: 4900, Error: 0.011431320846284712
Epoch: 5000, Error: 0.007457356603026995
Epoch: 5100, Error: 0.007300641844978591
Epoch: 5200, Error: 0.008122994001648107
Epoch: 5300, Error: 0.00785776630875637
Epoch: 5400, Error: 0.007452549164416979
Epoch: 5500, Error: 0.006929382727921242
Epoch: 5600, Error: 0.007184898622975306
Epoch: 5700, Error: 0.006936964923443722
Epoch: 5800, Error: 0.006060626851069731
Epoch: 5900, Error: 0.00642689502005919
Epoch: 6000, Error: 0.006092705131249601
Epoch: 6100, Error: 0.005886582408572478
Epoch: 6200, Error: 0.0056929962441060675
Epoch: 6300, Error: 0.0055805851476166835
Epoch: 6400, Error: 0.005540946933458823
Epoch: 6500, Error: 0.00551481948202242
Epoch: 6600, Error: 0.005447249821464967
Epoch: 6700, Error: 0.005500393342314431
Epoch: 6800, Error: 0.005505297620424416
Epoch: 6900, Error: 0.005424825702652314
Epoch: 7000, Error: 0.005362980988247736
Epoch: 7100, Error: 0.005346065568878901
Epoch: 7200, Error: 0.005359485581463095
Epoch: 7300, Error: 0.005321847091321982
Epoch: 7400, Error: 0.005332539309687925
Epoch: 7500, Error: 0.0053827909747138445
Epoch: 7600, Error: 0.005396224741232509
Epoch: 7700, Error: 0.00537327134140133
Epoch: 7800, Error: 0.005312957510604417
Epoch: 7900, Error: 0.005316762615951256
Epoch: 8000, Error: 0.005351896320791091
Epoch: 8100, Error: 0.005328098800728722
Epoch: 8200, Error: 0.0053727718334053015
Epoch: 8300, Error: 0.00539154600972009
Epoch: 8400, Error: 0.0054287170885556745
Epoch: 8500, Error: 0.005340258156798198
Epoch: 8600, Error: 0.005234758935172626
Epoch: 8700, Error: 0.0051722554154568666
Epoch: 8800, Error: 0.005116824626118306
Epoch: 8900, Error: 0.005122417795482506
Epoch: 9000, Error: 0.005178069498120455
Epoch: 9100, Error: 0.005192642871603389
Epoch: 9200, Error: 0.00520410546502255
Epoch: 9300, Error: 0.00520808333847996
Epoch: 9400, Error: 0.005221287859842127
Epoch: 9500, Error: 0.0052350932123174515
Epoch: 9600, Error: 0.00524340192685996
Finished
