Input Patterns
0.224 0.624 0.067 0.043 
0.11 0.502 0.051 0.043 
0.196 0.667 0.067 0.043 
0.055 0.584 0.067 0.082 
0.027 0.376 0.067 0.043 
0.306 0.71 0.086 0.043 
0.137 0.416 0.067 0.0 
0.416 0.831 0.035 0.043 
0.306 0.792 0.051 0.125 
0.388 0.749 0.118 0.082 
0.306 0.584 0.118 0.043 
0.082 0.667 0.0 0.043 
0.137 0.584 0.153 0.043 
0.196 0.584 0.102 0.125 
0.251 0.584 0.067 0.043 
0.137 0.459 0.102 0.043 
0.251 0.875 0.086 0.0 
0.165 0.459 0.086 0.043 
0.333 0.624 0.051 0.043 
0.027 0.416 0.051 0.043 
0.196 0.624 0.051 0.082 
0.027 0.502 0.051 0.043 
0.224 0.749 0.153 0.125 
0.224 0.749 0.102 0.043 
0.278 0.71 0.086 0.043 
0.165 0.416 0.067 0.043 
0.082 0.459 0.086 0.043 
0.306 0.792 0.118 0.125 
0.196 0.584 0.086 0.043 
0.165 0.459 0.086 0.0 
0.137 0.584 0.102 0.043 
0.0 0.416 0.016 0.0 
0.388 1.0 0.086 0.125 
0.224 0.624 0.067 0.082 
0.224 0.749 0.086 0.082 
0.224 0.71 0.086 0.125 
0.224 0.541 0.118 0.165 
0.196 0.416 0.102 0.043 
0.251 0.624 0.086 0.043 
0.11 0.502 0.102 0.043 
0.306 0.584 0.086 0.125 
0.333 0.918 0.067 0.043 
0.196 0.502 0.035 0.043 
0.165 0.667 0.067 0.0 
0.224 0.584 0.086 0.043 
0.055 0.125 0.051 0.082 
0.196 0.624 0.102 0.208 
0.137 0.416 0.067 0.082 
0.082 0.502 0.067 0.043 
0.196 0.541 0.067 0.043 
0.749 0.502 0.627 0.541 
0.722 0.459 0.663 0.584 
0.612 0.333 0.612 0.584 
0.557 0.541 0.627 0.624 
0.639 0.376 0.612 0.498 
0.196 0.0 0.424 0.376 
0.471 0.082 0.51 0.376 
0.361 0.376 0.439 0.498 
0.361 0.416 0.592 0.584 
0.529 0.082 0.592 0.584 
0.443 0.502 0.643 0.459 
0.557 0.208 0.663 0.584 
0.584 0.376 0.561 0.498 
0.694 0.333 0.643 0.541 
0.471 0.376 0.592 0.584 
0.333 0.169 0.475 0.416 
0.416 0.29 0.49 0.459 
0.306 0.416 0.592 0.584 
0.667 0.459 0.627 0.584 
0.361 0.416 0.525 0.498 
0.333 0.251 0.576 0.459 
0.416 0.251 0.51 0.459 
0.361 0.29 0.541 0.498 
0.388 0.376 0.541 0.498 
0.224 0.208 0.337 0.416 
0.584 0.502 0.592 0.584 
0.333 0.125 0.51 0.498 
0.388 0.333 0.592 0.498 
0.165 0.169 0.388 0.376 
0.251 0.29 0.49 0.541 
0.443 0.416 0.541 0.584 
0.498 0.376 0.627 0.541 
0.667 0.459 0.576 0.541 
0.416 0.29 0.525 0.376 
0.361 0.208 0.49 0.416 
0.498 0.333 0.51 0.498 
0.498 0.333 0.627 0.459 
0.639 0.416 0.576 0.541 
0.667 0.416 0.678 0.667 
0.388 0.251 0.424 0.376 
0.333 0.169 0.459 0.376 
0.471 0.29 0.694 0.624 
0.471 0.584 0.592 0.624 
0.557 0.125 0.576 0.498 
0.333 0.208 0.51 0.498 
0.498 0.416 0.612 0.541 
0.196 0.125 0.388 0.376 
0.388 0.416 0.541 0.459 
0.529 0.376 0.561 0.498 
0.388 0.333 0.525 0.498 
0.557 0.541 0.847 1.0 
0.776 0.416 0.831 0.831 
0.612 0.416 0.812 0.875 
0.165 0.208 0.592 0.667 
0.667 0.208 0.812 0.71 
0.612 0.502 0.694 0.792 
0.694 0.416 0.761 0.831 
0.416 0.333 0.694 0.957 
0.612 0.416 0.761 0.71 
0.945 0.251 1.0 0.918 
0.722 0.502 0.796 0.918 
0.945 0.333 0.965 0.792 
0.667 0.541 0.796 0.831 
0.529 0.333 0.643 0.71 
0.584 0.333 0.78 0.831 
0.863 0.333 0.863 0.749 
0.584 0.333 0.78 0.875 
0.498 0.251 0.78 0.541 
0.557 0.584 0.78 0.957 
0.471 0.416 0.643 0.71 
0.667 0.459 0.78 0.957 
0.416 0.29 0.694 0.749 
0.667 0.541 0.796 1.0 
0.557 0.208 0.678 0.749 
0.529 0.584 0.745 0.918 
0.416 0.29 0.694 0.749 
0.557 0.376 0.78 0.71 
0.918 0.416 0.949 0.831 
0.835 0.376 0.898 0.71 
0.804 0.667 0.863 1.0 
0.584 0.29 0.729 0.749 
0.388 0.208 0.678 0.792 
0.584 0.502 0.729 0.918 
0.945 0.749 0.965 0.875 
0.471 0.082 0.678 0.584 
0.361 0.333 0.663 0.792 
0.557 0.29 0.663 0.71 
0.804 0.502 0.847 0.71 
0.498 0.416 0.51 0.71 
0.804 0.416 0.812 0.624 
1.0 0.749 0.914 0.792 
0.557 0.333 0.694 0.584 
0.945 0.416 0.863 0.918 
0.584 0.459 0.761 0.71 
0.722 0.459 0.745 0.831 
0.722 0.459 0.694 0.918 
0.694 0.502 0.831 0.918 
0.667 0.416 0.714 0.918 
0.612 0.416 0.714 0.792 
0.443 0.416 0.694 0.71 
Teaching Patterns
1.0 0.0 0.0 
1.0 0.0 0.0 
1.0 0.0 0.0 
1.0 0.0 0.0 
1.0 0.0 0.0 
1.0 0.0 0.0 
1.0 0.0 0.0 
1.0 0.0 0.0 
1.0 0.0 0.0 
1.0 0.0 0.0 
1.0 0.0 0.0 
1.0 0.0 0.0 
1.0 0.0 0.0 
1.0 0.0 0.0 
1.0 0.0 0.0 
1.0 0.0 0.0 
1.0 0.0 0.0 
1.0 0.0 0.0 
1.0 0.0 0.0 
1.0 0.0 0.0 
1.0 0.0 0.0 
1.0 0.0 0.0 
1.0 0.0 0.0 
1.0 0.0 0.0 
1.0 0.0 0.0 
1.0 0.0 0.0 
1.0 0.0 0.0 
1.0 0.0 0.0 
1.0 0.0 0.0 
1.0 0.0 0.0 
1.0 0.0 0.0 
1.0 0.0 0.0 
1.0 0.0 0.0 
1.0 0.0 0.0 
1.0 0.0 0.0 
1.0 0.0 0.0 
1.0 0.0 0.0 
1.0 0.0 0.0 
1.0 0.0 0.0 
1.0 0.0 0.0 
1.0 0.0 0.0 
1.0 0.0 0.0 
1.0 0.0 0.0 
1.0 0.0 0.0 
1.0 0.0 0.0 
1.0 0.0 0.0 
1.0 0.0 0.0 
1.0 0.0 0.0 
1.0 0.0 0.0 
1.0 0.0 0.0 
0.0 1.0 0.0 
0.0 1.0 0.0 
0.0 1.0 0.0 
0.0 1.0 0.0 
0.0 1.0 0.0 
0.0 1.0 0.0 
0.0 1.0 0.0 
0.0 1.0 0.0 
0.0 1.0 0.0 
0.0 1.0 0.0 
0.0 1.0 0.0 
0.0 1.0 0.0 
0.0 1.0 0.0 
0.0 1.0 0.0 
0.0 1.0 0.0 
0.0 1.0 0.0 
0.0 1.0 0.0 
0.0 1.0 0.0 
0.0 1.0 0.0 
0.0 1.0 0.0 
0.0 1.0 0.0 
0.0 1.0 0.0 
0.0 1.0 0.0 
0.0 1.0 0.0 
0.0 1.0 0.0 
0.0 1.0 0.0 
0.0 1.0 0.0 
0.0 1.0 0.0 
0.0 1.0 0.0 
0.0 1.0 0.0 
0.0 1.0 0.0 
0.0 1.0 0.0 
0.0 1.0 0.0 
0.0 1.0 0.0 
0.0 1.0 0.0 
0.0 1.0 0.0 
0.0 1.0 0.0 
0.0 1.0 0.0 
0.0 1.0 0.0 
0.0 1.0 0.0 
0.0 1.0 0.0 
0.0 1.0 0.0 
0.0 1.0 0.0 
0.0 1.0 0.0 
0.0 1.0 0.0 
0.0 1.0 0.0 
0.0 1.0 0.0 
0.0 1.0 0.0 
0.0 1.0 0.0 
0.0 1.0 0.0 
0.0 0.0 1.0 
0.0 0.0 1.0 
0.0 0.0 1.0 
0.0 0.0 1.0 
0.0 0.0 1.0 
0.0 0.0 1.0 
0.0 0.0 1.0 
0.0 0.0 1.0 
0.0 0.0 1.0 
0.0 0.0 1.0 
0.0 0.0 1.0 
0.0 0.0 1.0 
0.0 0.0 1.0 
0.0 0.0 1.0 
0.0 0.0 1.0 
0.0 0.0 1.0 
0.0 0.0 1.0 
0.0 0.0 1.0 
0.0 0.0 1.0 
0.0 0.0 1.0 
0.0 0.0 1.0 
0.0 0.0 1.0 
0.0 0.0 1.0 
0.0 0.0 1.0 
0.0 0.0 1.0 
0.0 0.0 1.0 
0.0 0.0 1.0 
0.0 0.0 1.0 
0.0 0.0 1.0 
0.0 0.0 1.0 
0.0 0.0 1.0 
0.0 0.0 1.0 
0.0 0.0 1.0 
0.0 0.0 1.0 
0.0 0.0 1.0 
0.0 0.0 1.0 
0.0 0.0 1.0 
0.0 0.0 1.0 
0.0 0.0 1.0 
0.0 0.0 1.0 
0.0 0.0 1.0 
0.0 0.0 1.0 
0.0 0.0 1.0 
0.0 0.0 1.0 
0.0 0.0 1.0 
0.0 0.0 1.0 
0.0 0.0 1.0 
0.0 0.0 1.0 
0.0 0.0 1.0 
0.0 0.0 1.0 
Learning : 0.6000000238418579
Momentum : 0.9
Epoch: 100, Error: 0.011876509165111598
Epoch: 200, Error: 0.01188658242563922
Epoch: 300, Error: 0.012077061003831725
Epoch: 400, Error: 0.012417859734232447
Epoch: 500, Error: 0.011744545613271986
Epoch: 600, Error: 0.012973001945307067
Epoch: 700, Error: 0.011992120309537061
Epoch: 800, Error: 0.012808629288043258
Epoch: 900, Error: 0.012729998077471962
Epoch: 1000, Error: 0.012299514219085981
Epoch: 1100, Error: 0.012710632249600694
Epoch: 1200, Error: 0.012407675045885844
Epoch: 1300, Error: 0.014995691941084698
Epoch: 1400, Error: 0.015226357405254277
Epoch: 1500, Error: 0.012833917319016383
Epoch: 1600, Error: 0.015915582587388875
Epoch: 1700, Error: 0.012949441978005538
Epoch: 1800, Error: 0.012319991361971726
Epoch: 1900, Error: 0.011963439406618972
Epoch: 2000, Error: 0.012143486408159222
Epoch: 2100, Error: 0.011728646834294872
Epoch: 2200, Error: 0.012997482874242836
Epoch: 2300, Error: 0.012275333602454523
Epoch: 2400, Error: 0.011644350766487255
Epoch: 2500, Error: 0.012307022869812443
Epoch: 2600, Error: 0.011400274171495677
Epoch: 2700, Error: 0.011664917169581525
Epoch: 2800, Error: 0.012540300640831005
Epoch: 2900, Error: 0.011572045825547723
Epoch: 3000, Error: 0.011420827781857332
Epoch: 3100, Error: 0.011452294152432227
Epoch: 3200, Error: 0.012577944735536866
Epoch: 3300, Error: 0.013873958108938801
Epoch: 3400, Error: 0.011700624381635447
Epoch: 3500, Error: 0.012224445392637898
Epoch: 3600, Error: 0.011223422389518947
Epoch: 3700, Error: 0.012256490478984064
Epoch: 3800, Error: 0.01650070518717628
Epoch: 3900, Error: 0.01146939992770655
Epoch: 4000, Error: 0.011039354066707655
Epoch: 4100, Error: 0.011704068292558554
Epoch: 4200, Error: 0.011297752569573832
Epoch: 4300, Error: 0.011464139747505094
Epoch: 4400, Error: 0.010847214357464276
Epoch: 4500, Error: 0.012289472810965605
Epoch: 4600, Error: 0.012221491628190716
Epoch: 4700, Error: 0.012121272027098031
Epoch: 4800, Error: 0.01148536129857994
Epoch: 4900, Error: 0.010557698506994109
Epoch: 5000, Error: 0.011003515066996464
Epoch: 5100, Error: 0.011431824711474707
Epoch: 5200, Error: 0.010626677443100726
Epoch: 5300, Error: 0.01056942518579653
Epoch: 5400, Error: 0.01047281612063179
Epoch: 5500, Error: 0.011398721385935416
Epoch: 5600, Error: 0.010229273003369989
Epoch: 5700, Error: 0.013789925610991922
Epoch: 5800, Error: 0.011592319048846916
Epoch: 5900, Error: 0.011257834128745836
Epoch: 6000, Error: 0.010059988178096661
Epoch: 6100, Error: 0.010843379143152523
Epoch: 6200, Error: 0.009981215195964952
Epoch: 6300, Error: 0.009811661972607817
Epoch: 6400, Error: 0.009634132994425955
Epoch: 6500, Error: 0.01050787399255937
Epoch: 6600, Error: 0.009752367604610773
Epoch: 6700, Error: 0.009129412178535495
Epoch: 6800, Error: 0.009326635655193843
Epoch: 6900, Error: 0.008979425363721826
Epoch: 7000, Error: 0.008756589255112671
Epoch: 7100, Error: 0.010722831115989503
Epoch: 7200, Error: 0.00915458894568314
Epoch: 7300, Error: 0.008879829428130263
Epoch: 7400, Error: 0.00792159468763918
Epoch: 7500, Error: 0.008257160575705238
Epoch: 7600, Error: 0.007315711398959587
Epoch: 7700, Error: 0.007299905497507228
Epoch: 7800, Error: 0.007723866206033969
Epoch: 7900, Error: 0.0068614270005327065
Epoch: 8000, Error: 0.006829170820906986
Epoch: 8100, Error: 0.007656625991979649
Epoch: 8200, Error: 0.006778436229822378
Epoch: 8300, Error: 0.006145168716301034
Epoch: 8400, Error: 0.006789152368021147
Epoch: 8500, Error: 0.006653927651172005
Epoch: 8600, Error: 0.006172244762637301
Epoch: 8700, Error: 0.0055301231631776976
Epoch: 8800, Error: 0.005917813698564099
Epoch: 8900, Error: 0.005673242468290092
Epoch: 9000, Error: 0.0053241314016429725
Epoch: 9100, Error: 0.00529356360598391
Epoch: 9200, Error: 0.005398975199062965
Epoch: 9300, Error: 0.005310132871491018
Epoch: 9400, Error: 0.005279905540554178
Epoch: 9500, Error: 0.0052787076861017515
Epoch: 9600, Error: 0.0052281171760982705
Epoch: 9700, Error: 0.005225960256959146
Epoch: 9800, Error: 0.005239662420798765
Epoch: 9900, Error: 0.005193084274833511
Epoch: 10000, Error: 0.005200919700476326
Epoch: 10100, Error: 0.005199441000240723
Epoch: 10200, Error: 0.0051835382738605025
Epoch: 10300, Error: 0.00514219608107817
Epoch: 10400, Error: 0.005174464470052264
Epoch: 10500, Error: 0.005152085988415027
Epoch: 10600, Error: 0.005152211301562419
Epoch: 10700, Error: 0.005157180243800931
Epoch: 10800, Error: 0.005138465252926147
Epoch: 10900, Error: 0.005160246603396188
Epoch: 11000, Error: 0.00512392296032345
Epoch: 11100, Error: 0.0051301255859997836
Finished
