Input Patterns
0.224 0.624 0.067 0.043 
0.11 0.502 0.051 0.043 
0.196 0.667 0.067 0.043 
0.055 0.584 0.067 0.082 
0.027 0.376 0.067 0.043 
0.306 0.71 0.086 0.043 
0.137 0.416 0.067 0.0 
0.416 0.831 0.035 0.043 
0.306 0.792 0.051 0.125 
0.388 0.749 0.118 0.082 
0.306 0.584 0.118 0.043 
0.082 0.667 0.0 0.043 
0.137 0.584 0.153 0.043 
0.196 0.584 0.102 0.125 
0.251 0.584 0.067 0.043 
0.137 0.459 0.102 0.043 
0.251 0.875 0.086 0.0 
0.165 0.459 0.086 0.043 
0.333 0.624 0.051 0.043 
0.027 0.416 0.051 0.043 
0.196 0.624 0.051 0.082 
0.027 0.502 0.051 0.043 
0.224 0.749 0.153 0.125 
0.224 0.749 0.102 0.043 
0.278 0.71 0.086 0.043 
0.165 0.416 0.067 0.043 
0.082 0.459 0.086 0.043 
0.306 0.792 0.118 0.125 
0.196 0.584 0.086 0.043 
0.165 0.459 0.086 0.0 
0.137 0.584 0.102 0.043 
0.0 0.416 0.016 0.0 
0.388 1.0 0.086 0.125 
0.224 0.624 0.067 0.082 
0.224 0.749 0.086 0.082 
0.224 0.71 0.086 0.125 
0.224 0.541 0.118 0.165 
0.196 0.416 0.102 0.043 
0.251 0.624 0.086 0.043 
0.11 0.502 0.102 0.043 
0.306 0.584 0.086 0.125 
0.333 0.918 0.067 0.043 
0.196 0.502 0.035 0.043 
0.165 0.667 0.067 0.0 
0.224 0.584 0.086 0.043 
0.055 0.125 0.051 0.082 
0.196 0.624 0.102 0.208 
0.137 0.416 0.067 0.082 
0.082 0.502 0.067 0.043 
0.196 0.541 0.067 0.043 
0.749 0.502 0.627 0.541 
0.722 0.459 0.663 0.584 
0.612 0.333 0.612 0.584 
0.557 0.541 0.627 0.624 
0.639 0.376 0.612 0.498 
0.196 0.0 0.424 0.376 
0.471 0.082 0.51 0.376 
0.361 0.376 0.439 0.498 
0.361 0.416 0.592 0.584 
0.529 0.082 0.592 0.584 
0.443 0.502 0.643 0.459 
0.557 0.208 0.663 0.584 
0.584 0.376 0.561 0.498 
0.694 0.333 0.643 0.541 
0.471 0.376 0.592 0.584 
0.333 0.169 0.475 0.416 
0.416 0.29 0.49 0.459 
0.306 0.416 0.592 0.584 
0.667 0.459 0.627 0.584 
0.361 0.416 0.525 0.498 
0.333 0.251 0.576 0.459 
0.416 0.251 0.51 0.459 
0.361 0.29 0.541 0.498 
0.388 0.376 0.541 0.498 
0.224 0.208 0.337 0.416 
0.584 0.502 0.592 0.584 
0.333 0.125 0.51 0.498 
0.388 0.333 0.592 0.498 
0.165 0.169 0.388 0.376 
0.251 0.29 0.49 0.541 
0.443 0.416 0.541 0.584 
0.498 0.376 0.627 0.541 
0.667 0.459 0.576 0.541 
0.416 0.29 0.525 0.376 
0.361 0.208 0.49 0.416 
0.498 0.333 0.51 0.498 
0.498 0.333 0.627 0.459 
0.639 0.416 0.576 0.541 
0.667 0.416 0.678 0.667 
0.388 0.251 0.424 0.376 
0.333 0.169 0.459 0.376 
0.471 0.29 0.694 0.624 
0.471 0.584 0.592 0.624 
0.557 0.125 0.576 0.498 
0.333 0.208 0.51 0.498 
0.498 0.416 0.612 0.541 
0.196 0.125 0.388 0.376 
0.388 0.416 0.541 0.459 
0.529 0.376 0.561 0.498 
0.388 0.333 0.525 0.498 
0.557 0.541 0.847 1.0 
0.776 0.416 0.831 0.831 
0.612 0.416 0.812 0.875 
0.165 0.208 0.592 0.667 
0.667 0.208 0.812 0.71 
0.612 0.502 0.694 0.792 
0.694 0.416 0.761 0.831 
0.416 0.333 0.694 0.957 
0.612 0.416 0.761 0.71 
0.945 0.251 1.0 0.918 
0.722 0.502 0.796 0.918 
0.945 0.333 0.965 0.792 
0.667 0.541 0.796 0.831 
0.529 0.333 0.643 0.71 
0.584 0.333 0.78 0.831 
0.863 0.333 0.863 0.749 
0.584 0.333 0.78 0.875 
0.498 0.251 0.78 0.541 
0.557 0.584 0.78 0.957 
0.471 0.416 0.643 0.71 
0.667 0.459 0.78 0.957 
0.416 0.29 0.694 0.749 
0.667 0.541 0.796 1.0 
0.557 0.208 0.678 0.749 
0.529 0.584 0.745 0.918 
0.416 0.29 0.694 0.749 
0.557 0.376 0.78 0.71 
0.918 0.416 0.949 0.831 
0.835 0.376 0.898 0.71 
0.804 0.667 0.863 1.0 
0.584 0.29 0.729 0.749 
0.388 0.208 0.678 0.792 
0.584 0.502 0.729 0.918 
0.945 0.749 0.965 0.875 
0.471 0.082 0.678 0.584 
0.361 0.333 0.663 0.792 
0.557 0.29 0.663 0.71 
0.804 0.502 0.847 0.71 
0.498 0.416 0.51 0.71 
0.804 0.416 0.812 0.624 
1.0 0.749 0.914 0.792 
0.557 0.333 0.694 0.584 
0.945 0.416 0.863 0.918 
0.584 0.459 0.761 0.71 
0.722 0.459 0.745 0.831 
0.722 0.459 0.694 0.918 
0.694 0.502 0.831 0.918 
0.667 0.416 0.714 0.918 
0.612 0.416 0.714 0.792 
0.443 0.416 0.694 0.71 
Teaching Patterns
1.0 0.0 0.0 
1.0 0.0 0.0 
1.0 0.0 0.0 
1.0 0.0 0.0 
1.0 0.0 0.0 
1.0 0.0 0.0 
1.0 0.0 0.0 
1.0 0.0 0.0 
1.0 0.0 0.0 
1.0 0.0 0.0 
1.0 0.0 0.0 
1.0 0.0 0.0 
1.0 0.0 0.0 
1.0 0.0 0.0 
1.0 0.0 0.0 
1.0 0.0 0.0 
1.0 0.0 0.0 
1.0 0.0 0.0 
1.0 0.0 0.0 
1.0 0.0 0.0 
1.0 0.0 0.0 
1.0 0.0 0.0 
1.0 0.0 0.0 
1.0 0.0 0.0 
1.0 0.0 0.0 
1.0 0.0 0.0 
1.0 0.0 0.0 
1.0 0.0 0.0 
1.0 0.0 0.0 
1.0 0.0 0.0 
1.0 0.0 0.0 
1.0 0.0 0.0 
1.0 0.0 0.0 
1.0 0.0 0.0 
1.0 0.0 0.0 
1.0 0.0 0.0 
1.0 0.0 0.0 
1.0 0.0 0.0 
1.0 0.0 0.0 
1.0 0.0 0.0 
1.0 0.0 0.0 
1.0 0.0 0.0 
1.0 0.0 0.0 
1.0 0.0 0.0 
1.0 0.0 0.0 
1.0 0.0 0.0 
1.0 0.0 0.0 
1.0 0.0 0.0 
1.0 0.0 0.0 
1.0 0.0 0.0 
0.0 1.0 0.0 
0.0 1.0 0.0 
0.0 1.0 0.0 
0.0 1.0 0.0 
0.0 1.0 0.0 
0.0 1.0 0.0 
0.0 1.0 0.0 
0.0 1.0 0.0 
0.0 1.0 0.0 
0.0 1.0 0.0 
0.0 1.0 0.0 
0.0 1.0 0.0 
0.0 1.0 0.0 
0.0 1.0 0.0 
0.0 1.0 0.0 
0.0 1.0 0.0 
0.0 1.0 0.0 
0.0 1.0 0.0 
0.0 1.0 0.0 
0.0 1.0 0.0 
0.0 1.0 0.0 
0.0 1.0 0.0 
0.0 1.0 0.0 
0.0 1.0 0.0 
0.0 1.0 0.0 
0.0 1.0 0.0 
0.0 1.0 0.0 
0.0 1.0 0.0 
0.0 1.0 0.0 
0.0 1.0 0.0 
0.0 1.0 0.0 
0.0 1.0 0.0 
0.0 1.0 0.0 
0.0 1.0 0.0 
0.0 1.0 0.0 
0.0 1.0 0.0 
0.0 1.0 0.0 
0.0 1.0 0.0 
0.0 1.0 0.0 
0.0 1.0 0.0 
0.0 1.0 0.0 
0.0 1.0 0.0 
0.0 1.0 0.0 
0.0 1.0 0.0 
0.0 1.0 0.0 
0.0 1.0 0.0 
0.0 1.0 0.0 
0.0 1.0 0.0 
0.0 1.0 0.0 
0.0 1.0 0.0 
0.0 0.0 1.0 
0.0 0.0 1.0 
0.0 0.0 1.0 
0.0 0.0 1.0 
0.0 0.0 1.0 
0.0 0.0 1.0 
0.0 0.0 1.0 
0.0 0.0 1.0 
0.0 0.0 1.0 
0.0 0.0 1.0 
0.0 0.0 1.0 
0.0 0.0 1.0 
0.0 0.0 1.0 
0.0 0.0 1.0 
0.0 0.0 1.0 
0.0 0.0 1.0 
0.0 0.0 1.0 
0.0 0.0 1.0 
0.0 0.0 1.0 
0.0 0.0 1.0 
0.0 0.0 1.0 
0.0 0.0 1.0 
0.0 0.0 1.0 
0.0 0.0 1.0 
0.0 0.0 1.0 
0.0 0.0 1.0 
0.0 0.0 1.0 
0.0 0.0 1.0 
0.0 0.0 1.0 
0.0 0.0 1.0 
0.0 0.0 1.0 
0.0 0.0 1.0 
0.0 0.0 1.0 
0.0 0.0 1.0 
0.0 0.0 1.0 
0.0 0.0 1.0 
0.0 0.0 1.0 
0.0 0.0 1.0 
0.0 0.0 1.0 
0.0 0.0 1.0 
0.0 0.0 1.0 
0.0 0.0 1.0 
0.0 0.0 1.0 
0.0 0.0 1.0 
0.0 0.0 1.0 
0.0 0.0 1.0 
0.0 0.0 1.0 
0.0 0.0 1.0 
0.0 0.0 1.0 
0.0 0.0 1.0 
Learning : 0.6000000238418579
Momentum : 0.9
Epoch: 100, Error: 0.014885055876570451
Epoch: 200, Error: 0.022053718406639663
Epoch: 300, Error: 0.012341336780576572
Epoch: 400, Error: 0.012793416216430945
Epoch: 500, Error: 0.012353015071386085
Epoch: 600, Error: 0.012387736678396759
Epoch: 700, Error: 0.01311521028515313
Epoch: 800, Error: 0.012543511942620935
Epoch: 900, Error: 0.012331489950749237
Epoch: 1000, Error: 0.012406891440644673
Epoch: 1100, Error: 0.01275907219255939
Epoch: 1200, Error: 0.012436153080555531
Epoch: 1300, Error: 0.012333569209076382
Epoch: 1400, Error: 0.01296007575099867
Epoch: 1500, Error: 0.012370331281006971
Epoch: 1600, Error: 0.012316782214077143
Epoch: 1700, Error: 0.012379636208823742
Epoch: 1800, Error: 0.012310810592727437
Epoch: 1900, Error: 0.012427125324329573
Epoch: 2000, Error: 0.012443127057412347
Epoch: 2100, Error: 0.012550502377560769
Epoch: 2200, Error: 0.012496581561999658
Epoch: 2300, Error: 0.012559439341447525
Epoch: 2400, Error: 0.012796416163047462
Epoch: 2500, Error: 0.012317854964246604
Epoch: 2600, Error: 0.012914848475837355
Epoch: 2700, Error: 0.012522387415862576
Epoch: 2800, Error: 0.012902809106266388
Epoch: 2900, Error: 0.01236991380603411
Epoch: 3000, Error: 0.012177051315883099
Epoch: 3100, Error: 0.012545536677277768
Epoch: 3200, Error: 0.012943563113266127
Epoch: 3300, Error: 0.012981215709829288
Epoch: 3400, Error: 0.012310046255762722
Epoch: 3500, Error: 0.012306934636507352
Epoch: 3600, Error: 0.012519479893795288
Epoch: 3700, Error: 0.012358391448966258
Epoch: 3800, Error: 0.012422868969912945
Epoch: 3900, Error: 0.012189363744763567
Epoch: 4000, Error: 0.012161910767200688
Epoch: 4100, Error: 0.012484792358274256
Epoch: 4200, Error: 0.012166963942935342
Epoch: 4300, Error: 0.012332607392599332
Epoch: 4400, Error: 0.012304154970797081
Epoch: 4500, Error: 0.011846925406283492
Epoch: 4600, Error: 0.012078366159918615
Epoch: 4700, Error: 0.011750335262005548
Epoch: 4800, Error: 0.011707155953013026
Epoch: 4900, Error: 0.011637283784939226
Epoch: 5000, Error: 0.011672249996894587
Epoch: 5100, Error: 0.011509876911304772
Epoch: 5200, Error: 0.01147728491300901
Epoch: 5300, Error: 0.011545227315916787
Epoch: 5400, Error: 0.011419453221632656
Epoch: 5500, Error: 0.011003136108384758
Epoch: 5600, Error: 0.010977322913404084
Epoch: 5700, Error: 0.01125640994842477
Epoch: 5800, Error: 0.011208479986832161
Epoch: 5900, Error: 0.0106854354442295
Epoch: 6000, Error: 0.010767667139073595
Epoch: 6100, Error: 0.010590811514622352
Epoch: 6200, Error: 0.01084870101868943
Epoch: 6300, Error: 0.010696959023303303
Epoch: 6400, Error: 0.010554333030977567
Epoch: 6500, Error: 0.010178657964248753
Epoch: 6600, Error: 0.010202870364597239
Epoch: 6700, Error: 0.010053368464574112
Epoch: 6800, Error: 0.00999162817621957
Epoch: 6900, Error: 0.009979394034163216
Epoch: 7000, Error: 0.010058078456721995
Epoch: 7100, Error: 0.009917324565298606
Epoch: 7200, Error: 0.009899914152485074
Epoch: 7300, Error: 0.009822149783082627
Epoch: 7400, Error: 0.009827530137771184
Epoch: 7500, Error: 0.009894147704961014
Epoch: 7600, Error: 0.009851719034706163
Epoch: 7700, Error: 0.009788001914584376
Epoch: 7800, Error: 0.00977159550778968
Epoch: 7900, Error: 0.009784780673119619
Epoch: 8000, Error: 0.009787914498115082
Epoch: 8100, Error: 0.009761269955129633
Epoch: 8200, Error: 0.009758243793381126
Epoch: 8300, Error: 0.009730941874601374
Epoch: 8400, Error: 0.009714196820019144
Epoch: 8500, Error: 0.009753742351584348
Epoch: 8600, Error: 0.009757693789291836
Epoch: 8700, Error: 0.009739112218100927
Epoch: 8800, Error: 0.009739022378936172
Epoch: 8900, Error: 0.00973556700135928
Epoch: 9000, Error: 0.009700145023743095
Epoch: 9100, Error: 0.009725200314411018
Epoch: 9200, Error: 0.009728708586997235
Epoch: 9300, Error: 0.009718427386801957
Epoch: 9400, Error: 0.009717436410535482
Epoch: 9500, Error: 0.009680758509944144
Epoch: 9600, Error: 0.009674981952314877
Finished
