Input Patterns
0.224 0.624 0.067 0.043 
0.11 0.502 0.051 0.043 
0.196 0.667 0.067 0.043 
0.055 0.584 0.067 0.082 
0.027 0.376 0.067 0.043 
0.306 0.71 0.086 0.043 
0.137 0.416 0.067 0.0 
0.416 0.831 0.035 0.043 
0.306 0.792 0.051 0.125 
0.388 0.749 0.118 0.082 
0.306 0.584 0.118 0.043 
0.082 0.667 0.0 0.043 
0.137 0.584 0.153 0.043 
0.196 0.584 0.102 0.125 
0.251 0.584 0.067 0.043 
0.137 0.459 0.102 0.043 
0.251 0.875 0.086 0.0 
0.165 0.459 0.086 0.043 
0.333 0.624 0.051 0.043 
0.027 0.416 0.051 0.043 
0.196 0.624 0.051 0.082 
0.027 0.502 0.051 0.043 
0.224 0.749 0.153 0.125 
0.224 0.749 0.102 0.043 
0.278 0.71 0.086 0.043 
0.165 0.416 0.067 0.043 
0.082 0.459 0.086 0.043 
0.306 0.792 0.118 0.125 
0.196 0.584 0.086 0.043 
0.165 0.459 0.086 0.0 
0.137 0.584 0.102 0.043 
0.0 0.416 0.016 0.0 
0.388 1.0 0.086 0.125 
0.224 0.624 0.067 0.082 
0.224 0.749 0.086 0.082 
0.224 0.71 0.086 0.125 
0.224 0.541 0.118 0.165 
0.196 0.416 0.102 0.043 
0.251 0.624 0.086 0.043 
0.11 0.502 0.102 0.043 
0.306 0.584 0.086 0.125 
0.333 0.918 0.067 0.043 
0.196 0.502 0.035 0.043 
0.165 0.667 0.067 0.0 
0.224 0.584 0.086 0.043 
0.055 0.125 0.051 0.082 
0.196 0.624 0.102 0.208 
0.137 0.416 0.067 0.082 
0.082 0.502 0.067 0.043 
0.196 0.541 0.067 0.043 
0.749 0.502 0.627 0.541 
0.722 0.459 0.663 0.584 
0.612 0.333 0.612 0.584 
0.557 0.541 0.627 0.624 
0.639 0.376 0.612 0.498 
0.196 0.0 0.424 0.376 
0.471 0.082 0.51 0.376 
0.361 0.376 0.439 0.498 
0.361 0.416 0.592 0.584 
0.529 0.082 0.592 0.584 
0.443 0.502 0.643 0.459 
0.557 0.208 0.663 0.584 
0.584 0.376 0.561 0.498 
0.694 0.333 0.643 0.541 
0.471 0.376 0.592 0.584 
0.333 0.169 0.475 0.416 
0.416 0.29 0.49 0.459 
0.306 0.416 0.592 0.584 
0.667 0.459 0.627 0.584 
0.361 0.416 0.525 0.498 
0.333 0.251 0.576 0.459 
0.416 0.251 0.51 0.459 
0.361 0.29 0.541 0.498 
0.388 0.376 0.541 0.498 
0.224 0.208 0.337 0.416 
0.584 0.502 0.592 0.584 
0.333 0.125 0.51 0.498 
0.388 0.333 0.592 0.498 
0.165 0.169 0.388 0.376 
0.251 0.29 0.49 0.541 
0.443 0.416 0.541 0.584 
0.498 0.376 0.627 0.541 
0.667 0.459 0.576 0.541 
0.416 0.29 0.525 0.376 
0.361 0.208 0.49 0.416 
0.498 0.333 0.51 0.498 
0.498 0.333 0.627 0.459 
0.639 0.416 0.576 0.541 
0.667 0.416 0.678 0.667 
0.388 0.251 0.424 0.376 
0.333 0.169 0.459 0.376 
0.471 0.29 0.694 0.624 
0.471 0.584 0.592 0.624 
0.557 0.125 0.576 0.498 
0.333 0.208 0.51 0.498 
0.498 0.416 0.612 0.541 
0.196 0.125 0.388 0.376 
0.388 0.416 0.541 0.459 
0.529 0.376 0.561 0.498 
0.388 0.333 0.525 0.498 
0.557 0.541 0.847 1.0 
0.776 0.416 0.831 0.831 
0.612 0.416 0.812 0.875 
0.165 0.208 0.592 0.667 
0.667 0.208 0.812 0.71 
0.612 0.502 0.694 0.792 
0.694 0.416 0.761 0.831 
0.416 0.333 0.694 0.957 
0.612 0.416 0.761 0.71 
0.945 0.251 1.0 0.918 
0.722 0.502 0.796 0.918 
0.945 0.333 0.965 0.792 
0.667 0.541 0.796 0.831 
0.529 0.333 0.643 0.71 
0.584 0.333 0.78 0.831 
0.863 0.333 0.863 0.749 
0.584 0.333 0.78 0.875 
0.498 0.251 0.78 0.541 
0.557 0.584 0.78 0.957 
0.471 0.416 0.643 0.71 
0.667 0.459 0.78 0.957 
0.416 0.29 0.694 0.749 
0.667 0.541 0.796 1.0 
0.557 0.208 0.678 0.749 
0.529 0.584 0.745 0.918 
0.416 0.29 0.694 0.749 
0.557 0.376 0.78 0.71 
0.918 0.416 0.949 0.831 
0.835 0.376 0.898 0.71 
0.804 0.667 0.863 1.0 
0.584 0.29 0.729 0.749 
0.388 0.208 0.678 0.792 
0.584 0.502 0.729 0.918 
0.945 0.749 0.965 0.875 
0.471 0.082 0.678 0.584 
0.361 0.333 0.663 0.792 
0.557 0.29 0.663 0.71 
0.804 0.502 0.847 0.71 
0.498 0.416 0.51 0.71 
0.804 0.416 0.812 0.624 
1.0 0.749 0.914 0.792 
0.557 0.333 0.694 0.584 
0.945 0.416 0.863 0.918 
0.584 0.459 0.761 0.71 
0.722 0.459 0.745 0.831 
0.722 0.459 0.694 0.918 
0.694 0.502 0.831 0.918 
0.667 0.416 0.714 0.918 
0.612 0.416 0.714 0.792 
0.443 0.416 0.694 0.71 
Teaching Patterns
1.0 0.0 0.0 
1.0 0.0 0.0 
1.0 0.0 0.0 
1.0 0.0 0.0 
1.0 0.0 0.0 
1.0 0.0 0.0 
1.0 0.0 0.0 
1.0 0.0 0.0 
1.0 0.0 0.0 
1.0 0.0 0.0 
1.0 0.0 0.0 
1.0 0.0 0.0 
1.0 0.0 0.0 
1.0 0.0 0.0 
1.0 0.0 0.0 
1.0 0.0 0.0 
1.0 0.0 0.0 
1.0 0.0 0.0 
1.0 0.0 0.0 
1.0 0.0 0.0 
1.0 0.0 0.0 
1.0 0.0 0.0 
1.0 0.0 0.0 
1.0 0.0 0.0 
1.0 0.0 0.0 
1.0 0.0 0.0 
1.0 0.0 0.0 
1.0 0.0 0.0 
1.0 0.0 0.0 
1.0 0.0 0.0 
1.0 0.0 0.0 
1.0 0.0 0.0 
1.0 0.0 0.0 
1.0 0.0 0.0 
1.0 0.0 0.0 
1.0 0.0 0.0 
1.0 0.0 0.0 
1.0 0.0 0.0 
1.0 0.0 0.0 
1.0 0.0 0.0 
1.0 0.0 0.0 
1.0 0.0 0.0 
1.0 0.0 0.0 
1.0 0.0 0.0 
1.0 0.0 0.0 
1.0 0.0 0.0 
1.0 0.0 0.0 
1.0 0.0 0.0 
1.0 0.0 0.0 
1.0 0.0 0.0 
0.0 1.0 0.0 
0.0 1.0 0.0 
0.0 1.0 0.0 
0.0 1.0 0.0 
0.0 1.0 0.0 
0.0 1.0 0.0 
0.0 1.0 0.0 
0.0 1.0 0.0 
0.0 1.0 0.0 
0.0 1.0 0.0 
0.0 1.0 0.0 
0.0 1.0 0.0 
0.0 1.0 0.0 
0.0 1.0 0.0 
0.0 1.0 0.0 
0.0 1.0 0.0 
0.0 1.0 0.0 
0.0 1.0 0.0 
0.0 1.0 0.0 
0.0 1.0 0.0 
0.0 1.0 0.0 
0.0 1.0 0.0 
0.0 1.0 0.0 
0.0 1.0 0.0 
0.0 1.0 0.0 
0.0 1.0 0.0 
0.0 1.0 0.0 
0.0 1.0 0.0 
0.0 1.0 0.0 
0.0 1.0 0.0 
0.0 1.0 0.0 
0.0 1.0 0.0 
0.0 1.0 0.0 
0.0 1.0 0.0 
0.0 1.0 0.0 
0.0 1.0 0.0 
0.0 1.0 0.0 
0.0 1.0 0.0 
0.0 1.0 0.0 
0.0 1.0 0.0 
0.0 1.0 0.0 
0.0 1.0 0.0 
0.0 1.0 0.0 
0.0 1.0 0.0 
0.0 1.0 0.0 
0.0 1.0 0.0 
0.0 1.0 0.0 
0.0 1.0 0.0 
0.0 1.0 0.0 
0.0 1.0 0.0 
0.0 0.0 1.0 
0.0 0.0 1.0 
0.0 0.0 1.0 
0.0 0.0 1.0 
0.0 0.0 1.0 
0.0 0.0 1.0 
0.0 0.0 1.0 
0.0 0.0 1.0 
0.0 0.0 1.0 
0.0 0.0 1.0 
0.0 0.0 1.0 
0.0 0.0 1.0 
0.0 0.0 1.0 
0.0 0.0 1.0 
0.0 0.0 1.0 
0.0 0.0 1.0 
0.0 0.0 1.0 
0.0 0.0 1.0 
0.0 0.0 1.0 
0.0 0.0 1.0 
0.0 0.0 1.0 
0.0 0.0 1.0 
0.0 0.0 1.0 
0.0 0.0 1.0 
0.0 0.0 1.0 
0.0 0.0 1.0 
0.0 0.0 1.0 
0.0 0.0 1.0 
0.0 0.0 1.0 
0.0 0.0 1.0 
0.0 0.0 1.0 
0.0 0.0 1.0 
0.0 0.0 1.0 
0.0 0.0 1.0 
0.0 0.0 1.0 
0.0 0.0 1.0 
0.0 0.0 1.0 
0.0 0.0 1.0 
0.0 0.0 1.0 
0.0 0.0 1.0 
0.0 0.0 1.0 
0.0 0.0 1.0 
0.0 0.0 1.0 
0.0 0.0 1.0 
0.0 0.0 1.0 
0.0 0.0 1.0 
0.0 0.0 1.0 
0.0 0.0 1.0 
0.0 0.0 1.0 
0.0 0.0 1.0 
Learning : 0.6000000238418579
Momentum : 0.9
Epoch: 100, Error: 0.013203587509434638
Epoch: 200, Error: 0.01210168959846335
Epoch: 300, Error: 0.012908748901331221
Epoch: 400, Error: 0.013644883433724095
Epoch: 500, Error: 0.01237523915343861
Epoch: 600, Error: 0.014394678229864236
Epoch: 700, Error: 0.01310375289640887
Epoch: 800, Error: 0.012851551611843478
Epoch: 900, Error: 0.012577218179646328
Epoch: 1000, Error: 0.012469986274109076
Epoch: 1100, Error: 0.013568811994079206
Epoch: 1200, Error: 0.012257654687015933
Epoch: 1300, Error: 0.01194749159467743
Epoch: 1400, Error: 0.011899375097142138
Epoch: 1500, Error: 0.012374441726031532
Epoch: 1600, Error: 0.012694984681813078
Epoch: 1700, Error: 0.011772124141664361
Epoch: 1800, Error: 0.011880152923009115
Epoch: 1900, Error: 0.0114327623022891
Epoch: 2000, Error: 0.011874220505896376
Epoch: 2100, Error: 0.011319224755763782
Epoch: 2200, Error: 0.01041629909501583
Epoch: 2300, Error: 0.009875578261603582
Epoch: 2400, Error: 0.00836966203191159
Epoch: 2500, Error: 0.008495097858441034
Epoch: 2600, Error: 0.007794403628452911
Epoch: 2700, Error: 0.007717664828367686
Epoch: 2800, Error: 0.006377566060878045
Epoch: 2900, Error: 0.006263261251648372
Epoch: 3000, Error: 0.005825506719705251
Epoch: 3100, Error: 0.005467193763027893
Epoch: 3200, Error: 0.00538559534815605
Epoch: 3300, Error: 0.005530386434551801
Epoch: 3400, Error: 0.005286440045698163
Epoch: 3500, Error: 0.0052225961040402525
Epoch: 3600, Error: 0.005285136403081098
Epoch: 3700, Error: 0.005208715705018248
Epoch: 3800, Error: 0.005197241206250533
Epoch: 3900, Error: 0.005186346306190045
Epoch: 4000, Error: 0.0051895650095213665
Epoch: 4100, Error: 0.00524199205466182
Epoch: 4200, Error: 0.005257148079211534
Epoch: 4300, Error: 0.005261084543435561
Epoch: 4400, Error: 0.005285728881283056
Epoch: 4500, Error: 0.005259750072459464
Epoch: 4600, Error: 0.0051958367510164215
Epoch: 4700, Error: 0.005092524396695782
Epoch: 4800, Error: 0.005088571650940465
Epoch: 4900, Error: 0.005048537697131408
Epoch: 5000, Error: 0.005023354285573955
Epoch: 5100, Error: 0.005018206922554108
Epoch: 5200, Error: 0.005022080280517185
Epoch: 5300, Error: 0.005039040679173442
Epoch: 5400, Error: 0.005063580379639343
Epoch: 5500, Error: 0.005049123170620227
Epoch: 5600, Error: 0.005071165843333975
Epoch: 5700, Error: 0.005054966626040798
Epoch: 5800, Error: 0.005047909217118988
Epoch: 5900, Error: 0.0050480702880931
Epoch: 6000, Error: 0.005074192473643144
Epoch: 6100, Error: 0.0050496569529117075
Epoch: 6200, Error: 0.0050676285227776756
Epoch: 6300, Error: 0.005053795339227012
Epoch: 6400, Error: 0.0050710680673241556
Epoch: 6500, Error: 0.005035641979371614
Epoch: 6600, Error: 0.005049453352832164
Epoch: 6700, Error: 0.00504578534652203
Epoch: 6800, Error: 0.005050804432787791
Epoch: 6900, Error: 0.005007595731537551
Epoch: 7000, Error: 0.0051424466315086485
Epoch: 7100, Error: 0.005056450148279961
Epoch: 7200, Error: 0.004942573168143535
Epoch: 7300, Error: 0.005128814918233094
Epoch: 7400, Error: 0.005029622156731537
Epoch: 7500, Error: 0.00497841394458987
Epoch: 7600, Error: 0.005080034677739253
Epoch: 7700, Error: 0.004935317737325027
Epoch: 7800, Error: 0.004786725683451221
Epoch: 7900, Error: 0.004674463818547679
Epoch: 8000, Error: 0.0046598714119596395
Epoch: 8100, Error: 0.004574745766831557
Epoch: 8200, Error: 0.004840842677481345
Epoch: 8300, Error: 0.004474928534895518
Epoch: 8400, Error: 0.0045974153597591475
Epoch: 8500, Error: 0.004124454580601456
Epoch: 8600, Error: 0.0040823846696390696
Epoch: 8700, Error: 0.004305376970800483
Epoch: 8800, Error: 0.004029921682769438
Epoch: 8900, Error: 0.005444655537058692
Epoch: 9000, Error: 0.004407352088764458
Epoch: 9100, Error: 0.00384487979598456
Epoch: 9200, Error: 0.0036838977227887787
Epoch: 9300, Error: 0.003890308723514057
Epoch: 9400, Error: 0.0036841156944211395
Epoch: 9500, Error: 0.0038491508939237262
Epoch: 9600, Error: 0.003535107770271566
Epoch: 9700, Error: 0.0039240924156057205
Epoch: 9800, Error: 0.00290724844429789
Epoch: 9900, Error: 0.0042704716883413645
Epoch: 10000, Error: 0.00264414898865897
Epoch: 10100, Error: 0.0035163083927857385
Epoch: 10200, Error: 0.005022151692518442
Epoch: 10300, Error: 0.0021259349659069103
Epoch: 10400, Error: 0.006095238675721286
Epoch: 10500, Error: 0.0016532872655567897
Epoch: 10600, Error: 0.0015014129834966467
Epoch: 10700, Error: 0.002342947532194619
Epoch: 10800, Error: 0.002816760671568616
Epoch: 10900, Error: 0.0013726596685406103
Epoch: 11000, Error: 0.005223552157853579
Epoch: 11100, Error: 0.002803391831410392
Epoch: 11200, Error: 0.0010467424762528957
Epoch: 11300, Error: 0.001351742966534602
Epoch: 11400, Error: 0.0012705454989447593
Epoch: 11500, Error: 0.006651631822632725
Epoch: 11600, Error: 0.0011660660536249403
Epoch: 11700, Error: 0.0011702800361634844
Epoch: 11800, Error: 8.164928620938702E-4
Epoch: 11900, Error: 9.189127982504454E-4
Epoch: 12000, Error: 8.718535087648061E-4
Epoch: 12100, Error: 8.948299837168446E-4
Epoch: 12200, Error: 8.541953126775604E-4
Epoch: 12300, Error: 9.149256488331178E-4
Epoch: 12400, Error: 8.697203721375891E-4
Epoch: 12500, Error: 8.63633679974083E-4
Epoch: 12600, Error: 7.708359772923817E-4
Epoch: 12700, Error: 7.79292882183076E-4
Epoch: 12800, Error: 8.036921270198492E-4
Epoch: 12900, Error: 8.34568618100068E-4
Epoch: 13000, Error: 8.508238501286081E-4
Epoch: 13100, Error: 8.184621100765916E-4
Epoch: 13200, Error: 8.760833830249437E-4
Epoch: 13300, Error: 7.671859516625182E-4
Epoch: 13400, Error: 7.415546365877705E-4
Epoch: 13500, Error: 7.112193689307612E-4
Epoch: 13600, Error: 7.297648655397924E-4
Epoch: 13700, Error: 6.729340130907486E-4
Epoch: 13800, Error: 7.003651047276193E-4
Epoch: 13900, Error: 6.983364426061656E-4
Epoch: 14000, Error: 7.173271936342159E-4
Epoch: 14100, Error: 7.834647149524395E-4
Epoch: 14200, Error: 8.864331247381976E-4
Epoch: 14300, Error: 9.906743819749668E-4
Epoch: 14400, Error: 9.764871580022739E-4
Epoch: 14500, Error: 0.001022872417707951
Epoch: 14600, Error: 0.0010351683585352264
Epoch: 14700, Error: 0.0010162866202743021
Epoch: 14800, Error: 0.0010098809184689872
Epoch: 14900, Error: 0.0010109320349441914
Epoch: 15000, Error: 9.922086251109416E-4
Epoch: 15100, Error: 9.809746717473347E-4
Epoch: 15200, Error: 9.6238518550381E-4
Epoch: 15300, Error: 9.654290533764292E-4
Epoch: 15400, Error: 9.428464353495996E-4
Epoch: 15500, Error: 9.305890390188162E-4
Epoch: 15600, Error: 9.633514011140171E-4
Epoch: 15700, Error: 0.0010059684351645664
Epoch: 15800, Error: 0.0010596300247341667
Epoch: 15900, Error: 0.0011065122288135526
Epoch: 16000, Error: 0.0011097817085624787
Epoch: 16100, Error: 0.001089655756433451
Epoch: 16200, Error: 0.0011191268484759733
Epoch: 16300, Error: 0.001122060034498182
Epoch: 16400, Error: 0.0011691070005727428
Epoch: 16500, Error: 0.0011804304831230846
Epoch: 16600, Error: 0.0011986394241323777
Epoch: 16700, Error: 0.001223953420006869
Epoch: 16800, Error: 0.0012217803888494052
Epoch: 16900, Error: 0.0012209154589757744
Epoch: 17000, Error: 0.0012166302763367942
Epoch: 17100, Error: 0.0011972153334731926
Epoch: 17200, Error: 0.001177840742281534
Epoch: 17300, Error: 0.001166922553346751
Epoch: 17400, Error: 0.001166408678609764
Epoch: 17500, Error: 0.0011266665000325014
Epoch: 17600, Error: 0.0011492656074695976
Epoch: 17700, Error: 0.001130819817913854
Epoch: 17800, Error: 0.0011374236020747575
Epoch: 17900, Error: 0.0011767922838576827
Epoch: 18000, Error: 0.0011825882912773766
Epoch: 18100, Error: 0.001183400332840877
Epoch: 18200, Error: 0.0012077088543771721
Epoch: 18300, Error: 0.0011957430072001892
Epoch: 18400, Error: 0.0012064284987037134
Epoch: 18500, Error: 0.0012694354779067805
Epoch: 18600, Error: 0.0012647716167925138
Epoch: 18700, Error: 0.0012664442513996383
Epoch: 18800, Error: 0.0012503693307124985
Finished
