Input Patterns
0.224 0.624 0.067 0.043 
0.11 0.502 0.051 0.043 
0.196 0.667 0.067 0.043 
0.055 0.584 0.067 0.082 
0.027 0.376 0.067 0.043 
0.306 0.71 0.086 0.043 
0.137 0.416 0.067 0.0 
0.416 0.831 0.035 0.043 
0.306 0.792 0.051 0.125 
0.388 0.749 0.118 0.082 
0.306 0.584 0.118 0.043 
0.082 0.667 0.0 0.043 
0.137 0.584 0.153 0.043 
0.196 0.584 0.102 0.125 
0.251 0.584 0.067 0.043 
0.137 0.459 0.102 0.043 
0.251 0.875 0.086 0.0 
0.165 0.459 0.086 0.043 
0.333 0.624 0.051 0.043 
0.027 0.416 0.051 0.043 
0.196 0.624 0.051 0.082 
0.027 0.502 0.051 0.043 
0.224 0.749 0.153 0.125 
0.224 0.749 0.102 0.043 
0.278 0.71 0.086 0.043 
0.165 0.416 0.067 0.043 
0.082 0.459 0.086 0.043 
0.306 0.792 0.118 0.125 
0.196 0.584 0.086 0.043 
0.165 0.459 0.086 0.0 
0.137 0.584 0.102 0.043 
0.0 0.416 0.016 0.0 
0.388 1.0 0.086 0.125 
0.224 0.624 0.067 0.082 
0.224 0.749 0.086 0.082 
0.224 0.71 0.086 0.125 
0.224 0.541 0.118 0.165 
0.196 0.416 0.102 0.043 
0.251 0.624 0.086 0.043 
0.11 0.502 0.102 0.043 
0.306 0.584 0.086 0.125 
0.333 0.918 0.067 0.043 
0.196 0.502 0.035 0.043 
0.165 0.667 0.067 0.0 
0.224 0.584 0.086 0.043 
0.055 0.125 0.051 0.082 
0.196 0.624 0.102 0.208 
0.137 0.416 0.067 0.082 
0.082 0.502 0.067 0.043 
0.196 0.541 0.067 0.043 
0.749 0.502 0.627 0.541 
0.722 0.459 0.663 0.584 
0.612 0.333 0.612 0.584 
0.557 0.541 0.627 0.624 
0.639 0.376 0.612 0.498 
0.196 0.0 0.424 0.376 
0.471 0.082 0.51 0.376 
0.361 0.376 0.439 0.498 
0.361 0.416 0.592 0.584 
0.529 0.082 0.592 0.584 
0.443 0.502 0.643 0.459 
0.557 0.208 0.663 0.584 
0.584 0.376 0.561 0.498 
0.694 0.333 0.643 0.541 
0.471 0.376 0.592 0.584 
0.333 0.169 0.475 0.416 
0.416 0.29 0.49 0.459 
0.306 0.416 0.592 0.584 
0.667 0.459 0.627 0.584 
0.361 0.416 0.525 0.498 
0.333 0.251 0.576 0.459 
0.416 0.251 0.51 0.459 
0.361 0.29 0.541 0.498 
0.388 0.376 0.541 0.498 
0.224 0.208 0.337 0.416 
0.584 0.502 0.592 0.584 
0.333 0.125 0.51 0.498 
0.388 0.333 0.592 0.498 
0.165 0.169 0.388 0.376 
0.251 0.29 0.49 0.541 
0.443 0.416 0.541 0.584 
0.498 0.376 0.627 0.541 
0.667 0.459 0.576 0.541 
0.416 0.29 0.525 0.376 
0.361 0.208 0.49 0.416 
0.498 0.333 0.51 0.498 
0.498 0.333 0.627 0.459 
0.639 0.416 0.576 0.541 
0.667 0.416 0.678 0.667 
0.388 0.251 0.424 0.376 
0.333 0.169 0.459 0.376 
0.471 0.29 0.694 0.624 
0.471 0.584 0.592 0.624 
0.557 0.125 0.576 0.498 
0.333 0.208 0.51 0.498 
0.498 0.416 0.612 0.541 
0.196 0.125 0.388 0.376 
0.388 0.416 0.541 0.459 
0.529 0.376 0.561 0.498 
0.388 0.333 0.525 0.498 
0.557 0.541 0.847 1.0 
0.776 0.416 0.831 0.831 
0.612 0.416 0.812 0.875 
0.165 0.208 0.592 0.667 
0.667 0.208 0.812 0.71 
0.612 0.502 0.694 0.792 
0.694 0.416 0.761 0.831 
0.416 0.333 0.694 0.957 
0.612 0.416 0.761 0.71 
0.945 0.251 1.0 0.918 
0.722 0.502 0.796 0.918 
0.945 0.333 0.965 0.792 
0.667 0.541 0.796 0.831 
0.529 0.333 0.643 0.71 
0.584 0.333 0.78 0.831 
0.863 0.333 0.863 0.749 
0.584 0.333 0.78 0.875 
0.498 0.251 0.78 0.541 
0.557 0.584 0.78 0.957 
0.471 0.416 0.643 0.71 
0.667 0.459 0.78 0.957 
0.416 0.29 0.694 0.749 
0.667 0.541 0.796 1.0 
0.557 0.208 0.678 0.749 
0.529 0.584 0.745 0.918 
0.416 0.29 0.694 0.749 
0.557 0.376 0.78 0.71 
0.918 0.416 0.949 0.831 
0.835 0.376 0.898 0.71 
0.804 0.667 0.863 1.0 
0.584 0.29 0.729 0.749 
0.388 0.208 0.678 0.792 
0.584 0.502 0.729 0.918 
0.945 0.749 0.965 0.875 
0.471 0.082 0.678 0.584 
0.361 0.333 0.663 0.792 
0.557 0.29 0.663 0.71 
0.804 0.502 0.847 0.71 
0.498 0.416 0.51 0.71 
0.804 0.416 0.812 0.624 
1.0 0.749 0.914 0.792 
0.557 0.333 0.694 0.584 
0.945 0.416 0.863 0.918 
0.584 0.459 0.761 0.71 
0.722 0.459 0.745 0.831 
0.722 0.459 0.694 0.918 
0.694 0.502 0.831 0.918 
0.667 0.416 0.714 0.918 
0.612 0.416 0.714 0.792 
0.443 0.416 0.694 0.71 
Teaching Patterns
1.0 0.0 0.0 
1.0 0.0 0.0 
1.0 0.0 0.0 
1.0 0.0 0.0 
1.0 0.0 0.0 
1.0 0.0 0.0 
1.0 0.0 0.0 
1.0 0.0 0.0 
1.0 0.0 0.0 
1.0 0.0 0.0 
1.0 0.0 0.0 
1.0 0.0 0.0 
1.0 0.0 0.0 
1.0 0.0 0.0 
1.0 0.0 0.0 
1.0 0.0 0.0 
1.0 0.0 0.0 
1.0 0.0 0.0 
1.0 0.0 0.0 
1.0 0.0 0.0 
1.0 0.0 0.0 
1.0 0.0 0.0 
1.0 0.0 0.0 
1.0 0.0 0.0 
1.0 0.0 0.0 
1.0 0.0 0.0 
1.0 0.0 0.0 
1.0 0.0 0.0 
1.0 0.0 0.0 
1.0 0.0 0.0 
1.0 0.0 0.0 
1.0 0.0 0.0 
1.0 0.0 0.0 
1.0 0.0 0.0 
1.0 0.0 0.0 
1.0 0.0 0.0 
1.0 0.0 0.0 
1.0 0.0 0.0 
1.0 0.0 0.0 
1.0 0.0 0.0 
1.0 0.0 0.0 
1.0 0.0 0.0 
1.0 0.0 0.0 
1.0 0.0 0.0 
1.0 0.0 0.0 
1.0 0.0 0.0 
1.0 0.0 0.0 
1.0 0.0 0.0 
1.0 0.0 0.0 
1.0 0.0 0.0 
0.0 1.0 0.0 
0.0 1.0 0.0 
0.0 1.0 0.0 
0.0 1.0 0.0 
0.0 1.0 0.0 
0.0 1.0 0.0 
0.0 1.0 0.0 
0.0 1.0 0.0 
0.0 1.0 0.0 
0.0 1.0 0.0 
0.0 1.0 0.0 
0.0 1.0 0.0 
0.0 1.0 0.0 
0.0 1.0 0.0 
0.0 1.0 0.0 
0.0 1.0 0.0 
0.0 1.0 0.0 
0.0 1.0 0.0 
0.0 1.0 0.0 
0.0 1.0 0.0 
0.0 1.0 0.0 
0.0 1.0 0.0 
0.0 1.0 0.0 
0.0 1.0 0.0 
0.0 1.0 0.0 
0.0 1.0 0.0 
0.0 1.0 0.0 
0.0 1.0 0.0 
0.0 1.0 0.0 
0.0 1.0 0.0 
0.0 1.0 0.0 
0.0 1.0 0.0 
0.0 1.0 0.0 
0.0 1.0 0.0 
0.0 1.0 0.0 
0.0 1.0 0.0 
0.0 1.0 0.0 
0.0 1.0 0.0 
0.0 1.0 0.0 
0.0 1.0 0.0 
0.0 1.0 0.0 
0.0 1.0 0.0 
0.0 1.0 0.0 
0.0 1.0 0.0 
0.0 1.0 0.0 
0.0 1.0 0.0 
0.0 1.0 0.0 
0.0 1.0 0.0 
0.0 1.0 0.0 
0.0 1.0 0.0 
0.0 0.0 1.0 
0.0 0.0 1.0 
0.0 0.0 1.0 
0.0 0.0 1.0 
0.0 0.0 1.0 
0.0 0.0 1.0 
0.0 0.0 1.0 
0.0 0.0 1.0 
0.0 0.0 1.0 
0.0 0.0 1.0 
0.0 0.0 1.0 
0.0 0.0 1.0 
0.0 0.0 1.0 
0.0 0.0 1.0 
0.0 0.0 1.0 
0.0 0.0 1.0 
0.0 0.0 1.0 
0.0 0.0 1.0 
0.0 0.0 1.0 
0.0 0.0 1.0 
0.0 0.0 1.0 
0.0 0.0 1.0 
0.0 0.0 1.0 
0.0 0.0 1.0 
0.0 0.0 1.0 
0.0 0.0 1.0 
0.0 0.0 1.0 
0.0 0.0 1.0 
0.0 0.0 1.0 
0.0 0.0 1.0 
0.0 0.0 1.0 
0.0 0.0 1.0 
0.0 0.0 1.0 
0.0 0.0 1.0 
0.0 0.0 1.0 
0.0 0.0 1.0 
0.0 0.0 1.0 
0.0 0.0 1.0 
0.0 0.0 1.0 
0.0 0.0 1.0 
0.0 0.0 1.0 
0.0 0.0 1.0 
0.0 0.0 1.0 
0.0 0.0 1.0 
0.0 0.0 1.0 
0.0 0.0 1.0 
0.0 0.0 1.0 
0.0 0.0 1.0 
0.0 0.0 1.0 
0.0 0.0 1.0 
Learning : 0.6000000238418579
Momentum : 0.9
Epoch: 100, Error: 0.013596987489221047
Epoch: 200, Error: 0.012896315856897784
Epoch: 300, Error: 0.01198887374008453
Epoch: 400, Error: 0.019269331987483932
Epoch: 500, Error: 0.012288985880180178
Epoch: 600, Error: 0.011785993312571269
Epoch: 700, Error: 0.01267041706089086
Epoch: 800, Error: 0.01329412517397075
Epoch: 900, Error: 0.011888356603641586
Epoch: 1000, Error: 0.012076878148321387
Epoch: 1100, Error: 0.011715466832197081
Epoch: 1200, Error: 0.011616328886567398
Epoch: 1300, Error: 0.011935222144847463
Epoch: 1400, Error: 0.011824607188697874
Epoch: 1500, Error: 0.011462249593196683
Epoch: 1600, Error: 0.011544412953150207
Epoch: 1700, Error: 0.01491062294932546
Epoch: 1800, Error: 0.01096995539694497
Epoch: 1900, Error: 0.01101615391909302
Epoch: 2000, Error: 0.01162647378844881
Epoch: 2100, Error: 0.010758638971354859
Epoch: 2200, Error: 0.010821887455894585
Epoch: 2300, Error: 0.009919433235940535
Epoch: 2400, Error: 0.009771422945271058
Epoch: 2500, Error: 0.009612784969668567
Epoch: 2600, Error: 0.0086350175548176
Epoch: 2700, Error: 0.008087212937009064
Epoch: 2800, Error: 0.007342293397956142
Epoch: 2900, Error: 0.006680395580578559
Epoch: 3000, Error: 0.006106659169986291
Epoch: 3100, Error: 0.005679086214512142
Epoch: 3200, Error: 0.005450276953133906
Epoch: 3300, Error: 0.005286547524837826
Epoch: 3400, Error: 0.005245235440248769
Epoch: 3500, Error: 0.005036148985211118
Epoch: 3600, Error: 0.005098002553437406
Epoch: 3700, Error: 0.0049555201454776765
Epoch: 3800, Error: 0.004950960520450119
Epoch: 3900, Error: 0.004926277088065238
Epoch: 4000, Error: 0.004889479899975761
Epoch: 4100, Error: 0.0049419264603825655
Epoch: 4200, Error: 0.00501425943633119
Epoch: 4300, Error: 0.004916846021783804
Epoch: 4400, Error: 0.004876462926116856
Epoch: 4500, Error: 0.0049250295678147805
Epoch: 4600, Error: 0.00487664154401097
Epoch: 4700, Error: 0.004834672992262168
Epoch: 4800, Error: 0.004823279033708024
Epoch: 4900, Error: 0.004785446731346555
Epoch: 5000, Error: 0.004764487753064553
Epoch: 5100, Error: 0.004794030065799657
Epoch: 5200, Error: 0.00482106870027398
Epoch: 5300, Error: 0.004686996191362724
Epoch: 5400, Error: 0.00480883045595834
Epoch: 5500, Error: 0.004664327810525239
Epoch: 5600, Error: 0.004791378775676988
Epoch: 5700, Error: 0.005070108748002855
Epoch: 5800, Error: 0.004812173177848236
Epoch: 5900, Error: 0.004922947914817268
Epoch: 6000, Error: 0.004812413691567348
Epoch: 6100, Error: 0.0045698503940972265
Epoch: 6200, Error: 0.004191748690165477
Epoch: 6300, Error: 0.004059268237718517
Epoch: 6400, Error: 0.00753123654743234
Epoch: 6500, Error: 0.004532471230843371
Epoch: 6600, Error: 0.0038947547100382546
Epoch: 6700, Error: 0.004244557250517251
Epoch: 6800, Error: 0.004421947855489615
Epoch: 6900, Error: 0.0034138970137351523
Epoch: 7000, Error: 0.0033053751181664815
Epoch: 7100, Error: 0.003090670292085167
Epoch: 7200, Error: 0.0028834356153502744
Epoch: 7300, Error: 0.0042236293952175544
Epoch: 7400, Error: 0.004085525265200261
Epoch: 7500, Error: 0.0026705766279219384
Epoch: 7600, Error: 0.008229074806864366
Epoch: 7700, Error: 0.0038997353657730135
Epoch: 7800, Error: 0.0028338643256973226
Epoch: 7900, Error: 0.003377089960143871
Epoch: 8000, Error: 0.0026944876258508978
Epoch: 8100, Error: 0.002395382332350552
Epoch: 8200, Error: 0.0025701008780456476
Epoch: 8300, Error: 0.002642720957419395
Epoch: 8400, Error: 0.0025653407149593154
Epoch: 8500, Error: 0.004013297013880665
Epoch: 8600, Error: 0.0033158360300346145
Epoch: 8700, Error: 0.0046974683490561
Epoch: 8800, Error: 0.0073324845723717865
Epoch: 8900, Error: 0.0017775424647278608
Epoch: 9000, Error: 0.0013667687836020333
Epoch: 9100, Error: 0.002709445296220346
Epoch: 9200, Error: 0.0016869321829529878
Epoch: 9300, Error: 9.325716224189775E-4
Epoch: 9400, Error: 0.005443597280926941
Epoch: 9500, Error: 0.00269827913468655
Epoch: 9600, Error: 0.0029396451405015625
Epoch: 9700, Error: 0.003960663354126134
Epoch: 9800, Error: 0.0038103757342533837
Epoch: 9900, Error: 8.920203888700943E-4
Epoch: 10000, Error: 6.31664234573883E-4
Epoch: 10100, Error: 5.821233228738899E-4
Epoch: 10200, Error: 7.753780494657784E-4
Epoch: 10300, Error: 6.322700672401158E-4
Epoch: 10400, Error: 6.116324071866928E-4
Epoch: 10500, Error: 5.534612880273155E-4
Epoch: 10600, Error: 5.654389136339354E-4
Epoch: 10700, Error: 5.211037168378443E-4
Epoch: 10800, Error: 5.424924130789695E-4
Epoch: 10900, Error: 5.247673427590874E-4
Epoch: 11000, Error: 5.010062387340774E-4
Epoch: 11100, Error: 4.75930973288387E-4
Epoch: 11200, Error: 5.017957351142726E-4
Epoch: 11300, Error: 4.54384788059751E-4
Epoch: 11400, Error: 4.678613658077946E-4
Epoch: 11500, Error: 4.7880907938833235E-4
Epoch: 11600, Error: 4.676692736614035E-4
Epoch: 11700, Error: 4.1475540849021355E-4
Epoch: 11800, Error: 4.5116027565812923E-4
Epoch: 11900, Error: 4.300393286344972E-4
Epoch: 12000, Error: 3.866962883646781E-4
Epoch: 12100, Error: 3.712394822670136E-4
Epoch: 12200, Error: 4.031346776956195E-4
Epoch: 12300, Error: 3.944841354742951E-4
Epoch: 12400, Error: 3.979135482751995E-4
Epoch: 12500, Error: 3.751825647251704E-4
Epoch: 12600, Error: 3.719749821087513E-4
Epoch: 12700, Error: 3.6374143150800256E-4
Epoch: 12800, Error: 3.4098715123753937E-4
Epoch: 12900, Error: 3.3246203830358405E-4
Epoch: 13000, Error: 3.580392938960135E-4
Epoch: 13100, Error: 3.3931920209378586E-4
Epoch: 13200, Error: 3.4265292964160733E-4
Epoch: 13300, Error: 3.350828504259566E-4
Epoch: 13400, Error: 3.307344869861486E-4
Epoch: 13500, Error: 3.2883529177138676E-4
Epoch: 13600, Error: 3.435822417493173E-4
Epoch: 13700, Error: 3.2736721783666213E-4
Epoch: 13800, Error: 3.5057647452961164E-4
Finished
