Input Patterns
0.224 0.624 0.067 0.043 
0.11 0.502 0.051 0.043 
0.196 0.667 0.067 0.043 
0.055 0.584 0.067 0.082 
0.027 0.376 0.067 0.043 
0.306 0.71 0.086 0.043 
0.137 0.416 0.067 0.0 
0.416 0.831 0.035 0.043 
0.306 0.792 0.051 0.125 
0.388 0.749 0.118 0.082 
0.306 0.584 0.118 0.043 
0.082 0.667 0.0 0.043 
0.137 0.584 0.153 0.043 
0.196 0.584 0.102 0.125 
0.251 0.584 0.067 0.043 
0.137 0.459 0.102 0.043 
0.251 0.875 0.086 0.0 
0.165 0.459 0.086 0.043 
0.333 0.624 0.051 0.043 
0.027 0.416 0.051 0.043 
0.196 0.624 0.051 0.082 
0.027 0.502 0.051 0.043 
0.224 0.749 0.153 0.125 
0.224 0.749 0.102 0.043 
0.278 0.71 0.086 0.043 
0.165 0.416 0.067 0.043 
0.082 0.459 0.086 0.043 
0.306 0.792 0.118 0.125 
0.196 0.584 0.086 0.043 
0.165 0.459 0.086 0.0 
0.137 0.584 0.102 0.043 
0.0 0.416 0.016 0.0 
0.388 1.0 0.086 0.125 
0.224 0.624 0.067 0.082 
0.224 0.749 0.086 0.082 
0.224 0.71 0.086 0.125 
0.224 0.541 0.118 0.165 
0.196 0.416 0.102 0.043 
0.251 0.624 0.086 0.043 
0.11 0.502 0.102 0.043 
0.306 0.584 0.086 0.125 
0.333 0.918 0.067 0.043 
0.196 0.502 0.035 0.043 
0.165 0.667 0.067 0.0 
0.224 0.584 0.086 0.043 
0.055 0.125 0.051 0.082 
0.196 0.624 0.102 0.208 
0.137 0.416 0.067 0.082 
0.082 0.502 0.067 0.043 
0.196 0.541 0.067 0.043 
0.749 0.502 0.627 0.541 
0.722 0.459 0.663 0.584 
0.612 0.333 0.612 0.584 
0.557 0.541 0.627 0.624 
0.639 0.376 0.612 0.498 
0.196 0.0 0.424 0.376 
0.471 0.082 0.51 0.376 
0.361 0.376 0.439 0.498 
0.361 0.416 0.592 0.584 
0.529 0.082 0.592 0.584 
0.443 0.502 0.643 0.459 
0.557 0.208 0.663 0.584 
0.584 0.376 0.561 0.498 
0.694 0.333 0.643 0.541 
0.471 0.376 0.592 0.584 
0.333 0.169 0.475 0.416 
0.416 0.29 0.49 0.459 
0.306 0.416 0.592 0.584 
0.667 0.459 0.627 0.584 
0.361 0.416 0.525 0.498 
0.333 0.251 0.576 0.459 
0.416 0.251 0.51 0.459 
0.361 0.29 0.541 0.498 
0.388 0.376 0.541 0.498 
0.224 0.208 0.337 0.416 
0.584 0.502 0.592 0.584 
0.333 0.125 0.51 0.498 
0.388 0.333 0.592 0.498 
0.165 0.169 0.388 0.376 
0.251 0.29 0.49 0.541 
0.443 0.416 0.541 0.584 
0.498 0.376 0.627 0.541 
0.667 0.459 0.576 0.541 
0.416 0.29 0.525 0.376 
0.361 0.208 0.49 0.416 
0.498 0.333 0.51 0.498 
0.498 0.333 0.627 0.459 
0.639 0.416 0.576 0.541 
0.667 0.416 0.678 0.667 
0.388 0.251 0.424 0.376 
0.333 0.169 0.459 0.376 
0.471 0.29 0.694 0.624 
0.471 0.584 0.592 0.624 
0.557 0.125 0.576 0.498 
0.333 0.208 0.51 0.498 
0.498 0.416 0.612 0.541 
0.196 0.125 0.388 0.376 
0.388 0.416 0.541 0.459 
0.529 0.376 0.561 0.498 
0.388 0.333 0.525 0.498 
0.557 0.541 0.847 1.0 
0.776 0.416 0.831 0.831 
0.612 0.416 0.812 0.875 
0.165 0.208 0.592 0.667 
0.667 0.208 0.812 0.71 
0.612 0.502 0.694 0.792 
0.694 0.416 0.761 0.831 
0.416 0.333 0.694 0.957 
0.612 0.416 0.761 0.71 
0.945 0.251 1.0 0.918 
0.722 0.502 0.796 0.918 
0.945 0.333 0.965 0.792 
0.667 0.541 0.796 0.831 
0.529 0.333 0.643 0.71 
0.584 0.333 0.78 0.831 
0.863 0.333 0.863 0.749 
0.584 0.333 0.78 0.875 
0.498 0.251 0.78 0.541 
0.557 0.584 0.78 0.957 
0.471 0.416 0.643 0.71 
0.667 0.459 0.78 0.957 
0.416 0.29 0.694 0.749 
0.667 0.541 0.796 1.0 
0.557 0.208 0.678 0.749 
0.529 0.584 0.745 0.918 
0.416 0.29 0.694 0.749 
0.557 0.376 0.78 0.71 
0.918 0.416 0.949 0.831 
0.835 0.376 0.898 0.71 
0.804 0.667 0.863 1.0 
0.584 0.29 0.729 0.749 
0.388 0.208 0.678 0.792 
0.584 0.502 0.729 0.918 
0.945 0.749 0.965 0.875 
0.471 0.082 0.678 0.584 
0.361 0.333 0.663 0.792 
0.557 0.29 0.663 0.71 
0.804 0.502 0.847 0.71 
0.498 0.416 0.51 0.71 
0.804 0.416 0.812 0.624 
1.0 0.749 0.914 0.792 
0.557 0.333 0.694 0.584 
0.945 0.416 0.863 0.918 
0.584 0.459 0.761 0.71 
0.722 0.459 0.745 0.831 
0.722 0.459 0.694 0.918 
0.694 0.502 0.831 0.918 
0.667 0.416 0.714 0.918 
0.612 0.416 0.714 0.792 
0.443 0.416 0.694 0.71 
Teaching Patterns
1.0 0.0 0.0 
1.0 0.0 0.0 
1.0 0.0 0.0 
1.0 0.0 0.0 
1.0 0.0 0.0 
1.0 0.0 0.0 
1.0 0.0 0.0 
1.0 0.0 0.0 
1.0 0.0 0.0 
1.0 0.0 0.0 
1.0 0.0 0.0 
1.0 0.0 0.0 
1.0 0.0 0.0 
1.0 0.0 0.0 
1.0 0.0 0.0 
1.0 0.0 0.0 
1.0 0.0 0.0 
1.0 0.0 0.0 
1.0 0.0 0.0 
1.0 0.0 0.0 
1.0 0.0 0.0 
1.0 0.0 0.0 
1.0 0.0 0.0 
1.0 0.0 0.0 
1.0 0.0 0.0 
1.0 0.0 0.0 
1.0 0.0 0.0 
1.0 0.0 0.0 
1.0 0.0 0.0 
1.0 0.0 0.0 
1.0 0.0 0.0 
1.0 0.0 0.0 
1.0 0.0 0.0 
1.0 0.0 0.0 
1.0 0.0 0.0 
1.0 0.0 0.0 
1.0 0.0 0.0 
1.0 0.0 0.0 
1.0 0.0 0.0 
1.0 0.0 0.0 
1.0 0.0 0.0 
1.0 0.0 0.0 
1.0 0.0 0.0 
1.0 0.0 0.0 
1.0 0.0 0.0 
1.0 0.0 0.0 
1.0 0.0 0.0 
1.0 0.0 0.0 
1.0 0.0 0.0 
1.0 0.0 0.0 
0.0 1.0 0.0 
0.0 1.0 0.0 
0.0 1.0 0.0 
0.0 1.0 0.0 
0.0 1.0 0.0 
0.0 1.0 0.0 
0.0 1.0 0.0 
0.0 1.0 0.0 
0.0 1.0 0.0 
0.0 1.0 0.0 
0.0 1.0 0.0 
0.0 1.0 0.0 
0.0 1.0 0.0 
0.0 1.0 0.0 
0.0 1.0 0.0 
0.0 1.0 0.0 
0.0 1.0 0.0 
0.0 1.0 0.0 
0.0 1.0 0.0 
0.0 1.0 0.0 
0.0 1.0 0.0 
0.0 1.0 0.0 
0.0 1.0 0.0 
0.0 1.0 0.0 
0.0 1.0 0.0 
0.0 1.0 0.0 
0.0 1.0 0.0 
0.0 1.0 0.0 
0.0 1.0 0.0 
0.0 1.0 0.0 
0.0 1.0 0.0 
0.0 1.0 0.0 
0.0 1.0 0.0 
0.0 1.0 0.0 
0.0 1.0 0.0 
0.0 1.0 0.0 
0.0 1.0 0.0 
0.0 1.0 0.0 
0.0 1.0 0.0 
0.0 1.0 0.0 
0.0 1.0 0.0 
0.0 1.0 0.0 
0.0 1.0 0.0 
0.0 1.0 0.0 
0.0 1.0 0.0 
0.0 1.0 0.0 
0.0 1.0 0.0 
0.0 1.0 0.0 
0.0 1.0 0.0 
0.0 1.0 0.0 
0.0 0.0 1.0 
0.0 0.0 1.0 
0.0 0.0 1.0 
0.0 0.0 1.0 
0.0 0.0 1.0 
0.0 0.0 1.0 
0.0 0.0 1.0 
0.0 0.0 1.0 
0.0 0.0 1.0 
0.0 0.0 1.0 
0.0 0.0 1.0 
0.0 0.0 1.0 
0.0 0.0 1.0 
0.0 0.0 1.0 
0.0 0.0 1.0 
0.0 0.0 1.0 
0.0 0.0 1.0 
0.0 0.0 1.0 
0.0 0.0 1.0 
0.0 0.0 1.0 
0.0 0.0 1.0 
0.0 0.0 1.0 
0.0 0.0 1.0 
0.0 0.0 1.0 
0.0 0.0 1.0 
0.0 0.0 1.0 
0.0 0.0 1.0 
0.0 0.0 1.0 
0.0 0.0 1.0 
0.0 0.0 1.0 
0.0 0.0 1.0 
0.0 0.0 1.0 
0.0 0.0 1.0 
0.0 0.0 1.0 
0.0 0.0 1.0 
0.0 0.0 1.0 
0.0 0.0 1.0 
0.0 0.0 1.0 
0.0 0.0 1.0 
0.0 0.0 1.0 
0.0 0.0 1.0 
0.0 0.0 1.0 
0.0 0.0 1.0 
0.0 0.0 1.0 
0.0 0.0 1.0 
0.0 0.0 1.0 
0.0 0.0 1.0 
0.0 0.0 1.0 
0.0 0.0 1.0 
0.0 0.0 1.0 
Learning : 0.6000000238418579
Momentum : 0.9
Epoch: 100, Error: 0.01243015828857563
Epoch: 200, Error: 0.01252917246601133
Epoch: 300, Error: 0.012060874330688946
Epoch: 400, Error: 0.012374844576911721
Epoch: 500, Error: 0.018407475805013486
Epoch: 600, Error: 0.012099582990763157
Epoch: 700, Error: 0.012402583232097173
Epoch: 800, Error: 0.012490318931950892
Epoch: 900, Error: 0.012341106021310196
Epoch: 1000, Error: 0.01375703743466667
Epoch: 1100, Error: 0.012239585814885342
Epoch: 1200, Error: 0.012971349521638567
Epoch: 1300, Error: 0.011971065418901004
Epoch: 1400, Error: 0.01189363940139692
Epoch: 1500, Error: 0.011799176648827202
Epoch: 1600, Error: 0.01257395300755961
Epoch: 1700, Error: 0.011762831146624483
Epoch: 1800, Error: 0.011688102391404068
Epoch: 1900, Error: 0.011887047630753067
Epoch: 2000, Error: 0.011387700808623643
Epoch: 2100, Error: 0.011416855022730052
Epoch: 2200, Error: 0.011508457974260852
Epoch: 2300, Error: 0.011171444929693172
Epoch: 2400, Error: 0.011723917817502044
Epoch: 2500, Error: 0.010683250042937329
Epoch: 2600, Error: 0.009964740891736257
Epoch: 2700, Error: 0.009283902079186597
Epoch: 2800, Error: 0.00806172823825034
Epoch: 2900, Error: 0.007523916644056189
Epoch: 3000, Error: 0.00755105352473519
Epoch: 3100, Error: 0.006845225338151971
Epoch: 3200, Error: 0.006610882564047999
Epoch: 3300, Error: 0.007167092784884404
Epoch: 3400, Error: 0.005706781932437886
Epoch: 3500, Error: 0.0055104099204379645
Epoch: 3600, Error: 0.00532843988336387
Epoch: 3700, Error: 0.005178145122719871
Epoch: 3800, Error: 0.005474792175952743
Epoch: 3900, Error: 0.005068930480518028
Epoch: 4000, Error: 0.005056066288363463
Epoch: 4100, Error: 0.005029070319333353
Epoch: 4200, Error: 0.0050313820181682395
Epoch: 4300, Error: 0.005019364630499748
Epoch: 4400, Error: 0.005000686229575471
Epoch: 4500, Error: 0.005003065499371219
Epoch: 4600, Error: 0.004996679296374691
Epoch: 4700, Error: 0.0050177305751951074
Epoch: 4800, Error: 0.004972235798724786
Epoch: 4900, Error: 0.004990345874824493
Epoch: 5000, Error: 0.0050091552605600964
Epoch: 5100, Error: 0.004991689226197238
Epoch: 5200, Error: 0.004983911055804839
Epoch: 5300, Error: 0.00497258000458943
Epoch: 5400, Error: 0.004944386808876744
Epoch: 5500, Error: 0.004924464162058744
Epoch: 5600, Error: 0.004952250913932575
Epoch: 5700, Error: 0.004923148336860507
Epoch: 5800, Error: 0.0049103719189111305
Epoch: 5900, Error: 0.004906126008285828
Epoch: 6000, Error: 0.004896783369966445
Epoch: 6100, Error: 0.004890557471676988
Epoch: 6200, Error: 0.004912984507097351
Epoch: 6300, Error: 0.00487932751008924
Epoch: 6400, Error: 0.004887826527362701
Epoch: 6500, Error: 0.004871945747525582
Epoch: 6600, Error: 0.004887011914767645
Epoch: 6700, Error: 0.004875237597549534
Epoch: 6800, Error: 0.004883429977636301
Epoch: 6900, Error: 0.004878497774301665
Epoch: 7000, Error: 0.00488280065476989
Epoch: 7100, Error: 0.0049256791826753354
Epoch: 7200, Error: 0.004922573678999911
Epoch: 7300, Error: 0.004846873192950098
Epoch: 7400, Error: 0.004975183741040891
Epoch: 7500, Error: 0.004822633537055405
Epoch: 7600, Error: 0.004834416489885118
Epoch: 7700, Error: 0.004865915243253569
Epoch: 7800, Error: 0.004858681915438638
Epoch: 7900, Error: 0.004901370967885552
Epoch: 8000, Error: 0.004814988749826635
Epoch: 8100, Error: 0.004905834707747639
Epoch: 8200, Error: 0.005017451152315497
Epoch: 8300, Error: 0.0047060356994105546
Epoch: 8400, Error: 0.0046736821640088865
Epoch: 8500, Error: 0.004680574474136625
Epoch: 8600, Error: 0.004671821255792046
Epoch: 8700, Error: 0.004730150972297151
Epoch: 8800, Error: 0.004608192227477387
Epoch: 8900, Error: 0.0044748091924622655
Epoch: 9000, Error: 0.004625164568516594
Epoch: 9100, Error: 0.004279720259347337
Epoch: 9200, Error: 0.0041714378924721214
Epoch: 9300, Error: 0.004164484746578558
Epoch: 9400, Error: 0.0041424043390064684
Epoch: 9500, Error: 0.00397487777820272
Epoch: 9600, Error: 0.00406945844469629
Epoch: 9700, Error: 0.004020210039583277
Epoch: 9800, Error: 0.003731148395374187
Epoch: 9900, Error: 0.0031217670455732384
Epoch: 10000, Error: 0.003704468323790122
Epoch: 10100, Error: 0.0026660096615815313
Epoch: 10200, Error: 0.0035247380690953795
Epoch: 10300, Error: 0.0023119643101834177
Epoch: 10400, Error: 0.003487555686346564
Epoch: 10500, Error: 0.002911010231876777
Epoch: 10600, Error: 0.0022976345921025217
Epoch: 10700, Error: 0.0026349784310968336
Epoch: 10800, Error: 0.0029238927338312254
Epoch: 10900, Error: 0.003987203086888431
Epoch: 11000, Error: 0.002302652490544311
Epoch: 11100, Error: 0.0014241429462915761
Epoch: 11200, Error: 0.0028510807503537633
Epoch: 11300, Error: 0.003445702283978749
Epoch: 11400, Error: 0.00119402128895652
Epoch: 11500, Error: 0.0027925695293619145
Epoch: 11600, Error: 0.0025037943966027872
Epoch: 11700, Error: 0.0016541612288362689
Epoch: 11800, Error: 0.004658836347675423
Epoch: 11900, Error: 0.0014898140191529068
Epoch: 12000, Error: 0.0016377361566612457
Epoch: 12100, Error: 0.001170207895235363
Epoch: 12200, Error: 0.006681768106437501
Epoch: 12300, Error: 0.0011537220919498584
Epoch: 12400, Error: 0.0019784456277527653
Epoch: 12500, Error: 9.29600576759369E-4
Epoch: 12600, Error: 8.274278636661292E-4
Epoch: 12700, Error: 9.910457359172265E-4
Epoch: 12800, Error: 8.770504173910592E-4
Epoch: 12900, Error: 8.8574932029633E-4
Epoch: 13000, Error: 8.684006006230497E-4
Epoch: 13100, Error: 7.650325374866005E-4
Epoch: 13200, Error: 8.227276308539301E-4
Epoch: 13300, Error: 8.15760124952622E-4
Epoch: 13400, Error: 7.929560197249757E-4
Epoch: 13500, Error: 7.51417134209774E-4
Epoch: 13600, Error: 6.5169888897565E-4
Epoch: 13700, Error: 6.051537701078231E-4
Epoch: 13800, Error: 6.309143732763655E-4
Epoch: 13900, Error: 6.445757936758205E-4
Epoch: 14000, Error: 6.006463322438558E-4
Epoch: 14100, Error: 5.625625834549402E-4
Epoch: 14200, Error: 6.403799635021797E-4
Epoch: 14300, Error: 5.665464715509335E-4
Epoch: 14400, Error: 5.825810268013517E-4
Epoch: 14500, Error: 5.662794184996724E-4
Epoch: 14600, Error: 5.599335188434384E-4
Epoch: 14700, Error: 5.725642792448016E-4
Epoch: 14800, Error: 6.555380230442418E-4
Epoch: 14900, Error: 6.706079344179901E-4
Finished
