Input Patterns
0.224 0.624 0.067 0.043 
0.11 0.502 0.051 0.043 
0.196 0.667 0.067 0.043 
0.055 0.584 0.067 0.082 
0.027 0.376 0.067 0.043 
0.306 0.71 0.086 0.043 
0.137 0.416 0.067 0.0 
0.416 0.831 0.035 0.043 
0.306 0.792 0.051 0.125 
0.388 0.749 0.118 0.082 
0.306 0.584 0.118 0.043 
0.082 0.667 0.0 0.043 
0.137 0.584 0.153 0.043 
0.196 0.584 0.102 0.125 
0.251 0.584 0.067 0.043 
0.137 0.459 0.102 0.043 
0.251 0.875 0.086 0.0 
0.165 0.459 0.086 0.043 
0.333 0.624 0.051 0.043 
0.027 0.416 0.051 0.043 
0.196 0.624 0.051 0.082 
0.027 0.502 0.051 0.043 
0.224 0.749 0.153 0.125 
0.224 0.749 0.102 0.043 
0.278 0.71 0.086 0.043 
0.165 0.416 0.067 0.043 
0.082 0.459 0.086 0.043 
0.306 0.792 0.118 0.125 
0.196 0.584 0.086 0.043 
0.165 0.459 0.086 0.0 
0.137 0.584 0.102 0.043 
0.0 0.416 0.016 0.0 
0.388 1.0 0.086 0.125 
0.224 0.624 0.067 0.082 
0.224 0.749 0.086 0.082 
0.224 0.71 0.086 0.125 
0.224 0.541 0.118 0.165 
0.196 0.416 0.102 0.043 
0.251 0.624 0.086 0.043 
0.11 0.502 0.102 0.043 
0.306 0.584 0.086 0.125 
0.333 0.918 0.067 0.043 
0.196 0.502 0.035 0.043 
0.165 0.667 0.067 0.0 
0.224 0.584 0.086 0.043 
0.055 0.125 0.051 0.082 
0.196 0.624 0.102 0.208 
0.137 0.416 0.067 0.082 
0.082 0.502 0.067 0.043 
0.196 0.541 0.067 0.043 
0.749 0.502 0.627 0.541 
0.722 0.459 0.663 0.584 
0.612 0.333 0.612 0.584 
0.557 0.541 0.627 0.624 
0.639 0.376 0.612 0.498 
0.196 0.0 0.424 0.376 
0.471 0.082 0.51 0.376 
0.361 0.376 0.439 0.498 
0.361 0.416 0.592 0.584 
0.529 0.082 0.592 0.584 
0.443 0.502 0.643 0.459 
0.557 0.208 0.663 0.584 
0.584 0.376 0.561 0.498 
0.694 0.333 0.643 0.541 
0.471 0.376 0.592 0.584 
0.333 0.169 0.475 0.416 
0.416 0.29 0.49 0.459 
0.306 0.416 0.592 0.584 
0.667 0.459 0.627 0.584 
0.361 0.416 0.525 0.498 
0.333 0.251 0.576 0.459 
0.416 0.251 0.51 0.459 
0.361 0.29 0.541 0.498 
0.388 0.376 0.541 0.498 
0.224 0.208 0.337 0.416 
0.584 0.502 0.592 0.584 
0.333 0.125 0.51 0.498 
0.388 0.333 0.592 0.498 
0.165 0.169 0.388 0.376 
0.251 0.29 0.49 0.541 
0.443 0.416 0.541 0.584 
0.498 0.376 0.627 0.541 
0.667 0.459 0.576 0.541 
0.416 0.29 0.525 0.376 
0.361 0.208 0.49 0.416 
0.498 0.333 0.51 0.498 
0.498 0.333 0.627 0.459 
0.639 0.416 0.576 0.541 
0.667 0.416 0.678 0.667 
0.388 0.251 0.424 0.376 
0.333 0.169 0.459 0.376 
0.471 0.29 0.694 0.624 
0.471 0.584 0.592 0.624 
0.557 0.125 0.576 0.498 
0.333 0.208 0.51 0.498 
0.498 0.416 0.612 0.541 
0.196 0.125 0.388 0.376 
0.388 0.416 0.541 0.459 
0.529 0.376 0.561 0.498 
0.388 0.333 0.525 0.498 
0.557 0.541 0.847 1.0 
0.776 0.416 0.831 0.831 
0.612 0.416 0.812 0.875 
0.165 0.208 0.592 0.667 
0.667 0.208 0.812 0.71 
0.612 0.502 0.694 0.792 
0.694 0.416 0.761 0.831 
0.416 0.333 0.694 0.957 
0.612 0.416 0.761 0.71 
0.945 0.251 1.0 0.918 
0.722 0.502 0.796 0.918 
0.945 0.333 0.965 0.792 
0.667 0.541 0.796 0.831 
0.529 0.333 0.643 0.71 
0.584 0.333 0.78 0.831 
0.863 0.333 0.863 0.749 
0.584 0.333 0.78 0.875 
0.498 0.251 0.78 0.541 
0.557 0.584 0.78 0.957 
0.471 0.416 0.643 0.71 
0.667 0.459 0.78 0.957 
0.416 0.29 0.694 0.749 
0.667 0.541 0.796 1.0 
0.557 0.208 0.678 0.749 
0.529 0.584 0.745 0.918 
0.416 0.29 0.694 0.749 
0.557 0.376 0.78 0.71 
0.918 0.416 0.949 0.831 
0.835 0.376 0.898 0.71 
0.804 0.667 0.863 1.0 
0.584 0.29 0.729 0.749 
0.388 0.208 0.678 0.792 
0.584 0.502 0.729 0.918 
0.945 0.749 0.965 0.875 
0.471 0.082 0.678 0.584 
0.361 0.333 0.663 0.792 
0.557 0.29 0.663 0.71 
0.804 0.502 0.847 0.71 
0.498 0.416 0.51 0.71 
0.804 0.416 0.812 0.624 
1.0 0.749 0.914 0.792 
0.557 0.333 0.694 0.584 
0.945 0.416 0.863 0.918 
0.584 0.459 0.761 0.71 
0.722 0.459 0.745 0.831 
0.722 0.459 0.694 0.918 
0.694 0.502 0.831 0.918 
0.667 0.416 0.714 0.918 
0.612 0.416 0.714 0.792 
0.443 0.416 0.694 0.71 
Teaching Patterns
1.0 0.0 0.0 
1.0 0.0 0.0 
1.0 0.0 0.0 
1.0 0.0 0.0 
1.0 0.0 0.0 
1.0 0.0 0.0 
1.0 0.0 0.0 
1.0 0.0 0.0 
1.0 0.0 0.0 
1.0 0.0 0.0 
1.0 0.0 0.0 
1.0 0.0 0.0 
1.0 0.0 0.0 
1.0 0.0 0.0 
1.0 0.0 0.0 
1.0 0.0 0.0 
1.0 0.0 0.0 
1.0 0.0 0.0 
1.0 0.0 0.0 
1.0 0.0 0.0 
1.0 0.0 0.0 
1.0 0.0 0.0 
1.0 0.0 0.0 
1.0 0.0 0.0 
1.0 0.0 0.0 
1.0 0.0 0.0 
1.0 0.0 0.0 
1.0 0.0 0.0 
1.0 0.0 0.0 
1.0 0.0 0.0 
1.0 0.0 0.0 
1.0 0.0 0.0 
1.0 0.0 0.0 
1.0 0.0 0.0 
1.0 0.0 0.0 
1.0 0.0 0.0 
1.0 0.0 0.0 
1.0 0.0 0.0 
1.0 0.0 0.0 
1.0 0.0 0.0 
1.0 0.0 0.0 
1.0 0.0 0.0 
1.0 0.0 0.0 
1.0 0.0 0.0 
1.0 0.0 0.0 
1.0 0.0 0.0 
1.0 0.0 0.0 
1.0 0.0 0.0 
1.0 0.0 0.0 
1.0 0.0 0.0 
0.0 1.0 0.0 
0.0 1.0 0.0 
0.0 1.0 0.0 
0.0 1.0 0.0 
0.0 1.0 0.0 
0.0 1.0 0.0 
0.0 1.0 0.0 
0.0 1.0 0.0 
0.0 1.0 0.0 
0.0 1.0 0.0 
0.0 1.0 0.0 
0.0 1.0 0.0 
0.0 1.0 0.0 
0.0 1.0 0.0 
0.0 1.0 0.0 
0.0 1.0 0.0 
0.0 1.0 0.0 
0.0 1.0 0.0 
0.0 1.0 0.0 
0.0 1.0 0.0 
0.0 1.0 0.0 
0.0 1.0 0.0 
0.0 1.0 0.0 
0.0 1.0 0.0 
0.0 1.0 0.0 
0.0 1.0 0.0 
0.0 1.0 0.0 
0.0 1.0 0.0 
0.0 1.0 0.0 
0.0 1.0 0.0 
0.0 1.0 0.0 
0.0 1.0 0.0 
0.0 1.0 0.0 
0.0 1.0 0.0 
0.0 1.0 0.0 
0.0 1.0 0.0 
0.0 1.0 0.0 
0.0 1.0 0.0 
0.0 1.0 0.0 
0.0 1.0 0.0 
0.0 1.0 0.0 
0.0 1.0 0.0 
0.0 1.0 0.0 
0.0 1.0 0.0 
0.0 1.0 0.0 
0.0 1.0 0.0 
0.0 1.0 0.0 
0.0 1.0 0.0 
0.0 1.0 0.0 
0.0 1.0 0.0 
0.0 0.0 1.0 
0.0 0.0 1.0 
0.0 0.0 1.0 
0.0 0.0 1.0 
0.0 0.0 1.0 
0.0 0.0 1.0 
0.0 0.0 1.0 
0.0 0.0 1.0 
0.0 0.0 1.0 
0.0 0.0 1.0 
0.0 0.0 1.0 
0.0 0.0 1.0 
0.0 0.0 1.0 
0.0 0.0 1.0 
0.0 0.0 1.0 
0.0 0.0 1.0 
0.0 0.0 1.0 
0.0 0.0 1.0 
0.0 0.0 1.0 
0.0 0.0 1.0 
0.0 0.0 1.0 
0.0 0.0 1.0 
0.0 0.0 1.0 
0.0 0.0 1.0 
0.0 0.0 1.0 
0.0 0.0 1.0 
0.0 0.0 1.0 
0.0 0.0 1.0 
0.0 0.0 1.0 
0.0 0.0 1.0 
0.0 0.0 1.0 
0.0 0.0 1.0 
0.0 0.0 1.0 
0.0 0.0 1.0 
0.0 0.0 1.0 
0.0 0.0 1.0 
0.0 0.0 1.0 
0.0 0.0 1.0 
0.0 0.0 1.0 
0.0 0.0 1.0 
0.0 0.0 1.0 
0.0 0.0 1.0 
0.0 0.0 1.0 
0.0 0.0 1.0 
0.0 0.0 1.0 
0.0 0.0 1.0 
0.0 0.0 1.0 
0.0 0.0 1.0 
0.0 0.0 1.0 
0.0 0.0 1.0 
Learning : 0.6000000238418579
Momentum : 0.9
Epoch: 100, Error: 0.012987953626256224
Epoch: 200, Error: 0.01237699722285707
Epoch: 300, Error: 0.01616802697688458
Epoch: 400, Error: 0.012198783007550522
Epoch: 500, Error: 0.015478484090192406
Epoch: 600, Error: 0.01329185432414226
Epoch: 700, Error: 0.013213610762163694
Epoch: 800, Error: 0.016848009005298707
Epoch: 900, Error: 0.0123955893253476
Epoch: 1000, Error: 0.011860009188100129
Epoch: 1100, Error: 0.012152516474633035
Epoch: 1200, Error: 0.011849843800449518
Epoch: 1300, Error: 0.011963128406366642
Epoch: 1400, Error: 0.011980906122250359
Epoch: 1500, Error: 0.011550231376628077
Epoch: 1600, Error: 0.012162423019305157
Epoch: 1700, Error: 0.01158311913903116
Epoch: 1800, Error: 0.011420530769199074
Epoch: 1900, Error: 0.012375158866462595
Epoch: 2000, Error: 0.013458198107339224
Epoch: 2100, Error: 0.011320487503974954
Epoch: 2200, Error: 0.01248884259989767
Epoch: 2300, Error: 0.011686101358788968
Epoch: 2400, Error: 0.010796825961185003
Epoch: 2500, Error: 0.010494994475783346
Epoch: 2600, Error: 0.010389836618764728
Epoch: 2700, Error: 0.010528470657970496
Epoch: 2800, Error: 0.010074883612466282
Epoch: 2900, Error: 0.009827192966310483
Epoch: 3000, Error: 0.009698252370744469
Epoch: 3100, Error: 0.011420075438593288
Epoch: 3200, Error: 0.00961149734471034
Epoch: 3300, Error: 0.00949056999491262
Epoch: 3400, Error: 0.010072390580705073
Epoch: 3500, Error: 0.00877262653956029
Epoch: 3600, Error: 0.008929892653360189
Epoch: 3700, Error: 0.008426752721906041
Epoch: 3800, Error: 0.007875413304543057
Epoch: 3900, Error: 0.008433052906170437
Epoch: 4000, Error: 0.008823964240084265
Epoch: 4100, Error: 0.0074750629679317965
Epoch: 4200, Error: 0.007409970559136688
Epoch: 4300, Error: 0.007190236183140377
Epoch: 4400, Error: 0.007118261648892258
Epoch: 4500, Error: 0.006880761704906828
Epoch: 4600, Error: 0.007291705906999483
Epoch: 4700, Error: 0.00848878524977083
Epoch: 4800, Error: 0.006223687247917388
Epoch: 4900, Error: 0.005959364576586815
Epoch: 5000, Error: 0.005942859000888259
Epoch: 5100, Error: 0.0056576930085789024
Epoch: 5200, Error: 0.005454049858852264
Epoch: 5300, Error: 0.00547296034112006
Epoch: 5400, Error: 0.005513850903567683
Epoch: 5500, Error: 0.005311704415230073
Epoch: 5600, Error: 0.005170594357993938
Epoch: 5700, Error: 0.005187425006702785
Epoch: 5800, Error: 0.005408995898936007
Epoch: 5900, Error: 0.0052242703482463845
Epoch: 6000, Error: 0.005297343801594154
Epoch: 6100, Error: 0.005221065038911253
Epoch: 6200, Error: 0.005182049269475791
Epoch: 6300, Error: 0.005299579489585228
Epoch: 6400, Error: 0.005235594266590579
Epoch: 6500, Error: 0.005203179108769296
Epoch: 6600, Error: 0.005235103062612137
Epoch: 6700, Error: 0.005161214325596631
Epoch: 6800, Error: 0.005182309414328491
Epoch: 6900, Error: 0.005156749870960339
Epoch: 7000, Error: 0.005137609967040822
Epoch: 7100, Error: 0.005171102818454161
Epoch: 7200, Error: 0.005180752564986934
Epoch: 7300, Error: 0.005087257725625537
Epoch: 7400, Error: 0.005049437949378591
Epoch: 7500, Error: 0.005033516765169038
Epoch: 7600, Error: 0.00500567101723534
Epoch: 7700, Error: 0.004984391277878004
Epoch: 7800, Error: 0.004980625035922072
Epoch: 7900, Error: 0.004964150967709177
Epoch: 8000, Error: 0.004918684219103838
Epoch: 8100, Error: 0.004924732560031752
Epoch: 8200, Error: 0.004892215320868529
Epoch: 8300, Error: 0.004862324002087337
Epoch: 8400, Error: 0.004878772800363016
Epoch: 8500, Error: 0.004909773305868425
Epoch: 8600, Error: 0.0047168197799217606
Epoch: 8700, Error: 0.0046597082292375094
Epoch: 8800, Error: 0.004659404222554915
Epoch: 8900, Error: 0.0045783070697907515
Epoch: 9000, Error: 0.004569405628308232
Epoch: 9100, Error: 0.004571231037335696
Epoch: 9200, Error: 0.00452230580293835
Epoch: 9300, Error: 0.004381930653073299
Epoch: 9400, Error: 0.004495578665605316
Epoch: 9500, Error: 0.00460243817805357
Epoch: 9600, Error: 0.0043243581419815935
Epoch: 9700, Error: 0.004191031836984958
Epoch: 9800, Error: 0.004307650865617554
Epoch: 9900, Error: 0.004185147541121765
Epoch: 10000, Error: 0.003985497887562549
Epoch: 10100, Error: 0.004069948800794634
Epoch: 10200, Error: 0.003979642838708455
Epoch: 10300, Error: 0.0037380001570877035
Epoch: 10400, Error: 0.0036202141720618453
Epoch: 10500, Error: 0.003879535127009036
Epoch: 10600, Error: 0.003554952887627044
Epoch: 10700, Error: 0.0033672635958602775
Epoch: 10800, Error: 0.0039033790460555147
Epoch: 10900, Error: 0.0035212771960455866
Epoch: 11000, Error: 0.0035227258132570737
Epoch: 11100, Error: 0.0028173078328015493
Epoch: 11200, Error: 0.0037227989034114167
Epoch: 11300, Error: 0.0025712393779367196
Epoch: 11400, Error: 0.002832368775182806
Epoch: 11500, Error: 0.0028814094908267596
Epoch: 11600, Error: 0.0034300566541499234
Epoch: 11700, Error: 0.002963992644651358
Epoch: 11800, Error: 0.002762393567601717
Epoch: 11900, Error: 0.001768318107067861
Epoch: 12000, Error: 0.0018583431808321025
Epoch: 12100, Error: 0.0041434957393412875
Epoch: 12200, Error: 0.002067497657504919
Epoch: 12300, Error: 0.00281447360483166
Epoch: 12400, Error: 0.0013317674879509006
Epoch: 12500, Error: 0.003507127388423944
Epoch: 12600, Error: 0.005121475253920922
Epoch: 12700, Error: 0.0012818802329499985
Epoch: 12800, Error: 0.0010066376005622376
Epoch: 12900, Error: 0.0014061289645083393
Epoch: 13000, Error: 0.0028850773706084565
Epoch: 13100, Error: 0.002303927838737241
Epoch: 13200, Error: 0.0014093606328586855
Epoch: 13300, Error: 0.0018675316953922453
Epoch: 13400, Error: 9.51485074306233E-4
Epoch: 13500, Error: 6.665920143929466E-4
Epoch: 13600, Error: 8.58193123443448E-4
Epoch: 13700, Error: 6.856482873266196E-4
Epoch: 13800, Error: 6.799860838890273E-4
Epoch: 13900, Error: 6.449874454925176E-4
Epoch: 14000, Error: 7.038010427436063E-4
Epoch: 14100, Error: 6.792211668268547E-4
Epoch: 14200, Error: 6.000870261616804E-4
Epoch: 14300, Error: 6.168141399487733E-4
Epoch: 14400, Error: 6.408743082839854E-4
Epoch: 14500, Error: 6.320275749616915E-4
Epoch: 14600, Error: 6.496498505912281E-4
Epoch: 14700, Error: 5.862415541750778E-4
Epoch: 14800, Error: 5.839615848303088E-4
Epoch: 14900, Error: 6.031192296666669E-4
Epoch: 15000, Error: 5.582542403336285E-4
Epoch: 15100, Error: 5.480219371091476E-4
Epoch: 15200, Error: 5.539511358937173E-4
Epoch: 15300, Error: 5.35935262674264E-4
Epoch: 15400, Error: 5.617877081781203E-4
Epoch: 15500, Error: 5.492344586113491E-4
Epoch: 15600, Error: 5.419080268392112E-4
Epoch: 15700, Error: 5.318736113511019E-4
Epoch: 15800, Error: 5.272266051696312E-4
Epoch: 15900, Error: 5.38193671764439E-4
Finished
