Input Patterns
0.224 0.624 0.067 0.043 
0.11 0.502 0.051 0.043 
0.196 0.667 0.067 0.043 
0.055 0.584 0.067 0.082 
0.027 0.376 0.067 0.043 
0.306 0.71 0.086 0.043 
0.137 0.416 0.067 0.0 
0.416 0.831 0.035 0.043 
0.306 0.792 0.051 0.125 
0.388 0.749 0.118 0.082 
0.306 0.584 0.118 0.043 
0.082 0.667 0.0 0.043 
0.137 0.584 0.153 0.043 
0.196 0.584 0.102 0.125 
0.251 0.584 0.067 0.043 
0.137 0.459 0.102 0.043 
0.251 0.875 0.086 0.0 
0.165 0.459 0.086 0.043 
0.333 0.624 0.051 0.043 
0.027 0.416 0.051 0.043 
0.196 0.624 0.051 0.082 
0.027 0.502 0.051 0.043 
0.224 0.749 0.153 0.125 
0.224 0.749 0.102 0.043 
0.278 0.71 0.086 0.043 
0.165 0.416 0.067 0.043 
0.082 0.459 0.086 0.043 
0.306 0.792 0.118 0.125 
0.196 0.584 0.086 0.043 
0.165 0.459 0.086 0.0 
0.137 0.584 0.102 0.043 
0.0 0.416 0.016 0.0 
0.388 1.0 0.086 0.125 
0.224 0.624 0.067 0.082 
0.224 0.749 0.086 0.082 
0.224 0.71 0.086 0.125 
0.224 0.541 0.118 0.165 
0.196 0.416 0.102 0.043 
0.251 0.624 0.086 0.043 
0.11 0.502 0.102 0.043 
0.306 0.584 0.086 0.125 
0.333 0.918 0.067 0.043 
0.196 0.502 0.035 0.043 
0.165 0.667 0.067 0.0 
0.224 0.584 0.086 0.043 
0.055 0.125 0.051 0.082 
0.196 0.624 0.102 0.208 
0.137 0.416 0.067 0.082 
0.082 0.502 0.067 0.043 
0.196 0.541 0.067 0.043 
0.749 0.502 0.627 0.541 
0.722 0.459 0.663 0.584 
0.612 0.333 0.612 0.584 
0.557 0.541 0.627 0.624 
0.639 0.376 0.612 0.498 
0.196 0.0 0.424 0.376 
0.471 0.082 0.51 0.376 
0.361 0.376 0.439 0.498 
0.361 0.416 0.592 0.584 
0.529 0.082 0.592 0.584 
0.443 0.502 0.643 0.459 
0.557 0.208 0.663 0.584 
0.584 0.376 0.561 0.498 
0.694 0.333 0.643 0.541 
0.471 0.376 0.592 0.584 
0.333 0.169 0.475 0.416 
0.416 0.29 0.49 0.459 
0.306 0.416 0.592 0.584 
0.667 0.459 0.627 0.584 
0.361 0.416 0.525 0.498 
0.333 0.251 0.576 0.459 
0.416 0.251 0.51 0.459 
0.361 0.29 0.541 0.498 
0.388 0.376 0.541 0.498 
0.224 0.208 0.337 0.416 
0.584 0.502 0.592 0.584 
0.333 0.125 0.51 0.498 
0.388 0.333 0.592 0.498 
0.165 0.169 0.388 0.376 
0.251 0.29 0.49 0.541 
0.443 0.416 0.541 0.584 
0.498 0.376 0.627 0.541 
0.667 0.459 0.576 0.541 
0.416 0.29 0.525 0.376 
0.361 0.208 0.49 0.416 
0.498 0.333 0.51 0.498 
0.498 0.333 0.627 0.459 
0.639 0.416 0.576 0.541 
0.667 0.416 0.678 0.667 
0.388 0.251 0.424 0.376 
0.333 0.169 0.459 0.376 
0.471 0.29 0.694 0.624 
0.471 0.584 0.592 0.624 
0.557 0.125 0.576 0.498 
0.333 0.208 0.51 0.498 
0.498 0.416 0.612 0.541 
0.196 0.125 0.388 0.376 
0.388 0.416 0.541 0.459 
0.529 0.376 0.561 0.498 
0.388 0.333 0.525 0.498 
0.557 0.541 0.847 1.0 
0.776 0.416 0.831 0.831 
0.612 0.416 0.812 0.875 
0.165 0.208 0.592 0.667 
0.667 0.208 0.812 0.71 
0.612 0.502 0.694 0.792 
0.694 0.416 0.761 0.831 
0.416 0.333 0.694 0.957 
0.612 0.416 0.761 0.71 
0.945 0.251 1.0 0.918 
0.722 0.502 0.796 0.918 
0.945 0.333 0.965 0.792 
0.667 0.541 0.796 0.831 
0.529 0.333 0.643 0.71 
0.584 0.333 0.78 0.831 
0.863 0.333 0.863 0.749 
0.584 0.333 0.78 0.875 
0.498 0.251 0.78 0.541 
0.557 0.584 0.78 0.957 
0.471 0.416 0.643 0.71 
0.667 0.459 0.78 0.957 
0.416 0.29 0.694 0.749 
0.667 0.541 0.796 1.0 
0.557 0.208 0.678 0.749 
0.529 0.584 0.745 0.918 
0.416 0.29 0.694 0.749 
0.557 0.376 0.78 0.71 
0.918 0.416 0.949 0.831 
0.835 0.376 0.898 0.71 
0.804 0.667 0.863 1.0 
0.584 0.29 0.729 0.749 
0.388 0.208 0.678 0.792 
0.584 0.502 0.729 0.918 
0.945 0.749 0.965 0.875 
0.471 0.082 0.678 0.584 
0.361 0.333 0.663 0.792 
0.557 0.29 0.663 0.71 
0.804 0.502 0.847 0.71 
0.498 0.416 0.51 0.71 
0.804 0.416 0.812 0.624 
1.0 0.749 0.914 0.792 
0.557 0.333 0.694 0.584 
0.945 0.416 0.863 0.918 
0.584 0.459 0.761 0.71 
0.722 0.459 0.745 0.831 
0.722 0.459 0.694 0.918 
0.694 0.502 0.831 0.918 
0.667 0.416 0.714 0.918 
0.612 0.416 0.714 0.792 
0.443 0.416 0.694 0.71 
Teaching Patterns
1.0 0.0 0.0 
1.0 0.0 0.0 
1.0 0.0 0.0 
1.0 0.0 0.0 
1.0 0.0 0.0 
1.0 0.0 0.0 
1.0 0.0 0.0 
1.0 0.0 0.0 
1.0 0.0 0.0 
1.0 0.0 0.0 
1.0 0.0 0.0 
1.0 0.0 0.0 
1.0 0.0 0.0 
1.0 0.0 0.0 
1.0 0.0 0.0 
1.0 0.0 0.0 
1.0 0.0 0.0 
1.0 0.0 0.0 
1.0 0.0 0.0 
1.0 0.0 0.0 
1.0 0.0 0.0 
1.0 0.0 0.0 
1.0 0.0 0.0 
1.0 0.0 0.0 
1.0 0.0 0.0 
1.0 0.0 0.0 
1.0 0.0 0.0 
1.0 0.0 0.0 
1.0 0.0 0.0 
1.0 0.0 0.0 
1.0 0.0 0.0 
1.0 0.0 0.0 
1.0 0.0 0.0 
1.0 0.0 0.0 
1.0 0.0 0.0 
1.0 0.0 0.0 
1.0 0.0 0.0 
1.0 0.0 0.0 
1.0 0.0 0.0 
1.0 0.0 0.0 
1.0 0.0 0.0 
1.0 0.0 0.0 
1.0 0.0 0.0 
1.0 0.0 0.0 
1.0 0.0 0.0 
1.0 0.0 0.0 
1.0 0.0 0.0 
1.0 0.0 0.0 
1.0 0.0 0.0 
1.0 0.0 0.0 
0.0 1.0 0.0 
0.0 1.0 0.0 
0.0 1.0 0.0 
0.0 1.0 0.0 
0.0 1.0 0.0 
0.0 1.0 0.0 
0.0 1.0 0.0 
0.0 1.0 0.0 
0.0 1.0 0.0 
0.0 1.0 0.0 
0.0 1.0 0.0 
0.0 1.0 0.0 
0.0 1.0 0.0 
0.0 1.0 0.0 
0.0 1.0 0.0 
0.0 1.0 0.0 
0.0 1.0 0.0 
0.0 1.0 0.0 
0.0 1.0 0.0 
0.0 1.0 0.0 
0.0 1.0 0.0 
0.0 1.0 0.0 
0.0 1.0 0.0 
0.0 1.0 0.0 
0.0 1.0 0.0 
0.0 1.0 0.0 
0.0 1.0 0.0 
0.0 1.0 0.0 
0.0 1.0 0.0 
0.0 1.0 0.0 
0.0 1.0 0.0 
0.0 1.0 0.0 
0.0 1.0 0.0 
0.0 1.0 0.0 
0.0 1.0 0.0 
0.0 1.0 0.0 
0.0 1.0 0.0 
0.0 1.0 0.0 
0.0 1.0 0.0 
0.0 1.0 0.0 
0.0 1.0 0.0 
0.0 1.0 0.0 
0.0 1.0 0.0 
0.0 1.0 0.0 
0.0 1.0 0.0 
0.0 1.0 0.0 
0.0 1.0 0.0 
0.0 1.0 0.0 
0.0 1.0 0.0 
0.0 1.0 0.0 
0.0 0.0 1.0 
0.0 0.0 1.0 
0.0 0.0 1.0 
0.0 0.0 1.0 
0.0 0.0 1.0 
0.0 0.0 1.0 
0.0 0.0 1.0 
0.0 0.0 1.0 
0.0 0.0 1.0 
0.0 0.0 1.0 
0.0 0.0 1.0 
0.0 0.0 1.0 
0.0 0.0 1.0 
0.0 0.0 1.0 
0.0 0.0 1.0 
0.0 0.0 1.0 
0.0 0.0 1.0 
0.0 0.0 1.0 
0.0 0.0 1.0 
0.0 0.0 1.0 
0.0 0.0 1.0 
0.0 0.0 1.0 
0.0 0.0 1.0 
0.0 0.0 1.0 
0.0 0.0 1.0 
0.0 0.0 1.0 
0.0 0.0 1.0 
0.0 0.0 1.0 
0.0 0.0 1.0 
0.0 0.0 1.0 
0.0 0.0 1.0 
0.0 0.0 1.0 
0.0 0.0 1.0 
0.0 0.0 1.0 
0.0 0.0 1.0 
0.0 0.0 1.0 
0.0 0.0 1.0 
0.0 0.0 1.0 
0.0 0.0 1.0 
0.0 0.0 1.0 
0.0 0.0 1.0 
0.0 0.0 1.0 
0.0 0.0 1.0 
0.0 0.0 1.0 
0.0 0.0 1.0 
0.0 0.0 1.0 
0.0 0.0 1.0 
0.0 0.0 1.0 
0.0 0.0 1.0 
0.0 0.0 1.0 
Learning : 0.6000000238418579
Momentum : 0.9
Epoch: 100, Error: 0.013856096208625603
Epoch: 200, Error: 0.013510056106047027
Epoch: 300, Error: 0.012076551411627518
Epoch: 400, Error: 0.012359759842741812
Epoch: 500, Error: 0.014245360766927846
Epoch: 600, Error: 0.012164527176649153
Epoch: 700, Error: 0.01211006203989723
Epoch: 800, Error: 0.012367348929808966
Epoch: 900, Error: 0.016614480916681166
Epoch: 1000, Error: 0.01255247727939276
Epoch: 1100, Error: 0.01509994854942704
Epoch: 1200, Error: 0.012491795647651903
Epoch: 1300, Error: 0.012559365125493067
Epoch: 1400, Error: 0.01319822946725935
Epoch: 1500, Error: 0.012538516970109666
Epoch: 1600, Error: 0.012539378468153572
Epoch: 1700, Error: 0.01265986341708431
Epoch: 1800, Error: 0.012295392146480528
Epoch: 1900, Error: 0.012375623647168014
Epoch: 2000, Error: 0.01415255282786148
Epoch: 2100, Error: 0.01220911522702822
Epoch: 2200, Error: 0.01293622482789287
Epoch: 2300, Error: 0.012672678779563271
Epoch: 2400, Error: 0.012385052464818545
Epoch: 2500, Error: 0.013630108538657114
Epoch: 2600, Error: 0.012374554135770406
Epoch: 2700, Error: 0.012338198770655113
Epoch: 2800, Error: 0.012333326423417413
Epoch: 2900, Error: 0.012831847196320125
Epoch: 3000, Error: 0.012445754819100834
Epoch: 3100, Error: 0.012518959070881241
Epoch: 3200, Error: 0.012702954387447457
Epoch: 3300, Error: 0.012273963358073387
Epoch: 3400, Error: 0.012212177390542554
Epoch: 3500, Error: 0.012222147832464711
Epoch: 3600, Error: 0.012450083693235435
Epoch: 3700, Error: 0.012260778281029507
Epoch: 3800, Error: 0.012597777480856498
Epoch: 3900, Error: 0.014022559852106469
Epoch: 4000, Error: 0.01230456097628655
Epoch: 4100, Error: 0.011999557647769363
Epoch: 4200, Error: 0.012036834668953398
Epoch: 4300, Error: 0.011732937105130856
Epoch: 4400, Error: 0.011813296853360758
Epoch: 4500, Error: 0.011749100331077959
Epoch: 4600, Error: 0.011889477520708456
Epoch: 4700, Error: 0.011247092824996597
Epoch: 4800, Error: 0.011136191100820005
Epoch: 4900, Error: 0.010607467290456989
Epoch: 5000, Error: 0.009325195055782226
Epoch: 5100, Error: 0.008142078866657758
Epoch: 5200, Error: 0.007832250379310332
Epoch: 5300, Error: 0.007434978676522852
Epoch: 5400, Error: 0.007216341550697126
Epoch: 5500, Error: 0.006708392396946836
Epoch: 5600, Error: 0.006589214829089872
Epoch: 5700, Error: 0.006195662093066653
Epoch: 5800, Error: 0.0059771495551074
Epoch: 5900, Error: 0.007926827234050957
Epoch: 6000, Error: 0.006119994443865829
Epoch: 6100, Error: 0.005925778345350429
Epoch: 6200, Error: 0.005766576000307194
Epoch: 6300, Error: 0.005699659474796984
Epoch: 6400, Error: 0.005801312813662347
Epoch: 6500, Error: 0.005621762309403198
Epoch: 6600, Error: 0.005710481160280735
Epoch: 6700, Error: 0.005555540943457393
Epoch: 6800, Error: 0.0057942981308342235
Epoch: 6900, Error: 0.005677856497658678
Epoch: 7000, Error: 0.005627596111931669
Epoch: 7100, Error: 0.005621428944244335
Epoch: 7200, Error: 0.005611431277470621
Epoch: 7300, Error: 0.00556023684273004
Epoch: 7400, Error: 0.0054766356084439095
Epoch: 7500, Error: 0.0054553876052607884
Epoch: 7600, Error: 0.005574830959513455
Epoch: 7700, Error: 0.005383094313327111
Epoch: 7800, Error: 0.005376701064633281
Epoch: 7900, Error: 0.0054225864130239545
Epoch: 8000, Error: 0.005333780291398598
Epoch: 8100, Error: 0.005264829454458344
Epoch: 8200, Error: 0.005316179152937649
Epoch: 8300, Error: 0.005240573466338534
Epoch: 8400, Error: 0.005407895977084003
Epoch: 8500, Error: 0.0050354952723882795
Epoch: 8600, Error: 0.004886866820482672
Epoch: 8700, Error: 0.004856032479897443
Epoch: 8800, Error: 0.004774067208083157
Epoch: 8900, Error: 0.004649282351180141
Epoch: 9000, Error: 0.004627236115852091
Epoch: 9100, Error: 0.004394676822084724
Epoch: 9200, Error: 0.004253064566059676
Epoch: 9300, Error: 0.00403300606935356
Epoch: 9400, Error: 0.003916625766439934
Epoch: 9500, Error: 0.003880306603437864
Epoch: 9600, Error: 0.003638693715782937
Epoch: 9700, Error: 0.0032833934126505243
Epoch: 9800, Error: 0.004057389084500343
Epoch: 9900, Error: 0.002905717991464346
Epoch: 10000, Error: 0.0025724628805488016
Epoch: 10100, Error: 0.0025504967775277576
Epoch: 10200, Error: 0.0027250088137492513
Epoch: 10300, Error: 0.0026417136809905794
Epoch: 10400, Error: 0.0025699023646393562
Epoch: 10500, Error: 0.0016551599575342713
Epoch: 10600, Error: 0.0015458233988604774
Epoch: 10700, Error: 0.001579982949777018
Epoch: 10800, Error: 0.0013868735947996395
Epoch: 10900, Error: 0.0012333636092549973
Epoch: 11000, Error: 0.0013009471837371305
Epoch: 11100, Error: 0.0011912565541987246
Epoch: 11200, Error: 0.0011807787293837617
Epoch: 11300, Error: 0.0011215296509394473
Epoch: 11400, Error: 0.0010595205174788545
Epoch: 11500, Error: 0.0011050150584057982
Epoch: 11600, Error: 0.0011657274515891674
Epoch: 11700, Error: 0.0011417150969105633
Epoch: 11800, Error: 0.0011283309128442879
Epoch: 11900, Error: 0.001092320900876868
Epoch: 12000, Error: 0.001075808246711942
Epoch: 12100, Error: 0.0010693380254900658
Epoch: 12200, Error: 0.0010478392708297844
Epoch: 12300, Error: 0.0010723582480624092
Epoch: 12400, Error: 0.0010474373143900008
Epoch: 12500, Error: 0.0010424125165609498
Epoch: 12600, Error: 0.00105309132572019
Epoch: 12700, Error: 9.99725318904158E-4
Epoch: 12800, Error: 9.902056033571482E-4
Epoch: 12900, Error: 0.00102359729657426
Epoch: 13000, Error: 9.901008589946474E-4
Epoch: 13100, Error: 9.641603145141215E-4
Epoch: 13200, Error: 9.484682348970553E-4
Epoch: 13300, Error: 9.428340728779583E-4
Epoch: 13400, Error: 9.494423467096694E-4
Epoch: 13500, Error: 9.220548743555631E-4
Epoch: 13600, Error: 9.144094243280116E-4
Epoch: 13700, Error: 8.820359366650122E-4
Epoch: 13800, Error: 8.795949676391093E-4
Epoch: 13900, Error: 8.863829712605881E-4
Epoch: 14000, Error: 8.869250628474082E-4
Epoch: 14100, Error: 8.696780282355653E-4
Epoch: 14200, Error: 8.610922988306113E-4
Epoch: 14300, Error: 8.414309963519841E-4
Epoch: 14400, Error: 8.473372913603916E-4
Finished
