Input Patterns
0.224 0.624 0.067 0.043 
0.11 0.502 0.051 0.043 
0.196 0.667 0.067 0.043 
0.055 0.584 0.067 0.082 
0.027 0.376 0.067 0.043 
0.306 0.71 0.086 0.043 
0.137 0.416 0.067 0.0 
0.416 0.831 0.035 0.043 
0.306 0.792 0.051 0.125 
0.388 0.749 0.118 0.082 
0.306 0.584 0.118 0.043 
0.082 0.667 0.0 0.043 
0.137 0.584 0.153 0.043 
0.196 0.584 0.102 0.125 
0.251 0.584 0.067 0.043 
0.137 0.459 0.102 0.043 
0.251 0.875 0.086 0.0 
0.165 0.459 0.086 0.043 
0.333 0.624 0.051 0.043 
0.027 0.416 0.051 0.043 
0.196 0.624 0.051 0.082 
0.027 0.502 0.051 0.043 
0.224 0.749 0.153 0.125 
0.224 0.749 0.102 0.043 
0.278 0.71 0.086 0.043 
0.165 0.416 0.067 0.043 
0.082 0.459 0.086 0.043 
0.306 0.792 0.118 0.125 
0.196 0.584 0.086 0.043 
0.165 0.459 0.086 0.0 
0.137 0.584 0.102 0.043 
0.0 0.416 0.016 0.0 
0.388 1.0 0.086 0.125 
0.224 0.624 0.067 0.082 
0.224 0.749 0.086 0.082 
0.224 0.71 0.086 0.125 
0.224 0.541 0.118 0.165 
0.196 0.416 0.102 0.043 
0.251 0.624 0.086 0.043 
0.11 0.502 0.102 0.043 
0.306 0.584 0.086 0.125 
0.333 0.918 0.067 0.043 
0.196 0.502 0.035 0.043 
0.165 0.667 0.067 0.0 
0.224 0.584 0.086 0.043 
0.055 0.125 0.051 0.082 
0.196 0.624 0.102 0.208 
0.137 0.416 0.067 0.082 
0.082 0.502 0.067 0.043 
0.196 0.541 0.067 0.043 
0.749 0.502 0.627 0.541 
0.722 0.459 0.663 0.584 
0.612 0.333 0.612 0.584 
0.557 0.541 0.627 0.624 
0.639 0.376 0.612 0.498 
0.196 0.0 0.424 0.376 
0.471 0.082 0.51 0.376 
0.361 0.376 0.439 0.498 
0.361 0.416 0.592 0.584 
0.529 0.082 0.592 0.584 
0.443 0.502 0.643 0.459 
0.557 0.208 0.663 0.584 
0.584 0.376 0.561 0.498 
0.694 0.333 0.643 0.541 
0.471 0.376 0.592 0.584 
0.333 0.169 0.475 0.416 
0.416 0.29 0.49 0.459 
0.306 0.416 0.592 0.584 
0.667 0.459 0.627 0.584 
0.361 0.416 0.525 0.498 
0.333 0.251 0.576 0.459 
0.416 0.251 0.51 0.459 
0.361 0.29 0.541 0.498 
0.388 0.376 0.541 0.498 
0.224 0.208 0.337 0.416 
0.584 0.502 0.592 0.584 
0.333 0.125 0.51 0.498 
0.388 0.333 0.592 0.498 
0.165 0.169 0.388 0.376 
0.251 0.29 0.49 0.541 
0.443 0.416 0.541 0.584 
0.498 0.376 0.627 0.541 
0.667 0.459 0.576 0.541 
0.416 0.29 0.525 0.376 
0.361 0.208 0.49 0.416 
0.498 0.333 0.51 0.498 
0.498 0.333 0.627 0.459 
0.639 0.416 0.576 0.541 
0.667 0.416 0.678 0.667 
0.388 0.251 0.424 0.376 
0.333 0.169 0.459 0.376 
0.471 0.29 0.694 0.624 
0.471 0.584 0.592 0.624 
0.557 0.125 0.576 0.498 
0.333 0.208 0.51 0.498 
0.498 0.416 0.612 0.541 
0.196 0.125 0.388 0.376 
0.388 0.416 0.541 0.459 
0.529 0.376 0.561 0.498 
0.388 0.333 0.525 0.498 
0.557 0.541 0.847 1.0 
0.776 0.416 0.831 0.831 
0.612 0.416 0.812 0.875 
0.165 0.208 0.592 0.667 
0.667 0.208 0.812 0.71 
0.612 0.502 0.694 0.792 
0.694 0.416 0.761 0.831 
0.416 0.333 0.694 0.957 
0.612 0.416 0.761 0.71 
0.945 0.251 1.0 0.918 
0.722 0.502 0.796 0.918 
0.945 0.333 0.965 0.792 
0.667 0.541 0.796 0.831 
0.529 0.333 0.643 0.71 
0.584 0.333 0.78 0.831 
0.863 0.333 0.863 0.749 
0.584 0.333 0.78 0.875 
0.498 0.251 0.78 0.541 
0.557 0.584 0.78 0.957 
0.471 0.416 0.643 0.71 
0.667 0.459 0.78 0.957 
0.416 0.29 0.694 0.749 
0.667 0.541 0.796 1.0 
0.557 0.208 0.678 0.749 
0.529 0.584 0.745 0.918 
0.416 0.29 0.694 0.749 
0.557 0.376 0.78 0.71 
0.918 0.416 0.949 0.831 
0.835 0.376 0.898 0.71 
0.804 0.667 0.863 1.0 
0.584 0.29 0.729 0.749 
0.388 0.208 0.678 0.792 
0.584 0.502 0.729 0.918 
0.945 0.749 0.965 0.875 
0.471 0.082 0.678 0.584 
0.361 0.333 0.663 0.792 
0.557 0.29 0.663 0.71 
0.804 0.502 0.847 0.71 
0.498 0.416 0.51 0.71 
0.804 0.416 0.812 0.624 
1.0 0.749 0.914 0.792 
0.557 0.333 0.694 0.584 
0.945 0.416 0.863 0.918 
0.584 0.459 0.761 0.71 
0.722 0.459 0.745 0.831 
0.722 0.459 0.694 0.918 
0.694 0.502 0.831 0.918 
0.667 0.416 0.714 0.918 
0.612 0.416 0.714 0.792 
0.443 0.416 0.694 0.71 
Teaching Patterns
1.0 0.0 0.0 
1.0 0.0 0.0 
1.0 0.0 0.0 
1.0 0.0 0.0 
1.0 0.0 0.0 
1.0 0.0 0.0 
1.0 0.0 0.0 
1.0 0.0 0.0 
1.0 0.0 0.0 
1.0 0.0 0.0 
1.0 0.0 0.0 
1.0 0.0 0.0 
1.0 0.0 0.0 
1.0 0.0 0.0 
1.0 0.0 0.0 
1.0 0.0 0.0 
1.0 0.0 0.0 
1.0 0.0 0.0 
1.0 0.0 0.0 
1.0 0.0 0.0 
1.0 0.0 0.0 
1.0 0.0 0.0 
1.0 0.0 0.0 
1.0 0.0 0.0 
1.0 0.0 0.0 
1.0 0.0 0.0 
1.0 0.0 0.0 
1.0 0.0 0.0 
1.0 0.0 0.0 
1.0 0.0 0.0 
1.0 0.0 0.0 
1.0 0.0 0.0 
1.0 0.0 0.0 
1.0 0.0 0.0 
1.0 0.0 0.0 
1.0 0.0 0.0 
1.0 0.0 0.0 
1.0 0.0 0.0 
1.0 0.0 0.0 
1.0 0.0 0.0 
1.0 0.0 0.0 
1.0 0.0 0.0 
1.0 0.0 0.0 
1.0 0.0 0.0 
1.0 0.0 0.0 
1.0 0.0 0.0 
1.0 0.0 0.0 
1.0 0.0 0.0 
1.0 0.0 0.0 
1.0 0.0 0.0 
0.0 1.0 0.0 
0.0 1.0 0.0 
0.0 1.0 0.0 
0.0 1.0 0.0 
0.0 1.0 0.0 
0.0 1.0 0.0 
0.0 1.0 0.0 
0.0 1.0 0.0 
0.0 1.0 0.0 
0.0 1.0 0.0 
0.0 1.0 0.0 
0.0 1.0 0.0 
0.0 1.0 0.0 
0.0 1.0 0.0 
0.0 1.0 0.0 
0.0 1.0 0.0 
0.0 1.0 0.0 
0.0 1.0 0.0 
0.0 1.0 0.0 
0.0 1.0 0.0 
0.0 1.0 0.0 
0.0 1.0 0.0 
0.0 1.0 0.0 
0.0 1.0 0.0 
0.0 1.0 0.0 
0.0 1.0 0.0 
0.0 1.0 0.0 
0.0 1.0 0.0 
0.0 1.0 0.0 
0.0 1.0 0.0 
0.0 1.0 0.0 
0.0 1.0 0.0 
0.0 1.0 0.0 
0.0 1.0 0.0 
0.0 1.0 0.0 
0.0 1.0 0.0 
0.0 1.0 0.0 
0.0 1.0 0.0 
0.0 1.0 0.0 
0.0 1.0 0.0 
0.0 1.0 0.0 
0.0 1.0 0.0 
0.0 1.0 0.0 
0.0 1.0 0.0 
0.0 1.0 0.0 
0.0 1.0 0.0 
0.0 1.0 0.0 
0.0 1.0 0.0 
0.0 1.0 0.0 
0.0 1.0 0.0 
0.0 0.0 1.0 
0.0 0.0 1.0 
0.0 0.0 1.0 
0.0 0.0 1.0 
0.0 0.0 1.0 
0.0 0.0 1.0 
0.0 0.0 1.0 
0.0 0.0 1.0 
0.0 0.0 1.0 
0.0 0.0 1.0 
0.0 0.0 1.0 
0.0 0.0 1.0 
0.0 0.0 1.0 
0.0 0.0 1.0 
0.0 0.0 1.0 
0.0 0.0 1.0 
0.0 0.0 1.0 
0.0 0.0 1.0 
0.0 0.0 1.0 
0.0 0.0 1.0 
0.0 0.0 1.0 
0.0 0.0 1.0 
0.0 0.0 1.0 
0.0 0.0 1.0 
0.0 0.0 1.0 
0.0 0.0 1.0 
0.0 0.0 1.0 
0.0 0.0 1.0 
0.0 0.0 1.0 
0.0 0.0 1.0 
0.0 0.0 1.0 
0.0 0.0 1.0 
0.0 0.0 1.0 
0.0 0.0 1.0 
0.0 0.0 1.0 
0.0 0.0 1.0 
0.0 0.0 1.0 
0.0 0.0 1.0 
0.0 0.0 1.0 
0.0 0.0 1.0 
0.0 0.0 1.0 
0.0 0.0 1.0 
0.0 0.0 1.0 
0.0 0.0 1.0 
0.0 0.0 1.0 
0.0 0.0 1.0 
0.0 0.0 1.0 
0.0 0.0 1.0 
0.0 0.0 1.0 
0.0 0.0 1.0 
Learning : 0.6000000238418579
Momentum : 0.9
Epoch: 100, Error: 0.017190929844180733
Epoch: 200, Error: 0.03691700953180465
Epoch: 300, Error: 0.011882190491694184
Epoch: 400, Error: 0.012393928832606874
Epoch: 500, Error: 0.01237095624593542
Epoch: 600, Error: 0.012235366625902985
Epoch: 700, Error: 0.012492631643855367
Epoch: 800, Error: 0.01322634482345777
Epoch: 900, Error: 0.011860288914910323
Epoch: 1000, Error: 0.011842241161300223
Epoch: 1100, Error: 0.012527889647711761
Epoch: 1200, Error: 0.011835172995014201
Epoch: 1300, Error: 0.011899993402347164
Epoch: 1400, Error: 0.011497118091280914
Epoch: 1500, Error: 0.01175236024902383
Epoch: 1600, Error: 0.011587610919505354
Epoch: 1700, Error: 0.011215286961940064
Epoch: 1800, Error: 0.011313881602406034
Epoch: 1900, Error: 0.01084554640290638
Epoch: 2000, Error: 0.010835585501996231
Epoch: 2100, Error: 0.009309572593455374
Epoch: 2200, Error: 0.013856524431085827
Epoch: 2300, Error: 0.006854237542557997
Epoch: 2400, Error: 0.006418055073719457
Epoch: 2500, Error: 0.0061247187557969445
Epoch: 2600, Error: 0.005725797303821041
Epoch: 2700, Error: 0.005573225865865962
Epoch: 2800, Error: 0.005521399478048853
Epoch: 2900, Error: 0.0054196049659750115
Epoch: 3000, Error: 0.005477259365717543
Epoch: 3100, Error: 0.005313107124346585
Epoch: 3200, Error: 0.005301953079464253
Epoch: 3300, Error: 0.005293650779147206
Epoch: 3400, Error: 0.005291466452892367
Epoch: 3500, Error: 0.005226756013543859
Epoch: 3600, Error: 0.005223752397511726
Epoch: 3700, Error: 0.005221530024323952
Epoch: 3800, Error: 0.0051998933036075485
Epoch: 3900, Error: 0.0052130376950261575
Epoch: 4000, Error: 0.005179699642990775
Epoch: 4100, Error: 0.00516405609149924
Epoch: 4200, Error: 0.005151077791212792
Epoch: 4300, Error: 0.005165569125439373
Epoch: 4400, Error: 0.005161202158969171
Epoch: 4500, Error: 0.0051265546809911595
Epoch: 4600, Error: 0.005123443427667436
Epoch: 4700, Error: 0.005120589560141393
Epoch: 4800, Error: 0.0051213058166332355
Epoch: 4900, Error: 0.00509817771670858
Epoch: 5000, Error: 0.00509516110351626
Epoch: 5100, Error: 0.005090931200915834
Epoch: 5200, Error: 0.00512314366551493
Epoch: 5300, Error: 0.005102466159392639
Epoch: 5400, Error: 0.0050868388368396035
Epoch: 5500, Error: 0.005133067489465339
Epoch: 5600, Error: 0.0050688134220216105
Epoch: 5700, Error: 0.005101566925761848
Epoch: 5800, Error: 0.005086406221757641
Epoch: 5900, Error: 0.005152152186778658
Epoch: 6000, Error: 0.0050307027535709805
Epoch: 6100, Error: 0.005136035723683689
Epoch: 6200, Error: 0.0051002709569259305
Epoch: 6300, Error: 0.005052180194094299
Epoch: 6400, Error: 0.005053530320459426
Epoch: 6500, Error: 0.005078736101130034
Epoch: 6600, Error: 0.005108240231673333
Epoch: 6700, Error: 0.004980722094700346
Epoch: 6800, Error: 0.005052222787363373
Epoch: 6900, Error: 0.004998823616193604
Epoch: 7000, Error: 0.004951080826694105
Epoch: 7100, Error: 0.005059440285707221
Epoch: 7200, Error: 0.004954017421911749
Epoch: 7300, Error: 0.005011649345205594
Epoch: 7400, Error: 0.004827297006368998
Epoch: 7500, Error: 0.004685976436426503
Epoch: 7600, Error: 0.004864127199211087
Epoch: 7700, Error: 0.004465255712110206
Epoch: 7800, Error: 0.005106034474060849
Epoch: 7900, Error: 0.004252611054549306
Epoch: 8000, Error: 0.004090546642638706
Epoch: 8100, Error: 0.004041604745038711
Epoch: 8200, Error: 0.0038179299271574128
Epoch: 8300, Error: 0.0035430493127216506
Epoch: 8400, Error: 0.0033462929116693844
Epoch: 8500, Error: 0.004278595737234615
Epoch: 8600, Error: 0.004711386622162538
Epoch: 8700, Error: 0.003735377754207853
Epoch: 8800, Error: 0.003401402459040866
Epoch: 8900, Error: 0.004074137488283196
Epoch: 9000, Error: 0.003044740670089991
Epoch: 9100, Error: 0.007283040246966384
Epoch: 9200, Error: 0.0035594498711624526
Epoch: 9300, Error: 0.0032275087421689574
Epoch: 9400, Error: 0.0030353855375842105
Epoch: 9500, Error: 0.006229857228362103
Epoch: 9600, Error: 0.0033061266319138415
Epoch: 9700, Error: 0.004275930707584427
Epoch: 9800, Error: 0.0062127263636219355
Epoch: 9900, Error: 0.0015817750908367826
Epoch: 10000, Error: 0.0015022472451382619
Epoch: 10100, Error: 0.005038731351474133
Epoch: 10200, Error: 0.005508944821012926
Epoch: 10300, Error: 0.002593695310684538
Epoch: 10400, Error: 0.0033467555452711736
Epoch: 10500, Error: 0.002159203113148797
Epoch: 10600, Error: 0.0014847145883930294
Epoch: 10700, Error: 0.001118890446767851
Epoch: 10800, Error: 0.001438156795425863
Epoch: 10900, Error: 0.0016743394853451865
Epoch: 11000, Error: 9.560626330569418E-4
Epoch: 11100, Error: 0.0010415634787165815
Epoch: 11200, Error: 9.282483109759668E-4
Epoch: 11300, Error: 0.001346968599016093
Epoch: 11400, Error: 0.0010909746701409627
Epoch: 11500, Error: 9.716893756632596E-4
Epoch: 11600, Error: 0.001028318358296077
Epoch: 11700, Error: 9.44884375777688E-4
Epoch: 11800, Error: 9.426177754170447E-4
Epoch: 11900, Error: 9.510250739954128E-4
Epoch: 12000, Error: 8.92261822410228E-4
Epoch: 12100, Error: 8.730879707657858E-4
Epoch: 12200, Error: 8.593666741474288E-4
Epoch: 12300, Error: 8.73808894664342E-4
Epoch: 12400, Error: 7.764186952389616E-4
Epoch: 12500, Error: 8.380862700475109E-4
Epoch: 12600, Error: 8.9354466431295E-4
Epoch: 12700, Error: 8.439130068623331E-4
Epoch: 12800, Error: 8.94297643929658E-4
Epoch: 12900, Error: 9.798335719104565E-4
Epoch: 13000, Error: 8.370100036942029E-4
Epoch: 13100, Error: 7.260348444568088E-4
Epoch: 13200, Error: 7.37176253972914E-4
Epoch: 13300, Error: 7.771219286242839E-4
Epoch: 13400, Error: 6.839113005360461E-4
Epoch: 13500, Error: 7.150646526644887E-4
Epoch: 13600, Error: 7.337102621030449E-4
Epoch: 13700, Error: 6.860684388252117E-4
Epoch: 13800, Error: 6.912669365276302E-4
Epoch: 13900, Error: 6.916842449306899E-4
Epoch: 14000, Error: 7.056123232572582E-4
Epoch: 14100, Error: 7.459995462459166E-4
Epoch: 14200, Error: 8.809226175358343E-4
Epoch: 14300, Error: 9.63315272477344E-4
Epoch: 14400, Error: 9.412472631542088E-4
Epoch: 14500, Error: 9.556283273247761E-4
Epoch: 14600, Error: 9.877498468066727E-4
Epoch: 14700, Error: 9.04029648408871E-4
Epoch: 14800, Error: 8.294677782661697E-4
Epoch: 14900, Error: 7.446870735574174E-4
Epoch: 15000, Error: 7.524660624423757E-4
Epoch: 15100, Error: 6.577394636715592E-4
Epoch: 15200, Error: 6.272687083687793E-4
Epoch: 15300, Error: 6.585258111758284E-4
Epoch: 15400, Error: 6.547613337900145E-4
Epoch: 15500, Error: 6.512739110252575E-4
Epoch: 15600, Error: 6.26330152288652E-4
Epoch: 15700, Error: 6.605524024285475E-4
Epoch: 15800, Error: 6.306232149998748E-4
Epoch: 15900, Error: 6.299455651357715E-4
Epoch: 16000, Error: 6.585122326512506E-4
Epoch: 16100, Error: 6.455111779524941E-4
Epoch: 16200, Error: 6.689707382545604E-4
Epoch: 16300, Error: 6.414385646524318E-4
Epoch: 16400, Error: 6.571009304995228E-4
Epoch: 16500, Error: 6.42944534676068E-4
Epoch: 16600, Error: 6.647400832907631E-4
Epoch: 16700, Error: 6.600650875290315E-4
Epoch: 16800, Error: 6.673537956470294E-4
Epoch: 16900, Error: 6.849204939145643E-4
Finished
