Input Patterns
0.224 0.624 0.067 0.043 
0.11 0.502 0.051 0.043 
0.196 0.667 0.067 0.043 
0.055 0.584 0.067 0.082 
0.027 0.376 0.067 0.043 
0.306 0.71 0.086 0.043 
0.137 0.416 0.067 0.0 
0.416 0.831 0.035 0.043 
0.306 0.792 0.051 0.125 
0.388 0.749 0.118 0.082 
0.306 0.584 0.118 0.043 
0.082 0.667 0.0 0.043 
0.137 0.584 0.153 0.043 
0.196 0.584 0.102 0.125 
0.251 0.584 0.067 0.043 
0.137 0.459 0.102 0.043 
0.251 0.875 0.086 0.0 
0.165 0.459 0.086 0.043 
0.333 0.624 0.051 0.043 
0.027 0.416 0.051 0.043 
0.196 0.624 0.051 0.082 
0.027 0.502 0.051 0.043 
0.224 0.749 0.153 0.125 
0.224 0.749 0.102 0.043 
0.278 0.71 0.086 0.043 
0.165 0.416 0.067 0.043 
0.082 0.459 0.086 0.043 
0.306 0.792 0.118 0.125 
0.196 0.584 0.086 0.043 
0.165 0.459 0.086 0.0 
0.137 0.584 0.102 0.043 
0.0 0.416 0.016 0.0 
0.388 1.0 0.086 0.125 
0.224 0.624 0.067 0.082 
0.224 0.749 0.086 0.082 
0.224 0.71 0.086 0.125 
0.224 0.541 0.118 0.165 
0.196 0.416 0.102 0.043 
0.251 0.624 0.086 0.043 
0.11 0.502 0.102 0.043 
0.306 0.584 0.086 0.125 
0.333 0.918 0.067 0.043 
0.196 0.502 0.035 0.043 
0.165 0.667 0.067 0.0 
0.224 0.584 0.086 0.043 
0.055 0.125 0.051 0.082 
0.196 0.624 0.102 0.208 
0.137 0.416 0.067 0.082 
0.082 0.502 0.067 0.043 
0.196 0.541 0.067 0.043 
0.749 0.502 0.627 0.541 
0.722 0.459 0.663 0.584 
0.612 0.333 0.612 0.584 
0.557 0.541 0.627 0.624 
0.639 0.376 0.612 0.498 
0.196 0.0 0.424 0.376 
0.471 0.082 0.51 0.376 
0.361 0.376 0.439 0.498 
0.361 0.416 0.592 0.584 
0.529 0.082 0.592 0.584 
0.443 0.502 0.643 0.459 
0.557 0.208 0.663 0.584 
0.584 0.376 0.561 0.498 
0.694 0.333 0.643 0.541 
0.471 0.376 0.592 0.584 
0.333 0.169 0.475 0.416 
0.416 0.29 0.49 0.459 
0.306 0.416 0.592 0.584 
0.667 0.459 0.627 0.584 
0.361 0.416 0.525 0.498 
0.333 0.251 0.576 0.459 
0.416 0.251 0.51 0.459 
0.361 0.29 0.541 0.498 
0.388 0.376 0.541 0.498 
0.224 0.208 0.337 0.416 
0.584 0.502 0.592 0.584 
0.333 0.125 0.51 0.498 
0.388 0.333 0.592 0.498 
0.165 0.169 0.388 0.376 
0.251 0.29 0.49 0.541 
0.443 0.416 0.541 0.584 
0.498 0.376 0.627 0.541 
0.667 0.459 0.576 0.541 
0.416 0.29 0.525 0.376 
0.361 0.208 0.49 0.416 
0.498 0.333 0.51 0.498 
0.498 0.333 0.627 0.459 
0.639 0.416 0.576 0.541 
0.667 0.416 0.678 0.667 
0.388 0.251 0.424 0.376 
0.333 0.169 0.459 0.376 
0.471 0.29 0.694 0.624 
0.471 0.584 0.592 0.624 
0.557 0.125 0.576 0.498 
0.333 0.208 0.51 0.498 
0.498 0.416 0.612 0.541 
0.196 0.125 0.388 0.376 
0.388 0.416 0.541 0.459 
0.529 0.376 0.561 0.498 
0.388 0.333 0.525 0.498 
0.557 0.541 0.847 1.0 
0.776 0.416 0.831 0.831 
0.612 0.416 0.812 0.875 
0.165 0.208 0.592 0.667 
0.667 0.208 0.812 0.71 
0.612 0.502 0.694 0.792 
0.694 0.416 0.761 0.831 
0.416 0.333 0.694 0.957 
0.612 0.416 0.761 0.71 
0.945 0.251 1.0 0.918 
0.722 0.502 0.796 0.918 
0.945 0.333 0.965 0.792 
0.667 0.541 0.796 0.831 
0.529 0.333 0.643 0.71 
0.584 0.333 0.78 0.831 
0.863 0.333 0.863 0.749 
0.584 0.333 0.78 0.875 
0.498 0.251 0.78 0.541 
0.557 0.584 0.78 0.957 
0.471 0.416 0.643 0.71 
0.667 0.459 0.78 0.957 
0.416 0.29 0.694 0.749 
0.667 0.541 0.796 1.0 
0.557 0.208 0.678 0.749 
0.529 0.584 0.745 0.918 
0.416 0.29 0.694 0.749 
0.557 0.376 0.78 0.71 
0.918 0.416 0.949 0.831 
0.835 0.376 0.898 0.71 
0.804 0.667 0.863 1.0 
0.584 0.29 0.729 0.749 
0.388 0.208 0.678 0.792 
0.584 0.502 0.729 0.918 
0.945 0.749 0.965 0.875 
0.471 0.082 0.678 0.584 
0.361 0.333 0.663 0.792 
0.557 0.29 0.663 0.71 
0.804 0.502 0.847 0.71 
0.498 0.416 0.51 0.71 
0.804 0.416 0.812 0.624 
1.0 0.749 0.914 0.792 
0.557 0.333 0.694 0.584 
0.945 0.416 0.863 0.918 
0.584 0.459 0.761 0.71 
0.722 0.459 0.745 0.831 
0.722 0.459 0.694 0.918 
0.694 0.502 0.831 0.918 
0.667 0.416 0.714 0.918 
0.612 0.416 0.714 0.792 
0.443 0.416 0.694 0.71 
Teaching Patterns
1.0 0.0 0.0 
1.0 0.0 0.0 
1.0 0.0 0.0 
1.0 0.0 0.0 
1.0 0.0 0.0 
1.0 0.0 0.0 
1.0 0.0 0.0 
1.0 0.0 0.0 
1.0 0.0 0.0 
1.0 0.0 0.0 
1.0 0.0 0.0 
1.0 0.0 0.0 
1.0 0.0 0.0 
1.0 0.0 0.0 
1.0 0.0 0.0 
1.0 0.0 0.0 
1.0 0.0 0.0 
1.0 0.0 0.0 
1.0 0.0 0.0 
1.0 0.0 0.0 
1.0 0.0 0.0 
1.0 0.0 0.0 
1.0 0.0 0.0 
1.0 0.0 0.0 
1.0 0.0 0.0 
1.0 0.0 0.0 
1.0 0.0 0.0 
1.0 0.0 0.0 
1.0 0.0 0.0 
1.0 0.0 0.0 
1.0 0.0 0.0 
1.0 0.0 0.0 
1.0 0.0 0.0 
1.0 0.0 0.0 
1.0 0.0 0.0 
1.0 0.0 0.0 
1.0 0.0 0.0 
1.0 0.0 0.0 
1.0 0.0 0.0 
1.0 0.0 0.0 
1.0 0.0 0.0 
1.0 0.0 0.0 
1.0 0.0 0.0 
1.0 0.0 0.0 
1.0 0.0 0.0 
1.0 0.0 0.0 
1.0 0.0 0.0 
1.0 0.0 0.0 
1.0 0.0 0.0 
1.0 0.0 0.0 
0.0 1.0 0.0 
0.0 1.0 0.0 
0.0 1.0 0.0 
0.0 1.0 0.0 
0.0 1.0 0.0 
0.0 1.0 0.0 
0.0 1.0 0.0 
0.0 1.0 0.0 
0.0 1.0 0.0 
0.0 1.0 0.0 
0.0 1.0 0.0 
0.0 1.0 0.0 
0.0 1.0 0.0 
0.0 1.0 0.0 
0.0 1.0 0.0 
0.0 1.0 0.0 
0.0 1.0 0.0 
0.0 1.0 0.0 
0.0 1.0 0.0 
0.0 1.0 0.0 
0.0 1.0 0.0 
0.0 1.0 0.0 
0.0 1.0 0.0 
0.0 1.0 0.0 
0.0 1.0 0.0 
0.0 1.0 0.0 
0.0 1.0 0.0 
0.0 1.0 0.0 
0.0 1.0 0.0 
0.0 1.0 0.0 
0.0 1.0 0.0 
0.0 1.0 0.0 
0.0 1.0 0.0 
0.0 1.0 0.0 
0.0 1.0 0.0 
0.0 1.0 0.0 
0.0 1.0 0.0 
0.0 1.0 0.0 
0.0 1.0 0.0 
0.0 1.0 0.0 
0.0 1.0 0.0 
0.0 1.0 0.0 
0.0 1.0 0.0 
0.0 1.0 0.0 
0.0 1.0 0.0 
0.0 1.0 0.0 
0.0 1.0 0.0 
0.0 1.0 0.0 
0.0 1.0 0.0 
0.0 1.0 0.0 
0.0 0.0 1.0 
0.0 0.0 1.0 
0.0 0.0 1.0 
0.0 0.0 1.0 
0.0 0.0 1.0 
0.0 0.0 1.0 
0.0 0.0 1.0 
0.0 0.0 1.0 
0.0 0.0 1.0 
0.0 0.0 1.0 
0.0 0.0 1.0 
0.0 0.0 1.0 
0.0 0.0 1.0 
0.0 0.0 1.0 
0.0 0.0 1.0 
0.0 0.0 1.0 
0.0 0.0 1.0 
0.0 0.0 1.0 
0.0 0.0 1.0 
0.0 0.0 1.0 
0.0 0.0 1.0 
0.0 0.0 1.0 
0.0 0.0 1.0 
0.0 0.0 1.0 
0.0 0.0 1.0 
0.0 0.0 1.0 
0.0 0.0 1.0 
0.0 0.0 1.0 
0.0 0.0 1.0 
0.0 0.0 1.0 
0.0 0.0 1.0 
0.0 0.0 1.0 
0.0 0.0 1.0 
0.0 0.0 1.0 
0.0 0.0 1.0 
0.0 0.0 1.0 
0.0 0.0 1.0 
0.0 0.0 1.0 
0.0 0.0 1.0 
0.0 0.0 1.0 
0.0 0.0 1.0 
0.0 0.0 1.0 
0.0 0.0 1.0 
0.0 0.0 1.0 
0.0 0.0 1.0 
0.0 0.0 1.0 
0.0 0.0 1.0 
0.0 0.0 1.0 
0.0 0.0 1.0 
0.0 0.0 1.0 
Learning : 0.6000000238418579
Momentum : 0.9
Epoch: 100, Error: 0.012746846458123651
Epoch: 200, Error: 0.012564328412890784
Epoch: 300, Error: 0.013409424634269525
Epoch: 400, Error: 0.013192306659197114
Epoch: 500, Error: 0.013129284997682782
Epoch: 600, Error: 0.012728964755557771
Epoch: 700, Error: 0.012749862766645019
Epoch: 800, Error: 0.012517928884640981
Epoch: 900, Error: 0.014802733155959634
Epoch: 1000, Error: 0.012868641129609056
Epoch: 1100, Error: 0.012893607011528033
Epoch: 1200, Error: 0.012752670359060837
Epoch: 1300, Error: 0.012506559338143425
Epoch: 1400, Error: 0.013516166582499657
Epoch: 1500, Error: 0.012214383901795025
Epoch: 1600, Error: 0.01269667871469436
Epoch: 1700, Error: 0.012246372578401766
Epoch: 1800, Error: 0.012272045415167018
Epoch: 1900, Error: 0.01226421434465759
Epoch: 2000, Error: 0.012447191324199731
Epoch: 2100, Error: 0.012672022279110491
Epoch: 2200, Error: 0.012262386764526848
Epoch: 2300, Error: 0.012347581677831438
Epoch: 2400, Error: 0.012325151113090838
Epoch: 2500, Error: 0.013919768932039516
Epoch: 2600, Error: 0.012502830093101266
Epoch: 2700, Error: 0.016215366272151057
Epoch: 2800, Error: 0.012365676074241218
Epoch: 2900, Error: 0.012888003894490801
Epoch: 3000, Error: 0.012380994543328343
Epoch: 3100, Error: 0.01307701255667549
Epoch: 3200, Error: 0.012437915990358352
Epoch: 3300, Error: 0.012383153171472
Epoch: 3400, Error: 0.012371085217484031
Epoch: 3500, Error: 0.01232594773843996
Epoch: 3600, Error: 0.012382265517898313
Epoch: 3700, Error: 0.012246245110700623
Epoch: 3800, Error: 0.01221265413939011
Epoch: 3900, Error: 0.012387134405222721
Epoch: 4000, Error: 0.012116732815120237
Epoch: 4100, Error: 0.011232800645038583
Epoch: 4200, Error: 0.00980440931040539
Epoch: 4300, Error: 0.008637289350172507
Epoch: 4400, Error: 0.008471837162543808
Epoch: 4500, Error: 0.007707273781741558
Epoch: 4600, Error: 0.007333790018494204
Epoch: 4700, Error: 0.008724881360594605
Epoch: 4800, Error: 0.00693883699753038
Epoch: 4900, Error: 0.006785064233474154
Epoch: 5000, Error: 0.0067421159521587806
Epoch: 5100, Error: 0.006438281272623428
Epoch: 5200, Error: 0.006784138707934647
Epoch: 5300, Error: 0.0063229705116611525
Epoch: 5400, Error: 0.006149937198789448
Epoch: 5500, Error: 0.006167720140207451
Epoch: 5600, Error: 0.005971308584916411
Epoch: 5700, Error: 0.005956535291975425
Epoch: 5800, Error: 0.006131940300943307
Epoch: 5900, Error: 0.005964183540071187
Epoch: 6000, Error: 0.005839648429345373
Epoch: 6100, Error: 0.005870266880448495
Epoch: 6200, Error: 0.005738773061120774
Epoch: 6300, Error: 0.005810421122395472
Epoch: 6400, Error: 0.0056573925399464285
Epoch: 6500, Error: 0.005567845593936285
Epoch: 6600, Error: 0.005591328754166
Epoch: 6700, Error: 0.005701415578535628
Epoch: 6800, Error: 0.005562293197106029
Epoch: 6900, Error: 0.005550071212275397
Epoch: 7000, Error: 0.005633520999108021
Epoch: 7100, Error: 0.0054386746956289105
Epoch: 7200, Error: 0.005583774809724737
Epoch: 7300, Error: 0.005575965090434613
Epoch: 7400, Error: 0.005501919537594635
Epoch: 7500, Error: 0.005470703285051071
Epoch: 7600, Error: 0.0054216094784656855
Epoch: 7700, Error: 0.005426145248414265
Epoch: 7800, Error: 0.005322831279067352
Epoch: 7900, Error: 0.005244466496005167
Epoch: 8000, Error: 0.005202289294145373
Epoch: 8100, Error: 0.005131658132549724
Epoch: 8200, Error: 0.005085220700890692
Epoch: 8300, Error: 0.005131573534664133
Epoch: 8400, Error: 0.005228986435021234
Epoch: 8500, Error: 0.005132258320506565
Epoch: 8600, Error: 0.0051034685272098946
Epoch: 8700, Error: 0.00510508697990893
Epoch: 8800, Error: 0.005170093075484113
Epoch: 8900, Error: 0.005132438309405337
Epoch: 9000, Error: 0.005076330947711441
Epoch: 9100, Error: 0.005103589629318487
Epoch: 9200, Error: 0.00517671889179396
Epoch: 9300, Error: 0.005125543875743303
Epoch: 9400, Error: 0.005155986096703172
Epoch: 9500, Error: 0.005075858616442618
Epoch: 9600, Error: 0.005041776782373188
Epoch: 9700, Error: 0.005032464573371349
Epoch: 9800, Error: 0.005009359602888417
Epoch: 9900, Error: 0.005051089803466664
Epoch: 10000, Error: 0.005049573314341058
Epoch: 10100, Error: 0.005028175391472724
Epoch: 10200, Error: 0.005022886943699057
Epoch: 10300, Error: 0.0049854927455282175
Epoch: 10400, Error: 0.005019352661351398
Epoch: 10500, Error: 0.005013468234771578
Epoch: 10600, Error: 0.004982337709808017
Epoch: 10700, Error: 0.004998353026217422
Epoch: 10800, Error: 0.004990552550287136
Epoch: 10900, Error: 0.004963538079606919
Epoch: 11000, Error: 0.004991295191674752
Epoch: 11100, Error: 0.004963890895115086
Epoch: 11200, Error: 0.0049495852533630496
Epoch: 11300, Error: 0.004976317818466831
Epoch: 11400, Error: 0.004917342388055946
Epoch: 11500, Error: 0.005045230893461172
Epoch: 11600, Error: 0.0049417304120984
Epoch: 11700, Error: 0.005001145717057307
Epoch: 11800, Error: 0.004908362744321892
Epoch: 11900, Error: 0.004970394903865644
Epoch: 12000, Error: 0.004918825039678155
Epoch: 12100, Error: 0.004938881087881901
Epoch: 12200, Error: 0.0049428366829696495
Epoch: 12300, Error: 0.005022290345850403
Epoch: 12400, Error: 0.004876802335792607
Epoch: 12500, Error: 0.004854227053871089
Epoch: 12600, Error: 0.004845211770522181
Epoch: 12700, Error: 0.004803583979688674
Epoch: 12800, Error: 0.004726535513421923
Epoch: 12900, Error: 0.004762614450607394
Epoch: 13000, Error: 0.004733648397607057
Epoch: 13100, Error: 0.004640178120379492
Epoch: 13200, Error: 0.004188858983001144
Epoch: 13300, Error: 0.003910472635175971
Epoch: 13400, Error: 0.0038817686695530257
Epoch: 13500, Error: 0.003814315240534092
Epoch: 13600, Error: 0.0034035925328881698
Epoch: 13700, Error: 0.0032246341738985424
Epoch: 13800, Error: 0.002979828589582433
Epoch: 13900, Error: 0.0027014659930805042
Epoch: 14000, Error: 0.0027474973139954484
Epoch: 14100, Error: 0.002787964384184485
Epoch: 14200, Error: 0.0020670771479010734
Epoch: 14300, Error: 0.0019521430732790594
Epoch: 14400, Error: 0.0016994589765007453
Epoch: 14500, Error: 0.0015332617346837077
Epoch: 14600, Error: 0.001648036904417445
Epoch: 14700, Error: 0.0019954958168505537
Epoch: 14800, Error: 0.0011787189635403552
Epoch: 14900, Error: 0.001134750558832433
Epoch: 15000, Error: 0.0013737058198353552
Epoch: 15100, Error: 0.0010304164035930309
Epoch: 15200, Error: 9.755175135934788E-4
Epoch: 15300, Error: 9.674344791272255E-4
Epoch: 15400, Error: 0.001001448420220032
Epoch: 15500, Error: 8.827307521977325E-4
Epoch: 15600, Error: 8.432643532364517E-4
Epoch: 15700, Error: 8.946187813104225E-4
Epoch: 15800, Error: 8.937408141606034E-4
Epoch: 15900, Error: 8.582787681428238E-4
Epoch: 16000, Error: 8.239255803204926E-4
Epoch: 16100, Error: 7.661917464410242E-4
Epoch: 16200, Error: 7.459856455829173E-4
Epoch: 16300, Error: 7.632631094126764E-4
Epoch: 16400, Error: 7.46698268396906E-4
Epoch: 16500, Error: 7.383650907743111E-4
Epoch: 16600, Error: 7.64267655956997E-4
Epoch: 16700, Error: 7.779002297324932E-4
Epoch: 16800, Error: 7.23031162358543E-4
Epoch: 16900, Error: 7.186492690617008E-4
Epoch: 17000, Error: 7.289411508817194E-4
Epoch: 17100, Error: 7.244753399053882E-4
Epoch: 17200, Error: 7.218740199824746E-4
Epoch: 17300, Error: 7.70760564386214E-4
Epoch: 17400, Error: 7.399513086791561E-4
Epoch: 17500, Error: 7.479129615439069E-4
Epoch: 17600, Error: 7.628043077387459E-4
Epoch: 17700, Error: 7.559791483323624E-4
Epoch: 17800, Error: 7.690713711263177E-4
Epoch: 17900, Error: 7.833232495243339E-4
Epoch: 18000, Error: 7.984252315830812E-4
Finished
