Input Patterns
0.224 0.624 0.067 0.043 
0.11 0.502 0.051 0.043 
0.196 0.667 0.067 0.043 
0.055 0.584 0.067 0.082 
0.027 0.376 0.067 0.043 
0.306 0.71 0.086 0.043 
0.137 0.416 0.067 0.0 
0.416 0.831 0.035 0.043 
0.306 0.792 0.051 0.125 
0.388 0.749 0.118 0.082 
0.306 0.584 0.118 0.043 
0.082 0.667 0.0 0.043 
0.137 0.584 0.153 0.043 
0.196 0.584 0.102 0.125 
0.251 0.584 0.067 0.043 
0.137 0.459 0.102 0.043 
0.251 0.875 0.086 0.0 
0.165 0.459 0.086 0.043 
0.333 0.624 0.051 0.043 
0.027 0.416 0.051 0.043 
0.196 0.624 0.051 0.082 
0.027 0.502 0.051 0.043 
0.224 0.749 0.153 0.125 
0.224 0.749 0.102 0.043 
0.278 0.71 0.086 0.043 
0.165 0.416 0.067 0.043 
0.082 0.459 0.086 0.043 
0.306 0.792 0.118 0.125 
0.196 0.584 0.086 0.043 
0.165 0.459 0.086 0.0 
0.137 0.584 0.102 0.043 
0.0 0.416 0.016 0.0 
0.388 1.0 0.086 0.125 
0.224 0.624 0.067 0.082 
0.224 0.749 0.086 0.082 
0.224 0.71 0.086 0.125 
0.224 0.541 0.118 0.165 
0.196 0.416 0.102 0.043 
0.251 0.624 0.086 0.043 
0.11 0.502 0.102 0.043 
0.306 0.584 0.086 0.125 
0.333 0.918 0.067 0.043 
0.196 0.502 0.035 0.043 
0.165 0.667 0.067 0.0 
0.224 0.584 0.086 0.043 
0.055 0.125 0.051 0.082 
0.196 0.624 0.102 0.208 
0.137 0.416 0.067 0.082 
0.082 0.502 0.067 0.043 
0.196 0.541 0.067 0.043 
0.749 0.502 0.627 0.541 
0.722 0.459 0.663 0.584 
0.612 0.333 0.612 0.584 
0.557 0.541 0.627 0.624 
0.639 0.376 0.612 0.498 
0.196 0.0 0.424 0.376 
0.471 0.082 0.51 0.376 
0.361 0.376 0.439 0.498 
0.361 0.416 0.592 0.584 
0.529 0.082 0.592 0.584 
0.443 0.502 0.643 0.459 
0.557 0.208 0.663 0.584 
0.584 0.376 0.561 0.498 
0.694 0.333 0.643 0.541 
0.471 0.376 0.592 0.584 
0.333 0.169 0.475 0.416 
0.416 0.29 0.49 0.459 
0.306 0.416 0.592 0.584 
0.667 0.459 0.627 0.584 
0.361 0.416 0.525 0.498 
0.333 0.251 0.576 0.459 
0.416 0.251 0.51 0.459 
0.361 0.29 0.541 0.498 
0.388 0.376 0.541 0.498 
0.224 0.208 0.337 0.416 
0.584 0.502 0.592 0.584 
0.333 0.125 0.51 0.498 
0.388 0.333 0.592 0.498 
0.165 0.169 0.388 0.376 
0.251 0.29 0.49 0.541 
0.443 0.416 0.541 0.584 
0.498 0.376 0.627 0.541 
0.667 0.459 0.576 0.541 
0.416 0.29 0.525 0.376 
0.361 0.208 0.49 0.416 
0.498 0.333 0.51 0.498 
0.498 0.333 0.627 0.459 
0.639 0.416 0.576 0.541 
0.667 0.416 0.678 0.667 
0.388 0.251 0.424 0.376 
0.333 0.169 0.459 0.376 
0.471 0.29 0.694 0.624 
0.471 0.584 0.592 0.624 
0.557 0.125 0.576 0.498 
0.333 0.208 0.51 0.498 
0.498 0.416 0.612 0.541 
0.196 0.125 0.388 0.376 
0.388 0.416 0.541 0.459 
0.529 0.376 0.561 0.498 
0.388 0.333 0.525 0.498 
0.557 0.541 0.847 1.0 
0.776 0.416 0.831 0.831 
0.612 0.416 0.812 0.875 
0.165 0.208 0.592 0.667 
0.667 0.208 0.812 0.71 
0.612 0.502 0.694 0.792 
0.694 0.416 0.761 0.831 
0.416 0.333 0.694 0.957 
0.612 0.416 0.761 0.71 
0.945 0.251 1.0 0.918 
0.722 0.502 0.796 0.918 
0.945 0.333 0.965 0.792 
0.667 0.541 0.796 0.831 
0.529 0.333 0.643 0.71 
0.584 0.333 0.78 0.831 
0.863 0.333 0.863 0.749 
0.584 0.333 0.78 0.875 
0.498 0.251 0.78 0.541 
0.557 0.584 0.78 0.957 
0.471 0.416 0.643 0.71 
0.667 0.459 0.78 0.957 
0.416 0.29 0.694 0.749 
0.667 0.541 0.796 1.0 
0.557 0.208 0.678 0.749 
0.529 0.584 0.745 0.918 
0.416 0.29 0.694 0.749 
0.557 0.376 0.78 0.71 
0.918 0.416 0.949 0.831 
0.835 0.376 0.898 0.71 
0.804 0.667 0.863 1.0 
0.584 0.29 0.729 0.749 
0.388 0.208 0.678 0.792 
0.584 0.502 0.729 0.918 
0.945 0.749 0.965 0.875 
0.471 0.082 0.678 0.584 
0.361 0.333 0.663 0.792 
0.557 0.29 0.663 0.71 
0.804 0.502 0.847 0.71 
0.498 0.416 0.51 0.71 
0.804 0.416 0.812 0.624 
1.0 0.749 0.914 0.792 
0.557 0.333 0.694 0.584 
0.945 0.416 0.863 0.918 
0.584 0.459 0.761 0.71 
0.722 0.459 0.745 0.831 
0.722 0.459 0.694 0.918 
0.694 0.502 0.831 0.918 
0.667 0.416 0.714 0.918 
0.612 0.416 0.714 0.792 
0.443 0.416 0.694 0.71 
Teaching Patterns
1.0 0.0 0.0 
1.0 0.0 0.0 
1.0 0.0 0.0 
1.0 0.0 0.0 
1.0 0.0 0.0 
1.0 0.0 0.0 
1.0 0.0 0.0 
1.0 0.0 0.0 
1.0 0.0 0.0 
1.0 0.0 0.0 
1.0 0.0 0.0 
1.0 0.0 0.0 
1.0 0.0 0.0 
1.0 0.0 0.0 
1.0 0.0 0.0 
1.0 0.0 0.0 
1.0 0.0 0.0 
1.0 0.0 0.0 
1.0 0.0 0.0 
1.0 0.0 0.0 
1.0 0.0 0.0 
1.0 0.0 0.0 
1.0 0.0 0.0 
1.0 0.0 0.0 
1.0 0.0 0.0 
1.0 0.0 0.0 
1.0 0.0 0.0 
1.0 0.0 0.0 
1.0 0.0 0.0 
1.0 0.0 0.0 
1.0 0.0 0.0 
1.0 0.0 0.0 
1.0 0.0 0.0 
1.0 0.0 0.0 
1.0 0.0 0.0 
1.0 0.0 0.0 
1.0 0.0 0.0 
1.0 0.0 0.0 
1.0 0.0 0.0 
1.0 0.0 0.0 
1.0 0.0 0.0 
1.0 0.0 0.0 
1.0 0.0 0.0 
1.0 0.0 0.0 
1.0 0.0 0.0 
1.0 0.0 0.0 
1.0 0.0 0.0 
1.0 0.0 0.0 
1.0 0.0 0.0 
1.0 0.0 0.0 
0.0 1.0 0.0 
0.0 1.0 0.0 
0.0 1.0 0.0 
0.0 1.0 0.0 
0.0 1.0 0.0 
0.0 1.0 0.0 
0.0 1.0 0.0 
0.0 1.0 0.0 
0.0 1.0 0.0 
0.0 1.0 0.0 
0.0 1.0 0.0 
0.0 1.0 0.0 
0.0 1.0 0.0 
0.0 1.0 0.0 
0.0 1.0 0.0 
0.0 1.0 0.0 
0.0 1.0 0.0 
0.0 1.0 0.0 
0.0 1.0 0.0 
0.0 1.0 0.0 
0.0 1.0 0.0 
0.0 1.0 0.0 
0.0 1.0 0.0 
0.0 1.0 0.0 
0.0 1.0 0.0 
0.0 1.0 0.0 
0.0 1.0 0.0 
0.0 1.0 0.0 
0.0 1.0 0.0 
0.0 1.0 0.0 
0.0 1.0 0.0 
0.0 1.0 0.0 
0.0 1.0 0.0 
0.0 1.0 0.0 
0.0 1.0 0.0 
0.0 1.0 0.0 
0.0 1.0 0.0 
0.0 1.0 0.0 
0.0 1.0 0.0 
0.0 1.0 0.0 
0.0 1.0 0.0 
0.0 1.0 0.0 
0.0 1.0 0.0 
0.0 1.0 0.0 
0.0 1.0 0.0 
0.0 1.0 0.0 
0.0 1.0 0.0 
0.0 1.0 0.0 
0.0 1.0 0.0 
0.0 1.0 0.0 
0.0 0.0 1.0 
0.0 0.0 1.0 
0.0 0.0 1.0 
0.0 0.0 1.0 
0.0 0.0 1.0 
0.0 0.0 1.0 
0.0 0.0 1.0 
0.0 0.0 1.0 
0.0 0.0 1.0 
0.0 0.0 1.0 
0.0 0.0 1.0 
0.0 0.0 1.0 
0.0 0.0 1.0 
0.0 0.0 1.0 
0.0 0.0 1.0 
0.0 0.0 1.0 
0.0 0.0 1.0 
0.0 0.0 1.0 
0.0 0.0 1.0 
0.0 0.0 1.0 
0.0 0.0 1.0 
0.0 0.0 1.0 
0.0 0.0 1.0 
0.0 0.0 1.0 
0.0 0.0 1.0 
0.0 0.0 1.0 
0.0 0.0 1.0 
0.0 0.0 1.0 
0.0 0.0 1.0 
0.0 0.0 1.0 
0.0 0.0 1.0 
0.0 0.0 1.0 
0.0 0.0 1.0 
0.0 0.0 1.0 
0.0 0.0 1.0 
0.0 0.0 1.0 
0.0 0.0 1.0 
0.0 0.0 1.0 
0.0 0.0 1.0 
0.0 0.0 1.0 
0.0 0.0 1.0 
0.0 0.0 1.0 
0.0 0.0 1.0 
0.0 0.0 1.0 
0.0 0.0 1.0 
0.0 0.0 1.0 
0.0 0.0 1.0 
0.0 0.0 1.0 
0.0 0.0 1.0 
0.0 0.0 1.0 
Learning : 0.6000000238418579
Momentum : 0.9
Epoch: 100, Error: 0.012371425727817386
Epoch: 200, Error: 0.01206013929430468
Epoch: 300, Error: 0.012225036814427414
Epoch: 400, Error: 0.0142204080441211
Epoch: 500, Error: 0.012093096751394064
Epoch: 600, Error: 0.012227657275325569
Epoch: 700, Error: 0.012216064907567502
Epoch: 800, Error: 0.012301064553038421
Epoch: 900, Error: 0.014671063411756204
Epoch: 1000, Error: 0.012391127182270551
Epoch: 1100, Error: 0.012781164031724227
Epoch: 1200, Error: 0.012416254241115997
Epoch: 1300, Error: 0.012556451265183096
Epoch: 1400, Error: 0.01440176831522208
Epoch: 1500, Error: 0.012174904133509145
Epoch: 1600, Error: 0.012111011171797817
Epoch: 1700, Error: 0.01291169404826788
Epoch: 1800, Error: 0.012190634930674432
Epoch: 1900, Error: 0.012058675344771544
Epoch: 2000, Error: 0.012127585282521058
Epoch: 2100, Error: 0.012537200742527567
Epoch: 2200, Error: 0.012057802841332552
Epoch: 2300, Error: 0.012175001870767312
Epoch: 2400, Error: 0.012030036152050325
Epoch: 2500, Error: 0.012601724550727582
Epoch: 2600, Error: 0.012093842653123852
Epoch: 2700, Error: 0.012446285237916879
Epoch: 2800, Error: 0.012080192589054567
Epoch: 2900, Error: 0.012284590822903634
Epoch: 3000, Error: 0.012181872855475236
Epoch: 3100, Error: 0.012082252450900933
Epoch: 3200, Error: 0.012096994648763284
Epoch: 3300, Error: 0.012423761952875109
Epoch: 3400, Error: 0.011856521913038275
Epoch: 3500, Error: 0.012320586200905348
Epoch: 3600, Error: 0.011918411415924632
Epoch: 3700, Error: 0.011933335529704102
Epoch: 3800, Error: 0.011764782107303829
Epoch: 3900, Error: 0.01179294717868161
Epoch: 4000, Error: 0.011856956592597001
Epoch: 4100, Error: 0.011947709764999868
Epoch: 4200, Error: 0.011658702634640498
Epoch: 4300, Error: 0.011629744070742982
Epoch: 4400, Error: 0.01164923578547034
Epoch: 4500, Error: 0.011547178364293581
Epoch: 4600, Error: 0.011712052046602089
Epoch: 4700, Error: 0.012060729904471885
Epoch: 4800, Error: 0.011580109546089783
Epoch: 4900, Error: 0.011245005632146787
Epoch: 5000, Error: 0.011302359789333798
Epoch: 5100, Error: 0.011222123816485229
Epoch: 5200, Error: 0.011751719339057207
Epoch: 5300, Error: 0.01179256165792086
Epoch: 5400, Error: 0.010904149036009433
Epoch: 5500, Error: 0.011021143763050046
Epoch: 5600, Error: 0.0108158699068665
Epoch: 5700, Error: 0.010790722908911027
Epoch: 5800, Error: 0.011077514644841904
Epoch: 5900, Error: 0.010524770921411995
Epoch: 6000, Error: 0.010484098414036
Epoch: 6100, Error: 0.01052898965630035
Epoch: 6200, Error: 0.010410122368206631
Epoch: 6300, Error: 0.010264246330281744
Epoch: 6400, Error: 0.010952353034698431
Epoch: 6500, Error: 0.010558564187152961
Epoch: 6600, Error: 0.010156293046662095
Epoch: 6700, Error: 0.010104141016691487
Epoch: 6800, Error: 0.009975992877738819
Epoch: 6900, Error: 0.010294066957242668
Epoch: 7000, Error: 0.009761059667938584
Epoch: 7100, Error: 0.00974286556297701
Epoch: 7200, Error: 0.009736092373024936
Epoch: 7300, Error: 0.009543664231978407
Epoch: 7400, Error: 0.009514575162400831
Epoch: 7500, Error: 0.009455147107980353
Epoch: 7600, Error: 0.009447844231700735
Epoch: 7700, Error: 0.009390234455613
Epoch: 7800, Error: 0.00935792016398818
Epoch: 7900, Error: 0.0094323805118183
Epoch: 8000, Error: 0.009369779005247955
Epoch: 8100, Error: 0.009319105117387712
Epoch: 8200, Error: 0.009269079305136234
Epoch: 8300, Error: 0.009317880320650063
Epoch: 8400, Error: 0.009299740705763056
Epoch: 8500, Error: 0.00922513052522657
Epoch: 8600, Error: 0.009307775262287784
Epoch: 8700, Error: 0.009230538208545226
Epoch: 8800, Error: 0.009213735457607376
Epoch: 8900, Error: 0.009237885627837663
Epoch: 9000, Error: 0.009205136431773847
Epoch: 9100, Error: 0.009183280090551593
Epoch: 9200, Error: 0.009191832400571559
Epoch: 9300, Error: 0.00921218928819285
Epoch: 9400, Error: 0.009184182335580316
Epoch: 9500, Error: 0.009162553980525673
Epoch: 9600, Error: 0.009163169306067425
Epoch: 9700, Error: 0.009154136102646749
Epoch: 9800, Error: 0.009184420584356274
Epoch: 9900, Error: 0.009156705934424378
Epoch: 10000, Error: 0.009155126482672235
Finished
