Input Patterns
0.224 0.624 0.067 0.043 
0.11 0.502 0.051 0.043 
0.196 0.667 0.067 0.043 
0.055 0.584 0.067 0.082 
0.027 0.376 0.067 0.043 
0.306 0.71 0.086 0.043 
0.137 0.416 0.067 0.0 
0.416 0.831 0.035 0.043 
0.306 0.792 0.051 0.125 
0.388 0.749 0.118 0.082 
0.306 0.584 0.118 0.043 
0.082 0.667 0.0 0.043 
0.137 0.584 0.153 0.043 
0.196 0.584 0.102 0.125 
0.251 0.584 0.067 0.043 
0.137 0.459 0.102 0.043 
0.251 0.875 0.086 0.0 
0.165 0.459 0.086 0.043 
0.333 0.624 0.051 0.043 
0.027 0.416 0.051 0.043 
0.196 0.624 0.051 0.082 
0.027 0.502 0.051 0.043 
0.224 0.749 0.153 0.125 
0.224 0.749 0.102 0.043 
0.278 0.71 0.086 0.043 
0.165 0.416 0.067 0.043 
0.082 0.459 0.086 0.043 
0.306 0.792 0.118 0.125 
0.196 0.584 0.086 0.043 
0.165 0.459 0.086 0.0 
0.137 0.584 0.102 0.043 
0.0 0.416 0.016 0.0 
0.388 1.0 0.086 0.125 
0.224 0.624 0.067 0.082 
0.224 0.749 0.086 0.082 
0.224 0.71 0.086 0.125 
0.224 0.541 0.118 0.165 
0.196 0.416 0.102 0.043 
0.251 0.624 0.086 0.043 
0.11 0.502 0.102 0.043 
0.306 0.584 0.086 0.125 
0.333 0.918 0.067 0.043 
0.196 0.502 0.035 0.043 
0.165 0.667 0.067 0.0 
0.224 0.584 0.086 0.043 
0.055 0.125 0.051 0.082 
0.196 0.624 0.102 0.208 
0.137 0.416 0.067 0.082 
0.082 0.502 0.067 0.043 
0.196 0.541 0.067 0.043 
0.749 0.502 0.627 0.541 
0.722 0.459 0.663 0.584 
0.612 0.333 0.612 0.584 
0.557 0.541 0.627 0.624 
0.639 0.376 0.612 0.498 
0.196 0.0 0.424 0.376 
0.471 0.082 0.51 0.376 
0.361 0.376 0.439 0.498 
0.361 0.416 0.592 0.584 
0.529 0.082 0.592 0.584 
0.443 0.502 0.643 0.459 
0.557 0.208 0.663 0.584 
0.584 0.376 0.561 0.498 
0.694 0.333 0.643 0.541 
0.471 0.376 0.592 0.584 
0.333 0.169 0.475 0.416 
0.416 0.29 0.49 0.459 
0.306 0.416 0.592 0.584 
0.667 0.459 0.627 0.584 
0.361 0.416 0.525 0.498 
0.333 0.251 0.576 0.459 
0.416 0.251 0.51 0.459 
0.361 0.29 0.541 0.498 
0.388 0.376 0.541 0.498 
0.224 0.208 0.337 0.416 
0.584 0.502 0.592 0.584 
0.333 0.125 0.51 0.498 
0.388 0.333 0.592 0.498 
0.165 0.169 0.388 0.376 
0.251 0.29 0.49 0.541 
0.443 0.416 0.541 0.584 
0.498 0.376 0.627 0.541 
0.667 0.459 0.576 0.541 
0.416 0.29 0.525 0.376 
0.361 0.208 0.49 0.416 
0.498 0.333 0.51 0.498 
0.498 0.333 0.627 0.459 
0.639 0.416 0.576 0.541 
0.667 0.416 0.678 0.667 
0.388 0.251 0.424 0.376 
0.333 0.169 0.459 0.376 
0.471 0.29 0.694 0.624 
0.471 0.584 0.592 0.624 
0.557 0.125 0.576 0.498 
0.333 0.208 0.51 0.498 
0.498 0.416 0.612 0.541 
0.196 0.125 0.388 0.376 
0.388 0.416 0.541 0.459 
0.529 0.376 0.561 0.498 
0.388 0.333 0.525 0.498 
0.557 0.541 0.847 1.0 
0.776 0.416 0.831 0.831 
0.612 0.416 0.812 0.875 
0.165 0.208 0.592 0.667 
0.667 0.208 0.812 0.71 
0.612 0.502 0.694 0.792 
0.694 0.416 0.761 0.831 
0.416 0.333 0.694 0.957 
0.612 0.416 0.761 0.71 
0.945 0.251 1.0 0.918 
0.722 0.502 0.796 0.918 
0.945 0.333 0.965 0.792 
0.667 0.541 0.796 0.831 
0.529 0.333 0.643 0.71 
0.584 0.333 0.78 0.831 
0.863 0.333 0.863 0.749 
0.584 0.333 0.78 0.875 
0.498 0.251 0.78 0.541 
0.557 0.584 0.78 0.957 
0.471 0.416 0.643 0.71 
0.667 0.459 0.78 0.957 
0.416 0.29 0.694 0.749 
0.667 0.541 0.796 1.0 
0.557 0.208 0.678 0.749 
0.529 0.584 0.745 0.918 
0.416 0.29 0.694 0.749 
0.557 0.376 0.78 0.71 
0.918 0.416 0.949 0.831 
0.835 0.376 0.898 0.71 
0.804 0.667 0.863 1.0 
0.584 0.29 0.729 0.749 
0.388 0.208 0.678 0.792 
0.584 0.502 0.729 0.918 
0.945 0.749 0.965 0.875 
0.471 0.082 0.678 0.584 
0.361 0.333 0.663 0.792 
0.557 0.29 0.663 0.71 
0.804 0.502 0.847 0.71 
0.498 0.416 0.51 0.71 
0.804 0.416 0.812 0.624 
1.0 0.749 0.914 0.792 
0.557 0.333 0.694 0.584 
0.945 0.416 0.863 0.918 
0.584 0.459 0.761 0.71 
0.722 0.459 0.745 0.831 
0.722 0.459 0.694 0.918 
0.694 0.502 0.831 0.918 
0.667 0.416 0.714 0.918 
0.612 0.416 0.714 0.792 
0.443 0.416 0.694 0.71 
Teaching Patterns
1.0 0.0 0.0 
1.0 0.0 0.0 
1.0 0.0 0.0 
1.0 0.0 0.0 
1.0 0.0 0.0 
1.0 0.0 0.0 
1.0 0.0 0.0 
1.0 0.0 0.0 
1.0 0.0 0.0 
1.0 0.0 0.0 
1.0 0.0 0.0 
1.0 0.0 0.0 
1.0 0.0 0.0 
1.0 0.0 0.0 
1.0 0.0 0.0 
1.0 0.0 0.0 
1.0 0.0 0.0 
1.0 0.0 0.0 
1.0 0.0 0.0 
1.0 0.0 0.0 
1.0 0.0 0.0 
1.0 0.0 0.0 
1.0 0.0 0.0 
1.0 0.0 0.0 
1.0 0.0 0.0 
1.0 0.0 0.0 
1.0 0.0 0.0 
1.0 0.0 0.0 
1.0 0.0 0.0 
1.0 0.0 0.0 
1.0 0.0 0.0 
1.0 0.0 0.0 
1.0 0.0 0.0 
1.0 0.0 0.0 
1.0 0.0 0.0 
1.0 0.0 0.0 
1.0 0.0 0.0 
1.0 0.0 0.0 
1.0 0.0 0.0 
1.0 0.0 0.0 
1.0 0.0 0.0 
1.0 0.0 0.0 
1.0 0.0 0.0 
1.0 0.0 0.0 
1.0 0.0 0.0 
1.0 0.0 0.0 
1.0 0.0 0.0 
1.0 0.0 0.0 
1.0 0.0 0.0 
1.0 0.0 0.0 
0.0 1.0 0.0 
0.0 1.0 0.0 
0.0 1.0 0.0 
0.0 1.0 0.0 
0.0 1.0 0.0 
0.0 1.0 0.0 
0.0 1.0 0.0 
0.0 1.0 0.0 
0.0 1.0 0.0 
0.0 1.0 0.0 
0.0 1.0 0.0 
0.0 1.0 0.0 
0.0 1.0 0.0 
0.0 1.0 0.0 
0.0 1.0 0.0 
0.0 1.0 0.0 
0.0 1.0 0.0 
0.0 1.0 0.0 
0.0 1.0 0.0 
0.0 1.0 0.0 
0.0 1.0 0.0 
0.0 1.0 0.0 
0.0 1.0 0.0 
0.0 1.0 0.0 
0.0 1.0 0.0 
0.0 1.0 0.0 
0.0 1.0 0.0 
0.0 1.0 0.0 
0.0 1.0 0.0 
0.0 1.0 0.0 
0.0 1.0 0.0 
0.0 1.0 0.0 
0.0 1.0 0.0 
0.0 1.0 0.0 
0.0 1.0 0.0 
0.0 1.0 0.0 
0.0 1.0 0.0 
0.0 1.0 0.0 
0.0 1.0 0.0 
0.0 1.0 0.0 
0.0 1.0 0.0 
0.0 1.0 0.0 
0.0 1.0 0.0 
0.0 1.0 0.0 
0.0 1.0 0.0 
0.0 1.0 0.0 
0.0 1.0 0.0 
0.0 1.0 0.0 
0.0 1.0 0.0 
0.0 1.0 0.0 
0.0 0.0 1.0 
0.0 0.0 1.0 
0.0 0.0 1.0 
0.0 0.0 1.0 
0.0 0.0 1.0 
0.0 0.0 1.0 
0.0 0.0 1.0 
0.0 0.0 1.0 
0.0 0.0 1.0 
0.0 0.0 1.0 
0.0 0.0 1.0 
0.0 0.0 1.0 
0.0 0.0 1.0 
0.0 0.0 1.0 
0.0 0.0 1.0 
0.0 0.0 1.0 
0.0 0.0 1.0 
0.0 0.0 1.0 
0.0 0.0 1.0 
0.0 0.0 1.0 
0.0 0.0 1.0 
0.0 0.0 1.0 
0.0 0.0 1.0 
0.0 0.0 1.0 
0.0 0.0 1.0 
0.0 0.0 1.0 
0.0 0.0 1.0 
0.0 0.0 1.0 
0.0 0.0 1.0 
0.0 0.0 1.0 
0.0 0.0 1.0 
0.0 0.0 1.0 
0.0 0.0 1.0 
0.0 0.0 1.0 
0.0 0.0 1.0 
0.0 0.0 1.0 
0.0 0.0 1.0 
0.0 0.0 1.0 
0.0 0.0 1.0 
0.0 0.0 1.0 
0.0 0.0 1.0 
0.0 0.0 1.0 
0.0 0.0 1.0 
0.0 0.0 1.0 
0.0 0.0 1.0 
0.0 0.0 1.0 
0.0 0.0 1.0 
0.0 0.0 1.0 
0.0 0.0 1.0 
0.0 0.0 1.0 
Learning : 0.5
Momentum : 0.9
Epoch: 100, Error: 0.015340086493497489
Epoch: 200, Error: 0.013517206506767392
Epoch: 300, Error: 0.01239260714850946
Epoch: 400, Error: 0.013973198758567656
Epoch: 500, Error: 0.014185269978480597
Epoch: 600, Error: 0.013991862937043962
Epoch: 700, Error: 0.013315170814342333
Epoch: 800, Error: 0.012008584110607795
Epoch: 900, Error: 0.014469105289906048
Epoch: 1000, Error: 0.01220562835920553
Epoch: 1100, Error: 0.011998788599940977
Epoch: 1200, Error: 0.01200853281714163
Epoch: 1300, Error: 0.011855481145363927
Epoch: 1400, Error: 0.012173486977040418
Epoch: 1500, Error: 0.012102855955212384
Epoch: 1600, Error: 0.012873239908862326
Epoch: 1700, Error: 0.012018075537498544
Epoch: 1800, Error: 0.012092001711278104
Epoch: 1900, Error: 0.012210296034846722
Epoch: 2000, Error: 0.01174338418611745
Epoch: 2100, Error: 0.01188659114694718
Epoch: 2200, Error: 0.012011247030977393
Epoch: 2300, Error: 0.01220111063233157
Epoch: 2400, Error: 0.011727046035467845
Epoch: 2500, Error: 0.012444949101748405
Epoch: 2600, Error: 0.012723581291957603
Epoch: 2700, Error: 0.012773174664145834
Epoch: 2800, Error: 0.011538101240102417
Epoch: 2900, Error: 0.011762335418841193
Epoch: 3000, Error: 0.012565092484073802
Epoch: 3100, Error: 0.011669360903857867
Epoch: 3200, Error: 0.011990735191859421
Epoch: 3300, Error: 0.01132523699346541
Epoch: 3400, Error: 0.01159564418838479
Epoch: 3500, Error: 0.012942000092842734
Epoch: 3600, Error: 0.011225975158934675
Epoch: 3700, Error: 0.011988492317784238
Epoch: 3800, Error: 0.011220897376826832
Epoch: 3900, Error: 0.010619408856340586
Epoch: 4000, Error: 0.011977846916294709
Epoch: 4100, Error: 0.010535081423406457
Epoch: 4200, Error: 0.010835070185475864
Epoch: 4300, Error: 0.010540734154596018
Epoch: 4400, Error: 0.012894411751143942
Epoch: 4500, Error: 0.009206067568967134
Epoch: 4600, Error: 0.00932858349942767
Epoch: 4700, Error: 0.009770942434162811
Epoch: 4800, Error: 0.008491395180012363
Epoch: 4900, Error: 0.009166869615802929
Epoch: 5000, Error: 0.00790246602510326
Epoch: 5100, Error: 0.007565706440650393
Epoch: 5200, Error: 0.007510766733429104
Epoch: 5300, Error: 0.007745399530270161
Epoch: 5400, Error: 0.009826149688584813
Epoch: 5500, Error: 0.010099613651237519
Epoch: 5600, Error: 0.007184911554424587
Epoch: 5700, Error: 0.007012713148980204
Epoch: 5800, Error: 0.006866184548374867
Epoch: 5900, Error: 0.006711245531398001
Epoch: 6000, Error: 0.006822181670059545
Epoch: 6100, Error: 0.006346989018132086
Epoch: 6200, Error: 0.006734652962630084
Epoch: 6300, Error: 0.006441867877932164
Epoch: 6400, Error: 0.006355854453633599
Epoch: 6500, Error: 0.006232073911263565
Epoch: 6600, Error: 0.005832142363608152
Epoch: 6700, Error: 0.005987010183922834
Epoch: 6800, Error: 0.005862273505817973
Epoch: 6900, Error: 0.005627609688036397
Epoch: 7000, Error: 0.005782299534838185
Epoch: 7100, Error: 0.005774034967233662
Epoch: 7200, Error: 0.0055398522546618294
Epoch: 7300, Error: 0.005516473928630755
Epoch: 7400, Error: 0.005478242735260345
Epoch: 7500, Error: 0.005492807002511057
Epoch: 7600, Error: 0.005476780881572941
Epoch: 7700, Error: 0.005415373735975355
Epoch: 7800, Error: 0.005374752524546105
Epoch: 7900, Error: 0.0053583399246299275
Epoch: 8000, Error: 0.005293977366299091
Epoch: 8100, Error: 0.005291971190785553
Epoch: 8200, Error: 0.005319521363060353
Epoch: 8300, Error: 0.005221685358528206
Epoch: 8400, Error: 0.005221085665619084
Epoch: 8500, Error: 0.005188527123683478
Epoch: 8600, Error: 0.005166321215052303
Epoch: 8700, Error: 0.005155557414630958
Epoch: 8800, Error: 0.0051987912800227215
Epoch: 8900, Error: 0.005153778165416731
Epoch: 9000, Error: 0.005106501525007825
Epoch: 9100, Error: 0.005128453788926085
Epoch: 9200, Error: 0.005130350026857197
Epoch: 9300, Error: 0.005067392073069556
Epoch: 9400, Error: 0.005104926709779367
Epoch: 9500, Error: 0.005084207676618177
Epoch: 9600, Error: 0.0050582224317014595
Epoch: 9700, Error: 0.005076702850312499
Epoch: 9800, Error: 0.00502324193567253
Epoch: 9900, Error: 0.005012529076650651
Epoch: 10000, Error: 0.004975143865443343
Epoch: 10100, Error: 0.004948351381268603
Epoch: 10200, Error: 0.004936581157932224
Epoch: 10300, Error: 0.004917832186231555
Epoch: 10400, Error: 0.004924991820252489
Epoch: 10500, Error: 0.004909458105450242
Epoch: 10600, Error: 0.004904038172320494
Epoch: 10700, Error: 0.00490981503921272
Epoch: 10800, Error: 0.004919099171447331
Epoch: 10900, Error: 0.004909145536607199
Epoch: 11000, Error: 0.004905388004469243
Finished
