Input Patterns
0.224 0.624 0.067 0.043 
0.11 0.502 0.051 0.043 
0.196 0.667 0.067 0.043 
0.055 0.584 0.067 0.082 
0.027 0.376 0.067 0.043 
0.306 0.71 0.086 0.043 
0.137 0.416 0.067 0.0 
0.416 0.831 0.035 0.043 
0.306 0.792 0.051 0.125 
0.388 0.749 0.118 0.082 
0.306 0.584 0.118 0.043 
0.082 0.667 0.0 0.043 
0.137 0.584 0.153 0.043 
0.196 0.584 0.102 0.125 
0.251 0.584 0.067 0.043 
0.137 0.459 0.102 0.043 
0.251 0.875 0.086 0.0 
0.165 0.459 0.086 0.043 
0.333 0.624 0.051 0.043 
0.027 0.416 0.051 0.043 
0.196 0.624 0.051 0.082 
0.027 0.502 0.051 0.043 
0.224 0.749 0.153 0.125 
0.224 0.749 0.102 0.043 
0.278 0.71 0.086 0.043 
0.165 0.416 0.067 0.043 
0.082 0.459 0.086 0.043 
0.306 0.792 0.118 0.125 
0.196 0.584 0.086 0.043 
0.165 0.459 0.086 0.0 
0.137 0.584 0.102 0.043 
0.0 0.416 0.016 0.0 
0.388 1.0 0.086 0.125 
0.224 0.624 0.067 0.082 
0.224 0.749 0.086 0.082 
0.224 0.71 0.086 0.125 
0.224 0.541 0.118 0.165 
0.196 0.416 0.102 0.043 
0.251 0.624 0.086 0.043 
0.11 0.502 0.102 0.043 
0.306 0.584 0.086 0.125 
0.333 0.918 0.067 0.043 
0.196 0.502 0.035 0.043 
0.165 0.667 0.067 0.0 
0.224 0.584 0.086 0.043 
0.055 0.125 0.051 0.082 
0.196 0.624 0.102 0.208 
0.137 0.416 0.067 0.082 
0.082 0.502 0.067 0.043 
0.196 0.541 0.067 0.043 
0.749 0.502 0.627 0.541 
0.722 0.459 0.663 0.584 
0.612 0.333 0.612 0.584 
0.557 0.541 0.627 0.624 
0.639 0.376 0.612 0.498 
0.196 0.0 0.424 0.376 
0.471 0.082 0.51 0.376 
0.361 0.376 0.439 0.498 
0.361 0.416 0.592 0.584 
0.529 0.082 0.592 0.584 
0.443 0.502 0.643 0.459 
0.557 0.208 0.663 0.584 
0.584 0.376 0.561 0.498 
0.694 0.333 0.643 0.541 
0.471 0.376 0.592 0.584 
0.333 0.169 0.475 0.416 
0.416 0.29 0.49 0.459 
0.306 0.416 0.592 0.584 
0.667 0.459 0.627 0.584 
0.361 0.416 0.525 0.498 
0.333 0.251 0.576 0.459 
0.416 0.251 0.51 0.459 
0.361 0.29 0.541 0.498 
0.388 0.376 0.541 0.498 
0.224 0.208 0.337 0.416 
0.584 0.502 0.592 0.584 
0.333 0.125 0.51 0.498 
0.388 0.333 0.592 0.498 
0.165 0.169 0.388 0.376 
0.251 0.29 0.49 0.541 
0.443 0.416 0.541 0.584 
0.498 0.376 0.627 0.541 
0.667 0.459 0.576 0.541 
0.416 0.29 0.525 0.376 
0.361 0.208 0.49 0.416 
0.498 0.333 0.51 0.498 
0.498 0.333 0.627 0.459 
0.639 0.416 0.576 0.541 
0.667 0.416 0.678 0.667 
0.388 0.251 0.424 0.376 
0.333 0.169 0.459 0.376 
0.471 0.29 0.694 0.624 
0.471 0.584 0.592 0.624 
0.557 0.125 0.576 0.498 
0.333 0.208 0.51 0.498 
0.498 0.416 0.612 0.541 
0.196 0.125 0.388 0.376 
0.388 0.416 0.541 0.459 
0.529 0.376 0.561 0.498 
0.388 0.333 0.525 0.498 
0.557 0.541 0.847 1.0 
0.776 0.416 0.831 0.831 
0.612 0.416 0.812 0.875 
0.165 0.208 0.592 0.667 
0.667 0.208 0.812 0.71 
0.612 0.502 0.694 0.792 
0.694 0.416 0.761 0.831 
0.416 0.333 0.694 0.957 
0.612 0.416 0.761 0.71 
0.945 0.251 1.0 0.918 
0.722 0.502 0.796 0.918 
0.945 0.333 0.965 0.792 
0.667 0.541 0.796 0.831 
0.529 0.333 0.643 0.71 
0.584 0.333 0.78 0.831 
0.863 0.333 0.863 0.749 
0.584 0.333 0.78 0.875 
0.498 0.251 0.78 0.541 
0.557 0.584 0.78 0.957 
0.471 0.416 0.643 0.71 
0.667 0.459 0.78 0.957 
0.416 0.29 0.694 0.749 
0.667 0.541 0.796 1.0 
0.557 0.208 0.678 0.749 
0.529 0.584 0.745 0.918 
0.416 0.29 0.694 0.749 
0.557 0.376 0.78 0.71 
0.918 0.416 0.949 0.831 
0.835 0.376 0.898 0.71 
0.804 0.667 0.863 1.0 
0.584 0.29 0.729 0.749 
0.388 0.208 0.678 0.792 
0.584 0.502 0.729 0.918 
0.945 0.749 0.965 0.875 
0.471 0.082 0.678 0.584 
0.361 0.333 0.663 0.792 
0.557 0.29 0.663 0.71 
0.804 0.502 0.847 0.71 
0.498 0.416 0.51 0.71 
0.804 0.416 0.812 0.624 
1.0 0.749 0.914 0.792 
0.557 0.333 0.694 0.584 
0.945 0.416 0.863 0.918 
0.584 0.459 0.761 0.71 
0.722 0.459 0.745 0.831 
0.722 0.459 0.694 0.918 
0.694 0.502 0.831 0.918 
0.667 0.416 0.714 0.918 
0.612 0.416 0.714 0.792 
0.443 0.416 0.694 0.71 
Teaching Patterns
1.0 0.0 0.0 
1.0 0.0 0.0 
1.0 0.0 0.0 
1.0 0.0 0.0 
1.0 0.0 0.0 
1.0 0.0 0.0 
1.0 0.0 0.0 
1.0 0.0 0.0 
1.0 0.0 0.0 
1.0 0.0 0.0 
1.0 0.0 0.0 
1.0 0.0 0.0 
1.0 0.0 0.0 
1.0 0.0 0.0 
1.0 0.0 0.0 
1.0 0.0 0.0 
1.0 0.0 0.0 
1.0 0.0 0.0 
1.0 0.0 0.0 
1.0 0.0 0.0 
1.0 0.0 0.0 
1.0 0.0 0.0 
1.0 0.0 0.0 
1.0 0.0 0.0 
1.0 0.0 0.0 
1.0 0.0 0.0 
1.0 0.0 0.0 
1.0 0.0 0.0 
1.0 0.0 0.0 
1.0 0.0 0.0 
1.0 0.0 0.0 
1.0 0.0 0.0 
1.0 0.0 0.0 
1.0 0.0 0.0 
1.0 0.0 0.0 
1.0 0.0 0.0 
1.0 0.0 0.0 
1.0 0.0 0.0 
1.0 0.0 0.0 
1.0 0.0 0.0 
1.0 0.0 0.0 
1.0 0.0 0.0 
1.0 0.0 0.0 
1.0 0.0 0.0 
1.0 0.0 0.0 
1.0 0.0 0.0 
1.0 0.0 0.0 
1.0 0.0 0.0 
1.0 0.0 0.0 
1.0 0.0 0.0 
0.0 1.0 0.0 
0.0 1.0 0.0 
0.0 1.0 0.0 
0.0 1.0 0.0 
0.0 1.0 0.0 
0.0 1.0 0.0 
0.0 1.0 0.0 
0.0 1.0 0.0 
0.0 1.0 0.0 
0.0 1.0 0.0 
0.0 1.0 0.0 
0.0 1.0 0.0 
0.0 1.0 0.0 
0.0 1.0 0.0 
0.0 1.0 0.0 
0.0 1.0 0.0 
0.0 1.0 0.0 
0.0 1.0 0.0 
0.0 1.0 0.0 
0.0 1.0 0.0 
0.0 1.0 0.0 
0.0 1.0 0.0 
0.0 1.0 0.0 
0.0 1.0 0.0 
0.0 1.0 0.0 
0.0 1.0 0.0 
0.0 1.0 0.0 
0.0 1.0 0.0 
0.0 1.0 0.0 
0.0 1.0 0.0 
0.0 1.0 0.0 
0.0 1.0 0.0 
0.0 1.0 0.0 
0.0 1.0 0.0 
0.0 1.0 0.0 
0.0 1.0 0.0 
0.0 1.0 0.0 
0.0 1.0 0.0 
0.0 1.0 0.0 
0.0 1.0 0.0 
0.0 1.0 0.0 
0.0 1.0 0.0 
0.0 1.0 0.0 
0.0 1.0 0.0 
0.0 1.0 0.0 
0.0 1.0 0.0 
0.0 1.0 0.0 
0.0 1.0 0.0 
0.0 1.0 0.0 
0.0 1.0 0.0 
0.0 0.0 1.0 
0.0 0.0 1.0 
0.0 0.0 1.0 
0.0 0.0 1.0 
0.0 0.0 1.0 
0.0 0.0 1.0 
0.0 0.0 1.0 
0.0 0.0 1.0 
0.0 0.0 1.0 
0.0 0.0 1.0 
0.0 0.0 1.0 
0.0 0.0 1.0 
0.0 0.0 1.0 
0.0 0.0 1.0 
0.0 0.0 1.0 
0.0 0.0 1.0 
0.0 0.0 1.0 
0.0 0.0 1.0 
0.0 0.0 1.0 
0.0 0.0 1.0 
0.0 0.0 1.0 
0.0 0.0 1.0 
0.0 0.0 1.0 
0.0 0.0 1.0 
0.0 0.0 1.0 
0.0 0.0 1.0 
0.0 0.0 1.0 
0.0 0.0 1.0 
0.0 0.0 1.0 
0.0 0.0 1.0 
0.0 0.0 1.0 
0.0 0.0 1.0 
0.0 0.0 1.0 
0.0 0.0 1.0 
0.0 0.0 1.0 
0.0 0.0 1.0 
0.0 0.0 1.0 
0.0 0.0 1.0 
0.0 0.0 1.0 
0.0 0.0 1.0 
0.0 0.0 1.0 
0.0 0.0 1.0 
0.0 0.0 1.0 
0.0 0.0 1.0 
0.0 0.0 1.0 
0.0 0.0 1.0 
0.0 0.0 1.0 
0.0 0.0 1.0 
0.0 0.0 1.0 
0.0 0.0 1.0 
Learning : 0.5
Momentum : 0.9
Epoch: 100, Error: 0.016552848667846176
Epoch: 200, Error: 0.013084334372117274
Epoch: 300, Error: 0.011968012834503692
Epoch: 400, Error: 0.01426009354545494
Epoch: 500, Error: 0.015314049430911516
Epoch: 600, Error: 0.012111070606663329
Epoch: 700, Error: 0.012206443057941016
Epoch: 800, Error: 0.01245979605099891
Epoch: 900, Error: 0.013513182824996983
Epoch: 1000, Error: 0.01262373776812204
Epoch: 1100, Error: 0.012194296587893363
Epoch: 1200, Error: 0.01260082743354795
Epoch: 1300, Error: 0.013189501596388252
Epoch: 1400, Error: 0.012303553820468745
Epoch: 1500, Error: 0.012763769623502862
Epoch: 1600, Error: 0.012442212303824734
Epoch: 1700, Error: 0.012415600468401879
Epoch: 1800, Error: 0.01220616358965007
Epoch: 1900, Error: 0.014896097853633234
Epoch: 2000, Error: 0.012380706858142345
Epoch: 2100, Error: 0.012138342261766214
Epoch: 2200, Error: 0.012061857633453979
Epoch: 2300, Error: 0.012249500659184542
Epoch: 2400, Error: 0.012286437845096265
Epoch: 2500, Error: 0.012337840025160139
Epoch: 2600, Error: 0.012189384206443724
Epoch: 2700, Error: 0.012149240857963838
Epoch: 2800, Error: 0.012245544832610302
Epoch: 2900, Error: 0.012283582096267214
Epoch: 3000, Error: 0.01203177537445149
Epoch: 3100, Error: 0.01219591415176395
Epoch: 3200, Error: 0.012541950160911189
Epoch: 3300, Error: 0.012196005334562323
Epoch: 3400, Error: 0.012168424968428631
Epoch: 3500, Error: 0.012292427008735592
Epoch: 3600, Error: 0.012151776417864265
Epoch: 3700, Error: 0.01220279246472937
Epoch: 3800, Error: 0.012506039953121696
Epoch: 3900, Error: 0.01220963727977777
Epoch: 4000, Error: 0.012637307897078483
Epoch: 4100, Error: 0.01196810289411975
Epoch: 4200, Error: 0.012115444395215683
Epoch: 4300, Error: 0.01205352878071799
Epoch: 4400, Error: 0.012324214620620546
Epoch: 4500, Error: 0.011989805590003214
Epoch: 4600, Error: 0.012084559335846654
Epoch: 4700, Error: 0.012477936300979903
Epoch: 4800, Error: 0.012162576266516775
Epoch: 4900, Error: 0.011912577750312585
Epoch: 5000, Error: 0.011941637833058561
Epoch: 5100, Error: 0.012242566666341617
Epoch: 5200, Error: 0.011725702481698226
Epoch: 5300, Error: 0.011967328851778043
Epoch: 5400, Error: 0.012557625631315468
Epoch: 5500, Error: 0.012036819780637253
Epoch: 5600, Error: 0.011714629266012945
Epoch: 5700, Error: 0.011653531003089026
Epoch: 5800, Error: 0.011704866258728196
Epoch: 5900, Error: 0.011486066606241623
Epoch: 6000, Error: 0.011342559452672372
Epoch: 6100, Error: 0.011357951934854863
Epoch: 6200, Error: 0.011514449718658995
Epoch: 6300, Error: 0.011516335556907526
Epoch: 6400, Error: 0.011370217218848804
Epoch: 6500, Error: 0.011402128329392549
Epoch: 6600, Error: 0.011283656061264302
Epoch: 6700, Error: 0.011023168326955969
Epoch: 6800, Error: 0.011081487008314218
Epoch: 6900, Error: 0.011063057733959668
Epoch: 7000, Error: 0.010697492163190114
Epoch: 7100, Error: 0.010677065867864152
Epoch: 7200, Error: 0.010804588782660806
Epoch: 7300, Error: 0.010421286508813195
Epoch: 7400, Error: 0.0105339780884961
Epoch: 7500, Error: 0.010348520448608916
Epoch: 7600, Error: 0.010223739549856866
Epoch: 7700, Error: 0.010159230932391157
Epoch: 7800, Error: 0.010195119839338927
Epoch: 7900, Error: 0.010110546371709479
Epoch: 8000, Error: 0.010154908871499486
Epoch: 8100, Error: 0.010019641193493873
Epoch: 8200, Error: 0.010107358781310727
Epoch: 8300, Error: 0.009949537417336472
Epoch: 8400, Error: 0.010041807124602254
Epoch: 8500, Error: 0.009962759549081022
Epoch: 8600, Error: 0.009888948461332042
Epoch: 8700, Error: 0.009911593269891114
Epoch: 8800, Error: 0.009887589175749898
Epoch: 8900, Error: 0.009869911775190438
Epoch: 9000, Error: 0.009885327403221195
Epoch: 9100, Error: 0.00985069792353665
Epoch: 9200, Error: 0.009850330339710549
Epoch: 9300, Error: 0.009825035704929161
Epoch: 9400, Error: 0.009800387094166908
Epoch: 9500, Error: 0.00980610693363031
Epoch: 9600, Error: 0.009838323549550226
Epoch: 9700, Error: 0.009776975967796482
Epoch: 9800, Error: 0.009778542508260627
Epoch: 9900, Error: 0.00978576278581278
Epoch: 10000, Error: 0.009792480175675815
Epoch: 10100, Error: 0.009783961192073157
Epoch: 10200, Error: 0.009742864480949043
Epoch: 10300, Error: 0.009744276599193472
Epoch: 10400, Error: 0.009739920522946432
Epoch: 10500, Error: 0.00970397462289363
Epoch: 10600, Error: 0.009715742203920826
Epoch: 10700, Error: 0.009719663469173594
Epoch: 10800, Error: 0.009724784112055448
Epoch: 10900, Error: 0.009690143305417454
Epoch: 11000, Error: 0.009682546682021185
Epoch: 11100, Error: 0.009684286933383518
Epoch: 11200, Error: 0.009689738316789345
Epoch: 11300, Error: 0.009690876895120378
Epoch: 11400, Error: 0.009716500655954053
Epoch: 11500, Error: 0.00967512702000542
Epoch: 11600, Error: 0.00971836126295636
Finished
