Input Patterns
0.224 0.624 0.067 0.043 
0.11 0.502 0.051 0.043 
0.196 0.667 0.067 0.043 
0.055 0.584 0.067 0.082 
0.027 0.376 0.067 0.043 
0.306 0.71 0.086 0.043 
0.137 0.416 0.067 0.0 
0.416 0.831 0.035 0.043 
0.306 0.792 0.051 0.125 
0.388 0.749 0.118 0.082 
0.306 0.584 0.118 0.043 
0.082 0.667 0.0 0.043 
0.137 0.584 0.153 0.043 
0.196 0.584 0.102 0.125 
0.251 0.584 0.067 0.043 
0.137 0.459 0.102 0.043 
0.251 0.875 0.086 0.0 
0.165 0.459 0.086 0.043 
0.333 0.624 0.051 0.043 
0.027 0.416 0.051 0.043 
0.196 0.624 0.051 0.082 
0.027 0.502 0.051 0.043 
0.224 0.749 0.153 0.125 
0.224 0.749 0.102 0.043 
0.278 0.71 0.086 0.043 
0.165 0.416 0.067 0.043 
0.082 0.459 0.086 0.043 
0.306 0.792 0.118 0.125 
0.196 0.584 0.086 0.043 
0.165 0.459 0.086 0.0 
0.137 0.584 0.102 0.043 
0.0 0.416 0.016 0.0 
0.388 1.0 0.086 0.125 
0.224 0.624 0.067 0.082 
0.224 0.749 0.086 0.082 
0.224 0.71 0.086 0.125 
0.224 0.541 0.118 0.165 
0.196 0.416 0.102 0.043 
0.251 0.624 0.086 0.043 
0.11 0.502 0.102 0.043 
0.306 0.584 0.086 0.125 
0.333 0.918 0.067 0.043 
0.196 0.502 0.035 0.043 
0.165 0.667 0.067 0.0 
0.224 0.584 0.086 0.043 
0.055 0.125 0.051 0.082 
0.196 0.624 0.102 0.208 
0.137 0.416 0.067 0.082 
0.082 0.502 0.067 0.043 
0.196 0.541 0.067 0.043 
0.749 0.502 0.627 0.541 
0.722 0.459 0.663 0.584 
0.612 0.333 0.612 0.584 
0.557 0.541 0.627 0.624 
0.639 0.376 0.612 0.498 
0.196 0.0 0.424 0.376 
0.471 0.082 0.51 0.376 
0.361 0.376 0.439 0.498 
0.361 0.416 0.592 0.584 
0.529 0.082 0.592 0.584 
0.443 0.502 0.643 0.459 
0.557 0.208 0.663 0.584 
0.584 0.376 0.561 0.498 
0.694 0.333 0.643 0.541 
0.471 0.376 0.592 0.584 
0.333 0.169 0.475 0.416 
0.416 0.29 0.49 0.459 
0.306 0.416 0.592 0.584 
0.667 0.459 0.627 0.584 
0.361 0.416 0.525 0.498 
0.333 0.251 0.576 0.459 
0.416 0.251 0.51 0.459 
0.361 0.29 0.541 0.498 
0.388 0.376 0.541 0.498 
0.224 0.208 0.337 0.416 
0.584 0.502 0.592 0.584 
0.333 0.125 0.51 0.498 
0.388 0.333 0.592 0.498 
0.165 0.169 0.388 0.376 
0.251 0.29 0.49 0.541 
0.443 0.416 0.541 0.584 
0.498 0.376 0.627 0.541 
0.667 0.459 0.576 0.541 
0.416 0.29 0.525 0.376 
0.361 0.208 0.49 0.416 
0.498 0.333 0.51 0.498 
0.498 0.333 0.627 0.459 
0.639 0.416 0.576 0.541 
0.667 0.416 0.678 0.667 
0.388 0.251 0.424 0.376 
0.333 0.169 0.459 0.376 
0.471 0.29 0.694 0.624 
0.471 0.584 0.592 0.624 
0.557 0.125 0.576 0.498 
0.333 0.208 0.51 0.498 
0.498 0.416 0.612 0.541 
0.196 0.125 0.388 0.376 
0.388 0.416 0.541 0.459 
0.529 0.376 0.561 0.498 
0.388 0.333 0.525 0.498 
0.557 0.541 0.847 1.0 
0.776 0.416 0.831 0.831 
0.612 0.416 0.812 0.875 
0.165 0.208 0.592 0.667 
0.667 0.208 0.812 0.71 
0.612 0.502 0.694 0.792 
0.694 0.416 0.761 0.831 
0.416 0.333 0.694 0.957 
0.612 0.416 0.761 0.71 
0.945 0.251 1.0 0.918 
0.722 0.502 0.796 0.918 
0.945 0.333 0.965 0.792 
0.667 0.541 0.796 0.831 
0.529 0.333 0.643 0.71 
0.584 0.333 0.78 0.831 
0.863 0.333 0.863 0.749 
0.584 0.333 0.78 0.875 
0.498 0.251 0.78 0.541 
0.557 0.584 0.78 0.957 
0.471 0.416 0.643 0.71 
0.667 0.459 0.78 0.957 
0.416 0.29 0.694 0.749 
0.667 0.541 0.796 1.0 
0.557 0.208 0.678 0.749 
0.529 0.584 0.745 0.918 
0.416 0.29 0.694 0.749 
0.557 0.376 0.78 0.71 
0.918 0.416 0.949 0.831 
0.835 0.376 0.898 0.71 
0.804 0.667 0.863 1.0 
0.584 0.29 0.729 0.749 
0.388 0.208 0.678 0.792 
0.584 0.502 0.729 0.918 
0.945 0.749 0.965 0.875 
0.471 0.082 0.678 0.584 
0.361 0.333 0.663 0.792 
0.557 0.29 0.663 0.71 
0.804 0.502 0.847 0.71 
0.498 0.416 0.51 0.71 
0.804 0.416 0.812 0.624 
1.0 0.749 0.914 0.792 
0.557 0.333 0.694 0.584 
0.945 0.416 0.863 0.918 
0.584 0.459 0.761 0.71 
0.722 0.459 0.745 0.831 
0.722 0.459 0.694 0.918 
0.694 0.502 0.831 0.918 
0.667 0.416 0.714 0.918 
0.612 0.416 0.714 0.792 
0.443 0.416 0.694 0.71 
Teaching Patterns
1.0 0.0 0.0 
1.0 0.0 0.0 
1.0 0.0 0.0 
1.0 0.0 0.0 
1.0 0.0 0.0 
1.0 0.0 0.0 
1.0 0.0 0.0 
1.0 0.0 0.0 
1.0 0.0 0.0 
1.0 0.0 0.0 
1.0 0.0 0.0 
1.0 0.0 0.0 
1.0 0.0 0.0 
1.0 0.0 0.0 
1.0 0.0 0.0 
1.0 0.0 0.0 
1.0 0.0 0.0 
1.0 0.0 0.0 
1.0 0.0 0.0 
1.0 0.0 0.0 
1.0 0.0 0.0 
1.0 0.0 0.0 
1.0 0.0 0.0 
1.0 0.0 0.0 
1.0 0.0 0.0 
1.0 0.0 0.0 
1.0 0.0 0.0 
1.0 0.0 0.0 
1.0 0.0 0.0 
1.0 0.0 0.0 
1.0 0.0 0.0 
1.0 0.0 0.0 
1.0 0.0 0.0 
1.0 0.0 0.0 
1.0 0.0 0.0 
1.0 0.0 0.0 
1.0 0.0 0.0 
1.0 0.0 0.0 
1.0 0.0 0.0 
1.0 0.0 0.0 
1.0 0.0 0.0 
1.0 0.0 0.0 
1.0 0.0 0.0 
1.0 0.0 0.0 
1.0 0.0 0.0 
1.0 0.0 0.0 
1.0 0.0 0.0 
1.0 0.0 0.0 
1.0 0.0 0.0 
1.0 0.0 0.0 
0.0 1.0 0.0 
0.0 1.0 0.0 
0.0 1.0 0.0 
0.0 1.0 0.0 
0.0 1.0 0.0 
0.0 1.0 0.0 
0.0 1.0 0.0 
0.0 1.0 0.0 
0.0 1.0 0.0 
0.0 1.0 0.0 
0.0 1.0 0.0 
0.0 1.0 0.0 
0.0 1.0 0.0 
0.0 1.0 0.0 
0.0 1.0 0.0 
0.0 1.0 0.0 
0.0 1.0 0.0 
0.0 1.0 0.0 
0.0 1.0 0.0 
0.0 1.0 0.0 
0.0 1.0 0.0 
0.0 1.0 0.0 
0.0 1.0 0.0 
0.0 1.0 0.0 
0.0 1.0 0.0 
0.0 1.0 0.0 
0.0 1.0 0.0 
0.0 1.0 0.0 
0.0 1.0 0.0 
0.0 1.0 0.0 
0.0 1.0 0.0 
0.0 1.0 0.0 
0.0 1.0 0.0 
0.0 1.0 0.0 
0.0 1.0 0.0 
0.0 1.0 0.0 
0.0 1.0 0.0 
0.0 1.0 0.0 
0.0 1.0 0.0 
0.0 1.0 0.0 
0.0 1.0 0.0 
0.0 1.0 0.0 
0.0 1.0 0.0 
0.0 1.0 0.0 
0.0 1.0 0.0 
0.0 1.0 0.0 
0.0 1.0 0.0 
0.0 1.0 0.0 
0.0 1.0 0.0 
0.0 1.0 0.0 
0.0 0.0 1.0 
0.0 0.0 1.0 
0.0 0.0 1.0 
0.0 0.0 1.0 
0.0 0.0 1.0 
0.0 0.0 1.0 
0.0 0.0 1.0 
0.0 0.0 1.0 
0.0 0.0 1.0 
0.0 0.0 1.0 
0.0 0.0 1.0 
0.0 0.0 1.0 
0.0 0.0 1.0 
0.0 0.0 1.0 
0.0 0.0 1.0 
0.0 0.0 1.0 
0.0 0.0 1.0 
0.0 0.0 1.0 
0.0 0.0 1.0 
0.0 0.0 1.0 
0.0 0.0 1.0 
0.0 0.0 1.0 
0.0 0.0 1.0 
0.0 0.0 1.0 
0.0 0.0 1.0 
0.0 0.0 1.0 
0.0 0.0 1.0 
0.0 0.0 1.0 
0.0 0.0 1.0 
0.0 0.0 1.0 
0.0 0.0 1.0 
0.0 0.0 1.0 
0.0 0.0 1.0 
0.0 0.0 1.0 
0.0 0.0 1.0 
0.0 0.0 1.0 
0.0 0.0 1.0 
0.0 0.0 1.0 
0.0 0.0 1.0 
0.0 0.0 1.0 
0.0 0.0 1.0 
0.0 0.0 1.0 
0.0 0.0 1.0 
0.0 0.0 1.0 
0.0 0.0 1.0 
0.0 0.0 1.0 
0.0 0.0 1.0 
0.0 0.0 1.0 
0.0 0.0 1.0 
0.0 0.0 1.0 
Learning : 0.5
Momentum : 0.9
Epoch: 100, Error: 0.014435648483352357
Epoch: 200, Error: 0.012789698347466995
Epoch: 300, Error: 0.01424979140397442
Epoch: 400, Error: 0.013580561677617741
Epoch: 500, Error: 0.012307073838994716
Epoch: 600, Error: 0.013353346647511685
Epoch: 700, Error: 0.012734577976633688
Epoch: 800, Error: 0.012214000633314414
Epoch: 900, Error: 0.012514434896188175
Epoch: 1000, Error: 0.013487905113567162
Epoch: 1100, Error: 0.012127598694052279
Epoch: 1200, Error: 0.012237760214922204
Epoch: 1300, Error: 0.012836502010885258
Epoch: 1400, Error: 0.012103471558757272
Epoch: 1500, Error: 0.012356585306497499
Epoch: 1600, Error: 0.012364971891559271
Epoch: 1700, Error: 0.012013332825293006
Epoch: 1800, Error: 0.012001685787982271
Epoch: 1900, Error: 0.012921040459603827
Epoch: 2000, Error: 0.012028956024440292
Epoch: 2100, Error: 0.01212704529700023
Epoch: 2200, Error: 0.011894122781186255
Epoch: 2300, Error: 0.011512913632596128
Epoch: 2400, Error: 0.011210156622549618
Epoch: 2500, Error: 0.01102148362039075
Epoch: 2600, Error: 0.011015696038143712
Epoch: 2700, Error: 0.010671620709379312
Epoch: 2800, Error: 0.010548094770177036
Epoch: 2900, Error: 0.010928356786727529
Epoch: 3000, Error: 0.011050184283707186
Epoch: 3100, Error: 0.011047936879394534
Epoch: 3200, Error: 0.010125501921813997
Epoch: 3300, Error: 0.00995534121855396
Epoch: 3400, Error: 0.009565552185121758
Epoch: 3500, Error: 0.00879269653322404
Epoch: 3600, Error: 0.0077568078505425775
Epoch: 3700, Error: 0.006528462381872349
Epoch: 3800, Error: 0.006110223224993354
Epoch: 3900, Error: 0.005701667151535879
Epoch: 4000, Error: 0.005419042716936134
Epoch: 4100, Error: 0.005324886463714552
Epoch: 4200, Error: 0.0052331218694016335
Epoch: 4300, Error: 0.005181001130179244
Epoch: 4400, Error: 0.005178837317921826
Epoch: 4500, Error: 0.005128720373424361
Epoch: 4600, Error: 0.005120340127073093
Epoch: 4700, Error: 0.0051557907758205245
Epoch: 4800, Error: 0.005075869085352443
Epoch: 4900, Error: 0.00508767699786628
Epoch: 5000, Error: 0.005047546543670522
Epoch: 5100, Error: 0.005029258283698804
Epoch: 5200, Error: 0.00504093507698975
Epoch: 5300, Error: 0.005015910466076414
Epoch: 5400, Error: 0.004997786040441279
Epoch: 5500, Error: 0.004987302500748294
Epoch: 5600, Error: 0.00501225318926189
Epoch: 5700, Error: 0.0049951126607989975
Epoch: 5800, Error: 0.004953983500186917
Epoch: 5900, Error: 0.004943243928743649
Epoch: 6000, Error: 0.0049740136884241105
Epoch: 6100, Error: 0.004944116954873849
Epoch: 6200, Error: 0.004915539205548351
Epoch: 6300, Error: 0.004903463343490025
Epoch: 6400, Error: 0.004901749387209429
Epoch: 6500, Error: 0.004897969661915764
Epoch: 6600, Error: 0.0048535623123273424
Epoch: 6700, Error: 0.00485490765639303
Epoch: 6800, Error: 0.004839886699951646
Epoch: 6900, Error: 0.004799867611597106
Epoch: 7000, Error: 0.004955839217263054
Epoch: 7100, Error: 0.004779196504100581
Epoch: 7200, Error: 0.0047738684426454426
Epoch: 7300, Error: 0.004723566517269489
Epoch: 7400, Error: 0.004812074541205267
Epoch: 7500, Error: 0.004799117269375508
Epoch: 7600, Error: 0.004663440953774518
Epoch: 7700, Error: 0.0046266672943687664
Epoch: 7800, Error: 0.004487917033030689
Epoch: 7900, Error: 0.004574078610025988
Epoch: 8000, Error: 0.004406078905954884
Epoch: 8100, Error: 0.004355366543450314
Epoch: 8200, Error: 0.0040743002971486445
Epoch: 8300, Error: 0.004187988672933038
Epoch: 8400, Error: 0.004205095386524587
Epoch: 8500, Error: 0.004346855213976161
Epoch: 8600, Error: 0.003843533734900864
Epoch: 8700, Error: 0.00358050777312665
Epoch: 8800, Error: 0.0036976043793097366
Epoch: 8900, Error: 0.0036091655227008853
Epoch: 9000, Error: 0.002963104247723461
Epoch: 9100, Error: 0.003358968475531553
Epoch: 9200, Error: 0.003271860454816831
Epoch: 9300, Error: 0.003054663811848941
Epoch: 9400, Error: 0.0026871093729270495
Epoch: 9500, Error: 0.0022845988528885745
Epoch: 9600, Error: 0.0032455193498799758
Epoch: 9700, Error: 0.0053256335554292406
Epoch: 9800, Error: 0.003395643472383657
Epoch: 9900, Error: 0.004393138172986837
Epoch: 10000, Error: 0.0020312978294977184
Epoch: 10100, Error: 0.005050620113381033
Epoch: 10200, Error: 0.0029097409357686506
Epoch: 10300, Error: 0.003128522258029644
Epoch: 10400, Error: 0.0028441061979343225
Epoch: 10500, Error: 0.004807430812961209
Epoch: 10600, Error: 0.0019758483899747757
Epoch: 10700, Error: 0.001472274077582105
Epoch: 10800, Error: 0.004315944075595472
Epoch: 10900, Error: 0.0012174881499583613
Epoch: 11000, Error: 0.0011327502086331664
Epoch: 11100, Error: 0.0017388961786076952
Epoch: 11200, Error: 0.003952736593879243
Epoch: 11300, Error: 0.0017707122044007474
Epoch: 11400, Error: 9.252580779289365E-4
Epoch: 11500, Error: 9.377449080622064E-4
Epoch: 11600, Error: 0.0023529900083702694
Epoch: 11700, Error: 0.0010516388825160623
Epoch: 11800, Error: 9.508967405224573E-4
Epoch: 11900, Error: 7.699965023277989E-4
Epoch: 12000, Error: 8.910755300201739E-4
Epoch: 12100, Error: 8.235772199603391E-4
Epoch: 12200, Error: 7.412268866822675E-4
Epoch: 12300, Error: 6.978572101343127E-4
Epoch: 12400, Error: 7.382055510562795E-4
Epoch: 12500, Error: 7.325238507828452E-4
Epoch: 12600, Error: 9.155412242500409E-4
Epoch: 12700, Error: 6.953333768693878E-4
Epoch: 12800, Error: 6.829311325346449E-4
Epoch: 12900, Error: 6.995003657100702E-4
Epoch: 13000, Error: 6.791858190922551E-4
Epoch: 13100, Error: 6.687960355913317E-4
Epoch: 13200, Error: 6.796095596452642E-4
Epoch: 13300, Error: 7.142442682649275E-4
Epoch: 13400, Error: 6.983308775129688E-4
Epoch: 13500, Error: 7.186353388410821E-4
Epoch: 13600, Error: 6.919691972318308E-4
Epoch: 13700, Error: 7.25889513855429E-4
Epoch: 13800, Error: 6.920845990108017E-4
Epoch: 13900, Error: 6.715372477455151E-4
Epoch: 14000, Error: 6.837901186730323E-4
Epoch: 14100, Error: 6.815734228093404E-4
Epoch: 14200, Error: 6.863023335747242E-4
Epoch: 14300, Error: 6.668346955633107E-4
Epoch: 14400, Error: 6.437519843557679E-4
Epoch: 14500, Error: 6.360270423541673E-4
Epoch: 14600, Error: 6.605260290706637E-4
Epoch: 14700, Error: 6.189773526810137E-4
Epoch: 14800, Error: 6.600126723224018E-4
Epoch: 14900, Error: 6.390540524198079E-4
Epoch: 15000, Error: 6.079041782309373E-4
Epoch: 15100, Error: 6.008956460049863E-4
Epoch: 15200, Error: 6.057016191162745E-4
Epoch: 15300, Error: 5.942334063350304E-4
Epoch: 15400, Error: 5.948707644527958E-4
Epoch: 15500, Error: 5.974194727295681E-4
Epoch: 15600, Error: 6.082831754557334E-4
Epoch: 15700, Error: 6.301751916780172E-4
Epoch: 15800, Error: 6.057225522694556E-4
Epoch: 15900, Error: 6.249583097288727E-4
Epoch: 16000, Error: 6.218120535740221E-4
Epoch: 16100, Error: 6.548885333273926E-4
Epoch: 16200, Error: 6.801816549352418E-4
Epoch: 16300, Error: 6.874695657320398E-4
Epoch: 16400, Error: 7.221614586709875E-4
Epoch: 16500, Error: 7.275794372025898E-4
Epoch: 16600, Error: 7.357493463609313E-4
Epoch: 16700, Error: 7.257992194475559E-4
Epoch: 16800, Error: 7.219719334322524E-4
Epoch: 16900, Error: 7.207560655316896E-4
Epoch: 17000, Error: 7.232868123060555E-4
Epoch: 17100, Error: 7.15487682592154E-4
Epoch: 17200, Error: 7.126855953656572E-4
Epoch: 17300, Error: 7.144328776994852E-4
Epoch: 17400, Error: 7.04580003758973E-4
Epoch: 17500, Error: 7.060070120670881E-4
Epoch: 17600, Error: 6.960379197043448E-4
Finished
