Input Patterns
0.224 0.624 0.067 0.043 
0.11 0.502 0.051 0.043 
0.196 0.667 0.067 0.043 
0.055 0.584 0.067 0.082 
0.027 0.376 0.067 0.043 
0.306 0.71 0.086 0.043 
0.137 0.416 0.067 0.0 
0.416 0.831 0.035 0.043 
0.306 0.792 0.051 0.125 
0.388 0.749 0.118 0.082 
0.306 0.584 0.118 0.043 
0.082 0.667 0.0 0.043 
0.137 0.584 0.153 0.043 
0.196 0.584 0.102 0.125 
0.251 0.584 0.067 0.043 
0.137 0.459 0.102 0.043 
0.251 0.875 0.086 0.0 
0.165 0.459 0.086 0.043 
0.333 0.624 0.051 0.043 
0.027 0.416 0.051 0.043 
0.196 0.624 0.051 0.082 
0.027 0.502 0.051 0.043 
0.224 0.749 0.153 0.125 
0.224 0.749 0.102 0.043 
0.278 0.71 0.086 0.043 
0.165 0.416 0.067 0.043 
0.082 0.459 0.086 0.043 
0.306 0.792 0.118 0.125 
0.196 0.584 0.086 0.043 
0.165 0.459 0.086 0.0 
0.137 0.584 0.102 0.043 
0.0 0.416 0.016 0.0 
0.388 1.0 0.086 0.125 
0.224 0.624 0.067 0.082 
0.224 0.749 0.086 0.082 
0.224 0.71 0.086 0.125 
0.224 0.541 0.118 0.165 
0.196 0.416 0.102 0.043 
0.251 0.624 0.086 0.043 
0.11 0.502 0.102 0.043 
0.306 0.584 0.086 0.125 
0.333 0.918 0.067 0.043 
0.196 0.502 0.035 0.043 
0.165 0.667 0.067 0.0 
0.224 0.584 0.086 0.043 
0.055 0.125 0.051 0.082 
0.196 0.624 0.102 0.208 
0.137 0.416 0.067 0.082 
0.082 0.502 0.067 0.043 
0.196 0.541 0.067 0.043 
0.749 0.502 0.627 0.541 
0.722 0.459 0.663 0.584 
0.612 0.333 0.612 0.584 
0.557 0.541 0.627 0.624 
0.639 0.376 0.612 0.498 
0.196 0.0 0.424 0.376 
0.471 0.082 0.51 0.376 
0.361 0.376 0.439 0.498 
0.361 0.416 0.592 0.584 
0.529 0.082 0.592 0.584 
0.443 0.502 0.643 0.459 
0.557 0.208 0.663 0.584 
0.584 0.376 0.561 0.498 
0.694 0.333 0.643 0.541 
0.471 0.376 0.592 0.584 
0.333 0.169 0.475 0.416 
0.416 0.29 0.49 0.459 
0.306 0.416 0.592 0.584 
0.667 0.459 0.627 0.584 
0.361 0.416 0.525 0.498 
0.333 0.251 0.576 0.459 
0.416 0.251 0.51 0.459 
0.361 0.29 0.541 0.498 
0.388 0.376 0.541 0.498 
0.224 0.208 0.337 0.416 
0.584 0.502 0.592 0.584 
0.333 0.125 0.51 0.498 
0.388 0.333 0.592 0.498 
0.165 0.169 0.388 0.376 
0.251 0.29 0.49 0.541 
0.443 0.416 0.541 0.584 
0.498 0.376 0.627 0.541 
0.667 0.459 0.576 0.541 
0.416 0.29 0.525 0.376 
0.361 0.208 0.49 0.416 
0.498 0.333 0.51 0.498 
0.498 0.333 0.627 0.459 
0.639 0.416 0.576 0.541 
0.667 0.416 0.678 0.667 
0.388 0.251 0.424 0.376 
0.333 0.169 0.459 0.376 
0.471 0.29 0.694 0.624 
0.471 0.584 0.592 0.624 
0.557 0.125 0.576 0.498 
0.333 0.208 0.51 0.498 
0.498 0.416 0.612 0.541 
0.196 0.125 0.388 0.376 
0.388 0.416 0.541 0.459 
0.529 0.376 0.561 0.498 
0.388 0.333 0.525 0.498 
0.557 0.541 0.847 1.0 
0.776 0.416 0.831 0.831 
0.612 0.416 0.812 0.875 
0.165 0.208 0.592 0.667 
0.667 0.208 0.812 0.71 
0.612 0.502 0.694 0.792 
0.694 0.416 0.761 0.831 
0.416 0.333 0.694 0.957 
0.612 0.416 0.761 0.71 
0.945 0.251 1.0 0.918 
0.722 0.502 0.796 0.918 
0.945 0.333 0.965 0.792 
0.667 0.541 0.796 0.831 
0.529 0.333 0.643 0.71 
0.584 0.333 0.78 0.831 
0.863 0.333 0.863 0.749 
0.584 0.333 0.78 0.875 
0.498 0.251 0.78 0.541 
0.557 0.584 0.78 0.957 
0.471 0.416 0.643 0.71 
0.667 0.459 0.78 0.957 
0.416 0.29 0.694 0.749 
0.667 0.541 0.796 1.0 
0.557 0.208 0.678 0.749 
0.529 0.584 0.745 0.918 
0.416 0.29 0.694 0.749 
0.557 0.376 0.78 0.71 
0.918 0.416 0.949 0.831 
0.835 0.376 0.898 0.71 
0.804 0.667 0.863 1.0 
0.584 0.29 0.729 0.749 
0.388 0.208 0.678 0.792 
0.584 0.502 0.729 0.918 
0.945 0.749 0.965 0.875 
0.471 0.082 0.678 0.584 
0.361 0.333 0.663 0.792 
0.557 0.29 0.663 0.71 
0.804 0.502 0.847 0.71 
0.498 0.416 0.51 0.71 
0.804 0.416 0.812 0.624 
1.0 0.749 0.914 0.792 
0.557 0.333 0.694 0.584 
0.945 0.416 0.863 0.918 
0.584 0.459 0.761 0.71 
0.722 0.459 0.745 0.831 
0.722 0.459 0.694 0.918 
0.694 0.502 0.831 0.918 
0.667 0.416 0.714 0.918 
0.612 0.416 0.714 0.792 
0.443 0.416 0.694 0.71 
Teaching Patterns
1.0 0.0 0.0 
1.0 0.0 0.0 
1.0 0.0 0.0 
1.0 0.0 0.0 
1.0 0.0 0.0 
1.0 0.0 0.0 
1.0 0.0 0.0 
1.0 0.0 0.0 
1.0 0.0 0.0 
1.0 0.0 0.0 
1.0 0.0 0.0 
1.0 0.0 0.0 
1.0 0.0 0.0 
1.0 0.0 0.0 
1.0 0.0 0.0 
1.0 0.0 0.0 
1.0 0.0 0.0 
1.0 0.0 0.0 
1.0 0.0 0.0 
1.0 0.0 0.0 
1.0 0.0 0.0 
1.0 0.0 0.0 
1.0 0.0 0.0 
1.0 0.0 0.0 
1.0 0.0 0.0 
1.0 0.0 0.0 
1.0 0.0 0.0 
1.0 0.0 0.0 
1.0 0.0 0.0 
1.0 0.0 0.0 
1.0 0.0 0.0 
1.0 0.0 0.0 
1.0 0.0 0.0 
1.0 0.0 0.0 
1.0 0.0 0.0 
1.0 0.0 0.0 
1.0 0.0 0.0 
1.0 0.0 0.0 
1.0 0.0 0.0 
1.0 0.0 0.0 
1.0 0.0 0.0 
1.0 0.0 0.0 
1.0 0.0 0.0 
1.0 0.0 0.0 
1.0 0.0 0.0 
1.0 0.0 0.0 
1.0 0.0 0.0 
1.0 0.0 0.0 
1.0 0.0 0.0 
1.0 0.0 0.0 
0.0 1.0 0.0 
0.0 1.0 0.0 
0.0 1.0 0.0 
0.0 1.0 0.0 
0.0 1.0 0.0 
0.0 1.0 0.0 
0.0 1.0 0.0 
0.0 1.0 0.0 
0.0 1.0 0.0 
0.0 1.0 0.0 
0.0 1.0 0.0 
0.0 1.0 0.0 
0.0 1.0 0.0 
0.0 1.0 0.0 
0.0 1.0 0.0 
0.0 1.0 0.0 
0.0 1.0 0.0 
0.0 1.0 0.0 
0.0 1.0 0.0 
0.0 1.0 0.0 
0.0 1.0 0.0 
0.0 1.0 0.0 
0.0 1.0 0.0 
0.0 1.0 0.0 
0.0 1.0 0.0 
0.0 1.0 0.0 
0.0 1.0 0.0 
0.0 1.0 0.0 
0.0 1.0 0.0 
0.0 1.0 0.0 
0.0 1.0 0.0 
0.0 1.0 0.0 
0.0 1.0 0.0 
0.0 1.0 0.0 
0.0 1.0 0.0 
0.0 1.0 0.0 
0.0 1.0 0.0 
0.0 1.0 0.0 
0.0 1.0 0.0 
0.0 1.0 0.0 
0.0 1.0 0.0 
0.0 1.0 0.0 
0.0 1.0 0.0 
0.0 1.0 0.0 
0.0 1.0 0.0 
0.0 1.0 0.0 
0.0 1.0 0.0 
0.0 1.0 0.0 
0.0 1.0 0.0 
0.0 1.0 0.0 
0.0 0.0 1.0 
0.0 0.0 1.0 
0.0 0.0 1.0 
0.0 0.0 1.0 
0.0 0.0 1.0 
0.0 0.0 1.0 
0.0 0.0 1.0 
0.0 0.0 1.0 
0.0 0.0 1.0 
0.0 0.0 1.0 
0.0 0.0 1.0 
0.0 0.0 1.0 
0.0 0.0 1.0 
0.0 0.0 1.0 
0.0 0.0 1.0 
0.0 0.0 1.0 
0.0 0.0 1.0 
0.0 0.0 1.0 
0.0 0.0 1.0 
0.0 0.0 1.0 
0.0 0.0 1.0 
0.0 0.0 1.0 
0.0 0.0 1.0 
0.0 0.0 1.0 
0.0 0.0 1.0 
0.0 0.0 1.0 
0.0 0.0 1.0 
0.0 0.0 1.0 
0.0 0.0 1.0 
0.0 0.0 1.0 
0.0 0.0 1.0 
0.0 0.0 1.0 
0.0 0.0 1.0 
0.0 0.0 1.0 
0.0 0.0 1.0 
0.0 0.0 1.0 
0.0 0.0 1.0 
0.0 0.0 1.0 
0.0 0.0 1.0 
0.0 0.0 1.0 
0.0 0.0 1.0 
0.0 0.0 1.0 
0.0 0.0 1.0 
0.0 0.0 1.0 
0.0 0.0 1.0 
0.0 0.0 1.0 
0.0 0.0 1.0 
0.0 0.0 1.0 
0.0 0.0 1.0 
0.0 0.0 1.0 
Learning : 0.5
Momentum : 0.9
Epoch: 100, Error: 0.013124208741535998
Epoch: 200, Error: 0.013958073378190064
Epoch: 300, Error: 0.011964774866304647
Epoch: 400, Error: 0.013415160714266508
Epoch: 500, Error: 0.012618279258989774
Epoch: 600, Error: 0.012110668607665959
Epoch: 700, Error: 0.011859024806217996
Epoch: 800, Error: 0.011900268615211295
Epoch: 900, Error: 0.0118567255576649
Epoch: 1000, Error: 0.012095676331167263
Epoch: 1100, Error: 0.012090971698335364
Epoch: 1200, Error: 0.013465080602492612
Epoch: 1300, Error: 0.011856632428652921
Epoch: 1400, Error: 0.011670969966022276
Epoch: 1500, Error: 0.011661635809156651
Epoch: 1600, Error: 0.011547622536830409
Epoch: 1700, Error: 0.011533300258855031
Epoch: 1800, Error: 0.011483402843107967
Epoch: 1900, Error: 0.011277739677673307
Epoch: 2000, Error: 0.011102747089524946
Epoch: 2100, Error: 0.01103482068848903
Epoch: 2200, Error: 0.011406946727961003
Epoch: 2300, Error: 0.010913483661826135
Epoch: 2400, Error: 0.01481510239693534
Epoch: 2500, Error: 0.010295929309603474
Epoch: 2600, Error: 0.010981237499813104
Epoch: 2700, Error: 0.010919482928104973
Epoch: 2800, Error: 0.008514064609298143
Epoch: 2900, Error: 0.007740941644365729
Epoch: 3000, Error: 0.007991616072815115
Epoch: 3100, Error: 0.006418292385413474
Epoch: 3200, Error: 0.006361826535268381
Epoch: 3300, Error: 0.006154406197356794
Epoch: 3400, Error: 0.0057282412728765055
Epoch: 3500, Error: 0.0055871645086834065
Epoch: 3600, Error: 0.0053966123315890985
Epoch: 3700, Error: 0.005320001220708288
Epoch: 3800, Error: 0.005264575700651257
Epoch: 3900, Error: 0.0052026992565631985
Epoch: 4000, Error: 0.005149510775566879
Epoch: 4100, Error: 0.005143683866004604
Epoch: 4200, Error: 0.005113706438652888
Epoch: 4300, Error: 0.005096798804405438
Epoch: 4400, Error: 0.005091884615565705
Epoch: 4500, Error: 0.005082321666858836
Epoch: 4600, Error: 0.005081986467213605
Epoch: 4700, Error: 0.005078898403058587
Epoch: 4800, Error: 0.005071146371005861
Epoch: 4900, Error: 0.005072293708795948
Epoch: 5000, Error: 0.005091128938010177
Epoch: 5100, Error: 0.005068515687291792
Epoch: 5200, Error: 0.005059127064158344
Epoch: 5300, Error: 0.00505893982621236
Epoch: 5400, Error: 0.005072432748636389
Epoch: 5500, Error: 0.005062733617041326
Epoch: 5600, Error: 0.005081730600827678
Epoch: 5700, Error: 0.005078302385583838
Epoch: 5800, Error: 0.005075889625108123
Epoch: 5900, Error: 0.0050656664629873845
Epoch: 6000, Error: 0.005110812164888112
Epoch: 6100, Error: 0.0050876593918490354
Epoch: 6200, Error: 0.005078228991109587
Epoch: 6300, Error: 0.005058804540000985
Epoch: 6400, Error: 0.005079024509335482
Epoch: 6500, Error: 0.005070278872439954
Epoch: 6600, Error: 0.005070278984644636
Epoch: 6700, Error: 0.005081114303131239
Epoch: 6800, Error: 0.0051262499083551795
Epoch: 6900, Error: 0.00516767153013988
Epoch: 7000, Error: 0.005093544594633611
Epoch: 7100, Error: 0.005128009662419166
Epoch: 7200, Error: 0.00500831771700904
Epoch: 7300, Error: 0.004869085539313452
Epoch: 7400, Error: 0.004928630587558369
Epoch: 7500, Error: 0.004911158236526903
Epoch: 7600, Error: 0.004979970989550966
Epoch: 7700, Error: 0.004822574267457731
Epoch: 7800, Error: 0.004624364266590362
Epoch: 7900, Error: 0.004929691366497123
Epoch: 8000, Error: 0.004823532891978805
Epoch: 8100, Error: 0.004600880155524245
Epoch: 8200, Error: 0.004603156881255878
Epoch: 8300, Error: 0.004482314010145424
Epoch: 8400, Error: 0.005059441451258698
Epoch: 8500, Error: 0.00437436827513112
Epoch: 8600, Error: 0.005258371301186908
Epoch: 8700, Error: 0.003998126784661015
Epoch: 8800, Error: 0.004203486458773518
Epoch: 8900, Error: 0.004456009165907793
Epoch: 9000, Error: 0.003636497453471812
Epoch: 9100, Error: 0.0037954507148082075
Epoch: 9200, Error: 0.0031151916402012573
Epoch: 9300, Error: 0.003683328441146141
Epoch: 9400, Error: 0.0029635128479810692
Epoch: 9500, Error: 0.0036385168763323587
Epoch: 9600, Error: 0.003541712928552761
Epoch: 9700, Error: 0.002544531383668998
Epoch: 9800, Error: 0.0023716715266033942
Epoch: 9900, Error: 0.005038419728441135
Epoch: 10000, Error: 0.002052647936671279
Epoch: 10100, Error: 0.004059026684372253
Epoch: 10200, Error: 0.0025985672992581703
Epoch: 10300, Error: 0.004407070987984275
Epoch: 10400, Error: 0.002895194981686031
Epoch: 10500, Error: 0.0031321738799121794
Epoch: 10600, Error: 0.005135097671378608
Epoch: 10700, Error: 0.0017639904354206334
Epoch: 10800, Error: 0.00297507695021688
Epoch: 10900, Error: 0.0018918708565358628
Epoch: 11000, Error: 0.0065404564904884815
Epoch: 11100, Error: 0.0033151810091424532
Epoch: 11200, Error: 0.0021166662249244056
Epoch: 11300, Error: 0.0027046642319628472
Epoch: 11400, Error: 0.001790461510165049
Epoch: 11500, Error: 0.0013846286039159066
Epoch: 11600, Error: 0.00403370457964759
Epoch: 11700, Error: 0.0013817667088198856
Epoch: 11800, Error: 0.0015975681092820875
Epoch: 11900, Error: 0.004621372150312688
Epoch: 12000, Error: 0.0013844469633690615
Epoch: 12100, Error: 0.0015108973412368437
Epoch: 12200, Error: 0.0014034097625873617
Epoch: 12300, Error: 0.0013202121982810219
Epoch: 12400, Error: 0.0013186870721774867
Epoch: 12500, Error: 0.0013343132784299618
Epoch: 12600, Error: 0.0010013666643907313
Epoch: 12700, Error: 0.0010576745904958675
Epoch: 12800, Error: 0.0010656504596963626
Epoch: 12900, Error: 0.0010878124984807715
Epoch: 13000, Error: 0.0010951909712431103
Epoch: 13100, Error: 0.0010463670062476594
Epoch: 13200, Error: 0.0010255692970857937
Epoch: 13300, Error: 0.0010476375070346846
Epoch: 13400, Error: 9.69761923036573E-4
Epoch: 13500, Error: 9.772592036242265E-4
Epoch: 13600, Error: 9.382080711397341E-4
Epoch: 13700, Error: 9.083506088052238E-4
Epoch: 13800, Error: 8.6095711790831E-4
Epoch: 13900, Error: 9.108336108687275E-4
Epoch: 14000, Error: 8.520245857167649E-4
Epoch: 14100, Error: 9.165522584338865E-4
Epoch: 14200, Error: 8.310492084751629E-4
Epoch: 14300, Error: 8.137691908084234E-4
Epoch: 14400, Error: 7.958111617243852E-4
Epoch: 14500, Error: 8.056986213325527E-4
Epoch: 14600, Error: 8.02527637372445E-4
Epoch: 14700, Error: 7.876573342601427E-4
Epoch: 14800, Error: 7.947760417569009E-4
Epoch: 14900, Error: 7.566658395874661E-4
Epoch: 15000, Error: 7.215210913873028E-4
Epoch: 15100, Error: 7.338575443964052E-4
Epoch: 15200, Error: 7.367794225902694E-4
Epoch: 15300, Error: 7.132814871869571E-4
Epoch: 15400, Error: 7.319172156225329E-4
Epoch: 15500, Error: 8.074485916045542E-4
Epoch: 15600, Error: 7.302928746736237E-4
Epoch: 15700, Error: 7.895397213643536E-4
Epoch: 15800, Error: 7.065370405290202E-4
Epoch: 15900, Error: 7.28777856740083E-4
Epoch: 16000, Error: 7.825522042173695E-4
Epoch: 16100, Error: 6.947705324975448E-4
Epoch: 16200, Error: 7.216211980763754E-4
Epoch: 16300, Error: 6.656001692924442E-4
Epoch: 16400, Error: 6.942160441423958E-4
Epoch: 16500, Error: 6.944366009001407E-4
Epoch: 16600, Error: 6.674591875953584E-4
Epoch: 16700, Error: 7.216920536575916E-4
Epoch: 16800, Error: 7.474137206368296E-4
Epoch: 16900, Error: 7.292182145525529E-4
Epoch: 17000, Error: 8.019540184483072E-4
Epoch: 17100, Error: 8.068577393099422E-4
Epoch: 17200, Error: 8.269961444668835E-4
Epoch: 17300, Error: 8.377339288238303E-4
Epoch: 17400, Error: 8.851899648591704E-4
Epoch: 17500, Error: 8.705114581317588E-4
Epoch: 17600, Error: 8.308452370344985E-4
Epoch: 17700, Error: 8.828811480909091E-4
Epoch: 17800, Error: 8.908797121214414E-4
Epoch: 17900, Error: 8.724108211938117E-4
Epoch: 18000, Error: 8.631804723515717E-4
Epoch: 18100, Error: 8.805493715144448E-4
Epoch: 18200, Error: 8.305901674014208E-4
Epoch: 18300, Error: 8.767886993715063E-4
Epoch: 18400, Error: 8.835274055227403E-4
Epoch: 18500, Error: 8.690726172866904E-4
Epoch: 18600, Error: 8.680623883779357E-4
Epoch: 18700, Error: 8.771604484125023E-4
Epoch: 18800, Error: 8.660382723426654E-4
Epoch: 18900, Error: 8.826825397653018E-4
Epoch: 19000, Error: 8.212483059945276E-4
Finished
