Input Patterns
0.224 0.624 0.067 0.043 
0.11 0.502 0.051 0.043 
0.196 0.667 0.067 0.043 
0.055 0.584 0.067 0.082 
0.027 0.376 0.067 0.043 
0.306 0.71 0.086 0.043 
0.137 0.416 0.067 0.0 
0.416 0.831 0.035 0.043 
0.306 0.792 0.051 0.125 
0.388 0.749 0.118 0.082 
0.306 0.584 0.118 0.043 
0.082 0.667 0.0 0.043 
0.137 0.584 0.153 0.043 
0.196 0.584 0.102 0.125 
0.251 0.584 0.067 0.043 
0.137 0.459 0.102 0.043 
0.251 0.875 0.086 0.0 
0.165 0.459 0.086 0.043 
0.333 0.624 0.051 0.043 
0.027 0.416 0.051 0.043 
0.196 0.624 0.051 0.082 
0.027 0.502 0.051 0.043 
0.224 0.749 0.153 0.125 
0.224 0.749 0.102 0.043 
0.278 0.71 0.086 0.043 
0.165 0.416 0.067 0.043 
0.082 0.459 0.086 0.043 
0.306 0.792 0.118 0.125 
0.196 0.584 0.086 0.043 
0.165 0.459 0.086 0.0 
0.137 0.584 0.102 0.043 
0.0 0.416 0.016 0.0 
0.388 1.0 0.086 0.125 
0.224 0.624 0.067 0.082 
0.224 0.749 0.086 0.082 
0.224 0.71 0.086 0.125 
0.224 0.541 0.118 0.165 
0.196 0.416 0.102 0.043 
0.251 0.624 0.086 0.043 
0.11 0.502 0.102 0.043 
0.306 0.584 0.086 0.125 
0.333 0.918 0.067 0.043 
0.196 0.502 0.035 0.043 
0.165 0.667 0.067 0.0 
0.224 0.584 0.086 0.043 
0.055 0.125 0.051 0.082 
0.196 0.624 0.102 0.208 
0.137 0.416 0.067 0.082 
0.082 0.502 0.067 0.043 
0.196 0.541 0.067 0.043 
0.749 0.502 0.627 0.541 
0.722 0.459 0.663 0.584 
0.612 0.333 0.612 0.584 
0.557 0.541 0.627 0.624 
0.639 0.376 0.612 0.498 
0.196 0.0 0.424 0.376 
0.471 0.082 0.51 0.376 
0.361 0.376 0.439 0.498 
0.361 0.416 0.592 0.584 
0.529 0.082 0.592 0.584 
0.443 0.502 0.643 0.459 
0.557 0.208 0.663 0.584 
0.584 0.376 0.561 0.498 
0.694 0.333 0.643 0.541 
0.471 0.376 0.592 0.584 
0.333 0.169 0.475 0.416 
0.416 0.29 0.49 0.459 
0.306 0.416 0.592 0.584 
0.667 0.459 0.627 0.584 
0.361 0.416 0.525 0.498 
0.333 0.251 0.576 0.459 
0.416 0.251 0.51 0.459 
0.361 0.29 0.541 0.498 
0.388 0.376 0.541 0.498 
0.224 0.208 0.337 0.416 
0.584 0.502 0.592 0.584 
0.333 0.125 0.51 0.498 
0.388 0.333 0.592 0.498 
0.165 0.169 0.388 0.376 
0.251 0.29 0.49 0.541 
0.443 0.416 0.541 0.584 
0.498 0.376 0.627 0.541 
0.667 0.459 0.576 0.541 
0.416 0.29 0.525 0.376 
0.361 0.208 0.49 0.416 
0.498 0.333 0.51 0.498 
0.498 0.333 0.627 0.459 
0.639 0.416 0.576 0.541 
0.667 0.416 0.678 0.667 
0.388 0.251 0.424 0.376 
0.333 0.169 0.459 0.376 
0.471 0.29 0.694 0.624 
0.471 0.584 0.592 0.624 
0.557 0.125 0.576 0.498 
0.333 0.208 0.51 0.498 
0.498 0.416 0.612 0.541 
0.196 0.125 0.388 0.376 
0.388 0.416 0.541 0.459 
0.529 0.376 0.561 0.498 
0.388 0.333 0.525 0.498 
0.557 0.541 0.847 1.0 
0.776 0.416 0.831 0.831 
0.612 0.416 0.812 0.875 
0.165 0.208 0.592 0.667 
0.667 0.208 0.812 0.71 
0.612 0.502 0.694 0.792 
0.694 0.416 0.761 0.831 
0.416 0.333 0.694 0.957 
0.612 0.416 0.761 0.71 
0.945 0.251 1.0 0.918 
0.722 0.502 0.796 0.918 
0.945 0.333 0.965 0.792 
0.667 0.541 0.796 0.831 
0.529 0.333 0.643 0.71 
0.584 0.333 0.78 0.831 
0.863 0.333 0.863 0.749 
0.584 0.333 0.78 0.875 
0.498 0.251 0.78 0.541 
0.557 0.584 0.78 0.957 
0.471 0.416 0.643 0.71 
0.667 0.459 0.78 0.957 
0.416 0.29 0.694 0.749 
0.667 0.541 0.796 1.0 
0.557 0.208 0.678 0.749 
0.529 0.584 0.745 0.918 
0.416 0.29 0.694 0.749 
0.557 0.376 0.78 0.71 
0.918 0.416 0.949 0.831 
0.835 0.376 0.898 0.71 
0.804 0.667 0.863 1.0 
0.584 0.29 0.729 0.749 
0.388 0.208 0.678 0.792 
0.584 0.502 0.729 0.918 
0.945 0.749 0.965 0.875 
0.471 0.082 0.678 0.584 
0.361 0.333 0.663 0.792 
0.557 0.29 0.663 0.71 
0.804 0.502 0.847 0.71 
0.498 0.416 0.51 0.71 
0.804 0.416 0.812 0.624 
1.0 0.749 0.914 0.792 
0.557 0.333 0.694 0.584 
0.945 0.416 0.863 0.918 
0.584 0.459 0.761 0.71 
0.722 0.459 0.745 0.831 
0.722 0.459 0.694 0.918 
0.694 0.502 0.831 0.918 
0.667 0.416 0.714 0.918 
0.612 0.416 0.714 0.792 
0.443 0.416 0.694 0.71 
Teaching Patterns
1.0 0.0 0.0 
1.0 0.0 0.0 
1.0 0.0 0.0 
1.0 0.0 0.0 
1.0 0.0 0.0 
1.0 0.0 0.0 
1.0 0.0 0.0 
1.0 0.0 0.0 
1.0 0.0 0.0 
1.0 0.0 0.0 
1.0 0.0 0.0 
1.0 0.0 0.0 
1.0 0.0 0.0 
1.0 0.0 0.0 
1.0 0.0 0.0 
1.0 0.0 0.0 
1.0 0.0 0.0 
1.0 0.0 0.0 
1.0 0.0 0.0 
1.0 0.0 0.0 
1.0 0.0 0.0 
1.0 0.0 0.0 
1.0 0.0 0.0 
1.0 0.0 0.0 
1.0 0.0 0.0 
1.0 0.0 0.0 
1.0 0.0 0.0 
1.0 0.0 0.0 
1.0 0.0 0.0 
1.0 0.0 0.0 
1.0 0.0 0.0 
1.0 0.0 0.0 
1.0 0.0 0.0 
1.0 0.0 0.0 
1.0 0.0 0.0 
1.0 0.0 0.0 
1.0 0.0 0.0 
1.0 0.0 0.0 
1.0 0.0 0.0 
1.0 0.0 0.0 
1.0 0.0 0.0 
1.0 0.0 0.0 
1.0 0.0 0.0 
1.0 0.0 0.0 
1.0 0.0 0.0 
1.0 0.0 0.0 
1.0 0.0 0.0 
1.0 0.0 0.0 
1.0 0.0 0.0 
1.0 0.0 0.0 
0.0 1.0 0.0 
0.0 1.0 0.0 
0.0 1.0 0.0 
0.0 1.0 0.0 
0.0 1.0 0.0 
0.0 1.0 0.0 
0.0 1.0 0.0 
0.0 1.0 0.0 
0.0 1.0 0.0 
0.0 1.0 0.0 
0.0 1.0 0.0 
0.0 1.0 0.0 
0.0 1.0 0.0 
0.0 1.0 0.0 
0.0 1.0 0.0 
0.0 1.0 0.0 
0.0 1.0 0.0 
0.0 1.0 0.0 
0.0 1.0 0.0 
0.0 1.0 0.0 
0.0 1.0 0.0 
0.0 1.0 0.0 
0.0 1.0 0.0 
0.0 1.0 0.0 
0.0 1.0 0.0 
0.0 1.0 0.0 
0.0 1.0 0.0 
0.0 1.0 0.0 
0.0 1.0 0.0 
0.0 1.0 0.0 
0.0 1.0 0.0 
0.0 1.0 0.0 
0.0 1.0 0.0 
0.0 1.0 0.0 
0.0 1.0 0.0 
0.0 1.0 0.0 
0.0 1.0 0.0 
0.0 1.0 0.0 
0.0 1.0 0.0 
0.0 1.0 0.0 
0.0 1.0 0.0 
0.0 1.0 0.0 
0.0 1.0 0.0 
0.0 1.0 0.0 
0.0 1.0 0.0 
0.0 1.0 0.0 
0.0 1.0 0.0 
0.0 1.0 0.0 
0.0 1.0 0.0 
0.0 1.0 0.0 
0.0 0.0 1.0 
0.0 0.0 1.0 
0.0 0.0 1.0 
0.0 0.0 1.0 
0.0 0.0 1.0 
0.0 0.0 1.0 
0.0 0.0 1.0 
0.0 0.0 1.0 
0.0 0.0 1.0 
0.0 0.0 1.0 
0.0 0.0 1.0 
0.0 0.0 1.0 
0.0 0.0 1.0 
0.0 0.0 1.0 
0.0 0.0 1.0 
0.0 0.0 1.0 
0.0 0.0 1.0 
0.0 0.0 1.0 
0.0 0.0 1.0 
0.0 0.0 1.0 
0.0 0.0 1.0 
0.0 0.0 1.0 
0.0 0.0 1.0 
0.0 0.0 1.0 
0.0 0.0 1.0 
0.0 0.0 1.0 
0.0 0.0 1.0 
0.0 0.0 1.0 
0.0 0.0 1.0 
0.0 0.0 1.0 
0.0 0.0 1.0 
0.0 0.0 1.0 
0.0 0.0 1.0 
0.0 0.0 1.0 
0.0 0.0 1.0 
0.0 0.0 1.0 
0.0 0.0 1.0 
0.0 0.0 1.0 
0.0 0.0 1.0 
0.0 0.0 1.0 
0.0 0.0 1.0 
0.0 0.0 1.0 
0.0 0.0 1.0 
0.0 0.0 1.0 
0.0 0.0 1.0 
0.0 0.0 1.0 
0.0 0.0 1.0 
0.0 0.0 1.0 
0.0 0.0 1.0 
0.0 0.0 1.0 
Learning : 0.5
Momentum : 0.9
Epoch: 100, Error: 0.01706344520410031
Epoch: 200, Error: 0.015577262594468616
Epoch: 300, Error: 0.01235671003855205
Epoch: 400, Error: 0.011897067564992123
Epoch: 500, Error: 0.011840365331815678
Epoch: 600, Error: 0.01200060862106859
Epoch: 700, Error: 0.011902960972316388
Epoch: 800, Error: 0.012684672452878102
Epoch: 900, Error: 0.012067257743730447
Epoch: 1000, Error: 0.011908679900060897
Epoch: 1100, Error: 0.012641912974711116
Epoch: 1200, Error: 0.01193558648836746
Epoch: 1300, Error: 0.012093539054563177
Epoch: 1400, Error: 0.01217238383825183
Epoch: 1500, Error: 0.012071885999971
Epoch: 1600, Error: 0.01195279285579358
Epoch: 1700, Error: 0.01222879308244695
Epoch: 1800, Error: 0.01180072140309017
Epoch: 1900, Error: 0.01214034279404032
Epoch: 2000, Error: 0.011821207111853825
Epoch: 2100, Error: 0.01174788525326276
Epoch: 2200, Error: 0.011526946277216643
Epoch: 2300, Error: 0.011419823985029384
Epoch: 2400, Error: 0.011731563727124599
Epoch: 2500, Error: 0.01110711701788401
Epoch: 2600, Error: 0.010915959765608772
Epoch: 2700, Error: 0.01046909593008251
Epoch: 2800, Error: 0.009799185582341831
Epoch: 2900, Error: 0.008083169427364426
Epoch: 3000, Error: 0.007349087409823572
Epoch: 3100, Error: 0.0065988059971250025
Epoch: 3200, Error: 0.006666251352317817
Epoch: 3300, Error: 0.005749072423390263
Epoch: 3400, Error: 0.005601200262023557
Epoch: 3500, Error: 0.005480864441406238
Epoch: 3600, Error: 0.005399663565047235
Epoch: 3700, Error: 0.005454670861857069
Epoch: 3800, Error: 0.005349563431773621
Epoch: 3900, Error: 0.005355537045834604
Epoch: 4000, Error: 0.005328340788687739
Epoch: 4100, Error: 0.0053401847510988025
Epoch: 4200, Error: 0.005361929025159828
Epoch: 4300, Error: 0.005357136666088823
Epoch: 4400, Error: 0.005365992280162977
Epoch: 4500, Error: 0.005338527389165972
Epoch: 4600, Error: 0.00529791068577878
Epoch: 4700, Error: 0.005307681631589763
Epoch: 4800, Error: 0.005315722469883714
Epoch: 4900, Error: 0.005347020957843987
Epoch: 5000, Error: 0.005366184760834845
Epoch: 5100, Error: 0.005426804443691472
Epoch: 5200, Error: 0.005513818373245244
Epoch: 5300, Error: 0.005494589221726594
Epoch: 5400, Error: 0.0054606407141537874
Epoch: 5500, Error: 0.0054478454269269345
Epoch: 5600, Error: 0.005444438597992634
Epoch: 5700, Error: 0.005432297002531038
Epoch: 5800, Error: 0.0054372454862718494
Epoch: 5900, Error: 0.005424455950487948
Epoch: 6000, Error: 0.0054037757745653645
Epoch: 6100, Error: 0.005414195872458997
Epoch: 6200, Error: 0.005403685807348834
Epoch: 6300, Error: 0.00537359307414455
Epoch: 6400, Error: 0.00537036311369698
Epoch: 6500, Error: 0.005391137227391808
Epoch: 6600, Error: 0.005331037835338931
Epoch: 6700, Error: 0.0053392599061359135
Epoch: 6800, Error: 0.005298442553864779
Epoch: 6900, Error: 0.00528086863173474
Epoch: 7000, Error: 0.005235754419317376
Epoch: 7100, Error: 0.005225486061881054
Epoch: 7200, Error: 0.005197885400665176
Epoch: 7300, Error: 0.005165352971563335
Epoch: 7400, Error: 0.005172288042822821
Epoch: 7500, Error: 0.005175162797619035
Epoch: 7600, Error: 0.005114607327269456
Epoch: 7700, Error: 0.005108082005175057
Epoch: 7800, Error: 0.005053409009244117
Epoch: 7900, Error: 0.005078960945784687
Epoch: 8000, Error: 0.005218282459170057
Epoch: 8100, Error: 0.004902058583804535
Epoch: 8200, Error: 0.005065668797281163
Epoch: 8300, Error: 0.004743445001380315
Epoch: 8400, Error: 0.0048401805364115015
Epoch: 8500, Error: 0.004542508473687066
Epoch: 8600, Error: 0.004725351485944763
Epoch: 8700, Error: 0.004229203496003525
Epoch: 8800, Error: 0.00415673196938942
Epoch: 8900, Error: 0.004072117408046684
Epoch: 9000, Error: 0.0039544220854881755
Epoch: 9100, Error: 0.0038561902894642783
Epoch: 9200, Error: 0.003911737156640013
Epoch: 9300, Error: 0.0041506497255403485
Epoch: 9400, Error: 0.0033273251217078173
Epoch: 9500, Error: 0.003650493873236321
Epoch: 9600, Error: 0.0035470411708122145
Epoch: 9700, Error: 0.003519618754342948
Epoch: 9800, Error: 0.0029221797049259566
Epoch: 9900, Error: 0.0031906521556334024
Epoch: 10000, Error: 0.002533125026046849
Epoch: 10100, Error: 0.0029242523290222344
Epoch: 10200, Error: 0.0033244829162852687
Epoch: 10300, Error: 0.004617434543805556
Epoch: 10400, Error: 0.002403488035339226
Epoch: 10500, Error: 0.005508668940432644
Epoch: 10600, Error: 0.0031351403542685423
Epoch: 10700, Error: 0.0027933212928055394
Epoch: 10800, Error: 0.0020611836829003286
Epoch: 10900, Error: 0.0016887545425971495
Epoch: 11000, Error: 0.0034345909127771338
Epoch: 11100, Error: 0.0022279872516494065
Epoch: 11200, Error: 0.0014300753123422394
Epoch: 11300, Error: 0.004472310007859141
Epoch: 11400, Error: 0.0014899423008238228
Epoch: 11500, Error: 0.0025997008151783705
Epoch: 11600, Error: 0.0011699071938006031
Epoch: 11700, Error: 0.0013700180948822607
Epoch: 11800, Error: 0.0011969835642582475
Epoch: 11900, Error: 0.0013451750904314647
Epoch: 12000, Error: 0.001060007621039705
Epoch: 12100, Error: 0.0010567698142510537
Epoch: 12200, Error: 0.0011336758113843315
Epoch: 12300, Error: 0.0010271863337957099
Epoch: 12400, Error: 0.0011517539307375618
Epoch: 12500, Error: 0.0010907150823520199
Epoch: 12600, Error: 0.0011828566631391928
Epoch: 12700, Error: 0.0011402908072849272
Epoch: 12800, Error: 0.001120468936160694
Epoch: 12900, Error: 0.001139941983289213
Epoch: 13000, Error: 0.001111994896119708
Epoch: 13100, Error: 0.001220432715922679
Epoch: 13200, Error: 0.0011854627933791733
Epoch: 13300, Error: 0.001175992175876318
Epoch: 13400, Error: 0.001164788423081513
Epoch: 13500, Error: 0.0011537058589225738
Epoch: 13600, Error: 0.0011428188236162506
Epoch: 13700, Error: 0.0010589675758310932
Epoch: 13800, Error: 0.0010971213053223529
Epoch: 13900, Error: 0.0010693369646054389
Epoch: 14000, Error: 0.0010209650926024524
Epoch: 14100, Error: 0.0010334036417545937
Epoch: 14200, Error: 0.0010357020198848966
Epoch: 14300, Error: 0.001023753053635059
Epoch: 14400, Error: 0.0010648593677605683
Epoch: 14500, Error: 0.0010345406895545424
Epoch: 14600, Error: 0.0010335120413597746
Epoch: 14700, Error: 0.0010616962196264969
Epoch: 14800, Error: 0.0011116559525545437
Epoch: 14900, Error: 0.0011020855876722625
Epoch: 15000, Error: 0.001133108497044974
Epoch: 15100, Error: 0.0011080438570986461
Epoch: 15200, Error: 0.0011232826628460393
Epoch: 15300, Error: 0.0011065547032960005
Epoch: 15400, Error: 0.0011109973746248707
Epoch: 15500, Error: 0.0010891083846454907
Epoch: 15600, Error: 0.0010831228885151627
Epoch: 15700, Error: 0.0010873176227983309
Epoch: 15800, Error: 0.0011119846382552873
Epoch: 15900, Error: 0.0010788685422895934
Epoch: 16000, Error: 0.0011122754894929822
Epoch: 16100, Error: 0.0010778224425698132
Epoch: 16200, Error: 0.0010574720430619289
Epoch: 16300, Error: 0.0010918487233652157
Epoch: 16400, Error: 0.0011564797501784625
Epoch: 16500, Error: 0.0011370119609618785
Epoch: 16600, Error: 0.0011468581956327424
Epoch: 16700, Error: 0.001244659123533169
Epoch: 16800, Error: 0.0012768534821056548
Epoch: 16900, Error: 0.0013267790475548931
Epoch: 17000, Error: 0.0013498246263925048
Epoch: 17100, Error: 0.00138737653498096
Epoch: 17200, Error: 0.0013681755574237585
Epoch: 17300, Error: 0.0013693019838517684
Epoch: 17400, Error: 0.0013594210181426855
Epoch: 17500, Error: 0.0013385754882343842
Epoch: 17600, Error: 0.0013607319899263315
Epoch: 17700, Error: 0.0013554143544915593
Epoch: 17800, Error: 0.0013252878908481096
Epoch: 17900, Error: 0.0012880506151227234
Epoch: 18000, Error: 0.0012509300746244554
Epoch: 18100, Error: 0.0012332322468365583
Epoch: 18200, Error: 0.0011958306515251736
Epoch: 18300, Error: 0.0011717553999207424
Epoch: 18400, Error: 0.0011698953264726766
Epoch: 18500, Error: 0.0011500004652745205
Epoch: 18600, Error: 0.0011095699226936196
Epoch: 18700, Error: 0.0010772218151295565
Epoch: 18800, Error: 0.0010471551327499874
Epoch: 18900, Error: 0.0010504364855369937
Epoch: 19000, Error: 0.001047627254154064
Epoch: 19100, Error: 0.0010259819340008958
Epoch: 19200, Error: 0.001020272226544299
Epoch: 19300, Error: 9.91965110712434E-4
Epoch: 19400, Error: 0.0010208179609577871
Epoch: 19500, Error: 0.001048529955909291
Epoch: 19600, Error: 0.0010598259738470606
Epoch: 19700, Error: 0.0010774590984890147
Epoch: 19800, Error: 0.0011110728879073649
Epoch: 19900, Error: 0.0011032578393453392
Epoch: 20000, Error: 0.0011076931263274304
Epoch: 20100, Error: 0.0011052896565413714
Epoch: 20200, Error: 0.0011440910290318085
Epoch: 20300, Error: 0.0011391027778825211
Epoch: 20400, Error: 0.0011408454159723515
Epoch: 20500, Error: 0.0011218243921031035
Epoch: 20600, Error: 0.0011069931654912495
Epoch: 20700, Error: 0.0011088882659975835
Epoch: 20800, Error: 0.001109884916879425
Epoch: 20900, Error: 0.001086824764987676
Finished
