Input Patterns
0.224 0.624 0.067 0.043 
0.11 0.502 0.051 0.043 
0.196 0.667 0.067 0.043 
0.055 0.584 0.067 0.082 
0.027 0.376 0.067 0.043 
0.306 0.71 0.086 0.043 
0.137 0.416 0.067 0.0 
0.416 0.831 0.035 0.043 
0.306 0.792 0.051 0.125 
0.388 0.749 0.118 0.082 
0.306 0.584 0.118 0.043 
0.082 0.667 0.0 0.043 
0.137 0.584 0.153 0.043 
0.196 0.584 0.102 0.125 
0.251 0.584 0.067 0.043 
0.137 0.459 0.102 0.043 
0.251 0.875 0.086 0.0 
0.165 0.459 0.086 0.043 
0.333 0.624 0.051 0.043 
0.027 0.416 0.051 0.043 
0.196 0.624 0.051 0.082 
0.027 0.502 0.051 0.043 
0.224 0.749 0.153 0.125 
0.224 0.749 0.102 0.043 
0.278 0.71 0.086 0.043 
0.165 0.416 0.067 0.043 
0.082 0.459 0.086 0.043 
0.306 0.792 0.118 0.125 
0.196 0.584 0.086 0.043 
0.165 0.459 0.086 0.0 
0.137 0.584 0.102 0.043 
0.0 0.416 0.016 0.0 
0.388 1.0 0.086 0.125 
0.224 0.624 0.067 0.082 
0.224 0.749 0.086 0.082 
0.224 0.71 0.086 0.125 
0.224 0.541 0.118 0.165 
0.196 0.416 0.102 0.043 
0.251 0.624 0.086 0.043 
0.11 0.502 0.102 0.043 
0.306 0.584 0.086 0.125 
0.333 0.918 0.067 0.043 
0.196 0.502 0.035 0.043 
0.165 0.667 0.067 0.0 
0.224 0.584 0.086 0.043 
0.055 0.125 0.051 0.082 
0.196 0.624 0.102 0.208 
0.137 0.416 0.067 0.082 
0.082 0.502 0.067 0.043 
0.196 0.541 0.067 0.043 
0.749 0.502 0.627 0.541 
0.722 0.459 0.663 0.584 
0.612 0.333 0.612 0.584 
0.557 0.541 0.627 0.624 
0.639 0.376 0.612 0.498 
0.196 0.0 0.424 0.376 
0.471 0.082 0.51 0.376 
0.361 0.376 0.439 0.498 
0.361 0.416 0.592 0.584 
0.529 0.082 0.592 0.584 
0.443 0.502 0.643 0.459 
0.557 0.208 0.663 0.584 
0.584 0.376 0.561 0.498 
0.694 0.333 0.643 0.541 
0.471 0.376 0.592 0.584 
0.333 0.169 0.475 0.416 
0.416 0.29 0.49 0.459 
0.306 0.416 0.592 0.584 
0.667 0.459 0.627 0.584 
0.361 0.416 0.525 0.498 
0.333 0.251 0.576 0.459 
0.416 0.251 0.51 0.459 
0.361 0.29 0.541 0.498 
0.388 0.376 0.541 0.498 
0.224 0.208 0.337 0.416 
0.584 0.502 0.592 0.584 
0.333 0.125 0.51 0.498 
0.388 0.333 0.592 0.498 
0.165 0.169 0.388 0.376 
0.251 0.29 0.49 0.541 
0.443 0.416 0.541 0.584 
0.498 0.376 0.627 0.541 
0.667 0.459 0.576 0.541 
0.416 0.29 0.525 0.376 
0.361 0.208 0.49 0.416 
0.498 0.333 0.51 0.498 
0.498 0.333 0.627 0.459 
0.639 0.416 0.576 0.541 
0.667 0.416 0.678 0.667 
0.388 0.251 0.424 0.376 
0.333 0.169 0.459 0.376 
0.471 0.29 0.694 0.624 
0.471 0.584 0.592 0.624 
0.557 0.125 0.576 0.498 
0.333 0.208 0.51 0.498 
0.498 0.416 0.612 0.541 
0.196 0.125 0.388 0.376 
0.388 0.416 0.541 0.459 
0.529 0.376 0.561 0.498 
0.388 0.333 0.525 0.498 
0.557 0.541 0.847 1.0 
0.776 0.416 0.831 0.831 
0.612 0.416 0.812 0.875 
0.165 0.208 0.592 0.667 
0.667 0.208 0.812 0.71 
0.612 0.502 0.694 0.792 
0.694 0.416 0.761 0.831 
0.416 0.333 0.694 0.957 
0.612 0.416 0.761 0.71 
0.945 0.251 1.0 0.918 
0.722 0.502 0.796 0.918 
0.945 0.333 0.965 0.792 
0.667 0.541 0.796 0.831 
0.529 0.333 0.643 0.71 
0.584 0.333 0.78 0.831 
0.863 0.333 0.863 0.749 
0.584 0.333 0.78 0.875 
0.498 0.251 0.78 0.541 
0.557 0.584 0.78 0.957 
0.471 0.416 0.643 0.71 
0.667 0.459 0.78 0.957 
0.416 0.29 0.694 0.749 
0.667 0.541 0.796 1.0 
0.557 0.208 0.678 0.749 
0.529 0.584 0.745 0.918 
0.416 0.29 0.694 0.749 
0.557 0.376 0.78 0.71 
0.918 0.416 0.949 0.831 
0.835 0.376 0.898 0.71 
0.804 0.667 0.863 1.0 
0.584 0.29 0.729 0.749 
0.388 0.208 0.678 0.792 
0.584 0.502 0.729 0.918 
0.945 0.749 0.965 0.875 
0.471 0.082 0.678 0.584 
0.361 0.333 0.663 0.792 
0.557 0.29 0.663 0.71 
0.804 0.502 0.847 0.71 
0.498 0.416 0.51 0.71 
0.804 0.416 0.812 0.624 
1.0 0.749 0.914 0.792 
0.557 0.333 0.694 0.584 
0.945 0.416 0.863 0.918 
0.584 0.459 0.761 0.71 
0.722 0.459 0.745 0.831 
0.722 0.459 0.694 0.918 
0.694 0.502 0.831 0.918 
0.667 0.416 0.714 0.918 
0.612 0.416 0.714 0.792 
0.443 0.416 0.694 0.71 
Teaching Patterns
1.0 0.0 0.0 
1.0 0.0 0.0 
1.0 0.0 0.0 
1.0 0.0 0.0 
1.0 0.0 0.0 
1.0 0.0 0.0 
1.0 0.0 0.0 
1.0 0.0 0.0 
1.0 0.0 0.0 
1.0 0.0 0.0 
1.0 0.0 0.0 
1.0 0.0 0.0 
1.0 0.0 0.0 
1.0 0.0 0.0 
1.0 0.0 0.0 
1.0 0.0 0.0 
1.0 0.0 0.0 
1.0 0.0 0.0 
1.0 0.0 0.0 
1.0 0.0 0.0 
1.0 0.0 0.0 
1.0 0.0 0.0 
1.0 0.0 0.0 
1.0 0.0 0.0 
1.0 0.0 0.0 
1.0 0.0 0.0 
1.0 0.0 0.0 
1.0 0.0 0.0 
1.0 0.0 0.0 
1.0 0.0 0.0 
1.0 0.0 0.0 
1.0 0.0 0.0 
1.0 0.0 0.0 
1.0 0.0 0.0 
1.0 0.0 0.0 
1.0 0.0 0.0 
1.0 0.0 0.0 
1.0 0.0 0.0 
1.0 0.0 0.0 
1.0 0.0 0.0 
1.0 0.0 0.0 
1.0 0.0 0.0 
1.0 0.0 0.0 
1.0 0.0 0.0 
1.0 0.0 0.0 
1.0 0.0 0.0 
1.0 0.0 0.0 
1.0 0.0 0.0 
1.0 0.0 0.0 
1.0 0.0 0.0 
0.0 1.0 0.0 
0.0 1.0 0.0 
0.0 1.0 0.0 
0.0 1.0 0.0 
0.0 1.0 0.0 
0.0 1.0 0.0 
0.0 1.0 0.0 
0.0 1.0 0.0 
0.0 1.0 0.0 
0.0 1.0 0.0 
0.0 1.0 0.0 
0.0 1.0 0.0 
0.0 1.0 0.0 
0.0 1.0 0.0 
0.0 1.0 0.0 
0.0 1.0 0.0 
0.0 1.0 0.0 
0.0 1.0 0.0 
0.0 1.0 0.0 
0.0 1.0 0.0 
0.0 1.0 0.0 
0.0 1.0 0.0 
0.0 1.0 0.0 
0.0 1.0 0.0 
0.0 1.0 0.0 
0.0 1.0 0.0 
0.0 1.0 0.0 
0.0 1.0 0.0 
0.0 1.0 0.0 
0.0 1.0 0.0 
0.0 1.0 0.0 
0.0 1.0 0.0 
0.0 1.0 0.0 
0.0 1.0 0.0 
0.0 1.0 0.0 
0.0 1.0 0.0 
0.0 1.0 0.0 
0.0 1.0 0.0 
0.0 1.0 0.0 
0.0 1.0 0.0 
0.0 1.0 0.0 
0.0 1.0 0.0 
0.0 1.0 0.0 
0.0 1.0 0.0 
0.0 1.0 0.0 
0.0 1.0 0.0 
0.0 1.0 0.0 
0.0 1.0 0.0 
0.0 1.0 0.0 
0.0 1.0 0.0 
0.0 0.0 1.0 
0.0 0.0 1.0 
0.0 0.0 1.0 
0.0 0.0 1.0 
0.0 0.0 1.0 
0.0 0.0 1.0 
0.0 0.0 1.0 
0.0 0.0 1.0 
0.0 0.0 1.0 
0.0 0.0 1.0 
0.0 0.0 1.0 
0.0 0.0 1.0 
0.0 0.0 1.0 
0.0 0.0 1.0 
0.0 0.0 1.0 
0.0 0.0 1.0 
0.0 0.0 1.0 
0.0 0.0 1.0 
0.0 0.0 1.0 
0.0 0.0 1.0 
0.0 0.0 1.0 
0.0 0.0 1.0 
0.0 0.0 1.0 
0.0 0.0 1.0 
0.0 0.0 1.0 
0.0 0.0 1.0 
0.0 0.0 1.0 
0.0 0.0 1.0 
0.0 0.0 1.0 
0.0 0.0 1.0 
0.0 0.0 1.0 
0.0 0.0 1.0 
0.0 0.0 1.0 
0.0 0.0 1.0 
0.0 0.0 1.0 
0.0 0.0 1.0 
0.0 0.0 1.0 
0.0 0.0 1.0 
0.0 0.0 1.0 
0.0 0.0 1.0 
0.0 0.0 1.0 
0.0 0.0 1.0 
0.0 0.0 1.0 
0.0 0.0 1.0 
0.0 0.0 1.0 
0.0 0.0 1.0 
0.0 0.0 1.0 
0.0 0.0 1.0 
0.0 0.0 1.0 
0.0 0.0 1.0 
Learning : 0.5
Momentum : 0.9
Epoch: 100, Error: 0.012632662685216246
Epoch: 200, Error: 0.012120200127860276
Epoch: 300, Error: 0.01207469121503409
Epoch: 400, Error: 0.012069166935231393
Epoch: 500, Error: 0.014385221789680122
Epoch: 600, Error: 0.016134706314065037
Epoch: 700, Error: 0.012572993197917137
Epoch: 800, Error: 0.01254202690404696
Epoch: 900, Error: 0.011941444222526161
Epoch: 1000, Error: 0.012704796863380625
Epoch: 1100, Error: 0.012043677099295448
Epoch: 1200, Error: 0.012109286807267479
Epoch: 1300, Error: 0.012536360490754715
Epoch: 1400, Error: 0.011912034864281797
Epoch: 1500, Error: 0.011982207178153088
Epoch: 1600, Error: 0.012046129761214285
Epoch: 1700, Error: 0.0119508576454465
Epoch: 1800, Error: 0.012000998493407918
Epoch: 1900, Error: 0.01214806428028004
Epoch: 2000, Error: 0.011688489780198378
Epoch: 2100, Error: 0.011692265972433849
Epoch: 2200, Error: 0.011600838562991543
Epoch: 2300, Error: 0.011617587164874469
Epoch: 2400, Error: 0.011526108062477529
Epoch: 2500, Error: 0.01147260008065196
Epoch: 2600, Error: 0.011623903752336635
Epoch: 2700, Error: 0.012028857284369487
Epoch: 2800, Error: 0.010547173298900774
Epoch: 2900, Error: 0.009517505483759165
Epoch: 3000, Error: 0.008771654700573738
Epoch: 3100, Error: 0.007966966307753369
Epoch: 3200, Error: 0.007960061845647659
Epoch: 3300, Error: 0.007481618545490691
Epoch: 3400, Error: 0.00693030142261301
Epoch: 3500, Error: 0.006892179248925124
Epoch: 3600, Error: 0.006879095405223293
Epoch: 3700, Error: 0.006062218940897853
Epoch: 3800, Error: 0.005945985527826405
Epoch: 3900, Error: 0.005656443342446337
Epoch: 4000, Error: 0.005556263111552011
Epoch: 4100, Error: 0.005489352411469768
Epoch: 4200, Error: 0.005436483129188442
Epoch: 4300, Error: 0.0053507682098935016
Epoch: 4400, Error: 0.005342534684909897
Epoch: 4500, Error: 0.005313530790489457
Epoch: 4600, Error: 0.005324660466472986
Epoch: 4700, Error: 0.0052430591402575655
Epoch: 4800, Error: 0.005212598301230527
Epoch: 4900, Error: 0.005248581981829959
Epoch: 5000, Error: 0.005217731440214121
Epoch: 5100, Error: 0.005195544535803656
Epoch: 5200, Error: 0.005197801901682516
Epoch: 5300, Error: 0.005199778445304841
Epoch: 5400, Error: 0.005176900843419304
Epoch: 5500, Error: 0.005184515596405056
Epoch: 5600, Error: 0.005179202781597209
Epoch: 5700, Error: 0.005166575132315978
Epoch: 5800, Error: 0.005170368650427386
Epoch: 5900, Error: 0.0051673627865882485
Epoch: 6000, Error: 0.005135143796165313
Epoch: 6100, Error: 0.005139785027624077
Epoch: 6200, Error: 0.0050925902631853434
Epoch: 6300, Error: 0.005112632546047523
Epoch: 6400, Error: 0.005106748876355764
Epoch: 6500, Error: 0.005062607286010246
Epoch: 6600, Error: 0.0050804357467837446
Epoch: 6700, Error: 0.005026825635735007
Epoch: 6800, Error: 0.005018342500719903
Epoch: 6900, Error: 0.004999459598940701
Epoch: 7000, Error: 0.0050016235942575964
Epoch: 7100, Error: 0.004997380956202228
Epoch: 7200, Error: 0.004977531589631795
Epoch: 7300, Error: 0.004976341595651457
Epoch: 7400, Error: 0.004960578995876596
Epoch: 7500, Error: 0.004967348577519078
Epoch: 7600, Error: 0.005000651192679895
Epoch: 7700, Error: 0.004930429889427479
Epoch: 7800, Error: 0.005038690136228763
Epoch: 7900, Error: 0.004955456356751208
Epoch: 8000, Error: 0.004875597893364495
Epoch: 8100, Error: 0.005065211204354474
Epoch: 8200, Error: 0.0049513762825307605
Epoch: 8300, Error: 0.004927886560634862
Epoch: 8400, Error: 0.004870604819472893
Epoch: 8500, Error: 0.004845005047261317
Epoch: 8600, Error: 0.004908410150858531
Epoch: 8700, Error: 0.004801670502409787
Epoch: 8800, Error: 0.004637968730849976
Epoch: 8900, Error: 0.004611419172305003
Epoch: 9000, Error: 0.004731282063603638
Epoch: 9100, Error: 0.004401459368322382
Epoch: 9200, Error: 0.004258048889546999
Epoch: 9300, Error: 0.004247627304316463
Epoch: 9400, Error: 0.004118546124718355
Epoch: 9500, Error: 0.0037971192043297643
Epoch: 9600, Error: 0.0037547711779259184
Epoch: 9700, Error: 0.003950476716808325
Epoch: 9800, Error: 0.0038366328435385684
Epoch: 9900, Error: 0.003928390127874907
Epoch: 10000, Error: 0.0037813964720456957
Epoch: 10100, Error: 0.003619660857543252
Epoch: 10200, Error: 0.003578304601752714
Epoch: 10300, Error: 0.0029256115375344547
Epoch: 10400, Error: 0.0036122313868584273
Epoch: 10500, Error: 0.0034810557844453358
Epoch: 10600, Error: 0.003191093581413924
Epoch: 10700, Error: 0.0030790727700326535
Epoch: 10800, Error: 0.0027439166965703005
Epoch: 10900, Error: 0.002220792557237831
Epoch: 11000, Error: 0.0029951620064856237
Epoch: 11100, Error: 0.0021699342748928005
Epoch: 11200, Error: 0.004999110222259455
Epoch: 11300, Error: 0.0026214575222555892
Epoch: 11400, Error: 0.0015541273298372168
Epoch: 11500, Error: 0.002957313318830949
Epoch: 11600, Error: 0.002338948823160259
Epoch: 11700, Error: 0.002144853067102018
Epoch: 11800, Error: 0.001331037646852535
Epoch: 11900, Error: 0.004062353134847362
Epoch: 12000, Error: 0.0023256763380542383
Epoch: 12100, Error: 0.0013750378812444873
Epoch: 12200, Error: 0.0013290033112297501
Epoch: 12300, Error: 0.0010737060990716
Epoch: 12400, Error: 0.0018426513024038397
Epoch: 12500, Error: 0.0011019515119079918
Epoch: 12600, Error: 0.0010690701392299241
Epoch: 12700, Error: 9.454157853803783E-4
Epoch: 12800, Error: 0.0010383123014244128
Epoch: 12900, Error: 0.0010032160675651036
Epoch: 13000, Error: 9.766691038383382E-4
Epoch: 13100, Error: 9.172278175379569E-4
Epoch: 13200, Error: 9.399839376142023E-4
Epoch: 13300, Error: 9.322658403070548E-4
Epoch: 13400, Error: 9.297936722071678E-4
Epoch: 13500, Error: 8.161712346516129E-4
Epoch: 13600, Error: 8.720214682057547E-4
Epoch: 13700, Error: 8.038483369491433E-4
Epoch: 13800, Error: 7.813259873077898E-4
Epoch: 13900, Error: 8.074682663312383E-4
Epoch: 14000, Error: 7.985363935204827E-4
Epoch: 14100, Error: 7.937679413317704E-4
Epoch: 14200, Error: 8.014269831038842E-4
Epoch: 14300, Error: 8.040046119355145E-4
Epoch: 14400, Error: 7.730253539181412E-4
Epoch: 14500, Error: 7.797985341436943E-4
Epoch: 14600, Error: 7.622842426169256E-4
Epoch: 14700, Error: 7.242803538527965E-4
Epoch: 14800, Error: 7.928779065898318E-4
Epoch: 14900, Error: 7.433022615680784E-4
Epoch: 15000, Error: 7.459478276262652E-4
Epoch: 15100, Error: 7.697263608007924E-4
Epoch: 15200, Error: 7.543346642323837E-4
Epoch: 15300, Error: 7.718698450708454E-4
Epoch: 15400, Error: 7.457775215940595E-4
Epoch: 15500, Error: 7.628654909128353E-4
Epoch: 15600, Error: 7.520259484204494E-4
Epoch: 15700, Error: 7.364107072277274E-4
Epoch: 15800, Error: 7.248876390046925E-4
Epoch: 15900, Error: 7.173130224283586E-4
Epoch: 16000, Error: 7.631658404213502E-4
Epoch: 16100, Error: 7.269693533665543E-4
Epoch: 16200, Error: 7.257256102612426E-4
Epoch: 16300, Error: 7.564849152127321E-4
Epoch: 16400, Error: 7.353972412719071E-4
Epoch: 16500, Error: 7.239799600053242E-4
Epoch: 16600, Error: 7.181397759619935E-4
Epoch: 16700, Error: 7.189078458353436E-4
Epoch: 16800, Error: 7.456023785603187E-4
Epoch: 16900, Error: 7.256750317970938E-4
Epoch: 17000, Error: 7.120985997051636E-4
Epoch: 17100, Error: 7.192543788365652E-4
Epoch: 17200, Error: 7.143935213839603E-4
Epoch: 17300, Error: 7.382067547804E-4
Epoch: 17400, Error: 7.52813506308018E-4
Epoch: 17500, Error: 7.179652186420464E-4
Epoch: 17600, Error: 7.442623958172993E-4
Epoch: 17700, Error: 7.05757873483809E-4
Epoch: 17800, Error: 7.24112071414102E-4
Epoch: 17900, Error: 7.275628756510081E-4
Epoch: 18000, Error: 6.953228561443762E-4
Epoch: 18100, Error: 6.935578905466397E-4
Epoch: 18200, Error: 6.961877838065592E-4
Epoch: 18300, Error: 6.979331221556523E-4
Epoch: 18400, Error: 6.862079726419442E-4
Epoch: 18500, Error: 6.881769925147289E-4
Epoch: 18600, Error: 6.823666813996227E-4
Epoch: 18700, Error: 6.698288981850175E-4
Epoch: 18800, Error: 6.716991643456703E-4
Epoch: 18900, Error: 6.874636082138708E-4
Epoch: 19000, Error: 6.513637876058189E-4
Epoch: 19100, Error: 6.390083808893176E-4
Epoch: 19200, Error: 6.380252414516176E-4
Epoch: 19300, Error: 6.271524955274101E-4
Epoch: 19400, Error: 6.125617572061527E-4
Finished
