Input Patterns
0.224 0.624 0.067 0.043 
0.11 0.502 0.051 0.043 
0.196 0.667 0.067 0.043 
0.055 0.584 0.067 0.082 
0.027 0.376 0.067 0.043 
0.306 0.71 0.086 0.043 
0.137 0.416 0.067 0.0 
0.416 0.831 0.035 0.043 
0.306 0.792 0.051 0.125 
0.388 0.749 0.118 0.082 
0.306 0.584 0.118 0.043 
0.082 0.667 0.0 0.043 
0.137 0.584 0.153 0.043 
0.196 0.584 0.102 0.125 
0.251 0.584 0.067 0.043 
0.137 0.459 0.102 0.043 
0.251 0.875 0.086 0.0 
0.165 0.459 0.086 0.043 
0.333 0.624 0.051 0.043 
0.027 0.416 0.051 0.043 
0.196 0.624 0.051 0.082 
0.027 0.502 0.051 0.043 
0.224 0.749 0.153 0.125 
0.224 0.749 0.102 0.043 
0.278 0.71 0.086 0.043 
0.165 0.416 0.067 0.043 
0.082 0.459 0.086 0.043 
0.306 0.792 0.118 0.125 
0.196 0.584 0.086 0.043 
0.165 0.459 0.086 0.0 
0.137 0.584 0.102 0.043 
0.0 0.416 0.016 0.0 
0.388 1.0 0.086 0.125 
0.224 0.624 0.067 0.082 
0.224 0.749 0.086 0.082 
0.224 0.71 0.086 0.125 
0.224 0.541 0.118 0.165 
0.196 0.416 0.102 0.043 
0.251 0.624 0.086 0.043 
0.11 0.502 0.102 0.043 
0.306 0.584 0.086 0.125 
0.333 0.918 0.067 0.043 
0.196 0.502 0.035 0.043 
0.165 0.667 0.067 0.0 
0.224 0.584 0.086 0.043 
0.055 0.125 0.051 0.082 
0.196 0.624 0.102 0.208 
0.137 0.416 0.067 0.082 
0.082 0.502 0.067 0.043 
0.196 0.541 0.067 0.043 
0.749 0.502 0.627 0.541 
0.722 0.459 0.663 0.584 
0.612 0.333 0.612 0.584 
0.557 0.541 0.627 0.624 
0.639 0.376 0.612 0.498 
0.196 0.0 0.424 0.376 
0.471 0.082 0.51 0.376 
0.361 0.376 0.439 0.498 
0.361 0.416 0.592 0.584 
0.529 0.082 0.592 0.584 
0.443 0.502 0.643 0.459 
0.557 0.208 0.663 0.584 
0.584 0.376 0.561 0.498 
0.694 0.333 0.643 0.541 
0.471 0.376 0.592 0.584 
0.333 0.169 0.475 0.416 
0.416 0.29 0.49 0.459 
0.306 0.416 0.592 0.584 
0.667 0.459 0.627 0.584 
0.361 0.416 0.525 0.498 
0.333 0.251 0.576 0.459 
0.416 0.251 0.51 0.459 
0.361 0.29 0.541 0.498 
0.388 0.376 0.541 0.498 
0.224 0.208 0.337 0.416 
0.584 0.502 0.592 0.584 
0.333 0.125 0.51 0.498 
0.388 0.333 0.592 0.498 
0.165 0.169 0.388 0.376 
0.251 0.29 0.49 0.541 
0.443 0.416 0.541 0.584 
0.498 0.376 0.627 0.541 
0.667 0.459 0.576 0.541 
0.416 0.29 0.525 0.376 
0.361 0.208 0.49 0.416 
0.498 0.333 0.51 0.498 
0.498 0.333 0.627 0.459 
0.639 0.416 0.576 0.541 
0.667 0.416 0.678 0.667 
0.388 0.251 0.424 0.376 
0.333 0.169 0.459 0.376 
0.471 0.29 0.694 0.624 
0.471 0.584 0.592 0.624 
0.557 0.125 0.576 0.498 
0.333 0.208 0.51 0.498 
0.498 0.416 0.612 0.541 
0.196 0.125 0.388 0.376 
0.388 0.416 0.541 0.459 
0.529 0.376 0.561 0.498 
0.388 0.333 0.525 0.498 
0.557 0.541 0.847 1.0 
0.776 0.416 0.831 0.831 
0.612 0.416 0.812 0.875 
0.165 0.208 0.592 0.667 
0.667 0.208 0.812 0.71 
0.612 0.502 0.694 0.792 
0.694 0.416 0.761 0.831 
0.416 0.333 0.694 0.957 
0.612 0.416 0.761 0.71 
0.945 0.251 1.0 0.918 
0.722 0.502 0.796 0.918 
0.945 0.333 0.965 0.792 
0.667 0.541 0.796 0.831 
0.529 0.333 0.643 0.71 
0.584 0.333 0.78 0.831 
0.863 0.333 0.863 0.749 
0.584 0.333 0.78 0.875 
0.498 0.251 0.78 0.541 
0.557 0.584 0.78 0.957 
0.471 0.416 0.643 0.71 
0.667 0.459 0.78 0.957 
0.416 0.29 0.694 0.749 
0.667 0.541 0.796 1.0 
0.557 0.208 0.678 0.749 
0.529 0.584 0.745 0.918 
0.416 0.29 0.694 0.749 
0.557 0.376 0.78 0.71 
0.918 0.416 0.949 0.831 
0.835 0.376 0.898 0.71 
0.804 0.667 0.863 1.0 
0.584 0.29 0.729 0.749 
0.388 0.208 0.678 0.792 
0.584 0.502 0.729 0.918 
0.945 0.749 0.965 0.875 
0.471 0.082 0.678 0.584 
0.361 0.333 0.663 0.792 
0.557 0.29 0.663 0.71 
0.804 0.502 0.847 0.71 
0.498 0.416 0.51 0.71 
0.804 0.416 0.812 0.624 
1.0 0.749 0.914 0.792 
0.557 0.333 0.694 0.584 
0.945 0.416 0.863 0.918 
0.584 0.459 0.761 0.71 
0.722 0.459 0.745 0.831 
0.722 0.459 0.694 0.918 
0.694 0.502 0.831 0.918 
0.667 0.416 0.714 0.918 
0.612 0.416 0.714 0.792 
0.443 0.416 0.694 0.71 
Teaching Patterns
1.0 0.0 0.0 
1.0 0.0 0.0 
1.0 0.0 0.0 
1.0 0.0 0.0 
1.0 0.0 0.0 
1.0 0.0 0.0 
1.0 0.0 0.0 
1.0 0.0 0.0 
1.0 0.0 0.0 
1.0 0.0 0.0 
1.0 0.0 0.0 
1.0 0.0 0.0 
1.0 0.0 0.0 
1.0 0.0 0.0 
1.0 0.0 0.0 
1.0 0.0 0.0 
1.0 0.0 0.0 
1.0 0.0 0.0 
1.0 0.0 0.0 
1.0 0.0 0.0 
1.0 0.0 0.0 
1.0 0.0 0.0 
1.0 0.0 0.0 
1.0 0.0 0.0 
1.0 0.0 0.0 
1.0 0.0 0.0 
1.0 0.0 0.0 
1.0 0.0 0.0 
1.0 0.0 0.0 
1.0 0.0 0.0 
1.0 0.0 0.0 
1.0 0.0 0.0 
1.0 0.0 0.0 
1.0 0.0 0.0 
1.0 0.0 0.0 
1.0 0.0 0.0 
1.0 0.0 0.0 
1.0 0.0 0.0 
1.0 0.0 0.0 
1.0 0.0 0.0 
1.0 0.0 0.0 
1.0 0.0 0.0 
1.0 0.0 0.0 
1.0 0.0 0.0 
1.0 0.0 0.0 
1.0 0.0 0.0 
1.0 0.0 0.0 
1.0 0.0 0.0 
1.0 0.0 0.0 
1.0 0.0 0.0 
0.0 1.0 0.0 
0.0 1.0 0.0 
0.0 1.0 0.0 
0.0 1.0 0.0 
0.0 1.0 0.0 
0.0 1.0 0.0 
0.0 1.0 0.0 
0.0 1.0 0.0 
0.0 1.0 0.0 
0.0 1.0 0.0 
0.0 1.0 0.0 
0.0 1.0 0.0 
0.0 1.0 0.0 
0.0 1.0 0.0 
0.0 1.0 0.0 
0.0 1.0 0.0 
0.0 1.0 0.0 
0.0 1.0 0.0 
0.0 1.0 0.0 
0.0 1.0 0.0 
0.0 1.0 0.0 
0.0 1.0 0.0 
0.0 1.0 0.0 
0.0 1.0 0.0 
0.0 1.0 0.0 
0.0 1.0 0.0 
0.0 1.0 0.0 
0.0 1.0 0.0 
0.0 1.0 0.0 
0.0 1.0 0.0 
0.0 1.0 0.0 
0.0 1.0 0.0 
0.0 1.0 0.0 
0.0 1.0 0.0 
0.0 1.0 0.0 
0.0 1.0 0.0 
0.0 1.0 0.0 
0.0 1.0 0.0 
0.0 1.0 0.0 
0.0 1.0 0.0 
0.0 1.0 0.0 
0.0 1.0 0.0 
0.0 1.0 0.0 
0.0 1.0 0.0 
0.0 1.0 0.0 
0.0 1.0 0.0 
0.0 1.0 0.0 
0.0 1.0 0.0 
0.0 1.0 0.0 
0.0 1.0 0.0 
0.0 0.0 1.0 
0.0 0.0 1.0 
0.0 0.0 1.0 
0.0 0.0 1.0 
0.0 0.0 1.0 
0.0 0.0 1.0 
0.0 0.0 1.0 
0.0 0.0 1.0 
0.0 0.0 1.0 
0.0 0.0 1.0 
0.0 0.0 1.0 
0.0 0.0 1.0 
0.0 0.0 1.0 
0.0 0.0 1.0 
0.0 0.0 1.0 
0.0 0.0 1.0 
0.0 0.0 1.0 
0.0 0.0 1.0 
0.0 0.0 1.0 
0.0 0.0 1.0 
0.0 0.0 1.0 
0.0 0.0 1.0 
0.0 0.0 1.0 
0.0 0.0 1.0 
0.0 0.0 1.0 
0.0 0.0 1.0 
0.0 0.0 1.0 
0.0 0.0 1.0 
0.0 0.0 1.0 
0.0 0.0 1.0 
0.0 0.0 1.0 
0.0 0.0 1.0 
0.0 0.0 1.0 
0.0 0.0 1.0 
0.0 0.0 1.0 
0.0 0.0 1.0 
0.0 0.0 1.0 
0.0 0.0 1.0 
0.0 0.0 1.0 
0.0 0.0 1.0 
0.0 0.0 1.0 
0.0 0.0 1.0 
0.0 0.0 1.0 
0.0 0.0 1.0 
0.0 0.0 1.0 
0.0 0.0 1.0 
0.0 0.0 1.0 
0.0 0.0 1.0 
0.0 0.0 1.0 
0.0 0.0 1.0 
Learning : 0.5
Momentum : 0.9
Epoch: 100, Error: 0.013179172220751736
Epoch: 200, Error: 0.01280303711321055
Epoch: 300, Error: 0.01295350099071804
Epoch: 400, Error: 0.012200330611382423
Epoch: 500, Error: 0.012828788676493496
Epoch: 600, Error: 0.01231578027701191
Epoch: 700, Error: 0.013627885742210438
Epoch: 800, Error: 0.012441117251628888
Epoch: 900, Error: 0.012555973550371202
Epoch: 1000, Error: 0.01669727020338424
Epoch: 1100, Error: 0.01315169045951337
Epoch: 1200, Error: 0.012956975574827202
Epoch: 1300, Error: 0.013277832749908063
Epoch: 1400, Error: 0.013128543837109891
Epoch: 1500, Error: 0.012333676392903222
Epoch: 1600, Error: 0.01240099931013232
Epoch: 1700, Error: 0.01237685395747634
Epoch: 1800, Error: 0.012770067924825214
Epoch: 1900, Error: 0.013079519976675346
Epoch: 2000, Error: 0.013248925592481763
Epoch: 2100, Error: 0.013069158467492651
Epoch: 2200, Error: 0.012677787819726196
Epoch: 2300, Error: 0.012756136016331689
Epoch: 2400, Error: 0.013418292551781202
Epoch: 2500, Error: 0.012523574053022873
Epoch: 2600, Error: 0.012490755768065945
Epoch: 2700, Error: 0.012333052318332673
Epoch: 2800, Error: 0.012480865631379328
Epoch: 2900, Error: 0.012316638383853024
Epoch: 3000, Error: 0.012446320407681084
Epoch: 3100, Error: 0.01252494467547271
Epoch: 3200, Error: 0.013153517641138772
Epoch: 3300, Error: 0.01291454996239004
Epoch: 3400, Error: 0.01290160238851704
Epoch: 3500, Error: 0.01242070869403664
Epoch: 3600, Error: 0.012314146202595189
Epoch: 3700, Error: 0.012349778606745476
Epoch: 3800, Error: 0.012344504550833867
Epoch: 3900, Error: 0.012614233826964062
Epoch: 4000, Error: 0.0124620987357798
Epoch: 4100, Error: 0.012319106950777441
Epoch: 4200, Error: 0.012346725152853793
Epoch: 4300, Error: 0.012298962599972837
Epoch: 4400, Error: 0.012462664107973693
Epoch: 4500, Error: 0.012491539236887776
Epoch: 4600, Error: 0.012227696097103016
Epoch: 4700, Error: 0.012056089020986044
Epoch: 4800, Error: 0.012428461162015896
Epoch: 4900, Error: 0.012066714395452025
Epoch: 5000, Error: 0.011993493181241313
Epoch: 5100, Error: 0.012317587713532545
Epoch: 5200, Error: 0.011865354795620932
Epoch: 5300, Error: 0.01173155985540906
Epoch: 5400, Error: 0.011678464164428644
Epoch: 5500, Error: 0.012396462373387238
Epoch: 5600, Error: 0.011534360651620827
Epoch: 5700, Error: 0.012120909810190976
Epoch: 5800, Error: 0.01152475399264789
Epoch: 5900, Error: 0.011308682094818253
Epoch: 6000, Error: 0.011269498079259756
Epoch: 6100, Error: 0.01116365807454014
Epoch: 6200, Error: 0.011213399834426211
Epoch: 6300, Error: 0.011087420438169822
Epoch: 6400, Error: 0.010983496831069847
Epoch: 6500, Error: 0.011130974698825808
Epoch: 6600, Error: 0.010953239492151393
Epoch: 6700, Error: 0.01079743668378304
Epoch: 6800, Error: 0.01129528855286709
Epoch: 6900, Error: 0.010733679588855398
Epoch: 7000, Error: 0.010822718237662
Epoch: 7100, Error: 0.01053619792215893
Epoch: 7200, Error: 0.010531487035043788
Epoch: 7300, Error: 0.010429950376767024
Epoch: 7400, Error: 0.010590345472546156
Epoch: 7500, Error: 0.010432004237890391
Epoch: 7600, Error: 0.010328775821244173
Epoch: 7700, Error: 0.010277178386330152
Epoch: 7800, Error: 0.010275707409498045
Epoch: 7900, Error: 0.01017471893187505
Epoch: 8000, Error: 0.010291667605049947
Epoch: 8100, Error: 0.010123781039598472
Epoch: 8200, Error: 0.010242738962576112
Epoch: 8300, Error: 0.010076907531116244
Epoch: 8400, Error: 0.010155427136745138
Epoch: 8500, Error: 0.010185440352857513
Epoch: 8600, Error: 0.010095316664602665
Epoch: 8700, Error: 0.010109938050907754
Epoch: 8800, Error: 0.010019651754099607
Epoch: 8900, Error: 0.010027756711308029
Epoch: 9000, Error: 0.010023568369382282
Epoch: 9100, Error: 0.010006384875651522
Epoch: 9200, Error: 0.009980606859965508
Epoch: 9300, Error: 0.009972187468975536
Epoch: 9400, Error: 0.009987706493618704
Epoch: 9500, Error: 0.009997737661832451
Epoch: 9600, Error: 0.00994852461506842
Epoch: 9700, Error: 0.009970332586056164
Epoch: 9800, Error: 0.00996978751778759
Epoch: 9900, Error: 0.00994772255565735
Epoch: 10000, Error: 0.009932463678840778
Epoch: 10100, Error: 0.009942767064753805
Epoch: 10200, Error: 0.009930673945533427
Epoch: 10300, Error: 0.009919385604579323
Epoch: 10400, Error: 0.009903293431615274
Epoch: 10500, Error: 0.009914796886155179
Epoch: 10600, Error: 0.009918297886198416
Epoch: 10700, Error: 0.009894224063376882
Epoch: 10800, Error: 0.009940188015538793
Epoch: 10900, Error: 0.009919103212585921
Epoch: 11000, Error: 0.009899550166068513
Epoch: 11100, Error: 0.00989999750256649
Epoch: 11200, Error: 0.00987844774755014
Epoch: 11300, Error: 0.009896392433341799
Epoch: 11400, Error: 0.009858057395897122
Epoch: 11500, Error: 0.009876039534392379
Epoch: 11600, Error: 0.009880704708793986
Epoch: 11700, Error: 0.009884237103306583
Epoch: 11800, Error: 0.009856375636299892
Finished
