Input Patterns
0.224 0.624 0.067 0.043 
0.11 0.502 0.051 0.043 
0.196 0.667 0.067 0.043 
0.055 0.584 0.067 0.082 
0.027 0.376 0.067 0.043 
0.306 0.71 0.086 0.043 
0.137 0.416 0.067 0.0 
0.416 0.831 0.035 0.043 
0.306 0.792 0.051 0.125 
0.388 0.749 0.118 0.082 
0.306 0.584 0.118 0.043 
0.082 0.667 0.0 0.043 
0.137 0.584 0.153 0.043 
0.196 0.584 0.102 0.125 
0.251 0.584 0.067 0.043 
0.137 0.459 0.102 0.043 
0.251 0.875 0.086 0.0 
0.165 0.459 0.086 0.043 
0.333 0.624 0.051 0.043 
0.027 0.416 0.051 0.043 
0.196 0.624 0.051 0.082 
0.027 0.502 0.051 0.043 
0.224 0.749 0.153 0.125 
0.224 0.749 0.102 0.043 
0.278 0.71 0.086 0.043 
0.165 0.416 0.067 0.043 
0.082 0.459 0.086 0.043 
0.306 0.792 0.118 0.125 
0.196 0.584 0.086 0.043 
0.165 0.459 0.086 0.0 
0.137 0.584 0.102 0.043 
0.0 0.416 0.016 0.0 
0.388 1.0 0.086 0.125 
0.224 0.624 0.067 0.082 
0.224 0.749 0.086 0.082 
0.224 0.71 0.086 0.125 
0.224 0.541 0.118 0.165 
0.196 0.416 0.102 0.043 
0.251 0.624 0.086 0.043 
0.11 0.502 0.102 0.043 
0.306 0.584 0.086 0.125 
0.333 0.918 0.067 0.043 
0.196 0.502 0.035 0.043 
0.165 0.667 0.067 0.0 
0.224 0.584 0.086 0.043 
0.055 0.125 0.051 0.082 
0.196 0.624 0.102 0.208 
0.137 0.416 0.067 0.082 
0.082 0.502 0.067 0.043 
0.196 0.541 0.067 0.043 
0.749 0.502 0.627 0.541 
0.722 0.459 0.663 0.584 
0.612 0.333 0.612 0.584 
0.557 0.541 0.627 0.624 
0.639 0.376 0.612 0.498 
0.196 0.0 0.424 0.376 
0.471 0.082 0.51 0.376 
0.361 0.376 0.439 0.498 
0.361 0.416 0.592 0.584 
0.529 0.082 0.592 0.584 
0.443 0.502 0.643 0.459 
0.557 0.208 0.663 0.584 
0.584 0.376 0.561 0.498 
0.694 0.333 0.643 0.541 
0.471 0.376 0.592 0.584 
0.333 0.169 0.475 0.416 
0.416 0.29 0.49 0.459 
0.306 0.416 0.592 0.584 
0.667 0.459 0.627 0.584 
0.361 0.416 0.525 0.498 
0.333 0.251 0.576 0.459 
0.416 0.251 0.51 0.459 
0.361 0.29 0.541 0.498 
0.388 0.376 0.541 0.498 
0.224 0.208 0.337 0.416 
0.584 0.502 0.592 0.584 
0.333 0.125 0.51 0.498 
0.388 0.333 0.592 0.498 
0.165 0.169 0.388 0.376 
0.251 0.29 0.49 0.541 
0.443 0.416 0.541 0.584 
0.498 0.376 0.627 0.541 
0.667 0.459 0.576 0.541 
0.416 0.29 0.525 0.376 
0.361 0.208 0.49 0.416 
0.498 0.333 0.51 0.498 
0.498 0.333 0.627 0.459 
0.639 0.416 0.576 0.541 
0.667 0.416 0.678 0.667 
0.388 0.251 0.424 0.376 
0.333 0.169 0.459 0.376 
0.471 0.29 0.694 0.624 
0.471 0.584 0.592 0.624 
0.557 0.125 0.576 0.498 
0.333 0.208 0.51 0.498 
0.498 0.416 0.612 0.541 
0.196 0.125 0.388 0.376 
0.388 0.416 0.541 0.459 
0.529 0.376 0.561 0.498 
0.388 0.333 0.525 0.498 
0.557 0.541 0.847 1.0 
0.776 0.416 0.831 0.831 
0.612 0.416 0.812 0.875 
0.165 0.208 0.592 0.667 
0.667 0.208 0.812 0.71 
0.612 0.502 0.694 0.792 
0.694 0.416 0.761 0.831 
0.416 0.333 0.694 0.957 
0.612 0.416 0.761 0.71 
0.945 0.251 1.0 0.918 
0.722 0.502 0.796 0.918 
0.945 0.333 0.965 0.792 
0.667 0.541 0.796 0.831 
0.529 0.333 0.643 0.71 
0.584 0.333 0.78 0.831 
0.863 0.333 0.863 0.749 
0.584 0.333 0.78 0.875 
0.498 0.251 0.78 0.541 
0.557 0.584 0.78 0.957 
0.471 0.416 0.643 0.71 
0.667 0.459 0.78 0.957 
0.416 0.29 0.694 0.749 
0.667 0.541 0.796 1.0 
0.557 0.208 0.678 0.749 
0.529 0.584 0.745 0.918 
0.416 0.29 0.694 0.749 
0.557 0.376 0.78 0.71 
0.918 0.416 0.949 0.831 
0.835 0.376 0.898 0.71 
0.804 0.667 0.863 1.0 
0.584 0.29 0.729 0.749 
0.388 0.208 0.678 0.792 
0.584 0.502 0.729 0.918 
0.945 0.749 0.965 0.875 
0.471 0.082 0.678 0.584 
0.361 0.333 0.663 0.792 
0.557 0.29 0.663 0.71 
0.804 0.502 0.847 0.71 
0.498 0.416 0.51 0.71 
0.804 0.416 0.812 0.624 
1.0 0.749 0.914 0.792 
0.557 0.333 0.694 0.584 
0.945 0.416 0.863 0.918 
0.584 0.459 0.761 0.71 
0.722 0.459 0.745 0.831 
0.722 0.459 0.694 0.918 
0.694 0.502 0.831 0.918 
0.667 0.416 0.714 0.918 
0.612 0.416 0.714 0.792 
0.443 0.416 0.694 0.71 
Teaching Patterns
1.0 0.0 0.0 
1.0 0.0 0.0 
1.0 0.0 0.0 
1.0 0.0 0.0 
1.0 0.0 0.0 
1.0 0.0 0.0 
1.0 0.0 0.0 
1.0 0.0 0.0 
1.0 0.0 0.0 
1.0 0.0 0.0 
1.0 0.0 0.0 
1.0 0.0 0.0 
1.0 0.0 0.0 
1.0 0.0 0.0 
1.0 0.0 0.0 
1.0 0.0 0.0 
1.0 0.0 0.0 
1.0 0.0 0.0 
1.0 0.0 0.0 
1.0 0.0 0.0 
1.0 0.0 0.0 
1.0 0.0 0.0 
1.0 0.0 0.0 
1.0 0.0 0.0 
1.0 0.0 0.0 
1.0 0.0 0.0 
1.0 0.0 0.0 
1.0 0.0 0.0 
1.0 0.0 0.0 
1.0 0.0 0.0 
1.0 0.0 0.0 
1.0 0.0 0.0 
1.0 0.0 0.0 
1.0 0.0 0.0 
1.0 0.0 0.0 
1.0 0.0 0.0 
1.0 0.0 0.0 
1.0 0.0 0.0 
1.0 0.0 0.0 
1.0 0.0 0.0 
1.0 0.0 0.0 
1.0 0.0 0.0 
1.0 0.0 0.0 
1.0 0.0 0.0 
1.0 0.0 0.0 
1.0 0.0 0.0 
1.0 0.0 0.0 
1.0 0.0 0.0 
1.0 0.0 0.0 
1.0 0.0 0.0 
0.0 1.0 0.0 
0.0 1.0 0.0 
0.0 1.0 0.0 
0.0 1.0 0.0 
0.0 1.0 0.0 
0.0 1.0 0.0 
0.0 1.0 0.0 
0.0 1.0 0.0 
0.0 1.0 0.0 
0.0 1.0 0.0 
0.0 1.0 0.0 
0.0 1.0 0.0 
0.0 1.0 0.0 
0.0 1.0 0.0 
0.0 1.0 0.0 
0.0 1.0 0.0 
0.0 1.0 0.0 
0.0 1.0 0.0 
0.0 1.0 0.0 
0.0 1.0 0.0 
0.0 1.0 0.0 
0.0 1.0 0.0 
0.0 1.0 0.0 
0.0 1.0 0.0 
0.0 1.0 0.0 
0.0 1.0 0.0 
0.0 1.0 0.0 
0.0 1.0 0.0 
0.0 1.0 0.0 
0.0 1.0 0.0 
0.0 1.0 0.0 
0.0 1.0 0.0 
0.0 1.0 0.0 
0.0 1.0 0.0 
0.0 1.0 0.0 
0.0 1.0 0.0 
0.0 1.0 0.0 
0.0 1.0 0.0 
0.0 1.0 0.0 
0.0 1.0 0.0 
0.0 1.0 0.0 
0.0 1.0 0.0 
0.0 1.0 0.0 
0.0 1.0 0.0 
0.0 1.0 0.0 
0.0 1.0 0.0 
0.0 1.0 0.0 
0.0 1.0 0.0 
0.0 1.0 0.0 
0.0 1.0 0.0 
0.0 0.0 1.0 
0.0 0.0 1.0 
0.0 0.0 1.0 
0.0 0.0 1.0 
0.0 0.0 1.0 
0.0 0.0 1.0 
0.0 0.0 1.0 
0.0 0.0 1.0 
0.0 0.0 1.0 
0.0 0.0 1.0 
0.0 0.0 1.0 
0.0 0.0 1.0 
0.0 0.0 1.0 
0.0 0.0 1.0 
0.0 0.0 1.0 
0.0 0.0 1.0 
0.0 0.0 1.0 
0.0 0.0 1.0 
0.0 0.0 1.0 
0.0 0.0 1.0 
0.0 0.0 1.0 
0.0 0.0 1.0 
0.0 0.0 1.0 
0.0 0.0 1.0 
0.0 0.0 1.0 
0.0 0.0 1.0 
0.0 0.0 1.0 
0.0 0.0 1.0 
0.0 0.0 1.0 
0.0 0.0 1.0 
0.0 0.0 1.0 
0.0 0.0 1.0 
0.0 0.0 1.0 
0.0 0.0 1.0 
0.0 0.0 1.0 
0.0 0.0 1.0 
0.0 0.0 1.0 
0.0 0.0 1.0 
0.0 0.0 1.0 
0.0 0.0 1.0 
0.0 0.0 1.0 
0.0 0.0 1.0 
0.0 0.0 1.0 
0.0 0.0 1.0 
0.0 0.0 1.0 
0.0 0.0 1.0 
0.0 0.0 1.0 
0.0 0.0 1.0 
0.0 0.0 1.0 
0.0 0.0 1.0 
Learning : 0.05
Momentum : 0.800000011920929
Epoch: 100, Error: 0.027895455298365585
Epoch: 200, Error: 0.018268511239912154
Epoch: 300, Error: 0.016040399508984123
Epoch: 400, Error: 0.014941074155103417
Epoch: 500, Error: 0.014531328248053333
Epoch: 600, Error: 0.013903193484507139
Epoch: 700, Error: 0.013845036566221073
Epoch: 800, Error: 0.01328025131682986
Epoch: 900, Error: 0.013069398143754348
Epoch: 1000, Error: 0.01290596291451912
Epoch: 1100, Error: 0.012878384338063216
Epoch: 1200, Error: 0.012703089243118002
Epoch: 1300, Error: 0.012631763061469457
Epoch: 1400, Error: 0.012711892237920004
Epoch: 1500, Error: 0.012523432097491396
Epoch: 1600, Error: 0.012394059512275367
Epoch: 1700, Error: 0.0125485918170621
Epoch: 1800, Error: 0.012348558203724765
Epoch: 1900, Error: 0.012257698509188545
Epoch: 2000, Error: 0.012232247067615377
Epoch: 2100, Error: 0.0122166948213938
Epoch: 2200, Error: 0.012207586767511694
Epoch: 2300, Error: 0.012216204796147245
Epoch: 2400, Error: 0.012445438881995298
Epoch: 2500, Error: 0.012230256223652059
Epoch: 2600, Error: 0.01217058347799281
Epoch: 2700, Error: 0.012214403149431927
Epoch: 2800, Error: 0.012146862084949892
Epoch: 2900, Error: 0.01211850917894702
Epoch: 3000, Error: 0.012137075278621772
Epoch: 3100, Error: 0.01211642448205387
Epoch: 3200, Error: 0.012164703620761398
Epoch: 3300, Error: 0.012140970848161016
Epoch: 3400, Error: 0.012154105755171177
Epoch: 3500, Error: 0.012122635161078095
Epoch: 3600, Error: 0.012138181786392744
Epoch: 3700, Error: 0.012185967828075635
Epoch: 3800, Error: 0.01215338826305231
Epoch: 3900, Error: 0.012130063311223722
Epoch: 4000, Error: 0.01226314743257528
Epoch: 4100, Error: 0.012265293880987271
Epoch: 4200, Error: 0.012186568011684388
Epoch: 4300, Error: 0.012178428281128348
Epoch: 4400, Error: 0.012268629016810301
Epoch: 4500, Error: 0.012243056668050025
Epoch: 4600, Error: 0.012225942537672195
Epoch: 4700, Error: 0.012084232332019319
Epoch: 4800, Error: 0.01208971175834941
Epoch: 4900, Error: 0.012116313446720187
Epoch: 5000, Error: 0.012125181208568678
Epoch: 5100, Error: 0.012116697234059162
Epoch: 5200, Error: 0.012132825886463389
Epoch: 5300, Error: 0.012093610219605908
Epoch: 5400, Error: 0.012081702276960935
Epoch: 5500, Error: 0.012080719544265001
Epoch: 5600, Error: 0.012111044126676549
Epoch: 5700, Error: 0.012074443134945987
Epoch: 5800, Error: 0.012082621029577538
Epoch: 5900, Error: 0.01212530699365333
Epoch: 6000, Error: 0.012131419649441371
Epoch: 6100, Error: 0.0121128561353951
Epoch: 6200, Error: 0.012161249963828958
Epoch: 6300, Error: 0.012108099325797199
Epoch: 6400, Error: 0.012095206105442806
Epoch: 6500, Error: 0.01209546972451555
Epoch: 6600, Error: 0.01215722546113878
Epoch: 6700, Error: 0.012117803433047436
Epoch: 6800, Error: 0.012143148894670185
Epoch: 6900, Error: 0.012170424699179167
Epoch: 7000, Error: 0.012151760011252401
Epoch: 7100, Error: 0.012128445902220527
Epoch: 7200, Error: 0.012162316452320732
Epoch: 7300, Error: 0.012229727105091112
Epoch: 7400, Error: 0.012158634518707693
Epoch: 7500, Error: 0.012224915755798463
Epoch: 7600, Error: 0.012177136955127442
Epoch: 7700, Error: 0.012471355840197753
Epoch: 7800, Error: 0.012165305008448785
Epoch: 7900, Error: 0.012161131129982381
Epoch: 8000, Error: 0.0121116492644284
Epoch: 8100, Error: 0.01208402602177886
Epoch: 8200, Error: 0.012129789922723523
Epoch: 8300, Error: 0.012151226326290579
Epoch: 8400, Error: 0.012150930865677423
Epoch: 8500, Error: 0.012083767584536519
Epoch: 8600, Error: 0.012351829844694334
Epoch: 8700, Error: 0.0121448464074175
Epoch: 8800, Error: 0.012156852827707234
Epoch: 8900, Error: 0.012227772715493824
Epoch: 9000, Error: 0.012170172374681314
Epoch: 9100, Error: 0.012276073336621344
Epoch: 9200, Error: 0.012133430658314941
Epoch: 9300, Error: 0.012146304156932304
Epoch: 9400, Error: 0.01210771916474682
Epoch: 9500, Error: 0.01210760464832296
Epoch: 9600, Error: 0.012124646533965588
Epoch: 9700, Error: 0.012108892719753133
Epoch: 9800, Error: 0.01211104117814326
Epoch: 9900, Error: 0.012127712946177758
Epoch: 10000, Error: 0.01216023562283697
Epoch: 10100, Error: 0.012138835098582981
Epoch: 10200, Error: 0.012165552318008583
Epoch: 10300, Error: 0.012121221994970947
Epoch: 10400, Error: 0.012153619681994457
Epoch: 10500, Error: 0.01216660942335425
Epoch: 10600, Error: 0.012124862501295821
Epoch: 10700, Error: 0.01208341821825338
Epoch: 10800, Error: 0.01205282736827722
Epoch: 10900, Error: 0.012085691898112061
Epoch: 11000, Error: 0.01206955301219637
Epoch: 11100, Error: 0.01208570146501388
Epoch: 11200, Error: 0.01209818736141225
Epoch: 11300, Error: 0.012030902036064692
Epoch: 11400, Error: 0.012050449248638018
Epoch: 11500, Error: 0.01200524383564975
Epoch: 11600, Error: 0.012035862031409748
Epoch: 11700, Error: 0.012040593135743738
Epoch: 11800, Error: 0.012030515154900627
Epoch: 11900, Error: 0.012019096585134862
Epoch: 12000, Error: 0.012091720463203566
Epoch: 12100, Error: 0.0119839732412912
Epoch: 12200, Error: 0.011932431473559612
Epoch: 12300, Error: 0.011933382674214248
Epoch: 12400, Error: 0.011964970793153116
Epoch: 12500, Error: 0.011880681166204806
Epoch: 12600, Error: 0.011936314536505448
Epoch: 12700, Error: 0.011907207472403382
Epoch: 12800, Error: 0.011909914704090216
Epoch: 12900, Error: 0.011893074737618102
Epoch: 13000, Error: 0.011856340055600358
Epoch: 13100, Error: 0.011897602592572987
Epoch: 13200, Error: 0.011861251275103206
Epoch: 13300, Error: 0.01188456861327095
Epoch: 13400, Error: 0.011833714206604501
Epoch: 13500, Error: 0.011840671575599001
Epoch: 13600, Error: 0.011797957646737795
Epoch: 13700, Error: 0.011798897209134622
Epoch: 13800, Error: 0.011835036395034295
Epoch: 13900, Error: 0.011824492553433591
Epoch: 14000, Error: 0.011797273133250222
Epoch: 14100, Error: 0.011712499017148348
Epoch: 14200, Error: 0.011659666254719887
Epoch: 14300, Error: 0.011654385720797317
Epoch: 14400, Error: 0.011612850796684027
Epoch: 14500, Error: 0.011578436394301155
Epoch: 14600, Error: 0.011556892138296937
Epoch: 14700, Error: 0.011558083420705408
Epoch: 14800, Error: 0.011547858034882428
Epoch: 14900, Error: 0.011564381169125526
Epoch: 15000, Error: 0.011512340891241316
Epoch: 15100, Error: 0.011493765413057994
Epoch: 15200, Error: 0.0115266324323189
Epoch: 15300, Error: 0.011483012698062114
Epoch: 15400, Error: 0.01146841050365068
Epoch: 15500, Error: 0.011526054224435825
Epoch: 15600, Error: 0.011403828754639373
Epoch: 15700, Error: 0.011345665445800885
Epoch: 15800, Error: 0.011302867541673828
Epoch: 15900, Error: 0.011281538006496363
Epoch: 16000, Error: 0.011274062093272037
Epoch: 16100, Error: 0.011276001153060005
Epoch: 16200, Error: 0.011239060264771129
Epoch: 16300, Error: 0.011227100114812006
Epoch: 16400, Error: 0.01116807738179168
Epoch: 16500, Error: 0.011171873457936203
Epoch: 16600, Error: 0.011089394160025454
Epoch: 16700, Error: 0.011040466897658986
Epoch: 16800, Error: 0.010993345727608293
Epoch: 16900, Error: 0.010950842656070407
Epoch: 17000, Error: 0.010910587011715989
Epoch: 17100, Error: 0.010862521446613644
Epoch: 17200, Error: 0.01085371944740206
Epoch: 17300, Error: 0.01078758740196604
Epoch: 17400, Error: 0.010722299078597314
Epoch: 17500, Error: 0.01066580628434224
Epoch: 17600, Error: 0.01056257408605443
Epoch: 17700, Error: 0.010548143772518394
Epoch: 17800, Error: 0.010476463187389783
Epoch: 17900, Error: 0.010367422549291625
Epoch: 18000, Error: 0.01033933331087377
Epoch: 18100, Error: 0.010289174932311558
Epoch: 18200, Error: 0.010233783079284268
Epoch: 18300, Error: 0.010280814836359741
Epoch: 18400, Error: 0.010159218112203466
Epoch: 18500, Error: 0.010133980692980733
Epoch: 18600, Error: 0.010080196287460555
Epoch: 18700, Error: 0.01000838820254532
Epoch: 18800, Error: 0.009942437681821237
Epoch: 18900, Error: 0.009875986455439969
Epoch: 19000, Error: 0.009821522311527773
Epoch: 19100, Error: 0.009716774568504664
Epoch: 19200, Error: 0.009654401185656636
Epoch: 19300, Error: 0.009569788864939009
Epoch: 19400, Error: 0.009494311185621437
Epoch: 19500, Error: 0.009448880389152509
Epoch: 19600, Error: 0.009340660547461582
Epoch: 19700, Error: 0.009307393382302086
Epoch: 19800, Error: 0.009183993595545129
Epoch: 19900, Error: 0.00911190860282354
Epoch: 20000, Error: 0.009012912935937105
Epoch: 20100, Error: 0.008896401848185567
Epoch: 20200, Error: 0.008792049786272509
Epoch: 20300, Error: 0.008692520577562412
Epoch: 20400, Error: 0.00859050227202435
Epoch: 20500, Error: 0.008511549349676852
Epoch: 20600, Error: 0.00844613969424542
Epoch: 20700, Error: 0.008317947824026617
Epoch: 20800, Error: 0.008241279753865127
Epoch: 20900, Error: 0.008178968070948001
Epoch: 21000, Error: 0.008033989194915516
Epoch: 21100, Error: 0.007948639219149038
Epoch: 21200, Error: 0.007888194209301971
Epoch: 21300, Error: 0.007837482924464265
Epoch: 21400, Error: 0.007682215537511352
Epoch: 21500, Error: 0.007567788912525236
Epoch: 21600, Error: 0.0074932206087238344
Epoch: 21700, Error: 0.007445920336114261
Epoch: 21800, Error: 0.007378144578264167
Epoch: 21900, Error: 0.0072609041197711
Epoch: 22000, Error: 0.007172883315625345
Epoch: 22100, Error: 0.007093880712782397
Epoch: 22200, Error: 0.006995422117246115
Epoch: 22300, Error: 0.006981146616623497
Epoch: 22400, Error: 0.0069043954804279455
Epoch: 22500, Error: 0.006779747253060838
Epoch: 22600, Error: 0.0067063460097739926
Epoch: 22700, Error: 0.00664806539241811
Epoch: 22800, Error: 0.006553435878030552
Epoch: 22900, Error: 0.006503487963224843
Epoch: 23000, Error: 0.006441400434359408
Epoch: 23100, Error: 0.006354939239783151
Epoch: 23200, Error: 0.00630793145208382
Epoch: 23300, Error: 0.006253805355679509
Epoch: 23400, Error: 0.006213555699688949
Epoch: 23500, Error: 0.0061438384058782524
Epoch: 23600, Error: 0.006104351194833844
Epoch: 23700, Error: 0.00606569051595391
Epoch: 23800, Error: 0.0060170746711890695
Epoch: 23900, Error: 0.005990013617403822
Epoch: 24000, Error: 0.005965248214385533
Epoch: 24100, Error: 0.005889693611060448
Epoch: 24200, Error: 0.0058621149511366814
Epoch: 24300, Error: 0.005827691895627974
Epoch: 24400, Error: 0.005801230083764216
Epoch: 24500, Error: 0.00575686200334491
Epoch: 24600, Error: 0.005732053519729321
Epoch: 24700, Error: 0.005693951518633036
Epoch: 24800, Error: 0.005664055770399137
Epoch: 24900, Error: 0.005642464360673556
Epoch: 25000, Error: 0.005605936530518592
Epoch: 25100, Error: 0.0055789078757288064
Epoch: 25200, Error: 0.005558805149856963
Epoch: 25300, Error: 0.005532844707646616
Epoch: 25400, Error: 0.005511010098493811
Epoch: 25500, Error: 0.005486677446548399
Epoch: 25600, Error: 0.005478921875338815
Epoch: 25700, Error: 0.005453023851659067
Epoch: 25800, Error: 0.0054066072204095265
Epoch: 25900, Error: 0.005403195570749538
Epoch: 26000, Error: 0.005401152330862291
Epoch: 26100, Error: 0.005317622047759734
Epoch: 26200, Error: 0.005292947227460136
Epoch: 26300, Error: 0.005293286384432069
Epoch: 26400, Error: 0.005292466025514284
Epoch: 26500, Error: 0.005309794237824664
Epoch: 26600, Error: 0.005290304475721793
Epoch: 26700, Error: 0.0052920127487181695
Epoch: 26800, Error: 0.005241206006022244
Epoch: 26900, Error: 0.005252962049808237
Epoch: 27000, Error: 0.0052296711888291615
Epoch: 27100, Error: 0.005198609344475666
Epoch: 27200, Error: 0.005257175669817927
Epoch: 27300, Error: 0.005230919986252973
Epoch: 27400, Error: 0.005218621492016187
Epoch: 27500, Error: 0.00524787218697321
Epoch: 27600, Error: 0.005219123155984758
Epoch: 27700, Error: 0.005161363307462919
Epoch: 27800, Error: 0.0051650622106459605
Epoch: 27900, Error: 0.005115928247906393
Epoch: 28000, Error: 0.005097743964830521
Epoch: 28100, Error: 0.005099304480792771
Epoch: 28200, Error: 0.005016846749064985
Epoch: 28300, Error: 0.005019453449345132
Epoch: 28400, Error: 0.00503698666434248
Epoch: 28500, Error: 0.005054888675169306
Epoch: 28600, Error: 0.005073939769363114
Epoch: 28700, Error: 0.00507034469183897
Epoch: 28800, Error: 0.005051223444956898
Epoch: 28900, Error: 0.005037641776755641
Epoch: 29000, Error: 0.004954091431402128
Epoch: 29100, Error: 0.004975780365208985
Epoch: 29200, Error: 0.004919824565108283
Epoch: 29300, Error: 0.004892882968445612
Epoch: 29400, Error: 0.004879220349822442
Epoch: 29500, Error: 0.004902113476895053
Epoch: 29600, Error: 0.0047623633923033785
Epoch: 29700, Error: 0.0047449098838079
Epoch: 29800, Error: 0.004733916750451663
Epoch: 29900, Error: 0.004721879981038417
Epoch: 30000, Error: 0.004719383272072018
Epoch: 30100, Error: 0.004697170579351747
Epoch: 30200, Error: 0.004693023872778119
Epoch: 30300, Error: 0.004655102929937681
Epoch: 30400, Error: 0.004624509541883535
Epoch: 30500, Error: 0.004630196756764777
Epoch: 30600, Error: 0.004582718453870557
Epoch: 30700, Error: 0.004602350173920409
Epoch: 30800, Error: 0.0045505645276548495
Epoch: 30900, Error: 0.0045129353318191165
Epoch: 31000, Error: 0.004511950785543161
Epoch: 31100, Error: 0.004418555654544489
Epoch: 31200, Error: 0.004334222760714347
Epoch: 31300, Error: 0.004309346638270747
Epoch: 31400, Error: 0.004295739024620314
Epoch: 31500, Error: 0.004256759903169332
Epoch: 31600, Error: 0.004299796641387379
Epoch: 31700, Error: 0.004264458795364976
Epoch: 31800, Error: 0.004224269083761109
Epoch: 31900, Error: 0.0042046625526831315
Epoch: 32000, Error: 0.00419450739197443
Epoch: 32100, Error: 0.004158488396164702
Epoch: 32200, Error: 0.004134382955863052
Epoch: 32300, Error: 0.0041001393298432404
Epoch: 32400, Error: 0.004086184503881403
Epoch: 32500, Error: 0.004016017004782883
Epoch: 32600, Error: 0.004006955846384491
Epoch: 32700, Error: 0.004033593293514621
Epoch: 32800, Error: 0.003943595325934397
Epoch: 32900, Error: 0.003890524225182589
Epoch: 33000, Error: 0.003883711902636953
Epoch: 33100, Error: 0.0038145407634990595
Epoch: 33200, Error: 0.0038214188814227955
Epoch: 33300, Error: 0.003769667141368894
Epoch: 33400, Error: 0.003735418968385132
Epoch: 33500, Error: 0.0036978822835725387
Epoch: 33600, Error: 0.0036604504014783826
Epoch: 33700, Error: 0.003628038018930197
Epoch: 33800, Error: 0.0036096840355914106
Epoch: 33900, Error: 0.0035653339370532874
Epoch: 34000, Error: 0.00354056512235834
Epoch: 34100, Error: 0.0035068260011077504
Epoch: 34200, Error: 0.003467511147981443
Epoch: 34300, Error: 0.00344956528347891
Epoch: 34400, Error: 0.0034218591901760565
Epoch: 34500, Error: 0.0033769180719406063
Epoch: 34600, Error: 0.003347373846907457
Epoch: 34700, Error: 0.003335660487720049
Epoch: 34800, Error: 0.003292550082858759
Epoch: 34900, Error: 0.003257651194355439
Epoch: 35000, Error: 0.003242596949856227
Epoch: 35100, Error: 0.003222152215579143
Epoch: 35200, Error: 0.0032051583635827113
Epoch: 35300, Error: 0.003178349649832422
Epoch: 35400, Error: 0.0031496546905133943
Epoch: 35500, Error: 0.0031406665081846422
Epoch: 35600, Error: 0.003086232967510213
Epoch: 35700, Error: 0.0030702885025574783
Epoch: 35800, Error: 0.00306246406935768
Epoch: 35900, Error: 0.003239311302258965
Epoch: 36000, Error: 0.002982899073533533
Epoch: 36100, Error: 0.0029754863177327644
Epoch: 36200, Error: 0.002930409787762679
Epoch: 36300, Error: 0.00289658307069722
Epoch: 36400, Error: 0.0029824483829571096
Epoch: 36500, Error: 0.002837452432613965
Epoch: 36600, Error: 0.0028091530110816755
Epoch: 36700, Error: 0.002835964592956144
Epoch: 36800, Error: 0.0027708211966789263
Epoch: 36900, Error: 0.0027548629729008587
Epoch: 37000, Error: 0.0027558594849149496
Epoch: 37100, Error: 0.0027054641141280337
Epoch: 37200, Error: 0.0026709012711917273
Epoch: 37300, Error: 0.0026860482345111474
Epoch: 37400, Error: 0.0026519783867993175
Epoch: 37500, Error: 0.002647775284477562
Epoch: 37600, Error: 0.002581226296183818
Epoch: 37700, Error: 0.0025546422649991045
Epoch: 37800, Error: 0.002559470276669405
Epoch: 37900, Error: 0.002519786274329543
Epoch: 38000, Error: 0.0025004210054953356
Epoch: 38100, Error: 0.002476415603551249
Epoch: 38200, Error: 0.0024992232412516698
Epoch: 38300, Error: 0.002461249404006786
Epoch: 38400, Error: 0.002446105527805359
Epoch: 38500, Error: 0.0026069146591541493
Epoch: 38600, Error: 0.0023646664964432048
Epoch: 38700, Error: 0.002427528921295574
Epoch: 38800, Error: 0.0023198844759799568
Epoch: 38900, Error: 0.002313388503723485
Epoch: 39000, Error: 0.002278352161482355
Epoch: 39100, Error: 0.002266131760407032
Epoch: 39200, Error: 0.0022409988103367887
Epoch: 39300, Error: 0.002244371082183603
Epoch: 39400, Error: 0.0021997211423120467
Epoch: 39500, Error: 0.0022139155636014822
Epoch: 39600, Error: 0.0021962608527073325
Epoch: 39700, Error: 0.002170053742447106
Epoch: 39800, Error: 0.0021353776338613258
Epoch: 39900, Error: 0.0021082938535964186
Epoch: 40000, Error: 0.002102426241771992
Epoch: 40100, Error: 0.002108130399333612
Epoch: 40200, Error: 0.002134957652206708
Epoch: 40300, Error: 0.0021623201966450454
Epoch: 40400, Error: 0.002023838456986182
Epoch: 40500, Error: 0.0020013076324041593
Epoch: 40600, Error: 0.0020676870235517594
Epoch: 40700, Error: 0.00197702015067045
Epoch: 40800, Error: 0.0019774652596233288
Epoch: 40900, Error: 0.0019220549166865622
Epoch: 41000, Error: 0.0019230841154647457
Epoch: 41100, Error: 0.001910900551203964
Epoch: 41200, Error: 0.0019561981858580513
Epoch: 41300, Error: 0.0019109889004247278
Epoch: 41400, Error: 0.0018494945954965357
Epoch: 41500, Error: 0.0018308354009818186
Epoch: 41600, Error: 0.0018127248934568375
Epoch: 41700, Error: 0.0017979551460739578
Epoch: 41800, Error: 0.0018206792693095328
Epoch: 41900, Error: 0.0017695630815739323
Epoch: 42000, Error: 0.0018369052975788106
Epoch: 42100, Error: 0.0017335206565769368
Epoch: 42200, Error: 0.0017650933827104752
Epoch: 42300, Error: 0.0017155112745084417
Epoch: 42400, Error: 0.0017052696010122874
Epoch: 42500, Error: 0.0016928989115433887
Epoch: 42600, Error: 0.0016747529504797967
Epoch: 42700, Error: 0.001662365197004776
Epoch: 42800, Error: 0.0016750274120764157
Epoch: 42900, Error: 0.0016668115519581502
Epoch: 43000, Error: 0.001632185023642132
Epoch: 43100, Error: 0.0016173416533239214
Epoch: 43200, Error: 0.0015894075762835187
Epoch: 43300, Error: 0.0016363448759805722
Epoch: 43400, Error: 0.001590282850633679
Epoch: 43500, Error: 0.001550769543730079
Epoch: 43600, Error: 0.0015462401596410802
Epoch: 43700, Error: 0.001560907476822315
Epoch: 43800, Error: 0.0015128140163804986
Epoch: 43900, Error: 0.0015101393321214037
Epoch: 44000, Error: 0.0015001108269729194
Epoch: 44100, Error: 0.0015337104250887255
Epoch: 44200, Error: 0.0014722819997487339
Epoch: 44300, Error: 0.0014604610507419648
Epoch: 44400, Error: 0.001471775043711498
Epoch: 44500, Error: 0.0014362192331814434
Epoch: 44600, Error: 0.0014259778231243535
Epoch: 44700, Error: 0.0014184295030391233
Epoch: 44800, Error: 0.001401915281036818
Epoch: 44900, Error: 0.0013941640296067643
Epoch: 45000, Error: 0.0014089873444881182
Epoch: 45100, Error: 0.0013809742574038264
Epoch: 45200, Error: 0.0014552239532442124
Epoch: 45300, Error: 0.001379596528704852
Epoch: 45400, Error: 0.0013467975583838945
Epoch: 45500, Error: 0.0013375990370679597
Epoch: 45600, Error: 0.0013746940802014049
Epoch: 45700, Error: 0.0013169688586631948
Epoch: 45800, Error: 0.0013229711910729615
Epoch: 45900, Error: 0.0013049834852790912
Epoch: 46000, Error: 0.0013080803061759998
Epoch: 46100, Error: 0.0012777145811470555
Epoch: 46200, Error: 0.0012710284287079528
Epoch: 46300, Error: 0.0012658996062086525
Epoch: 46400, Error: 0.001262936653883156
Epoch: 46500, Error: 0.0012449531408802717
Epoch: 46600, Error: 0.0012378641619628027
Epoch: 46700, Error: 0.001237067560596252
Epoch: 46800, Error: 0.001267038640866831
Epoch: 46900, Error: 0.0012279086237570167
Epoch: 47000, Error: 0.0012090773396096716
Epoch: 47100, Error: 0.0013501148625236056
Epoch: 47200, Error: 0.0011908041603305981
Epoch: 47300, Error: 0.001188433687578407
Epoch: 47400, Error: 0.001174790698041922
Epoch: 47500, Error: 0.0011783434876298075
Epoch: 47600, Error: 0.0011614637131140777
Epoch: 47700, Error: 0.0011533707909335102
Epoch: 47800, Error: 0.001158141313293333
Epoch: 47900, Error: 0.0011379303330478223
Epoch: 48000, Error: 0.0011468917103041962
Epoch: 48100, Error: 0.0011368475159158006
Epoch: 48200, Error: 0.0011331643837622304
Epoch: 48300, Error: 0.0011927238089332463
Epoch: 48400, Error: 0.0011080759334754905
Epoch: 48500, Error: 0.0011121102981971874
Epoch: 48600, Error: 0.0011040082785888823
Epoch: 48700, Error: 0.0012216539009208035
Epoch: 48800, Error: 0.0010783508280889816
Epoch: 48900, Error: 0.0011101437273342164
Epoch: 49000, Error: 0.001076619777683395
Epoch: 49100, Error: 0.001057569051688374
Epoch: 49200, Error: 0.0010693510698122147
Epoch: 49300, Error: 0.0010584524669975674
Epoch: 49400, Error: 0.001067029797544493
Epoch: 49500, Error: 0.001036722028273895
Epoch: 49600, Error: 0.0010352746802468353
Epoch: 49700, Error: 0.001022602245105931
Epoch: 49800, Error: 0.0010238631017518655
Epoch: 49900, Error: 0.0010105501906747497
Epoch: 50000, Error: 0.0010015567347436622
Epoch: 50100, Error: 0.0010099995763389322
Epoch: 50200, Error: 0.0010005487862606139
Epoch: 50300, Error: 9.877606348611624E-4
Epoch: 50400, Error: 9.80708782894566E-4
Epoch: 50500, Error: 9.829326199059516E-4
Epoch: 50600, Error: 9.700263691496726E-4
Epoch: 50700, Error: 9.682844472639096E-4
Epoch: 50800, Error: 9.644398857754059E-4
Epoch: 50900, Error: 9.648473138731074E-4
Epoch: 51000, Error: 9.524344202062322E-4
Epoch: 51100, Error: 9.426520963744042E-4
Epoch: 51200, Error: 9.456145197121322E-4
Epoch: 51300, Error: 9.41705515382988E-4
Epoch: 51400, Error: 9.341042940158378E-4
Epoch: 51500, Error: 9.763127878648253E-4
Epoch: 51600, Error: 9.268649049985166E-4
Epoch: 51700, Error: 9.493269480753842E-4
Epoch: 51800, Error: 9.099070471433993E-4
Epoch: 51900, Error: 9.074714141411686E-4
Epoch: 52000, Error: 8.999197781276744E-4
