Input Patterns
0.224 0.624 0.067 0.043 
0.11 0.502 0.051 0.043 
0.196 0.667 0.067 0.043 
0.055 0.584 0.067 0.082 
0.027 0.376 0.067 0.043 
0.306 0.71 0.086 0.043 
0.137 0.416 0.067 0.0 
0.416 0.831 0.035 0.043 
0.306 0.792 0.051 0.125 
0.388 0.749 0.118 0.082 
0.306 0.584 0.118 0.043 
0.082 0.667 0.0 0.043 
0.137 0.584 0.153 0.043 
0.196 0.584 0.102 0.125 
0.251 0.584 0.067 0.043 
0.137 0.459 0.102 0.043 
0.251 0.875 0.086 0.0 
0.165 0.459 0.086 0.043 
0.333 0.624 0.051 0.043 
0.027 0.416 0.051 0.043 
0.196 0.624 0.051 0.082 
0.027 0.502 0.051 0.043 
0.224 0.749 0.153 0.125 
0.224 0.749 0.102 0.043 
0.278 0.71 0.086 0.043 
0.165 0.416 0.067 0.043 
0.082 0.459 0.086 0.043 
0.306 0.792 0.118 0.125 
0.196 0.584 0.086 0.043 
0.165 0.459 0.086 0.0 
0.137 0.584 0.102 0.043 
0.0 0.416 0.016 0.0 
0.388 1.0 0.086 0.125 
0.224 0.624 0.067 0.082 
0.224 0.749 0.086 0.082 
0.224 0.71 0.086 0.125 
0.224 0.541 0.118 0.165 
0.196 0.416 0.102 0.043 
0.251 0.624 0.086 0.043 
0.11 0.502 0.102 0.043 
0.306 0.584 0.086 0.125 
0.333 0.918 0.067 0.043 
0.196 0.502 0.035 0.043 
0.165 0.667 0.067 0.0 
0.224 0.584 0.086 0.043 
0.055 0.125 0.051 0.082 
0.196 0.624 0.102 0.208 
0.137 0.416 0.067 0.082 
0.082 0.502 0.067 0.043 
0.196 0.541 0.067 0.043 
0.749 0.502 0.627 0.541 
0.722 0.459 0.663 0.584 
0.612 0.333 0.612 0.584 
0.557 0.541 0.627 0.624 
0.639 0.376 0.612 0.498 
0.196 0.0 0.424 0.376 
0.471 0.082 0.51 0.376 
0.361 0.376 0.439 0.498 
0.361 0.416 0.592 0.584 
0.529 0.082 0.592 0.584 
0.443 0.502 0.643 0.459 
0.557 0.208 0.663 0.584 
0.584 0.376 0.561 0.498 
0.694 0.333 0.643 0.541 
0.471 0.376 0.592 0.584 
0.333 0.169 0.475 0.416 
0.416 0.29 0.49 0.459 
0.306 0.416 0.592 0.584 
0.667 0.459 0.627 0.584 
0.361 0.416 0.525 0.498 
0.333 0.251 0.576 0.459 
0.416 0.251 0.51 0.459 
0.361 0.29 0.541 0.498 
0.388 0.376 0.541 0.498 
0.224 0.208 0.337 0.416 
0.584 0.502 0.592 0.584 
0.333 0.125 0.51 0.498 
0.388 0.333 0.592 0.498 
0.165 0.169 0.388 0.376 
0.251 0.29 0.49 0.541 
0.443 0.416 0.541 0.584 
0.498 0.376 0.627 0.541 
0.667 0.459 0.576 0.541 
0.416 0.29 0.525 0.376 
0.361 0.208 0.49 0.416 
0.498 0.333 0.51 0.498 
0.498 0.333 0.627 0.459 
0.639 0.416 0.576 0.541 
0.667 0.416 0.678 0.667 
0.388 0.251 0.424 0.376 
0.333 0.169 0.459 0.376 
0.471 0.29 0.694 0.624 
0.471 0.584 0.592 0.624 
0.557 0.125 0.576 0.498 
0.333 0.208 0.51 0.498 
0.498 0.416 0.612 0.541 
0.196 0.125 0.388 0.376 
0.388 0.416 0.541 0.459 
0.529 0.376 0.561 0.498 
0.388 0.333 0.525 0.498 
0.557 0.541 0.847 1.0 
0.776 0.416 0.831 0.831 
0.612 0.416 0.812 0.875 
0.165 0.208 0.592 0.667 
0.667 0.208 0.812 0.71 
0.612 0.502 0.694 0.792 
0.694 0.416 0.761 0.831 
0.416 0.333 0.694 0.957 
0.612 0.416 0.761 0.71 
0.945 0.251 1.0 0.918 
0.722 0.502 0.796 0.918 
0.945 0.333 0.965 0.792 
0.667 0.541 0.796 0.831 
0.529 0.333 0.643 0.71 
0.584 0.333 0.78 0.831 
0.863 0.333 0.863 0.749 
0.584 0.333 0.78 0.875 
0.498 0.251 0.78 0.541 
0.557 0.584 0.78 0.957 
0.471 0.416 0.643 0.71 
0.667 0.459 0.78 0.957 
0.416 0.29 0.694 0.749 
0.667 0.541 0.796 1.0 
0.557 0.208 0.678 0.749 
0.529 0.584 0.745 0.918 
0.416 0.29 0.694 0.749 
0.557 0.376 0.78 0.71 
0.918 0.416 0.949 0.831 
0.835 0.376 0.898 0.71 
0.804 0.667 0.863 1.0 
0.584 0.29 0.729 0.749 
0.388 0.208 0.678 0.792 
0.584 0.502 0.729 0.918 
0.945 0.749 0.965 0.875 
0.471 0.082 0.678 0.584 
0.361 0.333 0.663 0.792 
0.557 0.29 0.663 0.71 
0.804 0.502 0.847 0.71 
0.498 0.416 0.51 0.71 
0.804 0.416 0.812 0.624 
1.0 0.749 0.914 0.792 
0.557 0.333 0.694 0.584 
0.945 0.416 0.863 0.918 
0.584 0.459 0.761 0.71 
0.722 0.459 0.745 0.831 
0.722 0.459 0.694 0.918 
0.694 0.502 0.831 0.918 
0.667 0.416 0.714 0.918 
0.612 0.416 0.714 0.792 
0.443 0.416 0.694 0.71 
Teaching Patterns
1.0 0.0 0.0 
1.0 0.0 0.0 
1.0 0.0 0.0 
1.0 0.0 0.0 
1.0 0.0 0.0 
1.0 0.0 0.0 
1.0 0.0 0.0 
1.0 0.0 0.0 
1.0 0.0 0.0 
1.0 0.0 0.0 
1.0 0.0 0.0 
1.0 0.0 0.0 
1.0 0.0 0.0 
1.0 0.0 0.0 
1.0 0.0 0.0 
1.0 0.0 0.0 
1.0 0.0 0.0 
1.0 0.0 0.0 
1.0 0.0 0.0 
1.0 0.0 0.0 
1.0 0.0 0.0 
1.0 0.0 0.0 
1.0 0.0 0.0 
1.0 0.0 0.0 
1.0 0.0 0.0 
1.0 0.0 0.0 
1.0 0.0 0.0 
1.0 0.0 0.0 
1.0 0.0 0.0 
1.0 0.0 0.0 
1.0 0.0 0.0 
1.0 0.0 0.0 
1.0 0.0 0.0 
1.0 0.0 0.0 
1.0 0.0 0.0 
1.0 0.0 0.0 
1.0 0.0 0.0 
1.0 0.0 0.0 
1.0 0.0 0.0 
1.0 0.0 0.0 
1.0 0.0 0.0 
1.0 0.0 0.0 
1.0 0.0 0.0 
1.0 0.0 0.0 
1.0 0.0 0.0 
1.0 0.0 0.0 
1.0 0.0 0.0 
1.0 0.0 0.0 
1.0 0.0 0.0 
1.0 0.0 0.0 
0.0 1.0 0.0 
0.0 1.0 0.0 
0.0 1.0 0.0 
0.0 1.0 0.0 
0.0 1.0 0.0 
0.0 1.0 0.0 
0.0 1.0 0.0 
0.0 1.0 0.0 
0.0 1.0 0.0 
0.0 1.0 0.0 
0.0 1.0 0.0 
0.0 1.0 0.0 
0.0 1.0 0.0 
0.0 1.0 0.0 
0.0 1.0 0.0 
0.0 1.0 0.0 
0.0 1.0 0.0 
0.0 1.0 0.0 
0.0 1.0 0.0 
0.0 1.0 0.0 
0.0 1.0 0.0 
0.0 1.0 0.0 
0.0 1.0 0.0 
0.0 1.0 0.0 
0.0 1.0 0.0 
0.0 1.0 0.0 
0.0 1.0 0.0 
0.0 1.0 0.0 
0.0 1.0 0.0 
0.0 1.0 0.0 
0.0 1.0 0.0 
0.0 1.0 0.0 
0.0 1.0 0.0 
0.0 1.0 0.0 
0.0 1.0 0.0 
0.0 1.0 0.0 
0.0 1.0 0.0 
0.0 1.0 0.0 
0.0 1.0 0.0 
0.0 1.0 0.0 
0.0 1.0 0.0 
0.0 1.0 0.0 
0.0 1.0 0.0 
0.0 1.0 0.0 
0.0 1.0 0.0 
0.0 1.0 0.0 
0.0 1.0 0.0 
0.0 1.0 0.0 
0.0 1.0 0.0 
0.0 1.0 0.0 
0.0 0.0 1.0 
0.0 0.0 1.0 
0.0 0.0 1.0 
0.0 0.0 1.0 
0.0 0.0 1.0 
0.0 0.0 1.0 
0.0 0.0 1.0 
0.0 0.0 1.0 
0.0 0.0 1.0 
0.0 0.0 1.0 
0.0 0.0 1.0 
0.0 0.0 1.0 
0.0 0.0 1.0 
0.0 0.0 1.0 
0.0 0.0 1.0 
0.0 0.0 1.0 
0.0 0.0 1.0 
0.0 0.0 1.0 
0.0 0.0 1.0 
0.0 0.0 1.0 
0.0 0.0 1.0 
0.0 0.0 1.0 
0.0 0.0 1.0 
0.0 0.0 1.0 
0.0 0.0 1.0 
0.0 0.0 1.0 
0.0 0.0 1.0 
0.0 0.0 1.0 
0.0 0.0 1.0 
0.0 0.0 1.0 
0.0 0.0 1.0 
0.0 0.0 1.0 
0.0 0.0 1.0 
0.0 0.0 1.0 
0.0 0.0 1.0 
0.0 0.0 1.0 
0.0 0.0 1.0 
0.0 0.0 1.0 
0.0 0.0 1.0 
0.0 0.0 1.0 
0.0 0.0 1.0 
0.0 0.0 1.0 
0.0 0.0 1.0 
0.0 0.0 1.0 
0.0 0.0 1.0 
0.0 0.0 1.0 
0.0 0.0 1.0 
0.0 0.0 1.0 
0.0 0.0 1.0 
0.0 0.0 1.0 
Learning : 0.05
Momentum : 0.800000011920929
Epoch: 100, Error: 0.027627976145250945
Epoch: 200, Error: 0.017607259741251196
Epoch: 300, Error: 0.015772014572938312
Epoch: 400, Error: 0.014722848547401163
Epoch: 500, Error: 0.01393802912143058
Epoch: 600, Error: 0.013521477664649206
Epoch: 700, Error: 0.013404556109015186
Epoch: 800, Error: 0.012952293439389388
Epoch: 900, Error: 0.01279784534807824
Epoch: 1000, Error: 0.012733029967861924
Epoch: 1100, Error: 0.012638410817053925
Epoch: 1200, Error: 0.012421656140139707
Epoch: 1300, Error: 0.01252111104762676
Epoch: 1400, Error: 0.012355779455675486
Epoch: 1500, Error: 0.012295500187754405
Epoch: 1600, Error: 0.012280542756460157
Epoch: 1700, Error: 0.012182247194128958
Epoch: 1800, Error: 0.012161117387767284
Epoch: 1900, Error: 0.012129431282811015
Epoch: 2000, Error: 0.012176942094118412
Epoch: 2100, Error: 0.01205704996718266
Epoch: 2200, Error: 0.012114990953723035
Epoch: 2300, Error: 0.012133549325865179
Epoch: 2400, Error: 0.012017361614703657
Epoch: 2500, Error: 0.011961919852910107
Epoch: 2600, Error: 0.01195822492034126
Epoch: 2700, Error: 0.011932360183884532
Epoch: 2800, Error: 0.01194807009190179
Epoch: 2900, Error: 0.011955607289714197
Epoch: 3000, Error: 0.011971330805648408
Epoch: 3100, Error: 0.011924872844416727
Epoch: 3200, Error: 0.011916043889516023
Epoch: 3300, Error: 0.012242131259614287
Epoch: 3400, Error: 0.011905226522983061
Epoch: 3500, Error: 0.011912154225670182
Epoch: 3600, Error: 0.011914733931872618
Epoch: 3700, Error: 0.012099466675899432
Epoch: 3800, Error: 0.011897362559776171
Epoch: 3900, Error: 0.01188435280757597
Epoch: 4000, Error: 0.011880347368687571
Epoch: 4100, Error: 0.011898876968309565
Epoch: 4200, Error: 0.0118277303251182
Epoch: 4300, Error: 0.01184741993629381
Epoch: 4400, Error: 0.011879082556442181
Epoch: 4500, Error: 0.011827140865874794
Epoch: 4600, Error: 0.011805615202600032
Epoch: 4700, Error: 0.011798973360790865
Epoch: 4800, Error: 0.011790133106375054
Epoch: 4900, Error: 0.011807651657909386
Epoch: 5000, Error: 0.011880107067210426
Epoch: 5100, Error: 0.011792077325714455
Epoch: 5200, Error: 0.011781285344611274
Epoch: 5300, Error: 0.011764442526748055
Epoch: 5400, Error: 0.011776790113953847
Epoch: 5500, Error: 0.011817415441404558
Epoch: 5600, Error: 0.01176992611851358
Epoch: 5700, Error: 0.011814089343226877
Epoch: 5800, Error: 0.011812798527953383
Epoch: 5900, Error: 0.011785365141687904
Epoch: 6000, Error: 0.011707231091330225
Epoch: 6100, Error: 0.011696444532016913
Epoch: 6200, Error: 0.011676834282696969
Epoch: 6300, Error: 0.011682864206647948
Epoch: 6400, Error: 0.011680003631248714
Epoch: 6500, Error: 0.011688941587491895
Epoch: 6600, Error: 0.011699964417540593
Epoch: 6700, Error: 0.011660606406254227
Epoch: 6800, Error: 0.011742794415485022
Epoch: 6900, Error: 0.011649596505345217
Epoch: 7000, Error: 0.011662633217318356
Epoch: 7100, Error: 0.011657920526930599
Epoch: 7200, Error: 0.011619171536411356
Epoch: 7300, Error: 0.01160952315946497
Epoch: 7400, Error: 0.011629385361227956
Epoch: 7500, Error: 0.011620626020596821
Epoch: 7600, Error: 0.01160058545758433
Epoch: 7700, Error: 0.011565681437612186
Epoch: 7800, Error: 0.011596970869878931
Epoch: 7900, Error: 0.011569462543723413
Epoch: 8000, Error: 0.011499153529154666
Epoch: 8100, Error: 0.011483406866050426
Epoch: 8200, Error: 0.011476989389340974
Epoch: 8300, Error: 0.0114691534684304
Epoch: 8400, Error: 0.011490688960829479
Epoch: 8500, Error: 0.011434744000147174
Epoch: 8600, Error: 0.011421013249695246
Epoch: 8700, Error: 0.011385039533490291
Epoch: 8800, Error: 0.0113808709082598
Epoch: 8900, Error: 0.011354707921351449
Epoch: 9000, Error: 0.011402035129278967
Epoch: 9100, Error: 0.01134577269653959
Epoch: 9200, Error: 0.01135132895957297
Epoch: 9300, Error: 0.011279363270821076
Epoch: 9400, Error: 0.011251104384169798
Epoch: 9500, Error: 0.011194079951138657
Epoch: 9600, Error: 0.011306632653757774
Epoch: 9700, Error: 0.011106178404407386
Epoch: 9800, Error: 0.011013534021802246
Epoch: 9900, Error: 0.010996923552881257
Epoch: 10000, Error: 0.010996329009649152
Epoch: 10100, Error: 0.010852293487372242
Epoch: 10200, Error: 0.010755699827390254
Epoch: 10300, Error: 0.01080219096355184
Epoch: 10400, Error: 0.010646563329638684
Epoch: 10500, Error: 0.010492800491287136
Epoch: 10600, Error: 0.010447554685400892
Epoch: 10700, Error: 0.010305649070158098
Epoch: 10800, Error: 0.010173520360491916
Epoch: 10900, Error: 0.010064906570192014
Epoch: 11000, Error: 0.009892991512928452
Epoch: 11100, Error: 0.009736405149728474
Epoch: 11200, Error: 0.009574070794086606
Epoch: 11300, Error: 0.009434437486895363
Epoch: 11400, Error: 0.009280259943177284
Epoch: 11500, Error: 0.009168249572052289
Epoch: 11600, Error: 0.008959494788929124
Epoch: 11700, Error: 0.00881553507615749
Epoch: 11800, Error: 0.008689884384796108
Epoch: 11900, Error: 0.008520838007466168
Epoch: 12000, Error: 0.008387733593109452
Epoch: 12100, Error: 0.008268760386381125
Epoch: 12200, Error: 0.008146413599574385
Epoch: 12300, Error: 0.008004502958015521
Epoch: 12400, Error: 0.007855332391693077
Epoch: 12500, Error: 0.007736294926746114
Epoch: 12600, Error: 0.007640346400487972
Epoch: 12700, Error: 0.007531846647630115
Epoch: 12800, Error: 0.00746423999881258
Epoch: 12900, Error: 0.007333025574951765
Epoch: 13000, Error: 0.00726134860399191
Epoch: 13100, Error: 0.00715748763623119
Epoch: 13200, Error: 0.007084425682704754
Epoch: 13300, Error: 0.006995139494985883
Epoch: 13400, Error: 0.0070212815489617605
Epoch: 13500, Error: 0.006859263787023895
Epoch: 13600, Error: 0.006829611990176028
Epoch: 13700, Error: 0.006734625794016994
Epoch: 13800, Error: 0.006679611237248645
Epoch: 13900, Error: 0.006624358576090486
Epoch: 14000, Error: 0.006578379447128612
Epoch: 14100, Error: 0.00653394571857811
Epoch: 14200, Error: 0.0064882677770647995
Epoch: 14300, Error: 0.0064618208442212685
Epoch: 14400, Error: 0.006414360916096525
Epoch: 14500, Error: 0.006395096595687142
Epoch: 14600, Error: 0.006353873090280185
Epoch: 14700, Error: 0.006368282360801507
Epoch: 14800, Error: 0.00630362013162986
Epoch: 14900, Error: 0.00626512193637214
Epoch: 15000, Error: 0.006252223769086391
Epoch: 15100, Error: 0.006221701856157258
Epoch: 15200, Error: 0.00618886416961815
Epoch: 15300, Error: 0.006196578429485463
Epoch: 15400, Error: 0.006154678275106175
Epoch: 15500, Error: 0.00617738194781284
Epoch: 15600, Error: 0.006135986953644236
Epoch: 15700, Error: 0.006094693032452117
Epoch: 15800, Error: 0.006206542185157393
Epoch: 15900, Error: 0.006091197799050147
Epoch: 16000, Error: 0.006065809741749852
Epoch: 16100, Error: 0.006041694997115002
Epoch: 16200, Error: 0.006022713107389762
Epoch: 16300, Error: 0.006004542485994328
Epoch: 16400, Error: 0.006028566742319415
Epoch: 16500, Error: 0.006040653653594055
Epoch: 16600, Error: 0.006061608719983768
Epoch: 16700, Error: 0.005988126448517497
Epoch: 16800, Error: 0.005992816500167288
Epoch: 16900, Error: 0.0059470264915491965
Epoch: 17000, Error: 0.0059474595902868615
Epoch: 17100, Error: 0.005958560358155689
Epoch: 17200, Error: 0.0059564169572980195
Epoch: 17300, Error: 0.0059497796911419515
Epoch: 17400, Error: 0.005892849362686165
Epoch: 17500, Error: 0.005900052090123555
Epoch: 17600, Error: 0.005912194333480283
Epoch: 17700, Error: 0.005898542497481754
Epoch: 17800, Error: 0.005912625435594423
Epoch: 17900, Error: 0.005940090021408048
Epoch: 18000, Error: 0.005918102336711404
Epoch: 18100, Error: 0.005920081148322096
Epoch: 18200, Error: 0.0058605024730960225
Epoch: 18300, Error: 0.005901437867280994
Epoch: 18400, Error: 0.005847793213307737
Epoch: 18500, Error: 0.0058049990801387575
Epoch: 18600, Error: 0.005807133722400889
Epoch: 18700, Error: 0.005821571159925897
Epoch: 18800, Error: 0.005808562639681588
Epoch: 18900, Error: 0.005813966825896584
Epoch: 19000, Error: 0.005815601861189096
Epoch: 19100, Error: 0.005790117330266376
Epoch: 19200, Error: 0.005847711214825989
Epoch: 19300, Error: 0.005772761815683495
Epoch: 19400, Error: 0.00575571915976376
Epoch: 19500, Error: 0.005756605663518479
Epoch: 19600, Error: 0.005754459653485083
Epoch: 19700, Error: 0.0057612186364869086
Epoch: 19800, Error: 0.005702284323182396
Epoch: 19900, Error: 0.005715701157883819
Epoch: 20000, Error: 0.005739528446545919
Epoch: 20100, Error: 0.005667062985329541
Epoch: 20200, Error: 0.005695784815879014
Epoch: 20300, Error: 0.0056386745628700585
Epoch: 20400, Error: 0.005660018485310125
Epoch: 20500, Error: 0.005628874613594105
Epoch: 20600, Error: 0.005565396795026855
Epoch: 20700, Error: 0.005550630038164226
Epoch: 20800, Error: 0.005556299734154895
Epoch: 20900, Error: 0.005611165933434939
Epoch: 21000, Error: 0.005503041412730238
Epoch: 21100, Error: 0.005541108408837989
Epoch: 21200, Error: 0.005497895751486186
Epoch: 21300, Error: 0.005517521915192046
Epoch: 21400, Error: 0.005459485120155936
Epoch: 21500, Error: 0.005488410776144322
Epoch: 21600, Error: 0.005473851105614413
Epoch: 21700, Error: 0.005442552685387611
Epoch: 21800, Error: 0.005443046902926292
Epoch: 21900, Error: 0.005404272088709954
Epoch: 22000, Error: 0.005395279084060346
Epoch: 22100, Error: 0.005389507227183053
Epoch: 22200, Error: 0.005389295734318676
Epoch: 22300, Error: 0.00533269124660326
Epoch: 22400, Error: 0.005318464480929901
Epoch: 22500, Error: 0.005292343497414445
Epoch: 22600, Error: 0.005249319632688052
Epoch: 22700, Error: 0.005247921463646045
Epoch: 22800, Error: 0.00521016754573482
Epoch: 22900, Error: 0.005173657441904432
Epoch: 23000, Error: 0.0051636158624034315
Epoch: 23100, Error: 0.005146912315403949
Epoch: 23200, Error: 0.005126882390417051
Epoch: 23300, Error: 0.005096194476120943
Epoch: 23400, Error: 0.005070102664243444
Epoch: 23500, Error: 0.005144352883529631
Epoch: 23600, Error: 0.005208307128932734
Epoch: 23700, Error: 0.005012473462784173
Epoch: 23800, Error: 0.005026598286051741
Epoch: 23900, Error: 0.0050779736528625994
Epoch: 24000, Error: 0.004985806061086992
Epoch: 24100, Error: 0.00494065041622168
Epoch: 24200, Error: 0.004915030695297574
Epoch: 24300, Error: 0.004896872816648563
Epoch: 24400, Error: 0.004934212032518068
Epoch: 24500, Error: 0.004856229486740409
Epoch: 24600, Error: 0.004864492873283994
Epoch: 24700, Error: 0.004810422154258766
Epoch: 24800, Error: 0.004798668013309496
Epoch: 24900, Error: 0.004778490396314884
Epoch: 25000, Error: 0.004774308341592471
Epoch: 25100, Error: 0.0047760994348688855
Epoch: 25200, Error: 0.004762428215982942
Epoch: 25300, Error: 0.004734607732125006
Epoch: 25400, Error: 0.004662571120197902
Epoch: 25500, Error: 0.004644928479804117
Epoch: 25600, Error: 0.004659920693954247
Epoch: 25700, Error: 0.004653133217057146
Epoch: 25800, Error: 0.004609168873877941
Epoch: 25900, Error: 0.004602199010684262
Epoch: 26000, Error: 0.004539789806181696
Epoch: 26100, Error: 0.004528800708073987
Epoch: 26200, Error: 0.004514959719548224
Epoch: 26300, Error: 0.004706092460260543
Epoch: 26400, Error: 0.004426755245739055
Epoch: 26500, Error: 0.004448367383701638
Epoch: 26600, Error: 0.004397366308990845
Epoch: 26700, Error: 0.004371897585669289
Epoch: 26800, Error: 0.004354746078988436
Epoch: 26900, Error: 0.004323601047191741
Epoch: 27000, Error: 0.004316630978126919
Epoch: 27100, Error: 0.004293532636715133
Epoch: 27200, Error: 0.004300781102201934
Epoch: 27300, Error: 0.004271973410834297
Epoch: 27400, Error: 0.0041993063209516835
Epoch: 27500, Error: 0.004202794300827682
Epoch: 27600, Error: 0.0041982542549622495
Epoch: 27700, Error: 0.004142306162115622
Epoch: 27800, Error: 0.004205205078715592
Epoch: 27900, Error: 0.004099093528730716
Epoch: 28000, Error: 0.0041013992982656755
Epoch: 28100, Error: 0.004061915132889795
Epoch: 28200, Error: 0.004021507779733405
Epoch: 28300, Error: 0.003994905298918798
Epoch: 28400, Error: 0.003985826531435415
Epoch: 28500, Error: 0.0039840777588805686
Epoch: 28600, Error: 0.003975978504677949
Epoch: 28700, Error: 0.003930116606173646
Epoch: 28800, Error: 0.0039041496976586986
Epoch: 28900, Error: 0.003937647285111051
Epoch: 29000, Error: 0.0038422081390071753
Epoch: 29100, Error: 0.00385366252926481
Epoch: 29200, Error: 0.003819350454796872
Epoch: 29300, Error: 0.0038731650391229705
Epoch: 29400, Error: 0.003759906518575635
Epoch: 29500, Error: 0.003714309804920347
Epoch: 29600, Error: 0.003697786040431092
Epoch: 29700, Error: 0.0037268233342645615
Epoch: 29800, Error: 0.0036758927180304047
Epoch: 29900, Error: 0.0036450286896689246
Epoch: 30000, Error: 0.0036206499231050513
Epoch: 30100, Error: 0.003621171542678111
Epoch: 30200, Error: 0.0035934257875923684
Epoch: 30300, Error: 0.003569032687570022
Epoch: 30400, Error: 0.0035502449300868423
Epoch: 30500, Error: 0.0035349274707417774
Epoch: 30600, Error: 0.003527351013755176
Epoch: 30700, Error: 0.0034760188493210384
Epoch: 30800, Error: 0.003548435481896607
Epoch: 30900, Error: 0.0034458970534927877
Epoch: 31000, Error: 0.0034683807204499415
Epoch: 31100, Error: 0.0034095591326976666
Epoch: 31200, Error: 0.003423483895383676
Epoch: 31300, Error: 0.003391180386805017
Epoch: 31400, Error: 0.0033357191413345474
Epoch: 31500, Error: 0.0033329873249957377
Epoch: 31600, Error: 0.0033042316309868187
Epoch: 31700, Error: 0.003291326374282732
Epoch: 31800, Error: 0.0032927304210369924
Epoch: 31900, Error: 0.0032618731059910282
Epoch: 32000, Error: 0.0032284810070357627
Epoch: 32100, Error: 0.0033262764290685064
Epoch: 32200, Error: 0.0031836179194479532
Epoch: 32300, Error: 0.0031807089088048924
Epoch: 32400, Error: 0.0031480669526009167
Epoch: 32500, Error: 0.0031726688512134825
Epoch: 32600, Error: 0.0031114668568978502
Epoch: 32700, Error: 0.003093481068061899
Epoch: 32800, Error: 0.003150639403409361
Epoch: 32900, Error: 0.0030653869594484966
Epoch: 33000, Error: 0.00304540855286958
Epoch: 33100, Error: 0.003068823528981307
Epoch: 33200, Error: 0.0030265154141623334
Epoch: 33300, Error: 0.002990698258261349
Epoch: 33400, Error: 0.0029806397276462672
Epoch: 33500, Error: 0.0029741047336311363
Epoch: 33600, Error: 0.0029402446730202023
Epoch: 33700, Error: 0.002934461594182569
Epoch: 33800, Error: 0.002963966133654492
Epoch: 33900, Error: 0.0029033921036799404
Epoch: 34000, Error: 0.0029120831281525122
Epoch: 34100, Error: 0.002910925764519408
Epoch: 34200, Error: 0.0028447013773690135
Epoch: 34300, Error: 0.0028566159403932605
Epoch: 34400, Error: 0.0028185372509956183
Epoch: 34500, Error: 0.0028043307920243327
Epoch: 34600, Error: 0.002911679977895458
Epoch: 34700, Error: 0.002770294633556625
Epoch: 34800, Error: 0.0027550416068158295
Epoch: 34900, Error: 0.0028128190021417887
Epoch: 35000, Error: 0.0027293812627212336
Epoch: 35100, Error: 0.002710576837487274
Epoch: 35200, Error: 0.0027037297264784093
Epoch: 35300, Error: 0.002685608162048498
Epoch: 35400, Error: 0.0027274430218482736
Epoch: 35500, Error: 0.0026818682755015816
Epoch: 35600, Error: 0.002668400420978969
Epoch: 35700, Error: 0.0026369007480472836
Epoch: 35800, Error: 0.0026263288997974
Epoch: 35900, Error: 0.002653922525944413
Epoch: 36000, Error: 0.002599707366762842
Epoch: 36100, Error: 0.002659506946438823
Epoch: 36200, Error: 0.002575703383645878
Epoch: 36300, Error: 0.0025907506830718454
Epoch: 36400, Error: 0.002553575645132252
Epoch: 36500, Error: 0.0025442570807573776
Epoch: 36600, Error: 0.0025528835330501467
Epoch: 36700, Error: 0.0025321849260559887
Epoch: 36800, Error: 0.002529360606663082
Epoch: 36900, Error: 0.0025390387277722808
Epoch: 37000, Error: 0.0024896269114187937
Epoch: 37100, Error: 0.0025202560157519876
Epoch: 37200, Error: 0.0025271081067063128
Epoch: 37300, Error: 0.0024808767471271365
Epoch: 37400, Error: 0.002455076932310526
Epoch: 37500, Error: 0.002445798424669976
Epoch: 37600, Error: 0.00243970202913357
Epoch: 37700, Error: 0.0024218079690065345
Epoch: 37800, Error: 0.0024143599694331206
Epoch: 37900, Error: 0.0024093528543150163
Epoch: 38000, Error: 0.0023810222953266754
Epoch: 38100, Error: 0.002371928558206687
Epoch: 38200, Error: 0.002366760290274687
Epoch: 38300, Error: 0.002384208108203813
Epoch: 38400, Error: 0.002369015992849235
Epoch: 38500, Error: 0.002335362422471232
Epoch: 38600, Error: 0.0023417577641442005
Epoch: 38700, Error: 0.0023577331453440353
Epoch: 38800, Error: 0.002376010434853858
Epoch: 38900, Error: 0.002319040855242103
Epoch: 39000, Error: 0.002299329059770905
Epoch: 39100, Error: 0.002292280848981243
Epoch: 39200, Error: 0.002278595513955445
Epoch: 39300, Error: 0.002261545970163567
Epoch: 39400, Error: 0.002275880989685489
Epoch: 39500, Error: 0.0022696558275546058
Epoch: 39600, Error: 0.0022382749376700472
Epoch: 39700, Error: 0.0022447936820148007
Epoch: 39800, Error: 0.0022330992104253526
Epoch: 39900, Error: 0.0022231694934187305
Epoch: 40000, Error: 0.002206017230418343
Epoch: 40100, Error: 0.002202247954587843
Epoch: 40200, Error: 0.002193987277277962
Epoch: 40300, Error: 0.002183571375761228
Epoch: 40400, Error: 0.002177093505156954
Epoch: 40500, Error: 0.002170425572070369
Epoch: 40600, Error: 0.0021639422938688384
Epoch: 40700, Error: 0.0021554255913491804
Epoch: 40800, Error: 0.0021850320453681423
Epoch: 40900, Error: 0.002162030153997381
Epoch: 41000, Error: 0.0021345110020344377
Epoch: 41100, Error: 0.0021275806672796144
Epoch: 41200, Error: 0.002120570908140908
Epoch: 41300, Error: 0.0021240688286916724
Epoch: 41400, Error: 0.002110845987705443
Epoch: 41500, Error: 0.002118883153624514
Epoch: 41600, Error: 0.002121149036394191
Epoch: 41700, Error: 0.002134658044963377
Epoch: 41800, Error: 0.0021020773093407847
Epoch: 41900, Error: 0.0021026179102484675
Epoch: 42000, Error: 0.0020995989810673635
Epoch: 42100, Error: 0.002078628928877743
Epoch: 42200, Error: 0.002068183897899933
Epoch: 42300, Error: 0.0020656076102201007
Epoch: 42400, Error: 0.002058622942453818
Epoch: 42500, Error: 0.0020810347142445167
Epoch: 42600, Error: 0.0020539746995358234
Epoch: 42700, Error: 0.002041409202481847
Epoch: 42800, Error: 0.002045761887720304
Epoch: 42900, Error: 0.00203206569000624
Epoch: 43000, Error: 0.0020242294374971655
Epoch: 43100, Error: 0.0020410183209342695
Epoch: 43200, Error: 0.0020224886559933545
Epoch: 43300, Error: 0.002015183573006554
Epoch: 43400, Error: 0.0020253804855750934
Epoch: 43500, Error: 0.0020216424167680824
Epoch: 43600, Error: 0.0020074003826125947
Epoch: 43700, Error: 0.002005977704258003
Epoch: 43800, Error: 0.0019961495011924387
Epoch: 43900, Error: 0.0019835956430190767
Epoch: 44000, Error: 0.001982059399554034
Epoch: 44100, Error: 0.0019840032262574206
Epoch: 44200, Error: 0.0020071153791307696
Epoch: 44300, Error: 0.0019702606702500266
Epoch: 44400, Error: 0.001969733009826623
Epoch: 44500, Error: 0.0019687474933897105
Epoch: 44600, Error: 0.0019568622844726704
