Input Patterns
0.224 0.624 0.067 0.043 
0.11 0.502 0.051 0.043 
0.196 0.667 0.067 0.043 
0.055 0.584 0.067 0.082 
0.027 0.376 0.067 0.043 
0.306 0.71 0.086 0.043 
0.137 0.416 0.067 0.0 
0.416 0.831 0.035 0.043 
0.306 0.792 0.051 0.125 
0.388 0.749 0.118 0.082 
0.306 0.584 0.118 0.043 
0.082 0.667 0.0 0.043 
0.137 0.584 0.153 0.043 
0.196 0.584 0.102 0.125 
0.251 0.584 0.067 0.043 
0.137 0.459 0.102 0.043 
0.251 0.875 0.086 0.0 
0.165 0.459 0.086 0.043 
0.333 0.624 0.051 0.043 
0.027 0.416 0.051 0.043 
0.196 0.624 0.051 0.082 
0.027 0.502 0.051 0.043 
0.224 0.749 0.153 0.125 
0.224 0.749 0.102 0.043 
0.278 0.71 0.086 0.043 
0.165 0.416 0.067 0.043 
0.082 0.459 0.086 0.043 
0.306 0.792 0.118 0.125 
0.196 0.584 0.086 0.043 
0.165 0.459 0.086 0.0 
0.137 0.584 0.102 0.043 
0.0 0.416 0.016 0.0 
0.388 1.0 0.086 0.125 
0.224 0.624 0.067 0.082 
0.224 0.749 0.086 0.082 
0.224 0.71 0.086 0.125 
0.224 0.541 0.118 0.165 
0.196 0.416 0.102 0.043 
0.251 0.624 0.086 0.043 
0.11 0.502 0.102 0.043 
0.306 0.584 0.086 0.125 
0.333 0.918 0.067 0.043 
0.196 0.502 0.035 0.043 
0.165 0.667 0.067 0.0 
0.224 0.584 0.086 0.043 
0.055 0.125 0.051 0.082 
0.196 0.624 0.102 0.208 
0.137 0.416 0.067 0.082 
0.082 0.502 0.067 0.043 
0.196 0.541 0.067 0.043 
0.749 0.502 0.627 0.541 
0.722 0.459 0.663 0.584 
0.612 0.333 0.612 0.584 
0.557 0.541 0.627 0.624 
0.639 0.376 0.612 0.498 
0.196 0.0 0.424 0.376 
0.471 0.082 0.51 0.376 
0.361 0.376 0.439 0.498 
0.361 0.416 0.592 0.584 
0.529 0.082 0.592 0.584 
0.443 0.502 0.643 0.459 
0.557 0.208 0.663 0.584 
0.584 0.376 0.561 0.498 
0.694 0.333 0.643 0.541 
0.471 0.376 0.592 0.584 
0.333 0.169 0.475 0.416 
0.416 0.29 0.49 0.459 
0.306 0.416 0.592 0.584 
0.667 0.459 0.627 0.584 
0.361 0.416 0.525 0.498 
0.333 0.251 0.576 0.459 
0.416 0.251 0.51 0.459 
0.361 0.29 0.541 0.498 
0.388 0.376 0.541 0.498 
0.224 0.208 0.337 0.416 
0.584 0.502 0.592 0.584 
0.333 0.125 0.51 0.498 
0.388 0.333 0.592 0.498 
0.165 0.169 0.388 0.376 
0.251 0.29 0.49 0.541 
0.443 0.416 0.541 0.584 
0.498 0.376 0.627 0.541 
0.667 0.459 0.576 0.541 
0.416 0.29 0.525 0.376 
0.361 0.208 0.49 0.416 
0.498 0.333 0.51 0.498 
0.498 0.333 0.627 0.459 
0.639 0.416 0.576 0.541 
0.667 0.416 0.678 0.667 
0.388 0.251 0.424 0.376 
0.333 0.169 0.459 0.376 
0.471 0.29 0.694 0.624 
0.471 0.584 0.592 0.624 
0.557 0.125 0.576 0.498 
0.333 0.208 0.51 0.498 
0.498 0.416 0.612 0.541 
0.196 0.125 0.388 0.376 
0.388 0.416 0.541 0.459 
0.529 0.376 0.561 0.498 
0.388 0.333 0.525 0.498 
0.557 0.541 0.847 1.0 
0.776 0.416 0.831 0.831 
0.612 0.416 0.812 0.875 
0.165 0.208 0.592 0.667 
0.667 0.208 0.812 0.71 
0.612 0.502 0.694 0.792 
0.694 0.416 0.761 0.831 
0.416 0.333 0.694 0.957 
0.612 0.416 0.761 0.71 
0.945 0.251 1.0 0.918 
0.722 0.502 0.796 0.918 
0.945 0.333 0.965 0.792 
0.667 0.541 0.796 0.831 
0.529 0.333 0.643 0.71 
0.584 0.333 0.78 0.831 
0.863 0.333 0.863 0.749 
0.584 0.333 0.78 0.875 
0.498 0.251 0.78 0.541 
0.557 0.584 0.78 0.957 
0.471 0.416 0.643 0.71 
0.667 0.459 0.78 0.957 
0.416 0.29 0.694 0.749 
0.667 0.541 0.796 1.0 
0.557 0.208 0.678 0.749 
0.529 0.584 0.745 0.918 
0.416 0.29 0.694 0.749 
0.557 0.376 0.78 0.71 
0.918 0.416 0.949 0.831 
0.835 0.376 0.898 0.71 
0.804 0.667 0.863 1.0 
0.584 0.29 0.729 0.749 
0.388 0.208 0.678 0.792 
0.584 0.502 0.729 0.918 
0.945 0.749 0.965 0.875 
0.471 0.082 0.678 0.584 
0.361 0.333 0.663 0.792 
0.557 0.29 0.663 0.71 
0.804 0.502 0.847 0.71 
0.498 0.416 0.51 0.71 
0.804 0.416 0.812 0.624 
1.0 0.749 0.914 0.792 
0.557 0.333 0.694 0.584 
0.945 0.416 0.863 0.918 
0.584 0.459 0.761 0.71 
0.722 0.459 0.745 0.831 
0.722 0.459 0.694 0.918 
0.694 0.502 0.831 0.918 
0.667 0.416 0.714 0.918 
0.612 0.416 0.714 0.792 
0.443 0.416 0.694 0.71 
Teaching Patterns
1.0 0.0 0.0 
1.0 0.0 0.0 
1.0 0.0 0.0 
1.0 0.0 0.0 
1.0 0.0 0.0 
1.0 0.0 0.0 
1.0 0.0 0.0 
1.0 0.0 0.0 
1.0 0.0 0.0 
1.0 0.0 0.0 
1.0 0.0 0.0 
1.0 0.0 0.0 
1.0 0.0 0.0 
1.0 0.0 0.0 
1.0 0.0 0.0 
1.0 0.0 0.0 
1.0 0.0 0.0 
1.0 0.0 0.0 
1.0 0.0 0.0 
1.0 0.0 0.0 
1.0 0.0 0.0 
1.0 0.0 0.0 
1.0 0.0 0.0 
1.0 0.0 0.0 
1.0 0.0 0.0 
1.0 0.0 0.0 
1.0 0.0 0.0 
1.0 0.0 0.0 
1.0 0.0 0.0 
1.0 0.0 0.0 
1.0 0.0 0.0 
1.0 0.0 0.0 
1.0 0.0 0.0 
1.0 0.0 0.0 
1.0 0.0 0.0 
1.0 0.0 0.0 
1.0 0.0 0.0 
1.0 0.0 0.0 
1.0 0.0 0.0 
1.0 0.0 0.0 
1.0 0.0 0.0 
1.0 0.0 0.0 
1.0 0.0 0.0 
1.0 0.0 0.0 
1.0 0.0 0.0 
1.0 0.0 0.0 
1.0 0.0 0.0 
1.0 0.0 0.0 
1.0 0.0 0.0 
1.0 0.0 0.0 
0.0 1.0 0.0 
0.0 1.0 0.0 
0.0 1.0 0.0 
0.0 1.0 0.0 
0.0 1.0 0.0 
0.0 1.0 0.0 
0.0 1.0 0.0 
0.0 1.0 0.0 
0.0 1.0 0.0 
0.0 1.0 0.0 
0.0 1.0 0.0 
0.0 1.0 0.0 
0.0 1.0 0.0 
0.0 1.0 0.0 
0.0 1.0 0.0 
0.0 1.0 0.0 
0.0 1.0 0.0 
0.0 1.0 0.0 
0.0 1.0 0.0 
0.0 1.0 0.0 
0.0 1.0 0.0 
0.0 1.0 0.0 
0.0 1.0 0.0 
0.0 1.0 0.0 
0.0 1.0 0.0 
0.0 1.0 0.0 
0.0 1.0 0.0 
0.0 1.0 0.0 
0.0 1.0 0.0 
0.0 1.0 0.0 
0.0 1.0 0.0 
0.0 1.0 0.0 
0.0 1.0 0.0 
0.0 1.0 0.0 
0.0 1.0 0.0 
0.0 1.0 0.0 
0.0 1.0 0.0 
0.0 1.0 0.0 
0.0 1.0 0.0 
0.0 1.0 0.0 
0.0 1.0 0.0 
0.0 1.0 0.0 
0.0 1.0 0.0 
0.0 1.0 0.0 
0.0 1.0 0.0 
0.0 1.0 0.0 
0.0 1.0 0.0 
0.0 1.0 0.0 
0.0 1.0 0.0 
0.0 1.0 0.0 
0.0 0.0 1.0 
0.0 0.0 1.0 
0.0 0.0 1.0 
0.0 0.0 1.0 
0.0 0.0 1.0 
0.0 0.0 1.0 
0.0 0.0 1.0 
0.0 0.0 1.0 
0.0 0.0 1.0 
0.0 0.0 1.0 
0.0 0.0 1.0 
0.0 0.0 1.0 
0.0 0.0 1.0 
0.0 0.0 1.0 
0.0 0.0 1.0 
0.0 0.0 1.0 
0.0 0.0 1.0 
0.0 0.0 1.0 
0.0 0.0 1.0 
0.0 0.0 1.0 
0.0 0.0 1.0 
0.0 0.0 1.0 
0.0 0.0 1.0 
0.0 0.0 1.0 
0.0 0.0 1.0 
0.0 0.0 1.0 
0.0 0.0 1.0 
0.0 0.0 1.0 
0.0 0.0 1.0 
0.0 0.0 1.0 
0.0 0.0 1.0 
0.0 0.0 1.0 
0.0 0.0 1.0 
0.0 0.0 1.0 
0.0 0.0 1.0 
0.0 0.0 1.0 
0.0 0.0 1.0 
0.0 0.0 1.0 
0.0 0.0 1.0 
0.0 0.0 1.0 
0.0 0.0 1.0 
0.0 0.0 1.0 
0.0 0.0 1.0 
0.0 0.0 1.0 
0.0 0.0 1.0 
0.0 0.0 1.0 
0.0 0.0 1.0 
0.0 0.0 1.0 
0.0 0.0 1.0 
0.0 0.0 1.0 
Learning : 0.05
Momentum : 0.800000011920929
Epoch: 100, Error: 0.02885858970309729
Epoch: 200, Error: 0.017914482986335033
Epoch: 300, Error: 0.015525814237734548
Epoch: 400, Error: 0.014542213664541937
Epoch: 500, Error: 0.013681689813574363
Epoch: 600, Error: 0.01351757526145577
Epoch: 700, Error: 0.012941850358270411
Epoch: 800, Error: 0.012848605379697354
Epoch: 900, Error: 0.012581805242821922
Epoch: 1000, Error: 0.012647208059391832
Epoch: 1100, Error: 0.012361500723961727
Epoch: 1200, Error: 0.012274515623786742
Epoch: 1300, Error: 0.012431991438974017
Epoch: 1400, Error: 0.012164327004522774
Epoch: 1500, Error: 0.012089551820891652
Epoch: 1600, Error: 0.01212148191028026
Epoch: 1700, Error: 0.01220479739612932
Epoch: 1800, Error: 0.01201635917992406
Epoch: 1900, Error: 0.01202662110329353
Epoch: 2000, Error: 0.01193637490323662
Epoch: 2100, Error: 0.012002708732261457
Epoch: 2200, Error: 0.011953536590248432
Epoch: 2300, Error: 0.011928293632484713
Epoch: 2400, Error: 0.012084646137323978
Epoch: 2500, Error: 0.011988946513049983
Epoch: 2600, Error: 0.011936923361754606
Epoch: 2700, Error: 0.011983737958435372
Epoch: 2800, Error: 0.012119332442987133
Epoch: 2900, Error: 0.011993584979491961
Epoch: 3000, Error: 0.012072538558401444
Epoch: 3100, Error: 0.011943747029076753
Epoch: 3200, Error: 0.012097993483732479
Epoch: 3300, Error: 0.011895879856170778
Epoch: 3400, Error: 0.011875054447296026
Epoch: 3500, Error: 0.011979780733020291
Epoch: 3600, Error: 0.011864583724498655
Epoch: 3700, Error: 0.011900742649152795
Epoch: 3800, Error: 0.011864817463501978
Epoch: 3900, Error: 0.011843114146790828
Epoch: 4000, Error: 0.012025539823359714
Epoch: 4100, Error: 0.011854875601524779
Epoch: 4200, Error: 0.011839731742297958
Epoch: 4300, Error: 0.012237317830484012
Epoch: 4400, Error: 0.011873136835998556
Epoch: 4500, Error: 0.011861672070489231
Epoch: 4600, Error: 0.011823912808402861
Epoch: 4700, Error: 0.011908770775173385
Epoch: 4800, Error: 0.011885045186128124
Epoch: 4900, Error: 0.011854520629289421
Epoch: 5000, Error: 0.011875637235686737
Epoch: 5100, Error: 0.01183595440909819
Epoch: 5200, Error: 0.011879770581453283
Epoch: 5300, Error: 0.011825726474139334
Epoch: 5400, Error: 0.011836069629519035
Epoch: 5500, Error: 0.011817697390075816
Epoch: 5600, Error: 0.011845962606855762
Epoch: 5700, Error: 0.011820057076896937
Epoch: 5800, Error: 0.011800194799136238
Epoch: 5900, Error: 0.011864491109285363
Epoch: 6000, Error: 0.01175144797275942
Epoch: 6100, Error: 0.011794525052368637
Epoch: 6200, Error: 0.011762939920295788
Epoch: 6300, Error: 0.011715414052042105
Epoch: 6400, Error: 0.011767036647615189
Epoch: 6500, Error: 0.011765792442793889
Epoch: 6600, Error: 0.011706238773058817
Epoch: 6700, Error: 0.011767063618092185
Epoch: 6800, Error: 0.011757866688594769
Epoch: 6900, Error: 0.011875015570562635
Epoch: 7000, Error: 0.011776769272257891
Epoch: 7100, Error: 0.011791785633731199
Epoch: 7200, Error: 0.011678913322600086
Epoch: 7300, Error: 0.011679850701193624
Epoch: 7400, Error: 0.011749678439750168
Epoch: 7500, Error: 0.01166916048624285
Epoch: 7600, Error: 0.011662527457805993
Epoch: 7700, Error: 0.011636245765249147
Epoch: 7800, Error: 0.011711551142655258
Epoch: 7900, Error: 0.011624676677757009
Epoch: 8000, Error: 0.011697266858373688
Epoch: 8100, Error: 0.011611212139727968
Epoch: 8200, Error: 0.011617458982469091
Epoch: 8300, Error: 0.011573032195981417
Epoch: 8400, Error: 0.01163637536393552
Epoch: 8500, Error: 0.011577459568054456
Epoch: 8600, Error: 0.011514490717022338
Epoch: 8700, Error: 0.01158060369976092
Epoch: 8800, Error: 0.011610259672262306
Epoch: 8900, Error: 0.011441748018170262
Epoch: 9000, Error: 0.011553250782971468
Epoch: 9100, Error: 0.011450531550442653
Epoch: 9200, Error: 0.011409654752161926
Epoch: 9300, Error: 0.011433472746592899
Epoch: 9400, Error: 0.01144483265043698
Epoch: 9500, Error: 0.011323902007080496
Epoch: 9600, Error: 0.011280633906188536
Epoch: 9700, Error: 0.011259398158893142
Epoch: 9800, Error: 0.011183109128707335
Epoch: 9900, Error: 0.01120774113982914
Epoch: 10000, Error: 0.011176010694975034
Epoch: 10100, Error: 0.011133129467257339
Epoch: 10200, Error: 0.011120700862339055
Epoch: 10300, Error: 0.011077111063643726
Epoch: 10400, Error: 0.011108937930960709
Epoch: 10500, Error: 0.011026688706591677
Epoch: 10600, Error: 0.010870604576230496
Epoch: 10700, Error: 0.010831088708734294
Epoch: 10800, Error: 0.010757259052793478
Epoch: 10900, Error: 0.010688388984232803
Epoch: 11000, Error: 0.010613574587953742
Epoch: 11100, Error: 0.01060682379299174
Epoch: 11200, Error: 0.010494109954423198
Epoch: 11300, Error: 0.010370287244504518
Epoch: 11400, Error: 0.010304943170314832
Epoch: 11500, Error: 0.01022669978886768
Epoch: 11600, Error: 0.0101643949180636
Epoch: 11700, Error: 0.010070490701556184
Epoch: 11800, Error: 0.010005328089843453
Epoch: 11900, Error: 0.010093558380654247
Epoch: 12000, Error: 0.009818863581805348
Epoch: 12100, Error: 0.009706258797236385
Epoch: 12200, Error: 0.009749607925712504
Epoch: 12300, Error: 0.009582820967684638
Epoch: 12400, Error: 0.00948792784994673
Epoch: 12500, Error: 0.009310552814822891
Epoch: 12600, Error: 0.009222470033345913
Epoch: 12700, Error: 0.009212740131068434
Epoch: 12800, Error: 0.00903249792767177
Epoch: 12900, Error: 0.009013666430076481
Epoch: 13000, Error: 0.0088803138316512
Epoch: 13100, Error: 0.008813004232736737
Epoch: 13200, Error: 0.008720797229281065
Epoch: 13300, Error: 0.008607164811601233
Epoch: 13400, Error: 0.008512419837057634
Epoch: 13500, Error: 0.008483630055053431
Epoch: 13600, Error: 0.008408167819088787
Epoch: 13700, Error: 0.008272924462292214
Epoch: 13800, Error: 0.008272716014145602
Epoch: 13900, Error: 0.00816399696332017
Epoch: 14000, Error: 0.008067848030853876
Epoch: 14100, Error: 0.008019215468836605
Epoch: 14200, Error: 0.007993191612456518
Epoch: 14300, Error: 0.007898478581421262
Epoch: 14400, Error: 0.007854779931483435
Epoch: 14500, Error: 0.007847318328242897
Epoch: 14600, Error: 0.007795744739691762
Epoch: 14700, Error: 0.007740691163536644
Epoch: 14800, Error: 0.007696237287170181
Epoch: 14900, Error: 0.007648128179051004
Epoch: 15000, Error: 0.007599431335828001
Epoch: 15100, Error: 0.007605125895691435
Epoch: 15200, Error: 0.00751353997919811
Epoch: 15300, Error: 0.007446324208263047
Epoch: 15400, Error: 0.007462727334756918
Epoch: 15500, Error: 0.007374719972561878
Epoch: 15600, Error: 0.007381279510708338
Epoch: 15700, Error: 0.0073376080031602965
Epoch: 15800, Error: 0.007305051315715144
Epoch: 15900, Error: 0.007250762935299015
Epoch: 16000, Error: 0.007205882313434957
Epoch: 16100, Error: 0.007145037170155529
Epoch: 16200, Error: 0.007162856425414642
Epoch: 16300, Error: 0.007053348961813738
Epoch: 16400, Error: 0.0070159644205250475
Epoch: 16500, Error: 0.00696738199303019
Epoch: 16600, Error: 0.006942626559562127
Epoch: 16700, Error: 0.006955581410333356
Epoch: 16800, Error: 0.00685976264204827
Epoch: 16900, Error: 0.006809741698160079
Epoch: 17000, Error: 0.006790645868466065
Epoch: 17100, Error: 0.006728509589815209
Epoch: 17200, Error: 0.006703287758564152
Epoch: 17300, Error: 0.006646366472004538
Epoch: 17400, Error: 0.006614846850044003
Epoch: 17500, Error: 0.006586029996335096
Epoch: 17600, Error: 0.006558521564292081
Epoch: 17700, Error: 0.0065168319404860075
Epoch: 17800, Error: 0.006493746839127393
Epoch: 17900, Error: 0.006463883088738895
Epoch: 18000, Error: 0.006472531003139578
Epoch: 18100, Error: 0.006412934713524021
Epoch: 18200, Error: 0.006397539633463656
Epoch: 18300, Error: 0.0063764158296399105
Epoch: 18400, Error: 0.006373054775219725
Epoch: 18500, Error: 0.006323343072632333
Epoch: 18600, Error: 0.00635311238133411
Epoch: 18700, Error: 0.0062801950732570945
Epoch: 18800, Error: 0.006241158787054517
Epoch: 18900, Error: 0.006216777217056462
Epoch: 19000, Error: 0.006181493584692325
Epoch: 19100, Error: 0.006148836041385125
Epoch: 19200, Error: 0.006133319697559587
Epoch: 19300, Error: 0.006106212307193585
Epoch: 19400, Error: 0.006083259947650598
Epoch: 19500, Error: 0.006061105419085268
Epoch: 19600, Error: 0.00604644074356049
Epoch: 19700, Error: 0.0060267322764855505
Epoch: 19800, Error: 0.006023473799531157
Epoch: 19900, Error: 0.006019368626323161
Epoch: 20000, Error: 0.005968518272562297
Epoch: 20100, Error: 0.005946728776770822
Epoch: 20200, Error: 0.0059441187899992405
Epoch: 20300, Error: 0.005913048849857907
Epoch: 20400, Error: 0.00589490819036606
Epoch: 20500, Error: 0.005883808722520015
Epoch: 20600, Error: 0.005889952199690334
Epoch: 20700, Error: 0.005846726604694989
Epoch: 20800, Error: 0.005892902709761434
Epoch: 20900, Error: 0.005825596221408928
Epoch: 21000, Error: 0.005804121833445934
Epoch: 21100, Error: 0.005789017987878431
Epoch: 21200, Error: 0.005782491593386097
Epoch: 21300, Error: 0.005776524446268697
Epoch: 21400, Error: 0.005753972354234955
Epoch: 21500, Error: 0.00574263747430592
Epoch: 21600, Error: 0.005732413127836498
Epoch: 21700, Error: 0.005731699142738165
Epoch: 21800, Error: 0.00571602223694119
Epoch: 21900, Error: 0.005709469926708417
Epoch: 22000, Error: 0.00570036052433703
Epoch: 22100, Error: 0.005713685931209096
Epoch: 22200, Error: 0.005686316778451777
Epoch: 22300, Error: 0.005675587038995454
Epoch: 22400, Error: 0.005675304206688917
Epoch: 22500, Error: 0.005662194696023372
