Input Patterns
0.224 0.624 0.067 0.043 
0.11 0.502 0.051 0.043 
0.196 0.667 0.067 0.043 
0.055 0.584 0.067 0.082 
0.027 0.376 0.067 0.043 
0.306 0.71 0.086 0.043 
0.137 0.416 0.067 0.0 
0.416 0.831 0.035 0.043 
0.306 0.792 0.051 0.125 
0.388 0.749 0.118 0.082 
0.306 0.584 0.118 0.043 
0.082 0.667 0.0 0.043 
0.137 0.584 0.153 0.043 
0.196 0.584 0.102 0.125 
0.251 0.584 0.067 0.043 
0.137 0.459 0.102 0.043 
0.251 0.875 0.086 0.0 
0.165 0.459 0.086 0.043 
0.333 0.624 0.051 0.043 
0.027 0.416 0.051 0.043 
0.196 0.624 0.051 0.082 
0.027 0.502 0.051 0.043 
0.224 0.749 0.153 0.125 
0.224 0.749 0.102 0.043 
0.278 0.71 0.086 0.043 
0.165 0.416 0.067 0.043 
0.082 0.459 0.086 0.043 
0.306 0.792 0.118 0.125 
0.196 0.584 0.086 0.043 
0.165 0.459 0.086 0.0 
0.137 0.584 0.102 0.043 
0.0 0.416 0.016 0.0 
0.388 1.0 0.086 0.125 
0.224 0.624 0.067 0.082 
0.224 0.749 0.086 0.082 
0.224 0.71 0.086 0.125 
0.224 0.541 0.118 0.165 
0.196 0.416 0.102 0.043 
0.251 0.624 0.086 0.043 
0.11 0.502 0.102 0.043 
0.306 0.584 0.086 0.125 
0.333 0.918 0.067 0.043 
0.196 0.502 0.035 0.043 
0.165 0.667 0.067 0.0 
0.224 0.584 0.086 0.043 
0.055 0.125 0.051 0.082 
0.196 0.624 0.102 0.208 
0.137 0.416 0.067 0.082 
0.082 0.502 0.067 0.043 
0.196 0.541 0.067 0.043 
0.749 0.502 0.627 0.541 
0.722 0.459 0.663 0.584 
0.612 0.333 0.612 0.584 
0.557 0.541 0.627 0.624 
0.639 0.376 0.612 0.498 
0.196 0.0 0.424 0.376 
0.471 0.082 0.51 0.376 
0.361 0.376 0.439 0.498 
0.361 0.416 0.592 0.584 
0.529 0.082 0.592 0.584 
0.443 0.502 0.643 0.459 
0.557 0.208 0.663 0.584 
0.584 0.376 0.561 0.498 
0.694 0.333 0.643 0.541 
0.471 0.376 0.592 0.584 
0.333 0.169 0.475 0.416 
0.416 0.29 0.49 0.459 
0.306 0.416 0.592 0.584 
0.667 0.459 0.627 0.584 
0.361 0.416 0.525 0.498 
0.333 0.251 0.576 0.459 
0.416 0.251 0.51 0.459 
0.361 0.29 0.541 0.498 
0.388 0.376 0.541 0.498 
0.224 0.208 0.337 0.416 
0.584 0.502 0.592 0.584 
0.333 0.125 0.51 0.498 
0.388 0.333 0.592 0.498 
0.165 0.169 0.388 0.376 
0.251 0.29 0.49 0.541 
0.443 0.416 0.541 0.584 
0.498 0.376 0.627 0.541 
0.667 0.459 0.576 0.541 
0.416 0.29 0.525 0.376 
0.361 0.208 0.49 0.416 
0.498 0.333 0.51 0.498 
0.498 0.333 0.627 0.459 
0.639 0.416 0.576 0.541 
0.667 0.416 0.678 0.667 
0.388 0.251 0.424 0.376 
0.333 0.169 0.459 0.376 
0.471 0.29 0.694 0.624 
0.471 0.584 0.592 0.624 
0.557 0.125 0.576 0.498 
0.333 0.208 0.51 0.498 
0.498 0.416 0.612 0.541 
0.196 0.125 0.388 0.376 
0.388 0.416 0.541 0.459 
0.529 0.376 0.561 0.498 
0.388 0.333 0.525 0.498 
0.557 0.541 0.847 1.0 
0.776 0.416 0.831 0.831 
0.612 0.416 0.812 0.875 
0.165 0.208 0.592 0.667 
0.667 0.208 0.812 0.71 
0.612 0.502 0.694 0.792 
0.694 0.416 0.761 0.831 
0.416 0.333 0.694 0.957 
0.612 0.416 0.761 0.71 
0.945 0.251 1.0 0.918 
0.722 0.502 0.796 0.918 
0.945 0.333 0.965 0.792 
0.667 0.541 0.796 0.831 
0.529 0.333 0.643 0.71 
0.584 0.333 0.78 0.831 
0.863 0.333 0.863 0.749 
0.584 0.333 0.78 0.875 
0.498 0.251 0.78 0.541 
0.557 0.584 0.78 0.957 
0.471 0.416 0.643 0.71 
0.667 0.459 0.78 0.957 
0.416 0.29 0.694 0.749 
0.667 0.541 0.796 1.0 
0.557 0.208 0.678 0.749 
0.529 0.584 0.745 0.918 
0.416 0.29 0.694 0.749 
0.557 0.376 0.78 0.71 
0.918 0.416 0.949 0.831 
0.835 0.376 0.898 0.71 
0.804 0.667 0.863 1.0 
0.584 0.29 0.729 0.749 
0.388 0.208 0.678 0.792 
0.584 0.502 0.729 0.918 
0.945 0.749 0.965 0.875 
0.471 0.082 0.678 0.584 
0.361 0.333 0.663 0.792 
0.557 0.29 0.663 0.71 
0.804 0.502 0.847 0.71 
0.498 0.416 0.51 0.71 
0.804 0.416 0.812 0.624 
1.0 0.749 0.914 0.792 
0.557 0.333 0.694 0.584 
0.945 0.416 0.863 0.918 
0.584 0.459 0.761 0.71 
0.722 0.459 0.745 0.831 
0.722 0.459 0.694 0.918 
0.694 0.502 0.831 0.918 
0.667 0.416 0.714 0.918 
0.612 0.416 0.714 0.792 
0.443 0.416 0.694 0.71 
Teaching Patterns
1.0 0.0 0.0 
1.0 0.0 0.0 
1.0 0.0 0.0 
1.0 0.0 0.0 
1.0 0.0 0.0 
1.0 0.0 0.0 
1.0 0.0 0.0 
1.0 0.0 0.0 
1.0 0.0 0.0 
1.0 0.0 0.0 
1.0 0.0 0.0 
1.0 0.0 0.0 
1.0 0.0 0.0 
1.0 0.0 0.0 
1.0 0.0 0.0 
1.0 0.0 0.0 
1.0 0.0 0.0 
1.0 0.0 0.0 
1.0 0.0 0.0 
1.0 0.0 0.0 
1.0 0.0 0.0 
1.0 0.0 0.0 
1.0 0.0 0.0 
1.0 0.0 0.0 
1.0 0.0 0.0 
1.0 0.0 0.0 
1.0 0.0 0.0 
1.0 0.0 0.0 
1.0 0.0 0.0 
1.0 0.0 0.0 
1.0 0.0 0.0 
1.0 0.0 0.0 
1.0 0.0 0.0 
1.0 0.0 0.0 
1.0 0.0 0.0 
1.0 0.0 0.0 
1.0 0.0 0.0 
1.0 0.0 0.0 
1.0 0.0 0.0 
1.0 0.0 0.0 
1.0 0.0 0.0 
1.0 0.0 0.0 
1.0 0.0 0.0 
1.0 0.0 0.0 
1.0 0.0 0.0 
1.0 0.0 0.0 
1.0 0.0 0.0 
1.0 0.0 0.0 
1.0 0.0 0.0 
1.0 0.0 0.0 
0.0 1.0 0.0 
0.0 1.0 0.0 
0.0 1.0 0.0 
0.0 1.0 0.0 
0.0 1.0 0.0 
0.0 1.0 0.0 
0.0 1.0 0.0 
0.0 1.0 0.0 
0.0 1.0 0.0 
0.0 1.0 0.0 
0.0 1.0 0.0 
0.0 1.0 0.0 
0.0 1.0 0.0 
0.0 1.0 0.0 
0.0 1.0 0.0 
0.0 1.0 0.0 
0.0 1.0 0.0 
0.0 1.0 0.0 
0.0 1.0 0.0 
0.0 1.0 0.0 
0.0 1.0 0.0 
0.0 1.0 0.0 
0.0 1.0 0.0 
0.0 1.0 0.0 
0.0 1.0 0.0 
0.0 1.0 0.0 
0.0 1.0 0.0 
0.0 1.0 0.0 
0.0 1.0 0.0 
0.0 1.0 0.0 
0.0 1.0 0.0 
0.0 1.0 0.0 
0.0 1.0 0.0 
0.0 1.0 0.0 
0.0 1.0 0.0 
0.0 1.0 0.0 
0.0 1.0 0.0 
0.0 1.0 0.0 
0.0 1.0 0.0 
0.0 1.0 0.0 
0.0 1.0 0.0 
0.0 1.0 0.0 
0.0 1.0 0.0 
0.0 1.0 0.0 
0.0 1.0 0.0 
0.0 1.0 0.0 
0.0 1.0 0.0 
0.0 1.0 0.0 
0.0 1.0 0.0 
0.0 1.0 0.0 
0.0 0.0 1.0 
0.0 0.0 1.0 
0.0 0.0 1.0 
0.0 0.0 1.0 
0.0 0.0 1.0 
0.0 0.0 1.0 
0.0 0.0 1.0 
0.0 0.0 1.0 
0.0 0.0 1.0 
0.0 0.0 1.0 
0.0 0.0 1.0 
0.0 0.0 1.0 
0.0 0.0 1.0 
0.0 0.0 1.0 
0.0 0.0 1.0 
0.0 0.0 1.0 
0.0 0.0 1.0 
0.0 0.0 1.0 
0.0 0.0 1.0 
0.0 0.0 1.0 
0.0 0.0 1.0 
0.0 0.0 1.0 
0.0 0.0 1.0 
0.0 0.0 1.0 
0.0 0.0 1.0 
0.0 0.0 1.0 
0.0 0.0 1.0 
0.0 0.0 1.0 
0.0 0.0 1.0 
0.0 0.0 1.0 
0.0 0.0 1.0 
0.0 0.0 1.0 
0.0 0.0 1.0 
0.0 0.0 1.0 
0.0 0.0 1.0 
0.0 0.0 1.0 
0.0 0.0 1.0 
0.0 0.0 1.0 
0.0 0.0 1.0 
0.0 0.0 1.0 
0.0 0.0 1.0 
0.0 0.0 1.0 
0.0 0.0 1.0 
0.0 0.0 1.0 
0.0 0.0 1.0 
0.0 0.0 1.0 
0.0 0.0 1.0 
0.0 0.0 1.0 
0.0 0.0 1.0 
0.0 0.0 1.0 
Learning : 0.8500000238418579
Momentum : 0.9
Epoch: 100, Error: 0.045506140827358384
Epoch: 200, Error: 0.012708036601873111
Epoch: 300, Error: 0.017162138096286396
Epoch: 400, Error: 0.012996768249241368
Epoch: 500, Error: 0.012397135863197057
Epoch: 600, Error: 0.012894081240362001
Epoch: 700, Error: 0.01264551707197347
Epoch: 800, Error: 0.012482453265071709
Epoch: 900, Error: 0.012478282708471884
Epoch: 1000, Error: 0.01286725156628365
Epoch: 1100, Error: 0.013419605373148985
Epoch: 1200, Error: 0.012688783462803364
Epoch: 1300, Error: 0.012751544874160727
Epoch: 1400, Error: 0.012780874232817818
Epoch: 1500, Error: 0.012360055264799106
Epoch: 1600, Error: 0.012411296268325014
Epoch: 1700, Error: 0.012183607115221557
Epoch: 1800, Error: 0.011953834255153294
Epoch: 1900, Error: 0.012755497436253887
Epoch: 2000, Error: 0.011669718698814733
Epoch: 2100, Error: 0.011876838006535188
Epoch: 2200, Error: 0.011590422968855905
Epoch: 2300, Error: 0.01153851197556143
Epoch: 2400, Error: 0.011480402662944601
Epoch: 2500, Error: 0.011483761547115376
Epoch: 2600, Error: 0.011151914267823205
Epoch: 2700, Error: 0.009802795245368054
Epoch: 2800, Error: 0.008597428323097992
Epoch: 2900, Error: 0.008529475277823747
Epoch: 3000, Error: 0.007875668356804245
Epoch: 3100, Error: 0.008416506079012545
Epoch: 3200, Error: 0.008275602415881015
Epoch: 3300, Error: 0.006196310098957625
Epoch: 3400, Error: 0.0059340424684823645
Epoch: 3500, Error: 0.00570493112303261
Epoch: 3600, Error: 0.005639036566824682
Epoch: 3700, Error: 0.0055600774522109936
Epoch: 3800, Error: 0.005540113197043152
Epoch: 3900, Error: 0.00550367094225307
Epoch: 4000, Error: 0.00549575838129735
Epoch: 4100, Error: 0.005495352418737382
Epoch: 4200, Error: 0.005489026862956383
Epoch: 4300, Error: 0.005469947047933115
Epoch: 4400, Error: 0.005471777118829841
Epoch: 4500, Error: 0.005484984786067316
Epoch: 4600, Error: 0.005464814466816719
Epoch: 4700, Error: 0.005466248006379125
Epoch: 4800, Error: 0.005471731698519415
Epoch: 4900, Error: 0.005476016828879343
Epoch: 5000, Error: 0.00543242244780928
Epoch: 5100, Error: 0.005432958818375995
Epoch: 5200, Error: 0.0054218412612938435
Epoch: 5300, Error: 0.005428805816073957
Epoch: 5400, Error: 0.005453238723717732
Epoch: 5500, Error: 0.0054303722551971
Epoch: 5600, Error: 0.005449313016230827
Epoch: 5700, Error: 0.005452926984260184
Epoch: 5800, Error: 0.005528866773885283
Epoch: 5900, Error: 0.005452403416304695
Epoch: 6000, Error: 0.005521066623809988
Epoch: 6100, Error: 0.005533427302336838
Epoch: 6200, Error: 0.005650244607491185
Epoch: 6300, Error: 0.0055385027621917046
Epoch: 6400, Error: 0.005561459310943043
Epoch: 6500, Error: 0.005532106237710168
Epoch: 6600, Error: 0.005586173002765002
Epoch: 6700, Error: 0.005607219371879219
Epoch: 6800, Error: 0.0054536854208140076
Epoch: 6900, Error: 0.005517504142762527
Epoch: 7000, Error: 0.005511112512770409
Epoch: 7100, Error: 0.005486278933970487
Epoch: 7200, Error: 0.005533417932620539
Epoch: 7300, Error: 0.005491355140081409
Epoch: 7400, Error: 0.005502802830479684
Epoch: 7500, Error: 0.0054577459394335925
Epoch: 7600, Error: 0.0054333170488640005
Epoch: 7700, Error: 0.005561612439474748
Epoch: 7800, Error: 0.005428518106384461
Epoch: 7900, Error: 0.005383843070380914
Epoch: 8000, Error: 0.005229835069837805
Epoch: 8100, Error: 0.005335628126114604
Epoch: 8200, Error: 0.005319161009335507
Epoch: 8300, Error: 0.005100932616199277
Epoch: 8400, Error: 0.005264539075200888
Epoch: 8500, Error: 0.0048623253754461575
Epoch: 8600, Error: 0.004698870382963249
Epoch: 8700, Error: 0.004520326473765737
Epoch: 8800, Error: 0.004769444568157329
Epoch: 8900, Error: 0.004681988717945475
Epoch: 9000, Error: 0.004522427345436275
Epoch: 9100, Error: 0.004628965624565328
Epoch: 9200, Error: 0.004301119726679735
Epoch: 9300, Error: 0.004203429410097852
Epoch: 9400, Error: 0.003261296452464647
Epoch: 9500, Error: 0.005096198622099605
Epoch: 9600, Error: 0.00460417864273473
Epoch: 9700, Error: 0.003539523348464018
Epoch: 9800, Error: 0.003856440942949344
Epoch: 9900, Error: 0.003911656476837893
Epoch: 10000, Error: 0.002431870645215332
Epoch: 10100, Error: 0.0033059064821348047
Epoch: 10200, Error: 0.004222352321024524
Epoch: 10300, Error: 0.0019963851270832253
Epoch: 10400, Error: 0.006679183406237474
Epoch: 10500, Error: 0.0042579471522497135
Epoch: 10600, Error: 0.0018343624419086063
Epoch: 10700, Error: 0.003021343176187862
Epoch: 10800, Error: 0.0031329396468651976
Epoch: 10900, Error: 0.0016348586384495182
Epoch: 11000, Error: 0.0018686015903484233
Epoch: 11100, Error: 0.003912625336659235
Epoch: 11200, Error: 0.0033479596102076767
Epoch: 11300, Error: 0.003844704963132498
Epoch: 11400, Error: 0.002715180464515078
Epoch: 11500, Error: 0.0011669422540533806
Epoch: 11600, Error: 0.0012554689892273338
Epoch: 11700, Error: 0.001215249972428772
Epoch: 11800, Error: 0.001271949128803975
Epoch: 11900, Error: 0.00118230564799694
Epoch: 12000, Error: 0.001175637757532409
Epoch: 12100, Error: 0.0011569576709828473
Epoch: 12200, Error: 0.0010629386526013072
Epoch: 12300, Error: 0.0010507848574939516
Epoch: 12400, Error: 9.84473664222802E-4
Epoch: 12500, Error: 9.743944898010625E-4
Epoch: 12600, Error: 9.168551088300951E-4
Epoch: 12700, Error: 9.005811987118297E-4
Epoch: 12800, Error: 9.279033679324483E-4
Epoch: 12900, Error: 9.674002849635088E-4
Epoch: 13000, Error: 9.85246696802961E-4
Epoch: 13100, Error: 9.585755326746709E-4
Epoch: 13200, Error: 9.123712517316259E-4
Epoch: 13300, Error: 8.807610780921155E-4
Epoch: 13400, Error: 8.60213343819324E-4
Epoch: 13500, Error: 8.659368539982287E-4
Epoch: 13600, Error: 8.558344806576846E-4
Epoch: 13700, Error: 8.629463014043498E-4
Epoch: 13800, Error: 8.576067416255363E-4
Epoch: 13900, Error: 8.589434814420549E-4
Epoch: 14000, Error: 8.49093158776798E-4
Epoch: 14100, Error: 8.460999257723335E-4
Epoch: 14200, Error: 8.394810567393492E-4
Finished
