Input Patterns
0.224 0.624 0.067 0.043 
0.11 0.502 0.051 0.043 
0.196 0.667 0.067 0.043 
0.055 0.584 0.067 0.082 
0.027 0.376 0.067 0.043 
0.306 0.71 0.086 0.043 
0.137 0.416 0.067 0.0 
0.416 0.831 0.035 0.043 
0.306 0.792 0.051 0.125 
0.388 0.749 0.118 0.082 
0.306 0.584 0.118 0.043 
0.082 0.667 0.0 0.043 
0.137 0.584 0.153 0.043 
0.196 0.584 0.102 0.125 
0.251 0.584 0.067 0.043 
0.137 0.459 0.102 0.043 
0.251 0.875 0.086 0.0 
0.165 0.459 0.086 0.043 
0.333 0.624 0.051 0.043 
0.027 0.416 0.051 0.043 
0.196 0.624 0.051 0.082 
0.027 0.502 0.051 0.043 
0.224 0.749 0.153 0.125 
0.224 0.749 0.102 0.043 
0.278 0.71 0.086 0.043 
0.165 0.416 0.067 0.043 
0.082 0.459 0.086 0.043 
0.306 0.792 0.118 0.125 
0.196 0.584 0.086 0.043 
0.165 0.459 0.086 0.0 
0.137 0.584 0.102 0.043 
0.0 0.416 0.016 0.0 
0.388 1.0 0.086 0.125 
0.224 0.624 0.067 0.082 
0.224 0.749 0.086 0.082 
0.224 0.71 0.086 0.125 
0.224 0.541 0.118 0.165 
0.196 0.416 0.102 0.043 
0.251 0.624 0.086 0.043 
0.11 0.502 0.102 0.043 
0.306 0.584 0.086 0.125 
0.333 0.918 0.067 0.043 
0.196 0.502 0.035 0.043 
0.165 0.667 0.067 0.0 
0.224 0.584 0.086 0.043 
0.055 0.125 0.051 0.082 
0.196 0.624 0.102 0.208 
0.137 0.416 0.067 0.082 
0.082 0.502 0.067 0.043 
0.196 0.541 0.067 0.043 
0.749 0.502 0.627 0.541 
0.722 0.459 0.663 0.584 
0.612 0.333 0.612 0.584 
0.557 0.541 0.627 0.624 
0.639 0.376 0.612 0.498 
0.196 0.0 0.424 0.376 
0.471 0.082 0.51 0.376 
0.361 0.376 0.439 0.498 
0.361 0.416 0.592 0.584 
0.529 0.082 0.592 0.584 
0.443 0.502 0.643 0.459 
0.557 0.208 0.663 0.584 
0.584 0.376 0.561 0.498 
0.694 0.333 0.643 0.541 
0.471 0.376 0.592 0.584 
0.333 0.169 0.475 0.416 
0.416 0.29 0.49 0.459 
0.306 0.416 0.592 0.584 
0.667 0.459 0.627 0.584 
0.361 0.416 0.525 0.498 
0.333 0.251 0.576 0.459 
0.416 0.251 0.51 0.459 
0.361 0.29 0.541 0.498 
0.388 0.376 0.541 0.498 
0.224 0.208 0.337 0.416 
0.584 0.502 0.592 0.584 
0.333 0.125 0.51 0.498 
0.388 0.333 0.592 0.498 
0.165 0.169 0.388 0.376 
0.251 0.29 0.49 0.541 
0.443 0.416 0.541 0.584 
0.498 0.376 0.627 0.541 
0.667 0.459 0.576 0.541 
0.416 0.29 0.525 0.376 
0.361 0.208 0.49 0.416 
0.498 0.333 0.51 0.498 
0.498 0.333 0.627 0.459 
0.639 0.416 0.576 0.541 
0.667 0.416 0.678 0.667 
0.388 0.251 0.424 0.376 
0.333 0.169 0.459 0.376 
0.471 0.29 0.694 0.624 
0.471 0.584 0.592 0.624 
0.557 0.125 0.576 0.498 
0.333 0.208 0.51 0.498 
0.498 0.416 0.612 0.541 
0.196 0.125 0.388 0.376 
0.388 0.416 0.541 0.459 
0.529 0.376 0.561 0.498 
0.388 0.333 0.525 0.498 
0.557 0.541 0.847 1.0 
0.776 0.416 0.831 0.831 
0.612 0.416 0.812 0.875 
0.165 0.208 0.592 0.667 
0.667 0.208 0.812 0.71 
0.612 0.502 0.694 0.792 
0.694 0.416 0.761 0.831 
0.416 0.333 0.694 0.957 
0.612 0.416 0.761 0.71 
0.945 0.251 1.0 0.918 
0.722 0.502 0.796 0.918 
0.945 0.333 0.965 0.792 
0.667 0.541 0.796 0.831 
0.529 0.333 0.643 0.71 
0.584 0.333 0.78 0.831 
0.863 0.333 0.863 0.749 
0.584 0.333 0.78 0.875 
0.498 0.251 0.78 0.541 
0.557 0.584 0.78 0.957 
0.471 0.416 0.643 0.71 
0.667 0.459 0.78 0.957 
0.416 0.29 0.694 0.749 
0.667 0.541 0.796 1.0 
0.557 0.208 0.678 0.749 
0.529 0.584 0.745 0.918 
0.416 0.29 0.694 0.749 
0.557 0.376 0.78 0.71 
0.918 0.416 0.949 0.831 
0.835 0.376 0.898 0.71 
0.804 0.667 0.863 1.0 
0.584 0.29 0.729 0.749 
0.388 0.208 0.678 0.792 
0.584 0.502 0.729 0.918 
0.945 0.749 0.965 0.875 
0.471 0.082 0.678 0.584 
0.361 0.333 0.663 0.792 
0.557 0.29 0.663 0.71 
0.804 0.502 0.847 0.71 
0.498 0.416 0.51 0.71 
0.804 0.416 0.812 0.624 
1.0 0.749 0.914 0.792 
0.557 0.333 0.694 0.584 
0.945 0.416 0.863 0.918 
0.584 0.459 0.761 0.71 
0.722 0.459 0.745 0.831 
0.722 0.459 0.694 0.918 
0.694 0.502 0.831 0.918 
0.667 0.416 0.714 0.918 
0.612 0.416 0.714 0.792 
0.443 0.416 0.694 0.71 
Teaching Patterns
1.0 0.0 0.0 
1.0 0.0 0.0 
1.0 0.0 0.0 
1.0 0.0 0.0 
1.0 0.0 0.0 
1.0 0.0 0.0 
1.0 0.0 0.0 
1.0 0.0 0.0 
1.0 0.0 0.0 
1.0 0.0 0.0 
1.0 0.0 0.0 
1.0 0.0 0.0 
1.0 0.0 0.0 
1.0 0.0 0.0 
1.0 0.0 0.0 
1.0 0.0 0.0 
1.0 0.0 0.0 
1.0 0.0 0.0 
1.0 0.0 0.0 
1.0 0.0 0.0 
1.0 0.0 0.0 
1.0 0.0 0.0 
1.0 0.0 0.0 
1.0 0.0 0.0 
1.0 0.0 0.0 
1.0 0.0 0.0 
1.0 0.0 0.0 
1.0 0.0 0.0 
1.0 0.0 0.0 
1.0 0.0 0.0 
1.0 0.0 0.0 
1.0 0.0 0.0 
1.0 0.0 0.0 
1.0 0.0 0.0 
1.0 0.0 0.0 
1.0 0.0 0.0 
1.0 0.0 0.0 
1.0 0.0 0.0 
1.0 0.0 0.0 
1.0 0.0 0.0 
1.0 0.0 0.0 
1.0 0.0 0.0 
1.0 0.0 0.0 
1.0 0.0 0.0 
1.0 0.0 0.0 
1.0 0.0 0.0 
1.0 0.0 0.0 
1.0 0.0 0.0 
1.0 0.0 0.0 
1.0 0.0 0.0 
0.0 1.0 0.0 
0.0 1.0 0.0 
0.0 1.0 0.0 
0.0 1.0 0.0 
0.0 1.0 0.0 
0.0 1.0 0.0 
0.0 1.0 0.0 
0.0 1.0 0.0 
0.0 1.0 0.0 
0.0 1.0 0.0 
0.0 1.0 0.0 
0.0 1.0 0.0 
0.0 1.0 0.0 
0.0 1.0 0.0 
0.0 1.0 0.0 
0.0 1.0 0.0 
0.0 1.0 0.0 
0.0 1.0 0.0 
0.0 1.0 0.0 
0.0 1.0 0.0 
0.0 1.0 0.0 
0.0 1.0 0.0 
0.0 1.0 0.0 
0.0 1.0 0.0 
0.0 1.0 0.0 
0.0 1.0 0.0 
0.0 1.0 0.0 
0.0 1.0 0.0 
0.0 1.0 0.0 
0.0 1.0 0.0 
0.0 1.0 0.0 
0.0 1.0 0.0 
0.0 1.0 0.0 
0.0 1.0 0.0 
0.0 1.0 0.0 
0.0 1.0 0.0 
0.0 1.0 0.0 
0.0 1.0 0.0 
0.0 1.0 0.0 
0.0 1.0 0.0 
0.0 1.0 0.0 
0.0 1.0 0.0 
0.0 1.0 0.0 
0.0 1.0 0.0 
0.0 1.0 0.0 
0.0 1.0 0.0 
0.0 1.0 0.0 
0.0 1.0 0.0 
0.0 1.0 0.0 
0.0 1.0 0.0 
0.0 0.0 1.0 
0.0 0.0 1.0 
0.0 0.0 1.0 
0.0 0.0 1.0 
0.0 0.0 1.0 
0.0 0.0 1.0 
0.0 0.0 1.0 
0.0 0.0 1.0 
0.0 0.0 1.0 
0.0 0.0 1.0 
0.0 0.0 1.0 
0.0 0.0 1.0 
0.0 0.0 1.0 
0.0 0.0 1.0 
0.0 0.0 1.0 
0.0 0.0 1.0 
0.0 0.0 1.0 
0.0 0.0 1.0 
0.0 0.0 1.0 
0.0 0.0 1.0 
0.0 0.0 1.0 
0.0 0.0 1.0 
0.0 0.0 1.0 
0.0 0.0 1.0 
0.0 0.0 1.0 
0.0 0.0 1.0 
0.0 0.0 1.0 
0.0 0.0 1.0 
0.0 0.0 1.0 
0.0 0.0 1.0 
0.0 0.0 1.0 
0.0 0.0 1.0 
0.0 0.0 1.0 
0.0 0.0 1.0 
0.0 0.0 1.0 
0.0 0.0 1.0 
0.0 0.0 1.0 
0.0 0.0 1.0 
0.0 0.0 1.0 
0.0 0.0 1.0 
0.0 0.0 1.0 
0.0 0.0 1.0 
0.0 0.0 1.0 
0.0 0.0 1.0 
0.0 0.0 1.0 
0.0 0.0 1.0 
0.0 0.0 1.0 
0.0 0.0 1.0 
0.0 0.0 1.0 
0.0 0.0 1.0 
Learning : 0.8500000238418579
Momentum : 0.9
Epoch: 100, Error: 0.016836562239980975
Epoch: 200, Error: 0.014970720358640208
Epoch: 300, Error: 0.012284370644092176
Epoch: 400, Error: 0.012928471851158333
Epoch: 500, Error: 0.012617595189455284
Epoch: 600, Error: 0.013175715920457283
Epoch: 700, Error: 0.01256266673555156
Epoch: 800, Error: 0.012658550374756614
Epoch: 900, Error: 0.012665561552838442
Epoch: 1000, Error: 0.01316647895241302
Epoch: 1100, Error: 0.012410993751660193
Epoch: 1200, Error: 0.012666565826394537
Epoch: 1300, Error: 0.012079998507049383
Epoch: 1400, Error: 0.013008315847831407
Epoch: 1500, Error: 0.01191370719104403
Epoch: 1600, Error: 0.011874747609719618
Epoch: 1700, Error: 0.01186361646048439
Epoch: 1800, Error: 0.011692928438714162
Epoch: 1900, Error: 0.012171187050568624
Epoch: 2000, Error: 0.011443555409999735
Epoch: 2100, Error: 0.011148056072382591
Epoch: 2200, Error: 0.010903614697689698
Epoch: 2300, Error: 0.009956888055041928
Epoch: 2400, Error: 0.008779310053432974
Epoch: 2500, Error: 0.008067698629052246
Epoch: 2600, Error: 0.007955676996624151
Epoch: 2700, Error: 0.00756233639941245
Epoch: 2800, Error: 0.007746504903128435
Epoch: 2900, Error: 0.007509346622869359
Epoch: 3000, Error: 0.007844091341625826
Epoch: 3100, Error: 0.011051593829623953
Epoch: 3200, Error: 0.00746735542513013
Epoch: 3300, Error: 0.007537670942484694
Epoch: 3400, Error: 0.006464638613795198
Epoch: 3500, Error: 0.005681491159602149
Epoch: 3600, Error: 0.0056535764006772045
Epoch: 3700, Error: 0.005614768649639672
Epoch: 3800, Error: 0.0054238851372347624
Epoch: 3900, Error: 0.005397364366828861
Epoch: 4000, Error: 0.005362680728037447
Epoch: 4100, Error: 0.005335547823656526
Epoch: 4200, Error: 0.005325831521028561
Epoch: 4300, Error: 0.0053281094555306
Epoch: 4400, Error: 0.00528037621923747
Epoch: 4500, Error: 0.005251195555729571
Epoch: 4600, Error: 0.005347220251205959
Epoch: 4700, Error: 0.005295471847384216
Epoch: 4800, Error: 0.005308117140930072
Epoch: 4900, Error: 0.0053188068613773745
Epoch: 5000, Error: 0.005323148831499865
Epoch: 5100, Error: 0.005342121878386242
Epoch: 5200, Error: 0.005364627124746009
Epoch: 5300, Error: 0.005425335137813422
Epoch: 5400, Error: 0.005322173856842596
Epoch: 5500, Error: 0.005359213346847903
Epoch: 5600, Error: 0.005303263988122489
Epoch: 5700, Error: 0.005312437418282138
Epoch: 5800, Error: 0.005270613927310986
Epoch: 5900, Error: 0.0051911669137322805
Epoch: 6000, Error: 0.005155804675010811
Epoch: 6100, Error: 0.005109476534293424
Epoch: 6200, Error: 0.004920665312822965
Epoch: 6300, Error: 0.004883220594008466
Epoch: 6400, Error: 0.004780185559774681
Epoch: 6500, Error: 0.005377360818069689
Epoch: 6600, Error: 0.004604637008636764
Epoch: 6700, Error: 0.004889675872739582
Epoch: 6800, Error: 0.005131852639025034
Epoch: 6900, Error: 0.004001817428601379
Epoch: 7000, Error: 0.005337824975280883
Epoch: 7100, Error: 0.004048751750083122
Epoch: 7200, Error: 0.004296222352704825
Epoch: 7300, Error: 0.003299103965658859
Epoch: 7400, Error: 0.00482534059724418
Epoch: 7500, Error: 0.00797772916673779
Epoch: 7600, Error: 0.0028662953908906684
Epoch: 7700, Error: 0.003141509465348217
Epoch: 7800, Error: 0.002382781992210598
Epoch: 7900, Error: 0.0031175837860381497
Epoch: 8000, Error: 0.0030345111564411636
Epoch: 8100, Error: 0.0027430759052863266
Epoch: 8200, Error: 0.0021141081179200092
Epoch: 8300, Error: 0.004128227445574357
Epoch: 8400, Error: 0.0017366354370442082
Epoch: 8500, Error: 0.0027360402982527163
Epoch: 8600, Error: 0.003915791884808536
Epoch: 8700, Error: 0.0026835477617331046
Epoch: 8800, Error: 0.0018064467193739612
Epoch: 8900, Error: 0.002279356453582732
Epoch: 9000, Error: 0.005187266319081848
Epoch: 9100, Error: 0.0015606975078956496
Epoch: 9200, Error: 0.0029778495655265204
Epoch: 9300, Error: 0.0014562043884620262
Epoch: 9400, Error: 0.002068623191223081
Epoch: 9500, Error: 0.003452478162452772
Epoch: 9600, Error: 0.0019303518492982965
Epoch: 9700, Error: 0.0011990085995315623
Epoch: 9800, Error: 0.0011796290106820381
Epoch: 9900, Error: 0.0012253931916023446
Epoch: 10000, Error: 0.0013351730319401472
Epoch: 10100, Error: 0.0012889755814456585
Epoch: 10200, Error: 0.0012624492346681982
Epoch: 10300, Error: 0.0012682518241221347
Epoch: 10400, Error: 0.0013034919841111712
Epoch: 10500, Error: 0.0012942786433635656
Epoch: 10600, Error: 0.0012439715564466444
Epoch: 10700, Error: 0.0012003841729354065
Epoch: 10800, Error: 0.0011372247076436434
Epoch: 10900, Error: 0.0010968690334458193
Epoch: 11000, Error: 0.0010651035784756098
Epoch: 11100, Error: 0.0010653954951164069
Epoch: 11200, Error: 0.0010470940756439656
Epoch: 11300, Error: 0.0010418512500934714
Epoch: 11400, Error: 0.0010411574494314732
Epoch: 11500, Error: 0.001039876472275546
Epoch: 11600, Error: 0.00104077453136225
Epoch: 11700, Error: 0.0010397973588745597
Epoch: 11800, Error: 0.0010423866241420785
Epoch: 11900, Error: 0.0010418641104061903
Finished
