Input Patterns
0.224 0.624 0.067 0.043 
0.11 0.502 0.051 0.043 
0.196 0.667 0.067 0.043 
0.055 0.584 0.067 0.082 
0.027 0.376 0.067 0.043 
0.306 0.71 0.086 0.043 
0.137 0.416 0.067 0.0 
0.416 0.831 0.035 0.043 
0.306 0.792 0.051 0.125 
0.388 0.749 0.118 0.082 
0.306 0.584 0.118 0.043 
0.082 0.667 0.0 0.043 
0.137 0.584 0.153 0.043 
0.196 0.584 0.102 0.125 
0.251 0.584 0.067 0.043 
0.137 0.459 0.102 0.043 
0.251 0.875 0.086 0.0 
0.165 0.459 0.086 0.043 
0.333 0.624 0.051 0.043 
0.027 0.416 0.051 0.043 
0.196 0.624 0.051 0.082 
0.027 0.502 0.051 0.043 
0.224 0.749 0.153 0.125 
0.224 0.749 0.102 0.043 
0.278 0.71 0.086 0.043 
0.165 0.416 0.067 0.043 
0.082 0.459 0.086 0.043 
0.306 0.792 0.118 0.125 
0.196 0.584 0.086 0.043 
0.165 0.459 0.086 0.0 
0.137 0.584 0.102 0.043 
0.0 0.416 0.016 0.0 
0.388 1.0 0.086 0.125 
0.224 0.624 0.067 0.082 
0.224 0.749 0.086 0.082 
0.224 0.71 0.086 0.125 
0.224 0.541 0.118 0.165 
0.196 0.416 0.102 0.043 
0.251 0.624 0.086 0.043 
0.11 0.502 0.102 0.043 
0.306 0.584 0.086 0.125 
0.333 0.918 0.067 0.043 
0.196 0.502 0.035 0.043 
0.165 0.667 0.067 0.0 
0.224 0.584 0.086 0.043 
0.055 0.125 0.051 0.082 
0.196 0.624 0.102 0.208 
0.137 0.416 0.067 0.082 
0.082 0.502 0.067 0.043 
0.196 0.541 0.067 0.043 
0.749 0.502 0.627 0.541 
0.722 0.459 0.663 0.584 
0.612 0.333 0.612 0.584 
0.557 0.541 0.627 0.624 
0.639 0.376 0.612 0.498 
0.196 0.0 0.424 0.376 
0.471 0.082 0.51 0.376 
0.361 0.376 0.439 0.498 
0.361 0.416 0.592 0.584 
0.529 0.082 0.592 0.584 
0.443 0.502 0.643 0.459 
0.557 0.208 0.663 0.584 
0.584 0.376 0.561 0.498 
0.694 0.333 0.643 0.541 
0.471 0.376 0.592 0.584 
0.333 0.169 0.475 0.416 
0.416 0.29 0.49 0.459 
0.306 0.416 0.592 0.584 
0.667 0.459 0.627 0.584 
0.361 0.416 0.525 0.498 
0.333 0.251 0.576 0.459 
0.416 0.251 0.51 0.459 
0.361 0.29 0.541 0.498 
0.388 0.376 0.541 0.498 
0.224 0.208 0.337 0.416 
0.584 0.502 0.592 0.584 
0.333 0.125 0.51 0.498 
0.388 0.333 0.592 0.498 
0.165 0.169 0.388 0.376 
0.251 0.29 0.49 0.541 
0.443 0.416 0.541 0.584 
0.498 0.376 0.627 0.541 
0.667 0.459 0.576 0.541 
0.416 0.29 0.525 0.376 
0.361 0.208 0.49 0.416 
0.498 0.333 0.51 0.498 
0.498 0.333 0.627 0.459 
0.639 0.416 0.576 0.541 
0.667 0.416 0.678 0.667 
0.388 0.251 0.424 0.376 
0.333 0.169 0.459 0.376 
0.471 0.29 0.694 0.624 
0.471 0.584 0.592 0.624 
0.557 0.125 0.576 0.498 
0.333 0.208 0.51 0.498 
0.498 0.416 0.612 0.541 
0.196 0.125 0.388 0.376 
0.388 0.416 0.541 0.459 
0.529 0.376 0.561 0.498 
0.388 0.333 0.525 0.498 
0.557 0.541 0.847 1.0 
0.776 0.416 0.831 0.831 
0.612 0.416 0.812 0.875 
0.165 0.208 0.592 0.667 
0.667 0.208 0.812 0.71 
0.612 0.502 0.694 0.792 
0.694 0.416 0.761 0.831 
0.416 0.333 0.694 0.957 
0.612 0.416 0.761 0.71 
0.945 0.251 1.0 0.918 
0.722 0.502 0.796 0.918 
0.945 0.333 0.965 0.792 
0.667 0.541 0.796 0.831 
0.529 0.333 0.643 0.71 
0.584 0.333 0.78 0.831 
0.863 0.333 0.863 0.749 
0.584 0.333 0.78 0.875 
0.498 0.251 0.78 0.541 
0.557 0.584 0.78 0.957 
0.471 0.416 0.643 0.71 
0.667 0.459 0.78 0.957 
0.416 0.29 0.694 0.749 
0.667 0.541 0.796 1.0 
0.557 0.208 0.678 0.749 
0.529 0.584 0.745 0.918 
0.416 0.29 0.694 0.749 
0.557 0.376 0.78 0.71 
0.918 0.416 0.949 0.831 
0.835 0.376 0.898 0.71 
0.804 0.667 0.863 1.0 
0.584 0.29 0.729 0.749 
0.388 0.208 0.678 0.792 
0.584 0.502 0.729 0.918 
0.945 0.749 0.965 0.875 
0.471 0.082 0.678 0.584 
0.361 0.333 0.663 0.792 
0.557 0.29 0.663 0.71 
0.804 0.502 0.847 0.71 
0.498 0.416 0.51 0.71 
0.804 0.416 0.812 0.624 
1.0 0.749 0.914 0.792 
0.557 0.333 0.694 0.584 
0.945 0.416 0.863 0.918 
0.584 0.459 0.761 0.71 
0.722 0.459 0.745 0.831 
0.722 0.459 0.694 0.918 
0.694 0.502 0.831 0.918 
0.667 0.416 0.714 0.918 
0.612 0.416 0.714 0.792 
0.443 0.416 0.694 0.71 
Teaching Patterns
1.0 0.0 0.0 
1.0 0.0 0.0 
1.0 0.0 0.0 
1.0 0.0 0.0 
1.0 0.0 0.0 
1.0 0.0 0.0 
1.0 0.0 0.0 
1.0 0.0 0.0 
1.0 0.0 0.0 
1.0 0.0 0.0 
1.0 0.0 0.0 
1.0 0.0 0.0 
1.0 0.0 0.0 
1.0 0.0 0.0 
1.0 0.0 0.0 
1.0 0.0 0.0 
1.0 0.0 0.0 
1.0 0.0 0.0 
1.0 0.0 0.0 
1.0 0.0 0.0 
1.0 0.0 0.0 
1.0 0.0 0.0 
1.0 0.0 0.0 
1.0 0.0 0.0 
1.0 0.0 0.0 
1.0 0.0 0.0 
1.0 0.0 0.0 
1.0 0.0 0.0 
1.0 0.0 0.0 
1.0 0.0 0.0 
1.0 0.0 0.0 
1.0 0.0 0.0 
1.0 0.0 0.0 
1.0 0.0 0.0 
1.0 0.0 0.0 
1.0 0.0 0.0 
1.0 0.0 0.0 
1.0 0.0 0.0 
1.0 0.0 0.0 
1.0 0.0 0.0 
1.0 0.0 0.0 
1.0 0.0 0.0 
1.0 0.0 0.0 
1.0 0.0 0.0 
1.0 0.0 0.0 
1.0 0.0 0.0 
1.0 0.0 0.0 
1.0 0.0 0.0 
1.0 0.0 0.0 
1.0 0.0 0.0 
0.0 1.0 0.0 
0.0 1.0 0.0 
0.0 1.0 0.0 
0.0 1.0 0.0 
0.0 1.0 0.0 
0.0 1.0 0.0 
0.0 1.0 0.0 
0.0 1.0 0.0 
0.0 1.0 0.0 
0.0 1.0 0.0 
0.0 1.0 0.0 
0.0 1.0 0.0 
0.0 1.0 0.0 
0.0 1.0 0.0 
0.0 1.0 0.0 
0.0 1.0 0.0 
0.0 1.0 0.0 
0.0 1.0 0.0 
0.0 1.0 0.0 
0.0 1.0 0.0 
0.0 1.0 0.0 
0.0 1.0 0.0 
0.0 1.0 0.0 
0.0 1.0 0.0 
0.0 1.0 0.0 
0.0 1.0 0.0 
0.0 1.0 0.0 
0.0 1.0 0.0 
0.0 1.0 0.0 
0.0 1.0 0.0 
0.0 1.0 0.0 
0.0 1.0 0.0 
0.0 1.0 0.0 
0.0 1.0 0.0 
0.0 1.0 0.0 
0.0 1.0 0.0 
0.0 1.0 0.0 
0.0 1.0 0.0 
0.0 1.0 0.0 
0.0 1.0 0.0 
0.0 1.0 0.0 
0.0 1.0 0.0 
0.0 1.0 0.0 
0.0 1.0 0.0 
0.0 1.0 0.0 
0.0 1.0 0.0 
0.0 1.0 0.0 
0.0 1.0 0.0 
0.0 1.0 0.0 
0.0 1.0 0.0 
0.0 0.0 1.0 
0.0 0.0 1.0 
0.0 0.0 1.0 
0.0 0.0 1.0 
0.0 0.0 1.0 
0.0 0.0 1.0 
0.0 0.0 1.0 
0.0 0.0 1.0 
0.0 0.0 1.0 
0.0 0.0 1.0 
0.0 0.0 1.0 
0.0 0.0 1.0 
0.0 0.0 1.0 
0.0 0.0 1.0 
0.0 0.0 1.0 
0.0 0.0 1.0 
0.0 0.0 1.0 
0.0 0.0 1.0 
0.0 0.0 1.0 
0.0 0.0 1.0 
0.0 0.0 1.0 
0.0 0.0 1.0 
0.0 0.0 1.0 
0.0 0.0 1.0 
0.0 0.0 1.0 
0.0 0.0 1.0 
0.0 0.0 1.0 
0.0 0.0 1.0 
0.0 0.0 1.0 
0.0 0.0 1.0 
0.0 0.0 1.0 
0.0 0.0 1.0 
0.0 0.0 1.0 
0.0 0.0 1.0 
0.0 0.0 1.0 
0.0 0.0 1.0 
0.0 0.0 1.0 
0.0 0.0 1.0 
0.0 0.0 1.0 
0.0 0.0 1.0 
0.0 0.0 1.0 
0.0 0.0 1.0 
0.0 0.0 1.0 
0.0 0.0 1.0 
0.0 0.0 1.0 
0.0 0.0 1.0 
0.0 0.0 1.0 
0.0 0.0 1.0 
0.0 0.0 1.0 
0.0 0.0 1.0 
Learning : 0.8500000238418579
Momentum : 0.9
Epoch: 100, Error: 0.012271921285519754
Epoch: 200, Error: 0.015759897690398678
Epoch: 300, Error: 0.01217167007120372
Epoch: 400, Error: 0.013640833762990733
Epoch: 500, Error: 0.012382056186230525
Epoch: 600, Error: 0.012307097767096226
Epoch: 700, Error: 0.01264127662073689
Epoch: 800, Error: 0.012532901566688825
Epoch: 900, Error: 0.012648263288729552
Epoch: 1000, Error: 0.012727951777053633
Epoch: 1100, Error: 0.01315883261000521
Epoch: 1200, Error: 0.0125241758082769
Epoch: 1300, Error: 0.012373435064703968
Epoch: 1400, Error: 0.012138281408578548
Epoch: 1500, Error: 0.012608326013765615
Epoch: 1600, Error: 0.011882057666385837
Epoch: 1700, Error: 0.01226512307123274
Epoch: 1800, Error: 0.012256173154958106
Epoch: 1900, Error: 0.011416996133882447
Epoch: 2000, Error: 0.01105066261385255
Epoch: 2100, Error: 0.011031829793785634
Epoch: 2200, Error: 0.010824668813776866
Epoch: 2300, Error: 0.009161814292906086
Epoch: 2400, Error: 0.008331411616829711
Epoch: 2500, Error: 0.008032986969107231
Epoch: 2600, Error: 0.007607947245233106
Epoch: 2700, Error: 0.007795203771694677
Epoch: 2800, Error: 0.00690223232450218
Epoch: 2900, Error: 0.007109137386405863
Epoch: 3000, Error: 0.00596546196978226
Epoch: 3100, Error: 0.006026980022157948
Epoch: 3200, Error: 0.005779571285157962
Epoch: 3300, Error: 0.005820192994851195
Epoch: 3400, Error: 0.005657622902046442
Epoch: 3500, Error: 0.005625044168781479
Epoch: 3600, Error: 0.005617285743717841
Epoch: 3700, Error: 0.005584084156319853
Epoch: 3800, Error: 0.005593942314171697
Epoch: 3900, Error: 0.005594691460965493
Epoch: 4000, Error: 0.005576106330483846
Epoch: 4100, Error: 0.005572708523267601
Epoch: 4200, Error: 0.005585896068309854
Epoch: 4300, Error: 0.005551756454485398
Epoch: 4400, Error: 0.005566500060900473
Epoch: 4500, Error: 0.0055731168152493285
Epoch: 4600, Error: 0.0055588101629865565
Epoch: 4700, Error: 0.005558908067640314
Epoch: 4800, Error: 0.005633539012406624
Epoch: 4900, Error: 0.005613810397608917
Epoch: 5000, Error: 0.005621982146417196
Epoch: 5100, Error: 0.00557883082635664
Epoch: 5200, Error: 0.0056135732251917925
Epoch: 5300, Error: 0.005672825554240429
Epoch: 5400, Error: 0.005587631062764549
Epoch: 5500, Error: 0.005577607210142591
Epoch: 5600, Error: 0.005645244696844586
Epoch: 5700, Error: 0.005592451888708538
Epoch: 5800, Error: 0.005563917941441254
Epoch: 5900, Error: 0.005535375295730603
Epoch: 6000, Error: 0.005557542300228396
Epoch: 6100, Error: 0.005515255752255385
Epoch: 6200, Error: 0.0054327869494212805
Epoch: 6300, Error: 0.005587154226655797
Epoch: 6400, Error: 0.005381666934081202
Epoch: 6500, Error: 0.005400124667618359
Epoch: 6600, Error: 0.0053960794097497
Epoch: 6700, Error: 0.005300221002389482
Epoch: 6800, Error: 0.004927068399744422
Epoch: 6900, Error: 0.005320432691392364
Epoch: 7000, Error: 0.00531079141430464
Epoch: 7100, Error: 0.004634237082212388
Epoch: 7200, Error: 0.005386096460479646
Epoch: 7300, Error: 0.004958670300929347
Epoch: 7400, Error: 0.004284512385710565
Epoch: 7500, Error: 0.0037230589018145063
Epoch: 7600, Error: 0.004529402051521546
Epoch: 7700, Error: 0.0035627286040575117
Epoch: 7800, Error: 0.004843830146225144
Epoch: 7900, Error: 0.0039295263579986655
Epoch: 8000, Error: 0.006241432958988436
Epoch: 8100, Error: 0.004511179081679882
Epoch: 8200, Error: 0.0035599274857734233
Epoch: 8300, Error: 0.002647261216722369
Epoch: 8400, Error: 0.0038129948985735017
Epoch: 8500, Error: 0.003022514342964079
Epoch: 8600, Error: 0.0028974550623814205
Epoch: 8700, Error: 0.0034503838795319226
Epoch: 8800, Error: 0.004132186810505621
Epoch: 8900, Error: 0.0059295402976235105
Epoch: 9000, Error: 0.003026089666645344
Epoch: 9100, Error: 0.00454903316589014
Epoch: 9200, Error: 0.004107136490173698
Epoch: 9300, Error: 0.0032489059139565175
Epoch: 9400, Error: 0.0026776779179967613
Epoch: 9500, Error: 0.004492237573310212
Epoch: 9600, Error: 0.0017625517050250728
Epoch: 9700, Error: 0.0029155333884858204
Epoch: 9800, Error: 0.005284242287232609
Epoch: 9900, Error: 0.001654463145903081
Epoch: 10000, Error: 0.002265737388773671
Epoch: 10100, Error: 0.0013822089891070664
Epoch: 10200, Error: 0.002187359910843882
Epoch: 10300, Error: 0.0012209869115763039
Epoch: 10400, Error: 0.001123338306037
Epoch: 10500, Error: 0.0011263263539537302
Epoch: 10600, Error: 0.0011397996019123387
Epoch: 10700, Error: 0.001486475515373697
Epoch: 10800, Error: 0.001125481454382875
Epoch: 10900, Error: 0.0011487863284985892
Epoch: 11000, Error: 0.0011586046902534984
Epoch: 11100, Error: 0.0011599466403036992
Epoch: 11200, Error: 0.0011429843744570037
Epoch: 11300, Error: 0.0011254430974818985
Epoch: 11400, Error: 0.001106946592258459
Epoch: 11500, Error: 0.0010830855704498277
Epoch: 11600, Error: 0.0010668708882903353
Epoch: 11700, Error: 0.0010580624171118475
Epoch: 11800, Error: 0.0010565537912645918
Epoch: 11900, Error: 0.0010569561138007893
Epoch: 12000, Error: 0.0010500498736949837
Epoch: 12100, Error: 0.0010499969534978908
Finished
