Input Patterns
0.224 0.624 0.067 0.043 
0.11 0.502 0.051 0.043 
0.196 0.667 0.067 0.043 
0.055 0.584 0.067 0.082 
0.027 0.376 0.067 0.043 
0.306 0.71 0.086 0.043 
0.137 0.416 0.067 0.0 
0.416 0.831 0.035 0.043 
0.306 0.792 0.051 0.125 
0.388 0.749 0.118 0.082 
0.306 0.584 0.118 0.043 
0.082 0.667 0.0 0.043 
0.137 0.584 0.153 0.043 
0.196 0.584 0.102 0.125 
0.251 0.584 0.067 0.043 
0.137 0.459 0.102 0.043 
0.251 0.875 0.086 0.0 
0.165 0.459 0.086 0.043 
0.333 0.624 0.051 0.043 
0.027 0.416 0.051 0.043 
0.196 0.624 0.051 0.082 
0.027 0.502 0.051 0.043 
0.224 0.749 0.153 0.125 
0.224 0.749 0.102 0.043 
0.278 0.71 0.086 0.043 
0.165 0.416 0.067 0.043 
0.082 0.459 0.086 0.043 
0.306 0.792 0.118 0.125 
0.196 0.584 0.086 0.043 
0.165 0.459 0.086 0.0 
0.137 0.584 0.102 0.043 
0.0 0.416 0.016 0.0 
0.388 1.0 0.086 0.125 
0.224 0.624 0.067 0.082 
0.224 0.749 0.086 0.082 
0.224 0.71 0.086 0.125 
0.224 0.541 0.118 0.165 
0.196 0.416 0.102 0.043 
0.251 0.624 0.086 0.043 
0.11 0.502 0.102 0.043 
0.306 0.584 0.086 0.125 
0.333 0.918 0.067 0.043 
0.196 0.502 0.035 0.043 
0.165 0.667 0.067 0.0 
0.224 0.584 0.086 0.043 
0.055 0.125 0.051 0.082 
0.196 0.624 0.102 0.208 
0.137 0.416 0.067 0.082 
0.082 0.502 0.067 0.043 
0.196 0.541 0.067 0.043 
0.749 0.502 0.627 0.541 
0.722 0.459 0.663 0.584 
0.612 0.333 0.612 0.584 
0.557 0.541 0.627 0.624 
0.639 0.376 0.612 0.498 
0.196 0.0 0.424 0.376 
0.471 0.082 0.51 0.376 
0.361 0.376 0.439 0.498 
0.361 0.416 0.592 0.584 
0.529 0.082 0.592 0.584 
0.443 0.502 0.643 0.459 
0.557 0.208 0.663 0.584 
0.584 0.376 0.561 0.498 
0.694 0.333 0.643 0.541 
0.471 0.376 0.592 0.584 
0.333 0.169 0.475 0.416 
0.416 0.29 0.49 0.459 
0.306 0.416 0.592 0.584 
0.667 0.459 0.627 0.584 
0.361 0.416 0.525 0.498 
0.333 0.251 0.576 0.459 
0.416 0.251 0.51 0.459 
0.361 0.29 0.541 0.498 
0.388 0.376 0.541 0.498 
0.224 0.208 0.337 0.416 
0.584 0.502 0.592 0.584 
0.333 0.125 0.51 0.498 
0.388 0.333 0.592 0.498 
0.165 0.169 0.388 0.376 
0.251 0.29 0.49 0.541 
0.443 0.416 0.541 0.584 
0.498 0.376 0.627 0.541 
0.667 0.459 0.576 0.541 
0.416 0.29 0.525 0.376 
0.361 0.208 0.49 0.416 
0.498 0.333 0.51 0.498 
0.498 0.333 0.627 0.459 
0.639 0.416 0.576 0.541 
0.667 0.416 0.678 0.667 
0.388 0.251 0.424 0.376 
0.333 0.169 0.459 0.376 
0.471 0.29 0.694 0.624 
0.471 0.584 0.592 0.624 
0.557 0.125 0.576 0.498 
0.333 0.208 0.51 0.498 
0.498 0.416 0.612 0.541 
0.196 0.125 0.388 0.376 
0.388 0.416 0.541 0.459 
0.529 0.376 0.561 0.498 
0.388 0.333 0.525 0.498 
0.557 0.541 0.847 1.0 
0.776 0.416 0.831 0.831 
0.612 0.416 0.812 0.875 
0.165 0.208 0.592 0.667 
0.667 0.208 0.812 0.71 
0.612 0.502 0.694 0.792 
0.694 0.416 0.761 0.831 
0.416 0.333 0.694 0.957 
0.612 0.416 0.761 0.71 
0.945 0.251 1.0 0.918 
0.722 0.502 0.796 0.918 
0.945 0.333 0.965 0.792 
0.667 0.541 0.796 0.831 
0.529 0.333 0.643 0.71 
0.584 0.333 0.78 0.831 
0.863 0.333 0.863 0.749 
0.584 0.333 0.78 0.875 
0.498 0.251 0.78 0.541 
0.557 0.584 0.78 0.957 
0.471 0.416 0.643 0.71 
0.667 0.459 0.78 0.957 
0.416 0.29 0.694 0.749 
0.667 0.541 0.796 1.0 
0.557 0.208 0.678 0.749 
0.529 0.584 0.745 0.918 
0.416 0.29 0.694 0.749 
0.557 0.376 0.78 0.71 
0.918 0.416 0.949 0.831 
0.835 0.376 0.898 0.71 
0.804 0.667 0.863 1.0 
0.584 0.29 0.729 0.749 
0.388 0.208 0.678 0.792 
0.584 0.502 0.729 0.918 
0.945 0.749 0.965 0.875 
0.471 0.082 0.678 0.584 
0.361 0.333 0.663 0.792 
0.557 0.29 0.663 0.71 
0.804 0.502 0.847 0.71 
0.498 0.416 0.51 0.71 
0.804 0.416 0.812 0.624 
1.0 0.749 0.914 0.792 
0.557 0.333 0.694 0.584 
0.945 0.416 0.863 0.918 
0.584 0.459 0.761 0.71 
0.722 0.459 0.745 0.831 
0.722 0.459 0.694 0.918 
0.694 0.502 0.831 0.918 
0.667 0.416 0.714 0.918 
0.612 0.416 0.714 0.792 
0.443 0.416 0.694 0.71 
Teaching Patterns
1.0 0.0 0.0 
1.0 0.0 0.0 
1.0 0.0 0.0 
1.0 0.0 0.0 
1.0 0.0 0.0 
1.0 0.0 0.0 
1.0 0.0 0.0 
1.0 0.0 0.0 
1.0 0.0 0.0 
1.0 0.0 0.0 
1.0 0.0 0.0 
1.0 0.0 0.0 
1.0 0.0 0.0 
1.0 0.0 0.0 
1.0 0.0 0.0 
1.0 0.0 0.0 
1.0 0.0 0.0 
1.0 0.0 0.0 
1.0 0.0 0.0 
1.0 0.0 0.0 
1.0 0.0 0.0 
1.0 0.0 0.0 
1.0 0.0 0.0 
1.0 0.0 0.0 
1.0 0.0 0.0 
1.0 0.0 0.0 
1.0 0.0 0.0 
1.0 0.0 0.0 
1.0 0.0 0.0 
1.0 0.0 0.0 
1.0 0.0 0.0 
1.0 0.0 0.0 
1.0 0.0 0.0 
1.0 0.0 0.0 
1.0 0.0 0.0 
1.0 0.0 0.0 
1.0 0.0 0.0 
1.0 0.0 0.0 
1.0 0.0 0.0 
1.0 0.0 0.0 
1.0 0.0 0.0 
1.0 0.0 0.0 
1.0 0.0 0.0 
1.0 0.0 0.0 
1.0 0.0 0.0 
1.0 0.0 0.0 
1.0 0.0 0.0 
1.0 0.0 0.0 
1.0 0.0 0.0 
1.0 0.0 0.0 
0.0 1.0 0.0 
0.0 1.0 0.0 
0.0 1.0 0.0 
0.0 1.0 0.0 
0.0 1.0 0.0 
0.0 1.0 0.0 
0.0 1.0 0.0 
0.0 1.0 0.0 
0.0 1.0 0.0 
0.0 1.0 0.0 
0.0 1.0 0.0 
0.0 1.0 0.0 
0.0 1.0 0.0 
0.0 1.0 0.0 
0.0 1.0 0.0 
0.0 1.0 0.0 
0.0 1.0 0.0 
0.0 1.0 0.0 
0.0 1.0 0.0 
0.0 1.0 0.0 
0.0 1.0 0.0 
0.0 1.0 0.0 
0.0 1.0 0.0 
0.0 1.0 0.0 
0.0 1.0 0.0 
0.0 1.0 0.0 
0.0 1.0 0.0 
0.0 1.0 0.0 
0.0 1.0 0.0 
0.0 1.0 0.0 
0.0 1.0 0.0 
0.0 1.0 0.0 
0.0 1.0 0.0 
0.0 1.0 0.0 
0.0 1.0 0.0 
0.0 1.0 0.0 
0.0 1.0 0.0 
0.0 1.0 0.0 
0.0 1.0 0.0 
0.0 1.0 0.0 
0.0 1.0 0.0 
0.0 1.0 0.0 
0.0 1.0 0.0 
0.0 1.0 0.0 
0.0 1.0 0.0 
0.0 1.0 0.0 
0.0 1.0 0.0 
0.0 1.0 0.0 
0.0 1.0 0.0 
0.0 1.0 0.0 
0.0 0.0 1.0 
0.0 0.0 1.0 
0.0 0.0 1.0 
0.0 0.0 1.0 
0.0 0.0 1.0 
0.0 0.0 1.0 
0.0 0.0 1.0 
0.0 0.0 1.0 
0.0 0.0 1.0 
0.0 0.0 1.0 
0.0 0.0 1.0 
0.0 0.0 1.0 
0.0 0.0 1.0 
0.0 0.0 1.0 
0.0 0.0 1.0 
0.0 0.0 1.0 
0.0 0.0 1.0 
0.0 0.0 1.0 
0.0 0.0 1.0 
0.0 0.0 1.0 
0.0 0.0 1.0 
0.0 0.0 1.0 
0.0 0.0 1.0 
0.0 0.0 1.0 
0.0 0.0 1.0 
0.0 0.0 1.0 
0.0 0.0 1.0 
0.0 0.0 1.0 
0.0 0.0 1.0 
0.0 0.0 1.0 
0.0 0.0 1.0 
0.0 0.0 1.0 
0.0 0.0 1.0 
0.0 0.0 1.0 
0.0 0.0 1.0 
0.0 0.0 1.0 
0.0 0.0 1.0 
0.0 0.0 1.0 
0.0 0.0 1.0 
0.0 0.0 1.0 
0.0 0.0 1.0 
0.0 0.0 1.0 
0.0 0.0 1.0 
0.0 0.0 1.0 
0.0 0.0 1.0 
0.0 0.0 1.0 
0.0 0.0 1.0 
0.0 0.0 1.0 
0.0 0.0 1.0 
0.0 0.0 1.0 
Learning : 0.8500000238418579
Momentum : 0.9
Epoch: 100, Error: 0.012574200913358573
Epoch: 200, Error: 0.012624669631561712
Epoch: 300, Error: 0.013266503525753847
Epoch: 400, Error: 0.01215999946876433
Epoch: 500, Error: 0.012479667217891862
Epoch: 600, Error: 0.02109476148132193
Epoch: 700, Error: 0.013662981183491092
Epoch: 800, Error: 0.013154996069749745
Epoch: 900, Error: 0.012911273096636222
Epoch: 1000, Error: 0.012508599700260414
Epoch: 1100, Error: 0.012504860112073095
Epoch: 1200, Error: 0.012477541198512446
Epoch: 1300, Error: 0.012693120459098
Epoch: 1400, Error: 0.01294182903628682
Epoch: 1500, Error: 0.012518174801891513
Epoch: 1600, Error: 0.012935645833845296
Epoch: 1700, Error: 0.01383816435508696
Epoch: 1800, Error: 0.012403986637897404
Epoch: 1900, Error: 0.012694330331302484
Epoch: 2000, Error: 0.013286346237514826
Epoch: 2100, Error: 0.012636468716092137
Epoch: 2200, Error: 0.01243264173999866
Epoch: 2300, Error: 0.012394862223762767
Epoch: 2400, Error: 0.01254940959381649
Epoch: 2500, Error: 0.01258496004425731
Epoch: 2600, Error: 0.012634584590556552
Epoch: 2700, Error: 0.012459126306974959
Epoch: 2800, Error: 0.012177278932571017
Epoch: 2900, Error: 0.012711761455770217
Epoch: 3000, Error: 0.012124246302097151
Epoch: 3100, Error: 0.01193011477546682
Epoch: 3200, Error: 0.012700375820495253
Epoch: 3300, Error: 0.012824390767809153
Epoch: 3400, Error: 0.012033360432483693
Epoch: 3500, Error: 0.012037591960270228
Epoch: 3600, Error: 0.012391724023149144
Epoch: 3700, Error: 0.012092057343883555
Epoch: 3800, Error: 0.01157478500080165
Epoch: 3900, Error: 0.01155465157469536
Epoch: 4000, Error: 0.011675324819593682
Epoch: 4100, Error: 0.01161783222506268
Epoch: 4200, Error: 0.011852616240209715
Epoch: 4300, Error: 0.011621732338457619
Epoch: 4400, Error: 0.011235361158667533
Epoch: 4500, Error: 0.01124126844820541
Epoch: 4600, Error: 0.012548880635828152
Epoch: 4700, Error: 0.010947868412047954
Epoch: 4800, Error: 0.010810187499292039
Epoch: 4900, Error: 0.010772953084898925
Epoch: 5000, Error: 0.01071877804256226
Epoch: 5100, Error: 0.010718903021274912
Epoch: 5200, Error: 0.01068780387790117
Epoch: 5300, Error: 0.010497941833184731
Epoch: 5400, Error: 0.010190360853069593
Epoch: 5500, Error: 0.010162708624512863
Epoch: 5600, Error: 0.010604391040530167
Epoch: 5700, Error: 0.010837717188439499
Epoch: 5800, Error: 0.01004304817330104
Epoch: 5900, Error: 0.009551640334410381
Epoch: 6000, Error: 0.009550373705003876
Epoch: 6100, Error: 0.009482076436719875
Epoch: 6200, Error: 0.009443738247960378
Epoch: 6300, Error: 0.009430316972169336
Epoch: 6400, Error: 0.009407672392032688
Epoch: 6500, Error: 0.0094313797497686
Epoch: 6600, Error: 0.009396400891795553
Epoch: 6700, Error: 0.009436114210725068
Epoch: 6800, Error: 0.009355146345084291
Epoch: 6900, Error: 0.00941539115630433
Epoch: 7000, Error: 0.009372013713152773
Epoch: 7100, Error: 0.009368106948456125
Epoch: 7200, Error: 0.00930808475626122
Epoch: 7300, Error: 0.00936046821379558
Epoch: 7400, Error: 0.009430370309619752
Epoch: 7500, Error: 0.009390202778642255
Epoch: 7600, Error: 0.009408854387855806
Epoch: 7700, Error: 0.009337327899250295
Epoch: 7800, Error: 0.009400869686051748
Epoch: 7900, Error: 0.009389712853533213
Epoch: 8000, Error: 0.009388817771498194
Epoch: 8100, Error: 0.009463463157631018
Epoch: 8200, Error: 0.009415101473190721
Epoch: 8300, Error: 0.009385030606921191
Epoch: 8400, Error: 0.009411089166285228
Epoch: 8500, Error: 0.009375030606509313
Epoch: 8600, Error: 0.009409778397608686
Epoch: 8700, Error: 0.009441975905583854
Epoch: 8800, Error: 0.009398101861016774
Epoch: 8900, Error: 0.009430907721374912
Epoch: 9000, Error: 0.009415931909459298
Epoch: 9100, Error: 0.009431009153468157
Epoch: 9200, Error: 0.009455769893585233
Epoch: 9300, Error: 0.009445918637395339
Epoch: 9400, Error: 0.009384527861398265
Epoch: 9500, Error: 0.009427412452651954
Epoch: 9600, Error: 0.009437475231816456
Epoch: 9700, Error: 0.009343409590888108
Epoch: 9800, Error: 0.009365814794932564
Epoch: 9900, Error: 0.009327818784323502
Epoch: 10000, Error: 0.009437931413635163
Epoch: 10100, Error: 0.009376594261778573
Epoch: 10200, Error: 0.009418355062838635
Epoch: 10300, Error: 0.00939616684353166
Epoch: 10400, Error: 0.00943217877080899
Epoch: 10500, Error: 0.009402630453052356
Epoch: 10600, Error: 0.009387901363253954
Epoch: 10700, Error: 0.009434859051757278
Epoch: 10800, Error: 0.00935658670113672
Epoch: 10900, Error: 0.0094102811516595
Epoch: 11000, Error: 0.009433615234612456
Epoch: 11100, Error: 0.009400253963197368
Epoch: 11200, Error: 0.009336037092136608
Epoch: 11300, Error: 0.009344643203805745
Epoch: 11400, Error: 0.009356464369964972
Epoch: 11500, Error: 0.009360569088041087
Epoch: 11600, Error: 0.0094208600150832
Epoch: 11700, Error: 0.009382577220363885
Epoch: 11800, Error: 0.009308117623945225
Epoch: 11900, Error: 0.009398482189051344
Epoch: 12000, Error: 0.009357462514648175
Epoch: 12100, Error: 0.009322923033500605
Epoch: 12200, Error: 0.009349062166170622
Epoch: 12300, Error: 0.009379510487309535
Epoch: 12400, Error: 0.00938597311036295
Epoch: 12500, Error: 0.00941447607041113
Epoch: 12600, Error: 0.009378614984255747
Epoch: 12700, Error: 0.009375603859455635
Epoch: 12800, Error: 0.009346572872003026
Epoch: 12900, Error: 0.009347199746835722
Epoch: 13000, Error: 0.009373570442999421
Epoch: 13100, Error: 0.009414653549547765
Epoch: 13200, Error: 0.009381348185966252
Epoch: 13300, Error: 0.00939577547715588
Epoch: 13400, Error: 0.009347320978254258
Epoch: 13500, Error: 0.009485152308268293
Epoch: 13600, Error: 0.00937908622174547
Epoch: 13700, Error: 0.009410558556093409
Epoch: 13800, Error: 0.009438550843994201
Epoch: 13900, Error: 0.009356351088931826
Epoch: 14000, Error: 0.009290087275098615
Epoch: 14100, Error: 0.009293712636397515
Epoch: 14200, Error: 0.009370802954589193
Epoch: 14300, Error: 0.009267711055919952
Epoch: 14400, Error: 0.009263187667264297
Epoch: 14500, Error: 0.009283325068813523
Epoch: 14600, Error: 0.009297457297025413
Epoch: 14700, Error: 0.009207493888773479
Epoch: 14800, Error: 0.00938544262947721
Epoch: 14900, Error: 0.00924501110560665
Epoch: 15000, Error: 0.009229876717253198
Epoch: 15100, Error: 0.00925690316050525
Epoch: 15200, Error: 0.009230891420263045
Epoch: 15300, Error: 0.009228851096249824
Epoch: 15400, Error: 0.009233093326473487
Epoch: 15500, Error: 0.009272456263047115
Epoch: 15600, Error: 0.009274521166266444
Epoch: 15700, Error: 0.00925270267990299
Epoch: 15800, Error: 0.009185165729810865
Epoch: 15900, Error: 0.009223591494167236
Epoch: 16000, Error: 0.009291403998404179
Epoch: 16100, Error: 0.00930056567202955
Epoch: 16200, Error: 0.009272581261140089
Epoch: 16300, Error: 0.0091398623800821
Epoch: 16400, Error: 0.009256210656058344
Epoch: 16500, Error: 0.009312932104995501
Epoch: 16600, Error: 0.007521999911679008
Epoch: 16700, Error: 0.005239348241095804
Epoch: 16800, Error: 0.005036482460922123
Epoch: 16900, Error: 0.005212040868893675
Epoch: 17000, Error: 0.005307309624412199
Epoch: 17100, Error: 0.005186849075778352
Epoch: 17200, Error: 0.005158173329815115
Epoch: 17300, Error: 0.0051086600469567416
Epoch: 17400, Error: 0.005118094763109752
Epoch: 17500, Error: 0.005096721847058541
Epoch: 17600, Error: 0.005103541617401026
Epoch: 17700, Error: 0.005088508148473107
Epoch: 17800, Error: 0.005076119115770695
Epoch: 17900, Error: 0.00507328966492323
Epoch: 18000, Error: 0.005068803722573597
Epoch: 18100, Error: 0.005067373355808903
Epoch: 18200, Error: 0.005059742922919817
Finished
