Input Patterns
0.224 0.624 0.067 0.043 
0.11 0.502 0.051 0.043 
0.196 0.667 0.067 0.043 
0.055 0.584 0.067 0.082 
0.027 0.376 0.067 0.043 
0.306 0.71 0.086 0.043 
0.137 0.416 0.067 0.0 
0.416 0.831 0.035 0.043 
0.306 0.792 0.051 0.125 
0.388 0.749 0.118 0.082 
0.306 0.584 0.118 0.043 
0.082 0.667 0.0 0.043 
0.137 0.584 0.153 0.043 
0.196 0.584 0.102 0.125 
0.251 0.584 0.067 0.043 
0.137 0.459 0.102 0.043 
0.251 0.875 0.086 0.0 
0.165 0.459 0.086 0.043 
0.333 0.624 0.051 0.043 
0.027 0.416 0.051 0.043 
0.196 0.624 0.051 0.082 
0.027 0.502 0.051 0.043 
0.224 0.749 0.153 0.125 
0.224 0.749 0.102 0.043 
0.278 0.71 0.086 0.043 
0.165 0.416 0.067 0.043 
0.082 0.459 0.086 0.043 
0.306 0.792 0.118 0.125 
0.196 0.584 0.086 0.043 
0.165 0.459 0.086 0.0 
0.137 0.584 0.102 0.043 
0.0 0.416 0.016 0.0 
0.388 1.0 0.086 0.125 
0.224 0.624 0.067 0.082 
0.224 0.749 0.086 0.082 
0.224 0.71 0.086 0.125 
0.224 0.541 0.118 0.165 
0.196 0.416 0.102 0.043 
0.251 0.624 0.086 0.043 
0.11 0.502 0.102 0.043 
0.306 0.584 0.086 0.125 
0.333 0.918 0.067 0.043 
0.196 0.502 0.035 0.043 
0.165 0.667 0.067 0.0 
0.224 0.584 0.086 0.043 
0.055 0.125 0.051 0.082 
0.196 0.624 0.102 0.208 
0.137 0.416 0.067 0.082 
0.082 0.502 0.067 0.043 
0.196 0.541 0.067 0.043 
0.749 0.502 0.627 0.541 
0.722 0.459 0.663 0.584 
0.612 0.333 0.612 0.584 
0.557 0.541 0.627 0.624 
0.639 0.376 0.612 0.498 
0.196 0.0 0.424 0.376 
0.471 0.082 0.51 0.376 
0.361 0.376 0.439 0.498 
0.361 0.416 0.592 0.584 
0.529 0.082 0.592 0.584 
0.443 0.502 0.643 0.459 
0.557 0.208 0.663 0.584 
0.584 0.376 0.561 0.498 
0.694 0.333 0.643 0.541 
0.471 0.376 0.592 0.584 
0.333 0.169 0.475 0.416 
0.416 0.29 0.49 0.459 
0.306 0.416 0.592 0.584 
0.667 0.459 0.627 0.584 
0.361 0.416 0.525 0.498 
0.333 0.251 0.576 0.459 
0.416 0.251 0.51 0.459 
0.361 0.29 0.541 0.498 
0.388 0.376 0.541 0.498 
0.224 0.208 0.337 0.416 
0.584 0.502 0.592 0.584 
0.333 0.125 0.51 0.498 
0.388 0.333 0.592 0.498 
0.165 0.169 0.388 0.376 
0.251 0.29 0.49 0.541 
0.443 0.416 0.541 0.584 
0.498 0.376 0.627 0.541 
0.667 0.459 0.576 0.541 
0.416 0.29 0.525 0.376 
0.361 0.208 0.49 0.416 
0.498 0.333 0.51 0.498 
0.498 0.333 0.627 0.459 
0.639 0.416 0.576 0.541 
0.667 0.416 0.678 0.667 
0.388 0.251 0.424 0.376 
0.333 0.169 0.459 0.376 
0.471 0.29 0.694 0.624 
0.471 0.584 0.592 0.624 
0.557 0.125 0.576 0.498 
0.333 0.208 0.51 0.498 
0.498 0.416 0.612 0.541 
0.196 0.125 0.388 0.376 
0.388 0.416 0.541 0.459 
0.529 0.376 0.561 0.498 
0.388 0.333 0.525 0.498 
0.557 0.541 0.847 1.0 
0.776 0.416 0.831 0.831 
0.612 0.416 0.812 0.875 
0.165 0.208 0.592 0.667 
0.667 0.208 0.812 0.71 
0.612 0.502 0.694 0.792 
0.694 0.416 0.761 0.831 
0.416 0.333 0.694 0.957 
0.612 0.416 0.761 0.71 
0.945 0.251 1.0 0.918 
0.722 0.502 0.796 0.918 
0.945 0.333 0.965 0.792 
0.667 0.541 0.796 0.831 
0.529 0.333 0.643 0.71 
0.584 0.333 0.78 0.831 
0.863 0.333 0.863 0.749 
0.584 0.333 0.78 0.875 
0.498 0.251 0.78 0.541 
0.557 0.584 0.78 0.957 
0.471 0.416 0.643 0.71 
0.667 0.459 0.78 0.957 
0.416 0.29 0.694 0.749 
0.667 0.541 0.796 1.0 
0.557 0.208 0.678 0.749 
0.529 0.584 0.745 0.918 
0.416 0.29 0.694 0.749 
0.557 0.376 0.78 0.71 
0.918 0.416 0.949 0.831 
0.835 0.376 0.898 0.71 
0.804 0.667 0.863 1.0 
0.584 0.29 0.729 0.749 
0.388 0.208 0.678 0.792 
0.584 0.502 0.729 0.918 
0.945 0.749 0.965 0.875 
0.471 0.082 0.678 0.584 
0.361 0.333 0.663 0.792 
0.557 0.29 0.663 0.71 
0.804 0.502 0.847 0.71 
0.498 0.416 0.51 0.71 
0.804 0.416 0.812 0.624 
1.0 0.749 0.914 0.792 
0.557 0.333 0.694 0.584 
0.945 0.416 0.863 0.918 
0.584 0.459 0.761 0.71 
0.722 0.459 0.745 0.831 
0.722 0.459 0.694 0.918 
0.694 0.502 0.831 0.918 
0.667 0.416 0.714 0.918 
0.612 0.416 0.714 0.792 
0.443 0.416 0.694 0.71 
Teaching Patterns
1.0 0.0 0.0 
1.0 0.0 0.0 
1.0 0.0 0.0 
1.0 0.0 0.0 
1.0 0.0 0.0 
1.0 0.0 0.0 
1.0 0.0 0.0 
1.0 0.0 0.0 
1.0 0.0 0.0 
1.0 0.0 0.0 
1.0 0.0 0.0 
1.0 0.0 0.0 
1.0 0.0 0.0 
1.0 0.0 0.0 
1.0 0.0 0.0 
1.0 0.0 0.0 
1.0 0.0 0.0 
1.0 0.0 0.0 
1.0 0.0 0.0 
1.0 0.0 0.0 
1.0 0.0 0.0 
1.0 0.0 0.0 
1.0 0.0 0.0 
1.0 0.0 0.0 
1.0 0.0 0.0 
1.0 0.0 0.0 
1.0 0.0 0.0 
1.0 0.0 0.0 
1.0 0.0 0.0 
1.0 0.0 0.0 
1.0 0.0 0.0 
1.0 0.0 0.0 
1.0 0.0 0.0 
1.0 0.0 0.0 
1.0 0.0 0.0 
1.0 0.0 0.0 
1.0 0.0 0.0 
1.0 0.0 0.0 
1.0 0.0 0.0 
1.0 0.0 0.0 
1.0 0.0 0.0 
1.0 0.0 0.0 
1.0 0.0 0.0 
1.0 0.0 0.0 
1.0 0.0 0.0 
1.0 0.0 0.0 
1.0 0.0 0.0 
1.0 0.0 0.0 
1.0 0.0 0.0 
1.0 0.0 0.0 
0.0 1.0 0.0 
0.0 1.0 0.0 
0.0 1.0 0.0 
0.0 1.0 0.0 
0.0 1.0 0.0 
0.0 1.0 0.0 
0.0 1.0 0.0 
0.0 1.0 0.0 
0.0 1.0 0.0 
0.0 1.0 0.0 
0.0 1.0 0.0 
0.0 1.0 0.0 
0.0 1.0 0.0 
0.0 1.0 0.0 
0.0 1.0 0.0 
0.0 1.0 0.0 
0.0 1.0 0.0 
0.0 1.0 0.0 
0.0 1.0 0.0 
0.0 1.0 0.0 
0.0 1.0 0.0 
0.0 1.0 0.0 
0.0 1.0 0.0 
0.0 1.0 0.0 
0.0 1.0 0.0 
0.0 1.0 0.0 
0.0 1.0 0.0 
0.0 1.0 0.0 
0.0 1.0 0.0 
0.0 1.0 0.0 
0.0 1.0 0.0 
0.0 1.0 0.0 
0.0 1.0 0.0 
0.0 1.0 0.0 
0.0 1.0 0.0 
0.0 1.0 0.0 
0.0 1.0 0.0 
0.0 1.0 0.0 
0.0 1.0 0.0 
0.0 1.0 0.0 
0.0 1.0 0.0 
0.0 1.0 0.0 
0.0 1.0 0.0 
0.0 1.0 0.0 
0.0 1.0 0.0 
0.0 1.0 0.0 
0.0 1.0 0.0 
0.0 1.0 0.0 
0.0 1.0 0.0 
0.0 1.0 0.0 
0.0 0.0 1.0 
0.0 0.0 1.0 
0.0 0.0 1.0 
0.0 0.0 1.0 
0.0 0.0 1.0 
0.0 0.0 1.0 
0.0 0.0 1.0 
0.0 0.0 1.0 
0.0 0.0 1.0 
0.0 0.0 1.0 
0.0 0.0 1.0 
0.0 0.0 1.0 
0.0 0.0 1.0 
0.0 0.0 1.0 
0.0 0.0 1.0 
0.0 0.0 1.0 
0.0 0.0 1.0 
0.0 0.0 1.0 
0.0 0.0 1.0 
0.0 0.0 1.0 
0.0 0.0 1.0 
0.0 0.0 1.0 
0.0 0.0 1.0 
0.0 0.0 1.0 
0.0 0.0 1.0 
0.0 0.0 1.0 
0.0 0.0 1.0 
0.0 0.0 1.0 
0.0 0.0 1.0 
0.0 0.0 1.0 
0.0 0.0 1.0 
0.0 0.0 1.0 
0.0 0.0 1.0 
0.0 0.0 1.0 
0.0 0.0 1.0 
0.0 0.0 1.0 
0.0 0.0 1.0 
0.0 0.0 1.0 
0.0 0.0 1.0 
0.0 0.0 1.0 
0.0 0.0 1.0 
0.0 0.0 1.0 
0.0 0.0 1.0 
0.0 0.0 1.0 
0.0 0.0 1.0 
0.0 0.0 1.0 
0.0 0.0 1.0 
0.0 0.0 1.0 
0.0 0.0 1.0 
0.0 0.0 1.0 
Learning : 0.8500000238418579
Momentum : 0.9
Epoch: 100, Error: 0.012456699603284247
Epoch: 200, Error: 0.012438221299876722
Epoch: 300, Error: 0.015929892940909525
Epoch: 400, Error: 0.012731918287350475
Epoch: 500, Error: 0.013491798708301592
Epoch: 600, Error: 0.013303708464230188
Epoch: 700, Error: 0.015788160009424963
Epoch: 800, Error: 0.013551204553120531
Epoch: 900, Error: 0.012912076368901165
Epoch: 1000, Error: 0.012572238501010177
Epoch: 1100, Error: 0.018154940312561523
Epoch: 1200, Error: 0.012253464333996662
Epoch: 1300, Error: 0.012859132505249811
Epoch: 1400, Error: 0.013290917942211853
Epoch: 1500, Error: 0.012331357252213838
Epoch: 1600, Error: 0.011705399386309394
Epoch: 1700, Error: 0.012344654791465452
Epoch: 1800, Error: 0.011764504190849205
Epoch: 1900, Error: 0.011517245125794773
Epoch: 2000, Error: 0.011540371738377981
Epoch: 2100, Error: 0.011151497708557476
Epoch: 2200, Error: 0.01061443574499938
Epoch: 2300, Error: 0.008800874126144073
Epoch: 2400, Error: 0.007780998898673035
Epoch: 2500, Error: 0.007396429561911078
Epoch: 2600, Error: 0.00844851808260395
Epoch: 2700, Error: 0.006863900971247956
Epoch: 2800, Error: 0.0069716836146694605
Epoch: 2900, Error: 0.006331844664198187
Epoch: 3000, Error: 0.006470862005415413
Epoch: 3100, Error: 0.0067798319378988775
Epoch: 3200, Error: 0.007280672347421949
Epoch: 3300, Error: 0.005757190183402127
Epoch: 3400, Error: 0.006030598199362254
Epoch: 3500, Error: 0.0064344509631891
Epoch: 3600, Error: 0.005942367881526444
Epoch: 3700, Error: 0.005663240152144904
Epoch: 3800, Error: 0.00542529629223482
Epoch: 3900, Error: 0.0050913588687840775
Epoch: 4000, Error: 0.005195567977173198
Epoch: 4100, Error: 0.005087627694777891
Epoch: 4200, Error: 0.004996767898681072
Epoch: 4300, Error: 0.005343066030684521
Epoch: 4400, Error: 0.004997325055317599
Epoch: 4500, Error: 0.0050077410712295175
Epoch: 4600, Error: 0.004839874354052409
Epoch: 4700, Error: 0.005452981590134607
Epoch: 4800, Error: 0.004917550178350498
Epoch: 4900, Error: 0.004924720560364929
Epoch: 5000, Error: 0.004892496148614995
Epoch: 5100, Error: 0.004708005080213118
Epoch: 5200, Error: 0.00464274562458666
Epoch: 5300, Error: 0.004681983937548826
Epoch: 5400, Error: 0.004867320300874498
Epoch: 5500, Error: 0.0057207616607543015
Epoch: 5600, Error: 0.004853952471532485
Epoch: 5700, Error: 0.004231322136434913
Epoch: 5800, Error: 0.004238882237020811
Epoch: 5900, Error: 0.004252217713105841
Epoch: 6000, Error: 0.0039724269770567925
Epoch: 6100, Error: 0.004185772404873077
Epoch: 6200, Error: 0.003140509017856125
Epoch: 6300, Error: 0.003179478327638694
Epoch: 6400, Error: 0.0028958084760299244
Epoch: 6500, Error: 0.004440850765756843
Epoch: 6600, Error: 0.005297287576590923
Epoch: 6700, Error: 0.00400039827841178
Epoch: 6800, Error: 0.0020177951760043133
Epoch: 6900, Error: 0.0020953273106730083
Epoch: 7000, Error: 0.0014374984025186598
Epoch: 7100, Error: 0.001616060523473104
Epoch: 7200, Error: 0.0013220699374037743
Epoch: 7300, Error: 0.0012448529075611077
Epoch: 7400, Error: 0.0011933445725070702
Epoch: 7500, Error: 0.0011543088200256031
Epoch: 7600, Error: 0.001137327212091892
Epoch: 7700, Error: 0.0011252133616720254
Epoch: 7800, Error: 0.0011066677449597302
Epoch: 7900, Error: 0.0010973664787851086
Epoch: 8000, Error: 0.0011184600164867024
Epoch: 8100, Error: 0.0010648398951902892
Epoch: 8200, Error: 0.0010682457511075
Epoch: 8300, Error: 0.001027403489471192
Epoch: 8400, Error: 0.0010243072334795791
Epoch: 8500, Error: 0.001025440185131068
Epoch: 8600, Error: 0.0010509812847750149
Epoch: 8700, Error: 0.0010343643171393739
Epoch: 8800, Error: 0.0010200796539506154
Epoch: 8900, Error: 0.0010362884854641932
Epoch: 9000, Error: 0.0010686312346715344
Epoch: 9100, Error: 0.0011518525409810246
Epoch: 9200, Error: 0.0011972870147381426
Epoch: 9300, Error: 0.0012016341219024073
Epoch: 9400, Error: 0.0011647882709098355
Epoch: 9500, Error: 0.0011487561842752334
Epoch: 9600, Error: 0.0011415746721629592
Epoch: 9700, Error: 0.001160231450907189
Epoch: 9800, Error: 0.0011353591240945938
Epoch: 9900, Error: 0.0011633647301198685
Epoch: 10000, Error: 0.0011413853070668134
Finished
