Input Patterns
0.224 0.624 0.067 0.043 
0.11 0.502 0.051 0.043 
0.196 0.667 0.067 0.043 
0.055 0.584 0.067 0.082 
0.027 0.376 0.067 0.043 
0.306 0.71 0.086 0.043 
0.137 0.416 0.067 0.0 
0.416 0.831 0.035 0.043 
0.306 0.792 0.051 0.125 
0.388 0.749 0.118 0.082 
0.306 0.584 0.118 0.043 
0.082 0.667 0.0 0.043 
0.137 0.584 0.153 0.043 
0.196 0.584 0.102 0.125 
0.251 0.584 0.067 0.043 
0.137 0.459 0.102 0.043 
0.251 0.875 0.086 0.0 
0.165 0.459 0.086 0.043 
0.333 0.624 0.051 0.043 
0.027 0.416 0.051 0.043 
0.196 0.624 0.051 0.082 
0.027 0.502 0.051 0.043 
0.224 0.749 0.153 0.125 
0.224 0.749 0.102 0.043 
0.278 0.71 0.086 0.043 
0.165 0.416 0.067 0.043 
0.082 0.459 0.086 0.043 
0.306 0.792 0.118 0.125 
0.196 0.584 0.086 0.043 
0.165 0.459 0.086 0.0 
0.137 0.584 0.102 0.043 
0.0 0.416 0.016 0.0 
0.388 1.0 0.086 0.125 
0.224 0.624 0.067 0.082 
0.224 0.749 0.086 0.082 
0.224 0.71 0.086 0.125 
0.224 0.541 0.118 0.165 
0.196 0.416 0.102 0.043 
0.251 0.624 0.086 0.043 
0.11 0.502 0.102 0.043 
0.306 0.584 0.086 0.125 
0.333 0.918 0.067 0.043 
0.196 0.502 0.035 0.043 
0.165 0.667 0.067 0.0 
0.224 0.584 0.086 0.043 
0.055 0.125 0.051 0.082 
0.196 0.624 0.102 0.208 
0.137 0.416 0.067 0.082 
0.082 0.502 0.067 0.043 
0.196 0.541 0.067 0.043 
0.749 0.502 0.627 0.541 
0.722 0.459 0.663 0.584 
0.612 0.333 0.612 0.584 
0.557 0.541 0.627 0.624 
0.639 0.376 0.612 0.498 
0.196 0.0 0.424 0.376 
0.471 0.082 0.51 0.376 
0.361 0.376 0.439 0.498 
0.361 0.416 0.592 0.584 
0.529 0.082 0.592 0.584 
0.443 0.502 0.643 0.459 
0.557 0.208 0.663 0.584 
0.584 0.376 0.561 0.498 
0.694 0.333 0.643 0.541 
0.471 0.376 0.592 0.584 
0.333 0.169 0.475 0.416 
0.416 0.29 0.49 0.459 
0.306 0.416 0.592 0.584 
0.667 0.459 0.627 0.584 
0.361 0.416 0.525 0.498 
0.333 0.251 0.576 0.459 
0.416 0.251 0.51 0.459 
0.361 0.29 0.541 0.498 
0.388 0.376 0.541 0.498 
0.224 0.208 0.337 0.416 
0.584 0.502 0.592 0.584 
0.333 0.125 0.51 0.498 
0.388 0.333 0.592 0.498 
0.165 0.169 0.388 0.376 
0.251 0.29 0.49 0.541 
0.443 0.416 0.541 0.584 
0.498 0.376 0.627 0.541 
0.667 0.459 0.576 0.541 
0.416 0.29 0.525 0.376 
0.361 0.208 0.49 0.416 
0.498 0.333 0.51 0.498 
0.498 0.333 0.627 0.459 
0.639 0.416 0.576 0.541 
0.667 0.416 0.678 0.667 
0.388 0.251 0.424 0.376 
0.333 0.169 0.459 0.376 
0.471 0.29 0.694 0.624 
0.471 0.584 0.592 0.624 
0.557 0.125 0.576 0.498 
0.333 0.208 0.51 0.498 
0.498 0.416 0.612 0.541 
0.196 0.125 0.388 0.376 
0.388 0.416 0.541 0.459 
0.529 0.376 0.561 0.498 
0.388 0.333 0.525 0.498 
0.557 0.541 0.847 1.0 
0.776 0.416 0.831 0.831 
0.612 0.416 0.812 0.875 
0.165 0.208 0.592 0.667 
0.667 0.208 0.812 0.71 
0.612 0.502 0.694 0.792 
0.694 0.416 0.761 0.831 
0.416 0.333 0.694 0.957 
0.612 0.416 0.761 0.71 
0.945 0.251 1.0 0.918 
0.722 0.502 0.796 0.918 
0.945 0.333 0.965 0.792 
0.667 0.541 0.796 0.831 
0.529 0.333 0.643 0.71 
0.584 0.333 0.78 0.831 
0.863 0.333 0.863 0.749 
0.584 0.333 0.78 0.875 
0.498 0.251 0.78 0.541 
0.557 0.584 0.78 0.957 
0.471 0.416 0.643 0.71 
0.667 0.459 0.78 0.957 
0.416 0.29 0.694 0.749 
0.667 0.541 0.796 1.0 
0.557 0.208 0.678 0.749 
0.529 0.584 0.745 0.918 
0.416 0.29 0.694 0.749 
0.557 0.376 0.78 0.71 
0.918 0.416 0.949 0.831 
0.835 0.376 0.898 0.71 
0.804 0.667 0.863 1.0 
0.584 0.29 0.729 0.749 
0.388 0.208 0.678 0.792 
0.584 0.502 0.729 0.918 
0.945 0.749 0.965 0.875 
0.471 0.082 0.678 0.584 
0.361 0.333 0.663 0.792 
0.557 0.29 0.663 0.71 
0.804 0.502 0.847 0.71 
0.498 0.416 0.51 0.71 
0.804 0.416 0.812 0.624 
1.0 0.749 0.914 0.792 
0.557 0.333 0.694 0.584 
0.945 0.416 0.863 0.918 
0.584 0.459 0.761 0.71 
0.722 0.459 0.745 0.831 
0.722 0.459 0.694 0.918 
0.694 0.502 0.831 0.918 
0.667 0.416 0.714 0.918 
0.612 0.416 0.714 0.792 
0.443 0.416 0.694 0.71 
Teaching Patterns
1.0 0.0 0.0 
1.0 0.0 0.0 
1.0 0.0 0.0 
1.0 0.0 0.0 
1.0 0.0 0.0 
1.0 0.0 0.0 
1.0 0.0 0.0 
1.0 0.0 0.0 
1.0 0.0 0.0 
1.0 0.0 0.0 
1.0 0.0 0.0 
1.0 0.0 0.0 
1.0 0.0 0.0 
1.0 0.0 0.0 
1.0 0.0 0.0 
1.0 0.0 0.0 
1.0 0.0 0.0 
1.0 0.0 0.0 
1.0 0.0 0.0 
1.0 0.0 0.0 
1.0 0.0 0.0 
1.0 0.0 0.0 
1.0 0.0 0.0 
1.0 0.0 0.0 
1.0 0.0 0.0 
1.0 0.0 0.0 
1.0 0.0 0.0 
1.0 0.0 0.0 
1.0 0.0 0.0 
1.0 0.0 0.0 
1.0 0.0 0.0 
1.0 0.0 0.0 
1.0 0.0 0.0 
1.0 0.0 0.0 
1.0 0.0 0.0 
1.0 0.0 0.0 
1.0 0.0 0.0 
1.0 0.0 0.0 
1.0 0.0 0.0 
1.0 0.0 0.0 
1.0 0.0 0.0 
1.0 0.0 0.0 
1.0 0.0 0.0 
1.0 0.0 0.0 
1.0 0.0 0.0 
1.0 0.0 0.0 
1.0 0.0 0.0 
1.0 0.0 0.0 
1.0 0.0 0.0 
1.0 0.0 0.0 
0.0 1.0 0.0 
0.0 1.0 0.0 
0.0 1.0 0.0 
0.0 1.0 0.0 
0.0 1.0 0.0 
0.0 1.0 0.0 
0.0 1.0 0.0 
0.0 1.0 0.0 
0.0 1.0 0.0 
0.0 1.0 0.0 
0.0 1.0 0.0 
0.0 1.0 0.0 
0.0 1.0 0.0 
0.0 1.0 0.0 
0.0 1.0 0.0 
0.0 1.0 0.0 
0.0 1.0 0.0 
0.0 1.0 0.0 
0.0 1.0 0.0 
0.0 1.0 0.0 
0.0 1.0 0.0 
0.0 1.0 0.0 
0.0 1.0 0.0 
0.0 1.0 0.0 
0.0 1.0 0.0 
0.0 1.0 0.0 
0.0 1.0 0.0 
0.0 1.0 0.0 
0.0 1.0 0.0 
0.0 1.0 0.0 
0.0 1.0 0.0 
0.0 1.0 0.0 
0.0 1.0 0.0 
0.0 1.0 0.0 
0.0 1.0 0.0 
0.0 1.0 0.0 
0.0 1.0 0.0 
0.0 1.0 0.0 
0.0 1.0 0.0 
0.0 1.0 0.0 
0.0 1.0 0.0 
0.0 1.0 0.0 
0.0 1.0 0.0 
0.0 1.0 0.0 
0.0 1.0 0.0 
0.0 1.0 0.0 
0.0 1.0 0.0 
0.0 1.0 0.0 
0.0 1.0 0.0 
0.0 1.0 0.0 
0.0 0.0 1.0 
0.0 0.0 1.0 
0.0 0.0 1.0 
0.0 0.0 1.0 
0.0 0.0 1.0 
0.0 0.0 1.0 
0.0 0.0 1.0 
0.0 0.0 1.0 
0.0 0.0 1.0 
0.0 0.0 1.0 
0.0 0.0 1.0 
0.0 0.0 1.0 
0.0 0.0 1.0 
0.0 0.0 1.0 
0.0 0.0 1.0 
0.0 0.0 1.0 
0.0 0.0 1.0 
0.0 0.0 1.0 
0.0 0.0 1.0 
0.0 0.0 1.0 
0.0 0.0 1.0 
0.0 0.0 1.0 
0.0 0.0 1.0 
0.0 0.0 1.0 
0.0 0.0 1.0 
0.0 0.0 1.0 
0.0 0.0 1.0 
0.0 0.0 1.0 
0.0 0.0 1.0 
0.0 0.0 1.0 
0.0 0.0 1.0 
0.0 0.0 1.0 
0.0 0.0 1.0 
0.0 0.0 1.0 
0.0 0.0 1.0 
0.0 0.0 1.0 
0.0 0.0 1.0 
0.0 0.0 1.0 
0.0 0.0 1.0 
0.0 0.0 1.0 
0.0 0.0 1.0 
0.0 0.0 1.0 
0.0 0.0 1.0 
0.0 0.0 1.0 
0.0 0.0 1.0 
0.0 0.0 1.0 
0.0 0.0 1.0 
0.0 0.0 1.0 
0.0 0.0 1.0 
0.0 0.0 1.0 
Learning : 0.8500000238418579
Momentum : 0.9
Epoch: 100, Error: 0.028532090599438654
Epoch: 200, Error: 0.012675777205180462
Epoch: 300, Error: 0.013522396357229498
Epoch: 400, Error: 0.013316987726707256
Epoch: 500, Error: 0.015846209016401203
Epoch: 600, Error: 0.01278517691038327
Epoch: 700, Error: 0.013357059156611294
Epoch: 800, Error: 0.012938720421482836
Epoch: 900, Error: 0.012861838961042909
Epoch: 1000, Error: 0.014368546516755964
Epoch: 1100, Error: 0.013312593365182509
Epoch: 1200, Error: 0.013186222359802194
Epoch: 1300, Error: 0.01255570660710479
Epoch: 1400, Error: 0.012578821740043575
Epoch: 1500, Error: 0.012663230042169843
Epoch: 1600, Error: 0.01273685510547907
Epoch: 1700, Error: 0.01281080467163518
Epoch: 1800, Error: 0.01259086577007263
Epoch: 1900, Error: 0.01279753538715837
Epoch: 2000, Error: 0.012408212037785585
Epoch: 2100, Error: 0.012429572957691025
Epoch: 2200, Error: 0.012567560472592663
Epoch: 2300, Error: 0.012513922582189117
Epoch: 2400, Error: 0.012657727261766066
Epoch: 2500, Error: 0.01347997540831502
Epoch: 2600, Error: 0.012391591649894666
Epoch: 2700, Error: 0.012371190307899195
Epoch: 2800, Error: 0.013389366396212552
Epoch: 2900, Error: 0.012453507752531902
Epoch: 3000, Error: 0.012637584958227182
Epoch: 3100, Error: 0.012468496831127527
Epoch: 3200, Error: 0.012462531101884885
Epoch: 3300, Error: 0.012511643685015566
Epoch: 3400, Error: 0.012188322163968054
Epoch: 3500, Error: 0.011988383365991277
Epoch: 3600, Error: 0.01197225956081488
Epoch: 3700, Error: 0.012391869239489458
Epoch: 3800, Error: 0.011930814270746729
Epoch: 3900, Error: 0.011965641828087044
Epoch: 4000, Error: 0.012698668263355094
Epoch: 4100, Error: 0.011564099945186802
Epoch: 4200, Error: 0.01212771023366599
Epoch: 4300, Error: 0.011497918949261339
Epoch: 4400, Error: 0.011329385188446341
Epoch: 4500, Error: 0.011947079131733353
Epoch: 4600, Error: 0.01308446972392875
Epoch: 4700, Error: 0.01144255297554253
Epoch: 4800, Error: 0.010914120820757614
Epoch: 4900, Error: 0.01071456099325078
Epoch: 5000, Error: 0.010759649438688913
Epoch: 5100, Error: 0.011210440487564855
Epoch: 5200, Error: 0.010196728112722542
Epoch: 5300, Error: 0.010119535799866497
Epoch: 5400, Error: 0.010093273422386136
Epoch: 5500, Error: 0.010311991567117132
Epoch: 5600, Error: 0.01000710816350456
Epoch: 5700, Error: 0.009980200825787221
Epoch: 5800, Error: 0.009961311194403319
Epoch: 5900, Error: 0.0099193577010412
Epoch: 6000, Error: 0.009946404889778621
Epoch: 6100, Error: 0.009982353363320522
Epoch: 6200, Error: 0.010002740495138293
Epoch: 6300, Error: 0.009946972579441517
Epoch: 6400, Error: 0.009946154501437078
Epoch: 6500, Error: 0.0099111309525981
Epoch: 6600, Error: 0.009951856506502585
Epoch: 6700, Error: 0.009889714172415858
Epoch: 6800, Error: 0.009894560149632123
Epoch: 6900, Error: 0.009855669738654503
Epoch: 7000, Error: 0.009884532695261053
Epoch: 7100, Error: 0.009872593843505372
Epoch: 7200, Error: 0.009868653500747197
Epoch: 7300, Error: 0.009862538102878017
Epoch: 7400, Error: 0.009842141494456726
Epoch: 7500, Error: 0.009877822620080077
Epoch: 7600, Error: 0.0098721342885182
Epoch: 7700, Error: 0.009883486929283584
Epoch: 7800, Error: 0.009917109436627687
Epoch: 7900, Error: 0.009835584019577579
Epoch: 8000, Error: 0.009885017162661904
Epoch: 8100, Error: 0.009914059481201144
Epoch: 8200, Error: 0.009872025023725214
Epoch: 8300, Error: 0.009869761903601495
Epoch: 8400, Error: 0.00989172005981625
Epoch: 8500, Error: 0.009865383034504726
Epoch: 8600, Error: 0.009851565417566826
Epoch: 8700, Error: 0.00986333929303655
Epoch: 8800, Error: 0.00984686775579277
Epoch: 8900, Error: 0.009851651228241632
Epoch: 9000, Error: 0.00991034434439642
Epoch: 9100, Error: 0.009906941976239264
Epoch: 9200, Error: 0.009862752760341782
Epoch: 9300, Error: 0.010029616853081064
Epoch: 9400, Error: 0.009901888479738219
Epoch: 9500, Error: 0.009881728643909333
Epoch: 9600, Error: 0.00991034427096907
Epoch: 9700, Error: 0.00989522496948201
Epoch: 9800, Error: 0.00988235169393858
Epoch: 9900, Error: 0.009927977700606605
Epoch: 10000, Error: 0.009883219273623558
Epoch: 10100, Error: 0.009891544490174656
Epoch: 10200, Error: 0.00992304031093227
Epoch: 10300, Error: 0.00991722144957167
Epoch: 10400, Error: 0.009916712535049547
Epoch: 10500, Error: 0.009981442716397334
Epoch: 10600, Error: 0.009893124608509184
Epoch: 10700, Error: 0.009895439318951631
Epoch: 10800, Error: 0.009929650368259428
Epoch: 10900, Error: 0.009936994100147326
Epoch: 11000, Error: 0.009931226633112423
Epoch: 11100, Error: 0.009940485846567279
Epoch: 11200, Error: 0.009943949323447183
Epoch: 11300, Error: 0.009980555535081592
Epoch: 11400, Error: 0.009952421191464278
Epoch: 11500, Error: 0.009935308060976039
Epoch: 11600, Error: 0.009945765178108213
Epoch: 11700, Error: 0.00993235596751168
Epoch: 11800, Error: 0.009940693449769169
Epoch: 11900, Error: 0.009955365237774653
Epoch: 12000, Error: 0.009990924282814484
Epoch: 12100, Error: 0.010005394984888389
Epoch: 12200, Error: 0.009954632207050531
Epoch: 12300, Error: 0.009973975138877194
Epoch: 12400, Error: 0.009991695964033619
Epoch: 12500, Error: 0.009992954503556866
Epoch: 12600, Error: 0.00999732265240417
Epoch: 12700, Error: 0.009990078074026042
Epoch: 12800, Error: 0.01003055925253265
Epoch: 12900, Error: 0.010005630667405183
Epoch: 13000, Error: 0.010005107883994366
Epoch: 13100, Error: 0.010010722900460066
Epoch: 13200, Error: 0.010037198479216726
Epoch: 13300, Error: 0.009978431081496437
Epoch: 13400, Error: 0.010091088814582245
Epoch: 13500, Error: 0.010023883914755791
Epoch: 13600, Error: 0.009999144894381942
Epoch: 13700, Error: 0.010019984823809763
Epoch: 13800, Error: 0.01001108568002844
Epoch: 13900, Error: 0.01002945970490651
Epoch: 14000, Error: 0.010136205317806039
Epoch: 14100, Error: 0.009996623524542267
Epoch: 14200, Error: 0.010092536096677193
Epoch: 14300, Error: 0.010021180791401938
Epoch: 14400, Error: 0.010024277402042961
Epoch: 14500, Error: 0.009999834880749625
Epoch: 14600, Error: 0.010038468814745247
Epoch: 14700, Error: 0.010073214838076107
Epoch: 14800, Error: 0.010046304775583279
Epoch: 14900, Error: 0.010084637187283066
Epoch: 15000, Error: 0.010025700107733175
Epoch: 15100, Error: 0.010049510780600042
Epoch: 15200, Error: 0.01003879913418413
Epoch: 15300, Error: 0.010071840084698516
Epoch: 15400, Error: 0.010031371528334167
Epoch: 15500, Error: 0.010087143515796251
Epoch: 15600, Error: 0.01001589062531293
Epoch: 15700, Error: 0.010026939152671353
Epoch: 15800, Error: 0.010050722535403327
Epoch: 15900, Error: 0.0100548989357309
Epoch: 16000, Error: 0.010058255988058245
Epoch: 16100, Error: 0.010083918693892545
Epoch: 16200, Error: 0.010057707381036455
Epoch: 16300, Error: 0.010127174717846117
Epoch: 16400, Error: 0.010084770947064567
Epoch: 16500, Error: 0.010186470565860216
Epoch: 16600, Error: 0.010120535871176678
Epoch: 16700, Error: 0.010047717865206335
Epoch: 16800, Error: 0.0101046411372163
Epoch: 16900, Error: 0.010077209073231416
Epoch: 17000, Error: 0.010124139198034258
Epoch: 17100, Error: 0.010073244763843334
Epoch: 17200, Error: 0.010124082098960374
Epoch: 17300, Error: 0.010112623519022841
Epoch: 17400, Error: 0.010097723818857459
Epoch: 17500, Error: 0.010109829259729199
Epoch: 17600, Error: 0.010079072484172983
Epoch: 17700, Error: 0.010097596352983788
Epoch: 17800, Error: 0.01008194613281772
Epoch: 17900, Error: 0.0100850803460872
Epoch: 18000, Error: 0.010109389626920331
Epoch: 18100, Error: 0.010081036732769224
Epoch: 18200, Error: 0.01009963413891605
Epoch: 18300, Error: 0.01009355134223802
Epoch: 18400, Error: 0.010068043711404368
Epoch: 18500, Error: 0.009906354989520546
Epoch: 18600, Error: 0.009911955113562621
Epoch: 18700, Error: 0.00991240781948248
Epoch: 18800, Error: 0.0099439202972093
Epoch: 18900, Error: 0.009865539646859173
Epoch: 19000, Error: 0.009972235934035435
Epoch: 19100, Error: 0.009974292835454998
Epoch: 19200, Error: 0.00996418495969254
Epoch: 19300, Error: 0.009892303923743014
Epoch: 19400, Error: 0.009934078219324578
Epoch: 19500, Error: 0.010100878054352877
Epoch: 19600, Error: 0.009928982067357693
Epoch: 19700, Error: 0.0099143062214271
Epoch: 19800, Error: 0.009906988099045803
Epoch: 19900, Error: 0.009944005221835524
Epoch: 20000, Error: 0.010326443324506256
Epoch: 20100, Error: 0.009952386781618312
Epoch: 20200, Error: 0.009970023297674453
Epoch: 20300, Error: 0.010014044864732608
Epoch: 20400, Error: 0.010031783082281203
Epoch: 20500, Error: 0.010014607370265858
Epoch: 20600, Error: 0.010054659236206638
Epoch: 20700, Error: 0.009954683561246541
Epoch: 20800, Error: 0.010020179514324113
Epoch: 20900, Error: 0.009978170289510894
Epoch: 21000, Error: 0.010078744993590127
Epoch: 21100, Error: 0.009992870185247672
Epoch: 21200, Error: 0.010100217504702682
Epoch: 21300, Error: 0.010092671440822576
Epoch: 21400, Error: 0.010140231613678252
Epoch: 21500, Error: 0.010104796742634226
Epoch: 21600, Error: 0.01000571888816586
Epoch: 21700, Error: 0.010099704108673961
Epoch: 21800, Error: 0.010046479021965975
Epoch: 21900, Error: 0.010087616839774645
Epoch: 22000, Error: 0.010098671662869443
Epoch: 22100, Error: 0.010102467300091818
Epoch: 22200, Error: 0.010063957710916328
Epoch: 22300, Error: 0.010166397679161856
Epoch: 22400, Error: 0.010127420679797735
Epoch: 22500, Error: 0.010032970474830231
Epoch: 22600, Error: 0.010189192075025836
Epoch: 22700, Error: 0.010025129909483435
Epoch: 22800, Error: 0.010083795661041109
Epoch: 22900, Error: 0.010053968457925529
Epoch: 23000, Error: 0.010192603671775383
Epoch: 23100, Error: 0.01006420297185941
Epoch: 23200, Error: 0.010062043581287731
Epoch: 23300, Error: 0.010117663943660114
Epoch: 23400, Error: 0.01009227933656099
Epoch: 23500, Error: 0.010108072844946098
Epoch: 23600, Error: 0.010099985297242667
Epoch: 23700, Error: 0.010099297194851722
Epoch: 23800, Error: 0.010099042047621474
Epoch: 23900, Error: 0.01020144056033922
Epoch: 24000, Error: 0.010109247191752657
Epoch: 24100, Error: 0.010145538950578197
Epoch: 24200, Error: 0.010086663170430296
Epoch: 24300, Error: 0.010205680859064897
Epoch: 24400, Error: 0.010105624031947834
Epoch: 24500, Error: 0.010117583810886547
Epoch: 24600, Error: 0.010400145553940915
Epoch: 24700, Error: 0.010186163942988328
Epoch: 24800, Error: 0.010121037254693497
Epoch: 24900, Error: 0.010231074419784613
Epoch: 25000, Error: 0.010116607472547202
Epoch: 25100, Error: 0.010179109396638594
Epoch: 25200, Error: 0.010175967686335689
Epoch: 25300, Error: 0.010181803122468077
Epoch: 25400, Error: 0.01017059304257778
Epoch: 25500, Error: 0.010122780401198152
Epoch: 25600, Error: 0.010178093622755744
Epoch: 25700, Error: 0.010218978139030317
Epoch: 25800, Error: 0.01017066532911316
Epoch: 25900, Error: 0.010160329387890226
Epoch: 26000, Error: 0.010164935431170018
Epoch: 26100, Error: 0.01017271085285266
Epoch: 26200, Error: 0.01029058319642157
Epoch: 26300, Error: 0.010174008992966962
Epoch: 26400, Error: 0.01015496603193728
Epoch: 26500, Error: 0.010217928647583065
Epoch: 26600, Error: 0.01015511503441914
Epoch: 26700, Error: 0.010264606937937988
Epoch: 26800, Error: 0.010189452299752641
Epoch: 26900, Error: 0.010118983050144296
Epoch: 27000, Error: 0.010200497025106812
Epoch: 27100, Error: 0.010270322174980192
Epoch: 27200, Error: 0.010273812385260792
Epoch: 27300, Error: 0.0101613820453139
Epoch: 27400, Error: 0.01017926124499972
Epoch: 27500, Error: 0.01029676780924363
Epoch: 27600, Error: 0.01021180343310588
Epoch: 27700, Error: 0.010222004326980784
Epoch: 27800, Error: 0.010204484640669155
Epoch: 27900, Error: 0.010196231172582879
Epoch: 28000, Error: 0.01021382086919745
Epoch: 28100, Error: 0.010235191604927541
Epoch: 28200, Error: 0.010148385879519016
Epoch: 28300, Error: 0.010196733283576329
Epoch: 28400, Error: 0.010194020363535656
Epoch: 28500, Error: 0.010242377484612932
Epoch: 28600, Error: 0.010233734178891611
Epoch: 28700, Error: 0.010176558747629755
Epoch: 28800, Error: 0.010262649738123946
Epoch: 28900, Error: 0.010229316912574287
Epoch: 29000, Error: 0.010204934739452054
Epoch: 29100, Error: 0.01029093471303989
Epoch: 29200, Error: 0.010315485756075722
Epoch: 29300, Error: 0.01030540036402453
Epoch: 29400, Error: 0.01023337346302654
Epoch: 29500, Error: 0.010213969158690684
Epoch: 29600, Error: 0.010215958772202436
Epoch: 29700, Error: 0.010317924216416453
Epoch: 29800, Error: 0.01025762066193897
Epoch: 29900, Error: 0.010213853984340462
Epoch: 30000, Error: 0.010184381695269593
Epoch: 30100, Error: 0.010226947971340359
Epoch: 30200, Error: 0.010198822915190198
Epoch: 30300, Error: 0.010277181037714534
Epoch: 30400, Error: 0.010261173386938787
Epoch: 30500, Error: 0.010265299188036016
Epoch: 30600, Error: 0.010320972271385618
Epoch: 30700, Error: 0.010277700446192717
Epoch: 30800, Error: 0.0102340982579704
Epoch: 30900, Error: 0.010348913039012336
Epoch: 31000, Error: 0.010192674339393323
Epoch: 31100, Error: 0.01024970173187801
Epoch: 31200, Error: 0.010216220617518116
Epoch: 31300, Error: 0.01028311620836779
Epoch: 31400, Error: 0.010221410777156803
Epoch: 31500, Error: 0.010213103053448028
Epoch: 31600, Error: 0.010231832662697787
Epoch: 31700, Error: 0.010206611699265742
Epoch: 31800, Error: 0.010186964682638324
Epoch: 31900, Error: 0.010271627606964531
Epoch: 32000, Error: 0.010211011008847132
Epoch: 32100, Error: 0.01024387524389754
Epoch: 32200, Error: 0.01024013603296969
Epoch: 32300, Error: 0.01023309865649523
Epoch: 32400, Error: 0.010411413267161523
Epoch: 32500, Error: 0.010282630338950237
Epoch: 32600, Error: 0.010327851509274243
Epoch: 32700, Error: 0.010215881817131962
Epoch: 32800, Error: 0.010243864485414433
Epoch: 32900, Error: 0.010354149398900893
Epoch: 33000, Error: 0.010234180999353781
Epoch: 33100, Error: 0.010247957698132153
Epoch: 33200, Error: 0.010307871732969948
Epoch: 33300, Error: 0.010245936090992839
Epoch: 33400, Error: 0.010195854664535209
Epoch: 33500, Error: 0.010287132298941085
Epoch: 33600, Error: 0.010241539966709406
Epoch: 33700, Error: 0.010330930217510302
Epoch: 33800, Error: 0.010486658259178105
Epoch: 33900, Error: 0.010291506064677842
Epoch: 34000, Error: 0.010311068780378895
Epoch: 34100, Error: 0.010315350921227984
Epoch: 34200, Error: 0.010311508446310284
Epoch: 34300, Error: 0.010243351855254596
Epoch: 34400, Error: 0.010237253913773815
Epoch: 34500, Error: 0.010381299015656915
Epoch: 34600, Error: 0.010334576473893018
Epoch: 34700, Error: 0.010347455263106275
Epoch: 34800, Error: 0.010227142640001359
Epoch: 34900, Error: 0.01031851865148325
Epoch: 35000, Error: 0.010248173990691242
Epoch: 35100, Error: 0.010276146196609779
Epoch: 35200, Error: 0.010237815742992401
Epoch: 35300, Error: 0.0102635246102441
Epoch: 35400, Error: 0.010233334011691372
Epoch: 35500, Error: 0.010342766300120272
Epoch: 35600, Error: 0.010328445435027384
Epoch: 35700, Error: 0.01029457459842225
Epoch: 35800, Error: 0.010285867704960457
Epoch: 35900, Error: 0.01032293222589251
Epoch: 36000, Error: 0.010253723776090882
Epoch: 36100, Error: 0.01034658241169215
Epoch: 36200, Error: 0.010300369614265474
Epoch: 36300, Error: 0.010382614231847467
Epoch: 36400, Error: 0.010472631582468158
Epoch: 36500, Error: 0.010363253010910334
Epoch: 36600, Error: 0.010354046119899658
Epoch: 36700, Error: 0.010389898582487254
Epoch: 36800, Error: 0.01024004900753594
Epoch: 36900, Error: 0.010268091487097916
Epoch: 37000, Error: 0.010244586954886762
Epoch: 37100, Error: 0.010249498629694308
Epoch: 37200, Error: 0.01038143957748489
Epoch: 37300, Error: 0.010244826500931368
Epoch: 37400, Error: 0.010275777820632225
Epoch: 37500, Error: 0.010267561454709785
Epoch: 37600, Error: 0.010247973030392796
Epoch: 37700, Error: 0.010290679513681834
Epoch: 37800, Error: 0.010252383301771641
Epoch: 37900, Error: 0.01023761198351496
Epoch: 38000, Error: 0.010263532519251318
Epoch: 38100, Error: 0.010301045528229608
Epoch: 38200, Error: 0.010276809945812104
Epoch: 38300, Error: 0.010250798101531693
Epoch: 38400, Error: 0.010274807289005164
Epoch: 38500, Error: 0.010266191704415966
Epoch: 38600, Error: 0.0102118328773723
Epoch: 38700, Error: 0.010262061238854684
Epoch: 38800, Error: 0.010242752680795126
Epoch: 38900, Error: 0.010375872724527243
Epoch: 39000, Error: 0.010404489016189856
Epoch: 39100, Error: 0.010379466590093608
Epoch: 39200, Error: 0.010308600277336292
Epoch: 39300, Error: 0.010298934175610007
Epoch: 39400, Error: 0.010215406114778877
Epoch: 39500, Error: 0.010221841539865254
Epoch: 39600, Error: 0.010297260809646882
Epoch: 39700, Error: 0.010241119206466729
Epoch: 39800, Error: 0.01023847726162439
Epoch: 39900, Error: 0.010230456649566896
Epoch: 40000, Error: 0.010226578059497024
Epoch: 40100, Error: 0.010264153366653955
Epoch: 40200, Error: 0.010248872230741625
Epoch: 40300, Error: 0.010312427766646317
Epoch: 40400, Error: 0.010291255959192926
Epoch: 40500, Error: 0.010287008331390696
Epoch: 40600, Error: 0.010253923091594843
Epoch: 40700, Error: 0.010230090708033381
Epoch: 40800, Error: 0.010366338995747256
Epoch: 40900, Error: 0.010359555085527347
Epoch: 41000, Error: 0.010257063753012685
Epoch: 41100, Error: 0.010273947895334179
Epoch: 41200, Error: 0.010313092225278287
Epoch: 41300, Error: 0.010289910252110918
Epoch: 41400, Error: 0.010330947184735234
Epoch: 41500, Error: 0.010256373198644694
Epoch: 41600, Error: 0.010299291368042408
Epoch: 41700, Error: 0.010308530848070582
Epoch: 41800, Error: 0.010266167679293964
Epoch: 41900, Error: 0.01030627910875505
Epoch: 42000, Error: 0.01031330322463762
Epoch: 42100, Error: 0.010325753021452003
Epoch: 42200, Error: 0.010296602349594074
Epoch: 42300, Error: 0.01043257700476519
Epoch: 42400, Error: 0.010312798905790286
Epoch: 42500, Error: 0.01026574775346918
Epoch: 42600, Error: 0.010349474336658655
Epoch: 42700, Error: 0.010363522157507528
Epoch: 42800, Error: 0.010328826902174721
Epoch: 42900, Error: 0.010290027986608106
Epoch: 43000, Error: 0.010526024213311476
Epoch: 43100, Error: 0.010282708587870015
Epoch: 43200, Error: 0.0102425153157075
Epoch: 43300, Error: 0.010292940625254774
Epoch: 43400, Error: 0.010284361726541227
Epoch: 43500, Error: 0.010356936129982501
Epoch: 43600, Error: 0.010397220711360549
Epoch: 43700, Error: 0.010352621442038358
Epoch: 43800, Error: 0.01034915982676652
Epoch: 43900, Error: 0.010286398767478328
Epoch: 44000, Error: 0.010658906986788062
Epoch: 44100, Error: 0.010353077427717778
Epoch: 44200, Error: 0.010289642378516152
Epoch: 44300, Error: 0.010332554521803204
Epoch: 44400, Error: 0.010287186588060925
Epoch: 44500, Error: 0.010349561491677789
Epoch: 44600, Error: 0.010422825160107745
Epoch: 44700, Error: 0.010342150804330475
Epoch: 44800, Error: 0.010333916043367614
Epoch: 44900, Error: 0.010428646591954253
Epoch: 45000, Error: 0.010330811001158662
Epoch: 45100, Error: 0.010297545018171567
Epoch: 45200, Error: 0.010309358104348241
Epoch: 45300, Error: 0.010635205762936672
Epoch: 45400, Error: 0.010362307426282422
Epoch: 45500, Error: 0.01034208097092749
Epoch: 45600, Error: 0.010359831439356756
Epoch: 45700, Error: 0.01034665866651904
Epoch: 45800, Error: 0.010371215850167918
Epoch: 45900, Error: 0.010368675074768576
Epoch: 46000, Error: 0.010299233615623068
Epoch: 46100, Error: 0.010378453970053866
Epoch: 46200, Error: 0.010407671743305771
Epoch: 46300, Error: 0.010346445780854256
Epoch: 46400, Error: 0.010315029962296407
Epoch: 46500, Error: 0.010330341878720303
Epoch: 46600, Error: 0.010348874927535404
Epoch: 46700, Error: 0.010351773215877446
Epoch: 46800, Error: 0.010357086880183603
Epoch: 46900, Error: 0.010425740647283143
Epoch: 47000, Error: 0.010314621415507578
Epoch: 47100, Error: 0.01030963298286716
Epoch: 47200, Error: 0.01035741164926278
Epoch: 47300, Error: 0.010395820886977292
Epoch: 47400, Error: 0.01032931125673595
Epoch: 47500, Error: 0.010436286092295067
Epoch: 47600, Error: 0.010346537755539514
Epoch: 47700, Error: 0.010315597120604456
Epoch: 47800, Error: 0.01039772786723772
Epoch: 47900, Error: 0.010316279323491703
Epoch: 48000, Error: 0.010385670083251334
Epoch: 48100, Error: 0.010321333987780191
Epoch: 48200, Error: 0.010327355467275177
Epoch: 48300, Error: 0.010414942961843867
Epoch: 48400, Error: 0.010361231962935109
Epoch: 48500, Error: 0.010392457554264177
Epoch: 48600, Error: 0.010380018552765297
Epoch: 48700, Error: 0.010308973722821633
Epoch: 48800, Error: 0.010312806432496848
Epoch: 48900, Error: 0.010376895270282432
Epoch: 49000, Error: 0.010383922051719716
Epoch: 49100, Error: 0.01035325249270673
Epoch: 49200, Error: 0.010404567391353153
Epoch: 49300, Error: 0.010409234914437564
Epoch: 49400, Error: 0.01036227737960901
Epoch: 49500, Error: 0.010381630276540025
Epoch: 49600, Error: 0.010364001624110991
Epoch: 49700, Error: 0.01043529057924574
Epoch: 49800, Error: 0.010410880187472639
Epoch: 49900, Error: 0.010386123832024237
Epoch: 50000, Error: 0.010362277238965652
Epoch: 50100, Error: 0.010332495395036884
Epoch: 50200, Error: 0.0103297508382692
Epoch: 50300, Error: 0.01035314569144761
Epoch: 50400, Error: 0.010379262624155236
Epoch: 50500, Error: 0.010419578710620424
Epoch: 50600, Error: 0.0103914886001352
Epoch: 50700, Error: 0.01036680905398783
Epoch: 50800, Error: 0.010432083986692198
Epoch: 50900, Error: 0.01044931479665427
Epoch: 51000, Error: 0.01047186912089121
Epoch: 51100, Error: 0.010440726798620752
Epoch: 51200, Error: 0.010409056894338185
Epoch: 51300, Error: 0.010371945561988583
Epoch: 51400, Error: 0.01036826453890907
Epoch: 51500, Error: 0.010444447555483606
Epoch: 51600, Error: 0.010469647907776195
Epoch: 51700, Error: 0.01038429715355587
Epoch: 51800, Error: 0.010425408322239661
Epoch: 51900, Error: 0.010402703371339002
Epoch: 52000, Error: 0.010361641966444486
Epoch: 52100, Error: 0.010402691291428373
Epoch: 52200, Error: 0.010384374790559057
Epoch: 52300, Error: 0.010424282895910452
Epoch: 52400, Error: 0.010414222727122164
Epoch: 52500, Error: 0.010454649005523998
Epoch: 52600, Error: 0.010423424439549363
Epoch: 52700, Error: 0.010437921333584626
Epoch: 52800, Error: 0.010493440920493577
Epoch: 52900, Error: 0.01040988308207025
Epoch: 53000, Error: 0.010400077930626223
Epoch: 53100, Error: 0.010409594834827413
Epoch: 53200, Error: 0.010392920327208692
Epoch: 53300, Error: 0.010470976800172746
Epoch: 53400, Error: 0.010376979428536671
Epoch: 53500, Error: 0.010377546981560808
Epoch: 53600, Error: 0.010354410789962581
Epoch: 53700, Error: 0.010401304160052938
Epoch: 53800, Error: 0.010367635346033573
Epoch: 53900, Error: 0.010376405372394376
Epoch: 54000, Error: 0.01036965732718731
Epoch: 54100, Error: 0.01042748384909862
Epoch: 54200, Error: 0.010425098962112394
Epoch: 54300, Error: 0.01043052468381221
Epoch: 54400, Error: 0.01038146841175526
Epoch: 54500, Error: 0.010469833045249698
Epoch: 54600, Error: 0.010407735767933192
Epoch: 54700, Error: 0.010391612707002547
Epoch: 54800, Error: 0.010734662422122803
Epoch: 54900, Error: 0.010437025845626904
Epoch: 55000, Error: 0.010383603737430861
Epoch: 55100, Error: 0.01040527319865677
Epoch: 55200, Error: 0.010381354581970379
Epoch: 55300, Error: 0.010423428595830082
Epoch: 55400, Error: 0.010587842878890632
Epoch: 55500, Error: 0.010454013653257415
Epoch: 55600, Error: 0.010433128488578278
Epoch: 55700, Error: 0.010433094178778385
Epoch: 55800, Error: 0.010371644854201964
Epoch: 55900, Error: 0.01038344010796494
Epoch: 56000, Error: 0.010423403398276512
Epoch: 56100, Error: 0.0104721776888751
Epoch: 56200, Error: 0.010435765840711635
Epoch: 56300, Error: 0.01046545873032646
Epoch: 56400, Error: 0.010402291657136159
Epoch: 56500, Error: 0.01048553497909843
Epoch: 56600, Error: 0.01047122153153453
Epoch: 56700, Error: 0.010480658414335377
Epoch: 56800, Error: 0.010463369574023195
Epoch: 56900, Error: 0.010492749707473045
Epoch: 57000, Error: 0.010542304825922338
Epoch: 57100, Error: 0.010459017861379965
Epoch: 57200, Error: 0.010400697358345121
Epoch: 57300, Error: 0.010426482634343346
Epoch: 57400, Error: 0.01039787590685335
Epoch: 57500, Error: 0.010382801425718277
Epoch: 57600, Error: 0.010506017280898483
Epoch: 57700, Error: 0.0104261892688298
Epoch: 57800, Error: 0.010400110652658796
Epoch: 57900, Error: 0.0104697255703079
Epoch: 58000, Error: 0.01041327414484742
Epoch: 58100, Error: 0.010522550623490579
Epoch: 58200, Error: 0.010509614045366435
Epoch: 58300, Error: 0.010440078285878585
Epoch: 58400, Error: 0.01039501872096121
Epoch: 58500, Error: 0.01042749829282924
Epoch: 58600, Error: 0.010455431710356376
Epoch: 58700, Error: 0.010406629027237328
Epoch: 58800, Error: 0.01042980261502249
Epoch: 58900, Error: 0.010425797230204453
Epoch: 59000, Error: 0.010440541342533298
Epoch: 59100, Error: 0.010393825828622085
Epoch: 59200, Error: 0.01043244026683972
Epoch: 59300, Error: 0.010449493063030859
Epoch: 59400, Error: 0.010428633203589747
Epoch: 59500, Error: 0.010516390184910171
Epoch: 59600, Error: 0.010435626331298213
Epoch: 59700, Error: 0.010423592566941881
Epoch: 59800, Error: 0.01047485258731398
Epoch: 59900, Error: 0.010437977137943933
Epoch: 60000, Error: 0.010449345323377369
Epoch: 60100, Error: 0.010526446143887513
Epoch: 60200, Error: 0.010416322198139401
Epoch: 60300, Error: 0.010456152593621341
Epoch: 60400, Error: 0.010499280336249613
Epoch: 60500, Error: 0.010497359185935445
Epoch: 60600, Error: 0.010554246673747712
Epoch: 60700, Error: 0.01046213966974086
Epoch: 60800, Error: 0.01049313028440405
Epoch: 60900, Error: 0.010422117393139769
Epoch: 61000, Error: 0.010396165120040032
Epoch: 61100, Error: 0.01050545715947599
Epoch: 61200, Error: 0.010461324541825759
Epoch: 61300, Error: 0.010492680670597082
Epoch: 61400, Error: 0.010418159903991503
Epoch: 61500, Error: 0.010493264550335167
Epoch: 61600, Error: 0.01049410804848592
Epoch: 61700, Error: 0.010468339730547728
Epoch: 61800, Error: 0.010518707468437399
Epoch: 61900, Error: 0.010538049643442543
Epoch: 62000, Error: 0.010403925225713885
Epoch: 62100, Error: 0.010482023178397611
Epoch: 62200, Error: 0.010458428340936755
Epoch: 62300, Error: 0.010510830632326997
Epoch: 62400, Error: 0.010421642576317872
Epoch: 62500, Error: 0.010482093911113323
Epoch: 62600, Error: 0.010451131784682358
Epoch: 62700, Error: 0.010405520749272217
Epoch: 62800, Error: 0.010519189463788966
Epoch: 62900, Error: 0.010455157873645891
Epoch: 63000, Error: 0.01051896159498861
Epoch: 63100, Error: 0.01054229164476299
Epoch: 63200, Error: 0.010505142056104063
Epoch: 63300, Error: 0.010527427415218145
Epoch: 63400, Error: 0.010404821638106923
Epoch: 63500, Error: 0.010541460375979715
Epoch: 63600, Error: 0.010457362733196984
Epoch: 63700, Error: 0.01052021040188994
Epoch: 63800, Error: 0.010431227261199782
Epoch: 63900, Error: 0.010459971643879792
Epoch: 64000, Error: 0.010434943472849931
Epoch: 64100, Error: 0.010463628425240016
Epoch: 64200, Error: 0.010448516002384839
Epoch: 64300, Error: 0.010425726398035256
Epoch: 64400, Error: 0.010489376917951146
Epoch: 64500, Error: 0.010460141981760995
Epoch: 64600, Error: 0.010454516056777483
Epoch: 64700, Error: 0.010442424674083175
Epoch: 64800, Error: 0.01047782623702799
Epoch: 64900, Error: 0.01041790669751555
Epoch: 65000, Error: 0.010461090252935078
Epoch: 65100, Error: 0.01048052125616532
Epoch: 65200, Error: 0.010573108853254024
Epoch: 65300, Error: 0.010538551956346417
Epoch: 65400, Error: 0.010524195507575652
Epoch: 65500, Error: 0.010463894726622167
Epoch: 65600, Error: 0.01073202818832539
Epoch: 65700, Error: 0.01048105840770758
Epoch: 65800, Error: 0.01050937902528974
Epoch: 65900, Error: 0.010438248874547149
Epoch: 66000, Error: 0.010429631803860345
Epoch: 66100, Error: 0.01047058701005394
Epoch: 66200, Error: 0.010422551769945538
Epoch: 66300, Error: 0.01043509732974704
Epoch: 66400, Error: 0.010409841411603685
Epoch: 66500, Error: 0.01045101933607881
Epoch: 66600, Error: 0.010453264542968944
Epoch: 66700, Error: 0.010438092941128086
Epoch: 66800, Error: 0.01056312688263548
Epoch: 66900, Error: 0.010481174831339543
Epoch: 67000, Error: 0.01044158876843166
Epoch: 67100, Error: 0.010463529841491572
Epoch: 67200, Error: 0.010421399231123216
Epoch: 67300, Error: 0.010564063249876103
Epoch: 67400, Error: 0.010495369313833072
Epoch: 67500, Error: 0.010440434063369043
Epoch: 67600, Error: 0.010474862658366595
Epoch: 67700, Error: 0.010499334119648424
Epoch: 67800, Error: 0.01055064166697535
Epoch: 67900, Error: 0.010475419808681458
Epoch: 68000, Error: 0.01051115903740801
Epoch: 68100, Error: 0.010509696446969743
Epoch: 68200, Error: 0.010465120122084616
Epoch: 68300, Error: 0.010459357183425284
Epoch: 68400, Error: 0.010482696082072834
Epoch: 68500, Error: 0.010543721073071397
Epoch: 68600, Error: 0.010482698335566825
Epoch: 68700, Error: 0.010434235468974453
Epoch: 68800, Error: 0.010584913462685022
Epoch: 68900, Error: 0.010442849876914522
Epoch: 69000, Error: 0.01061473909942649
Epoch: 69100, Error: 0.010470964302115573
Epoch: 69200, Error: 0.010555798827338725
Epoch: 69300, Error: 0.010412970929166612
Epoch: 69400, Error: 0.010512392462695561
Epoch: 69500, Error: 0.010516573925971651
Epoch: 69600, Error: 0.010478403387791296
Epoch: 69700, Error: 0.010452817667670254
Epoch: 69800, Error: 0.010518859193553508
Epoch: 69900, Error: 0.010560377095575625
Epoch: 70000, Error: 0.01044840802822318
Epoch: 70100, Error: 0.01050638072344721
Epoch: 70200, Error: 0.010434354071377243
Epoch: 70300, Error: 0.01043114501701155
Epoch: 70400, Error: 0.010515122727870014
Epoch: 70500, Error: 0.010510081085191872
Epoch: 70600, Error: 0.010509033985936339
Epoch: 70700, Error: 0.010537379688726653
Epoch: 70800, Error: 0.010774294706037954
Epoch: 70900, Error: 0.01086026786051482
Epoch: 71000, Error: 0.01088223303665058
Epoch: 71100, Error: 0.011026315815199554
Epoch: 71200, Error: 0.011050673647235403
Epoch: 71300, Error: 0.011031111253503402
Epoch: 71400, Error: 0.011074938025394226
Epoch: 71500, Error: 0.011119966627546633
Epoch: 71600, Error: 0.01108769683933575
Epoch: 71700, Error: 0.011097655542006181
Epoch: 71800, Error: 0.011125293203621883
Epoch: 71900, Error: 0.011175222290199842
Epoch: 72000, Error: 0.011219275477865397
Epoch: 72100, Error: 0.01109212748835454
Epoch: 72200, Error: 0.011193694054607215
Epoch: 72300, Error: 0.011235596872093188
Epoch: 72400, Error: 0.011231603466918547
Epoch: 72500, Error: 0.011277351335588907
Epoch: 72600, Error: 0.011257506523313783
Epoch: 72700, Error: 0.011374596077114734
Epoch: 72800, Error: 0.011360588057252612
Epoch: 72900, Error: 0.011296873669963922
Epoch: 73000, Error: 0.011219303738364121
Epoch: 73100, Error: 0.011134159427786571
Epoch: 73200, Error: 0.011197284484727128
Epoch: 73300, Error: 0.01113995240242198
Epoch: 73400, Error: 0.011047940523034629
Epoch: 73500, Error: 0.011181555781483672
Epoch: 73600, Error: 0.011015233795263679
Epoch: 73700, Error: 0.010904480030607235
Epoch: 73800, Error: 0.01095809505931547
Epoch: 73900, Error: 0.010865419003528302
Epoch: 74000, Error: 0.01095392689858838
Epoch: 74100, Error: 0.010810612056766325
Epoch: 74200, Error: 0.010965780914780312
Epoch: 74300, Error: 0.010867680536192942
Epoch: 74400, Error: 0.010892900550560292
Epoch: 74500, Error: 0.010953490926210053
Epoch: 74600, Error: 0.010888002812653704
Epoch: 74700, Error: 0.010739773046712309
Epoch: 74800, Error: 0.010670884274033347
Epoch: 74900, Error: 0.010656619552345013
Epoch: 75000, Error: 0.010758381953465767
Epoch: 75100, Error: 0.010569667401233865
Epoch: 75200, Error: 0.010790268998445901
Epoch: 75300, Error: 0.010715565043895045
Epoch: 75400, Error: 0.010697221955853809
Epoch: 75500, Error: 0.010639430369114456
Epoch: 75600, Error: 0.010721215589638039
Epoch: 75700, Error: 0.010772986453518256
Epoch: 75800, Error: 0.010669437023393537
Epoch: 75900, Error: 0.01070115441441937
Epoch: 76000, Error: 0.010746174445970124
Epoch: 76100, Error: 0.010678065769738768
Epoch: 76200, Error: 0.010696695391109103
Epoch: 76300, Error: 0.010761332639870518
Epoch: 76400, Error: 0.010783705203119196
Epoch: 76500, Error: 0.010734420122821666
Epoch: 76600, Error: 0.010690637448320077
Epoch: 76700, Error: 0.010712351638086249
Epoch: 76800, Error: 0.010634663254439512
Epoch: 76900, Error: 0.010780378656406842
Epoch: 77000, Error: 0.010732922915852428
Epoch: 77100, Error: 0.010856913496036402
Epoch: 77200, Error: 0.010766925225982668
Epoch: 77300, Error: 0.010712957335755306
Epoch: 77400, Error: 0.01079290780042131
Epoch: 77500, Error: 0.010817726137644841
Epoch: 77600, Error: 0.010771786174414488
Epoch: 77700, Error: 0.010788160255927428
Epoch: 77800, Error: 0.010836360730910476
Epoch: 77900, Error: 0.010773390687949786
Epoch: 78000, Error: 0.010765269747717956
Epoch: 78100, Error: 0.010917525802845676
Epoch: 78200, Error: 0.010838291029533794
Epoch: 78300, Error: 0.010779382564484108
Epoch: 78400, Error: 0.010686872061277317
Epoch: 78500, Error: 0.010959856586456039
Epoch: 78600, Error: 0.010819324167053534
Epoch: 78700, Error: 0.01080954721509026
Epoch: 78800, Error: 0.010779775679766717
Epoch: 78900, Error: 0.010790774846280408
Epoch: 79000, Error: 0.010801367274053886
Epoch: 79100, Error: 0.010790090427126506
Epoch: 79200, Error: 0.01088301713458549
Epoch: 79300, Error: 0.010740977733959317
Epoch: 79400, Error: 0.010822128689746354
Epoch: 79500, Error: 0.010633680535313961
Epoch: 79600, Error: 0.010790523455466675
Epoch: 79700, Error: 0.010704512334382838
Epoch: 79800, Error: 0.010881819724129943
Epoch: 79900, Error: 0.01064742641891735
Epoch: 80000, Error: 0.010747114842453543
Epoch: 80100, Error: 0.010834360980170566
Epoch: 80200, Error: 0.010845160767509212
Epoch: 80300, Error: 0.011157211723396837
Epoch: 80400, Error: 0.010689190068503607
Epoch: 80500, Error: 0.010688119885595133
Epoch: 80600, Error: 0.010688400198627462
Epoch: 80700, Error: 0.010649249836705059
Epoch: 80800, Error: 0.010551208585951197
Epoch: 80900, Error: 0.010722514001245617
Epoch: 81000, Error: 0.010615553366084649
Epoch: 81100, Error: 0.010675182887163326
Epoch: 81200, Error: 0.01057239184449511
Epoch: 81300, Error: 0.010577910145433833
Epoch: 81400, Error: 0.0108109487739466
Epoch: 81500, Error: 0.010629677019683103
Epoch: 81600, Error: 0.010525376671261374
Epoch: 81700, Error: 0.01060263038738767
Epoch: 81800, Error: 0.010520223280145506
Epoch: 81900, Error: 0.010699466404330648
Epoch: 82000, Error: 0.010656107600396179
Epoch: 82100, Error: 0.010496645781864659
Epoch: 82200, Error: 0.010469800161028978
Epoch: 82300, Error: 0.010692571716505995
Epoch: 82400, Error: 0.010390061364978444
Epoch: 82500, Error: 0.010581660418017882
Epoch: 82600, Error: 0.010368040009202576
Epoch: 82700, Error: 0.010372052797115568
Epoch: 82800, Error: 0.010681884482327984
Epoch: 82900, Error: 0.010980759716426978
Epoch: 83000, Error: 0.010352173150883475
Epoch: 83100, Error: 0.010344562735427712
Epoch: 83200, Error: 0.010369332384301988
Epoch: 83300, Error: 0.010272956855249761
Epoch: 83400, Error: 0.010197435946679786
Epoch: 83500, Error: 0.010240037696179347
Epoch: 83600, Error: 0.010304678344763049
Epoch: 83700, Error: 0.010291073093603583
Epoch: 83800, Error: 0.01026062803206374
Epoch: 83900, Error: 0.010287192530838573
Epoch: 84000, Error: 0.0100641902444711
Epoch: 84100, Error: 0.01012702049695165
Epoch: 84200, Error: 0.010135546944701165
Epoch: 84300, Error: 0.010153412049959662
Epoch: 84400, Error: 0.009969302651043418
Epoch: 84500, Error: 0.010184940020516398
Epoch: 84600, Error: 0.009743745879559397
Epoch: 84700, Error: 0.00971847692206297
Epoch: 84800, Error: 0.009765187720037479
Epoch: 84900, Error: 0.009770181208166724
Epoch: 85000, Error: 0.009599061860037275
Epoch: 85100, Error: 0.00958528358300863
Epoch: 85200, Error: 0.009534216229656452
Epoch: 85300, Error: 0.009635370340243768
Epoch: 85400, Error: 0.009294750481669677
Epoch: 85500, Error: 0.008408191535480872
Epoch: 85600, Error: 0.008181871179095081
Epoch: 85700, Error: 0.005322777568228566
Epoch: 85800, Error: 0.005173218365660826
Epoch: 85900, Error: 0.010427917209504672
Epoch: 86000, Error: 0.0040108609239493855
Epoch: 86100, Error: 0.004157716631999337
Epoch: 86200, Error: 0.0034881293264354338
Epoch: 86300, Error: 0.002862064616861792
Epoch: 86400, Error: 0.0028015609218019467
Epoch: 86500, Error: 0.0018887972709630762
Epoch: 86600, Error: 0.00253138784606485
Epoch: 86700, Error: 0.0015110949436402212
Epoch: 86800, Error: 0.0012775822760385214
Epoch: 86900, Error: 0.0013342570180215267
Epoch: 87000, Error: 0.0013505145146593888
Epoch: 87100, Error: 0.0011080650515302402
Epoch: 87200, Error: 0.0010795196412621778
Epoch: 87300, Error: 0.0010770191832756338
Epoch: 87400, Error: 0.0010863424973997463
Epoch: 87500, Error: 0.0010730751921809818
Epoch: 87600, Error: 0.001064797336091394
Epoch: 87700, Error: 0.0010521518458214017
Epoch: 87800, Error: 0.0010803046272609919
Epoch: 87900, Error: 0.001040061878113726
Epoch: 88000, Error: 0.0010299696453025338
Epoch: 88100, Error: 9.999414207843135E-4
Epoch: 88200, Error: 0.0010036202853374444
Epoch: 88300, Error: 9.834125356484123E-4
Epoch: 88400, Error: 9.848068687402605E-4
Epoch: 88500, Error: 9.551771853761493E-4
Epoch: 88600, Error: 9.501620960628136E-4
Epoch: 88700, Error: 9.303560651874219E-4
Epoch: 88800, Error: 9.258725020213324E-4
Epoch: 88900, Error: 8.942705161189085E-4
Epoch: 89000, Error: 8.851280341807505E-4
Epoch: 89100, Error: 8.991699369817785E-4
Epoch: 89200, Error: 8.900217857037234E-4
Epoch: 89300, Error: 8.845828620232968E-4
Epoch: 89400, Error: 8.84045109994051E-4
Finished
