Input Patterns
0.224 0.624 0.067 0.043 
0.11 0.502 0.051 0.043 
0.196 0.667 0.067 0.043 
0.055 0.584 0.067 0.082 
0.027 0.376 0.067 0.043 
0.306 0.71 0.086 0.043 
0.137 0.416 0.067 0.0 
0.416 0.831 0.035 0.043 
0.306 0.792 0.051 0.125 
0.388 0.749 0.118 0.082 
0.306 0.584 0.118 0.043 
0.082 0.667 0.0 0.043 
0.137 0.584 0.153 0.043 
0.196 0.584 0.102 0.125 
0.251 0.584 0.067 0.043 
0.137 0.459 0.102 0.043 
0.251 0.875 0.086 0.0 
0.165 0.459 0.086 0.043 
0.333 0.624 0.051 0.043 
0.027 0.416 0.051 0.043 
0.196 0.624 0.051 0.082 
0.027 0.502 0.051 0.043 
0.224 0.749 0.153 0.125 
0.224 0.749 0.102 0.043 
0.278 0.71 0.086 0.043 
0.165 0.416 0.067 0.043 
0.082 0.459 0.086 0.043 
0.306 0.792 0.118 0.125 
0.196 0.584 0.086 0.043 
0.165 0.459 0.086 0.0 
0.137 0.584 0.102 0.043 
0.0 0.416 0.016 0.0 
0.388 1.0 0.086 0.125 
0.224 0.624 0.067 0.082 
0.224 0.749 0.086 0.082 
0.224 0.71 0.086 0.125 
0.224 0.541 0.118 0.165 
0.196 0.416 0.102 0.043 
0.251 0.624 0.086 0.043 
0.11 0.502 0.102 0.043 
0.306 0.584 0.086 0.125 
0.333 0.918 0.067 0.043 
0.196 0.502 0.035 0.043 
0.165 0.667 0.067 0.0 
0.224 0.584 0.086 0.043 
0.055 0.125 0.051 0.082 
0.196 0.624 0.102 0.208 
0.137 0.416 0.067 0.082 
0.082 0.502 0.067 0.043 
0.196 0.541 0.067 0.043 
0.749 0.502 0.627 0.541 
0.722 0.459 0.663 0.584 
0.612 0.333 0.612 0.584 
0.557 0.541 0.627 0.624 
0.639 0.376 0.612 0.498 
0.196 0.0 0.424 0.376 
0.471 0.082 0.51 0.376 
0.361 0.376 0.439 0.498 
0.361 0.416 0.592 0.584 
0.529 0.082 0.592 0.584 
0.443 0.502 0.643 0.459 
0.557 0.208 0.663 0.584 
0.584 0.376 0.561 0.498 
0.694 0.333 0.643 0.541 
0.471 0.376 0.592 0.584 
0.333 0.169 0.475 0.416 
0.416 0.29 0.49 0.459 
0.306 0.416 0.592 0.584 
0.667 0.459 0.627 0.584 
0.361 0.416 0.525 0.498 
0.333 0.251 0.576 0.459 
0.416 0.251 0.51 0.459 
0.361 0.29 0.541 0.498 
0.388 0.376 0.541 0.498 
0.224 0.208 0.337 0.416 
0.584 0.502 0.592 0.584 
0.333 0.125 0.51 0.498 
0.388 0.333 0.592 0.498 
0.165 0.169 0.388 0.376 
0.251 0.29 0.49 0.541 
0.443 0.416 0.541 0.584 
0.498 0.376 0.627 0.541 
0.667 0.459 0.576 0.541 
0.416 0.29 0.525 0.376 
0.361 0.208 0.49 0.416 
0.498 0.333 0.51 0.498 
0.498 0.333 0.627 0.459 
0.639 0.416 0.576 0.541 
0.667 0.416 0.678 0.667 
0.388 0.251 0.424 0.376 
0.333 0.169 0.459 0.376 
0.471 0.29 0.694 0.624 
0.471 0.584 0.592 0.624 
0.557 0.125 0.576 0.498 
0.333 0.208 0.51 0.498 
0.498 0.416 0.612 0.541 
0.196 0.125 0.388 0.376 
0.388 0.416 0.541 0.459 
0.529 0.376 0.561 0.498 
0.388 0.333 0.525 0.498 
0.557 0.541 0.847 1.0 
0.776 0.416 0.831 0.831 
0.612 0.416 0.812 0.875 
0.165 0.208 0.592 0.667 
0.667 0.208 0.812 0.71 
0.612 0.502 0.694 0.792 
0.694 0.416 0.761 0.831 
0.416 0.333 0.694 0.957 
0.612 0.416 0.761 0.71 
0.945 0.251 1.0 0.918 
0.722 0.502 0.796 0.918 
0.945 0.333 0.965 0.792 
0.667 0.541 0.796 0.831 
0.529 0.333 0.643 0.71 
0.584 0.333 0.78 0.831 
0.863 0.333 0.863 0.749 
0.584 0.333 0.78 0.875 
0.498 0.251 0.78 0.541 
0.557 0.584 0.78 0.957 
0.471 0.416 0.643 0.71 
0.667 0.459 0.78 0.957 
0.416 0.29 0.694 0.749 
0.667 0.541 0.796 1.0 
0.557 0.208 0.678 0.749 
0.529 0.584 0.745 0.918 
0.416 0.29 0.694 0.749 
0.557 0.376 0.78 0.71 
0.918 0.416 0.949 0.831 
0.835 0.376 0.898 0.71 
0.804 0.667 0.863 1.0 
0.584 0.29 0.729 0.749 
0.388 0.208 0.678 0.792 
0.584 0.502 0.729 0.918 
0.945 0.749 0.965 0.875 
0.471 0.082 0.678 0.584 
0.361 0.333 0.663 0.792 
0.557 0.29 0.663 0.71 
0.804 0.502 0.847 0.71 
0.498 0.416 0.51 0.71 
0.804 0.416 0.812 0.624 
1.0 0.749 0.914 0.792 
0.557 0.333 0.694 0.584 
0.945 0.416 0.863 0.918 
0.584 0.459 0.761 0.71 
0.722 0.459 0.745 0.831 
0.722 0.459 0.694 0.918 
0.694 0.502 0.831 0.918 
0.667 0.416 0.714 0.918 
0.612 0.416 0.714 0.792 
0.443 0.416 0.694 0.71 
Teaching Patterns
1.0 0.0 0.0 
1.0 0.0 0.0 
1.0 0.0 0.0 
1.0 0.0 0.0 
1.0 0.0 0.0 
1.0 0.0 0.0 
1.0 0.0 0.0 
1.0 0.0 0.0 
1.0 0.0 0.0 
1.0 0.0 0.0 
1.0 0.0 0.0 
1.0 0.0 0.0 
1.0 0.0 0.0 
1.0 0.0 0.0 
1.0 0.0 0.0 
1.0 0.0 0.0 
1.0 0.0 0.0 
1.0 0.0 0.0 
1.0 0.0 0.0 
1.0 0.0 0.0 
1.0 0.0 0.0 
1.0 0.0 0.0 
1.0 0.0 0.0 
1.0 0.0 0.0 
1.0 0.0 0.0 
1.0 0.0 0.0 
1.0 0.0 0.0 
1.0 0.0 0.0 
1.0 0.0 0.0 
1.0 0.0 0.0 
1.0 0.0 0.0 
1.0 0.0 0.0 
1.0 0.0 0.0 
1.0 0.0 0.0 
1.0 0.0 0.0 
1.0 0.0 0.0 
1.0 0.0 0.0 
1.0 0.0 0.0 
1.0 0.0 0.0 
1.0 0.0 0.0 
1.0 0.0 0.0 
1.0 0.0 0.0 
1.0 0.0 0.0 
1.0 0.0 0.0 
1.0 0.0 0.0 
1.0 0.0 0.0 
1.0 0.0 0.0 
1.0 0.0 0.0 
1.0 0.0 0.0 
1.0 0.0 0.0 
0.0 1.0 0.0 
0.0 1.0 0.0 
0.0 1.0 0.0 
0.0 1.0 0.0 
0.0 1.0 0.0 
0.0 1.0 0.0 
0.0 1.0 0.0 
0.0 1.0 0.0 
0.0 1.0 0.0 
0.0 1.0 0.0 
0.0 1.0 0.0 
0.0 1.0 0.0 
0.0 1.0 0.0 
0.0 1.0 0.0 
0.0 1.0 0.0 
0.0 1.0 0.0 
0.0 1.0 0.0 
0.0 1.0 0.0 
0.0 1.0 0.0 
0.0 1.0 0.0 
0.0 1.0 0.0 
0.0 1.0 0.0 
0.0 1.0 0.0 
0.0 1.0 0.0 
0.0 1.0 0.0 
0.0 1.0 0.0 
0.0 1.0 0.0 
0.0 1.0 0.0 
0.0 1.0 0.0 
0.0 1.0 0.0 
0.0 1.0 0.0 
0.0 1.0 0.0 
0.0 1.0 0.0 
0.0 1.0 0.0 
0.0 1.0 0.0 
0.0 1.0 0.0 
0.0 1.0 0.0 
0.0 1.0 0.0 
0.0 1.0 0.0 
0.0 1.0 0.0 
0.0 1.0 0.0 
0.0 1.0 0.0 
0.0 1.0 0.0 
0.0 1.0 0.0 
0.0 1.0 0.0 
0.0 1.0 0.0 
0.0 1.0 0.0 
0.0 1.0 0.0 
0.0 1.0 0.0 
0.0 1.0 0.0 
0.0 0.0 1.0 
0.0 0.0 1.0 
0.0 0.0 1.0 
0.0 0.0 1.0 
0.0 0.0 1.0 
0.0 0.0 1.0 
0.0 0.0 1.0 
0.0 0.0 1.0 
0.0 0.0 1.0 
0.0 0.0 1.0 
0.0 0.0 1.0 
0.0 0.0 1.0 
0.0 0.0 1.0 
0.0 0.0 1.0 
0.0 0.0 1.0 
0.0 0.0 1.0 
0.0 0.0 1.0 
0.0 0.0 1.0 
0.0 0.0 1.0 
0.0 0.0 1.0 
0.0 0.0 1.0 
0.0 0.0 1.0 
0.0 0.0 1.0 
0.0 0.0 1.0 
0.0 0.0 1.0 
0.0 0.0 1.0 
0.0 0.0 1.0 
0.0 0.0 1.0 
0.0 0.0 1.0 
0.0 0.0 1.0 
0.0 0.0 1.0 
0.0 0.0 1.0 
0.0 0.0 1.0 
0.0 0.0 1.0 
0.0 0.0 1.0 
0.0 0.0 1.0 
0.0 0.0 1.0 
0.0 0.0 1.0 
0.0 0.0 1.0 
0.0 0.0 1.0 
0.0 0.0 1.0 
0.0 0.0 1.0 
0.0 0.0 1.0 
0.0 0.0 1.0 
0.0 0.0 1.0 
0.0 0.0 1.0 
0.0 0.0 1.0 
0.0 0.0 1.0 
0.0 0.0 1.0 
0.0 0.0 1.0 
Learning : 0.8500000238418579
Momentum : 0.9
Epoch: 100, Error: 0.023837276865543593
Epoch: 200, Error: 0.012370987283333194
Epoch: 300, Error: 0.01331633325919311
Epoch: 400, Error: 0.014400628976698346
Epoch: 500, Error: 0.01369078849547961
Epoch: 600, Error: 0.012112226009203083
Epoch: 700, Error: 0.012761111895550736
Epoch: 800, Error: 0.012192070313302526
Epoch: 900, Error: 0.014116717215962128
Epoch: 1000, Error: 0.012024303976997724
Epoch: 1100, Error: 0.01191092527300822
Epoch: 1200, Error: 0.012089177164112348
Epoch: 1300, Error: 0.011801978195327611
Epoch: 1400, Error: 0.011655164965312844
Epoch: 1500, Error: 0.011552300811225862
Epoch: 1600, Error: 0.011438385365510081
Epoch: 1700, Error: 0.014248208940263614
Epoch: 1800, Error: 0.010406981623359365
Epoch: 1900, Error: 0.010186137335792671
Epoch: 2000, Error: 0.010013238007457986
Epoch: 2100, Error: 0.008529013409296803
Epoch: 2200, Error: 0.008391152124893664
Epoch: 2300, Error: 0.009532503777496612
Epoch: 2400, Error: 0.007671725666876498
Epoch: 2500, Error: 0.007280472761779725
Epoch: 2600, Error: 0.007287432628444852
Epoch: 2700, Error: 0.007025406133738228
Epoch: 2800, Error: 0.0071368014790083025
Epoch: 2900, Error: 0.006386136422937743
Epoch: 3000, Error: 0.006470722842974856
Epoch: 3100, Error: 0.006547988394124092
Epoch: 3200, Error: 0.00711305201821306
Epoch: 3300, Error: 0.005946851486903137
Epoch: 3400, Error: 0.0065199882915517255
Epoch: 3500, Error: 0.006279323143810788
Epoch: 3600, Error: 0.005749879492841969
Epoch: 3700, Error: 0.006222387888092886
Epoch: 3800, Error: 0.005852960420231657
Epoch: 3900, Error: 0.005720263998019888
Epoch: 4000, Error: 0.005689321723651732
Epoch: 4100, Error: 0.005513035515072919
Epoch: 4200, Error: 0.005580685968794279
Epoch: 4300, Error: 0.005475820280747701
Epoch: 4400, Error: 0.006032895665859418
Epoch: 4500, Error: 0.005317020333302278
Epoch: 4600, Error: 0.005350939822176838
Epoch: 4700, Error: 0.005371517830225299
Epoch: 4800, Error: 0.005299120974836916
Epoch: 4900, Error: 0.005198601690397065
Epoch: 5000, Error: 0.005018685056803217
Epoch: 5100, Error: 0.004938184485910182
Epoch: 5200, Error: 0.004902746811439209
Epoch: 5300, Error: 0.0047661274596420425
Epoch: 5400, Error: 0.004416597992634578
Epoch: 5500, Error: 0.004286041965591878
Epoch: 5600, Error: 0.0040535098968579935
Epoch: 5700, Error: 0.004097408942551919
Epoch: 5800, Error: 0.003195669850518876
Epoch: 5900, Error: 0.005140878955771552
Epoch: 6000, Error: 0.0028404144150851506
Epoch: 6100, Error: 0.003032431458797295
Epoch: 6200, Error: 0.0025725016447292037
Epoch: 6300, Error: 0.002032028128253015
Epoch: 6400, Error: 0.0010862311492830653
Epoch: 6500, Error: 0.0010848972521274405
Epoch: 6600, Error: 8.116288695476739E-4
Epoch: 6700, Error: 8.452829826151479E-4
Epoch: 6800, Error: 7.295400343445916E-4
Epoch: 6900, Error: 7.69292154455944E-4
Epoch: 7000, Error: 7.266631982428912E-4
Epoch: 7100, Error: 6.693159554827983E-4
Epoch: 7200, Error: 6.62823849640191E-4
Epoch: 7300, Error: 6.426763188390558E-4
Epoch: 7400, Error: 6.19738539083564E-4
Epoch: 7500, Error: 6.030655630119451E-4
Epoch: 7600, Error: 6.224689147018578E-4
Epoch: 7700, Error: 6.302566849576103E-4
Epoch: 7800, Error: 6.302373054372774E-4
Epoch: 7900, Error: 6.218018262199879E-4
Epoch: 8000, Error: 6.225147691049047E-4
Epoch: 8100, Error: 6.146973604931454E-4
Epoch: 8200, Error: 6.155444934768405E-4
Epoch: 8300, Error: 6.186607609299899E-4
Epoch: 8400, Error: 5.925570967721197E-4
Epoch: 8500, Error: 5.893838943616765E-4
Epoch: 8600, Error: 5.670109599415693E-4
Epoch: 8700, Error: 5.848016579020248E-4
Epoch: 8800, Error: 5.752253259412063E-4
Epoch: 8900, Error: 5.690067066970299E-4
Epoch: 9000, Error: 6.044188356131871E-4
Finished
