Input Patterns
0.224 0.624 0.067 0.043 
0.11 0.502 0.051 0.043 
0.196 0.667 0.067 0.043 
0.055 0.584 0.067 0.082 
0.027 0.376 0.067 0.043 
0.306 0.71 0.086 0.043 
0.137 0.416 0.067 0.0 
0.416 0.831 0.035 0.043 
0.306 0.792 0.051 0.125 
0.388 0.749 0.118 0.082 
0.306 0.584 0.118 0.043 
0.082 0.667 0.0 0.043 
0.137 0.584 0.153 0.043 
0.196 0.584 0.102 0.125 
0.251 0.584 0.067 0.043 
0.137 0.459 0.102 0.043 
0.251 0.875 0.086 0.0 
0.165 0.459 0.086 0.043 
0.333 0.624 0.051 0.043 
0.027 0.416 0.051 0.043 
0.196 0.624 0.051 0.082 
0.027 0.502 0.051 0.043 
0.224 0.749 0.153 0.125 
0.224 0.749 0.102 0.043 
0.278 0.71 0.086 0.043 
0.165 0.416 0.067 0.043 
0.082 0.459 0.086 0.043 
0.306 0.792 0.118 0.125 
0.196 0.584 0.086 0.043 
0.165 0.459 0.086 0.0 
0.137 0.584 0.102 0.043 
0.0 0.416 0.016 0.0 
0.388 1.0 0.086 0.125 
0.224 0.624 0.067 0.082 
0.224 0.749 0.086 0.082 
0.224 0.71 0.086 0.125 
0.224 0.541 0.118 0.165 
0.196 0.416 0.102 0.043 
0.251 0.624 0.086 0.043 
0.11 0.502 0.102 0.043 
0.306 0.584 0.086 0.125 
0.333 0.918 0.067 0.043 
0.196 0.502 0.035 0.043 
0.165 0.667 0.067 0.0 
0.224 0.584 0.086 0.043 
0.055 0.125 0.051 0.082 
0.196 0.624 0.102 0.208 
0.137 0.416 0.067 0.082 
0.082 0.502 0.067 0.043 
0.196 0.541 0.067 0.043 
0.749 0.502 0.627 0.541 
0.722 0.459 0.663 0.584 
0.612 0.333 0.612 0.584 
0.557 0.541 0.627 0.624 
0.639 0.376 0.612 0.498 
0.196 0.0 0.424 0.376 
0.471 0.082 0.51 0.376 
0.361 0.376 0.439 0.498 
0.361 0.416 0.592 0.584 
0.529 0.082 0.592 0.584 
0.443 0.502 0.643 0.459 
0.557 0.208 0.663 0.584 
0.584 0.376 0.561 0.498 
0.694 0.333 0.643 0.541 
0.471 0.376 0.592 0.584 
0.333 0.169 0.475 0.416 
0.416 0.29 0.49 0.459 
0.306 0.416 0.592 0.584 
0.667 0.459 0.627 0.584 
0.361 0.416 0.525 0.498 
0.333 0.251 0.576 0.459 
0.416 0.251 0.51 0.459 
0.361 0.29 0.541 0.498 
0.388 0.376 0.541 0.498 
0.224 0.208 0.337 0.416 
0.584 0.502 0.592 0.584 
0.333 0.125 0.51 0.498 
0.388 0.333 0.592 0.498 
0.165 0.169 0.388 0.376 
0.251 0.29 0.49 0.541 
0.443 0.416 0.541 0.584 
0.498 0.376 0.627 0.541 
0.667 0.459 0.576 0.541 
0.416 0.29 0.525 0.376 
0.361 0.208 0.49 0.416 
0.498 0.333 0.51 0.498 
0.498 0.333 0.627 0.459 
0.639 0.416 0.576 0.541 
0.667 0.416 0.678 0.667 
0.388 0.251 0.424 0.376 
0.333 0.169 0.459 0.376 
0.471 0.29 0.694 0.624 
0.471 0.584 0.592 0.624 
0.557 0.125 0.576 0.498 
0.333 0.208 0.51 0.498 
0.498 0.416 0.612 0.541 
0.196 0.125 0.388 0.376 
0.388 0.416 0.541 0.459 
0.529 0.376 0.561 0.498 
0.388 0.333 0.525 0.498 
0.557 0.541 0.847 1.0 
0.776 0.416 0.831 0.831 
0.612 0.416 0.812 0.875 
0.165 0.208 0.592 0.667 
0.667 0.208 0.812 0.71 
0.612 0.502 0.694 0.792 
0.694 0.416 0.761 0.831 
0.416 0.333 0.694 0.957 
0.612 0.416 0.761 0.71 
0.945 0.251 1.0 0.918 
0.722 0.502 0.796 0.918 
0.945 0.333 0.965 0.792 
0.667 0.541 0.796 0.831 
0.529 0.333 0.643 0.71 
0.584 0.333 0.78 0.831 
0.863 0.333 0.863 0.749 
0.584 0.333 0.78 0.875 
0.498 0.251 0.78 0.541 
0.557 0.584 0.78 0.957 
0.471 0.416 0.643 0.71 
0.667 0.459 0.78 0.957 
0.416 0.29 0.694 0.749 
0.667 0.541 0.796 1.0 
0.557 0.208 0.678 0.749 
0.529 0.584 0.745 0.918 
0.416 0.29 0.694 0.749 
0.557 0.376 0.78 0.71 
0.918 0.416 0.949 0.831 
0.835 0.376 0.898 0.71 
0.804 0.667 0.863 1.0 
0.584 0.29 0.729 0.749 
0.388 0.208 0.678 0.792 
0.584 0.502 0.729 0.918 
0.945 0.749 0.965 0.875 
0.471 0.082 0.678 0.584 
0.361 0.333 0.663 0.792 
0.557 0.29 0.663 0.71 
0.804 0.502 0.847 0.71 
0.498 0.416 0.51 0.71 
0.804 0.416 0.812 0.624 
1.0 0.749 0.914 0.792 
0.557 0.333 0.694 0.584 
0.945 0.416 0.863 0.918 
0.584 0.459 0.761 0.71 
0.722 0.459 0.745 0.831 
0.722 0.459 0.694 0.918 
0.694 0.502 0.831 0.918 
0.667 0.416 0.714 0.918 
0.612 0.416 0.714 0.792 
0.443 0.416 0.694 0.71 
Teaching Patterns
1.0 0.0 0.0 
1.0 0.0 0.0 
1.0 0.0 0.0 
1.0 0.0 0.0 
1.0 0.0 0.0 
1.0 0.0 0.0 
1.0 0.0 0.0 
1.0 0.0 0.0 
1.0 0.0 0.0 
1.0 0.0 0.0 
1.0 0.0 0.0 
1.0 0.0 0.0 
1.0 0.0 0.0 
1.0 0.0 0.0 
1.0 0.0 0.0 
1.0 0.0 0.0 
1.0 0.0 0.0 
1.0 0.0 0.0 
1.0 0.0 0.0 
1.0 0.0 0.0 
1.0 0.0 0.0 
1.0 0.0 0.0 
1.0 0.0 0.0 
1.0 0.0 0.0 
1.0 0.0 0.0 
1.0 0.0 0.0 
1.0 0.0 0.0 
1.0 0.0 0.0 
1.0 0.0 0.0 
1.0 0.0 0.0 
1.0 0.0 0.0 
1.0 0.0 0.0 
1.0 0.0 0.0 
1.0 0.0 0.0 
1.0 0.0 0.0 
1.0 0.0 0.0 
1.0 0.0 0.0 
1.0 0.0 0.0 
1.0 0.0 0.0 
1.0 0.0 0.0 
1.0 0.0 0.0 
1.0 0.0 0.0 
1.0 0.0 0.0 
1.0 0.0 0.0 
1.0 0.0 0.0 
1.0 0.0 0.0 
1.0 0.0 0.0 
1.0 0.0 0.0 
1.0 0.0 0.0 
1.0 0.0 0.0 
0.0 1.0 0.0 
0.0 1.0 0.0 
0.0 1.0 0.0 
0.0 1.0 0.0 
0.0 1.0 0.0 
0.0 1.0 0.0 
0.0 1.0 0.0 
0.0 1.0 0.0 
0.0 1.0 0.0 
0.0 1.0 0.0 
0.0 1.0 0.0 
0.0 1.0 0.0 
0.0 1.0 0.0 
0.0 1.0 0.0 
0.0 1.0 0.0 
0.0 1.0 0.0 
0.0 1.0 0.0 
0.0 1.0 0.0 
0.0 1.0 0.0 
0.0 1.0 0.0 
0.0 1.0 0.0 
0.0 1.0 0.0 
0.0 1.0 0.0 
0.0 1.0 0.0 
0.0 1.0 0.0 
0.0 1.0 0.0 
0.0 1.0 0.0 
0.0 1.0 0.0 
0.0 1.0 0.0 
0.0 1.0 0.0 
0.0 1.0 0.0 
0.0 1.0 0.0 
0.0 1.0 0.0 
0.0 1.0 0.0 
0.0 1.0 0.0 
0.0 1.0 0.0 
0.0 1.0 0.0 
0.0 1.0 0.0 
0.0 1.0 0.0 
0.0 1.0 0.0 
0.0 1.0 0.0 
0.0 1.0 0.0 
0.0 1.0 0.0 
0.0 1.0 0.0 
0.0 1.0 0.0 
0.0 1.0 0.0 
0.0 1.0 0.0 
0.0 1.0 0.0 
0.0 1.0 0.0 
0.0 1.0 0.0 
0.0 0.0 1.0 
0.0 0.0 1.0 
0.0 0.0 1.0 
0.0 0.0 1.0 
0.0 0.0 1.0 
0.0 0.0 1.0 
0.0 0.0 1.0 
0.0 0.0 1.0 
0.0 0.0 1.0 
0.0 0.0 1.0 
0.0 0.0 1.0 
0.0 0.0 1.0 
0.0 0.0 1.0 
0.0 0.0 1.0 
0.0 0.0 1.0 
0.0 0.0 1.0 
0.0 0.0 1.0 
0.0 0.0 1.0 
0.0 0.0 1.0 
0.0 0.0 1.0 
0.0 0.0 1.0 
0.0 0.0 1.0 
0.0 0.0 1.0 
0.0 0.0 1.0 
0.0 0.0 1.0 
0.0 0.0 1.0 
0.0 0.0 1.0 
0.0 0.0 1.0 
0.0 0.0 1.0 
0.0 0.0 1.0 
0.0 0.0 1.0 
0.0 0.0 1.0 
0.0 0.0 1.0 
0.0 0.0 1.0 
0.0 0.0 1.0 
0.0 0.0 1.0 
0.0 0.0 1.0 
0.0 0.0 1.0 
0.0 0.0 1.0 
0.0 0.0 1.0 
0.0 0.0 1.0 
0.0 0.0 1.0 
0.0 0.0 1.0 
0.0 0.0 1.0 
0.0 0.0 1.0 
0.0 0.0 1.0 
0.0 0.0 1.0 
0.0 0.0 1.0 
0.0 0.0 1.0 
0.0 0.0 1.0 
Learning : 0.699999988079071
Momentum : 0.9
Epoch: 100, Error: 0.015793532992961313
Epoch: 200, Error: 0.012075561339386628
Epoch: 300, Error: 0.012504276059333665
Epoch: 400, Error: 0.01655516936256656
Epoch: 500, Error: 0.012376199522497067
Epoch: 600, Error: 0.012785038095759642
Epoch: 700, Error: 0.012520442868934835
Epoch: 800, Error: 0.013193202255859343
Epoch: 900, Error: 0.01248782893503025
Epoch: 1000, Error: 0.014308298547366302
Epoch: 1100, Error: 0.01284418602429028
Epoch: 1200, Error: 0.0127734013013727
Epoch: 1300, Error: 0.0123183105399307
Epoch: 1400, Error: 0.012459566308870454
Epoch: 1500, Error: 0.01255339367811847
Epoch: 1600, Error: 0.012468194143687064
Epoch: 1700, Error: 0.012314881685385979
Epoch: 1800, Error: 0.012455691492493553
Epoch: 1900, Error: 0.01235112903407536
Epoch: 2000, Error: 0.012633196006171011
Epoch: 2100, Error: 0.012250156464368701
Epoch: 2200, Error: 0.012059042024675946
Epoch: 2300, Error: 0.012356970423841322
Epoch: 2400, Error: 0.012230274060076958
Epoch: 2500, Error: 0.012176094147747486
Epoch: 2600, Error: 0.012668394016070094
Epoch: 2700, Error: 0.01206237266872925
Epoch: 2800, Error: 0.012028996699233855
Epoch: 2900, Error: 0.012111762573428487
Epoch: 3000, Error: 0.011922121294612434
Epoch: 3100, Error: 0.012180382307007383
Epoch: 3200, Error: 0.01196960397422874
Epoch: 3300, Error: 0.012201877243354092
Epoch: 3400, Error: 0.012009387192043891
Epoch: 3500, Error: 0.01187618361521583
Epoch: 3600, Error: 0.011755127911758768
Epoch: 3700, Error: 0.011873452053349184
Epoch: 3800, Error: 0.011691655976980107
Epoch: 3900, Error: 0.011677241608323945
Epoch: 4000, Error: 0.011572677922818008
Epoch: 4100, Error: 0.011477485350347334
Epoch: 4200, Error: 0.011611260483212827
Epoch: 4300, Error: 0.011491942201700179
Epoch: 4400, Error: 0.011762468576508187
Epoch: 4500, Error: 0.011605314488523252
Epoch: 4600, Error: 0.011085786439369485
Epoch: 4700, Error: 0.011738968230660382
Epoch: 4800, Error: 0.011021298139166778
Epoch: 4900, Error: 0.01121587833465768
Epoch: 5000, Error: 0.010774888046154979
Epoch: 5100, Error: 0.010807709758012225
Epoch: 5200, Error: 0.011761330602749672
Epoch: 5300, Error: 0.010463491459338902
Epoch: 5400, Error: 0.01043362627515645
Epoch: 5500, Error: 0.01034560926048793
Epoch: 5600, Error: 0.01056941216432547
Epoch: 5700, Error: 0.010182157682155463
Epoch: 5800, Error: 0.010383222213721947
Epoch: 5900, Error: 0.009925822581511702
Epoch: 6000, Error: 0.009886280822805424
Epoch: 6100, Error: 0.009876234405231275
Epoch: 6200, Error: 0.009811667367146224
Epoch: 6300, Error: 0.009725222198353705
Epoch: 6400, Error: 0.009946798132131927
Epoch: 6500, Error: 0.009710841748689572
Epoch: 6600, Error: 0.009713262582964512
Epoch: 6700, Error: 0.009692813996481376
Epoch: 6800, Error: 0.009640563662309833
Epoch: 6900, Error: 0.00965170902023766
Epoch: 7000, Error: 0.009630878520821892
Epoch: 7100, Error: 0.009583083097508162
Epoch: 7200, Error: 0.009593745951550636
Epoch: 7300, Error: 0.009581036017722427
Epoch: 7400, Error: 0.009585490730998044
Epoch: 7500, Error: 0.009588704190093049
Epoch: 7600, Error: 0.009600987512763922
Epoch: 7700, Error: 0.009573906168807182
Epoch: 7800, Error: 0.009619995410533166
Epoch: 7900, Error: 0.009560389697106809
Epoch: 8000, Error: 0.009544510931917344
Epoch: 8100, Error: 0.009549192409029161
Epoch: 8200, Error: 0.009570580544845077
Epoch: 8300, Error: 0.009551561385646692
Epoch: 8400, Error: 0.009522110301805867
Epoch: 8500, Error: 0.009548679693807035
Epoch: 8600, Error: 0.009506953091206333
Epoch: 8700, Error: 0.009537453393634189
Epoch: 8800, Error: 0.009513111261911017
Epoch: 8900, Error: 0.009553107533301228
Epoch: 9000, Error: 0.009525185733625671
Epoch: 9100, Error: 0.009534775068924079
finished
