Input Patterns
0.224 0.624 0.067 0.043 
0.11 0.502 0.051 0.043 
0.196 0.667 0.067 0.043 
0.055 0.584 0.067 0.082 
0.027 0.376 0.067 0.043 
0.306 0.71 0.086 0.043 
0.137 0.416 0.067 0.0 
0.416 0.831 0.035 0.043 
0.306 0.792 0.051 0.125 
0.388 0.749 0.118 0.082 
0.306 0.584 0.118 0.043 
0.082 0.667 0.0 0.043 
0.137 0.584 0.153 0.043 
0.196 0.584 0.102 0.125 
0.251 0.584 0.067 0.043 
0.137 0.459 0.102 0.043 
0.251 0.875 0.086 0.0 
0.165 0.459 0.086 0.043 
0.333 0.624 0.051 0.043 
0.027 0.416 0.051 0.043 
0.196 0.624 0.051 0.082 
0.027 0.502 0.051 0.043 
0.224 0.749 0.153 0.125 
0.224 0.749 0.102 0.043 
0.278 0.71 0.086 0.043 
0.165 0.416 0.067 0.043 
0.082 0.459 0.086 0.043 
0.306 0.792 0.118 0.125 
0.196 0.584 0.086 0.043 
0.165 0.459 0.086 0.0 
0.137 0.584 0.102 0.043 
0.0 0.416 0.016 0.0 
0.388 1.0 0.086 0.125 
0.224 0.624 0.067 0.082 
0.224 0.749 0.086 0.082 
0.224 0.71 0.086 0.125 
0.224 0.541 0.118 0.165 
0.196 0.416 0.102 0.043 
0.251 0.624 0.086 0.043 
0.11 0.502 0.102 0.043 
0.306 0.584 0.086 0.125 
0.333 0.918 0.067 0.043 
0.196 0.502 0.035 0.043 
0.165 0.667 0.067 0.0 
0.224 0.584 0.086 0.043 
0.055 0.125 0.051 0.082 
0.196 0.624 0.102 0.208 
0.137 0.416 0.067 0.082 
0.082 0.502 0.067 0.043 
0.196 0.541 0.067 0.043 
0.749 0.502 0.627 0.541 
0.722 0.459 0.663 0.584 
0.612 0.333 0.612 0.584 
0.557 0.541 0.627 0.624 
0.639 0.376 0.612 0.498 
0.196 0.0 0.424 0.376 
0.471 0.082 0.51 0.376 
0.361 0.376 0.439 0.498 
0.361 0.416 0.592 0.584 
0.529 0.082 0.592 0.584 
0.443 0.502 0.643 0.459 
0.557 0.208 0.663 0.584 
0.584 0.376 0.561 0.498 
0.694 0.333 0.643 0.541 
0.471 0.376 0.592 0.584 
0.333 0.169 0.475 0.416 
0.416 0.29 0.49 0.459 
0.306 0.416 0.592 0.584 
0.667 0.459 0.627 0.584 
0.361 0.416 0.525 0.498 
0.333 0.251 0.576 0.459 
0.416 0.251 0.51 0.459 
0.361 0.29 0.541 0.498 
0.388 0.376 0.541 0.498 
0.224 0.208 0.337 0.416 
0.584 0.502 0.592 0.584 
0.333 0.125 0.51 0.498 
0.388 0.333 0.592 0.498 
0.165 0.169 0.388 0.376 
0.251 0.29 0.49 0.541 
0.443 0.416 0.541 0.584 
0.498 0.376 0.627 0.541 
0.667 0.459 0.576 0.541 
0.416 0.29 0.525 0.376 
0.361 0.208 0.49 0.416 
0.498 0.333 0.51 0.498 
0.498 0.333 0.627 0.459 
0.639 0.416 0.576 0.541 
0.667 0.416 0.678 0.667 
0.388 0.251 0.424 0.376 
0.333 0.169 0.459 0.376 
0.471 0.29 0.694 0.624 
0.471 0.584 0.592 0.624 
0.557 0.125 0.576 0.498 
0.333 0.208 0.51 0.498 
0.498 0.416 0.612 0.541 
0.196 0.125 0.388 0.376 
0.388 0.416 0.541 0.459 
0.529 0.376 0.561 0.498 
0.388 0.333 0.525 0.498 
0.557 0.541 0.847 1.0 
0.776 0.416 0.831 0.831 
0.612 0.416 0.812 0.875 
0.165 0.208 0.592 0.667 
0.667 0.208 0.812 0.71 
0.612 0.502 0.694 0.792 
0.694 0.416 0.761 0.831 
0.416 0.333 0.694 0.957 
0.612 0.416 0.761 0.71 
0.945 0.251 1.0 0.918 
0.722 0.502 0.796 0.918 
0.945 0.333 0.965 0.792 
0.667 0.541 0.796 0.831 
0.529 0.333 0.643 0.71 
0.584 0.333 0.78 0.831 
0.863 0.333 0.863 0.749 
0.584 0.333 0.78 0.875 
0.498 0.251 0.78 0.541 
0.557 0.584 0.78 0.957 
0.471 0.416 0.643 0.71 
0.667 0.459 0.78 0.957 
0.416 0.29 0.694 0.749 
0.667 0.541 0.796 1.0 
0.557 0.208 0.678 0.749 
0.529 0.584 0.745 0.918 
0.416 0.29 0.694 0.749 
0.557 0.376 0.78 0.71 
0.918 0.416 0.949 0.831 
0.835 0.376 0.898 0.71 
0.804 0.667 0.863 1.0 
0.584 0.29 0.729 0.749 
0.388 0.208 0.678 0.792 
0.584 0.502 0.729 0.918 
0.945 0.749 0.965 0.875 
0.471 0.082 0.678 0.584 
0.361 0.333 0.663 0.792 
0.557 0.29 0.663 0.71 
0.804 0.502 0.847 0.71 
0.498 0.416 0.51 0.71 
0.804 0.416 0.812 0.624 
1.0 0.749 0.914 0.792 
0.557 0.333 0.694 0.584 
0.945 0.416 0.863 0.918 
0.584 0.459 0.761 0.71 
0.722 0.459 0.745 0.831 
0.722 0.459 0.694 0.918 
0.694 0.502 0.831 0.918 
0.667 0.416 0.714 0.918 
0.612 0.416 0.714 0.792 
0.443 0.416 0.694 0.71 
Teaching Patterns
1.0 0.0 0.0 
1.0 0.0 0.0 
1.0 0.0 0.0 
1.0 0.0 0.0 
1.0 0.0 0.0 
1.0 0.0 0.0 
1.0 0.0 0.0 
1.0 0.0 0.0 
1.0 0.0 0.0 
1.0 0.0 0.0 
1.0 0.0 0.0 
1.0 0.0 0.0 
1.0 0.0 0.0 
1.0 0.0 0.0 
1.0 0.0 0.0 
1.0 0.0 0.0 
1.0 0.0 0.0 
1.0 0.0 0.0 
1.0 0.0 0.0 
1.0 0.0 0.0 
1.0 0.0 0.0 
1.0 0.0 0.0 
1.0 0.0 0.0 
1.0 0.0 0.0 
1.0 0.0 0.0 
1.0 0.0 0.0 
1.0 0.0 0.0 
1.0 0.0 0.0 
1.0 0.0 0.0 
1.0 0.0 0.0 
1.0 0.0 0.0 
1.0 0.0 0.0 
1.0 0.0 0.0 
1.0 0.0 0.0 
1.0 0.0 0.0 
1.0 0.0 0.0 
1.0 0.0 0.0 
1.0 0.0 0.0 
1.0 0.0 0.0 
1.0 0.0 0.0 
1.0 0.0 0.0 
1.0 0.0 0.0 
1.0 0.0 0.0 
1.0 0.0 0.0 
1.0 0.0 0.0 
1.0 0.0 0.0 
1.0 0.0 0.0 
1.0 0.0 0.0 
1.0 0.0 0.0 
1.0 0.0 0.0 
0.0 1.0 0.0 
0.0 1.0 0.0 
0.0 1.0 0.0 
0.0 1.0 0.0 
0.0 1.0 0.0 
0.0 1.0 0.0 
0.0 1.0 0.0 
0.0 1.0 0.0 
0.0 1.0 0.0 
0.0 1.0 0.0 
0.0 1.0 0.0 
0.0 1.0 0.0 
0.0 1.0 0.0 
0.0 1.0 0.0 
0.0 1.0 0.0 
0.0 1.0 0.0 
0.0 1.0 0.0 
0.0 1.0 0.0 
0.0 1.0 0.0 
0.0 1.0 0.0 
0.0 1.0 0.0 
0.0 1.0 0.0 
0.0 1.0 0.0 
0.0 1.0 0.0 
0.0 1.0 0.0 
0.0 1.0 0.0 
0.0 1.0 0.0 
0.0 1.0 0.0 
0.0 1.0 0.0 
0.0 1.0 0.0 
0.0 1.0 0.0 
0.0 1.0 0.0 
0.0 1.0 0.0 
0.0 1.0 0.0 
0.0 1.0 0.0 
0.0 1.0 0.0 
0.0 1.0 0.0 
0.0 1.0 0.0 
0.0 1.0 0.0 
0.0 1.0 0.0 
0.0 1.0 0.0 
0.0 1.0 0.0 
0.0 1.0 0.0 
0.0 1.0 0.0 
0.0 1.0 0.0 
0.0 1.0 0.0 
0.0 1.0 0.0 
0.0 1.0 0.0 
0.0 1.0 0.0 
0.0 1.0 0.0 
0.0 0.0 1.0 
0.0 0.0 1.0 
0.0 0.0 1.0 
0.0 0.0 1.0 
0.0 0.0 1.0 
0.0 0.0 1.0 
0.0 0.0 1.0 
0.0 0.0 1.0 
0.0 0.0 1.0 
0.0 0.0 1.0 
0.0 0.0 1.0 
0.0 0.0 1.0 
0.0 0.0 1.0 
0.0 0.0 1.0 
0.0 0.0 1.0 
0.0 0.0 1.0 
0.0 0.0 1.0 
0.0 0.0 1.0 
0.0 0.0 1.0 
0.0 0.0 1.0 
0.0 0.0 1.0 
0.0 0.0 1.0 
0.0 0.0 1.0 
0.0 0.0 1.0 
0.0 0.0 1.0 
0.0 0.0 1.0 
0.0 0.0 1.0 
0.0 0.0 1.0 
0.0 0.0 1.0 
0.0 0.0 1.0 
0.0 0.0 1.0 
0.0 0.0 1.0 
0.0 0.0 1.0 
0.0 0.0 1.0 
0.0 0.0 1.0 
0.0 0.0 1.0 
0.0 0.0 1.0 
0.0 0.0 1.0 
0.0 0.0 1.0 
0.0 0.0 1.0 
0.0 0.0 1.0 
0.0 0.0 1.0 
0.0 0.0 1.0 
0.0 0.0 1.0 
0.0 0.0 1.0 
0.0 0.0 1.0 
0.0 0.0 1.0 
0.0 0.0 1.0 
0.0 0.0 1.0 
0.0 0.0 1.0 
Learning : 0.699999988079071
Momentum : 0.9
Epoch: 100, Error: 0.013315452829197612
Epoch: 200, Error: 0.015468697941403134
Epoch: 300, Error: 0.012451054528100504
Epoch: 400, Error: 0.012610410457950002
Epoch: 500, Error: 0.014368857259387965
Epoch: 600, Error: 0.012435580748761197
Epoch: 700, Error: 0.012628248150595245
Epoch: 800, Error: 0.012546338927126663
Epoch: 900, Error: 0.012344544757846836
Epoch: 1000, Error: 0.013663537472599357
Epoch: 1100, Error: 0.012273767668558597
Epoch: 1200, Error: 0.012257950271958903
Epoch: 1300, Error: 0.012092362653745196
Epoch: 1400, Error: 0.012913262779069465
Epoch: 1500, Error: 0.011977339251821395
Epoch: 1600, Error: 0.011887866605971088
Epoch: 1700, Error: 0.01230050982347462
Epoch: 1800, Error: 0.011817452816256919
Epoch: 1900, Error: 0.011705794001051446
Epoch: 2000, Error: 0.011577110411794288
Epoch: 2100, Error: 0.01156267118141945
Epoch: 2200, Error: 0.01166299292993293
Epoch: 2300, Error: 0.011014955553453474
Epoch: 2400, Error: 0.009795064778621437
Epoch: 2500, Error: 0.009080569015626646
Epoch: 2600, Error: 0.0086247354852678
Epoch: 2700, Error: 0.008069283244017372
Epoch: 2800, Error: 0.0077481407523661535
Epoch: 2900, Error: 0.0074258506776850594
Epoch: 3000, Error: 0.008048565805411986
Epoch: 3100, Error: 0.006518624875763856
Epoch: 3200, Error: 0.006206199354571833
Epoch: 3300, Error: 0.006024943702466469
Epoch: 3400, Error: 0.005940177310993368
Epoch: 3500, Error: 0.005844785979036863
Epoch: 3600, Error: 0.005927954902732299
Epoch: 3700, Error: 0.005819030059743077
Epoch: 3800, Error: 0.005727594885060305
Epoch: 3900, Error: 0.0057123516238557085
Epoch: 4000, Error: 0.005697674765098845
Epoch: 4100, Error: 0.005709316816347466
Epoch: 4200, Error: 0.005663800890132051
Epoch: 4300, Error: 0.005675568671022947
Epoch: 4400, Error: 0.0056583897367339635
Epoch: 4500, Error: 0.005654929352764321
Epoch: 4600, Error: 0.005672034968647325
Epoch: 4700, Error: 0.005643782567312142
Epoch: 4800, Error: 0.005636115755414269
Epoch: 4900, Error: 0.005641515056938649
Epoch: 5000, Error: 0.0056615901475584
Epoch: 5100, Error: 0.005632013416946332
Epoch: 5200, Error: 0.005635953005425778
Epoch: 5300, Error: 0.00563664685898107
Epoch: 5400, Error: 0.0056526636623586155
Epoch: 5500, Error: 0.0056561978844849245
Epoch: 5600, Error: 0.005701064454802832
Epoch: 5700, Error: 0.0056800263441247716
Epoch: 5800, Error: 0.005666762551570423
Epoch: 5900, Error: 0.005719301046826473
Epoch: 6000, Error: 0.005701168980198652
Epoch: 6100, Error: 0.005725255592318626
Epoch: 6200, Error: 0.005655518493683021
Epoch: 6300, Error: 0.005709647874203113
Epoch: 6400, Error: 0.005680620314863747
Epoch: 6500, Error: 0.005839107625186168
Epoch: 6600, Error: 0.005703357845541325
Epoch: 6700, Error: 0.0056297105437779806
Epoch: 6800, Error: 0.005668998941695611
Epoch: 6900, Error: 0.005595887699272319
Epoch: 7000, Error: 0.00573601190850683
Epoch: 7100, Error: 0.00558431283001848
Epoch: 7200, Error: 0.005513584361890908
Epoch: 7300, Error: 0.005343128696680679
Epoch: 7400, Error: 0.005535385282410709
Epoch: 7500, Error: 0.0053843475349387064
Epoch: 7600, Error: 0.005782625813314992
Epoch: 7700, Error: 0.005041112646511202
Epoch: 7800, Error: 0.005137683679033965
Epoch: 7900, Error: 0.0048654795800492775
Epoch: 8000, Error: 0.005005331066320914
Epoch: 8100, Error: 0.005076638717077002
Epoch: 8200, Error: 0.006930509295847388
Epoch: 8300, Error: 0.004075381586024036
Epoch: 8400, Error: 0.008968069783403384
Epoch: 8500, Error: 0.0044791273067325554
Epoch: 8600, Error: 0.0035562367375378346
Epoch: 8700, Error: 0.0038653760718933873
Epoch: 8800, Error: 0.00329840707732159
Epoch: 8900, Error: 0.004128710883066876
Epoch: 9000, Error: 0.0042641161715903635
Epoch: 9100, Error: 0.004275462107772855
Epoch: 9200, Error: 0.003917713317173891
Epoch: 9300, Error: 0.002736263957927866
Epoch: 9400, Error: 0.006480212486438041
Epoch: 9500, Error: 0.006074150327395455
Epoch: 9600, Error: 0.004229106447574698
Epoch: 9700, Error: 0.005345592703478373
Epoch: 9800, Error: 0.004111839175358138
Epoch: 9900, Error: 0.00221439707101888
Epoch: 10000, Error: 0.0037261086493824954
Epoch: 10100, Error: 0.0018187922647410516
Epoch: 10200, Error: 0.005738274229602242
Epoch: 10300, Error: 0.0035828423707116273
Epoch: 10400, Error: 0.0063099839270506445
Epoch: 10500, Error: 0.0034244176299677675
Epoch: 10600, Error: 0.003101302388188881
Epoch: 10700, Error: 0.001573611780495319
Epoch: 10800, Error: 0.0057715262225244285
Epoch: 10900, Error: 0.0020347620172901527
Epoch: 11000, Error: 0.002763191394519561
Epoch: 11100, Error: 0.0014497502067555318
Epoch: 11200, Error: 0.001534948119299393
Epoch: 11300, Error: 0.001327832745015726
Epoch: 11400, Error: 0.0013569858079828306
Epoch: 11500, Error: 0.00133998777976534
Epoch: 11600, Error: 0.0013441567173915387
Epoch: 11700, Error: 0.0013596135928886247
Epoch: 11800, Error: 0.0013691911784865609
Epoch: 11900, Error: 0.0013709452347934825
Epoch: 12000, Error: 0.0013951641045515046
Epoch: 12100, Error: 0.001371747569905596
Epoch: 12200, Error: 0.0012399645485578093
Epoch: 12300, Error: 0.001241483260542724
Epoch: 12400, Error: 0.001257306911499664
Epoch: 12500, Error: 0.0012010417734450425
Epoch: 12600, Error: 0.0011746232034244364
Epoch: 12700, Error: 0.0011695725234642667
Epoch: 12800, Error: 0.0011725752897549942
Epoch: 12900, Error: 0.0011732353861208806
Epoch: 13000, Error: 0.0011737973606872885
Epoch: 13100, Error: 0.0011810204306977148
Epoch: 13200, Error: 0.0011887107199469093
Epoch: 13300, Error: 0.001207561816177392
Epoch: 13400, Error: 0.0012189058359673972
finished
