Input Patterns
0.224 0.624 0.067 0.043 
0.11 0.502 0.051 0.043 
0.196 0.667 0.067 0.043 
0.055 0.584 0.067 0.082 
0.027 0.376 0.067 0.043 
0.306 0.71 0.086 0.043 
0.137 0.416 0.067 0.0 
0.416 0.831 0.035 0.043 
0.306 0.792 0.051 0.125 
0.388 0.749 0.118 0.082 
0.306 0.584 0.118 0.043 
0.082 0.667 0.0 0.043 
0.137 0.584 0.153 0.043 
0.196 0.584 0.102 0.125 
0.251 0.584 0.067 0.043 
0.137 0.459 0.102 0.043 
0.251 0.875 0.086 0.0 
0.165 0.459 0.086 0.043 
0.333 0.624 0.051 0.043 
0.027 0.416 0.051 0.043 
0.196 0.624 0.051 0.082 
0.027 0.502 0.051 0.043 
0.224 0.749 0.153 0.125 
0.224 0.749 0.102 0.043 
0.278 0.71 0.086 0.043 
0.165 0.416 0.067 0.043 
0.082 0.459 0.086 0.043 
0.306 0.792 0.118 0.125 
0.196 0.584 0.086 0.043 
0.165 0.459 0.086 0.0 
0.137 0.584 0.102 0.043 
0.0 0.416 0.016 0.0 
0.388 1.0 0.086 0.125 
0.224 0.624 0.067 0.082 
0.224 0.749 0.086 0.082 
0.224 0.71 0.086 0.125 
0.224 0.541 0.118 0.165 
0.196 0.416 0.102 0.043 
0.251 0.624 0.086 0.043 
0.11 0.502 0.102 0.043 
0.306 0.584 0.086 0.125 
0.333 0.918 0.067 0.043 
0.196 0.502 0.035 0.043 
0.165 0.667 0.067 0.0 
0.224 0.584 0.086 0.043 
0.055 0.125 0.051 0.082 
0.196 0.624 0.102 0.208 
0.137 0.416 0.067 0.082 
0.082 0.502 0.067 0.043 
0.196 0.541 0.067 0.043 
0.749 0.502 0.627 0.541 
0.722 0.459 0.663 0.584 
0.612 0.333 0.612 0.584 
0.557 0.541 0.627 0.624 
0.639 0.376 0.612 0.498 
0.196 0.0 0.424 0.376 
0.471 0.082 0.51 0.376 
0.361 0.376 0.439 0.498 
0.361 0.416 0.592 0.584 
0.529 0.082 0.592 0.584 
0.443 0.502 0.643 0.459 
0.557 0.208 0.663 0.584 
0.584 0.376 0.561 0.498 
0.694 0.333 0.643 0.541 
0.471 0.376 0.592 0.584 
0.333 0.169 0.475 0.416 
0.416 0.29 0.49 0.459 
0.306 0.416 0.592 0.584 
0.667 0.459 0.627 0.584 
0.361 0.416 0.525 0.498 
0.333 0.251 0.576 0.459 
0.416 0.251 0.51 0.459 
0.361 0.29 0.541 0.498 
0.388 0.376 0.541 0.498 
0.224 0.208 0.337 0.416 
0.584 0.502 0.592 0.584 
0.333 0.125 0.51 0.498 
0.388 0.333 0.592 0.498 
0.165 0.169 0.388 0.376 
0.251 0.29 0.49 0.541 
0.443 0.416 0.541 0.584 
0.498 0.376 0.627 0.541 
0.667 0.459 0.576 0.541 
0.416 0.29 0.525 0.376 
0.361 0.208 0.49 0.416 
0.498 0.333 0.51 0.498 
0.498 0.333 0.627 0.459 
0.639 0.416 0.576 0.541 
0.667 0.416 0.678 0.667 
0.388 0.251 0.424 0.376 
0.333 0.169 0.459 0.376 
0.471 0.29 0.694 0.624 
0.471 0.584 0.592 0.624 
0.557 0.125 0.576 0.498 
0.333 0.208 0.51 0.498 
0.498 0.416 0.612 0.541 
0.196 0.125 0.388 0.376 
0.388 0.416 0.541 0.459 
0.529 0.376 0.561 0.498 
0.388 0.333 0.525 0.498 
0.557 0.541 0.847 1.0 
0.776 0.416 0.831 0.831 
0.612 0.416 0.812 0.875 
0.165 0.208 0.592 0.667 
0.667 0.208 0.812 0.71 
0.612 0.502 0.694 0.792 
0.694 0.416 0.761 0.831 
0.416 0.333 0.694 0.957 
0.612 0.416 0.761 0.71 
0.945 0.251 1.0 0.918 
0.722 0.502 0.796 0.918 
0.945 0.333 0.965 0.792 
0.667 0.541 0.796 0.831 
0.529 0.333 0.643 0.71 
0.584 0.333 0.78 0.831 
0.863 0.333 0.863 0.749 
0.584 0.333 0.78 0.875 
0.498 0.251 0.78 0.541 
0.557 0.584 0.78 0.957 
0.471 0.416 0.643 0.71 
0.667 0.459 0.78 0.957 
0.416 0.29 0.694 0.749 
0.667 0.541 0.796 1.0 
0.557 0.208 0.678 0.749 
0.529 0.584 0.745 0.918 
0.416 0.29 0.694 0.749 
0.557 0.376 0.78 0.71 
0.918 0.416 0.949 0.831 
0.835 0.376 0.898 0.71 
0.804 0.667 0.863 1.0 
0.584 0.29 0.729 0.749 
0.388 0.208 0.678 0.792 
0.584 0.502 0.729 0.918 
0.945 0.749 0.965 0.875 
0.471 0.082 0.678 0.584 
0.361 0.333 0.663 0.792 
0.557 0.29 0.663 0.71 
0.804 0.502 0.847 0.71 
0.498 0.416 0.51 0.71 
0.804 0.416 0.812 0.624 
1.0 0.749 0.914 0.792 
0.557 0.333 0.694 0.584 
0.945 0.416 0.863 0.918 
0.584 0.459 0.761 0.71 
0.722 0.459 0.745 0.831 
0.722 0.459 0.694 0.918 
0.694 0.502 0.831 0.918 
0.667 0.416 0.714 0.918 
0.612 0.416 0.714 0.792 
0.443 0.416 0.694 0.71 
Teaching Patterns
1.0 0.0 0.0 
1.0 0.0 0.0 
1.0 0.0 0.0 
1.0 0.0 0.0 
1.0 0.0 0.0 
1.0 0.0 0.0 
1.0 0.0 0.0 
1.0 0.0 0.0 
1.0 0.0 0.0 
1.0 0.0 0.0 
1.0 0.0 0.0 
1.0 0.0 0.0 
1.0 0.0 0.0 
1.0 0.0 0.0 
1.0 0.0 0.0 
1.0 0.0 0.0 
1.0 0.0 0.0 
1.0 0.0 0.0 
1.0 0.0 0.0 
1.0 0.0 0.0 
1.0 0.0 0.0 
1.0 0.0 0.0 
1.0 0.0 0.0 
1.0 0.0 0.0 
1.0 0.0 0.0 
1.0 0.0 0.0 
1.0 0.0 0.0 
1.0 0.0 0.0 
1.0 0.0 0.0 
1.0 0.0 0.0 
1.0 0.0 0.0 
1.0 0.0 0.0 
1.0 0.0 0.0 
1.0 0.0 0.0 
1.0 0.0 0.0 
1.0 0.0 0.0 
1.0 0.0 0.0 
1.0 0.0 0.0 
1.0 0.0 0.0 
1.0 0.0 0.0 
1.0 0.0 0.0 
1.0 0.0 0.0 
1.0 0.0 0.0 
1.0 0.0 0.0 
1.0 0.0 0.0 
1.0 0.0 0.0 
1.0 0.0 0.0 
1.0 0.0 0.0 
1.0 0.0 0.0 
1.0 0.0 0.0 
0.0 1.0 0.0 
0.0 1.0 0.0 
0.0 1.0 0.0 
0.0 1.0 0.0 
0.0 1.0 0.0 
0.0 1.0 0.0 
0.0 1.0 0.0 
0.0 1.0 0.0 
0.0 1.0 0.0 
0.0 1.0 0.0 
0.0 1.0 0.0 
0.0 1.0 0.0 
0.0 1.0 0.0 
0.0 1.0 0.0 
0.0 1.0 0.0 
0.0 1.0 0.0 
0.0 1.0 0.0 
0.0 1.0 0.0 
0.0 1.0 0.0 
0.0 1.0 0.0 
0.0 1.0 0.0 
0.0 1.0 0.0 
0.0 1.0 0.0 
0.0 1.0 0.0 
0.0 1.0 0.0 
0.0 1.0 0.0 
0.0 1.0 0.0 
0.0 1.0 0.0 
0.0 1.0 0.0 
0.0 1.0 0.0 
0.0 1.0 0.0 
0.0 1.0 0.0 
0.0 1.0 0.0 
0.0 1.0 0.0 
0.0 1.0 0.0 
0.0 1.0 0.0 
0.0 1.0 0.0 
0.0 1.0 0.0 
0.0 1.0 0.0 
0.0 1.0 0.0 
0.0 1.0 0.0 
0.0 1.0 0.0 
0.0 1.0 0.0 
0.0 1.0 0.0 
0.0 1.0 0.0 
0.0 1.0 0.0 
0.0 1.0 0.0 
0.0 1.0 0.0 
0.0 1.0 0.0 
0.0 1.0 0.0 
0.0 0.0 1.0 
0.0 0.0 1.0 
0.0 0.0 1.0 
0.0 0.0 1.0 
0.0 0.0 1.0 
0.0 0.0 1.0 
0.0 0.0 1.0 
0.0 0.0 1.0 
0.0 0.0 1.0 
0.0 0.0 1.0 
0.0 0.0 1.0 
0.0 0.0 1.0 
0.0 0.0 1.0 
0.0 0.0 1.0 
0.0 0.0 1.0 
0.0 0.0 1.0 
0.0 0.0 1.0 
0.0 0.0 1.0 
0.0 0.0 1.0 
0.0 0.0 1.0 
0.0 0.0 1.0 
0.0 0.0 1.0 
0.0 0.0 1.0 
0.0 0.0 1.0 
0.0 0.0 1.0 
0.0 0.0 1.0 
0.0 0.0 1.0 
0.0 0.0 1.0 
0.0 0.0 1.0 
0.0 0.0 1.0 
0.0 0.0 1.0 
0.0 0.0 1.0 
0.0 0.0 1.0 
0.0 0.0 1.0 
0.0 0.0 1.0 
0.0 0.0 1.0 
0.0 0.0 1.0 
0.0 0.0 1.0 
0.0 0.0 1.0 
0.0 0.0 1.0 
0.0 0.0 1.0 
0.0 0.0 1.0 
0.0 0.0 1.0 
0.0 0.0 1.0 
0.0 0.0 1.0 
0.0 0.0 1.0 
0.0 0.0 1.0 
0.0 0.0 1.0 
0.0 0.0 1.0 
0.0 0.0 1.0 
Learning : 0.05
Momentum : 0.4000000059604645
Epoch: 100, Error: 0.08298471858172764
Epoch: 200, Error: 0.026635819975018696
Epoch: 300, Error: 0.018277436428025873
Epoch: 400, Error: 0.01583882539065062
Epoch: 500, Error: 0.014734264657714512
Epoch: 600, Error: 0.013968300020153727
Epoch: 700, Error: 0.013596915942363612
Epoch: 800, Error: 0.01344740161981394
Epoch: 900, Error: 0.012954684715312196
Epoch: 1000, Error: 0.012792933737068149
Epoch: 1100, Error: 0.012634275616098901
Epoch: 1200, Error: 0.012519544753978137
Epoch: 1300, Error: 0.01242971631966145
Epoch: 1400, Error: 0.012435055485117802
Epoch: 1500, Error: 0.012456716562144284
Epoch: 1600, Error: 0.01227045773618585
Epoch: 1700, Error: 0.012421661493803794
Epoch: 1800, Error: 0.012223185286674768
Epoch: 1900, Error: 0.01223907377275107
Epoch: 2000, Error: 0.012313155755054409
Epoch: 2100, Error: 0.012295842133858854
Epoch: 2200, Error: 0.01221785115226375
Epoch: 2300, Error: 0.01213383046832701
Epoch: 2400, Error: 0.012113108849265882
Epoch: 2500, Error: 0.012076325325848502
Epoch: 2600, Error: 0.012077538653466911
Epoch: 2700, Error: 0.012079465220543067
Epoch: 2800, Error: 0.012088872527543822
Epoch: 2900, Error: 0.012075501287006957
Epoch: 3000, Error: 0.012114740657981597
Epoch: 3100, Error: 0.012064702927458969
Epoch: 3200, Error: 0.01206418750169724
Epoch: 3300, Error: 0.012053326826957794
Epoch: 3400, Error: 0.012038509558019819
Epoch: 3500, Error: 0.012047284211027562
Epoch: 3600, Error: 0.012035190683641107
Epoch: 3700, Error: 0.012026214499910265
Epoch: 3800, Error: 0.012032283060984833
Epoch: 3900, Error: 0.012030755257891459
Epoch: 4000, Error: 0.012008129407569814
Epoch: 4100, Error: 0.012040439606707318
Epoch: 4200, Error: 0.012008589014503723
Epoch: 4300, Error: 0.011972328213234034
Epoch: 4400, Error: 0.011963414850450963
Epoch: 4500, Error: 0.011942817736578088
Epoch: 4600, Error: 0.011938747427824171
Epoch: 4700, Error: 0.01190434362641623
Epoch: 4800, Error: 0.011899218669661768
Epoch: 4900, Error: 0.011883317878240419
Epoch: 5000, Error: 0.011964104378358478
Epoch: 5100, Error: 0.011869078191749299
Epoch: 5200, Error: 0.011913442520802581
Epoch: 5300, Error: 0.01184738293433303
Epoch: 5400, Error: 0.011939360550815853
Epoch: 5500, Error: 0.011843494072661477
Epoch: 5600, Error: 0.0118082499103484
Epoch: 5700, Error: 0.011801072590447189
Epoch: 5800, Error: 0.011781104593902386
Epoch: 5900, Error: 0.011765361858742548
Epoch: 6000, Error: 0.011769424413198585
Epoch: 6100, Error: 0.011890024929104607
Epoch: 6200, Error: 0.01171291283251619
Epoch: 6300, Error: 0.011700875879175466
Epoch: 6400, Error: 0.01169218863757914
Epoch: 6500, Error: 0.011679959898567951
Epoch: 6600, Error: 0.011662424422825965
Epoch: 6700, Error: 0.011649303008522433
Epoch: 6800, Error: 0.011698256960555074
Epoch: 6900, Error: 0.01166857675412183
Epoch: 7000, Error: 0.011594380427819238
Epoch: 7100, Error: 0.01161128017916701
Epoch: 7200, Error: 0.01161748839272213
Epoch: 7300, Error: 0.011566091622885943
Epoch: 7400, Error: 0.011504207934553435
Epoch: 7500, Error: 0.011529904467514717
Epoch: 7600, Error: 0.011482333150773901
Epoch: 7700, Error: 0.011544750207882726
Epoch: 7800, Error: 0.011452169329171457
Epoch: 7900, Error: 0.011407184984885558
Epoch: 8000, Error: 0.011424164354822791
Epoch: 8100, Error: 0.011362907000108618
Epoch: 8200, Error: 0.011337603910652902
Epoch: 8300, Error: 0.011301848165828562
Epoch: 8400, Error: 0.011326920223173694
Epoch: 8500, Error: 0.011264720869245936
Epoch: 8600, Error: 0.011246189699408311
Epoch: 8700, Error: 0.011162889261093718
Epoch: 8800, Error: 0.01110635083620946
Epoch: 8900, Error: 0.011064917292502715
Epoch: 9000, Error: 0.011065730394872358
Epoch: 9100, Error: 0.011012897008282596
Epoch: 9200, Error: 0.010998766631065743
Epoch: 9300, Error: 0.010893966657321898
Epoch: 9400, Error: 0.010816566533139572
Epoch: 9500, Error: 0.010750486836289368
Epoch: 9600, Error: 0.010721057083620053
Epoch: 9700, Error: 0.010657205154406574
Epoch: 9800, Error: 0.010559855373739296
Epoch: 9900, Error: 0.010540938206439407
Epoch: 10000, Error: 0.010392361279675879
Epoch: 10100, Error: 0.01029061381238663
Epoch: 10200, Error: 0.010220294638836218
Epoch: 10300, Error: 0.010047363516547322
Epoch: 10400, Error: 0.0099433078179353
Epoch: 10500, Error: 0.009867872935916861
Epoch: 10600, Error: 0.009746505047265312
Epoch: 10700, Error: 0.009609923919370876
Epoch: 10800, Error: 0.00952133182232174
Epoch: 10900, Error: 0.009345305884986074
Epoch: 11000, Error: 0.009218920912984969
Epoch: 11100, Error: 0.009085462032536896
Epoch: 11200, Error: 0.00895525719166723
Epoch: 11300, Error: 0.008862493307002235
Epoch: 11400, Error: 0.008715598098826884
Epoch: 11500, Error: 0.008634952044442668
Epoch: 11600, Error: 0.008480814625302023
Epoch: 11700, Error: 0.008359362883070702
Epoch: 11800, Error: 0.008308482738108462
Epoch: 11900, Error: 0.008127296457785552
Epoch: 12000, Error: 0.008028105701296731
Epoch: 12100, Error: 0.007918809433575464
Epoch: 12200, Error: 0.007828406037353694
Epoch: 12300, Error: 0.007735071136943184
Epoch: 12400, Error: 0.007645863541300626
Epoch: 12500, Error: 0.007579545842571646
Epoch: 12600, Error: 0.007476641343340805
Epoch: 12700, Error: 0.0074027791132343125
Epoch: 12800, Error: 0.00733261900762578
Epoch: 12900, Error: 0.007259877753026955
Epoch: 13000, Error: 0.007194781677127575
Epoch: 13100, Error: 0.007125716552480967
Epoch: 13200, Error: 0.007087249361131682
Epoch: 13300, Error: 0.0070037035005541025
Epoch: 13400, Error: 0.006951704495582488
Epoch: 13500, Error: 0.00690177827379376
Epoch: 13600, Error: 0.006856095286515552
Epoch: 13700, Error: 0.0068340779337412024
Epoch: 13800, Error: 0.006761587153230736
Epoch: 13900, Error: 0.006722233476329777
Epoch: 14000, Error: 0.006679673729195829
Epoch: 14100, Error: 0.006660999934652043
Epoch: 14200, Error: 0.006610483332519682
Epoch: 14300, Error: 0.006606444647200174
Epoch: 14400, Error: 0.006547493704107783
Epoch: 14500, Error: 0.006548064300338421
Epoch: 14600, Error: 0.006473376293174736
Epoch: 14700, Error: 0.006444560175833579
Epoch: 14800, Error: 0.0064139633824633275
Epoch: 14900, Error: 0.006394414089019688
Epoch: 15000, Error: 0.006357449176458177
Epoch: 15100, Error: 0.006334500898304567
Epoch: 15200, Error: 0.006306590907121072
Epoch: 15300, Error: 0.006284514243909407
Epoch: 15400, Error: 0.006272544827267938
Epoch: 15500, Error: 0.0062408990897974215
Epoch: 15600, Error: 0.006199956053769604
Epoch: 15700, Error: 0.006191606436433872
Epoch: 15800, Error: 0.006152503681613342
Epoch: 15900, Error: 0.006139788217236571
Epoch: 16000, Error: 0.006123220977795403
Epoch: 16100, Error: 0.006116254742741533
Epoch: 16200, Error: 0.006061764084271024
Epoch: 16300, Error: 0.006052367889458286
Epoch: 16400, Error: 0.006013057515202409
Epoch: 16500, Error: 0.005995766387612718
Epoch: 16600, Error: 0.005968106659375211
Epoch: 16700, Error: 0.005965673498948977
Epoch: 16800, Error: 0.005941808504336908
Epoch: 16900, Error: 0.005903320014137656
Epoch: 17000, Error: 0.005872825348075665
Epoch: 17100, Error: 0.005850349454542388
Epoch: 17200, Error: 0.005829478712784198
Epoch: 17300, Error: 0.005811067314653612
Epoch: 17400, Error: 0.005803001167242641
Epoch: 17500, Error: 0.005771980083856768
Epoch: 17600, Error: 0.005752831180491051
Epoch: 17700, Error: 0.005747327691082364
Epoch: 17800, Error: 0.005726662228133831
Epoch: 17900, Error: 0.005707358641492019
Epoch: 18000, Error: 0.00568830176378856
Epoch: 18100, Error: 0.005656944358029949
Epoch: 18200, Error: 0.0056394942705334395
Epoch: 18300, Error: 0.005602129423115228
Epoch: 18400, Error: 0.0055905210484133
Epoch: 18500, Error: 0.0055939053020271955
Epoch: 18600, Error: 0.0055164041215168425
Epoch: 18700, Error: 0.005485766823301565
Epoch: 18800, Error: 0.0054660231558945355
Epoch: 18900, Error: 0.005432551066896426
Epoch: 19000, Error: 0.005412417508314966
Epoch: 19100, Error: 0.0053825580459666775
Epoch: 19200, Error: 0.005364795020566137
Epoch: 19300, Error: 0.005351336415938434
Epoch: 19400, Error: 0.0053512272882137195
Epoch: 19500, Error: 0.005339221722363761
Epoch: 19600, Error: 0.005333195672902045
Epoch: 19700, Error: 0.005299719080482203
Epoch: 19800, Error: 0.00527269760046692
Epoch: 19900, Error: 0.005249713844425188
Epoch: 20000, Error: 0.005233169988491485
Epoch: 20100, Error: 0.005214461412663894
Epoch: 20200, Error: 0.005189522603352282
Epoch: 20300, Error: 0.005169553085589493
Epoch: 20400, Error: 0.0051442306920815245
Epoch: 20500, Error: 0.005129210878083931
Epoch: 20600, Error: 0.00512239868776467
Epoch: 20700, Error: 0.005092321691438468
Epoch: 20800, Error: 0.005064976479673109
Epoch: 20900, Error: 0.0050443085875667955
Epoch: 21000, Error: 0.005077572300714997
Epoch: 21100, Error: 0.005011213973161682
Epoch: 21200, Error: 0.005003949141299092
Epoch: 21300, Error: 0.004980626415480578
Epoch: 21400, Error: 0.004987786157847472
Epoch: 21500, Error: 0.004919478958071923
Epoch: 21600, Error: 0.004915301158932984
Epoch: 21700, Error: 0.004898350355647653
Epoch: 21800, Error: 0.004860226453572789
Epoch: 21900, Error: 0.004849522799477344
Epoch: 22000, Error: 0.004819620029692499
Epoch: 22100, Error: 0.004807994399644828
Epoch: 22200, Error: 0.004805297412470817
Epoch: 22300, Error: 0.004782776798428375
Epoch: 22400, Error: 0.00474109371541829
Epoch: 22500, Error: 0.00471769771096023
Epoch: 22600, Error: 0.004694859920689046
Epoch: 22700, Error: 0.004663392346928921
Epoch: 22800, Error: 0.0046211071277756565
Epoch: 22900, Error: 0.0046099348714829505
Epoch: 23000, Error: 0.00458691166438191
Epoch: 23100, Error: 0.004573511151969844
Epoch: 23200, Error: 0.0045424540540467025
Epoch: 23300, Error: 0.004499988891815333
Epoch: 23400, Error: 0.004479468493831872
Epoch: 23500, Error: 0.004465096094293229
Epoch: 23600, Error: 0.004426882951606509
Epoch: 23700, Error: 0.004397074811847079
Epoch: 23800, Error: 0.004370742825802232
Epoch: 23900, Error: 0.004341275537090937
Epoch: 24000, Error: 0.004307882956785697
Epoch: 24100, Error: 0.004309973957646571
Epoch: 24200, Error: 0.004264058668504572
Epoch: 24300, Error: 0.004239525199373391
Epoch: 24400, Error: 0.004203494986765825
Epoch: 24500, Error: 0.004181178418039595
Epoch: 24600, Error: 0.00416860226734181
Epoch: 24700, Error: 0.004143586126549419
Epoch: 24800, Error: 0.0041171791978208945
Epoch: 24900, Error: 0.004120384829121319
Epoch: 25000, Error: 0.004078517726364127
Epoch: 25100, Error: 0.00404686993927049
Epoch: 25200, Error: 0.004073683449492023
Epoch: 25300, Error: 0.004004626243455059
Epoch: 25400, Error: 0.0039859058912591625
Epoch: 25500, Error: 0.003956895827896285
Epoch: 25600, Error: 0.003928234355972367
Epoch: 25700, Error: 0.003931639332210032
Epoch: 25800, Error: 0.003934732775592151
Epoch: 25900, Error: 0.003900184568999224
Epoch: 26000, Error: 0.003850554940094548
Epoch: 26100, Error: 0.0038370190866115605
Epoch: 26200, Error: 0.0038411838663253467
Epoch: 26300, Error: 0.0038074816661741694
Epoch: 26400, Error: 0.0037877641089934244
Epoch: 26500, Error: 0.003747020009048446
Epoch: 26600, Error: 0.003735185440014843
Epoch: 26700, Error: 0.003780574499324175
Epoch: 26800, Error: 0.00371496048722746
Epoch: 26900, Error: 0.003698570194462342
Epoch: 27000, Error: 0.003674571569357667
Epoch: 27100, Error: 0.0036603798501008314
Epoch: 27200, Error: 0.0036601213757350625
Epoch: 27300, Error: 0.003656689900586552
Epoch: 27400, Error: 0.0035986875437535666
Epoch: 27500, Error: 0.0036339353047338697
Epoch: 27600, Error: 0.0035514158065112606
Epoch: 27700, Error: 0.0035318897496305467
Epoch: 27800, Error: 0.0036403062002440326
Epoch: 27900, Error: 0.003512857005672526
Epoch: 28000, Error: 0.003494247195559704
Epoch: 28100, Error: 0.0034444346252291117
Epoch: 28200, Error: 0.00342993281553031
Epoch: 28300, Error: 0.00341690102618437
Epoch: 28400, Error: 0.0033787407070956805
Epoch: 28500, Error: 0.0033915914440038547
Epoch: 28600, Error: 0.003329120641994717
Epoch: 28700, Error: 0.0033193223505025883
Epoch: 28800, Error: 0.0033261098350052002
Epoch: 28900, Error: 0.0032825224564954647
Epoch: 29000, Error: 0.0032785843800811265
Epoch: 29100, Error: 0.003212538242632837
Epoch: 29200, Error: 0.003197418815207284
Epoch: 29300, Error: 0.0031667266219492997
Epoch: 29400, Error: 0.0031437475911925638
Epoch: 29500, Error: 0.003132553989235051
Epoch: 29600, Error: 0.0031457362667432795
Epoch: 29700, Error: 0.003063834354769366
Epoch: 29800, Error: 0.0030648542586737626
Epoch: 29900, Error: 0.0031030486198798048
Epoch: 30000, Error: 0.0029897927727721508
Epoch: 30100, Error: 0.0031894573531491767
Epoch: 30200, Error: 0.002998409735297902
Epoch: 30300, Error: 0.002931221975560117
Epoch: 30400, Error: 0.0029003991232040777
Epoch: 30500, Error: 0.0028692854441678497
Epoch: 30600, Error: 0.002943010496416418
Epoch: 30700, Error: 0.002819548348923795
Epoch: 30800, Error: 0.0027953198062703323
Epoch: 30900, Error: 0.00277593681564977
Epoch: 31000, Error: 0.0027536030680595886
Epoch: 31100, Error: 0.002730698951864526
Epoch: 31200, Error: 0.002733017664084989
Epoch: 31300, Error: 0.0027608570328694184
Epoch: 31400, Error: 0.0026676951607479127
Epoch: 31500, Error: 0.0026476699580451108
Epoch: 31600, Error: 0.0026698357015755374
Epoch: 31700, Error: 0.0026299923992157527
Epoch: 31800, Error: 0.0027086274417635323
Epoch: 31900, Error: 0.0025662249118151917
Epoch: 32000, Error: 0.0025623210302892488
Epoch: 32100, Error: 0.00253690048926999
Epoch: 32200, Error: 0.002505633354703839
Epoch: 32300, Error: 0.002520828012817005
Epoch: 32400, Error: 0.0025467074825221395
Epoch: 32500, Error: 0.002465064839849487
Epoch: 32600, Error: 0.002430675292981204
Epoch: 32700, Error: 0.0024204024081474138
Epoch: 32800, Error: 0.0023941820200996805
Epoch: 32900, Error: 0.002493054637173165
Epoch: 33000, Error: 0.0025717133703193015
Epoch: 33100, Error: 0.0023392915239694454
Epoch: 33200, Error: 0.0023637693201493592
Epoch: 33300, Error: 0.0023097824391762564
Epoch: 33400, Error: 0.0023202366022296857
Epoch: 33500, Error: 0.002313368428240582
Epoch: 33600, Error: 0.0022936726960184404
Epoch: 33700, Error: 0.0022639070975163872
Epoch: 33800, Error: 0.0022483290120399292
Epoch: 33900, Error: 0.002221256782124718
Epoch: 34000, Error: 0.0022403186819634976
Epoch: 34100, Error: 0.0021747593074276494
Epoch: 34200, Error: 0.0021695895275532407
Epoch: 34300, Error: 0.0021462493971672234
Epoch: 34400, Error: 0.00212376461899746
Epoch: 34500, Error: 0.0021076931156195594
Epoch: 34600, Error: 0.0021542274014518755
Epoch: 34700, Error: 0.002091715519271207
Epoch: 34800, Error: 0.0021064937563969295
Epoch: 34900, Error: 0.002113819827804154
Epoch: 35000, Error: 0.0020521703199513765
Epoch: 35100, Error: 0.002030158522340809
Epoch: 35200, Error: 0.002099611270658492
Epoch: 35300, Error: 0.0021382585683499514
Epoch: 35400, Error: 0.002102080052463585
Epoch: 35500, Error: 0.0019820734788787366
Epoch: 35600, Error: 0.001976015507839149
Epoch: 35700, Error: 0.0019658047983435642
Epoch: 35800, Error: 0.0019191031153612745
Epoch: 35900, Error: 0.0019604033669479485
Epoch: 36000, Error: 0.001901244207306304
Epoch: 36100, Error: 0.0018932423199568092
Epoch: 36200, Error: 0.001930336758208434
Epoch: 36300, Error: 0.0018618462592873844
Epoch: 36400, Error: 0.0018474818903646902
Epoch: 36500, Error: 0.0018295509294504722
Epoch: 36600, Error: 0.0018557659220171227
Epoch: 36700, Error: 0.0018040158722960329
Epoch: 36800, Error: 0.0017950306161798448
Epoch: 36900, Error: 0.0017879574442820532
Epoch: 37000, Error: 0.0017711761155458773
Epoch: 37100, Error: 0.0017605282849449816
Epoch: 37200, Error: 0.0017943337357881237
Epoch: 37300, Error: 0.0017403520403711978
Epoch: 37400, Error: 0.00173739710463516
Epoch: 37500, Error: 0.001756060140171554
Epoch: 37600, Error: 0.0017196442960818372
Epoch: 37700, Error: 0.001717872292122894
Epoch: 37800, Error: 0.0017030414728981672
Epoch: 37900, Error: 0.0016794330620676899
Epoch: 38000, Error: 0.0016669170234359207
Epoch: 38100, Error: 0.0016623664472829077
Epoch: 38200, Error: 0.0016821476661603115
Epoch: 38300, Error: 0.0016515779575247385
Epoch: 38400, Error: 0.0016410227004394003
Epoch: 38500, Error: 0.0016615135997798225
Epoch: 38600, Error: 0.0016275776082278984
Epoch: 38700, Error: 0.0016097398200244123
Epoch: 38800, Error: 0.001633637760596328
Epoch: 38900, Error: 0.0015925656862026516
Epoch: 39000, Error: 0.0015748038803520077
Epoch: 39100, Error: 0.0016607250542931909
Epoch: 39200, Error: 0.0015845798729351508
Epoch: 39300, Error: 0.001563946010437752
Epoch: 39400, Error: 0.0015910198914109845
Epoch: 39500, Error: 0.0015378316994569964
Epoch: 39600, Error: 0.0015242785680814836
Epoch: 39700, Error: 0.0015403597532057576
Epoch: 39800, Error: 0.0015318751975033885
Epoch: 39900, Error: 0.0015362792430202619
Epoch: 40000, Error: 0.0015122644742997778
Epoch: 40100, Error: 0.0014926586246146567
Epoch: 40200, Error: 0.0014760745197987756
Epoch: 40300, Error: 0.0015077653478910993
Epoch: 40400, Error: 0.001510397620484457
Epoch: 40500, Error: 0.0014560776205374446
Epoch: 40600, Error: 0.001447051690610145
Finished
