Input Patterns
0.224 0.624 0.067 0.043 
0.11 0.502 0.051 0.043 
0.196 0.667 0.067 0.043 
0.055 0.584 0.067 0.082 
0.027 0.376 0.067 0.043 
0.306 0.71 0.086 0.043 
0.137 0.416 0.067 0.0 
0.416 0.831 0.035 0.043 
0.306 0.792 0.051 0.125 
0.388 0.749 0.118 0.082 
0.306 0.584 0.118 0.043 
0.082 0.667 0.0 0.043 
0.137 0.584 0.153 0.043 
0.196 0.584 0.102 0.125 
0.251 0.584 0.067 0.043 
0.137 0.459 0.102 0.043 
0.251 0.875 0.086 0.0 
0.165 0.459 0.086 0.043 
0.333 0.624 0.051 0.043 
0.027 0.416 0.051 0.043 
0.196 0.624 0.051 0.082 
0.027 0.502 0.051 0.043 
0.224 0.749 0.153 0.125 
0.224 0.749 0.102 0.043 
0.278 0.71 0.086 0.043 
0.165 0.416 0.067 0.043 
0.082 0.459 0.086 0.043 
0.306 0.792 0.118 0.125 
0.196 0.584 0.086 0.043 
0.165 0.459 0.086 0.0 
0.137 0.584 0.102 0.043 
0.0 0.416 0.016 0.0 
0.388 1.0 0.086 0.125 
0.224 0.624 0.067 0.082 
0.224 0.749 0.086 0.082 
0.224 0.71 0.086 0.125 
0.224 0.541 0.118 0.165 
0.196 0.416 0.102 0.043 
0.251 0.624 0.086 0.043 
0.11 0.502 0.102 0.043 
0.306 0.584 0.086 0.125 
0.333 0.918 0.067 0.043 
0.196 0.502 0.035 0.043 
0.165 0.667 0.067 0.0 
0.224 0.584 0.086 0.043 
0.055 0.125 0.051 0.082 
0.196 0.624 0.102 0.208 
0.137 0.416 0.067 0.082 
0.082 0.502 0.067 0.043 
0.196 0.541 0.067 0.043 
0.749 0.502 0.627 0.541 
0.722 0.459 0.663 0.584 
0.612 0.333 0.612 0.584 
0.557 0.541 0.627 0.624 
0.639 0.376 0.612 0.498 
0.196 0.0 0.424 0.376 
0.471 0.082 0.51 0.376 
0.361 0.376 0.439 0.498 
0.361 0.416 0.592 0.584 
0.529 0.082 0.592 0.584 
0.443 0.502 0.643 0.459 
0.557 0.208 0.663 0.584 
0.584 0.376 0.561 0.498 
0.694 0.333 0.643 0.541 
0.471 0.376 0.592 0.584 
0.333 0.169 0.475 0.416 
0.416 0.29 0.49 0.459 
0.306 0.416 0.592 0.584 
0.667 0.459 0.627 0.584 
0.361 0.416 0.525 0.498 
0.333 0.251 0.576 0.459 
0.416 0.251 0.51 0.459 
0.361 0.29 0.541 0.498 
0.388 0.376 0.541 0.498 
0.224 0.208 0.337 0.416 
0.584 0.502 0.592 0.584 
0.333 0.125 0.51 0.498 
0.388 0.333 0.592 0.498 
0.165 0.169 0.388 0.376 
0.251 0.29 0.49 0.541 
0.443 0.416 0.541 0.584 
0.498 0.376 0.627 0.541 
0.667 0.459 0.576 0.541 
0.416 0.29 0.525 0.376 
0.361 0.208 0.49 0.416 
0.498 0.333 0.51 0.498 
0.498 0.333 0.627 0.459 
0.639 0.416 0.576 0.541 
0.667 0.416 0.678 0.667 
0.388 0.251 0.424 0.376 
0.333 0.169 0.459 0.376 
0.471 0.29 0.694 0.624 
0.471 0.584 0.592 0.624 
0.557 0.125 0.576 0.498 
0.333 0.208 0.51 0.498 
0.498 0.416 0.612 0.541 
0.196 0.125 0.388 0.376 
0.388 0.416 0.541 0.459 
0.529 0.376 0.561 0.498 
0.388 0.333 0.525 0.498 
0.557 0.541 0.847 1.0 
0.776 0.416 0.831 0.831 
0.612 0.416 0.812 0.875 
0.165 0.208 0.592 0.667 
0.667 0.208 0.812 0.71 
0.612 0.502 0.694 0.792 
0.694 0.416 0.761 0.831 
0.416 0.333 0.694 0.957 
0.612 0.416 0.761 0.71 
0.945 0.251 1.0 0.918 
0.722 0.502 0.796 0.918 
0.945 0.333 0.965 0.792 
0.667 0.541 0.796 0.831 
0.529 0.333 0.643 0.71 
0.584 0.333 0.78 0.831 
0.863 0.333 0.863 0.749 
0.584 0.333 0.78 0.875 
0.498 0.251 0.78 0.541 
0.557 0.584 0.78 0.957 
0.471 0.416 0.643 0.71 
0.667 0.459 0.78 0.957 
0.416 0.29 0.694 0.749 
0.667 0.541 0.796 1.0 
0.557 0.208 0.678 0.749 
0.529 0.584 0.745 0.918 
0.416 0.29 0.694 0.749 
0.557 0.376 0.78 0.71 
0.918 0.416 0.949 0.831 
0.835 0.376 0.898 0.71 
0.804 0.667 0.863 1.0 
0.584 0.29 0.729 0.749 
0.388 0.208 0.678 0.792 
0.584 0.502 0.729 0.918 
0.945 0.749 0.965 0.875 
0.471 0.082 0.678 0.584 
0.361 0.333 0.663 0.792 
0.557 0.29 0.663 0.71 
0.804 0.502 0.847 0.71 
0.498 0.416 0.51 0.71 
0.804 0.416 0.812 0.624 
1.0 0.749 0.914 0.792 
0.557 0.333 0.694 0.584 
0.945 0.416 0.863 0.918 
0.584 0.459 0.761 0.71 
0.722 0.459 0.745 0.831 
0.722 0.459 0.694 0.918 
0.694 0.502 0.831 0.918 
0.667 0.416 0.714 0.918 
0.612 0.416 0.714 0.792 
0.443 0.416 0.694 0.71 
Teaching Patterns
1.0 0.0 0.0 
1.0 0.0 0.0 
1.0 0.0 0.0 
1.0 0.0 0.0 
1.0 0.0 0.0 
1.0 0.0 0.0 
1.0 0.0 0.0 
1.0 0.0 0.0 
1.0 0.0 0.0 
1.0 0.0 0.0 
1.0 0.0 0.0 
1.0 0.0 0.0 
1.0 0.0 0.0 
1.0 0.0 0.0 
1.0 0.0 0.0 
1.0 0.0 0.0 
1.0 0.0 0.0 
1.0 0.0 0.0 
1.0 0.0 0.0 
1.0 0.0 0.0 
1.0 0.0 0.0 
1.0 0.0 0.0 
1.0 0.0 0.0 
1.0 0.0 0.0 
1.0 0.0 0.0 
1.0 0.0 0.0 
1.0 0.0 0.0 
1.0 0.0 0.0 
1.0 0.0 0.0 
1.0 0.0 0.0 
1.0 0.0 0.0 
1.0 0.0 0.0 
1.0 0.0 0.0 
1.0 0.0 0.0 
1.0 0.0 0.0 
1.0 0.0 0.0 
1.0 0.0 0.0 
1.0 0.0 0.0 
1.0 0.0 0.0 
1.0 0.0 0.0 
1.0 0.0 0.0 
1.0 0.0 0.0 
1.0 0.0 0.0 
1.0 0.0 0.0 
1.0 0.0 0.0 
1.0 0.0 0.0 
1.0 0.0 0.0 
1.0 0.0 0.0 
1.0 0.0 0.0 
1.0 0.0 0.0 
0.0 1.0 0.0 
0.0 1.0 0.0 
0.0 1.0 0.0 
0.0 1.0 0.0 
0.0 1.0 0.0 
0.0 1.0 0.0 
0.0 1.0 0.0 
0.0 1.0 0.0 
0.0 1.0 0.0 
0.0 1.0 0.0 
0.0 1.0 0.0 
0.0 1.0 0.0 
0.0 1.0 0.0 
0.0 1.0 0.0 
0.0 1.0 0.0 
0.0 1.0 0.0 
0.0 1.0 0.0 
0.0 1.0 0.0 
0.0 1.0 0.0 
0.0 1.0 0.0 
0.0 1.0 0.0 
0.0 1.0 0.0 
0.0 1.0 0.0 
0.0 1.0 0.0 
0.0 1.0 0.0 
0.0 1.0 0.0 
0.0 1.0 0.0 
0.0 1.0 0.0 
0.0 1.0 0.0 
0.0 1.0 0.0 
0.0 1.0 0.0 
0.0 1.0 0.0 
0.0 1.0 0.0 
0.0 1.0 0.0 
0.0 1.0 0.0 
0.0 1.0 0.0 
0.0 1.0 0.0 
0.0 1.0 0.0 
0.0 1.0 0.0 
0.0 1.0 0.0 
0.0 1.0 0.0 
0.0 1.0 0.0 
0.0 1.0 0.0 
0.0 1.0 0.0 
0.0 1.0 0.0 
0.0 1.0 0.0 
0.0 1.0 0.0 
0.0 1.0 0.0 
0.0 1.0 0.0 
0.0 1.0 0.0 
0.0 0.0 1.0 
0.0 0.0 1.0 
0.0 0.0 1.0 
0.0 0.0 1.0 
0.0 0.0 1.0 
0.0 0.0 1.0 
0.0 0.0 1.0 
0.0 0.0 1.0 
0.0 0.0 1.0 
0.0 0.0 1.0 
0.0 0.0 1.0 
0.0 0.0 1.0 
0.0 0.0 1.0 
0.0 0.0 1.0 
0.0 0.0 1.0 
0.0 0.0 1.0 
0.0 0.0 1.0 
0.0 0.0 1.0 
0.0 0.0 1.0 
0.0 0.0 1.0 
0.0 0.0 1.0 
0.0 0.0 1.0 
0.0 0.0 1.0 
0.0 0.0 1.0 
0.0 0.0 1.0 
0.0 0.0 1.0 
0.0 0.0 1.0 
0.0 0.0 1.0 
0.0 0.0 1.0 
0.0 0.0 1.0 
0.0 0.0 1.0 
0.0 0.0 1.0 
0.0 0.0 1.0 
0.0 0.0 1.0 
0.0 0.0 1.0 
0.0 0.0 1.0 
0.0 0.0 1.0 
0.0 0.0 1.0 
0.0 0.0 1.0 
0.0 0.0 1.0 
0.0 0.0 1.0 
0.0 0.0 1.0 
0.0 0.0 1.0 
0.0 0.0 1.0 
0.0 0.0 1.0 
0.0 0.0 1.0 
0.0 0.0 1.0 
0.0 0.0 1.0 
0.0 0.0 1.0 
0.0 0.0 1.0 
Learning : 0.05
Momentum : 0.4000000059604645
Epoch: 100, Error: 0.06968256437796357
Epoch: 200, Error: 0.024219388269108445
Epoch: 300, Error: 0.01829274193577339
Epoch: 400, Error: 0.016107254137809092
Epoch: 500, Error: 0.015042378174058148
Epoch: 600, Error: 0.014342725788724033
Epoch: 700, Error: 0.013963622043775265
Epoch: 800, Error: 0.014025466152984374
Epoch: 900, Error: 0.013721719598218166
Epoch: 1000, Error: 0.013391129997000305
Epoch: 1100, Error: 0.01318914633804621
Epoch: 1200, Error: 0.01341322604921067
Epoch: 1300, Error: 0.012948735864623096
Epoch: 1400, Error: 0.012865336535359439
Epoch: 1500, Error: 0.01279219143521729
Epoch: 1600, Error: 0.012687112444167774
Epoch: 1700, Error: 0.01279741219793839
Epoch: 1800, Error: 0.012692708609102174
Epoch: 1900, Error: 0.0125253492746909
Epoch: 2000, Error: 0.012460219992582601
Epoch: 2100, Error: 0.012365903571902247
Epoch: 2200, Error: 0.012315178020704006
Epoch: 2300, Error: 0.01237149723910836
Epoch: 2400, Error: 0.012275887140189137
Epoch: 2500, Error: 0.012264933439121951
Epoch: 2600, Error: 0.012251124615051484
Epoch: 2700, Error: 0.012212164535254989
Epoch: 2800, Error: 0.012200018359582322
Epoch: 2900, Error: 0.012143590285652456
Epoch: 3000, Error: 0.012124124521374837
Epoch: 3100, Error: 0.012217495304811877
Epoch: 3200, Error: 0.012118143012262578
Epoch: 3300, Error: 0.012104494529999793
Epoch: 3400, Error: 0.012039721338098979
Epoch: 3500, Error: 0.012046135329602529
Epoch: 3600, Error: 0.012039145542277507
Epoch: 3700, Error: 0.012035733790979667
Epoch: 3800, Error: 0.012145957845818194
Epoch: 3900, Error: 0.01204878777098744
Epoch: 4000, Error: 0.012023771139122843
Epoch: 4100, Error: 0.012008820551592733
Epoch: 4200, Error: 0.011975567136857261
Epoch: 4300, Error: 0.011999644424103789
Epoch: 4400, Error: 0.012015121426432566
Epoch: 4500, Error: 0.01199293502635138
Epoch: 4600, Error: 0.011975029367066774
Epoch: 4700, Error: 0.012008547756056927
Epoch: 4800, Error: 0.011948234881081219
Epoch: 4900, Error: 0.011956231338473029
Epoch: 5000, Error: 0.01197571948236528
Epoch: 5100, Error: 0.011933612271756511
Epoch: 5200, Error: 0.012072425261149643
Epoch: 5300, Error: 0.011899001596100054
Epoch: 5400, Error: 0.011893043940494789
Epoch: 5500, Error: 0.011878827778747202
Epoch: 5600, Error: 0.011884340700305189
Epoch: 5700, Error: 0.0119188999320016
Epoch: 5800, Error: 0.011858382401642085
Epoch: 5900, Error: 0.01189991292022998
Epoch: 6000, Error: 0.011849920212872648
Epoch: 6100, Error: 0.011835466776426431
Epoch: 6200, Error: 0.011832649286055204
Epoch: 6300, Error: 0.011839973642100977
Epoch: 6400, Error: 0.01183240502645859
Epoch: 6500, Error: 0.01184295282640011
Epoch: 6600, Error: 0.011801291399346601
Epoch: 6700, Error: 0.011789846256741824
Epoch: 6800, Error: 0.011758034774066211
Epoch: 6900, Error: 0.011769589064634057
Epoch: 7000, Error: 0.011753897527535159
Epoch: 7100, Error: 0.011770457273147603
Epoch: 7200, Error: 0.011715048369575088
Epoch: 7300, Error: 0.011694842021846848
Epoch: 7400, Error: 0.011881419256718227
Epoch: 7500, Error: 0.011658877686334317
Epoch: 7600, Error: 0.011644605950827915
Epoch: 7700, Error: 0.011621383452887117
Epoch: 7800, Error: 0.011598113804927195
Epoch: 7900, Error: 0.011593339284206375
Epoch: 8000, Error: 0.011575714057653036
Epoch: 8100, Error: 0.011557500085623264
Epoch: 8200, Error: 0.011539569820654917
Epoch: 8300, Error: 0.011510006656449322
Epoch: 8400, Error: 0.011522467149122511
Epoch: 8500, Error: 0.011470303648298527
Epoch: 8600, Error: 0.011457032373846834
Epoch: 8700, Error: 0.011481281449184285
Epoch: 8800, Error: 0.011436567799245423
Epoch: 8900, Error: 0.011389523184966178
Epoch: 9000, Error: 0.011363177716132926
Epoch: 9100, Error: 0.011337726301739655
Epoch: 9200, Error: 0.011321946017934586
Epoch: 9300, Error: 0.011287950810999394
Epoch: 9400, Error: 0.01125339962297516
Epoch: 9500, Error: 0.011224558250422846
Epoch: 9600, Error: 0.011192798066359864
Epoch: 9700, Error: 0.011190745547263193
Epoch: 9800, Error: 0.011139930070051499
Epoch: 9900, Error: 0.01110054641103015
Epoch: 10000, Error: 0.011045485077648189
Epoch: 10100, Error: 0.011006263384760882
Epoch: 10200, Error: 0.010956117162188524
Epoch: 10300, Error: 0.010917947297797942
Epoch: 10400, Error: 0.010876427694831109
Epoch: 10500, Error: 0.010814886808208753
Epoch: 10600, Error: 0.010750773693053549
Epoch: 10700, Error: 0.010691196168903017
Epoch: 10800, Error: 0.010625008284764044
Epoch: 10900, Error: 0.010574197703589971
Epoch: 11000, Error: 0.01049825330565835
Epoch: 11100, Error: 0.010508404093880196
Epoch: 11200, Error: 0.010367059457957326
Epoch: 11300, Error: 0.010327408510630189
Epoch: 11400, Error: 0.010186602718385377
Epoch: 11500, Error: 0.010101361238752098
Epoch: 11600, Error: 0.01003221973174981
Epoch: 11700, Error: 0.009959038369011715
Epoch: 11800, Error: 0.009840397176492854
Epoch: 11900, Error: 0.009859575433801702
Epoch: 12000, Error: 0.009647851059296764
Epoch: 12100, Error: 0.00955561355404538
Epoch: 12200, Error: 0.009472101872674223
Epoch: 12300, Error: 0.009357220168848419
Epoch: 12400, Error: 0.009273867255116914
Epoch: 12500, Error: 0.009166827356735716
Epoch: 12600, Error: 0.009059475775479374
Epoch: 12700, Error: 0.00896626168746884
Epoch: 12800, Error: 0.008872683563935264
Epoch: 12900, Error: 0.008836070236847874
Epoch: 13000, Error: 0.008698054005203763
Epoch: 13100, Error: 0.008608136283948489
Epoch: 13200, Error: 0.00852449952305859
Epoch: 13300, Error: 0.008441333288007724
Epoch: 13400, Error: 0.00837504465188564
Epoch: 13500, Error: 0.008314053478000204
Epoch: 13600, Error: 0.00821033869725152
Epoch: 13700, Error: 0.008146811922993552
Epoch: 13800, Error: 0.008086576444381715
Epoch: 13900, Error: 0.00804151427228024
Epoch: 14000, Error: 0.007958435352401198
Epoch: 14100, Error: 0.007899554216322088
Epoch: 14200, Error: 0.007827578858852387
Epoch: 14300, Error: 0.007776429129498371
Epoch: 14400, Error: 0.007720858865134731
Epoch: 14500, Error: 0.007673764475775155
Epoch: 14600, Error: 0.00759160286985375
Epoch: 14700, Error: 0.00754273530011987
Epoch: 14800, Error: 0.00744934790179697
Epoch: 14900, Error: 0.007396215117788408
Epoch: 15000, Error: 0.007346319620207374
Epoch: 15100, Error: 0.007292602641806522
Epoch: 15200, Error: 0.007238942915176355
Epoch: 15300, Error: 0.007190744765360385
Epoch: 15400, Error: 0.007149778084362609
Epoch: 15500, Error: 0.007133319960578324
Epoch: 15600, Error: 0.007062376287483309
Epoch: 15700, Error: 0.00703807112243653
Epoch: 15800, Error: 0.007077197019169769
Epoch: 15900, Error: 0.0069857607246155435
Epoch: 16000, Error: 0.006925229544803632
Epoch: 16100, Error: 0.006903385354396809
Epoch: 16200, Error: 0.006882385418544153
Epoch: 16300, Error: 0.0068347872286948766
Epoch: 16400, Error: 0.0068084729244635225
Epoch: 16500, Error: 0.0067783389095416886
Epoch: 16600, Error: 0.0067466114918136606
Epoch: 16700, Error: 0.006735297963156524
Epoch: 16800, Error: 0.006711641604985769
Epoch: 16900, Error: 0.006684744327655995
Epoch: 17000, Error: 0.006638588923524888
Epoch: 17100, Error: 0.006638708737111998
Epoch: 17200, Error: 0.006596842961652776
Epoch: 17300, Error: 0.006576418705065493
Epoch: 17400, Error: 0.006614704161389756
Epoch: 17500, Error: 0.006513349741369724
Epoch: 17600, Error: 0.006489986727127693
Epoch: 17700, Error: 0.006455771014997779
Epoch: 17800, Error: 0.006434197359418249
Epoch: 17900, Error: 0.006417402306332836
Epoch: 18000, Error: 0.00637997192200935
Epoch: 18100, Error: 0.006367914396075458
Epoch: 18200, Error: 0.0063360112565180185
Epoch: 18300, Error: 0.006315920732548331
Epoch: 18400, Error: 0.006298208948532471
Epoch: 18500, Error: 0.006284990608780841
Epoch: 18600, Error: 0.0062610091883697015
Epoch: 18700, Error: 0.006241536462654727
Epoch: 18800, Error: 0.006227040253663295
Epoch: 18900, Error: 0.006222210691879158
Epoch: 19000, Error: 0.006207082234263839
Epoch: 19100, Error: 0.006173447752508908
Epoch: 19200, Error: 0.006157209277016682
Epoch: 19300, Error: 0.006184030742166891
Epoch: 19400, Error: 0.006149178077311303
Epoch: 19500, Error: 0.006129725223492333
Epoch: 19600, Error: 0.006117684048103031
Epoch: 19700, Error: 0.00610868826511441
Epoch: 19800, Error: 0.006106052400468112
Epoch: 19900, Error: 0.00607502810975176
Epoch: 20000, Error: 0.006085424503790439
Epoch: 20100, Error: 0.006087670154262818
Epoch: 20200, Error: 0.00604339778977749
Epoch: 20300, Error: 0.006038181857855287
Epoch: 20400, Error: 0.006015072779015888
Epoch: 20500, Error: 0.00601048632490575
Epoch: 20600, Error: 0.00599957557908885
Epoch: 20700, Error: 0.005986376273128559
Epoch: 20800, Error: 0.005981804718274125
Epoch: 20900, Error: 0.0059754503225606295
Epoch: 21000, Error: 0.005951245758747154
Epoch: 21100, Error: 0.005945171962190125
Epoch: 21200, Error: 0.005934506782648741
Epoch: 21300, Error: 0.005929870048920077
Epoch: 21400, Error: 0.005917530866602663
Epoch: 21500, Error: 0.005917742381486855
Epoch: 21600, Error: 0.005891410983678973
Epoch: 21700, Error: 0.005896369918806293
Epoch: 21800, Error: 0.005874258737873041
Finished
