Input Patterns
0.224 0.624 0.067 0.043 
0.11 0.502 0.051 0.043 
0.196 0.667 0.067 0.043 
0.055 0.584 0.067 0.082 
0.027 0.376 0.067 0.043 
0.306 0.71 0.086 0.043 
0.137 0.416 0.067 0.0 
0.416 0.831 0.035 0.043 
0.306 0.792 0.051 0.125 
0.388 0.749 0.118 0.082 
0.306 0.584 0.118 0.043 
0.082 0.667 0.0 0.043 
0.137 0.584 0.153 0.043 
0.196 0.584 0.102 0.125 
0.251 0.584 0.067 0.043 
0.137 0.459 0.102 0.043 
0.251 0.875 0.086 0.0 
0.165 0.459 0.086 0.043 
0.333 0.624 0.051 0.043 
0.027 0.416 0.051 0.043 
0.196 0.624 0.051 0.082 
0.027 0.502 0.051 0.043 
0.224 0.749 0.153 0.125 
0.224 0.749 0.102 0.043 
0.278 0.71 0.086 0.043 
0.165 0.416 0.067 0.043 
0.082 0.459 0.086 0.043 
0.306 0.792 0.118 0.125 
0.196 0.584 0.086 0.043 
0.165 0.459 0.086 0.0 
0.137 0.584 0.102 0.043 
0.0 0.416 0.016 0.0 
0.388 1.0 0.086 0.125 
0.224 0.624 0.067 0.082 
0.224 0.749 0.086 0.082 
0.224 0.71 0.086 0.125 
0.224 0.541 0.118 0.165 
0.196 0.416 0.102 0.043 
0.251 0.624 0.086 0.043 
0.11 0.502 0.102 0.043 
0.306 0.584 0.086 0.125 
0.333 0.918 0.067 0.043 
0.196 0.502 0.035 0.043 
0.165 0.667 0.067 0.0 
0.224 0.584 0.086 0.043 
0.055 0.125 0.051 0.082 
0.196 0.624 0.102 0.208 
0.137 0.416 0.067 0.082 
0.082 0.502 0.067 0.043 
0.196 0.541 0.067 0.043 
0.749 0.502 0.627 0.541 
0.722 0.459 0.663 0.584 
0.612 0.333 0.612 0.584 
0.557 0.541 0.627 0.624 
0.639 0.376 0.612 0.498 
0.196 0.0 0.424 0.376 
0.471 0.082 0.51 0.376 
0.361 0.376 0.439 0.498 
0.361 0.416 0.592 0.584 
0.529 0.082 0.592 0.584 
0.443 0.502 0.643 0.459 
0.557 0.208 0.663 0.584 
0.584 0.376 0.561 0.498 
0.694 0.333 0.643 0.541 
0.471 0.376 0.592 0.584 
0.333 0.169 0.475 0.416 
0.416 0.29 0.49 0.459 
0.306 0.416 0.592 0.584 
0.667 0.459 0.627 0.584 
0.361 0.416 0.525 0.498 
0.333 0.251 0.576 0.459 
0.416 0.251 0.51 0.459 
0.361 0.29 0.541 0.498 
0.388 0.376 0.541 0.498 
0.224 0.208 0.337 0.416 
0.584 0.502 0.592 0.584 
0.333 0.125 0.51 0.498 
0.388 0.333 0.592 0.498 
0.165 0.169 0.388 0.376 
0.251 0.29 0.49 0.541 
0.443 0.416 0.541 0.584 
0.498 0.376 0.627 0.541 
0.667 0.459 0.576 0.541 
0.416 0.29 0.525 0.376 
0.361 0.208 0.49 0.416 
0.498 0.333 0.51 0.498 
0.498 0.333 0.627 0.459 
0.639 0.416 0.576 0.541 
0.667 0.416 0.678 0.667 
0.388 0.251 0.424 0.376 
0.333 0.169 0.459 0.376 
0.471 0.29 0.694 0.624 
0.471 0.584 0.592 0.624 
0.557 0.125 0.576 0.498 
0.333 0.208 0.51 0.498 
0.498 0.416 0.612 0.541 
0.196 0.125 0.388 0.376 
0.388 0.416 0.541 0.459 
0.529 0.376 0.561 0.498 
0.388 0.333 0.525 0.498 
0.557 0.541 0.847 1.0 
0.776 0.416 0.831 0.831 
0.612 0.416 0.812 0.875 
0.165 0.208 0.592 0.667 
0.667 0.208 0.812 0.71 
0.612 0.502 0.694 0.792 
0.694 0.416 0.761 0.831 
0.416 0.333 0.694 0.957 
0.612 0.416 0.761 0.71 
0.945 0.251 1.0 0.918 
0.722 0.502 0.796 0.918 
0.945 0.333 0.965 0.792 
0.667 0.541 0.796 0.831 
0.529 0.333 0.643 0.71 
0.584 0.333 0.78 0.831 
0.863 0.333 0.863 0.749 
0.584 0.333 0.78 0.875 
0.498 0.251 0.78 0.541 
0.557 0.584 0.78 0.957 
0.471 0.416 0.643 0.71 
0.667 0.459 0.78 0.957 
0.416 0.29 0.694 0.749 
0.667 0.541 0.796 1.0 
0.557 0.208 0.678 0.749 
0.529 0.584 0.745 0.918 
0.416 0.29 0.694 0.749 
0.557 0.376 0.78 0.71 
0.918 0.416 0.949 0.831 
0.835 0.376 0.898 0.71 
0.804 0.667 0.863 1.0 
0.584 0.29 0.729 0.749 
0.388 0.208 0.678 0.792 
0.584 0.502 0.729 0.918 
0.945 0.749 0.965 0.875 
0.471 0.082 0.678 0.584 
0.361 0.333 0.663 0.792 
0.557 0.29 0.663 0.71 
0.804 0.502 0.847 0.71 
0.498 0.416 0.51 0.71 
0.804 0.416 0.812 0.624 
1.0 0.749 0.914 0.792 
0.557 0.333 0.694 0.584 
0.945 0.416 0.863 0.918 
0.584 0.459 0.761 0.71 
0.722 0.459 0.745 0.831 
0.722 0.459 0.694 0.918 
0.694 0.502 0.831 0.918 
0.667 0.416 0.714 0.918 
0.612 0.416 0.714 0.792 
0.443 0.416 0.694 0.71 
Teaching Patterns
1.0 0.0 0.0 
1.0 0.0 0.0 
1.0 0.0 0.0 
1.0 0.0 0.0 
1.0 0.0 0.0 
1.0 0.0 0.0 
1.0 0.0 0.0 
1.0 0.0 0.0 
1.0 0.0 0.0 
1.0 0.0 0.0 
1.0 0.0 0.0 
1.0 0.0 0.0 
1.0 0.0 0.0 
1.0 0.0 0.0 
1.0 0.0 0.0 
1.0 0.0 0.0 
1.0 0.0 0.0 
1.0 0.0 0.0 
1.0 0.0 0.0 
1.0 0.0 0.0 
1.0 0.0 0.0 
1.0 0.0 0.0 
1.0 0.0 0.0 
1.0 0.0 0.0 
1.0 0.0 0.0 
1.0 0.0 0.0 
1.0 0.0 0.0 
1.0 0.0 0.0 
1.0 0.0 0.0 
1.0 0.0 0.0 
1.0 0.0 0.0 
1.0 0.0 0.0 
1.0 0.0 0.0 
1.0 0.0 0.0 
1.0 0.0 0.0 
1.0 0.0 0.0 
1.0 0.0 0.0 
1.0 0.0 0.0 
1.0 0.0 0.0 
1.0 0.0 0.0 
1.0 0.0 0.0 
1.0 0.0 0.0 
1.0 0.0 0.0 
1.0 0.0 0.0 
1.0 0.0 0.0 
1.0 0.0 0.0 
1.0 0.0 0.0 
1.0 0.0 0.0 
1.0 0.0 0.0 
1.0 0.0 0.0 
0.0 1.0 0.0 
0.0 1.0 0.0 
0.0 1.0 0.0 
0.0 1.0 0.0 
0.0 1.0 0.0 
0.0 1.0 0.0 
0.0 1.0 0.0 
0.0 1.0 0.0 
0.0 1.0 0.0 
0.0 1.0 0.0 
0.0 1.0 0.0 
0.0 1.0 0.0 
0.0 1.0 0.0 
0.0 1.0 0.0 
0.0 1.0 0.0 
0.0 1.0 0.0 
0.0 1.0 0.0 
0.0 1.0 0.0 
0.0 1.0 0.0 
0.0 1.0 0.0 
0.0 1.0 0.0 
0.0 1.0 0.0 
0.0 1.0 0.0 
0.0 1.0 0.0 
0.0 1.0 0.0 
0.0 1.0 0.0 
0.0 1.0 0.0 
0.0 1.0 0.0 
0.0 1.0 0.0 
0.0 1.0 0.0 
0.0 1.0 0.0 
0.0 1.0 0.0 
0.0 1.0 0.0 
0.0 1.0 0.0 
0.0 1.0 0.0 
0.0 1.0 0.0 
0.0 1.0 0.0 
0.0 1.0 0.0 
0.0 1.0 0.0 
0.0 1.0 0.0 
0.0 1.0 0.0 
0.0 1.0 0.0 
0.0 1.0 0.0 
0.0 1.0 0.0 
0.0 1.0 0.0 
0.0 1.0 0.0 
0.0 1.0 0.0 
0.0 1.0 0.0 
0.0 1.0 0.0 
0.0 1.0 0.0 
0.0 0.0 1.0 
0.0 0.0 1.0 
0.0 0.0 1.0 
0.0 0.0 1.0 
0.0 0.0 1.0 
0.0 0.0 1.0 
0.0 0.0 1.0 
0.0 0.0 1.0 
0.0 0.0 1.0 
0.0 0.0 1.0 
0.0 0.0 1.0 
0.0 0.0 1.0 
0.0 0.0 1.0 
0.0 0.0 1.0 
0.0 0.0 1.0 
0.0 0.0 1.0 
0.0 0.0 1.0 
0.0 0.0 1.0 
0.0 0.0 1.0 
0.0 0.0 1.0 
0.0 0.0 1.0 
0.0 0.0 1.0 
0.0 0.0 1.0 
0.0 0.0 1.0 
0.0 0.0 1.0 
0.0 0.0 1.0 
0.0 0.0 1.0 
0.0 0.0 1.0 
0.0 0.0 1.0 
0.0 0.0 1.0 
0.0 0.0 1.0 
0.0 0.0 1.0 
0.0 0.0 1.0 
0.0 0.0 1.0 
0.0 0.0 1.0 
0.0 0.0 1.0 
0.0 0.0 1.0 
0.0 0.0 1.0 
0.0 0.0 1.0 
0.0 0.0 1.0 
0.0 0.0 1.0 
0.0 0.0 1.0 
0.0 0.0 1.0 
0.0 0.0 1.0 
0.0 0.0 1.0 
0.0 0.0 1.0 
0.0 0.0 1.0 
0.0 0.0 1.0 
0.0 0.0 1.0 
0.0 0.0 1.0 
Learning : 0.05
Momentum : 0.4000000059604645
Epoch: 100, Error: 0.067960514244137
Epoch: 200, Error: 0.02411220060227879
Epoch: 300, Error: 0.01783944670470776
Epoch: 400, Error: 0.015402891563256388
Epoch: 500, Error: 0.014398802562101487
Epoch: 600, Error: 0.013842124404983225
Epoch: 700, Error: 0.01323603215082409
Epoch: 800, Error: 0.012991494401241251
Epoch: 900, Error: 0.012735547325662558
Epoch: 1000, Error: 0.01253567275408375
Epoch: 1100, Error: 0.012369819366676178
Epoch: 1200, Error: 0.012267469602911304
Epoch: 1300, Error: 0.012141449973723045
Epoch: 1400, Error: 0.012103468669738085
Epoch: 1500, Error: 0.012034846228219992
Epoch: 1600, Error: 0.011987255459785143
Epoch: 1700, Error: 0.011927342585383117
Epoch: 1800, Error: 0.011888809629157835
Epoch: 1900, Error: 0.01185605579738597
Epoch: 2000, Error: 0.011825615276951758
Epoch: 2100, Error: 0.011875200268564284
Epoch: 2200, Error: 0.011806859568493146
Epoch: 2300, Error: 0.011989625378792437
Epoch: 2400, Error: 0.011770366313492946
Epoch: 2500, Error: 0.011765011460021303
Epoch: 2600, Error: 0.011814491225116842
Epoch: 2700, Error: 0.011999184188210844
Epoch: 2800, Error: 0.011757624901090566
Epoch: 2900, Error: 0.011779197271251601
Epoch: 3000, Error: 0.011799955923286223
Epoch: 3100, Error: 0.011764679384308665
Epoch: 3200, Error: 0.011774550328984095
Epoch: 3300, Error: 0.011917331585576783
Epoch: 3400, Error: 0.01177660650907683
Epoch: 3500, Error: 0.011870232265362102
Epoch: 3600, Error: 0.011779961820940129
Epoch: 3700, Error: 0.011864409915972417
Epoch: 3800, Error: 0.011807359692188657
Epoch: 3900, Error: 0.011837830783168104
Epoch: 4000, Error: 0.011826558835886616
Epoch: 4100, Error: 0.011835889374886251
Epoch: 4200, Error: 0.011869084075499522
Epoch: 4300, Error: 0.01188815290087406
Epoch: 4400, Error: 0.01189160310550185
Epoch: 4500, Error: 0.011925240601869433
Epoch: 4600, Error: 0.011895478225686299
Epoch: 4700, Error: 0.01189056512150286
Epoch: 4800, Error: 0.011894047450718972
Epoch: 4900, Error: 0.011893579289158306
Epoch: 5000, Error: 0.011893598960266257
Epoch: 5100, Error: 0.011878852567334947
Epoch: 5200, Error: 0.011885323331942423
Epoch: 5300, Error: 0.011867692273912323
Epoch: 5400, Error: 0.011869020535738663
Epoch: 5500, Error: 0.012001123440189831
Epoch: 5600, Error: 0.011930284710600895
Epoch: 5700, Error: 0.011853958250662521
Epoch: 5800, Error: 0.01181909409523498
Epoch: 5900, Error: 0.011864944286729105
Epoch: 6000, Error: 0.011841757637350889
Epoch: 6100, Error: 0.011875723163453863
Epoch: 6200, Error: 0.011859092987456733
Epoch: 6300, Error: 0.01189823285361156
Epoch: 6400, Error: 0.011836129399719975
Epoch: 6500, Error: 0.011798562234320152
Epoch: 6600, Error: 0.011787203299808964
Epoch: 6700, Error: 0.011791048315201178
Epoch: 6800, Error: 0.011805420397553942
Epoch: 6900, Error: 0.011809797262929366
Epoch: 7000, Error: 0.011768874582617581
Epoch: 7100, Error: 0.011768248592491619
Epoch: 7200, Error: 0.011784648640821049
Epoch: 7300, Error: 0.011776900331175805
Epoch: 7400, Error: 0.011741895988706647
Epoch: 7500, Error: 0.011728791212547475
Epoch: 7600, Error: 0.011724534109885236
Epoch: 7700, Error: 0.011709025961909918
Epoch: 7800, Error: 0.01171308516205602
Epoch: 7900, Error: 0.01174112982474161
Epoch: 8000, Error: 0.011692525165883821
Epoch: 8100, Error: 0.011697220306093242
Epoch: 8200, Error: 0.011664645115446326
Epoch: 8300, Error: 0.011650930039224811
Epoch: 8400, Error: 0.011642402724133076
Epoch: 8500, Error: 0.011638097624712294
Epoch: 8600, Error: 0.011625758036959918
Epoch: 8700, Error: 0.011596662738076672
Epoch: 8800, Error: 0.011590475757085541
Epoch: 8900, Error: 0.011563053132148457
Epoch: 9000, Error: 0.011599199954631071
Epoch: 9100, Error: 0.011561693926055501
Epoch: 9200, Error: 0.011546963989519144
Epoch: 9300, Error: 0.011510972784874725
Epoch: 9400, Error: 0.01148502025927185
Epoch: 9500, Error: 0.011465645024956771
Epoch: 9600, Error: 0.01149084070866122
Epoch: 9700, Error: 0.011437633346535801
Epoch: 9800, Error: 0.011465972225890044
Epoch: 9900, Error: 0.011386919516492705
Epoch: 10000, Error: 0.011379098964782524
Epoch: 10100, Error: 0.011356085550305164
Epoch: 10200, Error: 0.011309417321875102
Epoch: 10300, Error: 0.011292981487887616
Epoch: 10400, Error: 0.011238710793552213
Epoch: 10500, Error: 0.011243807505788891
Epoch: 10600, Error: 0.01116820523229384
Epoch: 10700, Error: 0.011152341715479212
Epoch: 10800, Error: 0.011113135271010809
Epoch: 10900, Error: 0.011044845319968024
Epoch: 11000, Error: 0.011005341730517948
Epoch: 11100, Error: 0.01093539381026694
Epoch: 11200, Error: 0.011000066158740966
Epoch: 11300, Error: 0.010834037128828253
Epoch: 11400, Error: 0.010771265358156106
Epoch: 11500, Error: 0.01075375222639893
Epoch: 11600, Error: 0.010644090881580054
Epoch: 11700, Error: 0.010556606603005378
Epoch: 11800, Error: 0.010487248503792667
Epoch: 11900, Error: 0.010449217940655555
Epoch: 12000, Error: 0.010309072549455869
Epoch: 12100, Error: 0.010241384173479551
Epoch: 12200, Error: 0.010286487317506244
Epoch: 12300, Error: 0.010114386469622061
Epoch: 12400, Error: 0.009978024790397395
Epoch: 12500, Error: 0.009873403896054319
Epoch: 12600, Error: 0.009767560892207837
Epoch: 12700, Error: 0.009656906908769077
Epoch: 12800, Error: 0.009564555085423719
Epoch: 12900, Error: 0.009569668934850842
Epoch: 13000, Error: 0.009372178127919658
Epoch: 13100, Error: 0.009276545736657699
Epoch: 13200, Error: 0.00917899814759176
Epoch: 13300, Error: 0.009079581779436586
Epoch: 13400, Error: 0.00896043118685826
Epoch: 13500, Error: 0.008865162094620248
Epoch: 13600, Error: 0.00878621342866079
Epoch: 13700, Error: 0.00873497323539554
Epoch: 13800, Error: 0.008552200658943503
Epoch: 13900, Error: 0.008486466116668477
Epoch: 14000, Error: 0.00840888481418825
Epoch: 14100, Error: 0.008271964779607103
Epoch: 14200, Error: 0.00818189954793685
Epoch: 14300, Error: 0.008085563266629478
Epoch: 14400, Error: 0.00801461103044213
Epoch: 14500, Error: 0.007933894591258244
Epoch: 14600, Error: 0.007857348240643883
Epoch: 14700, Error: 0.0077638197345360335
Epoch: 14800, Error: 0.007684705739271988
Epoch: 14900, Error: 0.0076106886243520275
Epoch: 15000, Error: 0.007540214645130171
Epoch: 15100, Error: 0.00747141494866504
Epoch: 15200, Error: 0.0074111391680893686
Epoch: 15300, Error: 0.007392280452264631
Epoch: 15400, Error: 0.007315531969835792
Epoch: 15500, Error: 0.0072586946139732945
Epoch: 15600, Error: 0.00721497159973526
Epoch: 15700, Error: 0.007137961451399327
Epoch: 15800, Error: 0.007084104860676552
Epoch: 15900, Error: 0.007109872828368328
Epoch: 16000, Error: 0.006969187868626596
Epoch: 16100, Error: 0.006929013387691528
Epoch: 16200, Error: 0.006876638212440178
Epoch: 16300, Error: 0.006892930095651256
Epoch: 16400, Error: 0.006803250733197705
Epoch: 16500, Error: 0.006729709596578964
Epoch: 16600, Error: 0.0067073576460737845
Epoch: 16700, Error: 0.006637886676596301
Epoch: 16800, Error: 0.006619903258290898
Epoch: 16900, Error: 0.006592327763734318
Epoch: 17000, Error: 0.006523123295655202
Epoch: 17100, Error: 0.006489954729536948
Epoch: 17200, Error: 0.006459306951010299
Epoch: 17300, Error: 0.006455712342709573
Epoch: 17400, Error: 0.006400740057307488
Epoch: 17500, Error: 0.006357900842373913
Epoch: 17600, Error: 0.006334723231326432
Epoch: 17700, Error: 0.006316586857105189
Epoch: 17800, Error: 0.006287068688642105
Epoch: 17900, Error: 0.00627301832063911
Epoch: 18000, Error: 0.0062756801665289005
Epoch: 18100, Error: 0.006234271337947428
Epoch: 18200, Error: 0.006254050390893238
Epoch: 18300, Error: 0.006202638636437014
Epoch: 18400, Error: 0.006183273691300039
Epoch: 18500, Error: 0.006166389982521602
Epoch: 18600, Error: 0.006146554643224367
Epoch: 18700, Error: 0.006130524031591824
Epoch: 18800, Error: 0.006137524598178281
Epoch: 18900, Error: 0.006100144265444802
Epoch: 19000, Error: 0.006079217955501082
Epoch: 19100, Error: 0.006056653027515238
Epoch: 19200, Error: 0.006076902286255017
Epoch: 19300, Error: 0.006042958848328206
Epoch: 19400, Error: 0.006029013767847569
Epoch: 19500, Error: 0.005999244435365875
Epoch: 19600, Error: 0.005975843199236018
Epoch: 19700, Error: 0.005980009907985291
Epoch: 19800, Error: 0.005957261410208725
Epoch: 19900, Error: 0.005949004744704506
Epoch: 20000, Error: 0.005918597752668072
Epoch: 20100, Error: 0.005907619346117511
Epoch: 20200, Error: 0.005901414073108913
Epoch: 20300, Error: 0.005894503023850833
Epoch: 20400, Error: 0.0058889852766615585
Epoch: 20500, Error: 0.005892193852655439
Epoch: 20600, Error: 0.005868225944192173
Epoch: 20700, Error: 0.005847170019728545
Epoch: 20800, Error: 0.00584638523221439
Epoch: 20900, Error: 0.0058260578987031604
Epoch: 21000, Error: 0.005815394089278092
Epoch: 21100, Error: 0.005818601892634695
Finished
