Input Patterns
0.224 0.624 0.067 0.043 
0.11 0.502 0.051 0.043 
0.196 0.667 0.067 0.043 
0.055 0.584 0.067 0.082 
0.027 0.376 0.067 0.043 
0.306 0.71 0.086 0.043 
0.137 0.416 0.067 0.0 
0.416 0.831 0.035 0.043 
0.306 0.792 0.051 0.125 
0.388 0.749 0.118 0.082 
0.306 0.584 0.118 0.043 
0.082 0.667 0.0 0.043 
0.137 0.584 0.153 0.043 
0.196 0.584 0.102 0.125 
0.251 0.584 0.067 0.043 
0.137 0.459 0.102 0.043 
0.251 0.875 0.086 0.0 
0.165 0.459 0.086 0.043 
0.333 0.624 0.051 0.043 
0.027 0.416 0.051 0.043 
0.196 0.624 0.051 0.082 
0.027 0.502 0.051 0.043 
0.224 0.749 0.153 0.125 
0.224 0.749 0.102 0.043 
0.278 0.71 0.086 0.043 
0.165 0.416 0.067 0.043 
0.082 0.459 0.086 0.043 
0.306 0.792 0.118 0.125 
0.196 0.584 0.086 0.043 
0.165 0.459 0.086 0.0 
0.137 0.584 0.102 0.043 
0.0 0.416 0.016 0.0 
0.388 1.0 0.086 0.125 
0.224 0.624 0.067 0.082 
0.224 0.749 0.086 0.082 
0.224 0.71 0.086 0.125 
0.224 0.541 0.118 0.165 
0.196 0.416 0.102 0.043 
0.251 0.624 0.086 0.043 
0.11 0.502 0.102 0.043 
0.306 0.584 0.086 0.125 
0.333 0.918 0.067 0.043 
0.196 0.502 0.035 0.043 
0.165 0.667 0.067 0.0 
0.224 0.584 0.086 0.043 
0.055 0.125 0.051 0.082 
0.196 0.624 0.102 0.208 
0.137 0.416 0.067 0.082 
0.082 0.502 0.067 0.043 
0.196 0.541 0.067 0.043 
0.749 0.502 0.627 0.541 
0.722 0.459 0.663 0.584 
0.612 0.333 0.612 0.584 
0.557 0.541 0.627 0.624 
0.639 0.376 0.612 0.498 
0.196 0.0 0.424 0.376 
0.471 0.082 0.51 0.376 
0.361 0.376 0.439 0.498 
0.361 0.416 0.592 0.584 
0.529 0.082 0.592 0.584 
0.443 0.502 0.643 0.459 
0.557 0.208 0.663 0.584 
0.584 0.376 0.561 0.498 
0.694 0.333 0.643 0.541 
0.471 0.376 0.592 0.584 
0.333 0.169 0.475 0.416 
0.416 0.29 0.49 0.459 
0.306 0.416 0.592 0.584 
0.667 0.459 0.627 0.584 
0.361 0.416 0.525 0.498 
0.333 0.251 0.576 0.459 
0.416 0.251 0.51 0.459 
0.361 0.29 0.541 0.498 
0.388 0.376 0.541 0.498 
0.224 0.208 0.337 0.416 
0.584 0.502 0.592 0.584 
0.333 0.125 0.51 0.498 
0.388 0.333 0.592 0.498 
0.165 0.169 0.388 0.376 
0.251 0.29 0.49 0.541 
0.443 0.416 0.541 0.584 
0.498 0.376 0.627 0.541 
0.667 0.459 0.576 0.541 
0.416 0.29 0.525 0.376 
0.361 0.208 0.49 0.416 
0.498 0.333 0.51 0.498 
0.498 0.333 0.627 0.459 
0.639 0.416 0.576 0.541 
0.667 0.416 0.678 0.667 
0.388 0.251 0.424 0.376 
0.333 0.169 0.459 0.376 
0.471 0.29 0.694 0.624 
0.471 0.584 0.592 0.624 
0.557 0.125 0.576 0.498 
0.333 0.208 0.51 0.498 
0.498 0.416 0.612 0.541 
0.196 0.125 0.388 0.376 
0.388 0.416 0.541 0.459 
0.529 0.376 0.561 0.498 
0.388 0.333 0.525 0.498 
0.557 0.541 0.847 1.0 
0.776 0.416 0.831 0.831 
0.612 0.416 0.812 0.875 
0.165 0.208 0.592 0.667 
0.667 0.208 0.812 0.71 
0.612 0.502 0.694 0.792 
0.694 0.416 0.761 0.831 
0.416 0.333 0.694 0.957 
0.612 0.416 0.761 0.71 
0.945 0.251 1.0 0.918 
0.722 0.502 0.796 0.918 
0.945 0.333 0.965 0.792 
0.667 0.541 0.796 0.831 
0.529 0.333 0.643 0.71 
0.584 0.333 0.78 0.831 
0.863 0.333 0.863 0.749 
0.584 0.333 0.78 0.875 
0.498 0.251 0.78 0.541 
0.557 0.584 0.78 0.957 
0.471 0.416 0.643 0.71 
0.667 0.459 0.78 0.957 
0.416 0.29 0.694 0.749 
0.667 0.541 0.796 1.0 
0.557 0.208 0.678 0.749 
0.529 0.584 0.745 0.918 
0.416 0.29 0.694 0.749 
0.557 0.376 0.78 0.71 
0.918 0.416 0.949 0.831 
0.835 0.376 0.898 0.71 
0.804 0.667 0.863 1.0 
0.584 0.29 0.729 0.749 
0.388 0.208 0.678 0.792 
0.584 0.502 0.729 0.918 
0.945 0.749 0.965 0.875 
0.471 0.082 0.678 0.584 
0.361 0.333 0.663 0.792 
0.557 0.29 0.663 0.71 
0.804 0.502 0.847 0.71 
0.498 0.416 0.51 0.71 
0.804 0.416 0.812 0.624 
1.0 0.749 0.914 0.792 
0.557 0.333 0.694 0.584 
0.945 0.416 0.863 0.918 
0.584 0.459 0.761 0.71 
0.722 0.459 0.745 0.831 
0.722 0.459 0.694 0.918 
0.694 0.502 0.831 0.918 
0.667 0.416 0.714 0.918 
0.612 0.416 0.714 0.792 
0.443 0.416 0.694 0.71 
Teaching Patterns
1.0 0.0 0.0 
1.0 0.0 0.0 
1.0 0.0 0.0 
1.0 0.0 0.0 
1.0 0.0 0.0 
1.0 0.0 0.0 
1.0 0.0 0.0 
1.0 0.0 0.0 
1.0 0.0 0.0 
1.0 0.0 0.0 
1.0 0.0 0.0 
1.0 0.0 0.0 
1.0 0.0 0.0 
1.0 0.0 0.0 
1.0 0.0 0.0 
1.0 0.0 0.0 
1.0 0.0 0.0 
1.0 0.0 0.0 
1.0 0.0 0.0 
1.0 0.0 0.0 
1.0 0.0 0.0 
1.0 0.0 0.0 
1.0 0.0 0.0 
1.0 0.0 0.0 
1.0 0.0 0.0 
1.0 0.0 0.0 
1.0 0.0 0.0 
1.0 0.0 0.0 
1.0 0.0 0.0 
1.0 0.0 0.0 
1.0 0.0 0.0 
1.0 0.0 0.0 
1.0 0.0 0.0 
1.0 0.0 0.0 
1.0 0.0 0.0 
1.0 0.0 0.0 
1.0 0.0 0.0 
1.0 0.0 0.0 
1.0 0.0 0.0 
1.0 0.0 0.0 
1.0 0.0 0.0 
1.0 0.0 0.0 
1.0 0.0 0.0 
1.0 0.0 0.0 
1.0 0.0 0.0 
1.0 0.0 0.0 
1.0 0.0 0.0 
1.0 0.0 0.0 
1.0 0.0 0.0 
1.0 0.0 0.0 
0.0 1.0 0.0 
0.0 1.0 0.0 
0.0 1.0 0.0 
0.0 1.0 0.0 
0.0 1.0 0.0 
0.0 1.0 0.0 
0.0 1.0 0.0 
0.0 1.0 0.0 
0.0 1.0 0.0 
0.0 1.0 0.0 
0.0 1.0 0.0 
0.0 1.0 0.0 
0.0 1.0 0.0 
0.0 1.0 0.0 
0.0 1.0 0.0 
0.0 1.0 0.0 
0.0 1.0 0.0 
0.0 1.0 0.0 
0.0 1.0 0.0 
0.0 1.0 0.0 
0.0 1.0 0.0 
0.0 1.0 0.0 
0.0 1.0 0.0 
0.0 1.0 0.0 
0.0 1.0 0.0 
0.0 1.0 0.0 
0.0 1.0 0.0 
0.0 1.0 0.0 
0.0 1.0 0.0 
0.0 1.0 0.0 
0.0 1.0 0.0 
0.0 1.0 0.0 
0.0 1.0 0.0 
0.0 1.0 0.0 
0.0 1.0 0.0 
0.0 1.0 0.0 
0.0 1.0 0.0 
0.0 1.0 0.0 
0.0 1.0 0.0 
0.0 1.0 0.0 
0.0 1.0 0.0 
0.0 1.0 0.0 
0.0 1.0 0.0 
0.0 1.0 0.0 
0.0 1.0 0.0 
0.0 1.0 0.0 
0.0 1.0 0.0 
0.0 1.0 0.0 
0.0 1.0 0.0 
0.0 1.0 0.0 
0.0 0.0 1.0 
0.0 0.0 1.0 
0.0 0.0 1.0 
0.0 0.0 1.0 
0.0 0.0 1.0 
0.0 0.0 1.0 
0.0 0.0 1.0 
0.0 0.0 1.0 
0.0 0.0 1.0 
0.0 0.0 1.0 
0.0 0.0 1.0 
0.0 0.0 1.0 
0.0 0.0 1.0 
0.0 0.0 1.0 
0.0 0.0 1.0 
0.0 0.0 1.0 
0.0 0.0 1.0 
0.0 0.0 1.0 
0.0 0.0 1.0 
0.0 0.0 1.0 
0.0 0.0 1.0 
0.0 0.0 1.0 
0.0 0.0 1.0 
0.0 0.0 1.0 
0.0 0.0 1.0 
0.0 0.0 1.0 
0.0 0.0 1.0 
0.0 0.0 1.0 
0.0 0.0 1.0 
0.0 0.0 1.0 
0.0 0.0 1.0 
0.0 0.0 1.0 
0.0 0.0 1.0 
0.0 0.0 1.0 
0.0 0.0 1.0 
0.0 0.0 1.0 
0.0 0.0 1.0 
0.0 0.0 1.0 
0.0 0.0 1.0 
0.0 0.0 1.0 
0.0 0.0 1.0 
0.0 0.0 1.0 
0.0 0.0 1.0 
0.0 0.0 1.0 
0.0 0.0 1.0 
0.0 0.0 1.0 
0.0 0.0 1.0 
0.0 0.0 1.0 
0.0 0.0 1.0 
0.0 0.0 1.0 
Learning : 0.05
Momentum : 0.4000000059604645
Epoch: 100, Error: 0.08573279869304759
Epoch: 200, Error: 0.025507207070565727
Epoch: 300, Error: 0.017832041241248167
Epoch: 400, Error: 0.01581777391773204
Epoch: 500, Error: 0.014648819403546811
Epoch: 600, Error: 0.013836053702560231
Epoch: 700, Error: 0.013548223430315448
Epoch: 800, Error: 0.013020813679790253
Epoch: 900, Error: 0.012801535761635625
Epoch: 1000, Error: 0.012630710650323203
Epoch: 1100, Error: 0.012501210215808944
Epoch: 1200, Error: 0.012391949168472164
Epoch: 1300, Error: 0.012266948082161081
Epoch: 1400, Error: 0.012209251900848438
Epoch: 1500, Error: 0.012199841060378509
Epoch: 1600, Error: 0.012162194989094818
Epoch: 1700, Error: 0.012057985358726986
Epoch: 1800, Error: 0.012043689443459127
Epoch: 1900, Error: 0.012020738915303994
Epoch: 2000, Error: 0.012146650625889469
Epoch: 2100, Error: 0.012062946530633457
Epoch: 2200, Error: 0.0120805129673158
Epoch: 2300, Error: 0.012042792140661208
Epoch: 2400, Error: 0.012060189835968078
Epoch: 2500, Error: 0.012160081576522552
Epoch: 2600, Error: 0.01204184171271244
Epoch: 2700, Error: 0.012099200021558648
Epoch: 2800, Error: 0.012036509786152848
Epoch: 2900, Error: 0.01208611435456334
Epoch: 3000, Error: 0.012034143964883932
Epoch: 3100, Error: 0.012024278727186638
Epoch: 3200, Error: 0.01206254487723607
Epoch: 3300, Error: 0.012039841480863478
Epoch: 3400, Error: 0.012035031698013354
Epoch: 3500, Error: 0.01201440768635255
Epoch: 3600, Error: 0.012080403977070723
Epoch: 3700, Error: 0.012018572545742885
Epoch: 3800, Error: 0.01202442422755174
Epoch: 3900, Error: 0.01198855786477072
Epoch: 4000, Error: 0.011958700864843779
Epoch: 4100, Error: 0.011971430209402535
Epoch: 4200, Error: 0.011938317103510801
Epoch: 4300, Error: 0.011922753842656838
Epoch: 4400, Error: 0.01190315629521525
Epoch: 4500, Error: 0.011898754687390408
Epoch: 4600, Error: 0.011886955251289705
Epoch: 4700, Error: 0.011877180783377916
Epoch: 4800, Error: 0.011878095265086448
Epoch: 4900, Error: 0.011868570464695763
Epoch: 5000, Error: 0.011854566004523379
Epoch: 5100, Error: 0.011946045709370013
Epoch: 5200, Error: 0.011824863447437595
Epoch: 5300, Error: 0.011806716965209216
Epoch: 5400, Error: 0.011793944591147512
Epoch: 5500, Error: 0.01182107260963856
Epoch: 5600, Error: 0.011780072962297047
Epoch: 5700, Error: 0.01177511378699516
Epoch: 5800, Error: 0.012070774055946878
Epoch: 5900, Error: 0.011853521008613793
Epoch: 6000, Error: 0.01177824671700672
Epoch: 6100, Error: 0.011714425015537634
Epoch: 6200, Error: 0.011705622147915417
Epoch: 6300, Error: 0.011692204755115936
Epoch: 6400, Error: 0.011734875147678339
Epoch: 6500, Error: 0.011671826220862469
Epoch: 6600, Error: 0.011647907497617878
Epoch: 6700, Error: 0.011653923669815566
Epoch: 6800, Error: 0.011605002826862524
Epoch: 6900, Error: 0.011595102434974993
Epoch: 7000, Error: 0.011587184265925188
Epoch: 7100, Error: 0.011554696559491316
Epoch: 7200, Error: 0.011533275194406795
Epoch: 7300, Error: 0.011513216831184966
Epoch: 7400, Error: 0.011505504716324718
Epoch: 7500, Error: 0.01156262178444727
Epoch: 7600, Error: 0.01151555593536727
Epoch: 7700, Error: 0.011428497562080059
Epoch: 7800, Error: 0.011499550588677748
Epoch: 7900, Error: 0.01141598654859484
Epoch: 8000, Error: 0.011405741684193869
Epoch: 8100, Error: 0.011370982486681183
Epoch: 8200, Error: 0.011263813257257461
Epoch: 8300, Error: 0.01126118177389605
Epoch: 8400, Error: 0.01118939092851699
Epoch: 8500, Error: 0.011112634238397678
Epoch: 8600, Error: 0.01112297958079036
Epoch: 8700, Error: 0.011025667920548604
Epoch: 8800, Error: 0.010949485814624649
Epoch: 8900, Error: 0.010928634471835218
Epoch: 9000, Error: 0.010803415105265586
Epoch: 9100, Error: 0.010721382687222019
Epoch: 9200, Error: 0.010604879228598367
Epoch: 9300, Error: 0.010494976200206407
Epoch: 9400, Error: 0.010452835983721149
Epoch: 9500, Error: 0.010303254315387988
Epoch: 9600, Error: 0.010159664109453426
Epoch: 9700, Error: 0.010101876069999599
Epoch: 9800, Error: 0.009856314212587945
Epoch: 9900, Error: 0.009731850357758821
Epoch: 10000, Error: 0.009579090878359807
Epoch: 10100, Error: 0.009533819812231803
Epoch: 10200, Error: 0.009323704420272545
Epoch: 10300, Error: 0.009125238222907233
Epoch: 10400, Error: 0.009013781477309305
Epoch: 10500, Error: 0.008833006858868044
Epoch: 10600, Error: 0.008698035520260657
Epoch: 10700, Error: 0.008556104457170012
Epoch: 10800, Error: 0.008415593397991267
Epoch: 10900, Error: 0.008272129235730294
Epoch: 11000, Error: 0.008167030194266624
Epoch: 11100, Error: 0.008024506900608597
Epoch: 11200, Error: 0.007916168635582164
Epoch: 11300, Error: 0.007837560764544832
Epoch: 11400, Error: 0.007702889463995569
Epoch: 11500, Error: 0.007604668845626653
Epoch: 11600, Error: 0.007574298081444663
Epoch: 11700, Error: 0.007406318401761876
Epoch: 11800, Error: 0.007322556417551088
Epoch: 11900, Error: 0.007234791404835024
Epoch: 12000, Error: 0.007192923304147316
Epoch: 12100, Error: 0.007083159408802265
Epoch: 12200, Error: 0.007022911287150704
Epoch: 12300, Error: 0.006983438379588098
Epoch: 12400, Error: 0.006912891498367305
Epoch: 12500, Error: 0.006860582887396421
Epoch: 12600, Error: 0.006809186160791641
Epoch: 12700, Error: 0.006758683636518891
Epoch: 12800, Error: 0.006722603702312845
Epoch: 12900, Error: 0.00666341187442256
Epoch: 13000, Error: 0.006617497503892243
Epoch: 13100, Error: 0.0065877991336081325
Epoch: 13200, Error: 0.0065413838102505485
Epoch: 13300, Error: 0.006525915901829582
Epoch: 13400, Error: 0.006480691439595171
Epoch: 13500, Error: 0.00644914521322456
Epoch: 13600, Error: 0.006422738265656555
Epoch: 13700, Error: 0.006398204210776244
Epoch: 13800, Error: 0.0063774541669276
Epoch: 13900, Error: 0.006371659557389969
Epoch: 14000, Error: 0.006353936128178683
Epoch: 14100, Error: 0.006330977205332764
Epoch: 14200, Error: 0.006311632543374997
Epoch: 14300, Error: 0.006298606602549901
Epoch: 14400, Error: 0.006277545621397492
Epoch: 14500, Error: 0.006251360818499939
Epoch: 14600, Error: 0.00623542568431094
Epoch: 14700, Error: 0.006225120188673884
Epoch: 14800, Error: 0.00620801220746983
Epoch: 14900, Error: 0.0061903582823446286
Epoch: 15000, Error: 0.006187272403295306
Epoch: 15100, Error: 0.006154408060701475
Epoch: 15200, Error: 0.00615954510867779
Epoch: 15300, Error: 0.006133490127279576
Epoch: 15400, Error: 0.0061068971290940705
Epoch: 15500, Error: 0.0061097527567133955
Epoch: 15600, Error: 0.006106605762451707
Epoch: 15700, Error: 0.006082018160877414
Epoch: 15800, Error: 0.00607667017658979
Epoch: 15900, Error: 0.006066033334768915
Epoch: 16000, Error: 0.006054666912215816
Epoch: 16100, Error: 0.006050289474586644
Epoch: 16200, Error: 0.006021403691136099
Epoch: 16300, Error: 0.006013156122463814
Epoch: 16400, Error: 0.006003342478426734
Epoch: 16500, Error: 0.0059846976990762845
Epoch: 16600, Error: 0.005971495072988118
Epoch: 16700, Error: 0.005954315943210083
Epoch: 16800, Error: 0.0059387889062539395
Epoch: 16900, Error: 0.005913991222087477
Epoch: 17000, Error: 0.0059286998873180246
Epoch: 17100, Error: 0.005871277708569413
Epoch: 17200, Error: 0.005856771044553849
Epoch: 17300, Error: 0.00584006965881452
Epoch: 17400, Error: 0.005827650407042155
Epoch: 17500, Error: 0.005792742089865683
Epoch: 17600, Error: 0.005777514202354902
Epoch: 17700, Error: 0.0057349699645691385
Epoch: 17800, Error: 0.0057250502657634214
Epoch: 17900, Error: 0.005692537801838812
Epoch: 18000, Error: 0.005660355564938581
Epoch: 18100, Error: 0.005640026745969417
Epoch: 18200, Error: 0.005648457497219155
Epoch: 18300, Error: 0.005573231324185855
Epoch: 18400, Error: 0.00555923905495362
Epoch: 18500, Error: 0.005537372225445933
Epoch: 18600, Error: 0.005502702251050141
Epoch: 18700, Error: 0.005487826981893535
Epoch: 18800, Error: 0.00548790444924845
Epoch: 18900, Error: 0.005444199466105463
Epoch: 19000, Error: 0.005424160148785871
Epoch: 19100, Error: 0.005403856474194666
Epoch: 19200, Error: 0.005432915722754539
Epoch: 19300, Error: 0.005380704466256339
Epoch: 19400, Error: 0.005353815002905063
Epoch: 19500, Error: 0.005345635219303915
Epoch: 19600, Error: 0.005331461796603255
Epoch: 19700, Error: 0.005312977934548938
Epoch: 19800, Error: 0.005337360680425777
Epoch: 19900, Error: 0.0052808936073044325
Epoch: 20000, Error: 0.00525379921333943
Epoch: 20100, Error: 0.005267265343990589
Epoch: 20200, Error: 0.005229738896907159
Epoch: 20300, Error: 0.005197011359945833
Epoch: 20400, Error: 0.00519065324537547
Epoch: 20500, Error: 0.005156543426140901
Epoch: 20600, Error: 0.0051369275825953525
Epoch: 20700, Error: 0.0051203986739394025
Epoch: 20800, Error: 0.005126869985424054
Epoch: 20900, Error: 0.0050732177229752765
Epoch: 21000, Error: 0.005056092406771331
Epoch: 21100, Error: 0.005080055730076582
Epoch: 21200, Error: 0.005019524137481121
Epoch: 21300, Error: 0.005001919027629085
Epoch: 21400, Error: 0.004980346140099162
Epoch: 21500, Error: 0.00499373248325469
Epoch: 21600, Error: 0.004938803219735787
Epoch: 21700, Error: 0.0049220285337048565
Epoch: 21800, Error: 0.004907438244667653
Epoch: 21900, Error: 0.00488795746000907
Epoch: 22000, Error: 0.004863930793331515
Epoch: 22100, Error: 0.0048589942358699695
Epoch: 22200, Error: 0.004833227702697974
Epoch: 22300, Error: 0.004820985791940258
Epoch: 22400, Error: 0.004815197329054321
Epoch: 22500, Error: 0.004792180621638365
Epoch: 22600, Error: 0.0047824824135540974
Epoch: 22700, Error: 0.004756146649171488
Epoch: 22800, Error: 0.004734672755848723
Epoch: 22900, Error: 0.004754620812100842
Epoch: 23000, Error: 0.004718337099110157
Epoch: 23100, Error: 0.004700361504877371
Epoch: 23200, Error: 0.004683807423742088
Epoch: 23300, Error: 0.004656130246929091
Epoch: 23400, Error: 0.004641059411377482
Epoch: 23500, Error: 0.004622673515892808
Epoch: 23600, Error: 0.004598550351546418
Epoch: 23700, Error: 0.004568674098332768
Epoch: 23800, Error: 0.004547122228353111
Epoch: 23900, Error: 0.004549437897544371
Epoch: 24000, Error: 0.004530871654143291
Epoch: 24100, Error: 0.00448704720405504
Epoch: 24200, Error: 0.004459219329569788
Epoch: 24300, Error: 0.004427205897563743
Epoch: 24400, Error: 0.0044485204885957004
Epoch: 24500, Error: 0.004374326120353994
Epoch: 24600, Error: 0.0043559900003247885
Epoch: 24700, Error: 0.004333392053328439
Epoch: 24800, Error: 0.004319812244509169
Epoch: 24900, Error: 0.004307366437693378
Epoch: 25000, Error: 0.004247576179755096
Epoch: 25100, Error: 0.004229740483574095
Epoch: 25200, Error: 0.004248001723817014
Epoch: 25300, Error: 0.00417440601142835
Epoch: 25400, Error: 0.004154840885507219
Epoch: 25500, Error: 0.004141212686764924
Epoch: 25600, Error: 0.00411815704937064
Epoch: 25700, Error: 0.004085340798820829
Epoch: 25800, Error: 0.004059165269911237
Epoch: 25900, Error: 0.004034770981512254
Epoch: 26000, Error: 0.004018403401084964
Epoch: 26100, Error: 0.004029592069272627
Epoch: 26200, Error: 0.0039975335103696295
Epoch: 26300, Error: 0.003944307428219671
Epoch: 26400, Error: 0.003920525876361596
Epoch: 26500, Error: 0.003899696114035375
Epoch: 26600, Error: 0.0038729888685892183
Epoch: 26700, Error: 0.003981712271542817
Epoch: 26800, Error: 0.003893607624759762
Epoch: 26900, Error: 0.00382693332052109
Epoch: 27000, Error: 0.0037855851927612876
Epoch: 27100, Error: 0.0037981093206851707
Epoch: 27200, Error: 0.0037457673999332112
Epoch: 27300, Error: 0.003710704108622563
Epoch: 27400, Error: 0.0037226628369566436
Epoch: 27500, Error: 0.003692445913677861
Epoch: 27600, Error: 0.0036467896724554395
Epoch: 27700, Error: 0.003625784475236392
Epoch: 27800, Error: 0.003601846414213067
Epoch: 27900, Error: 0.0035780486766606085
Epoch: 28000, Error: 0.0035784026842112134
Epoch: 28100, Error: 0.003545321883119501
Epoch: 28200, Error: 0.0035184963258795567
Epoch: 28300, Error: 0.003537857162726724
Epoch: 28400, Error: 0.0034748313632291606
Epoch: 28500, Error: 0.003456139950980215
Epoch: 28600, Error: 0.0034324471908593985
Epoch: 28700, Error: 0.0034224882893331165
Epoch: 28800, Error: 0.0034887905488333324
Epoch: 28900, Error: 0.003377037097955426
Epoch: 29000, Error: 0.0033476815368883757
Epoch: 29100, Error: 0.0033563089598848492
Epoch: 29200, Error: 0.0033205766951507343
Epoch: 29300, Error: 0.0033115889487452485
Epoch: 29400, Error: 0.0032716040729987056
Epoch: 29500, Error: 0.003240881446570498
Epoch: 29600, Error: 0.0032393199061394678
Epoch: 29700, Error: 0.003199229113004794
Epoch: 29800, Error: 0.0031903094531814512
Epoch: 29900, Error: 0.003178881475244497
Epoch: 30000, Error: 0.0031895285884379967
Epoch: 30100, Error: 0.0031454743838346313
Epoch: 30200, Error: 0.0031216013923882637
Epoch: 30300, Error: 0.0031157131322817875
Epoch: 30400, Error: 0.0030663173160135762
Epoch: 30500, Error: 0.003068086325231243
Epoch: 30600, Error: 0.0030992299434126377
Epoch: 30700, Error: 0.003046039918531594
Epoch: 30800, Error: 0.0030124392455045533
Epoch: 30900, Error: 0.002975631146201652
Epoch: 31000, Error: 0.002959233799082034
Epoch: 31100, Error: 0.0029456917146087986
Epoch: 31200, Error: 0.002956812692317214
Epoch: 31300, Error: 0.00291514993305346
Epoch: 31400, Error: 0.0029412232400476044
Epoch: 31500, Error: 0.0029027108086395704
Epoch: 31600, Error: 0.002867616648005035
Epoch: 31700, Error: 0.0028425544358377294
Epoch: 31800, Error: 0.0028376826838472707
Epoch: 31900, Error: 0.002804691236577052
Epoch: 32000, Error: 0.0028150208865324734
Epoch: 32100, Error: 0.0027811946843743713
Epoch: 32200, Error: 0.0028515742861551156
Epoch: 32300, Error: 0.00274935484704807
Epoch: 32400, Error: 0.0027219461171669444
Epoch: 32500, Error: 0.0027266915114855087
Epoch: 32600, Error: 0.0027275644314515347
Epoch: 32700, Error: 0.002715754995445354
Epoch: 32800, Error: 0.0026648969079634587
Epoch: 32900, Error: 0.0027252980678815464
Epoch: 33000, Error: 0.0026983773491588976
Epoch: 33100, Error: 0.002657358702925879
Epoch: 33200, Error: 0.0026057698672087683
Epoch: 33300, Error: 0.002591399403354913
Epoch: 33400, Error: 0.002584604044940169
Epoch: 33500, Error: 0.002566348055001255
Epoch: 33600, Error: 0.002548573665776425
Epoch: 33700, Error: 0.002549934369458897
Epoch: 33800, Error: 0.002551374909828064
Epoch: 33900, Error: 0.002509573681814296
Epoch: 34000, Error: 0.002531847629225404
Epoch: 34100, Error: 0.0024886942150375187
Epoch: 34200, Error: 0.002508583296774624
Epoch: 34300, Error: 0.0024895107017301834
Epoch: 34400, Error: 0.0024460596172690705
Epoch: 34500, Error: 0.0024340850148309103
Epoch: 34600, Error: 0.0024676870695234227
Epoch: 34700, Error: 0.002410973162515157
Epoch: 34800, Error: 0.0024433262683996432
Epoch: 34900, Error: 0.002421776880084024
Epoch: 35000, Error: 0.0023761868704060872
Epoch: 35100, Error: 0.002360859245153162
Epoch: 35200, Error: 0.002368900110921992
Epoch: 35300, Error: 0.0023491338767647452
Epoch: 35400, Error: 0.0023983511674558282
Epoch: 35500, Error: 0.00237242539710926
Epoch: 35600, Error: 0.002329237579295774
Epoch: 35700, Error: 0.0022981752044895776
Epoch: 35800, Error: 0.002359271374668293
Epoch: 35900, Error: 0.0022718917713890814
Epoch: 36000, Error: 0.0022910830766728323
Epoch: 36100, Error: 0.0023072956487858176
Epoch: 36200, Error: 0.0022126357514920354
Epoch: 36300, Error: 0.00226360095431301
Epoch: 36400, Error: 0.0022086453518221716
Epoch: 36500, Error: 0.002173387310523759
Epoch: 36600, Error: 0.0021547747718387656
Epoch: 36700, Error: 0.002140026293881626
Epoch: 36800, Error: 0.0022075431251681365
Epoch: 36900, Error: 0.002170809252132145
Epoch: 37000, Error: 0.0021240980600232104
Epoch: 37100, Error: 0.002105499145926476
Epoch: 37200, Error: 0.0020726894091693013
Epoch: 37300, Error: 0.0020847356855636786
Epoch: 37400, Error: 0.0020468095695149444
Epoch: 37500, Error: 0.0020564680050927137
Epoch: 37600, Error: 0.0020219126166704433
Epoch: 37700, Error: 0.0020793912967190485
Epoch: 37800, Error: 0.0020287543650872744
Epoch: 37900, Error: 0.001992831653520986
Epoch: 38000, Error: 0.001986943740282625
Epoch: 38100, Error: 0.0019625127071327833
Epoch: 38200, Error: 0.001988088734727753
Epoch: 38300, Error: 0.0019401725389121293
Epoch: 38400, Error: 0.0019546094456691383
Epoch: 38500, Error: 0.0019173992613547091
Epoch: 38600, Error: 0.0019809491284294325
Epoch: 38700, Error: 0.0018972534735122904
Epoch: 38800, Error: 0.0019119084286131202
Epoch: 38900, Error: 0.0019226282570775682
Epoch: 39000, Error: 0.0018853941483971848
Epoch: 39100, Error: 0.0018773988308519957
Epoch: 39200, Error: 0.001867819458300707
Epoch: 39300, Error: 0.001842809325165535
Epoch: 39400, Error: 0.0018358147021262415
Epoch: 39500, Error: 0.0018294786848338084
Epoch: 39600, Error: 0.0018505487282024437
Epoch: 39700, Error: 0.0018138753867153123
Epoch: 39800, Error: 0.0018477725372226747
Epoch: 39900, Error: 0.0017972934467092177
Epoch: 40000, Error: 0.001806504168575763
Epoch: 40100, Error: 0.0017711545484834488
Epoch: 40200, Error: 0.0017676594314741
Epoch: 40300, Error: 0.0017576511282579878
Epoch: 40400, Error: 0.0017648216794712902
Epoch: 40500, Error: 0.0017573573990934976
Epoch: 40600, Error: 0.001748362465900752
Epoch: 40700, Error: 0.0017413356794617417
Epoch: 40800, Error: 0.0017156996238558283
Epoch: 40900, Error: 0.0017124061794326435
Finished
