Input Patterns
0.224 0.624 0.067 0.043 
0.11 0.502 0.051 0.043 
0.196 0.667 0.067 0.043 
0.055 0.584 0.067 0.082 
0.027 0.376 0.067 0.043 
0.306 0.71 0.086 0.043 
0.137 0.416 0.067 0.0 
0.416 0.831 0.035 0.043 
0.306 0.792 0.051 0.125 
0.388 0.749 0.118 0.082 
0.306 0.584 0.118 0.043 
0.082 0.667 0.0 0.043 
0.137 0.584 0.153 0.043 
0.196 0.584 0.102 0.125 
0.251 0.584 0.067 0.043 
0.137 0.459 0.102 0.043 
0.251 0.875 0.086 0.0 
0.165 0.459 0.086 0.043 
0.333 0.624 0.051 0.043 
0.027 0.416 0.051 0.043 
0.196 0.624 0.051 0.082 
0.027 0.502 0.051 0.043 
0.224 0.749 0.153 0.125 
0.224 0.749 0.102 0.043 
0.278 0.71 0.086 0.043 
0.165 0.416 0.067 0.043 
0.082 0.459 0.086 0.043 
0.306 0.792 0.118 0.125 
0.196 0.584 0.086 0.043 
0.165 0.459 0.086 0.0 
0.137 0.584 0.102 0.043 
0.0 0.416 0.016 0.0 
0.388 1.0 0.086 0.125 
0.224 0.624 0.067 0.082 
0.224 0.749 0.086 0.082 
0.224 0.71 0.086 0.125 
0.224 0.541 0.118 0.165 
0.196 0.416 0.102 0.043 
0.251 0.624 0.086 0.043 
0.11 0.502 0.102 0.043 
0.306 0.584 0.086 0.125 
0.333 0.918 0.067 0.043 
0.196 0.502 0.035 0.043 
0.165 0.667 0.067 0.0 
0.224 0.584 0.086 0.043 
0.055 0.125 0.051 0.082 
0.196 0.624 0.102 0.208 
0.137 0.416 0.067 0.082 
0.082 0.502 0.067 0.043 
0.196 0.541 0.067 0.043 
0.749 0.502 0.627 0.541 
0.722 0.459 0.663 0.584 
0.612 0.333 0.612 0.584 
0.557 0.541 0.627 0.624 
0.639 0.376 0.612 0.498 
0.196 0.0 0.424 0.376 
0.471 0.082 0.51 0.376 
0.361 0.376 0.439 0.498 
0.361 0.416 0.592 0.584 
0.529 0.082 0.592 0.584 
0.443 0.502 0.643 0.459 
0.557 0.208 0.663 0.584 
0.584 0.376 0.561 0.498 
0.694 0.333 0.643 0.541 
0.471 0.376 0.592 0.584 
0.333 0.169 0.475 0.416 
0.416 0.29 0.49 0.459 
0.306 0.416 0.592 0.584 
0.667 0.459 0.627 0.584 
0.361 0.416 0.525 0.498 
0.333 0.251 0.576 0.459 
0.416 0.251 0.51 0.459 
0.361 0.29 0.541 0.498 
0.388 0.376 0.541 0.498 
0.224 0.208 0.337 0.416 
0.584 0.502 0.592 0.584 
0.333 0.125 0.51 0.498 
0.388 0.333 0.592 0.498 
0.165 0.169 0.388 0.376 
0.251 0.29 0.49 0.541 
0.443 0.416 0.541 0.584 
0.498 0.376 0.627 0.541 
0.667 0.459 0.576 0.541 
0.416 0.29 0.525 0.376 
0.361 0.208 0.49 0.416 
0.498 0.333 0.51 0.498 
0.498 0.333 0.627 0.459 
0.639 0.416 0.576 0.541 
0.667 0.416 0.678 0.667 
0.388 0.251 0.424 0.376 
0.333 0.169 0.459 0.376 
0.471 0.29 0.694 0.624 
0.471 0.584 0.592 0.624 
0.557 0.125 0.576 0.498 
0.333 0.208 0.51 0.498 
0.498 0.416 0.612 0.541 
0.196 0.125 0.388 0.376 
0.388 0.416 0.541 0.459 
0.529 0.376 0.561 0.498 
0.388 0.333 0.525 0.498 
0.557 0.541 0.847 1.0 
0.776 0.416 0.831 0.831 
0.612 0.416 0.812 0.875 
0.165 0.208 0.592 0.667 
0.667 0.208 0.812 0.71 
0.612 0.502 0.694 0.792 
0.694 0.416 0.761 0.831 
0.416 0.333 0.694 0.957 
0.612 0.416 0.761 0.71 
0.945 0.251 1.0 0.918 
0.722 0.502 0.796 0.918 
0.945 0.333 0.965 0.792 
0.667 0.541 0.796 0.831 
0.529 0.333 0.643 0.71 
0.584 0.333 0.78 0.831 
0.863 0.333 0.863 0.749 
0.584 0.333 0.78 0.875 
0.498 0.251 0.78 0.541 
0.557 0.584 0.78 0.957 
0.471 0.416 0.643 0.71 
0.667 0.459 0.78 0.957 
0.416 0.29 0.694 0.749 
0.667 0.541 0.796 1.0 
0.557 0.208 0.678 0.749 
0.529 0.584 0.745 0.918 
0.416 0.29 0.694 0.749 
0.557 0.376 0.78 0.71 
0.918 0.416 0.949 0.831 
0.835 0.376 0.898 0.71 
0.804 0.667 0.863 1.0 
0.584 0.29 0.729 0.749 
0.388 0.208 0.678 0.792 
0.584 0.502 0.729 0.918 
0.945 0.749 0.965 0.875 
0.471 0.082 0.678 0.584 
0.361 0.333 0.663 0.792 
0.557 0.29 0.663 0.71 
0.804 0.502 0.847 0.71 
0.498 0.416 0.51 0.71 
0.804 0.416 0.812 0.624 
1.0 0.749 0.914 0.792 
0.557 0.333 0.694 0.584 
0.945 0.416 0.863 0.918 
0.584 0.459 0.761 0.71 
0.722 0.459 0.745 0.831 
0.722 0.459 0.694 0.918 
0.694 0.502 0.831 0.918 
0.667 0.416 0.714 0.918 
0.612 0.416 0.714 0.792 
0.443 0.416 0.694 0.71 
Teaching Patterns
1.0 0.0 0.0 
1.0 0.0 0.0 
1.0 0.0 0.0 
1.0 0.0 0.0 
1.0 0.0 0.0 
1.0 0.0 0.0 
1.0 0.0 0.0 
1.0 0.0 0.0 
1.0 0.0 0.0 
1.0 0.0 0.0 
1.0 0.0 0.0 
1.0 0.0 0.0 
1.0 0.0 0.0 
1.0 0.0 0.0 
1.0 0.0 0.0 
1.0 0.0 0.0 
1.0 0.0 0.0 
1.0 0.0 0.0 
1.0 0.0 0.0 
1.0 0.0 0.0 
1.0 0.0 0.0 
1.0 0.0 0.0 
1.0 0.0 0.0 
1.0 0.0 0.0 
1.0 0.0 0.0 
1.0 0.0 0.0 
1.0 0.0 0.0 
1.0 0.0 0.0 
1.0 0.0 0.0 
1.0 0.0 0.0 
1.0 0.0 0.0 
1.0 0.0 0.0 
1.0 0.0 0.0 
1.0 0.0 0.0 
1.0 0.0 0.0 
1.0 0.0 0.0 
1.0 0.0 0.0 
1.0 0.0 0.0 
1.0 0.0 0.0 
1.0 0.0 0.0 
1.0 0.0 0.0 
1.0 0.0 0.0 
1.0 0.0 0.0 
1.0 0.0 0.0 
1.0 0.0 0.0 
1.0 0.0 0.0 
1.0 0.0 0.0 
1.0 0.0 0.0 
1.0 0.0 0.0 
1.0 0.0 0.0 
0.0 1.0 0.0 
0.0 1.0 0.0 
0.0 1.0 0.0 
0.0 1.0 0.0 
0.0 1.0 0.0 
0.0 1.0 0.0 
0.0 1.0 0.0 
0.0 1.0 0.0 
0.0 1.0 0.0 
0.0 1.0 0.0 
0.0 1.0 0.0 
0.0 1.0 0.0 
0.0 1.0 0.0 
0.0 1.0 0.0 
0.0 1.0 0.0 
0.0 1.0 0.0 
0.0 1.0 0.0 
0.0 1.0 0.0 
0.0 1.0 0.0 
0.0 1.0 0.0 
0.0 1.0 0.0 
0.0 1.0 0.0 
0.0 1.0 0.0 
0.0 1.0 0.0 
0.0 1.0 0.0 
0.0 1.0 0.0 
0.0 1.0 0.0 
0.0 1.0 0.0 
0.0 1.0 0.0 
0.0 1.0 0.0 
0.0 1.0 0.0 
0.0 1.0 0.0 
0.0 1.0 0.0 
0.0 1.0 0.0 
0.0 1.0 0.0 
0.0 1.0 0.0 
0.0 1.0 0.0 
0.0 1.0 0.0 
0.0 1.0 0.0 
0.0 1.0 0.0 
0.0 1.0 0.0 
0.0 1.0 0.0 
0.0 1.0 0.0 
0.0 1.0 0.0 
0.0 1.0 0.0 
0.0 1.0 0.0 
0.0 1.0 0.0 
0.0 1.0 0.0 
0.0 1.0 0.0 
0.0 1.0 0.0 
0.0 0.0 1.0 
0.0 0.0 1.0 
0.0 0.0 1.0 
0.0 0.0 1.0 
0.0 0.0 1.0 
0.0 0.0 1.0 
0.0 0.0 1.0 
0.0 0.0 1.0 
0.0 0.0 1.0 
0.0 0.0 1.0 
0.0 0.0 1.0 
0.0 0.0 1.0 
0.0 0.0 1.0 
0.0 0.0 1.0 
0.0 0.0 1.0 
0.0 0.0 1.0 
0.0 0.0 1.0 
0.0 0.0 1.0 
0.0 0.0 1.0 
0.0 0.0 1.0 
0.0 0.0 1.0 
0.0 0.0 1.0 
0.0 0.0 1.0 
0.0 0.0 1.0 
0.0 0.0 1.0 
0.0 0.0 1.0 
0.0 0.0 1.0 
0.0 0.0 1.0 
0.0 0.0 1.0 
0.0 0.0 1.0 
0.0 0.0 1.0 
0.0 0.0 1.0 
0.0 0.0 1.0 
0.0 0.0 1.0 
0.0 0.0 1.0 
0.0 0.0 1.0 
0.0 0.0 1.0 
0.0 0.0 1.0 
0.0 0.0 1.0 
0.0 0.0 1.0 
0.0 0.0 1.0 
0.0 0.0 1.0 
0.0 0.0 1.0 
0.0 0.0 1.0 
0.0 0.0 1.0 
0.0 0.0 1.0 
0.0 0.0 1.0 
0.0 0.0 1.0 
0.0 0.0 1.0 
0.0 0.0 1.0 
Learning : 0.05
Momentum : 0.4000000059604645
Epoch: 100, Error: 0.06683540102725312
Epoch: 200, Error: 0.02338075938037943
Epoch: 300, Error: 0.017479455136726784
Epoch: 400, Error: 0.015877000128968026
Epoch: 500, Error: 0.01449873611814029
Epoch: 600, Error: 0.014165814916729342
Epoch: 700, Error: 0.013494643652879878
Epoch: 800, Error: 0.013220170303617084
Epoch: 900, Error: 0.012943841376802994
Epoch: 1000, Error: 0.012763106558988243
Epoch: 1100, Error: 0.01277461499358331
Epoch: 1200, Error: 0.012596795161684
Epoch: 1300, Error: 0.01251154604755079
Epoch: 1400, Error: 0.012470317391935158
Epoch: 1500, Error: 0.01261964158323085
Epoch: 1600, Error: 0.012343527076386885
Epoch: 1700, Error: 0.012269156418213314
Epoch: 1800, Error: 0.012241930229223128
Epoch: 1900, Error: 0.012214362753113784
Epoch: 2000, Error: 0.01222556465596606
Epoch: 2100, Error: 0.012254528609498732
Epoch: 2200, Error: 0.012182178051130583
Epoch: 2300, Error: 0.012214299096661723
Epoch: 2400, Error: 0.012151070026495838
Epoch: 2500, Error: 0.012144546898204083
Epoch: 2600, Error: 0.012122111655806733
Epoch: 2700, Error: 0.012157631008048323
Epoch: 2800, Error: 0.012099597197137749
Epoch: 2900, Error: 0.01213700283247262
Epoch: 3000, Error: 0.012109517401238378
Epoch: 3100, Error: 0.012073211366912157
Epoch: 3200, Error: 0.012134573889915293
Epoch: 3300, Error: 0.012062526896344643
Epoch: 3400, Error: 0.012052895559881899
Epoch: 3500, Error: 0.012091822840569456
Epoch: 3600, Error: 0.012064225754191171
Epoch: 3700, Error: 0.012067551630377546
Epoch: 3800, Error: 0.012136869684526869
Epoch: 3900, Error: 0.012066565552700994
Epoch: 4000, Error: 0.012125697626974729
Epoch: 4100, Error: 0.012044627551389095
Epoch: 4200, Error: 0.012033967280349368
Epoch: 4300, Error: 0.012121325684253961
Epoch: 4400, Error: 0.012058425663621088
Epoch: 4500, Error: 0.01204153229099379
Epoch: 4600, Error: 0.012052372462499128
Epoch: 4700, Error: 0.012147079273473851
Epoch: 4800, Error: 0.012049802443664652
Epoch: 4900, Error: 0.012059395071295567
Epoch: 5000, Error: 0.012107825809595876
Epoch: 5100, Error: 0.012061153235205652
Epoch: 5200, Error: 0.012069988208943274
Epoch: 5300, Error: 0.012092528893193847
Epoch: 5400, Error: 0.012045130101406282
Epoch: 5500, Error: 0.012060837780464203
Epoch: 5600, Error: 0.01205448221016778
Epoch: 5700, Error: 0.012152308786530015
Epoch: 5800, Error: 0.012044478005840598
Epoch: 5900, Error: 0.012045758628176213
Epoch: 6000, Error: 0.012048038933261247
Epoch: 6100, Error: 0.012046958414075491
Epoch: 6200, Error: 0.012027016674790354
Epoch: 6300, Error: 0.012088731880985255
Epoch: 6400, Error: 0.012021608065917613
Epoch: 6500, Error: 0.011994864646476767
Epoch: 6600, Error: 0.012064070267922389
Epoch: 6700, Error: 0.011995801886027195
Epoch: 6800, Error: 0.011992987235994828
Epoch: 6900, Error: 0.0119579370058712
Epoch: 7000, Error: 0.011990058364886234
Epoch: 7100, Error: 0.011955164937322751
Epoch: 7200, Error: 0.01195664469910543
Epoch: 7300, Error: 0.011962346497593857
Epoch: 7400, Error: 0.0119075175889285
Epoch: 7500, Error: 0.011871411837166869
Epoch: 7600, Error: 0.011888723961430262
Epoch: 7700, Error: 0.011904721800835504
Epoch: 7800, Error: 0.011993163663971917
Epoch: 7900, Error: 0.01188058847181786
Epoch: 8000, Error: 0.011868517343165689
Epoch: 8100, Error: 0.011839317015972909
Epoch: 8200, Error: 0.011819606502407091
Epoch: 8300, Error: 0.011818267138728583
Epoch: 8400, Error: 0.011835006901458688
Epoch: 8500, Error: 0.011813443782501787
Epoch: 8600, Error: 0.011804838471175258
Epoch: 8700, Error: 0.011822796577761191
Epoch: 8800, Error: 0.011781884238297765
Epoch: 8900, Error: 0.01180698915962181
Epoch: 9000, Error: 0.011787534476096038
Epoch: 9100, Error: 0.011740479652791323
Epoch: 9200, Error: 0.011914572591642426
Epoch: 9300, Error: 0.011833556138961003
Epoch: 9400, Error: 0.011803747699352931
Epoch: 9500, Error: 0.011794174940121612
Epoch: 9600, Error: 0.011789881596046964
Epoch: 9700, Error: 0.01175386500923148
Epoch: 9800, Error: 0.011702681055815218
Epoch: 9900, Error: 0.011755231000614087
Epoch: 10000, Error: 0.01182867962327633
Epoch: 10100, Error: 0.011747984049712881
Epoch: 10200, Error: 0.011721658635854861
Epoch: 10300, Error: 0.011738980144828288
Epoch: 10400, Error: 0.011721334352360953
Epoch: 10500, Error: 0.011696541714990176
Epoch: 10600, Error: 0.011696320296262379
Epoch: 10700, Error: 0.011678607050072062
Epoch: 10800, Error: 0.011697908798316654
Epoch: 10900, Error: 0.011693282449147718
Epoch: 11000, Error: 0.011731293845469715
Epoch: 11100, Error: 0.01189223614071587
Epoch: 11200, Error: 0.011698632459358491
Epoch: 11300, Error: 0.01161247138792143
Epoch: 11400, Error: 0.01170032763489468
Epoch: 11500, Error: 0.011648647858676323
Epoch: 11600, Error: 0.011658190228551031
Epoch: 11700, Error: 0.01165413151464027
Epoch: 11800, Error: 0.011634579660572538
Epoch: 11900, Error: 0.011633861918935937
Epoch: 12000, Error: 0.01162310244042586
Epoch: 12100, Error: 0.011610707333685641
Epoch: 12200, Error: 0.011613240373232256
Epoch: 12300, Error: 0.011623247596220668
Epoch: 12400, Error: 0.011619038950076384
Epoch: 12500, Error: 0.011577988431158535
Epoch: 12600, Error: 0.011630673340687441
Epoch: 12700, Error: 0.011624233081837082
Epoch: 12800, Error: 0.011568054494810926
Epoch: 12900, Error: 0.011553121233821495
Epoch: 13000, Error: 0.011579422529919649
Epoch: 13100, Error: 0.011587903460826495
Epoch: 13200, Error: 0.011515345881977068
Epoch: 13300, Error: 0.011575132077223826
Epoch: 13400, Error: 0.011501991758270784
Epoch: 13500, Error: 0.011515203209372183
Epoch: 13600, Error: 0.011514436893995787
Epoch: 13700, Error: 0.011468087135316772
Epoch: 13800, Error: 0.011469577550526612
Epoch: 13900, Error: 0.011484240429854043
Epoch: 14000, Error: 0.011455927273377185
Epoch: 14100, Error: 0.011506057068749898
Epoch: 14200, Error: 0.011629078629484325
Epoch: 14300, Error: 0.011435582289370617
Epoch: 14400, Error: 0.011415447597495647
Epoch: 14500, Error: 0.01139298004830507
Epoch: 14600, Error: 0.011388080591004832
Epoch: 14700, Error: 0.011378402793848639
Epoch: 14800, Error: 0.011398263183867477
Epoch: 14900, Error: 0.011336601069119968
Epoch: 15000, Error: 0.01134352693265215
Epoch: 15100, Error: 0.01128636351467432
Epoch: 15200, Error: 0.011346654131178021
Epoch: 15300, Error: 0.011252267275112313
Epoch: 15400, Error: 0.011234635852166596
Epoch: 15500, Error: 0.011203980029682304
Epoch: 15600, Error: 0.011164473468675919
Epoch: 15700, Error: 0.011127308631573974
Epoch: 15800, Error: 0.011127665276666348
Epoch: 15900, Error: 0.011076457697740164
Epoch: 16000, Error: 0.011023673564657955
Epoch: 16100, Error: 0.01118599838199839
Epoch: 16200, Error: 0.010973272537128204
Epoch: 16300, Error: 0.010965804121919387
Epoch: 16400, Error: 0.010909329942211221
Epoch: 16500, Error: 0.010919665393599147
Epoch: 16600, Error: 0.010832174883780401
Epoch: 16700, Error: 0.01078468698728205
Epoch: 16800, Error: 0.010808895106831182
Epoch: 16900, Error: 0.010703918993432069
Epoch: 17000, Error: 0.010676088970142699
Epoch: 17100, Error: 0.010652594966001822
Epoch: 17200, Error: 0.01063319780956885
Epoch: 17300, Error: 0.010575890326397473
Epoch: 17400, Error: 0.010497965397407308
Epoch: 17500, Error: 0.010459994900549783
Epoch: 17600, Error: 0.010427252174344705
Epoch: 17700, Error: 0.01037219242074624
Epoch: 17800, Error: 0.010314083746528474
Epoch: 17900, Error: 0.010312255649876126
Epoch: 18000, Error: 0.010257602720227006
Epoch: 18100, Error: 0.010200625379467919
Epoch: 18200, Error: 0.010133945132205524
Epoch: 18300, Error: 0.01011680082849591
Epoch: 18400, Error: 0.010044009530852643
Epoch: 18500, Error: 0.010006454462321578
Epoch: 18600, Error: 0.009943240729731398
Epoch: 18700, Error: 0.009947930719959443
Epoch: 18800, Error: 0.00993003403390636
Epoch: 18900, Error: 0.009864080177292883
Epoch: 19000, Error: 0.009778817363353485
Epoch: 19100, Error: 0.009767085700063313
Epoch: 19200, Error: 0.009787625502412791
Epoch: 19300, Error: 0.009722828063718924
Epoch: 19400, Error: 0.009679561243131768
Epoch: 19500, Error: 0.00957973768662318
Epoch: 19600, Error: 0.009497664307538126
Epoch: 19700, Error: 0.009472806728527444
Epoch: 19800, Error: 0.009440141026957614
Epoch: 19900, Error: 0.00937965319928668
Epoch: 20000, Error: 0.009312330153068952
Epoch: 20100, Error: 0.009228885581296021
Epoch: 20200, Error: 0.009159021758511741
Epoch: 20300, Error: 0.009082917585153094
Epoch: 20400, Error: 0.008985941952070515
Epoch: 20500, Error: 0.00894292571438873
Epoch: 20600, Error: 0.008889799286871062
Epoch: 20700, Error: 0.008773982329419516
Epoch: 20800, Error: 0.008681393130278343
Epoch: 20900, Error: 0.008599431746700246
Epoch: 21000, Error: 0.008539208981470493
Epoch: 21100, Error: 0.008461599294815422
Epoch: 21200, Error: 0.00838731417715763
Epoch: 21300, Error: 0.008307012816792242
Epoch: 21400, Error: 0.008244652322050698
Epoch: 21500, Error: 0.0082038743435631
Epoch: 21600, Error: 0.008130551732066286
Epoch: 21700, Error: 0.008091746310990026
Epoch: 21800, Error: 0.00801237904544399
Epoch: 21900, Error: 0.007965406052257554
Epoch: 22000, Error: 0.007912069621372437
Epoch: 22100, Error: 0.007889333317084721
Epoch: 22200, Error: 0.007826973406174982
Epoch: 22300, Error: 0.007784466520933848
Epoch: 22400, Error: 0.007761693461374589
Epoch: 22500, Error: 0.007713277530230612
Epoch: 22600, Error: 0.007707638423078191
Epoch: 22700, Error: 0.007619812773977343
Epoch: 22800, Error: 0.00756029024641151
Epoch: 22900, Error: 0.007545870157109498
Epoch: 23000, Error: 0.007434176893725563
Epoch: 23100, Error: 0.007382096498147664
Epoch: 23200, Error: 0.007342308549931138
Epoch: 23300, Error: 0.007295678042334023
Epoch: 23400, Error: 0.007268357045518266
Epoch: 23500, Error: 0.007226992778396504
Epoch: 23600, Error: 0.007225760695434929
Epoch: 23700, Error: 0.007186803155973317
Epoch: 23800, Error: 0.00714271425713061
Epoch: 23900, Error: 0.007136962178172947
Epoch: 24000, Error: 0.007094037757267027
Epoch: 24100, Error: 0.007086612417402151
Epoch: 24200, Error: 0.00701664626281243
Epoch: 24300, Error: 0.0069795625289946345
Epoch: 24400, Error: 0.006938818445399858
Epoch: 24500, Error: 0.006908501919029713
Epoch: 24600, Error: 0.006862039358764294
Epoch: 24700, Error: 0.006871145302896472
Epoch: 24800, Error: 0.006784168127468771
Epoch: 24900, Error: 0.006753438898715944
Epoch: 25000, Error: 0.006709777412224518
Epoch: 25100, Error: 0.006686607828710028
Epoch: 25200, Error: 0.006642492359786309
Epoch: 25300, Error: 0.0066265152345981486
Epoch: 25400, Error: 0.006590766614269731
Epoch: 25500, Error: 0.006593521456994749
Epoch: 25600, Error: 0.006507655639253744
Epoch: 25700, Error: 0.006492504152582627
Epoch: 25800, Error: 0.006463752566164261
Epoch: 25900, Error: 0.006428207318744338
Epoch: 26000, Error: 0.006407840795991684
Epoch: 26100, Error: 0.006374064124638298
Epoch: 26200, Error: 0.006375691698703729
Epoch: 26300, Error: 0.006325196343687739
Epoch: 26400, Error: 0.006290238003229254
Epoch: 26500, Error: 0.006254343753535612
Epoch: 26600, Error: 0.00623123489118913
Epoch: 26700, Error: 0.0062169963626913785
Epoch: 26800, Error: 0.006200945405096568
Epoch: 26900, Error: 0.006130665372102079
Epoch: 27000, Error: 0.006134544362228071
Epoch: 27100, Error: 0.006075535161193927
Epoch: 27200, Error: 0.006061069972433206
Epoch: 27300, Error: 0.006021230966079803
Epoch: 27400, Error: 0.005979730319364903
Epoch: 27500, Error: 0.005961192715821028
Epoch: 27600, Error: 0.005928348669969119
Epoch: 27700, Error: 0.005924073703442192
Epoch: 27800, Error: 0.005864222092809354
Epoch: 27900, Error: 0.005857310039123524
Epoch: 28000, Error: 0.005825559277516082
Epoch: 28100, Error: 0.005807144008820704
Epoch: 28200, Error: 0.0057776186735944935
Epoch: 28300, Error: 0.005794525651000974
Epoch: 28400, Error: 0.005724795407564822
Epoch: 28500, Error: 0.005682450321059277
Epoch: 28600, Error: 0.005670070178800606
Epoch: 28700, Error: 0.005659132089199471
Epoch: 28800, Error: 0.0056250443361433155
Epoch: 28900, Error: 0.0056454098866895374
Epoch: 29000, Error: 0.005579489228037353
Epoch: 29100, Error: 0.005553894825208576
Epoch: 29200, Error: 0.005537432612007078
Epoch: 29300, Error: 0.005520097213305498
Epoch: 29400, Error: 0.005525985552281008
Epoch: 29500, Error: 0.005480256242314617
Epoch: 29600, Error: 0.005445293631443471
Epoch: 29700, Error: 0.0054230787176086
Epoch: 29800, Error: 0.00540544069746998
Epoch: 29900, Error: 0.005379233071698724
Epoch: 30000, Error: 0.005366658929327602
Epoch: 30100, Error: 0.005372314531965224
Epoch: 30200, Error: 0.0053362525593406585
Epoch: 30300, Error: 0.005321186452364838
Epoch: 30400, Error: 0.005281705251235522
Epoch: 30500, Error: 0.005252076671375529
Epoch: 30600, Error: 0.005241479979941734
Epoch: 30700, Error: 0.005244346157095833
Epoch: 30800, Error: 0.005201791323454116
Epoch: 30900, Error: 0.005196955466324924
Epoch: 31000, Error: 0.005190938257577417
Epoch: 31100, Error: 0.005160077896705627
Epoch: 31200, Error: 0.005121366567966237
Epoch: 31300, Error: 0.00511160659332408
Epoch: 31400, Error: 0.005104030794189939
Epoch: 31500, Error: 0.005075138019751236
Epoch: 31600, Error: 0.005042260658638926
Epoch: 31700, Error: 0.00503383998747137
Epoch: 31800, Error: 0.004995939495034672
Epoch: 31900, Error: 0.005004605410857384
Epoch: 32000, Error: 0.004983603362848641
Epoch: 32100, Error: 0.004963315451139027
Epoch: 32200, Error: 0.004921588344613232
Epoch: 32300, Error: 0.004908154598918548
Epoch: 32400, Error: 0.004889698842705152
Epoch: 32500, Error: 0.004845694893341321
Epoch: 32600, Error: 0.004865420659755515
Epoch: 32700, Error: 0.004808883485937288
Epoch: 32800, Error: 0.00481118160418972
Epoch: 32900, Error: 0.004758246319470461
Epoch: 33000, Error: 0.004740025743259889
Epoch: 33100, Error: 0.0046913276671874645
Epoch: 33200, Error: 0.004682466563839477
Epoch: 33300, Error: 0.004655670243090631
Epoch: 33400, Error: 0.004579155264404004
Epoch: 33500, Error: 0.004555555421174293
Epoch: 33600, Error: 0.004564625673789025
Epoch: 33700, Error: 0.004581523170330167
Epoch: 33800, Error: 0.0045016730683240785
Epoch: 33900, Error: 0.004459322445365612
Epoch: 34000, Error: 0.004427430348878707
Epoch: 34100, Error: 0.0044020692812941934
Epoch: 34200, Error: 0.0043658871275825024
Epoch: 34300, Error: 0.0043110389329260495
Epoch: 34400, Error: 0.004285570832194389
Epoch: 34500, Error: 0.0042526062982242655
Epoch: 34600, Error: 0.004214670646677664
Epoch: 34700, Error: 0.004243970666602479
Epoch: 34800, Error: 0.00416340376192256
Epoch: 34900, Error: 0.004131547299349586
Epoch: 35000, Error: 0.00420198822707113
Epoch: 35100, Error: 0.004119214608252597
Epoch: 35200, Error: 0.004055642163139098
Epoch: 35300, Error: 0.004039033811064208
Epoch: 35400, Error: 0.004033789058120024
Epoch: 35500, Error: 0.003999560550128854
Epoch: 35600, Error: 0.003965916368470302
Epoch: 35700, Error: 0.004004642103148428
Epoch: 35800, Error: 0.003929563057659545
Epoch: 35900, Error: 0.003918404857587189
Epoch: 36000, Error: 0.003898300390586448
Epoch: 36100, Error: 0.0038896674286100718
Epoch: 36200, Error: 0.003910422704164593
Epoch: 36300, Error: 0.0038619858261790384
Epoch: 36400, Error: 0.0038749637140413026
Epoch: 36500, Error: 0.0038393530873143517
Epoch: 36600, Error: 0.003846543903642066
Epoch: 36700, Error: 0.0039481123196157784
Epoch: 36800, Error: 0.0038501938207718316
Epoch: 36900, Error: 0.0038367319514744313
Epoch: 37000, Error: 0.0038191780793115134
Epoch: 37100, Error: 0.0038186573432561948
Epoch: 37200, Error: 0.003817952155925927
Epoch: 37300, Error: 0.003780551894893224
Epoch: 37400, Error: 0.0037986470047686603
Epoch: 37500, Error: 0.0038177597321744678
Epoch: 37600, Error: 0.0037899678040907597
Epoch: 37700, Error: 0.0037801410124766194
Epoch: 37800, Error: 0.0037314546540549733
Epoch: 37900, Error: 0.003816757157073992
Epoch: 38000, Error: 0.0037128399075115333
Epoch: 38100, Error: 0.003705537622342764
Epoch: 38200, Error: 0.0037148951727080616
Epoch: 38300, Error: 0.003694424776086177
Epoch: 38400, Error: 0.003617785871425274
Epoch: 38500, Error: 0.0036063859493443234
Epoch: 38600, Error: 0.00358122370324562
Epoch: 38700, Error: 0.003583293526194702
Epoch: 38800, Error: 0.0036739583942970305
Epoch: 38900, Error: 0.003585256588363421
Epoch: 39000, Error: 0.003564938100560177
Epoch: 39100, Error: 0.003473670323526587
Epoch: 39200, Error: 0.003502665091946855
Epoch: 39300, Error: 0.0035150384378710435
Epoch: 39400, Error: 0.003420415839076303
Epoch: 39500, Error: 0.0034471363671563287
Epoch: 39600, Error: 0.0034962082971640267
Epoch: 39700, Error: 0.003382805263322685
Epoch: 39800, Error: 0.003345724793735798
Epoch: 39900, Error: 0.0034040336582556795
Epoch: 40000, Error: 0.00338001216242234
Epoch: 40100, Error: 0.003357136585359928
Epoch: 40200, Error: 0.003320523223552292
Epoch: 40300, Error: 0.003257948529052784
Epoch: 40400, Error: 0.003279276102516168
Epoch: 40500, Error: 0.0032277673735291675
Epoch: 40600, Error: 0.003222957879977321
Epoch: 40700, Error: 0.003166485671496692
Epoch: 40800, Error: 0.0031652522507111835
Epoch: 40900, Error: 0.0031048912638805565
Epoch: 41000, Error: 0.003085256653269773
Epoch: 41100, Error: 0.003076725175049493
Epoch: 41200, Error: 0.0030486027423161505
Epoch: 41300, Error: 0.003079577302904598
Epoch: 41400, Error: 0.0030031946099914335
Epoch: 41500, Error: 0.0029964960752323386
Epoch: 41600, Error: 0.00294948327473729
Epoch: 41700, Error: 0.0029850185135384052
Epoch: 41800, Error: 0.0029725209222274587
Epoch: 41900, Error: 0.0029434356953394456
Epoch: 42000, Error: 0.0028475570082577128
Epoch: 42100, Error: 0.0028438937028343295
Epoch: 42200, Error: 0.002890379987487043
Epoch: 42300, Error: 0.0028118863282686293
Epoch: 42400, Error: 0.0028812619405004817
Epoch: 42500, Error: 0.0028457822256669624
Epoch: 42600, Error: 0.002746793414749006
Epoch: 42700, Error: 0.0027743988168253044
Epoch: 42800, Error: 0.0026994070352706783
Epoch: 42900, Error: 0.0026741003691234002
Epoch: 43000, Error: 0.002658633205548105
Epoch: 43100, Error: 0.002628087044402343
Epoch: 43200, Error: 0.0026265493896604486
Epoch: 43300, Error: 0.002598302900099584
Epoch: 43400, Error: 0.0027000829816344837
Epoch: 43500, Error: 0.0025721552690800256
Epoch: 43600, Error: 0.0026154245280305562
Epoch: 43700, Error: 0.002708511214052065
Epoch: 43800, Error: 0.0025557163422904386
Epoch: 43900, Error: 0.002493476961159185
Epoch: 44000, Error: 0.0024690127443543907
Epoch: 44100, Error: 0.002461472944441641
Epoch: 44200, Error: 0.002427515754131771
Epoch: 44300, Error: 0.0024459841388724825
Epoch: 44400, Error: 0.0024332538848368863
Epoch: 44500, Error: 0.0023872180339185134
Epoch: 44600, Error: 0.00239680953140557
Epoch: 44700, Error: 0.0023316539258890143
Epoch: 44800, Error: 0.0023175433296373843
Epoch: 44900, Error: 0.002311895469905533
Epoch: 45000, Error: 0.0022909850607953433
Epoch: 45100, Error: 0.0022689818686053424
Epoch: 45200, Error: 0.002241226669802958
Epoch: 45300, Error: 0.00228828529154865
Epoch: 45400, Error: 0.0022558338068968775
Epoch: 45500, Error: 0.00223289027713872
Epoch: 45600, Error: 0.0022176921099614968
Epoch: 45700, Error: 0.0021820218800948366
Epoch: 45800, Error: 0.0022282137016044765
Epoch: 45900, Error: 0.0022109530928907297
Epoch: 46000, Error: 0.002186319212566285
Epoch: 46100, Error: 0.00211355727797304
Epoch: 46200, Error: 0.0022040280991346027
Epoch: 46300, Error: 0.0021122010959877457
Epoch: 46400, Error: 0.0020796473741414067
Epoch: 46500, Error: 0.0021200120946690566
Epoch: 46600, Error: 0.002061988995921999
Epoch: 46700, Error: 0.0021484432494151833
Epoch: 46800, Error: 0.0020841397142416953
Epoch: 46900, Error: 0.002047210321190495
Epoch: 47000, Error: 0.0020171573144288227
Epoch: 47100, Error: 0.0020254015979660187
Epoch: 47200, Error: 0.0019669216796900585
Epoch: 47300, Error: 0.001990477294969104
Epoch: 47400, Error: 0.0020456182808962073
Epoch: 47500, Error: 0.0019354924816581873
Epoch: 47600, Error: 0.0019480949696054413
Epoch: 47700, Error: 0.0019448370302120978
Epoch: 47800, Error: 0.00188894092650473
Epoch: 47900, Error: 0.0019363223668388261
Epoch: 48000, Error: 0.0019423731079646924
Epoch: 48100, Error: 0.0019304232734230781
Epoch: 48200, Error: 0.0018800840842844212
Epoch: 48300, Error: 0.0018677445827132836
Epoch: 48400, Error: 0.0019189618069915047
Epoch: 48500, Error: 0.001835313993093946
Epoch: 48600, Error: 0.001825434039791112
Epoch: 48700, Error: 0.0017953393959582802
Epoch: 48800, Error: 0.0018139323052732382
Epoch: 48900, Error: 0.0017659148447668057
Epoch: 49000, Error: 0.0017566485830042122
Epoch: 49100, Error: 0.0017458854656852594
Epoch: 49200, Error: 0.001786226430389867
Epoch: 49300, Error: 0.0017257928703843417
Epoch: 49400, Error: 0.0017744340473583252
Epoch: 49500, Error: 0.0017465910255017399
Epoch: 49600, Error: 0.0016996197404284428
Epoch: 49700, Error: 0.0017201992145853444
Epoch: 49800, Error: 0.0017150102848452237
Epoch: 49900, Error: 0.0016545612223110673
Epoch: 50000, Error: 0.0016548138900474322
Epoch: 50100, Error: 0.0016621060573334494
Epoch: 50200, Error: 0.0016754034104307974
Epoch: 50300, Error: 0.001642754591496401
Epoch: 50400, Error: 0.0016676541818401909
Epoch: 50500, Error: 0.00176999855166881
Epoch: 50600, Error: 0.0016043072233014456
Epoch: 50700, Error: 0.0016571175822459624
Epoch: 50800, Error: 0.0016400111757021766
Epoch: 50900, Error: 0.0015908434069258656
Epoch: 51000, Error: 0.001590065583410193
Epoch: 51100, Error: 0.0015669687738661827
Epoch: 51200, Error: 0.0015909487042096
Epoch: 51300, Error: 0.0015587859053639256
Epoch: 51400, Error: 0.0015538391301814444
Epoch: 51500, Error: 0.0015583189573350165
Epoch: 51600, Error: 0.0015288083435378678
Epoch: 51700, Error: 0.0015290921628634522
Epoch: 51800, Error: 0.0015184000649882965
Epoch: 51900, Error: 0.0015189606204799287
Epoch: 52000, Error: 0.0015184223975903467
Epoch: 52100, Error: 0.0015130292473943875
Epoch: 52200, Error: 0.0014970515768168036
Epoch: 52300, Error: 0.0014821822915623301
Epoch: 52400, Error: 0.0014883333754639265
Epoch: 52500, Error: 0.0014923496367409243
Epoch: 52600, Error: 0.0014746602125376008
Epoch: 52700, Error: 0.0014454786276224395
Epoch: 52800, Error: 0.0014488320857782544
Epoch: 52900, Error: 0.0014542053714210713
Epoch: 53000, Error: 0.0014467959472993367
Epoch: 53100, Error: 0.0014341679780117426
Epoch: 53200, Error: 0.0014405366777779083
Epoch: 53300, Error: 0.0014314002485773783
Epoch: 53400, Error: 0.0014110124957038975
Finished
