Input Patterns
0.224 0.624 0.067 0.043 
0.11 0.502 0.051 0.043 
0.196 0.667 0.067 0.043 
0.055 0.584 0.067 0.082 
0.027 0.376 0.067 0.043 
0.306 0.71 0.086 0.043 
0.137 0.416 0.067 0.0 
0.416 0.831 0.035 0.043 
0.306 0.792 0.051 0.125 
0.388 0.749 0.118 0.082 
0.306 0.584 0.118 0.043 
0.082 0.667 0.0 0.043 
0.137 0.584 0.153 0.043 
0.196 0.584 0.102 0.125 
0.251 0.584 0.067 0.043 
0.137 0.459 0.102 0.043 
0.251 0.875 0.086 0.0 
0.165 0.459 0.086 0.043 
0.333 0.624 0.051 0.043 
0.027 0.416 0.051 0.043 
0.196 0.624 0.051 0.082 
0.027 0.502 0.051 0.043 
0.224 0.749 0.153 0.125 
0.224 0.749 0.102 0.043 
0.278 0.71 0.086 0.043 
0.165 0.416 0.067 0.043 
0.082 0.459 0.086 0.043 
0.306 0.792 0.118 0.125 
0.196 0.584 0.086 0.043 
0.165 0.459 0.086 0.0 
0.137 0.584 0.102 0.043 
0.0 0.416 0.016 0.0 
0.388 1.0 0.086 0.125 
0.224 0.624 0.067 0.082 
0.224 0.749 0.086 0.082 
0.224 0.71 0.086 0.125 
0.224 0.541 0.118 0.165 
0.196 0.416 0.102 0.043 
0.251 0.624 0.086 0.043 
0.11 0.502 0.102 0.043 
0.306 0.584 0.086 0.125 
0.333 0.918 0.067 0.043 
0.196 0.502 0.035 0.043 
0.165 0.667 0.067 0.0 
0.224 0.584 0.086 0.043 
0.055 0.125 0.051 0.082 
0.196 0.624 0.102 0.208 
0.137 0.416 0.067 0.082 
0.082 0.502 0.067 0.043 
0.196 0.541 0.067 0.043 
0.749 0.502 0.627 0.541 
0.722 0.459 0.663 0.584 
0.612 0.333 0.612 0.584 
0.557 0.541 0.627 0.624 
0.639 0.376 0.612 0.498 
0.196 0.0 0.424 0.376 
0.471 0.082 0.51 0.376 
0.361 0.376 0.439 0.498 
0.361 0.416 0.592 0.584 
0.529 0.082 0.592 0.584 
0.443 0.502 0.643 0.459 
0.557 0.208 0.663 0.584 
0.584 0.376 0.561 0.498 
0.694 0.333 0.643 0.541 
0.471 0.376 0.592 0.584 
0.333 0.169 0.475 0.416 
0.416 0.29 0.49 0.459 
0.306 0.416 0.592 0.584 
0.667 0.459 0.627 0.584 
0.361 0.416 0.525 0.498 
0.333 0.251 0.576 0.459 
0.416 0.251 0.51 0.459 
0.361 0.29 0.541 0.498 
0.388 0.376 0.541 0.498 
0.224 0.208 0.337 0.416 
0.584 0.502 0.592 0.584 
0.333 0.125 0.51 0.498 
0.388 0.333 0.592 0.498 
0.165 0.169 0.388 0.376 
0.251 0.29 0.49 0.541 
0.443 0.416 0.541 0.584 
0.498 0.376 0.627 0.541 
0.667 0.459 0.576 0.541 
0.416 0.29 0.525 0.376 
0.361 0.208 0.49 0.416 
0.498 0.333 0.51 0.498 
0.498 0.333 0.627 0.459 
0.639 0.416 0.576 0.541 
0.667 0.416 0.678 0.667 
0.388 0.251 0.424 0.376 
0.333 0.169 0.459 0.376 
0.471 0.29 0.694 0.624 
0.471 0.584 0.592 0.624 
0.557 0.125 0.576 0.498 
0.333 0.208 0.51 0.498 
0.498 0.416 0.612 0.541 
0.196 0.125 0.388 0.376 
0.388 0.416 0.541 0.459 
0.529 0.376 0.561 0.498 
0.388 0.333 0.525 0.498 
0.557 0.541 0.847 1.0 
0.776 0.416 0.831 0.831 
0.612 0.416 0.812 0.875 
0.165 0.208 0.592 0.667 
0.667 0.208 0.812 0.71 
0.612 0.502 0.694 0.792 
0.694 0.416 0.761 0.831 
0.416 0.333 0.694 0.957 
0.612 0.416 0.761 0.71 
0.945 0.251 1.0 0.918 
0.722 0.502 0.796 0.918 
0.945 0.333 0.965 0.792 
0.667 0.541 0.796 0.831 
0.529 0.333 0.643 0.71 
0.584 0.333 0.78 0.831 
0.863 0.333 0.863 0.749 
0.584 0.333 0.78 0.875 
0.498 0.251 0.78 0.541 
0.557 0.584 0.78 0.957 
0.471 0.416 0.643 0.71 
0.667 0.459 0.78 0.957 
0.416 0.29 0.694 0.749 
0.667 0.541 0.796 1.0 
0.557 0.208 0.678 0.749 
0.529 0.584 0.745 0.918 
0.416 0.29 0.694 0.749 
0.557 0.376 0.78 0.71 
0.918 0.416 0.949 0.831 
0.835 0.376 0.898 0.71 
0.804 0.667 0.863 1.0 
0.584 0.29 0.729 0.749 
0.388 0.208 0.678 0.792 
0.584 0.502 0.729 0.918 
0.945 0.749 0.965 0.875 
0.471 0.082 0.678 0.584 
0.361 0.333 0.663 0.792 
0.557 0.29 0.663 0.71 
0.804 0.502 0.847 0.71 
0.498 0.416 0.51 0.71 
0.804 0.416 0.812 0.624 
1.0 0.749 0.914 0.792 
0.557 0.333 0.694 0.584 
0.945 0.416 0.863 0.918 
0.584 0.459 0.761 0.71 
0.722 0.459 0.745 0.831 
0.722 0.459 0.694 0.918 
0.694 0.502 0.831 0.918 
0.667 0.416 0.714 0.918 
0.612 0.416 0.714 0.792 
0.443 0.416 0.694 0.71 
Teaching Patterns
1.0 0.0 0.0 
1.0 0.0 0.0 
1.0 0.0 0.0 
1.0 0.0 0.0 
1.0 0.0 0.0 
1.0 0.0 0.0 
1.0 0.0 0.0 
1.0 0.0 0.0 
1.0 0.0 0.0 
1.0 0.0 0.0 
1.0 0.0 0.0 
1.0 0.0 0.0 
1.0 0.0 0.0 
1.0 0.0 0.0 
1.0 0.0 0.0 
1.0 0.0 0.0 
1.0 0.0 0.0 
1.0 0.0 0.0 
1.0 0.0 0.0 
1.0 0.0 0.0 
1.0 0.0 0.0 
1.0 0.0 0.0 
1.0 0.0 0.0 
1.0 0.0 0.0 
1.0 0.0 0.0 
1.0 0.0 0.0 
1.0 0.0 0.0 
1.0 0.0 0.0 
1.0 0.0 0.0 
1.0 0.0 0.0 
1.0 0.0 0.0 
1.0 0.0 0.0 
1.0 0.0 0.0 
1.0 0.0 0.0 
1.0 0.0 0.0 
1.0 0.0 0.0 
1.0 0.0 0.0 
1.0 0.0 0.0 
1.0 0.0 0.0 
1.0 0.0 0.0 
1.0 0.0 0.0 
1.0 0.0 0.0 
1.0 0.0 0.0 
1.0 0.0 0.0 
1.0 0.0 0.0 
1.0 0.0 0.0 
1.0 0.0 0.0 
1.0 0.0 0.0 
1.0 0.0 0.0 
1.0 0.0 0.0 
0.0 1.0 0.0 
0.0 1.0 0.0 
0.0 1.0 0.0 
0.0 1.0 0.0 
0.0 1.0 0.0 
0.0 1.0 0.0 
0.0 1.0 0.0 
0.0 1.0 0.0 
0.0 1.0 0.0 
0.0 1.0 0.0 
0.0 1.0 0.0 
0.0 1.0 0.0 
0.0 1.0 0.0 
0.0 1.0 0.0 
0.0 1.0 0.0 
0.0 1.0 0.0 
0.0 1.0 0.0 
0.0 1.0 0.0 
0.0 1.0 0.0 
0.0 1.0 0.0 
0.0 1.0 0.0 
0.0 1.0 0.0 
0.0 1.0 0.0 
0.0 1.0 0.0 
0.0 1.0 0.0 
0.0 1.0 0.0 
0.0 1.0 0.0 
0.0 1.0 0.0 
0.0 1.0 0.0 
0.0 1.0 0.0 
0.0 1.0 0.0 
0.0 1.0 0.0 
0.0 1.0 0.0 
0.0 1.0 0.0 
0.0 1.0 0.0 
0.0 1.0 0.0 
0.0 1.0 0.0 
0.0 1.0 0.0 
0.0 1.0 0.0 
0.0 1.0 0.0 
0.0 1.0 0.0 
0.0 1.0 0.0 
0.0 1.0 0.0 
0.0 1.0 0.0 
0.0 1.0 0.0 
0.0 1.0 0.0 
0.0 1.0 0.0 
0.0 1.0 0.0 
0.0 1.0 0.0 
0.0 1.0 0.0 
0.0 0.0 1.0 
0.0 0.0 1.0 
0.0 0.0 1.0 
0.0 0.0 1.0 
0.0 0.0 1.0 
0.0 0.0 1.0 
0.0 0.0 1.0 
0.0 0.0 1.0 
0.0 0.0 1.0 
0.0 0.0 1.0 
0.0 0.0 1.0 
0.0 0.0 1.0 
0.0 0.0 1.0 
0.0 0.0 1.0 
0.0 0.0 1.0 
0.0 0.0 1.0 
0.0 0.0 1.0 
0.0 0.0 1.0 
0.0 0.0 1.0 
0.0 0.0 1.0 
0.0 0.0 1.0 
0.0 0.0 1.0 
0.0 0.0 1.0 
0.0 0.0 1.0 
0.0 0.0 1.0 
0.0 0.0 1.0 
0.0 0.0 1.0 
0.0 0.0 1.0 
0.0 0.0 1.0 
0.0 0.0 1.0 
0.0 0.0 1.0 
0.0 0.0 1.0 
0.0 0.0 1.0 
0.0 0.0 1.0 
0.0 0.0 1.0 
0.0 0.0 1.0 
0.0 0.0 1.0 
0.0 0.0 1.0 
0.0 0.0 1.0 
0.0 0.0 1.0 
0.0 0.0 1.0 
0.0 0.0 1.0 
0.0 0.0 1.0 
0.0 0.0 1.0 
0.0 0.0 1.0 
0.0 0.0 1.0 
0.0 0.0 1.0 
0.0 0.0 1.0 
0.0 0.0 1.0 
0.0 0.0 1.0 
Learning : 0.05
Momentum : 0.4000000059604645
Epoch: 100, Error: 0.08448145066063946
Epoch: 200, Error: 0.026776542636421593
Epoch: 300, Error: 0.018664721671415963
Epoch: 400, Error: 0.01602643129631459
Epoch: 500, Error: 0.014897386161594578
Epoch: 600, Error: 0.014353154453424893
Epoch: 700, Error: 0.013977407683305416
Epoch: 800, Error: 0.01362186731678945
Epoch: 900, Error: 0.013367230025605463
Epoch: 1000, Error: 0.013340419768995216
Epoch: 1100, Error: 0.012912959843636966
Epoch: 1200, Error: 0.012790898021447013
Epoch: 1300, Error: 0.012686134518826735
Epoch: 1400, Error: 0.012582770811440306
Epoch: 1500, Error: 0.01243827162001484
Epoch: 1600, Error: 0.012379012475804158
Epoch: 1700, Error: 0.012324236772566425
Epoch: 1800, Error: 0.012251809658386504
Epoch: 1900, Error: 0.012185096449837533
Epoch: 2000, Error: 0.012147927666761154
Epoch: 2100, Error: 0.01218973264462913
Epoch: 2200, Error: 0.0121425083080457
Epoch: 2300, Error: 0.012059580549059513
Epoch: 2400, Error: 0.012090754678570346
Epoch: 2500, Error: 0.012054584931589292
Epoch: 2600, Error: 0.01204793707157102
Epoch: 2700, Error: 0.012036439250632944
Epoch: 2800, Error: 0.012004040446961099
Epoch: 2900, Error: 0.01198552245808971
Epoch: 3000, Error: 0.011969613818699798
Epoch: 3100, Error: 0.011961358745727667
Epoch: 3200, Error: 0.011925951982215119
Epoch: 3300, Error: 0.011916872417403405
Epoch: 3400, Error: 0.011941318806150666
Epoch: 3500, Error: 0.01186375752910057
Epoch: 3600, Error: 0.011877000881004513
Epoch: 3700, Error: 0.011946006767297884
Epoch: 3800, Error: 0.011876346834113616
Epoch: 3900, Error: 0.011841207352585046
Epoch: 4000, Error: 0.01185900469901301
Epoch: 4100, Error: 0.011897461642118587
Epoch: 4200, Error: 0.011890086250812448
Epoch: 4300, Error: 0.01191733173185298
Epoch: 4400, Error: 0.01184762139424619
Epoch: 4500, Error: 0.011887829127211667
Epoch: 4600, Error: 0.011843278899331474
Epoch: 4700, Error: 0.011790667328450138
Epoch: 4800, Error: 0.011784905508777222
Epoch: 4900, Error: 0.011785848293211288
Epoch: 5000, Error: 0.011819511900715144
Epoch: 5100, Error: 0.011762684225118078
Epoch: 5200, Error: 0.011782220752323717
Epoch: 5300, Error: 0.011771009300384883
Epoch: 5400, Error: 0.01177465285021614
Epoch: 5500, Error: 0.011833512187108302
Epoch: 5600, Error: 0.011738602384706979
Epoch: 5700, Error: 0.011727135232751318
Epoch: 5800, Error: 0.011723607284632986
Epoch: 5900, Error: 0.01172569822552225
Epoch: 6000, Error: 0.011815217158837616
Epoch: 6100, Error: 0.011779919599267757
Epoch: 6200, Error: 0.011709499947179411
Epoch: 6300, Error: 0.01179546304097999
Epoch: 6400, Error: 0.011723933860451063
Epoch: 6500, Error: 0.011788206738197644
Epoch: 6600, Error: 0.011731243529571425
Epoch: 6700, Error: 0.01167499856803414
Epoch: 6800, Error: 0.011751296039214175
Epoch: 6900, Error: 0.011678681142429682
Epoch: 7000, Error: 0.011634039554569429
Epoch: 7100, Error: 0.011643108967542178
Epoch: 7200, Error: 0.011633788921765762
Epoch: 7300, Error: 0.011629624584903788
Epoch: 7400, Error: 0.01162196843021495
Epoch: 7500, Error: 0.011668232306864977
Epoch: 7600, Error: 0.011589747860291537
Epoch: 7700, Error: 0.011605953114081984
Epoch: 7800, Error: 0.011622746735370898
Epoch: 7900, Error: 0.01160226808428691
Epoch: 8000, Error: 0.011601799031238522
Epoch: 8100, Error: 0.01165753911935299
Epoch: 8200, Error: 0.01158364967720126
Epoch: 8300, Error: 0.01159667570408785
Epoch: 8400, Error: 0.011584208007082424
Epoch: 8500, Error: 0.011571313671968937
Epoch: 8600, Error: 0.011570425033131949
Epoch: 8700, Error: 0.011574116258019948
Epoch: 8800, Error: 0.011514112228317714
Epoch: 8900, Error: 0.011553353854488448
Epoch: 9000, Error: 0.01155848091121305
Epoch: 9100, Error: 0.011528519257027577
Epoch: 9200, Error: 0.011557640362996929
Epoch: 9300, Error: 0.011507391711985806
Epoch: 9400, Error: 0.011528558101835297
Epoch: 9500, Error: 0.011545400411390811
Epoch: 9600, Error: 0.011513549078492703
Epoch: 9700, Error: 0.011509398490485425
Epoch: 9800, Error: 0.011522131401055555
Epoch: 9900, Error: 0.011521540015579404
Epoch: 10000, Error: 0.01151395570224354
Epoch: 10100, Error: 0.011527424709805292
Epoch: 10200, Error: 0.011532824240976234
Epoch: 10300, Error: 0.011521952991953785
Epoch: 10400, Error: 0.011517871103713506
Epoch: 10500, Error: 0.01153817596575215
Epoch: 10600, Error: 0.01155952309255555
Epoch: 10700, Error: 0.011558427066854738
Epoch: 10800, Error: 0.011530120564515625
Epoch: 10900, Error: 0.011558470872681385
Epoch: 11000, Error: 0.011581197090514
Epoch: 11100, Error: 0.011543264059556382
Epoch: 11200, Error: 0.011515910262203694
Epoch: 11300, Error: 0.011510626714212465
Epoch: 11400, Error: 0.011528974168546435
Epoch: 11500, Error: 0.011526164205354874
Epoch: 11600, Error: 0.011583064543205304
Epoch: 11700, Error: 0.011551841412949947
Epoch: 11800, Error: 0.011552600467635345
Epoch: 11900, Error: 0.011546510453494273
Finished
