Input Patterns
0.224 0.624 0.067 0.043 
0.11 0.502 0.051 0.043 
0.196 0.667 0.067 0.043 
0.055 0.584 0.067 0.082 
0.027 0.376 0.067 0.043 
0.306 0.71 0.086 0.043 
0.137 0.416 0.067 0.0 
0.416 0.831 0.035 0.043 
0.306 0.792 0.051 0.125 
0.388 0.749 0.118 0.082 
0.306 0.584 0.118 0.043 
0.082 0.667 0.0 0.043 
0.137 0.584 0.153 0.043 
0.196 0.584 0.102 0.125 
0.251 0.584 0.067 0.043 
0.137 0.459 0.102 0.043 
0.251 0.875 0.086 0.0 
0.165 0.459 0.086 0.043 
0.333 0.624 0.051 0.043 
0.027 0.416 0.051 0.043 
0.196 0.624 0.051 0.082 
0.027 0.502 0.051 0.043 
0.224 0.749 0.153 0.125 
0.224 0.749 0.102 0.043 
0.278 0.71 0.086 0.043 
0.165 0.416 0.067 0.043 
0.082 0.459 0.086 0.043 
0.306 0.792 0.118 0.125 
0.196 0.584 0.086 0.043 
0.165 0.459 0.086 0.0 
0.137 0.584 0.102 0.043 
0.0 0.416 0.016 0.0 
0.388 1.0 0.086 0.125 
0.224 0.624 0.067 0.082 
0.224 0.749 0.086 0.082 
0.224 0.71 0.086 0.125 
0.224 0.541 0.118 0.165 
0.196 0.416 0.102 0.043 
0.251 0.624 0.086 0.043 
0.11 0.502 0.102 0.043 
0.306 0.584 0.086 0.125 
0.333 0.918 0.067 0.043 
0.196 0.502 0.035 0.043 
0.165 0.667 0.067 0.0 
0.224 0.584 0.086 0.043 
0.055 0.125 0.051 0.082 
0.196 0.624 0.102 0.208 
0.137 0.416 0.067 0.082 
0.082 0.502 0.067 0.043 
0.196 0.541 0.067 0.043 
0.749 0.502 0.627 0.541 
0.722 0.459 0.663 0.584 
0.612 0.333 0.612 0.584 
0.557 0.541 0.627 0.624 
0.639 0.376 0.612 0.498 
0.196 0.0 0.424 0.376 
0.471 0.082 0.51 0.376 
0.361 0.376 0.439 0.498 
0.361 0.416 0.592 0.584 
0.529 0.082 0.592 0.584 
0.443 0.502 0.643 0.459 
0.557 0.208 0.663 0.584 
0.584 0.376 0.561 0.498 
0.694 0.333 0.643 0.541 
0.471 0.376 0.592 0.584 
0.333 0.169 0.475 0.416 
0.416 0.29 0.49 0.459 
0.306 0.416 0.592 0.584 
0.667 0.459 0.627 0.584 
0.361 0.416 0.525 0.498 
0.333 0.251 0.576 0.459 
0.416 0.251 0.51 0.459 
0.361 0.29 0.541 0.498 
0.388 0.376 0.541 0.498 
0.224 0.208 0.337 0.416 
0.584 0.502 0.592 0.584 
0.333 0.125 0.51 0.498 
0.388 0.333 0.592 0.498 
0.165 0.169 0.388 0.376 
0.251 0.29 0.49 0.541 
0.443 0.416 0.541 0.584 
0.498 0.376 0.627 0.541 
0.667 0.459 0.576 0.541 
0.416 0.29 0.525 0.376 
0.361 0.208 0.49 0.416 
0.498 0.333 0.51 0.498 
0.498 0.333 0.627 0.459 
0.639 0.416 0.576 0.541 
0.667 0.416 0.678 0.667 
0.388 0.251 0.424 0.376 
0.333 0.169 0.459 0.376 
0.471 0.29 0.694 0.624 
0.471 0.584 0.592 0.624 
0.557 0.125 0.576 0.498 
0.333 0.208 0.51 0.498 
0.498 0.416 0.612 0.541 
0.196 0.125 0.388 0.376 
0.388 0.416 0.541 0.459 
0.529 0.376 0.561 0.498 
0.388 0.333 0.525 0.498 
0.557 0.541 0.847 1.0 
0.776 0.416 0.831 0.831 
0.612 0.416 0.812 0.875 
0.165 0.208 0.592 0.667 
0.667 0.208 0.812 0.71 
0.612 0.502 0.694 0.792 
0.694 0.416 0.761 0.831 
0.416 0.333 0.694 0.957 
0.612 0.416 0.761 0.71 
0.945 0.251 1.0 0.918 
0.722 0.502 0.796 0.918 
0.945 0.333 0.965 0.792 
0.667 0.541 0.796 0.831 
0.529 0.333 0.643 0.71 
0.584 0.333 0.78 0.831 
0.863 0.333 0.863 0.749 
0.584 0.333 0.78 0.875 
0.498 0.251 0.78 0.541 
0.557 0.584 0.78 0.957 
0.471 0.416 0.643 0.71 
0.667 0.459 0.78 0.957 
0.416 0.29 0.694 0.749 
0.667 0.541 0.796 1.0 
0.557 0.208 0.678 0.749 
0.529 0.584 0.745 0.918 
0.416 0.29 0.694 0.749 
0.557 0.376 0.78 0.71 
0.918 0.416 0.949 0.831 
0.835 0.376 0.898 0.71 
0.804 0.667 0.863 1.0 
0.584 0.29 0.729 0.749 
0.388 0.208 0.678 0.792 
0.584 0.502 0.729 0.918 
0.945 0.749 0.965 0.875 
0.471 0.082 0.678 0.584 
0.361 0.333 0.663 0.792 
0.557 0.29 0.663 0.71 
0.804 0.502 0.847 0.71 
0.498 0.416 0.51 0.71 
0.804 0.416 0.812 0.624 
1.0 0.749 0.914 0.792 
0.557 0.333 0.694 0.584 
0.945 0.416 0.863 0.918 
0.584 0.459 0.761 0.71 
0.722 0.459 0.745 0.831 
0.722 0.459 0.694 0.918 
0.694 0.502 0.831 0.918 
0.667 0.416 0.714 0.918 
0.612 0.416 0.714 0.792 
0.443 0.416 0.694 0.71 
Teaching Patterns
1.0 0.0 0.0 
1.0 0.0 0.0 
1.0 0.0 0.0 
1.0 0.0 0.0 
1.0 0.0 0.0 
1.0 0.0 0.0 
1.0 0.0 0.0 
1.0 0.0 0.0 
1.0 0.0 0.0 
1.0 0.0 0.0 
1.0 0.0 0.0 
1.0 0.0 0.0 
1.0 0.0 0.0 
1.0 0.0 0.0 
1.0 0.0 0.0 
1.0 0.0 0.0 
1.0 0.0 0.0 
1.0 0.0 0.0 
1.0 0.0 0.0 
1.0 0.0 0.0 
1.0 0.0 0.0 
1.0 0.0 0.0 
1.0 0.0 0.0 
1.0 0.0 0.0 
1.0 0.0 0.0 
1.0 0.0 0.0 
1.0 0.0 0.0 
1.0 0.0 0.0 
1.0 0.0 0.0 
1.0 0.0 0.0 
1.0 0.0 0.0 
1.0 0.0 0.0 
1.0 0.0 0.0 
1.0 0.0 0.0 
1.0 0.0 0.0 
1.0 0.0 0.0 
1.0 0.0 0.0 
1.0 0.0 0.0 
1.0 0.0 0.0 
1.0 0.0 0.0 
1.0 0.0 0.0 
1.0 0.0 0.0 
1.0 0.0 0.0 
1.0 0.0 0.0 
1.0 0.0 0.0 
1.0 0.0 0.0 
1.0 0.0 0.0 
1.0 0.0 0.0 
1.0 0.0 0.0 
1.0 0.0 0.0 
0.0 1.0 0.0 
0.0 1.0 0.0 
0.0 1.0 0.0 
0.0 1.0 0.0 
0.0 1.0 0.0 
0.0 1.0 0.0 
0.0 1.0 0.0 
0.0 1.0 0.0 
0.0 1.0 0.0 
0.0 1.0 0.0 
0.0 1.0 0.0 
0.0 1.0 0.0 
0.0 1.0 0.0 
0.0 1.0 0.0 
0.0 1.0 0.0 
0.0 1.0 0.0 
0.0 1.0 0.0 
0.0 1.0 0.0 
0.0 1.0 0.0 
0.0 1.0 0.0 
0.0 1.0 0.0 
0.0 1.0 0.0 
0.0 1.0 0.0 
0.0 1.0 0.0 
0.0 1.0 0.0 
0.0 1.0 0.0 
0.0 1.0 0.0 
0.0 1.0 0.0 
0.0 1.0 0.0 
0.0 1.0 0.0 
0.0 1.0 0.0 
0.0 1.0 0.0 
0.0 1.0 0.0 
0.0 1.0 0.0 
0.0 1.0 0.0 
0.0 1.0 0.0 
0.0 1.0 0.0 
0.0 1.0 0.0 
0.0 1.0 0.0 
0.0 1.0 0.0 
0.0 1.0 0.0 
0.0 1.0 0.0 
0.0 1.0 0.0 
0.0 1.0 0.0 
0.0 1.0 0.0 
0.0 1.0 0.0 
0.0 1.0 0.0 
0.0 1.0 0.0 
0.0 1.0 0.0 
0.0 1.0 0.0 
0.0 0.0 1.0 
0.0 0.0 1.0 
0.0 0.0 1.0 
0.0 0.0 1.0 
0.0 0.0 1.0 
0.0 0.0 1.0 
0.0 0.0 1.0 
0.0 0.0 1.0 
0.0 0.0 1.0 
0.0 0.0 1.0 
0.0 0.0 1.0 
0.0 0.0 1.0 
0.0 0.0 1.0 
0.0 0.0 1.0 
0.0 0.0 1.0 
0.0 0.0 1.0 
0.0 0.0 1.0 
0.0 0.0 1.0 
0.0 0.0 1.0 
0.0 0.0 1.0 
0.0 0.0 1.0 
0.0 0.0 1.0 
0.0 0.0 1.0 
0.0 0.0 1.0 
0.0 0.0 1.0 
0.0 0.0 1.0 
0.0 0.0 1.0 
0.0 0.0 1.0 
0.0 0.0 1.0 
0.0 0.0 1.0 
0.0 0.0 1.0 
0.0 0.0 1.0 
0.0 0.0 1.0 
0.0 0.0 1.0 
0.0 0.0 1.0 
0.0 0.0 1.0 
0.0 0.0 1.0 
0.0 0.0 1.0 
0.0 0.0 1.0 
0.0 0.0 1.0 
0.0 0.0 1.0 
0.0 0.0 1.0 
0.0 0.0 1.0 
0.0 0.0 1.0 
0.0 0.0 1.0 
0.0 0.0 1.0 
0.0 0.0 1.0 
0.0 0.0 1.0 
0.0 0.0 1.0 
0.0 0.0 1.0 
Learning : 0.05
Momentum : 0.4000000059604645
Epoch: 100, Error: 0.06458939160265376
Epoch: 200, Error: 0.023894947319190944
Epoch: 300, Error: 0.0178166967527158
Epoch: 400, Error: 0.015791565430587438
Epoch: 500, Error: 0.014867522328385731
Epoch: 600, Error: 0.014235347267930054
Epoch: 700, Error: 0.013794172778259967
Epoch: 800, Error: 0.01340040201692878
Epoch: 900, Error: 0.013140712365030033
Epoch: 1000, Error: 0.013042535634539946
Epoch: 1100, Error: 0.012830434712879854
Epoch: 1200, Error: 0.012695565138704382
Epoch: 1300, Error: 0.012648149891268296
Epoch: 1400, Error: 0.012673962806488111
Epoch: 1500, Error: 0.012466469453946626
Epoch: 1600, Error: 0.012500320971271215
Epoch: 1700, Error: 0.012365908586959802
Epoch: 1800, Error: 0.012320288309251984
Epoch: 1900, Error: 0.01254380911023338
Epoch: 2000, Error: 0.01244373013255006
Epoch: 2100, Error: 0.012223772281998696
Epoch: 2200, Error: 0.012269740111381756
Epoch: 2300, Error: 0.012205261511010014
Epoch: 2400, Error: 0.012171975335868323
Epoch: 2500, Error: 0.012177513624519975
Epoch: 2600, Error: 0.012155173332783353
Epoch: 2700, Error: 0.012165762436681365
Epoch: 2800, Error: 0.012142231187635116
Epoch: 2900, Error: 0.012124048533408942
Epoch: 3000, Error: 0.012143136898616303
Epoch: 3100, Error: 0.012115755941329454
Epoch: 3200, Error: 0.012172108402505506
Epoch: 3300, Error: 0.012110268244493709
Epoch: 3400, Error: 0.012153562171477556
Epoch: 3500, Error: 0.012159238824174547
Epoch: 3600, Error: 0.012209982331793375
Epoch: 3700, Error: 0.012243421036216375
Epoch: 3800, Error: 0.012183747432651576
Epoch: 3900, Error: 0.012314159785660613
Epoch: 4000, Error: 0.012243835735470809
Epoch: 4100, Error: 0.012291499225213626
Epoch: 4200, Error: 0.012289124134099891
Epoch: 4300, Error: 0.0123280027029295
Epoch: 4400, Error: 0.01239018613188051
Epoch: 4500, Error: 0.012456996093481646
Epoch: 4600, Error: 0.012541496309335385
Epoch: 4700, Error: 0.012444999345726335
Epoch: 4800, Error: 0.01243696563403152
Epoch: 4900, Error: 0.012380429555853372
Epoch: 5000, Error: 0.012358618547499192
Epoch: 5100, Error: 0.012283499730828618
Epoch: 5200, Error: 0.012289333361061838
Epoch: 5300, Error: 0.012268271600668717
Epoch: 5400, Error: 0.012247132411345618
Epoch: 5500, Error: 0.012229001510277187
Epoch: 5600, Error: 0.012188752004095398
Epoch: 5700, Error: 0.012162604541183944
Epoch: 5800, Error: 0.01214937925197287
Epoch: 5900, Error: 0.012136332667909061
Epoch: 6000, Error: 0.01214418738848899
Epoch: 6100, Error: 0.012120488584603347
Epoch: 6200, Error: 0.012126821916128233
Epoch: 6300, Error: 0.012106164920532863
Epoch: 6400, Error: 0.01206883716093151
Epoch: 6500, Error: 0.012068785688469493
Epoch: 6600, Error: 0.01202563935808101
Epoch: 6700, Error: 0.012114179623090115
Epoch: 6800, Error: 0.012017437788725441
Epoch: 6900, Error: 0.012007635528475766
Epoch: 7000, Error: 0.011968668344380406
Epoch: 7100, Error: 0.011975233869437238
Epoch: 7200, Error: 0.01198090665539799
Epoch: 7300, Error: 0.011948760380962216
Epoch: 7400, Error: 0.01195327793702533
Epoch: 7500, Error: 0.01193369167485094
Epoch: 7600, Error: 0.011955805853949683
Epoch: 7700, Error: 0.011952083863087186
Epoch: 7800, Error: 0.011933870967663166
Epoch: 7900, Error: 0.01190090003852457
Epoch: 8000, Error: 0.011877894294463995
Epoch: 8100, Error: 0.011866754818541665
Epoch: 8200, Error: 0.011878852115761581
Epoch: 8300, Error: 0.011852870904557373
Epoch: 8400, Error: 0.011842869040499197
Epoch: 8500, Error: 0.01181206167196699
Epoch: 8600, Error: 0.011803632053595475
Epoch: 8700, Error: 0.01179696623862651
Epoch: 8800, Error: 0.011807211676910097
Epoch: 8900, Error: 0.011782728494987208
Epoch: 9000, Error: 0.011830727361107627
Epoch: 9100, Error: 0.011737808418210045
Epoch: 9200, Error: 0.011739986552962819
Epoch: 9300, Error: 0.011758481240771595
Epoch: 9400, Error: 0.01170733042585364
Epoch: 9500, Error: 0.011713313661432962
Epoch: 9600, Error: 0.011732999184211671
Epoch: 9700, Error: 0.01167292447550981
Epoch: 9800, Error: 0.011659618183184037
Epoch: 9900, Error: 0.011651875801256458
Epoch: 10000, Error: 0.0116885853581223
Epoch: 10100, Error: 0.011638706962338676
Epoch: 10200, Error: 0.011658871850515364
Epoch: 10300, Error: 0.01165012372384247
Epoch: 10400, Error: 0.011589435843326473
Epoch: 10500, Error: 0.011589414554349184
Epoch: 10600, Error: 0.011551120173812601
Epoch: 10700, Error: 0.011544910072195644
Epoch: 10800, Error: 0.011516419303871905
Epoch: 10900, Error: 0.011564682061892305
Epoch: 11000, Error: 0.011489881949484766
Epoch: 11100, Error: 0.011470322964630396
Epoch: 11200, Error: 0.011449916365835984
Epoch: 11300, Error: 0.011446268435781113
Epoch: 11400, Error: 0.011447002228304365
Epoch: 11500, Error: 0.011405584845947763
Epoch: 11600, Error: 0.011386564433949909
Epoch: 11700, Error: 0.01137546578234357
Epoch: 11800, Error: 0.011347924722559183
Epoch: 11900, Error: 0.011344778485575377
Epoch: 12000, Error: 0.011278289700864304
Epoch: 12100, Error: 0.01125630116263144
Epoch: 12200, Error: 0.011243539856884347
Epoch: 12300, Error: 0.01120125381942643
Epoch: 12400, Error: 0.011169871817983273
Epoch: 12500, Error: 0.011142922883883159
Epoch: 12600, Error: 0.011168028226320539
Epoch: 12700, Error: 0.011060567741559918
Epoch: 12800, Error: 0.011054908711375133
Epoch: 12900, Error: 0.010993460779859134
Epoch: 13000, Error: 0.01095151670777164
Epoch: 13100, Error: 0.010885587364554907
Epoch: 13200, Error: 0.010876681896074412
Epoch: 13300, Error: 0.010839571862669732
Epoch: 13400, Error: 0.010762167427206065
Epoch: 13500, Error: 0.010692577007159114
Epoch: 13600, Error: 0.01063589810612915
Epoch: 13700, Error: 0.010575926596530207
Epoch: 13800, Error: 0.010505307798253765
Epoch: 13900, Error: 0.010509293960252125
Epoch: 14000, Error: 0.010374986336649952
Epoch: 14100, Error: 0.010309104205582965
Epoch: 14200, Error: 0.01022250448794307
Epoch: 14300, Error: 0.010156675526205581
Epoch: 14400, Error: 0.010108824238089903
Epoch: 14500, Error: 0.0099948536572025
Epoch: 14600, Error: 0.009937767648135611
Epoch: 14700, Error: 0.009840892496443668
Epoch: 14800, Error: 0.009731861963589142
Epoch: 14900, Error: 0.009624813190034427
Epoch: 15000, Error: 0.00954629173896191
Epoch: 15100, Error: 0.00946175785116501
Epoch: 15200, Error: 0.00934515612932746
Epoch: 15300, Error: 0.00922669597372748
Epoch: 15400, Error: 0.009125984608710468
Epoch: 15500, Error: 0.009057876667125918
Epoch: 15600, Error: 0.008946010912582432
Epoch: 15700, Error: 0.00886165468760307
Epoch: 15800, Error: 0.008777387439891178
Epoch: 15900, Error: 0.008696539359637177
Epoch: 16000, Error: 0.008600236965209241
Epoch: 16100, Error: 0.008535437081372539
Epoch: 16200, Error: 0.008442662042019773
Epoch: 16300, Error: 0.008334361058762724
Epoch: 16400, Error: 0.008259019109026494
Epoch: 16500, Error: 0.008177739800143672
Epoch: 16600, Error: 0.008116125857591826
Epoch: 16700, Error: 0.008038127766902376
Epoch: 16800, Error: 0.007976581033660305
Epoch: 16900, Error: 0.007907482143924182
Epoch: 17000, Error: 0.007871947301461674
Epoch: 17100, Error: 0.007767107969429651
Epoch: 17200, Error: 0.007707577219630325
Epoch: 17300, Error: 0.0076268605312154285
Epoch: 17400, Error: 0.007562828504571249
Epoch: 17500, Error: 0.007486643965274677
Epoch: 17600, Error: 0.0074295470273736145
Epoch: 17700, Error: 0.007382234194254821
Epoch: 17800, Error: 0.007345485781653375
Epoch: 17900, Error: 0.007266265299905463
Epoch: 18000, Error: 0.007239153595577592
Epoch: 18100, Error: 0.007165701065718939
Epoch: 18200, Error: 0.007081337451538864
Epoch: 18300, Error: 0.007027914901919078
Epoch: 18400, Error: 0.006970190029199442
Epoch: 18500, Error: 0.0069274521698036405
Epoch: 18600, Error: 0.00688871239641481
Epoch: 18700, Error: 0.006850938494064565
Epoch: 18800, Error: 0.00682493630782744
Epoch: 18900, Error: 0.006783981307174577
Epoch: 19000, Error: 0.006758409268595297
Epoch: 19100, Error: 0.006703991874918824
Epoch: 19200, Error: 0.006709102920780686
Epoch: 19300, Error: 0.006652635285515402
Epoch: 19400, Error: 0.006622324574216514
Epoch: 19500, Error: 0.006610736677917676
Epoch: 19600, Error: 0.006568260083665331
Epoch: 19700, Error: 0.006549931990021721
Epoch: 19800, Error: 0.006525879091728328
Epoch: 19900, Error: 0.006511736152826782
Epoch: 20000, Error: 0.006497157532353109
Epoch: 20100, Error: 0.006456216979578708
Epoch: 20200, Error: 0.006439436185192013
Epoch: 20300, Error: 0.006417232651251022
Epoch: 20400, Error: 0.006386300040146284
Epoch: 20500, Error: 0.006375810872603943
Epoch: 20600, Error: 0.006395511145117035
Epoch: 20700, Error: 0.006364419309901702
Epoch: 20800, Error: 0.00631546804727029
Epoch: 20900, Error: 0.006285797261356787
Epoch: 21000, Error: 0.006272147696285661
Epoch: 21100, Error: 0.0062475252929213715
Epoch: 21200, Error: 0.006231349176988369
Epoch: 21300, Error: 0.006211878269803237
Epoch: 21400, Error: 0.00621156419977004
Epoch: 21500, Error: 0.006175144184639228
Epoch: 21600, Error: 0.006169581993818705
Epoch: 21700, Error: 0.00613233337410454
Epoch: 21800, Error: 0.006132347991154001
Epoch: 21900, Error: 0.0061062295472214265
Epoch: 22000, Error: 0.006079265475130789
Epoch: 22100, Error: 0.00606578955950627
Epoch: 22200, Error: 0.006049411330827366
Epoch: 22300, Error: 0.006042343048851012
Epoch: 22400, Error: 0.006015680248739651
Epoch: 22500, Error: 0.005997352485072671
Epoch: 22600, Error: 0.006006216934483668
Epoch: 22700, Error: 0.005965793583007992
Epoch: 22800, Error: 0.005966924510080751
Epoch: 22900, Error: 0.005951878398626428
Epoch: 23000, Error: 0.005922015549051783
Epoch: 23100, Error: 0.005917598174137341
Epoch: 23200, Error: 0.005913826152937903
Epoch: 23300, Error: 0.005899673352457459
Epoch: 23400, Error: 0.005869341421318407
Epoch: 23500, Error: 0.005823156435398587
Epoch: 23600, Error: 0.005824385990590494
Epoch: 23700, Error: 0.0057557275732183
Epoch: 23800, Error: 0.005728251473784654
Epoch: 23900, Error: 0.00568735812927507
Epoch: 24000, Error: 0.0057210388005400955
Epoch: 24100, Error: 0.005689328445345531
Epoch: 24200, Error: 0.005657048147122564
Epoch: 24300, Error: 0.005629613231974353
Epoch: 24400, Error: 0.005618400318635599
Epoch: 24500, Error: 0.005617469102266472
Epoch: 24600, Error: 0.005589837550035978
Epoch: 24700, Error: 0.005585806901286863
Epoch: 24800, Error: 0.005547455375788926
Epoch: 24900, Error: 0.005522430842975246
Epoch: 25000, Error: 0.005601955912742565
Epoch: 25100, Error: 0.005584260465393916
Epoch: 25200, Error: 0.005604916844300501
Epoch: 25300, Error: 0.005615247187376019
Epoch: 25400, Error: 0.005582543638501567
Epoch: 25500, Error: 0.00558565490739507
Epoch: 25600, Error: 0.005581049017009848
Epoch: 25700, Error: 0.005554787987320599
Epoch: 25800, Error: 0.0055690558170450235
Epoch: 25900, Error: 0.005541887830275419
Epoch: 26000, Error: 0.005538538194853128
Epoch: 26100, Error: 0.005520340604730696
Epoch: 26200, Error: 0.0055074267133789845
Epoch: 26300, Error: 0.005487432136309888
Epoch: 26400, Error: 0.005476549021283134
Epoch: 26500, Error: 0.0054760862105901744
Epoch: 26600, Error: 0.005473509169325127
Epoch: 26700, Error: 0.005447729489446508
Epoch: 26800, Error: 0.005449107768934773
Epoch: 26900, Error: 0.0054555622408802105
Epoch: 27000, Error: 0.005405340283967889
Epoch: 27100, Error: 0.005341800638238891
Epoch: 27200, Error: 0.00532021658515743
Epoch: 27300, Error: 0.005292051754426721
Epoch: 27400, Error: 0.005274865352581795
Epoch: 27500, Error: 0.005243773415589696
Epoch: 27600, Error: 0.00525642601733702
Epoch: 27700, Error: 0.0051956736074997715
Epoch: 27800, Error: 0.005166239502970843
Epoch: 27900, Error: 0.005142672090895173
Epoch: 28000, Error: 0.005119718438119097
Epoch: 28100, Error: 0.005089074156548577
Epoch: 28200, Error: 0.00506174985672896
Epoch: 28300, Error: 0.005047859081946961
Epoch: 28400, Error: 0.005007756043492666
Epoch: 28500, Error: 0.00498116553265755
Epoch: 28600, Error: 0.00497448897510706
Epoch: 28700, Error: 0.004926610381313306
Epoch: 28800, Error: 0.004941736847334666
Epoch: 28900, Error: 0.004883641300467948
Epoch: 29000, Error: 0.004879618426441511
Epoch: 29100, Error: 0.004837035051578348
Epoch: 29200, Error: 0.0048175724817733434
Epoch: 29300, Error: 0.004785893132547288
Epoch: 29400, Error: 0.004747838167620979
Epoch: 29500, Error: 0.004727279374765928
Epoch: 29600, Error: 0.004692036181945456
Epoch: 29700, Error: 0.0046670593706879746
Epoch: 29800, Error: 0.00464399179234881
Epoch: 29900, Error: 0.00463984082050226
Epoch: 30000, Error: 0.004607449544940698
Epoch: 30100, Error: 0.004566699540390396
Epoch: 30200, Error: 0.0045227421301245576
Epoch: 30300, Error: 0.004497186916802385
Epoch: 30400, Error: 0.004464857008634737
Epoch: 30500, Error: 0.004518233960279961
Epoch: 30600, Error: 0.004423950459990506
Epoch: 30700, Error: 0.00439219300625021
Epoch: 30800, Error: 0.004364254633044672
Epoch: 30900, Error: 0.004343276468752867
Epoch: 31000, Error: 0.004364218678648673
Epoch: 31100, Error: 0.00428404830574354
Epoch: 31200, Error: 0.0042494997322780476
Epoch: 31300, Error: 0.00424915493504023
Epoch: 31400, Error: 0.004193238208008633
Epoch: 31500, Error: 0.004195635844896092
Epoch: 31600, Error: 0.00414472578279532
Epoch: 31700, Error: 0.004140049529625086
Epoch: 31800, Error: 0.004093140164982894
Epoch: 31900, Error: 0.004076525820971876
Epoch: 32000, Error: 0.0040568964960643866
Epoch: 32100, Error: 0.004024773223752144
Epoch: 32200, Error: 0.00398742202660849
Epoch: 32300, Error: 0.003995473690331978
Epoch: 32400, Error: 0.003933222144994496
Epoch: 32500, Error: 0.003932633746002044
Epoch: 32600, Error: 0.003882512295741802
Epoch: 32700, Error: 0.003849889681449486
Epoch: 32800, Error: 0.0038590489906161532
Epoch: 32900, Error: 0.0038031304576818673
Epoch: 33000, Error: 0.0037653382672671234
Epoch: 33100, Error: 0.003726747715015814
Epoch: 33200, Error: 0.003710258699633072
Epoch: 33300, Error: 0.0036768889194129036
Epoch: 33400, Error: 0.0037416782022605417
Epoch: 33500, Error: 0.003658261068052256
Epoch: 33600, Error: 0.0036168740603205072
Epoch: 33700, Error: 0.0035689507626265856
Epoch: 33800, Error: 0.00354002950750831
Epoch: 33900, Error: 0.003505365759511127
Epoch: 34000, Error: 0.0034783051989112027
Epoch: 34100, Error: 0.003470850831359211
Epoch: 34200, Error: 0.0034287031964894735
Epoch: 34300, Error: 0.0033970710968420177
Epoch: 34400, Error: 0.003370904344105265
Epoch: 34500, Error: 0.0033806206804102333
Epoch: 34600, Error: 0.003372869312502683
Epoch: 34700, Error: 0.0032860867653870226
Epoch: 34800, Error: 0.0032585409412306766
Epoch: 34900, Error: 0.0032669017245563936
Epoch: 35000, Error: 0.0032404705525825466
Epoch: 35100, Error: 0.0032003771818528916
Epoch: 35200, Error: 0.0031747179411835383
Epoch: 35300, Error: 0.00316088945613388
Epoch: 35400, Error: 0.0032132886065662377
Epoch: 35500, Error: 0.003084521703388855
Epoch: 35600, Error: 0.0030624268119448673
Epoch: 35700, Error: 0.003023343464158677
Epoch: 35800, Error: 0.0029967598903584396
Epoch: 35900, Error: 0.0029938143013141408
Epoch: 36000, Error: 0.0029453193956541688
Epoch: 36100, Error: 0.00292468492056409
Epoch: 36200, Error: 0.00300388594176296
Epoch: 36300, Error: 0.002875273145606326
Epoch: 36400, Error: 0.0028596680001591853
Epoch: 36500, Error: 0.0028759166105778292
Epoch: 36600, Error: 0.0028198547421871842
Epoch: 36700, Error: 0.002802258262573868
Epoch: 36800, Error: 0.002764393969114668
Epoch: 36900, Error: 0.002761514184798539
Epoch: 37000, Error: 0.0027332195172794613
Epoch: 37100, Error: 0.0027713304640482063
Epoch: 37200, Error: 0.0026995606630068145
Epoch: 37300, Error: 0.002689383533299939
Epoch: 37400, Error: 0.002652303852952364
Epoch: 37500, Error: 0.0026251601566173103
Epoch: 37600, Error: 0.0026101916468703953
Epoch: 37700, Error: 0.002577519495342189
Epoch: 37800, Error: 0.0025565399594117515
Epoch: 37900, Error: 0.0026037474183429185
Epoch: 38000, Error: 0.002518526016983542
Epoch: 38100, Error: 0.0024948251056555186
Epoch: 38200, Error: 0.002474344594804379
Epoch: 38300, Error: 0.0024770552684303367
Epoch: 38400, Error: 0.0024737335843831735
Epoch: 38500, Error: 0.002420376512890442
Epoch: 38600, Error: 0.002469550918736914
Epoch: 38700, Error: 0.002499162392992709
Epoch: 38800, Error: 0.002362724032294964
Epoch: 38900, Error: 0.002371951512205473
Epoch: 39000, Error: 0.0023294310413179533
Epoch: 39100, Error: 0.0023475664384788398
Epoch: 39200, Error: 0.002325822008138348
Epoch: 39300, Error: 0.0023115498006443555
Epoch: 39400, Error: 0.0022762145983724986
Epoch: 39500, Error: 0.002228134542041935
Epoch: 39600, Error: 0.0022140182368036217
Epoch: 39700, Error: 0.0021859569327615388
Epoch: 39800, Error: 0.002167893627673941
Epoch: 39900, Error: 0.002204176384742608
Epoch: 40000, Error: 0.002155732270932177
Epoch: 40100, Error: 0.0021673110506041553
Epoch: 40200, Error: 0.0021102857586937787
Epoch: 40300, Error: 0.0020913492408045913
Epoch: 40400, Error: 0.0020674396666618884
Epoch: 40500, Error: 0.0020757653199977633
Epoch: 40600, Error: 0.002050868120236811
Epoch: 40700, Error: 0.0020157118386764645
Epoch: 40800, Error: 0.0020147814884229876
Epoch: 40900, Error: 0.002002032005854561
Epoch: 41000, Error: 0.001996897568159779
Epoch: 41100, Error: 0.0019499699418870568
Epoch: 41200, Error: 0.0019317314732499426
Epoch: 41300, Error: 0.001929091038680642
Epoch: 41400, Error: 0.001961836892528143
Epoch: 41500, Error: 0.0019197427577694903
Epoch: 41600, Error: 0.0018728314629308533
Epoch: 41700, Error: 0.0018571483918407268
Epoch: 41800, Error: 0.0018493579764482188
Epoch: 41900, Error: 0.0018253992530115842
Epoch: 42000, Error: 0.0018088480224277416
Epoch: 42100, Error: 0.001793020332032434
Epoch: 42200, Error: 0.001800897957615141
Epoch: 42300, Error: 0.001780209836403897
Epoch: 42400, Error: 0.0017632095071632118
Epoch: 42500, Error: 0.0017786550478280441
Epoch: 42600, Error: 0.0017693322095445028
Epoch: 42700, Error: 0.001737382185001586
Epoch: 42800, Error: 0.0017097053219872185
Epoch: 42900, Error: 0.0017005146996838007
Epoch: 43000, Error: 0.001706486792968898
Epoch: 43100, Error: 0.0016742702945139905
Epoch: 43200, Error: 0.0016641953361459154
Epoch: 43300, Error: 0.001663975197539777
Epoch: 43400, Error: 0.0016858193326999523
Epoch: 43500, Error: 0.0016333519296903626
Epoch: 43600, Error: 0.00162212430316662
Epoch: 43700, Error: 0.0016533992301928236
Epoch: 43800, Error: 0.001628158888050832
Epoch: 43900, Error: 0.001609728968817741
Epoch: 44000, Error: 0.001584715952491419
Epoch: 44100, Error: 0.0016136860202872697
Epoch: 44200, Error: 0.0015671169768862521
Epoch: 44300, Error: 0.001576227398735059
Epoch: 44400, Error: 0.001649716046440925
Epoch: 44500, Error: 0.0015654461337663377
Epoch: 44600, Error: 0.0015299263600934015
Epoch: 44700, Error: 0.0015595602937890092
Epoch: 44800, Error: 0.0015273101769710763
Epoch: 44900, Error: 0.0015462681039228633
Epoch: 45000, Error: 0.001495482550422837
Epoch: 45100, Error: 0.001489946824001294
Epoch: 45200, Error: 0.0014829263818534088
Epoch: 45300, Error: 0.0014909421654192535
Epoch: 45400, Error: 0.0014630970996954286
Epoch: 45500, Error: 0.0014585067037350941
Epoch: 45600, Error: 0.0014835028560234303
Epoch: 45700, Error: 0.0014363110344092253
Epoch: 45800, Error: 0.0014621993713548553
Epoch: 45900, Error: 0.001420399806290247
Finished
