Input Patterns
0.224 0.624 0.067 0.043 
0.11 0.502 0.051 0.043 
0.196 0.667 0.067 0.043 
0.055 0.584 0.067 0.082 
0.027 0.376 0.067 0.043 
0.306 0.71 0.086 0.043 
0.137 0.416 0.067 0.0 
0.416 0.831 0.035 0.043 
0.306 0.792 0.051 0.125 
0.388 0.749 0.118 0.082 
0.306 0.584 0.118 0.043 
0.082 0.667 0.0 0.043 
0.137 0.584 0.153 0.043 
0.196 0.584 0.102 0.125 
0.251 0.584 0.067 0.043 
0.137 0.459 0.102 0.043 
0.251 0.875 0.086 0.0 
0.165 0.459 0.086 0.043 
0.333 0.624 0.051 0.043 
0.027 0.416 0.051 0.043 
0.196 0.624 0.051 0.082 
0.027 0.502 0.051 0.043 
0.224 0.749 0.153 0.125 
0.224 0.749 0.102 0.043 
0.278 0.71 0.086 0.043 
0.165 0.416 0.067 0.043 
0.082 0.459 0.086 0.043 
0.306 0.792 0.118 0.125 
0.196 0.584 0.086 0.043 
0.165 0.459 0.086 0.0 
0.137 0.584 0.102 0.043 
0.0 0.416 0.016 0.0 
0.388 1.0 0.086 0.125 
0.224 0.624 0.067 0.082 
0.224 0.749 0.086 0.082 
0.224 0.71 0.086 0.125 
0.224 0.541 0.118 0.165 
0.196 0.416 0.102 0.043 
0.251 0.624 0.086 0.043 
0.11 0.502 0.102 0.043 
0.306 0.584 0.086 0.125 
0.333 0.918 0.067 0.043 
0.196 0.502 0.035 0.043 
0.165 0.667 0.067 0.0 
0.224 0.584 0.086 0.043 
0.055 0.125 0.051 0.082 
0.196 0.624 0.102 0.208 
0.137 0.416 0.067 0.082 
0.082 0.502 0.067 0.043 
0.196 0.541 0.067 0.043 
0.749 0.502 0.627 0.541 
0.722 0.459 0.663 0.584 
0.612 0.333 0.612 0.584 
0.557 0.541 0.627 0.624 
0.639 0.376 0.612 0.498 
0.196 0.0 0.424 0.376 
0.471 0.082 0.51 0.376 
0.361 0.376 0.439 0.498 
0.361 0.416 0.592 0.584 
0.529 0.082 0.592 0.584 
0.443 0.502 0.643 0.459 
0.557 0.208 0.663 0.584 
0.584 0.376 0.561 0.498 
0.694 0.333 0.643 0.541 
0.471 0.376 0.592 0.584 
0.333 0.169 0.475 0.416 
0.416 0.29 0.49 0.459 
0.306 0.416 0.592 0.584 
0.667 0.459 0.627 0.584 
0.361 0.416 0.525 0.498 
0.333 0.251 0.576 0.459 
0.416 0.251 0.51 0.459 
0.361 0.29 0.541 0.498 
0.388 0.376 0.541 0.498 
0.224 0.208 0.337 0.416 
0.584 0.502 0.592 0.584 
0.333 0.125 0.51 0.498 
0.388 0.333 0.592 0.498 
0.165 0.169 0.388 0.376 
0.251 0.29 0.49 0.541 
0.443 0.416 0.541 0.584 
0.498 0.376 0.627 0.541 
0.667 0.459 0.576 0.541 
0.416 0.29 0.525 0.376 
0.361 0.208 0.49 0.416 
0.498 0.333 0.51 0.498 
0.498 0.333 0.627 0.459 
0.639 0.416 0.576 0.541 
0.667 0.416 0.678 0.667 
0.388 0.251 0.424 0.376 
0.333 0.169 0.459 0.376 
0.471 0.29 0.694 0.624 
0.471 0.584 0.592 0.624 
0.557 0.125 0.576 0.498 
0.333 0.208 0.51 0.498 
0.498 0.416 0.612 0.541 
0.196 0.125 0.388 0.376 
0.388 0.416 0.541 0.459 
0.529 0.376 0.561 0.498 
0.388 0.333 0.525 0.498 
0.557 0.541 0.847 1.0 
0.776 0.416 0.831 0.831 
0.612 0.416 0.812 0.875 
0.165 0.208 0.592 0.667 
0.667 0.208 0.812 0.71 
0.612 0.502 0.694 0.792 
0.694 0.416 0.761 0.831 
0.416 0.333 0.694 0.957 
0.612 0.416 0.761 0.71 
0.945 0.251 1.0 0.918 
0.722 0.502 0.796 0.918 
0.945 0.333 0.965 0.792 
0.667 0.541 0.796 0.831 
0.529 0.333 0.643 0.71 
0.584 0.333 0.78 0.831 
0.863 0.333 0.863 0.749 
0.584 0.333 0.78 0.875 
0.498 0.251 0.78 0.541 
0.557 0.584 0.78 0.957 
0.471 0.416 0.643 0.71 
0.667 0.459 0.78 0.957 
0.416 0.29 0.694 0.749 
0.667 0.541 0.796 1.0 
0.557 0.208 0.678 0.749 
0.529 0.584 0.745 0.918 
0.416 0.29 0.694 0.749 
0.557 0.376 0.78 0.71 
0.918 0.416 0.949 0.831 
0.835 0.376 0.898 0.71 
0.804 0.667 0.863 1.0 
0.584 0.29 0.729 0.749 
0.388 0.208 0.678 0.792 
0.584 0.502 0.729 0.918 
0.945 0.749 0.965 0.875 
0.471 0.082 0.678 0.584 
0.361 0.333 0.663 0.792 
0.557 0.29 0.663 0.71 
0.804 0.502 0.847 0.71 
0.498 0.416 0.51 0.71 
0.804 0.416 0.812 0.624 
1.0 0.749 0.914 0.792 
0.557 0.333 0.694 0.584 
0.945 0.416 0.863 0.918 
0.584 0.459 0.761 0.71 
0.722 0.459 0.745 0.831 
0.722 0.459 0.694 0.918 
0.694 0.502 0.831 0.918 
0.667 0.416 0.714 0.918 
0.612 0.416 0.714 0.792 
0.443 0.416 0.694 0.71 
Teaching Patterns
1.0 0.0 0.0 
1.0 0.0 0.0 
1.0 0.0 0.0 
1.0 0.0 0.0 
1.0 0.0 0.0 
1.0 0.0 0.0 
1.0 0.0 0.0 
1.0 0.0 0.0 
1.0 0.0 0.0 
1.0 0.0 0.0 
1.0 0.0 0.0 
1.0 0.0 0.0 
1.0 0.0 0.0 
1.0 0.0 0.0 
1.0 0.0 0.0 
1.0 0.0 0.0 
1.0 0.0 0.0 
1.0 0.0 0.0 
1.0 0.0 0.0 
1.0 0.0 0.0 
1.0 0.0 0.0 
1.0 0.0 0.0 
1.0 0.0 0.0 
1.0 0.0 0.0 
1.0 0.0 0.0 
1.0 0.0 0.0 
1.0 0.0 0.0 
1.0 0.0 0.0 
1.0 0.0 0.0 
1.0 0.0 0.0 
1.0 0.0 0.0 
1.0 0.0 0.0 
1.0 0.0 0.0 
1.0 0.0 0.0 
1.0 0.0 0.0 
1.0 0.0 0.0 
1.0 0.0 0.0 
1.0 0.0 0.0 
1.0 0.0 0.0 
1.0 0.0 0.0 
1.0 0.0 0.0 
1.0 0.0 0.0 
1.0 0.0 0.0 
1.0 0.0 0.0 
1.0 0.0 0.0 
1.0 0.0 0.0 
1.0 0.0 0.0 
1.0 0.0 0.0 
1.0 0.0 0.0 
1.0 0.0 0.0 
0.0 1.0 0.0 
0.0 1.0 0.0 
0.0 1.0 0.0 
0.0 1.0 0.0 
0.0 1.0 0.0 
0.0 1.0 0.0 
0.0 1.0 0.0 
0.0 1.0 0.0 
0.0 1.0 0.0 
0.0 1.0 0.0 
0.0 1.0 0.0 
0.0 1.0 0.0 
0.0 1.0 0.0 
0.0 1.0 0.0 
0.0 1.0 0.0 
0.0 1.0 0.0 
0.0 1.0 0.0 
0.0 1.0 0.0 
0.0 1.0 0.0 
0.0 1.0 0.0 
0.0 1.0 0.0 
0.0 1.0 0.0 
0.0 1.0 0.0 
0.0 1.0 0.0 
0.0 1.0 0.0 
0.0 1.0 0.0 
0.0 1.0 0.0 
0.0 1.0 0.0 
0.0 1.0 0.0 
0.0 1.0 0.0 
0.0 1.0 0.0 
0.0 1.0 0.0 
0.0 1.0 0.0 
0.0 1.0 0.0 
0.0 1.0 0.0 
0.0 1.0 0.0 
0.0 1.0 0.0 
0.0 1.0 0.0 
0.0 1.0 0.0 
0.0 1.0 0.0 
0.0 1.0 0.0 
0.0 1.0 0.0 
0.0 1.0 0.0 
0.0 1.0 0.0 
0.0 1.0 0.0 
0.0 1.0 0.0 
0.0 1.0 0.0 
0.0 1.0 0.0 
0.0 1.0 0.0 
0.0 1.0 0.0 
0.0 0.0 1.0 
0.0 0.0 1.0 
0.0 0.0 1.0 
0.0 0.0 1.0 
0.0 0.0 1.0 
0.0 0.0 1.0 
0.0 0.0 1.0 
0.0 0.0 1.0 
0.0 0.0 1.0 
0.0 0.0 1.0 
0.0 0.0 1.0 
0.0 0.0 1.0 
0.0 0.0 1.0 
0.0 0.0 1.0 
0.0 0.0 1.0 
0.0 0.0 1.0 
0.0 0.0 1.0 
0.0 0.0 1.0 
0.0 0.0 1.0 
0.0 0.0 1.0 
0.0 0.0 1.0 
0.0 0.0 1.0 
0.0 0.0 1.0 
0.0 0.0 1.0 
0.0 0.0 1.0 
0.0 0.0 1.0 
0.0 0.0 1.0 
0.0 0.0 1.0 
0.0 0.0 1.0 
0.0 0.0 1.0 
0.0 0.0 1.0 
0.0 0.0 1.0 
0.0 0.0 1.0 
0.0 0.0 1.0 
0.0 0.0 1.0 
0.0 0.0 1.0 
0.0 0.0 1.0 
0.0 0.0 1.0 
0.0 0.0 1.0 
0.0 0.0 1.0 
0.0 0.0 1.0 
0.0 0.0 1.0 
0.0 0.0 1.0 
0.0 0.0 1.0 
0.0 0.0 1.0 
0.0 0.0 1.0 
0.0 0.0 1.0 
0.0 0.0 1.0 
0.0 0.0 1.0 
0.0 0.0 1.0 
Learning : 0.05
Momentum : 0.4000000059604645
Epoch: 100, Error: 0.07210074036057279
Epoch: 200, Error: 0.023613853916000436
Epoch: 300, Error: 0.017600517156806442
Epoch: 400, Error: 0.015769730193392683
Epoch: 500, Error: 0.014549930697452166
Epoch: 600, Error: 0.013926918834962816
Epoch: 700, Error: 0.013482637990425098
Epoch: 800, Error: 0.013220869182363058
Epoch: 900, Error: 0.012973489766125373
Epoch: 1000, Error: 0.012779831952132316
Epoch: 1100, Error: 0.012551132346033058
Epoch: 1200, Error: 0.012488419185796176
Epoch: 1300, Error: 0.012359676325549384
Epoch: 1400, Error: 0.012462798767310568
Epoch: 1500, Error: 0.012247420560776415
Epoch: 1600, Error: 0.012181198991521524
Epoch: 1700, Error: 0.012143776626097816
Epoch: 1800, Error: 0.012134592797439617
Epoch: 1900, Error: 0.012073347230543433
Epoch: 2000, Error: 0.012049000386921001
Epoch: 2100, Error: 0.012050614497834513
Epoch: 2200, Error: 0.012074277715935337
Epoch: 2300, Error: 0.01199946455228452
Epoch: 2400, Error: 0.012054438656731462
Epoch: 2500, Error: 0.012011171246889071
Epoch: 2600, Error: 0.012211148714350972
Epoch: 2700, Error: 0.012019811357875327
Epoch: 2800, Error: 0.01199283230003937
Epoch: 2900, Error: 0.012017491138470063
Epoch: 3000, Error: 0.012020101294137239
Epoch: 3100, Error: 0.012016656806403942
Epoch: 3200, Error: 0.0119855690363767
Epoch: 3300, Error: 0.011976623054161376
Epoch: 3400, Error: 0.011982804629809505
Epoch: 3500, Error: 0.011982415435727478
Epoch: 3600, Error: 0.01195939330753902
Epoch: 3700, Error: 0.011980000802409832
Epoch: 3800, Error: 0.011981110774003496
Epoch: 3900, Error: 0.011998497938422082
Epoch: 4000, Error: 0.012013925990105001
Epoch: 4100, Error: 0.011979553731069952
Epoch: 4200, Error: 0.011995985149745935
Epoch: 4300, Error: 0.012004153287104451
Epoch: 4400, Error: 0.012090660312381098
Epoch: 4500, Error: 0.011995479326159233
Epoch: 4600, Error: 0.012003282511591037
Epoch: 4700, Error: 0.011994343845277084
Epoch: 4800, Error: 0.012014584811199295
Epoch: 4900, Error: 0.011970846167718532
Epoch: 5000, Error: 0.011969435450810365
Epoch: 5100, Error: 0.011968715060981128
Epoch: 5200, Error: 0.011991882342821518
Epoch: 5300, Error: 0.011957522235201678
Epoch: 5400, Error: 0.011935036231800266
Epoch: 5500, Error: 0.011972871425072166
Epoch: 5600, Error: 0.011942616592890434
Epoch: 5700, Error: 0.01203181362733017
Epoch: 5800, Error: 0.011930268018794186
Epoch: 5900, Error: 0.01192993843524846
Epoch: 6000, Error: 0.011904507845938642
Epoch: 6100, Error: 0.011895793589250619
Epoch: 6200, Error: 0.011963235332680861
Epoch: 6300, Error: 0.011909466575987165
Epoch: 6400, Error: 0.011877035625745685
Epoch: 6500, Error: 0.011884881457779935
Epoch: 6600, Error: 0.011908614214564642
Epoch: 6700, Error: 0.011884680345977477
Epoch: 6800, Error: 0.011857861957794199
Epoch: 6900, Error: 0.011885985798842806
Epoch: 7000, Error: 0.01185265910382313
Epoch: 7100, Error: 0.011888007015523784
Epoch: 7200, Error: 0.011913657831866143
Epoch: 7300, Error: 0.011867896914226688
Epoch: 7400, Error: 0.011890178198750139
Epoch: 7500, Error: 0.01184763759494222
Epoch: 7600, Error: 0.011950921687713877
Epoch: 7700, Error: 0.011840396896940926
Epoch: 7800, Error: 0.01181972393066229
Epoch: 7900, Error: 0.011841066877199572
Epoch: 8000, Error: 0.011856376879052558
Epoch: 8100, Error: 0.011857808453401952
Epoch: 8200, Error: 0.01185286527609054
Epoch: 8300, Error: 0.011860256299389105
Epoch: 8400, Error: 0.011841727696851611
Epoch: 8500, Error: 0.011790279184855876
Epoch: 8600, Error: 0.01182221296511135
Epoch: 8700, Error: 0.011791793676124198
Epoch: 8800, Error: 0.01181690612573293
Epoch: 8900, Error: 0.011822088989818161
Epoch: 9000, Error: 0.01178605693980086
Epoch: 9100, Error: 0.011790377284010355
Epoch: 9200, Error: 0.011811966993789735
Epoch: 9300, Error: 0.011802050973762598
Epoch: 9400, Error: 0.011801961576486494
Epoch: 9500, Error: 0.01178582655643701
Epoch: 9600, Error: 0.011803111826647573
Epoch: 9700, Error: 0.011798125086811597
Epoch: 9800, Error: 0.011840704825040543
Epoch: 9900, Error: 0.011866189765036523
Epoch: 10000, Error: 0.011777041400433116
Epoch: 10100, Error: 0.011809860362782688
Epoch: 10200, Error: 0.011839121264706372
Epoch: 10300, Error: 0.011821022785890018
Epoch: 10400, Error: 0.011804947115406205
Epoch: 10500, Error: 0.011850158078026042
Epoch: 10600, Error: 0.011869784955140123
Epoch: 10700, Error: 0.011801313130162371
Epoch: 10800, Error: 0.011830546209542697
Epoch: 10900, Error: 0.011851960246766496
Epoch: 11000, Error: 0.011792344659667777
Epoch: 11100, Error: 0.01181759317710733
Epoch: 11200, Error: 0.011833811961639814
Epoch: 11300, Error: 0.011843090358647739
Epoch: 11400, Error: 0.011860840866888964
Epoch: 11500, Error: 0.011868249509829006
Epoch: 11600, Error: 0.011820520807332898
Epoch: 11700, Error: 0.011846067204786684
Epoch: 11800, Error: 0.01179674434355295
Epoch: 11900, Error: 0.011794916471345961
Epoch: 12000, Error: 0.011808997066013089
Epoch: 12100, Error: 0.011816612191434366
Epoch: 12200, Error: 0.011812729189542877
Epoch: 12300, Error: 0.011822487588891905
Epoch: 12400, Error: 0.011782283019232766
Epoch: 12500, Error: 0.011854281487032792
Epoch: 12600, Error: 0.011762365290489681
Epoch: 12700, Error: 0.01179492014625073
Epoch: 12800, Error: 0.011752906808249851
Epoch: 12900, Error: 0.011871569006696654
Epoch: 13000, Error: 0.011783067809404068
Epoch: 13100, Error: 0.011851210494765556
Epoch: 13200, Error: 0.011794146466308096
Epoch: 13300, Error: 0.011780870859660583
Epoch: 13400, Error: 0.011739284640868855
Epoch: 13500, Error: 0.011783235071143398
Epoch: 13600, Error: 0.011771541367341687
Epoch: 13700, Error: 0.011786998443468998
Epoch: 13800, Error: 0.011812478366963123
Epoch: 13900, Error: 0.011843986132065824
Epoch: 14000, Error: 0.01175310236486536
Epoch: 14100, Error: 0.011741143410605769
Epoch: 14200, Error: 0.011744099523412738
Epoch: 14300, Error: 0.01174800995953646
Epoch: 14400, Error: 0.011684724604659935
Epoch: 14500, Error: 0.011747548077447403
Epoch: 14600, Error: 0.011700127299389762
Epoch: 14700, Error: 0.011750783594441176
Epoch: 14800, Error: 0.01168660746860009
Epoch: 14900, Error: 0.011796773436124133
Epoch: 15000, Error: 0.0117206285643622
Epoch: 15100, Error: 0.011695505111835978
Epoch: 15200, Error: 0.011719777403687511
Epoch: 15300, Error: 0.011705919541069759
Epoch: 15400, Error: 0.011688870531490345
Epoch: 15500, Error: 0.011676434782697597
Epoch: 15600, Error: 0.011750960955215484
Epoch: 15700, Error: 0.011766819193049928
Epoch: 15800, Error: 0.01170171788006191
Epoch: 15900, Error: 0.0117784196130738
Epoch: 16000, Error: 0.01172281764168399
Epoch: 16100, Error: 0.011711931207817545
Epoch: 16200, Error: 0.011759554823142152
Epoch: 16300, Error: 0.011698911284304551
Epoch: 16400, Error: 0.011788383170525538
Epoch: 16500, Error: 0.011729842467887948
Epoch: 16600, Error: 0.011741277092760885
Epoch: 16700, Error: 0.011729096232984383
Epoch: 16800, Error: 0.0117245962375556
Epoch: 16900, Error: 0.011689266704672288
Epoch: 17000, Error: 0.011719933047506995
Epoch: 17100, Error: 0.011737107511894438
Epoch: 17200, Error: 0.011714665738416423
Epoch: 17300, Error: 0.011725194635250456
Epoch: 17400, Error: 0.011735544503386515
Epoch: 17500, Error: 0.011725453947867885
Epoch: 17600, Error: 0.011807822202736736
Epoch: 17700, Error: 0.011733553881472092
Epoch: 17800, Error: 0.011729621313941875
Epoch: 17900, Error: 0.01167357215746396
Epoch: 18000, Error: 0.01172025185600179
Epoch: 18100, Error: 0.011757518621933827
Epoch: 18200, Error: 0.011751933299901044
Epoch: 18300, Error: 0.011704776111134579
Epoch: 18400, Error: 0.011697766545264656
Epoch: 18500, Error: 0.011671405612354944
Epoch: 18600, Error: 0.011636553401488253
Epoch: 18700, Error: 0.011654072283732306
Epoch: 18800, Error: 0.011633010865168852
Epoch: 18900, Error: 0.01160685746372165
Epoch: 19000, Error: 0.011604215220651304
Epoch: 19100, Error: 0.01161382230464881
Epoch: 19200, Error: 0.01159266075387812
Epoch: 19300, Error: 0.011618249716110996
Epoch: 19400, Error: 0.011569439323873299
Epoch: 19500, Error: 0.011534784662596756
Epoch: 19600, Error: 0.011495309966726321
Epoch: 19700, Error: 0.011538763399991337
Epoch: 19800, Error: 0.011494517014011628
Epoch: 19900, Error: 0.011452998815679395
Epoch: 20000, Error: 0.011436669387195115
Epoch: 20100, Error: 0.011511059601894077
Epoch: 20200, Error: 0.0114143159448982
Epoch: 20300, Error: 0.011404115095319571
Epoch: 20400, Error: 0.011342317587257872
Epoch: 20500, Error: 0.011409317148580924
Epoch: 20600, Error: 0.011375158332769185
Epoch: 20700, Error: 0.011332903025152087
Epoch: 20800, Error: 0.011299099353294517
Epoch: 20900, Error: 0.011219609053350163
Epoch: 21000, Error: 0.011225758017525737
Epoch: 21100, Error: 0.011227282741239568
Epoch: 21200, Error: 0.011119152877396272
Epoch: 21300, Error: 0.011126674021719817
Epoch: 21400, Error: 0.011062554604740042
Epoch: 21500, Error: 0.011018786546721802
Epoch: 21600, Error: 0.010965889086696011
Epoch: 21700, Error: 0.010917523303516904
Epoch: 21800, Error: 0.010902373491955572
Epoch: 21900, Error: 0.010855640450994594
Epoch: 22000, Error: 0.010824229240919409
Epoch: 22100, Error: 0.010755938308948916
Epoch: 22200, Error: 0.010731067634760123
Epoch: 22300, Error: 0.010756895056604416
Epoch: 22400, Error: 0.010654762498756116
Epoch: 22500, Error: 0.010643749189922797
Epoch: 22600, Error: 0.010549497058243193
Epoch: 22700, Error: 0.010552649735497865
Epoch: 22800, Error: 0.010551410550896582
Epoch: 22900, Error: 0.01047575479130862
Epoch: 23000, Error: 0.010457106750622855
Epoch: 23100, Error: 0.010372531378516273
Epoch: 23200, Error: 0.010361459759767265
Epoch: 23300, Error: 0.010297690395769879
Epoch: 23400, Error: 0.010240509094525669
Epoch: 23500, Error: 0.010150231514579925
Epoch: 23600, Error: 0.010091629722106216
Epoch: 23700, Error: 0.010085791858073118
Epoch: 23800, Error: 0.010032330565101102
Epoch: 23900, Error: 0.00994273914348946
Epoch: 24000, Error: 0.009875884429018714
Epoch: 24100, Error: 0.009834475656432223
Epoch: 24200, Error: 0.009772833487102901
Epoch: 24300, Error: 0.009729665630699524
Epoch: 24400, Error: 0.009651948876343025
Epoch: 24500, Error: 0.009607332617581897
Epoch: 24600, Error: 0.009539212752517597
Epoch: 24700, Error: 0.009533712619660559
Epoch: 24800, Error: 0.009431592281076893
Epoch: 24900, Error: 0.00939024224894451
Epoch: 25000, Error: 0.009342639143409347
Epoch: 25100, Error: 0.009296067690440444
Epoch: 25200, Error: 0.009210489096502069
Epoch: 25300, Error: 0.009151536796473434
Epoch: 25400, Error: 0.009102392496702432
Epoch: 25500, Error: 0.00903111728537694
Epoch: 25600, Error: 0.008976019229034793
Epoch: 25700, Error: 0.008928726710649332
Epoch: 25800, Error: 0.008865737288263896
Epoch: 25900, Error: 0.008827677607328853
Epoch: 26000, Error: 0.008763528426667
Epoch: 26100, Error: 0.008750164011728043
Epoch: 26200, Error: 0.008682807831275403
Epoch: 26300, Error: 0.00861753530894231
Epoch: 26400, Error: 0.008569165221480431
Epoch: 26500, Error: 0.008517863413720841
Epoch: 26600, Error: 0.008515909801806353
Epoch: 26700, Error: 0.008456455765310789
Epoch: 26800, Error: 0.008404226768514083
Epoch: 26900, Error: 0.008417040876009682
Epoch: 27000, Error: 0.008331044496724492
Epoch: 27100, Error: 0.008284887699679265
Epoch: 27200, Error: 0.008225388152211193
Epoch: 27300, Error: 0.008180697778912071
Epoch: 27400, Error: 0.008145122208781065
Epoch: 27500, Error: 0.00807137349342321
Epoch: 27600, Error: 0.0080404299199174
Epoch: 27700, Error: 0.00799591646981886
Epoch: 27800, Error: 0.007964238420861925
Epoch: 27900, Error: 0.007939171166435935
Epoch: 28000, Error: 0.007857939310351877
Epoch: 28100, Error: 0.007813790647349429
Epoch: 28200, Error: 0.007778084198534938
Epoch: 28300, Error: 0.007803824565929807
Epoch: 28400, Error: 0.007707040498103304
Epoch: 28500, Error: 0.0076742757977888015
Epoch: 28600, Error: 0.007637440764578802
Epoch: 28700, Error: 0.00763025536287921
Epoch: 28800, Error: 0.007581438962686499
Epoch: 28900, Error: 0.0075524465656892446
Epoch: 29000, Error: 0.007530213512178671
Epoch: 29100, Error: 0.0075720553781154516
Epoch: 29200, Error: 0.00751299908445839
Epoch: 29300, Error: 0.007493870153898304
Epoch: 29400, Error: 0.007491995424620524
Epoch: 29500, Error: 0.0074897269934553305
Epoch: 29600, Error: 0.00746559420381123
Epoch: 29700, Error: 0.007448872886612351
Epoch: 29800, Error: 0.007447825923843284
Epoch: 29900, Error: 0.00744915415251538
Epoch: 30000, Error: 0.007430756846768095
Epoch: 30100, Error: 0.007413213391872008
Epoch: 30200, Error: 0.007406253814507069
Epoch: 30300, Error: 0.007389252588398496
Epoch: 30400, Error: 0.007369095471729326
Epoch: 30500, Error: 0.007342439838619559
Epoch: 30600, Error: 0.007325547633543233
Epoch: 30700, Error: 0.0073012785292674515
Epoch: 30800, Error: 0.007264455202215871
Epoch: 30900, Error: 0.007245699716298617
Epoch: 31000, Error: 0.0072422537759027055
Epoch: 31100, Error: 0.007234193458722485
Epoch: 31200, Error: 0.007201113045750546
Epoch: 31300, Error: 0.007173411867376895
Epoch: 31400, Error: 0.007164936514921811
Epoch: 31500, Error: 0.0071468477022810905
Epoch: 31600, Error: 0.007146524135538644
Epoch: 31700, Error: 0.007130765345409211
Epoch: 31800, Error: 0.00711104596871105
Epoch: 31900, Error: 0.007109106254121619
Epoch: 32000, Error: 0.007092478484638961
Epoch: 32100, Error: 0.00709086845815948
Epoch: 32200, Error: 0.007079210417494703
Epoch: 32300, Error: 0.0070651495508018275
Epoch: 32400, Error: 0.00705536480504039
Epoch: 32500, Error: 0.007034405147256855
Epoch: 32600, Error: 0.0070271673759475335
Epoch: 32700, Error: 0.007029327995268926
Epoch: 32800, Error: 0.007036665318247448
Epoch: 32900, Error: 0.006995742528205418
Epoch: 33000, Error: 0.00698982015173395
Epoch: 33100, Error: 0.006916022664804636
Epoch: 33200, Error: 0.006904873749976435
Epoch: 33300, Error: 0.0069521564826062875
Epoch: 33400, Error: 0.0069525313068709
Epoch: 33500, Error: 0.006881777881300333
Epoch: 33600, Error: 0.006934366194976053
Epoch: 33700, Error: 0.006940132932015684
Epoch: 33800, Error: 0.006911987262047427
Epoch: 33900, Error: 0.00697556823015026
Epoch: 34000, Error: 0.006967689181372315
Epoch: 34100, Error: 0.006971999542078107
Epoch: 34200, Error: 0.006958148560537592
Epoch: 34300, Error: 0.006958364525728963
Epoch: 34400, Error: 0.006938928356126536
Epoch: 34500, Error: 0.0069340373808265245
Epoch: 34600, Error: 0.006932446197200087
Epoch: 34700, Error: 0.006923856451483579
Epoch: 34800, Error: 0.0069441974645006906
Finished
