Input Patterns
0.224 0.624 0.067 0.043 
0.11 0.502 0.051 0.043 
0.196 0.667 0.067 0.043 
0.055 0.584 0.067 0.082 
0.027 0.376 0.067 0.043 
0.306 0.71 0.086 0.043 
0.137 0.416 0.067 0.0 
0.416 0.831 0.035 0.043 
0.306 0.792 0.051 0.125 
0.388 0.749 0.118 0.082 
0.306 0.584 0.118 0.043 
0.082 0.667 0.0 0.043 
0.137 0.584 0.153 0.043 
0.196 0.584 0.102 0.125 
0.251 0.584 0.067 0.043 
0.137 0.459 0.102 0.043 
0.251 0.875 0.086 0.0 
0.165 0.459 0.086 0.043 
0.333 0.624 0.051 0.043 
0.027 0.416 0.051 0.043 
0.196 0.624 0.051 0.082 
0.027 0.502 0.051 0.043 
0.224 0.749 0.153 0.125 
0.224 0.749 0.102 0.043 
0.278 0.71 0.086 0.043 
0.165 0.416 0.067 0.043 
0.082 0.459 0.086 0.043 
0.306 0.792 0.118 0.125 
0.196 0.584 0.086 0.043 
0.165 0.459 0.086 0.0 
0.137 0.584 0.102 0.043 
0.0 0.416 0.016 0.0 
0.388 1.0 0.086 0.125 
0.224 0.624 0.067 0.082 
0.224 0.749 0.086 0.082 
0.224 0.71 0.086 0.125 
0.224 0.541 0.118 0.165 
0.196 0.416 0.102 0.043 
0.251 0.624 0.086 0.043 
0.11 0.502 0.102 0.043 
0.306 0.584 0.086 0.125 
0.333 0.918 0.067 0.043 
0.196 0.502 0.035 0.043 
0.165 0.667 0.067 0.0 
0.224 0.584 0.086 0.043 
0.055 0.125 0.051 0.082 
0.196 0.624 0.102 0.208 
0.137 0.416 0.067 0.082 
0.082 0.502 0.067 0.043 
0.196 0.541 0.067 0.043 
0.749 0.502 0.627 0.541 
0.722 0.459 0.663 0.584 
0.612 0.333 0.612 0.584 
0.557 0.541 0.627 0.624 
0.639 0.376 0.612 0.498 
0.196 0.0 0.424 0.376 
0.471 0.082 0.51 0.376 
0.361 0.376 0.439 0.498 
0.361 0.416 0.592 0.584 
0.529 0.082 0.592 0.584 
0.443 0.502 0.643 0.459 
0.557 0.208 0.663 0.584 
0.584 0.376 0.561 0.498 
0.694 0.333 0.643 0.541 
0.471 0.376 0.592 0.584 
0.333 0.169 0.475 0.416 
0.416 0.29 0.49 0.459 
0.306 0.416 0.592 0.584 
0.667 0.459 0.627 0.584 
0.361 0.416 0.525 0.498 
0.333 0.251 0.576 0.459 
0.416 0.251 0.51 0.459 
0.361 0.29 0.541 0.498 
0.388 0.376 0.541 0.498 
0.224 0.208 0.337 0.416 
0.584 0.502 0.592 0.584 
0.333 0.125 0.51 0.498 
0.388 0.333 0.592 0.498 
0.165 0.169 0.388 0.376 
0.251 0.29 0.49 0.541 
0.443 0.416 0.541 0.584 
0.498 0.376 0.627 0.541 
0.667 0.459 0.576 0.541 
0.416 0.29 0.525 0.376 
0.361 0.208 0.49 0.416 
0.498 0.333 0.51 0.498 
0.498 0.333 0.627 0.459 
0.639 0.416 0.576 0.541 
0.667 0.416 0.678 0.667 
0.388 0.251 0.424 0.376 
0.333 0.169 0.459 0.376 
0.471 0.29 0.694 0.624 
0.471 0.584 0.592 0.624 
0.557 0.125 0.576 0.498 
0.333 0.208 0.51 0.498 
0.498 0.416 0.612 0.541 
0.196 0.125 0.388 0.376 
0.388 0.416 0.541 0.459 
0.529 0.376 0.561 0.498 
0.388 0.333 0.525 0.498 
0.557 0.541 0.847 1.0 
0.776 0.416 0.831 0.831 
0.612 0.416 0.812 0.875 
0.165 0.208 0.592 0.667 
0.667 0.208 0.812 0.71 
0.612 0.502 0.694 0.792 
0.694 0.416 0.761 0.831 
0.416 0.333 0.694 0.957 
0.612 0.416 0.761 0.71 
0.945 0.251 1.0 0.918 
0.722 0.502 0.796 0.918 
0.945 0.333 0.965 0.792 
0.667 0.541 0.796 0.831 
0.529 0.333 0.643 0.71 
0.584 0.333 0.78 0.831 
0.863 0.333 0.863 0.749 
0.584 0.333 0.78 0.875 
0.498 0.251 0.78 0.541 
0.557 0.584 0.78 0.957 
0.471 0.416 0.643 0.71 
0.667 0.459 0.78 0.957 
0.416 0.29 0.694 0.749 
0.667 0.541 0.796 1.0 
0.557 0.208 0.678 0.749 
0.529 0.584 0.745 0.918 
0.416 0.29 0.694 0.749 
0.557 0.376 0.78 0.71 
0.918 0.416 0.949 0.831 
0.835 0.376 0.898 0.71 
0.804 0.667 0.863 1.0 
0.584 0.29 0.729 0.749 
0.388 0.208 0.678 0.792 
0.584 0.502 0.729 0.918 
0.945 0.749 0.965 0.875 
0.471 0.082 0.678 0.584 
0.361 0.333 0.663 0.792 
0.557 0.29 0.663 0.71 
0.804 0.502 0.847 0.71 
0.498 0.416 0.51 0.71 
0.804 0.416 0.812 0.624 
1.0 0.749 0.914 0.792 
0.557 0.333 0.694 0.584 
0.945 0.416 0.863 0.918 
0.584 0.459 0.761 0.71 
0.722 0.459 0.745 0.831 
0.722 0.459 0.694 0.918 
0.694 0.502 0.831 0.918 
0.667 0.416 0.714 0.918 
0.612 0.416 0.714 0.792 
0.443 0.416 0.694 0.71 
Teaching Patterns
1.0 0.0 0.0 
1.0 0.0 0.0 
1.0 0.0 0.0 
1.0 0.0 0.0 
1.0 0.0 0.0 
1.0 0.0 0.0 
1.0 0.0 0.0 
1.0 0.0 0.0 
1.0 0.0 0.0 
1.0 0.0 0.0 
1.0 0.0 0.0 
1.0 0.0 0.0 
1.0 0.0 0.0 
1.0 0.0 0.0 
1.0 0.0 0.0 
1.0 0.0 0.0 
1.0 0.0 0.0 
1.0 0.0 0.0 
1.0 0.0 0.0 
1.0 0.0 0.0 
1.0 0.0 0.0 
1.0 0.0 0.0 
1.0 0.0 0.0 
1.0 0.0 0.0 
1.0 0.0 0.0 
1.0 0.0 0.0 
1.0 0.0 0.0 
1.0 0.0 0.0 
1.0 0.0 0.0 
1.0 0.0 0.0 
1.0 0.0 0.0 
1.0 0.0 0.0 
1.0 0.0 0.0 
1.0 0.0 0.0 
1.0 0.0 0.0 
1.0 0.0 0.0 
1.0 0.0 0.0 
1.0 0.0 0.0 
1.0 0.0 0.0 
1.0 0.0 0.0 
1.0 0.0 0.0 
1.0 0.0 0.0 
1.0 0.0 0.0 
1.0 0.0 0.0 
1.0 0.0 0.0 
1.0 0.0 0.0 
1.0 0.0 0.0 
1.0 0.0 0.0 
1.0 0.0 0.0 
1.0 0.0 0.0 
0.0 1.0 0.0 
0.0 1.0 0.0 
0.0 1.0 0.0 
0.0 1.0 0.0 
0.0 1.0 0.0 
0.0 1.0 0.0 
0.0 1.0 0.0 
0.0 1.0 0.0 
0.0 1.0 0.0 
0.0 1.0 0.0 
0.0 1.0 0.0 
0.0 1.0 0.0 
0.0 1.0 0.0 
0.0 1.0 0.0 
0.0 1.0 0.0 
0.0 1.0 0.0 
0.0 1.0 0.0 
0.0 1.0 0.0 
0.0 1.0 0.0 
0.0 1.0 0.0 
0.0 1.0 0.0 
0.0 1.0 0.0 
0.0 1.0 0.0 
0.0 1.0 0.0 
0.0 1.0 0.0 
0.0 1.0 0.0 
0.0 1.0 0.0 
0.0 1.0 0.0 
0.0 1.0 0.0 
0.0 1.0 0.0 
0.0 1.0 0.0 
0.0 1.0 0.0 
0.0 1.0 0.0 
0.0 1.0 0.0 
0.0 1.0 0.0 
0.0 1.0 0.0 
0.0 1.0 0.0 
0.0 1.0 0.0 
0.0 1.0 0.0 
0.0 1.0 0.0 
0.0 1.0 0.0 
0.0 1.0 0.0 
0.0 1.0 0.0 
0.0 1.0 0.0 
0.0 1.0 0.0 
0.0 1.0 0.0 
0.0 1.0 0.0 
0.0 1.0 0.0 
0.0 1.0 0.0 
0.0 1.0 0.0 
0.0 0.0 1.0 
0.0 0.0 1.0 
0.0 0.0 1.0 
0.0 0.0 1.0 
0.0 0.0 1.0 
0.0 0.0 1.0 
0.0 0.0 1.0 
0.0 0.0 1.0 
0.0 0.0 1.0 
0.0 0.0 1.0 
0.0 0.0 1.0 
0.0 0.0 1.0 
0.0 0.0 1.0 
0.0 0.0 1.0 
0.0 0.0 1.0 
0.0 0.0 1.0 
0.0 0.0 1.0 
0.0 0.0 1.0 
0.0 0.0 1.0 
0.0 0.0 1.0 
0.0 0.0 1.0 
0.0 0.0 1.0 
0.0 0.0 1.0 
0.0 0.0 1.0 
0.0 0.0 1.0 
0.0 0.0 1.0 
0.0 0.0 1.0 
0.0 0.0 1.0 
0.0 0.0 1.0 
0.0 0.0 1.0 
0.0 0.0 1.0 
0.0 0.0 1.0 
0.0 0.0 1.0 
0.0 0.0 1.0 
0.0 0.0 1.0 
0.0 0.0 1.0 
0.0 0.0 1.0 
0.0 0.0 1.0 
0.0 0.0 1.0 
0.0 0.0 1.0 
0.0 0.0 1.0 
0.0 0.0 1.0 
0.0 0.0 1.0 
0.0 0.0 1.0 
0.0 0.0 1.0 
0.0 0.0 1.0 
0.0 0.0 1.0 
0.0 0.0 1.0 
0.0 0.0 1.0 
0.0 0.0 1.0 
Learning : 0.05
Momentum : 0.4000000059604645
Epoch: 100, Error: 0.07480163924648549
Epoch: 200, Error: 0.024853139901927935
Epoch: 300, Error: 0.01784191926714713
Epoch: 400, Error: 0.015830437591117304
Epoch: 500, Error: 0.014762685737915844
Epoch: 600, Error: 0.014294307920341028
Epoch: 700, Error: 0.013856444221265177
Epoch: 800, Error: 0.013394701621080021
Epoch: 900, Error: 0.013155805848943361
Epoch: 1000, Error: 0.012870815707251062
Epoch: 1100, Error: 0.012724880109096942
Epoch: 1200, Error: 0.012570033022489012
Epoch: 1300, Error: 0.01260695113739989
Epoch: 1400, Error: 0.012363289317582175
Epoch: 1500, Error: 0.012334776942701287
Epoch: 1600, Error: 0.01229628083977982
Epoch: 1700, Error: 0.012210109959311755
Epoch: 1800, Error: 0.012297329667563608
Epoch: 1900, Error: 0.012150226862227135
Epoch: 2000, Error: 0.01211086352688162
Epoch: 2100, Error: 0.012130583313848347
Epoch: 2200, Error: 0.012070143190373576
Epoch: 2300, Error: 0.012035541711825234
Epoch: 2400, Error: 0.012053916103719331
Epoch: 2500, Error: 0.01212782847902298
Epoch: 2600, Error: 0.012042649128736909
Epoch: 2700, Error: 0.012115596266495417
Epoch: 2800, Error: 0.011973030295654363
Epoch: 2900, Error: 0.012077824946784705
Epoch: 3000, Error: 0.01195559448191158
Epoch: 3100, Error: 0.011912809541599907
Epoch: 3200, Error: 0.011885605780314617
Epoch: 3300, Error: 0.011903055927592924
Epoch: 3400, Error: 0.011893233674677256
Epoch: 3500, Error: 0.011923570530339996
Epoch: 3600, Error: 0.011878846402895545
Epoch: 3700, Error: 0.011886591043983643
Epoch: 3800, Error: 0.01184986672021491
Epoch: 3900, Error: 0.011860252776902308
Epoch: 4000, Error: 0.011839479202543548
Epoch: 4100, Error: 0.011855394241170188
Epoch: 4200, Error: 0.01183378075227647
Epoch: 4300, Error: 0.011865364382438716
Epoch: 4400, Error: 0.011870678174764109
Epoch: 4500, Error: 0.011845746973606608
Epoch: 4600, Error: 0.01184162515954304
Epoch: 4700, Error: 0.0118389996833204
Epoch: 4800, Error: 0.011855509852716542
Epoch: 4900, Error: 0.011804446291228565
Epoch: 5000, Error: 0.01184936387301
Epoch: 5100, Error: 0.011844100236036775
Epoch: 5200, Error: 0.011846132545424829
Epoch: 5300, Error: 0.011869030902087586
Epoch: 5400, Error: 0.011818400932874139
Epoch: 5500, Error: 0.01188190283752228
Epoch: 5600, Error: 0.01179854033943962
Epoch: 5700, Error: 0.011816158727092073
Epoch: 5800, Error: 0.011824771892805024
Epoch: 5900, Error: 0.011782769019223259
Epoch: 6000, Error: 0.011787682330433565
Epoch: 6100, Error: 0.011805394870017317
Epoch: 6200, Error: 0.011795533644461292
Epoch: 6300, Error: 0.011840607011360476
Epoch: 6400, Error: 0.011813859835334823
Epoch: 6500, Error: 0.011878525376682405
Epoch: 6600, Error: 0.011756062198416772
Epoch: 6700, Error: 0.011767738049300263
Epoch: 6800, Error: 0.01175087112577066
Epoch: 6900, Error: 0.011796186834667224
Epoch: 7000, Error: 0.011779612603740745
Epoch: 7100, Error: 0.011805371725101228
Epoch: 7200, Error: 0.011752318473196943
Epoch: 7300, Error: 0.011760108325017673
Epoch: 7400, Error: 0.01179277903528721
Epoch: 7500, Error: 0.011785915562323404
Epoch: 7600, Error: 0.011787451032076717
Epoch: 7700, Error: 0.011782421394955804
Epoch: 7800, Error: 0.011766160579654272
Epoch: 7900, Error: 0.011767222938375935
Epoch: 8000, Error: 0.011755451393631836
Epoch: 8100, Error: 0.011752059477128382
Epoch: 8200, Error: 0.01178414378482207
Epoch: 8300, Error: 0.011752048539018916
Epoch: 8400, Error: 0.011767572544202147
Epoch: 8500, Error: 0.0117327401296555
Epoch: 8600, Error: 0.011809175225030026
Epoch: 8700, Error: 0.01176232384454276
Epoch: 8800, Error: 0.011766567751588644
Epoch: 8900, Error: 0.011769549624749758
Epoch: 9000, Error: 0.01179214096997823
Epoch: 9100, Error: 0.011762380246328169
Epoch: 9200, Error: 0.011789642582770552
Epoch: 9300, Error: 0.011800194093146085
Epoch: 9400, Error: 0.011721763604014898
Epoch: 9500, Error: 0.01175054256131979
Epoch: 9600, Error: 0.011773233096506552
Epoch: 9700, Error: 0.011745894600988651
Epoch: 9800, Error: 0.011729426889528176
Epoch: 9900, Error: 0.011750885754777497
Epoch: 10000, Error: 0.011765396916643632
Epoch: 10100, Error: 0.011765446442981066
Epoch: 10200, Error: 0.011749482580949882
Epoch: 10300, Error: 0.011820665856922511
Epoch: 10400, Error: 0.011809337366880647
Epoch: 10500, Error: 0.01173681842902759
Epoch: 10600, Error: 0.01175648967199943
Epoch: 10700, Error: 0.011742094118300185
Epoch: 10800, Error: 0.011752637849743135
Epoch: 10900, Error: 0.011744517033061798
Epoch: 11000, Error: 0.011835165869712384
Epoch: 11100, Error: 0.011803265530003876
Epoch: 11200, Error: 0.011753546382135499
Epoch: 11300, Error: 0.011728982496096333
Epoch: 11400, Error: 0.011741684683631218
Epoch: 11500, Error: 0.011781860286857118
Epoch: 11600, Error: 0.011728305973879688
Epoch: 11700, Error: 0.011772518668367671
Epoch: 11800, Error: 0.011750464962975377
Epoch: 11900, Error: 0.011781588533995099
Epoch: 12000, Error: 0.011772929682908774
Epoch: 12100, Error: 0.01176411490982488
Epoch: 12200, Error: 0.011799878902368758
Epoch: 12300, Error: 0.011785194484017679
Epoch: 12400, Error: 0.011779498690479033
Epoch: 12500, Error: 0.011760948069596388
Epoch: 12600, Error: 0.011748446733346766
Epoch: 12700, Error: 0.011759543091460947
Epoch: 12800, Error: 0.011783188000510945
Epoch: 12900, Error: 0.011764379517039372
Epoch: 13000, Error: 0.011786666578473189
Epoch: 13100, Error: 0.01180915493526804
Epoch: 13200, Error: 0.011749662101820603
Epoch: 13300, Error: 0.011795783221505927
Epoch: 13400, Error: 0.01172527734038832
Epoch: 13500, Error: 0.011756433273286666
Epoch: 13600, Error: 0.011836890866511365
Epoch: 13700, Error: 0.011799800709299443
Epoch: 13800, Error: 0.011761899720528393
Epoch: 13900, Error: 0.011747527242867003
Epoch: 14000, Error: 0.011752428392632205
Epoch: 14100, Error: 0.011716184496200219
Epoch: 14200, Error: 0.011723722187192689
Epoch: 14300, Error: 0.011722831916455654
Epoch: 14400, Error: 0.011694983540589272
Epoch: 14500, Error: 0.011705689743662238
Epoch: 14600, Error: 0.01168897605681037
Epoch: 14700, Error: 0.011735977848999506
Epoch: 14800, Error: 0.011642429891712306
Epoch: 14900, Error: 0.011701716958965562
Epoch: 15000, Error: 0.011655661643436056
Epoch: 15100, Error: 0.01167392859870553
Epoch: 15200, Error: 0.011604171848539197
Epoch: 15300, Error: 0.011601172312025057
Epoch: 15400, Error: 0.011598265944602077
Epoch: 15500, Error: 0.011580853333696623
Epoch: 15600, Error: 0.011646634135317854
Epoch: 15700, Error: 0.011646116187715
Epoch: 15800, Error: 0.011645843249025052
Epoch: 15900, Error: 0.011578442820376853
Epoch: 16000, Error: 0.01157161413405017
Epoch: 16100, Error: 0.011569349083543805
Epoch: 16200, Error: 0.011525300771529952
Epoch: 16300, Error: 0.01152992057274377
Epoch: 16400, Error: 0.011458079236196302
Epoch: 16500, Error: 0.01147632031638761
Epoch: 16600, Error: 0.011458554473406738
Epoch: 16700, Error: 0.011484745910091345
Epoch: 16800, Error: 0.011408084923680298
Epoch: 16900, Error: 0.011420122302405928
Epoch: 17000, Error: 0.0114363997770787
Epoch: 17100, Error: 0.011396573205507885
Epoch: 17200, Error: 0.0113989503081444
Epoch: 17300, Error: 0.01133840610604146
Epoch: 17400, Error: 0.011217284525965753
Epoch: 17500, Error: 0.01125722527156072
Epoch: 17600, Error: 0.011235055184311392
Epoch: 17700, Error: 0.01119430638999672
Epoch: 17800, Error: 0.01118345840063605
Epoch: 17900, Error: 0.01117932398286974
Epoch: 18000, Error: 0.011051429678542501
Epoch: 18100, Error: 0.011039239557550581
Epoch: 18200, Error: 0.010996421404729529
Epoch: 18300, Error: 0.010886301884437937
Epoch: 18400, Error: 0.010881376537554747
Epoch: 18500, Error: 0.010836836112071606
Epoch: 18600, Error: 0.0108027413449609
Epoch: 18700, Error: 0.010764604436737369
Epoch: 18800, Error: 0.01072190958815537
Epoch: 18900, Error: 0.01061389861015255
Epoch: 19000, Error: 0.010580633926472228
Epoch: 19100, Error: 0.010539555739178717
Epoch: 19200, Error: 0.010492567822744171
Epoch: 19300, Error: 0.010431033713078876
Epoch: 19400, Error: 0.010381849365753527
Epoch: 19500, Error: 0.010295350320960137
Epoch: 19600, Error: 0.010279455741493367
Epoch: 19700, Error: 0.010126669779093567
Epoch: 19800, Error: 0.010078697989847653
Epoch: 19900, Error: 0.010071126055382872
Epoch: 20000, Error: 0.009985583051014643
Epoch: 20100, Error: 0.009879572488035096
Epoch: 20200, Error: 0.009836385344116405
Epoch: 20300, Error: 0.009742560752028631
Epoch: 20400, Error: 0.009701933443167832
Epoch: 20500, Error: 0.009621643925885942
Epoch: 20600, Error: 0.009538082687898483
Epoch: 20700, Error: 0.009463925922830088
Epoch: 20800, Error: 0.00939053887316184
Epoch: 20900, Error: 0.009289669972504303
Epoch: 21000, Error: 0.009209299605628447
Epoch: 21100, Error: 0.009164868218871318
Epoch: 21200, Error: 0.009059211342852425
Epoch: 21300, Error: 0.00900158892013849
Epoch: 21400, Error: 0.008905089301813317
Epoch: 21500, Error: 0.008841608149916507
Epoch: 21600, Error: 0.00883610838476594
Epoch: 21700, Error: 0.008695836696954961
Epoch: 21800, Error: 0.008619915907491544
Epoch: 21900, Error: 0.008591466487323231
Epoch: 22000, Error: 0.008506777334054158
Epoch: 22100, Error: 0.00843778979676544
Epoch: 22200, Error: 0.008384434952557975
Epoch: 22300, Error: 0.008321329774754858
Epoch: 22400, Error: 0.008266101870284776
Epoch: 22500, Error: 0.008221725672200114
Epoch: 22600, Error: 0.008179069827833705
Epoch: 22700, Error: 0.00813791708307193
Epoch: 22800, Error: 0.008095164225912794
Epoch: 22900, Error: 0.008048795153691887
Epoch: 23000, Error: 0.008016791046568914
Epoch: 23100, Error: 0.00800472949225831
Epoch: 23200, Error: 0.007925043779900613
Epoch: 23300, Error: 0.007889411657259822
Epoch: 23400, Error: 0.007860088099940344
Epoch: 23500, Error: 0.007826220359351656
Epoch: 23600, Error: 0.00779308312892798
Epoch: 23700, Error: 0.007761052615177884
Epoch: 23800, Error: 0.007735446320710738
Epoch: 23900, Error: 0.007703012667944711
Epoch: 24000, Error: 0.007675439470485499
Epoch: 24100, Error: 0.0076529243556086955
Epoch: 24200, Error: 0.007628607011935103
Epoch: 24300, Error: 0.007611199639229511
Epoch: 24400, Error: 0.007584849393276655
Epoch: 24500, Error: 0.007564698308724083
Epoch: 24600, Error: 0.007541630160544102
Epoch: 24700, Error: 0.007522262835919609
Epoch: 24800, Error: 0.007495635359501186
Epoch: 24900, Error: 0.007469304184985737
Epoch: 25000, Error: 0.007444959780120244
Epoch: 25100, Error: 0.007418160680693816
Epoch: 25200, Error: 0.0073929706780562305
Epoch: 25300, Error: 0.007366572617513695
Epoch: 25400, Error: 0.0073448535429621285
Epoch: 25500, Error: 0.00732778129656706
Epoch: 25600, Error: 0.007315759929205633
Epoch: 25700, Error: 0.0072980872734500195
Epoch: 25800, Error: 0.007273003172007164
Epoch: 25900, Error: 0.007259168168883931
Epoch: 26000, Error: 0.007248004080809463
Epoch: 26100, Error: 0.007227670457721123
Epoch: 26200, Error: 0.00721793108770442
Epoch: 26300, Error: 0.007202209028305708
Epoch: 26400, Error: 0.007186574741930287
Epoch: 26500, Error: 0.007178204202950618
Epoch: 26600, Error: 0.00715511419551952
Epoch: 26700, Error: 0.007142591861025366
Epoch: 26800, Error: 0.007126831590204593
Epoch: 26900, Error: 0.007108130238878205
Epoch: 27000, Error: 0.007093292903947126
Epoch: 27100, Error: 0.007082218598528642
Epoch: 27200, Error: 0.007067994280804162
Epoch: 27300, Error: 0.007058714664214463
Epoch: 27400, Error: 0.0070457389867009754
Epoch: 27500, Error: 0.007023436772783162
Epoch: 27600, Error: 0.0070107544639282085
Epoch: 27700, Error: 0.0070133269545379325
Epoch: 27800, Error: 0.006994416847234208
Epoch: 27900, Error: 0.006981015860353117
Epoch: 28000, Error: 0.006969506013406763
Epoch: 28100, Error: 0.007015130265270369
Epoch: 28200, Error: 0.006956993706764882
Epoch: 28300, Error: 0.006957860123044144
Epoch: 28400, Error: 0.006943494824414931
Finished
