Input Patterns
0.224 0.624 0.067 0.043 
0.11 0.502 0.051 0.043 
0.196 0.667 0.067 0.043 
0.055 0.584 0.067 0.082 
0.027 0.376 0.067 0.043 
0.306 0.71 0.086 0.043 
0.137 0.416 0.067 0.0 
0.416 0.831 0.035 0.043 
0.306 0.792 0.051 0.125 
0.388 0.749 0.118 0.082 
0.306 0.584 0.118 0.043 
0.082 0.667 0.0 0.043 
0.137 0.584 0.153 0.043 
0.196 0.584 0.102 0.125 
0.251 0.584 0.067 0.043 
0.137 0.459 0.102 0.043 
0.251 0.875 0.086 0.0 
0.165 0.459 0.086 0.043 
0.333 0.624 0.051 0.043 
0.027 0.416 0.051 0.043 
0.196 0.624 0.051 0.082 
0.027 0.502 0.051 0.043 
0.224 0.749 0.153 0.125 
0.224 0.749 0.102 0.043 
0.278 0.71 0.086 0.043 
0.165 0.416 0.067 0.043 
0.082 0.459 0.086 0.043 
0.306 0.792 0.118 0.125 
0.196 0.584 0.086 0.043 
0.165 0.459 0.086 0.0 
0.137 0.584 0.102 0.043 
0.0 0.416 0.016 0.0 
0.388 1.0 0.086 0.125 
0.224 0.624 0.067 0.082 
0.224 0.749 0.086 0.082 
0.224 0.71 0.086 0.125 
0.224 0.541 0.118 0.165 
0.196 0.416 0.102 0.043 
0.251 0.624 0.086 0.043 
0.11 0.502 0.102 0.043 
0.306 0.584 0.086 0.125 
0.333 0.918 0.067 0.043 
0.196 0.502 0.035 0.043 
0.165 0.667 0.067 0.0 
0.224 0.584 0.086 0.043 
0.055 0.125 0.051 0.082 
0.196 0.624 0.102 0.208 
0.137 0.416 0.067 0.082 
0.082 0.502 0.067 0.043 
0.196 0.541 0.067 0.043 
0.749 0.502 0.627 0.541 
0.722 0.459 0.663 0.584 
0.612 0.333 0.612 0.584 
0.557 0.541 0.627 0.624 
0.639 0.376 0.612 0.498 
0.196 0.0 0.424 0.376 
0.471 0.082 0.51 0.376 
0.361 0.376 0.439 0.498 
0.361 0.416 0.592 0.584 
0.529 0.082 0.592 0.584 
0.443 0.502 0.643 0.459 
0.557 0.208 0.663 0.584 
0.584 0.376 0.561 0.498 
0.694 0.333 0.643 0.541 
0.471 0.376 0.592 0.584 
0.333 0.169 0.475 0.416 
0.416 0.29 0.49 0.459 
0.306 0.416 0.592 0.584 
0.667 0.459 0.627 0.584 
0.361 0.416 0.525 0.498 
0.333 0.251 0.576 0.459 
0.416 0.251 0.51 0.459 
0.361 0.29 0.541 0.498 
0.388 0.376 0.541 0.498 
0.224 0.208 0.337 0.416 
0.584 0.502 0.592 0.584 
0.333 0.125 0.51 0.498 
0.388 0.333 0.592 0.498 
0.165 0.169 0.388 0.376 
0.251 0.29 0.49 0.541 
0.443 0.416 0.541 0.584 
0.498 0.376 0.627 0.541 
0.667 0.459 0.576 0.541 
0.416 0.29 0.525 0.376 
0.361 0.208 0.49 0.416 
0.498 0.333 0.51 0.498 
0.498 0.333 0.627 0.459 
0.639 0.416 0.576 0.541 
0.667 0.416 0.678 0.667 
0.388 0.251 0.424 0.376 
0.333 0.169 0.459 0.376 
0.471 0.29 0.694 0.624 
0.471 0.584 0.592 0.624 
0.557 0.125 0.576 0.498 
0.333 0.208 0.51 0.498 
0.498 0.416 0.612 0.541 
0.196 0.125 0.388 0.376 
0.388 0.416 0.541 0.459 
0.529 0.376 0.561 0.498 
0.388 0.333 0.525 0.498 
0.557 0.541 0.847 1.0 
0.776 0.416 0.831 0.831 
0.612 0.416 0.812 0.875 
0.165 0.208 0.592 0.667 
0.667 0.208 0.812 0.71 
0.612 0.502 0.694 0.792 
0.694 0.416 0.761 0.831 
0.416 0.333 0.694 0.957 
0.612 0.416 0.761 0.71 
0.945 0.251 1.0 0.918 
0.722 0.502 0.796 0.918 
0.945 0.333 0.965 0.792 
0.667 0.541 0.796 0.831 
0.529 0.333 0.643 0.71 
0.584 0.333 0.78 0.831 
0.863 0.333 0.863 0.749 
0.584 0.333 0.78 0.875 
0.498 0.251 0.78 0.541 
0.557 0.584 0.78 0.957 
0.471 0.416 0.643 0.71 
0.667 0.459 0.78 0.957 
0.416 0.29 0.694 0.749 
0.667 0.541 0.796 1.0 
0.557 0.208 0.678 0.749 
0.529 0.584 0.745 0.918 
0.416 0.29 0.694 0.749 
0.557 0.376 0.78 0.71 
0.918 0.416 0.949 0.831 
0.835 0.376 0.898 0.71 
0.804 0.667 0.863 1.0 
0.584 0.29 0.729 0.749 
0.388 0.208 0.678 0.792 
0.584 0.502 0.729 0.918 
0.945 0.749 0.965 0.875 
0.471 0.082 0.678 0.584 
0.361 0.333 0.663 0.792 
0.557 0.29 0.663 0.71 
0.804 0.502 0.847 0.71 
0.498 0.416 0.51 0.71 
0.804 0.416 0.812 0.624 
1.0 0.749 0.914 0.792 
0.557 0.333 0.694 0.584 
0.945 0.416 0.863 0.918 
0.584 0.459 0.761 0.71 
0.722 0.459 0.745 0.831 
0.722 0.459 0.694 0.918 
0.694 0.502 0.831 0.918 
0.667 0.416 0.714 0.918 
0.612 0.416 0.714 0.792 
0.443 0.416 0.694 0.71 
Teaching Patterns
1.0 0.0 0.0 
1.0 0.0 0.0 
1.0 0.0 0.0 
1.0 0.0 0.0 
1.0 0.0 0.0 
1.0 0.0 0.0 
1.0 0.0 0.0 
1.0 0.0 0.0 
1.0 0.0 0.0 
1.0 0.0 0.0 
1.0 0.0 0.0 
1.0 0.0 0.0 
1.0 0.0 0.0 
1.0 0.0 0.0 
1.0 0.0 0.0 
1.0 0.0 0.0 
1.0 0.0 0.0 
1.0 0.0 0.0 
1.0 0.0 0.0 
1.0 0.0 0.0 
1.0 0.0 0.0 
1.0 0.0 0.0 
1.0 0.0 0.0 
1.0 0.0 0.0 
1.0 0.0 0.0 
1.0 0.0 0.0 
1.0 0.0 0.0 
1.0 0.0 0.0 
1.0 0.0 0.0 
1.0 0.0 0.0 
1.0 0.0 0.0 
1.0 0.0 0.0 
1.0 0.0 0.0 
1.0 0.0 0.0 
1.0 0.0 0.0 
1.0 0.0 0.0 
1.0 0.0 0.0 
1.0 0.0 0.0 
1.0 0.0 0.0 
1.0 0.0 0.0 
1.0 0.0 0.0 
1.0 0.0 0.0 
1.0 0.0 0.0 
1.0 0.0 0.0 
1.0 0.0 0.0 
1.0 0.0 0.0 
1.0 0.0 0.0 
1.0 0.0 0.0 
1.0 0.0 0.0 
1.0 0.0 0.0 
0.0 1.0 0.0 
0.0 1.0 0.0 
0.0 1.0 0.0 
0.0 1.0 0.0 
0.0 1.0 0.0 
0.0 1.0 0.0 
0.0 1.0 0.0 
0.0 1.0 0.0 
0.0 1.0 0.0 
0.0 1.0 0.0 
0.0 1.0 0.0 
0.0 1.0 0.0 
0.0 1.0 0.0 
0.0 1.0 0.0 
0.0 1.0 0.0 
0.0 1.0 0.0 
0.0 1.0 0.0 
0.0 1.0 0.0 
0.0 1.0 0.0 
0.0 1.0 0.0 
0.0 1.0 0.0 
0.0 1.0 0.0 
0.0 1.0 0.0 
0.0 1.0 0.0 
0.0 1.0 0.0 
0.0 1.0 0.0 
0.0 1.0 0.0 
0.0 1.0 0.0 
0.0 1.0 0.0 
0.0 1.0 0.0 
0.0 1.0 0.0 
0.0 1.0 0.0 
0.0 1.0 0.0 
0.0 1.0 0.0 
0.0 1.0 0.0 
0.0 1.0 0.0 
0.0 1.0 0.0 
0.0 1.0 0.0 
0.0 1.0 0.0 
0.0 1.0 0.0 
0.0 1.0 0.0 
0.0 1.0 0.0 
0.0 1.0 0.0 
0.0 1.0 0.0 
0.0 1.0 0.0 
0.0 1.0 0.0 
0.0 1.0 0.0 
0.0 1.0 0.0 
0.0 1.0 0.0 
0.0 1.0 0.0 
0.0 0.0 1.0 
0.0 0.0 1.0 
0.0 0.0 1.0 
0.0 0.0 1.0 
0.0 0.0 1.0 
0.0 0.0 1.0 
0.0 0.0 1.0 
0.0 0.0 1.0 
0.0 0.0 1.0 
0.0 0.0 1.0 
0.0 0.0 1.0 
0.0 0.0 1.0 
0.0 0.0 1.0 
0.0 0.0 1.0 
0.0 0.0 1.0 
0.0 0.0 1.0 
0.0 0.0 1.0 
0.0 0.0 1.0 
0.0 0.0 1.0 
0.0 0.0 1.0 
0.0 0.0 1.0 
0.0 0.0 1.0 
0.0 0.0 1.0 
0.0 0.0 1.0 
0.0 0.0 1.0 
0.0 0.0 1.0 
0.0 0.0 1.0 
0.0 0.0 1.0 
0.0 0.0 1.0 
0.0 0.0 1.0 
0.0 0.0 1.0 
0.0 0.0 1.0 
0.0 0.0 1.0 
0.0 0.0 1.0 
0.0 0.0 1.0 
0.0 0.0 1.0 
0.0 0.0 1.0 
0.0 0.0 1.0 
0.0 0.0 1.0 
0.0 0.0 1.0 
0.0 0.0 1.0 
0.0 0.0 1.0 
0.0 0.0 1.0 
0.0 0.0 1.0 
0.0 0.0 1.0 
0.0 0.0 1.0 
0.0 0.0 1.0 
0.0 0.0 1.0 
0.0 0.0 1.0 
0.0 0.0 1.0 
Learning : 0.05
Momentum : 0.699999988079071
Epoch: 100, Error: 0.030262409491235393
Epoch: 200, Error: 0.018910027942359603
Epoch: 300, Error: 0.016494309606327435
Epoch: 400, Error: 0.015209570507760862
Epoch: 500, Error: 0.014625950490726082
Epoch: 600, Error: 0.014046248805579198
Epoch: 700, Error: 0.01389152647043204
Epoch: 800, Error: 0.013658784458103028
Epoch: 900, Error: 0.013539675774519075
Epoch: 1000, Error: 0.013419336562877459
Epoch: 1100, Error: 0.013280246081388523
Epoch: 1200, Error: 0.013320843973104504
Epoch: 1300, Error: 0.01320757326834643
Epoch: 1400, Error: 0.01298290713664561
Epoch: 1500, Error: 0.012869018861487082
Epoch: 1600, Error: 0.01262647744116394
Epoch: 1700, Error: 0.01261146184391291
Epoch: 1800, Error: 0.01264416004736838
Epoch: 1900, Error: 0.01257060429923092
Epoch: 2000, Error: 0.012534176881362812
Epoch: 2100, Error: 0.012499279307307275
Epoch: 2200, Error: 0.012682935584813003
Epoch: 2300, Error: 0.012566241029197123
Epoch: 2400, Error: 0.012454946327633856
Epoch: 2500, Error: 0.012443827242672923
Epoch: 2600, Error: 0.012436993140138273
Epoch: 2700, Error: 0.012460564115293485
Epoch: 2800, Error: 0.012367976448357213
Epoch: 2900, Error: 0.012367724216080872
Epoch: 3000, Error: 0.012356147361554375
Epoch: 3100, Error: 0.012405475390908818
Epoch: 3200, Error: 0.012332059119607629
Epoch: 3300, Error: 0.012573096810369734
Epoch: 3400, Error: 0.012353774938226607
Epoch: 3500, Error: 0.012403180347931989
Epoch: 3600, Error: 0.012375765184078817
Epoch: 3700, Error: 0.0123295998097472
Epoch: 3800, Error: 0.01230892720868425
Epoch: 3900, Error: 0.012310778978711539
Epoch: 4000, Error: 0.012230128837888042
Epoch: 4100, Error: 0.012307532206569485
Epoch: 4200, Error: 0.012207744219514484
Epoch: 4300, Error: 0.012245018302550474
Epoch: 4400, Error: 0.01223058523029395
Epoch: 4500, Error: 0.012251030910764479
Epoch: 4600, Error: 0.012307919006716468
Epoch: 4700, Error: 0.012363757951935356
Epoch: 4800, Error: 0.012289639259054063
Epoch: 4900, Error: 0.012269043386526424
Epoch: 5000, Error: 0.012247541671565837
Epoch: 5100, Error: 0.012263162623378577
Epoch: 5200, Error: 0.012233909114043016
Epoch: 5300, Error: 0.012233164301528269
Epoch: 5400, Error: 0.01222223833994797
Epoch: 5500, Error: 0.012234973181734114
Epoch: 5600, Error: 0.012343429509859213
Epoch: 5700, Error: 0.012251348127597443
Epoch: 5800, Error: 0.01217124093899866
Epoch: 5900, Error: 0.01213360671583571
Epoch: 6000, Error: 0.012248271457905862
Epoch: 6100, Error: 0.012185800392442001
Epoch: 6200, Error: 0.01218325603150999
Epoch: 6300, Error: 0.012135864479991161
Epoch: 6400, Error: 0.012228490339255101
Epoch: 6500, Error: 0.012166790777730334
Epoch: 6600, Error: 0.01210850888519704
Epoch: 6700, Error: 0.012154246300078752
Epoch: 6800, Error: 0.012101642191097451
Epoch: 6900, Error: 0.012176633593226426
Epoch: 7000, Error: 0.012111418511180078
Epoch: 7100, Error: 0.012104605878180878
Epoch: 7200, Error: 0.012122887036814346
Epoch: 7300, Error: 0.012128317767837833
Epoch: 7400, Error: 0.012054945309488278
Epoch: 7500, Error: 0.012073626366906955
Epoch: 7600, Error: 0.012045842865586916
Epoch: 7700, Error: 0.01202200950327192
Epoch: 7800, Error: 0.012035658751955816
Epoch: 7900, Error: 0.012061012762916351
Epoch: 8000, Error: 0.012038971079688564
Epoch: 8100, Error: 0.012013595884952663
Epoch: 8200, Error: 0.011968063978247685
Epoch: 8300, Error: 0.011979850575296134
Epoch: 8400, Error: 0.01204170671435497
Epoch: 8500, Error: 0.011945114234862672
Epoch: 8600, Error: 0.011917585810350326
Epoch: 8700, Error: 0.011954030178916563
Epoch: 8800, Error: 0.012027441066647993
Epoch: 8900, Error: 0.011879689666249327
Epoch: 9000, Error: 0.011841793881154184
Epoch: 9100, Error: 0.01193322823004445
Epoch: 9200, Error: 0.011823106450583916
Epoch: 9300, Error: 0.011785545795110739
Epoch: 9400, Error: 0.011774262326092617
Epoch: 9500, Error: 0.011767849128519081
Epoch: 9600, Error: 0.011719166992171312
Epoch: 9700, Error: 0.011753482627069807
Epoch: 9800, Error: 0.011636351281235514
Epoch: 9900, Error: 0.011597492739444952
Epoch: 10000, Error: 0.01157635098280391
Epoch: 10100, Error: 0.011550281069166762
Epoch: 10200, Error: 0.011500005124884506
Epoch: 10300, Error: 0.011472149341457486
Epoch: 10400, Error: 0.011472371728126445
Epoch: 10500, Error: 0.011447913247036801
Epoch: 10600, Error: 0.011336938418995801
Epoch: 10700, Error: 0.011293384531436615
Epoch: 10800, Error: 0.011273371330321828
Epoch: 10900, Error: 0.011218878777475572
Epoch: 11000, Error: 0.01120987310531909
Epoch: 11100, Error: 0.011139767358080024
Epoch: 11200, Error: 0.01111200810720393
Epoch: 11300, Error: 0.011049011940049345
Epoch: 11400, Error: 0.011028368085760817
Epoch: 11500, Error: 0.010985559054010208
Epoch: 11600, Error: 0.010846038038980503
Epoch: 11700, Error: 0.01084162840949698
Epoch: 11800, Error: 0.010849607948138815
Epoch: 11900, Error: 0.01069491644751088
Epoch: 12000, Error: 0.01062274052116695
Epoch: 12100, Error: 0.010556412813729989
Epoch: 12200, Error: 0.01049612208685512
Epoch: 12300, Error: 0.010399713298889411
Epoch: 12400, Error: 0.010384970241432869
Epoch: 12500, Error: 0.010222798138274683
Epoch: 12600, Error: 0.010160441270855202
Epoch: 12700, Error: 0.01005990052893581
Epoch: 12800, Error: 0.00995603929789835
Epoch: 12900, Error: 0.009870321223220345
Epoch: 13000, Error: 0.009772953142737762
Epoch: 13100, Error: 0.009687641175669063
Epoch: 13200, Error: 0.009593423938096183
Epoch: 13300, Error: 0.009503144903999665
Epoch: 13400, Error: 0.0094301217177246
Epoch: 13500, Error: 0.0093361427874262
Epoch: 13600, Error: 0.00922657759262843
Epoch: 13700, Error: 0.009146416670476065
Epoch: 13800, Error: 0.009088839931277693
Epoch: 13900, Error: 0.008934628942742643
Epoch: 14000, Error: 0.008890267589417827
Epoch: 14100, Error: 0.008779060805181243
Epoch: 14200, Error: 0.008681346428126964
Epoch: 14300, Error: 0.008614573000430885
Epoch: 14400, Error: 0.008515050096495384
Epoch: 14500, Error: 0.008423788053292296
Epoch: 14600, Error: 0.00836473682653252
Epoch: 14700, Error: 0.008233537665951175
Epoch: 14800, Error: 0.008141668323601596
Epoch: 14900, Error: 0.008026529423086827
Epoch: 15000, Error: 0.007926800019741677
Epoch: 15100, Error: 0.007845365365065927
Epoch: 15200, Error: 0.007790727831690696
Epoch: 15300, Error: 0.007655163989115631
Epoch: 15400, Error: 0.007595380090407336
Epoch: 15500, Error: 0.007550604656208247
Epoch: 15600, Error: 0.007515077584249424
Epoch: 15700, Error: 0.007414616155801172
Epoch: 15800, Error: 0.007338981623050812
Epoch: 15900, Error: 0.007235405170821665
Epoch: 16000, Error: 0.007194368707156008
Epoch: 16100, Error: 0.0070988302826772804
Epoch: 16200, Error: 0.007033610563940593
Epoch: 16300, Error: 0.006964699170831535
Epoch: 16400, Error: 0.006900518852846285
Epoch: 16500, Error: 0.006850874912603669
Epoch: 16600, Error: 0.00678487989067723
Epoch: 16700, Error: 0.006751450045711251
Epoch: 16800, Error: 0.006682321055549945
Epoch: 16900, Error: 0.0066349853960009485
Epoch: 17000, Error: 0.006575549992499814
Epoch: 17100, Error: 0.006534065920270661
Epoch: 17200, Error: 0.006498435642864922
Epoch: 17300, Error: 0.006443541008152145
Epoch: 17400, Error: 0.006432880468443681
Epoch: 17500, Error: 0.006368328456507064
Epoch: 17600, Error: 0.006326508593774403
Epoch: 17700, Error: 0.006282605000767764
Epoch: 17800, Error: 0.006232617668305952
Epoch: 17900, Error: 0.006196157120304608
Epoch: 18000, Error: 0.006165787995261807
Epoch: 18100, Error: 0.0061189140966215255
Epoch: 18200, Error: 0.006087262901757284
Epoch: 18300, Error: 0.0061142669439345175
Epoch: 18400, Error: 0.0060542752627432495
Epoch: 18500, Error: 0.006009496907926319
Epoch: 18600, Error: 0.0059820022713025275
Epoch: 18700, Error: 0.005958032238246367
Epoch: 18800, Error: 0.005927470424872861
Epoch: 18900, Error: 0.005911533662696122
Epoch: 19000, Error: 0.0059216290931976565
Epoch: 19100, Error: 0.0058633341873355555
Epoch: 19200, Error: 0.005858296416820126
Epoch: 19300, Error: 0.005824905523796763
Epoch: 19400, Error: 0.005888869568654139
Epoch: 19500, Error: 0.005791789113243076
Epoch: 19600, Error: 0.005771758949828423
Epoch: 19700, Error: 0.0057621721070414324
Epoch: 19800, Error: 0.005720921070851595
Epoch: 19900, Error: 0.005712295384849711
Epoch: 20000, Error: 0.005690522183183107
Epoch: 20100, Error: 0.005664675569196225
Epoch: 20200, Error: 0.005645835168684096
Epoch: 20300, Error: 0.005656285648171322
Epoch: 20400, Error: 0.005614333654610994
Epoch: 20500, Error: 0.005592576268196044
Epoch: 20600, Error: 0.005610182425334213
Epoch: 20700, Error: 0.005557681058690953
Epoch: 20800, Error: 0.005570463285484634
Epoch: 20900, Error: 0.005521727711359436
Epoch: 21000, Error: 0.005509238351627673
Epoch: 21100, Error: 0.005509587460955638
Epoch: 21200, Error: 0.005476734982164674
Epoch: 21300, Error: 0.00547458200165105
Epoch: 21400, Error: 0.005480560610399961
Epoch: 21500, Error: 0.005431671159150176
Epoch: 21600, Error: 0.005410297238601405
Epoch: 21700, Error: 0.005414017162571103
Epoch: 21800, Error: 0.005385628186543884
Epoch: 21900, Error: 0.005420423012688182
Epoch: 22000, Error: 0.0054195289218699014
Epoch: 22100, Error: 0.005348925822046213
Epoch: 22200, Error: 0.005395371227258999
Epoch: 22300, Error: 0.005352629584671237
Epoch: 22400, Error: 0.0053118433186885835
Epoch: 22500, Error: 0.0053208762201226644
Epoch: 22600, Error: 0.005333114868060034
Epoch: 22700, Error: 0.005270639409100479
Epoch: 22800, Error: 0.0052210920979207254
Epoch: 22900, Error: 0.0052201902844420285
Epoch: 23000, Error: 0.005276709928148263
Epoch: 23100, Error: 0.005177545325647054
Epoch: 23200, Error: 0.00515380735794873
Epoch: 23300, Error: 0.005111067268425396
Epoch: 23400, Error: 0.005105173358886418
Epoch: 23500, Error: 0.005088160102555495
Epoch: 23600, Error: 0.0050546307367009755
Epoch: 23700, Error: 0.005033718225791149
Epoch: 23800, Error: 0.00501206722330326
Epoch: 23900, Error: 0.005024250445122951
Epoch: 24000, Error: 0.0050105450100056004
Epoch: 24100, Error: 0.005030346866852587
Epoch: 24200, Error: 0.004944386699498833
Epoch: 24300, Error: 0.004925555038427268
Epoch: 24400, Error: 0.0048621537946511644
Epoch: 24500, Error: 0.004851498836640338
Epoch: 24600, Error: 0.004836952003342735
Epoch: 24700, Error: 0.004784304179056431
Epoch: 24800, Error: 0.004775287483706908
Epoch: 24900, Error: 0.0047383707246725654
Epoch: 25000, Error: 0.004703173495575657
Epoch: 25100, Error: 0.004650898194292607
Epoch: 25200, Error: 0.0046130470192892745
Epoch: 25300, Error: 0.004593946145857642
Epoch: 25400, Error: 0.0045406540152357995
Epoch: 25500, Error: 0.004479531964797311
Epoch: 25600, Error: 0.004454927555095616
Epoch: 25700, Error: 0.004426554588210705
Epoch: 25800, Error: 0.0043982372930626975
Epoch: 25900, Error: 0.0043399555328923044
Epoch: 26000, Error: 0.00437578146748695
Epoch: 26100, Error: 0.004273056540723339
Epoch: 26200, Error: 0.004305778196862421
Epoch: 26300, Error: 0.004250576364047942
Epoch: 26400, Error: 0.004230219168194015
Epoch: 26500, Error: 0.004225255624312567
Epoch: 26600, Error: 0.004185663334041207
Epoch: 26700, Error: 0.004157804408443194
Epoch: 26800, Error: 0.004183765565213516
Epoch: 26900, Error: 0.004136947585127302
Epoch: 27000, Error: 0.0041318450811293995
Epoch: 27100, Error: 0.004109135749463068
Epoch: 27200, Error: 0.004125846252451988
Epoch: 27300, Error: 0.004086027123683326
Epoch: 27400, Error: 0.00407777161263055
Epoch: 27500, Error: 0.004001807473475173
Epoch: 27600, Error: 0.003981235152248978
Epoch: 27700, Error: 0.00399738127821826
Epoch: 27800, Error: 0.00397756662625025
Epoch: 27900, Error: 0.00396536885296625
Epoch: 28000, Error: 0.0039225757141494585
Epoch: 28100, Error: 0.0038463120168235627
Epoch: 28200, Error: 0.003839878913421661
Epoch: 28300, Error: 0.004081957481726874
Epoch: 28400, Error: 0.003802517328034414
Epoch: 28500, Error: 0.0038108138098087124
Epoch: 28600, Error: 0.003749697610226516
Epoch: 28700, Error: 0.0037019981819299973
Epoch: 28800, Error: 0.00368171327232152
Epoch: 28900, Error: 0.003662170362018545
Epoch: 29000, Error: 0.0036930074244786327
Epoch: 29100, Error: 0.0036034915486908552
Epoch: 29200, Error: 0.0035829695281616456
Epoch: 29300, Error: 0.0036818541001930522
Epoch: 29400, Error: 0.003542290073069328
Epoch: 29500, Error: 0.003619210835537618
Epoch: 29600, Error: 0.0034671443016876784
Epoch: 29700, Error: 0.0035765101267797436
Epoch: 29800, Error: 0.0034301288460671757
Epoch: 29900, Error: 0.0034512582420377098
Epoch: 30000, Error: 0.003433972306940433
Epoch: 30100, Error: 0.0035234301150000496
Epoch: 30200, Error: 0.0034153825702849926
Epoch: 30300, Error: 0.0033413950665531363
Epoch: 30400, Error: 0.003399109192774011
Epoch: 30500, Error: 0.0032650317255786304
Epoch: 30600, Error: 0.0033088226970985923
Epoch: 30700, Error: 0.0032561391751508096
Epoch: 30800, Error: 0.0032524867704295263
Epoch: 30900, Error: 0.00320021930604144
Epoch: 31000, Error: 0.0032685761330598856
Epoch: 31100, Error: 0.0031668073917184084
Epoch: 31200, Error: 0.0031511558750929726
Epoch: 31300, Error: 0.003220678609191902
Epoch: 31400, Error: 0.0031215773235004707
Epoch: 31500, Error: 0.003176837439788132
Epoch: 31600, Error: 0.0030946163342139405
Epoch: 31700, Error: 0.003143608516172931
Epoch: 31800, Error: 0.0030885258768168005
Epoch: 31900, Error: 0.0031475621117247913
Epoch: 32000, Error: 0.003038619302692002
Epoch: 32100, Error: 0.003082607330776773
Epoch: 32200, Error: 0.003006220154061901
Epoch: 32300, Error: 0.00306479834568942
Epoch: 32400, Error: 0.002983373057970905
Epoch: 32500, Error: 0.0030701422415087905
Epoch: 32600, Error: 0.003016320605180068
Epoch: 32700, Error: 0.002949601529985469
Epoch: 32800, Error: 0.0029515936440668166
Epoch: 32900, Error: 0.0029473761184518367
Epoch: 33000, Error: 0.0029183849890891196
Epoch: 33100, Error: 0.002942547414550765
Epoch: 33200, Error: 0.002895458334755541
Epoch: 33300, Error: 0.002924953764230835
Epoch: 33400, Error: 0.0028585453087576324
Epoch: 33500, Error: 0.0028495415726086655
Epoch: 33600, Error: 0.0028686436019068912
Epoch: 33700, Error: 0.00279979728333405
Epoch: 33800, Error: 0.002839233646450817
Epoch: 33900, Error: 0.0028287928304985104
Epoch: 34000, Error: 0.002723336538530489
Epoch: 34100, Error: 0.0027465679304304416
Epoch: 34200, Error: 0.0027871832165012912
Epoch: 34300, Error: 0.002899997103706239
Epoch: 34400, Error: 0.0026830915807136402
Epoch: 34500, Error: 0.002681768169919823
Epoch: 34600, Error: 0.0027184132158961124
Epoch: 34700, Error: 0.0027987922884375863
Epoch: 34800, Error: 0.002666190410416119
Epoch: 34900, Error: 0.0026755754350655057
Epoch: 35000, Error: 0.002606640237862991
Epoch: 35100, Error: 0.0026277249725957927
Epoch: 35200, Error: 0.0025912164959213837
Epoch: 35300, Error: 0.002661206113446321
Epoch: 35400, Error: 0.002581103146768734
Epoch: 35500, Error: 0.0027069527718510734
Epoch: 35600, Error: 0.0025874880810489802
Epoch: 35700, Error: 0.00257235206567147
Epoch: 35800, Error: 0.0025570245087763147
Epoch: 35900, Error: 0.002564558090084939
Epoch: 36000, Error: 0.002545996318839211
Epoch: 36100, Error: 0.0025212655716742665
Epoch: 36200, Error: 0.0025326082688633166
Epoch: 36300, Error: 0.0025176631305674347
Epoch: 36400, Error: 0.0025203734111047243
Epoch: 36500, Error: 0.002538912203948749
Epoch: 36600, Error: 0.0025028451446594277
Epoch: 36700, Error: 0.0025821015990156074
Epoch: 36800, Error: 0.002512342594228272
Epoch: 36900, Error: 0.002532456775240642
Epoch: 37000, Error: 0.0025540864800515303
Epoch: 37100, Error: 0.002545516922995495
Epoch: 37200, Error: 0.002529313749723151
Epoch: 37300, Error: 0.00252270613103557
Epoch: 37400, Error: 0.0025587516400702778
Epoch: 37500, Error: 0.0027811773426434476
Epoch: 37600, Error: 0.0025470121302143185
Epoch: 37700, Error: 0.002480955901334201
Epoch: 37800, Error: 0.0025271569988080315
Epoch: 37900, Error: 0.0024850513356703113
Epoch: 38000, Error: 0.0025249438840832875
Epoch: 38100, Error: 0.002473860060552666
Epoch: 38200, Error: 0.0025537237182207953
Epoch: 38300, Error: 0.00250070812653233
Epoch: 38400, Error: 0.0024601052161477067
Epoch: 38500, Error: 0.0024397699750452377
Epoch: 38600, Error: 0.002464842916472882
Epoch: 38700, Error: 0.0024952431761163067
Epoch: 38800, Error: 0.0024176701890648083
Epoch: 38900, Error: 0.0025036468133258403
Epoch: 39000, Error: 0.002410472684612779
Epoch: 39100, Error: 0.002375424198792045
Epoch: 39200, Error: 0.002400009649956415
Epoch: 39300, Error: 0.0023270410680394683
Epoch: 39400, Error: 0.002323572487789937
Epoch: 39500, Error: 0.0023111093853202397
Epoch: 39600, Error: 0.002318605835171458
Epoch: 39700, Error: 0.0023452908453965218
Epoch: 39800, Error: 0.002276844740631532
Epoch: 39900, Error: 0.0022743950527527347
Epoch: 40000, Error: 0.002269286396266633
Epoch: 40100, Error: 0.0022627783398804944
Epoch: 40200, Error: 0.002269944705224426
Epoch: 40300, Error: 0.0022316756531892794
Epoch: 40400, Error: 0.002215170285900724
Epoch: 40500, Error: 0.002287233002350395
Epoch: 40600, Error: 0.002259659662118513
Epoch: 40700, Error: 0.002269288391569372
Epoch: 40800, Error: 0.00219326258945549
Epoch: 40900, Error: 0.002209129197591528
Epoch: 41000, Error: 0.0021791437233176863
Epoch: 41100, Error: 0.0022028558040163063
Epoch: 41200, Error: 0.0021874518230924527
Epoch: 41300, Error: 0.0021797097393299867
Epoch: 41400, Error: 0.002154122955849336
Epoch: 41500, Error: 0.0021335481194920823
Epoch: 41600, Error: 0.00213944820433119
Epoch: 41700, Error: 0.002147712700470439
Epoch: 41800, Error: 0.002122991651711128
Epoch: 41900, Error: 0.0021091652983742035
Epoch: 42000, Error: 0.00209225046679014
Epoch: 42100, Error: 0.0020809587576993915
Epoch: 42200, Error: 0.0020688357943220853
Epoch: 42300, Error: 0.0020895335280824976
Epoch: 42400, Error: 0.002150070875471497
Epoch: 42500, Error: 0.0020605941674784706
Epoch: 42600, Error: 0.0020659626963606174
Epoch: 42700, Error: 0.002022054625718273
Epoch: 42800, Error: 0.0020267311128466976
Epoch: 42900, Error: 0.002023376266443034
Epoch: 43000, Error: 0.0020076230196049787
Epoch: 43100, Error: 0.002016546426455831
Epoch: 43200, Error: 0.001982257887097942
Epoch: 43300, Error: 0.001969050427676716
Epoch: 43400, Error: 0.0019940995961123553
Epoch: 43500, Error: 0.0019368116206510205
Epoch: 43600, Error: 0.0019322411448659327
Epoch: 43700, Error: 0.0019093022072971396
Epoch: 43800, Error: 0.0019049382584631594
Epoch: 43900, Error: 0.0019135446969496105
Epoch: 44000, Error: 0.0019082968412716024
Epoch: 44100, Error: 0.0019062138270220285
Epoch: 44200, Error: 0.0019115967510861293
Epoch: 44300, Error: 0.00188408250408144
Epoch: 44400, Error: 0.0018927979459116063
Epoch: 44500, Error: 0.0018767516182181126
Epoch: 44600, Error: 0.0018889142446981862
Epoch: 44700, Error: 0.0018668023832764792
Epoch: 44800, Error: 0.0018598180592201093
Epoch: 44900, Error: 0.0018838361103283299
Epoch: 45000, Error: 0.0018566378047261685
Epoch: 45100, Error: 0.0018662359021151078
Epoch: 45200, Error: 0.0018595145796419077
Epoch: 45300, Error: 0.0018503238378852645
Epoch: 45400, Error: 0.0018465848738050028
Epoch: 45500, Error: 0.0018179793995910486
Epoch: 45600, Error: 0.0018356703938262645
Epoch: 45700, Error: 0.001822300708189271
Epoch: 45800, Error: 0.0018249215109877436
Epoch: 45900, Error: 0.0018022056596638258
Epoch: 46000, Error: 0.0017800736656834366
Epoch: 46100, Error: 0.0017692864591213814
Epoch: 46200, Error: 0.0017603881612184235
Epoch: 46300, Error: 0.0017701189620704355
Epoch: 46400, Error: 0.0017605734668033719
Epoch: 46500, Error: 0.001733100957090538
Epoch: 46600, Error: 0.0017254034040422093
Epoch: 46700, Error: 0.001714449256636472
Epoch: 46800, Error: 0.0016981926542630203
Epoch: 46900, Error: 0.0016932147802207662
Epoch: 47000, Error: 0.0016851535394815955
Epoch: 47100, Error: 0.0016759635425152007
Epoch: 47200, Error: 0.0016665841390537794
Epoch: 47300, Error: 0.0016599206594093987
Epoch: 47400, Error: 0.001652373327376443
Epoch: 47500, Error: 0.0016288507864679995
Epoch: 47600, Error: 0.0016220669302357922
Epoch: 47700, Error: 0.0016192479970022161
Epoch: 47800, Error: 0.0016097345080289692
Epoch: 47900, Error: 0.0015892905170696075
Epoch: 48000, Error: 0.001578420732153247
Epoch: 48100, Error: 0.0015667344773961545
Epoch: 48200, Error: 0.0015487152493282247
Epoch: 48300, Error: 0.0015425169321223826
Epoch: 48400, Error: 0.001549148733920958
Epoch: 48500, Error: 0.001517892085611539
Epoch: 48600, Error: 0.0015113942292556799
Epoch: 48700, Error: 0.0014956771304697508
Epoch: 48800, Error: 0.0014969237796080086
Epoch: 48900, Error: 0.0014792205766836937
Epoch: 49000, Error: 0.0014641502966408018
Epoch: 49100, Error: 0.0014572384831133057
Epoch: 49200, Error: 0.0014558668145883066
Epoch: 49300, Error: 0.0014403366201691363
