Input Patterns
0.224 0.624 0.067 0.043 
0.11 0.502 0.051 0.043 
0.196 0.667 0.067 0.043 
0.055 0.584 0.067 0.082 
0.027 0.376 0.067 0.043 
0.306 0.71 0.086 0.043 
0.137 0.416 0.067 0.0 
0.416 0.831 0.035 0.043 
0.306 0.792 0.051 0.125 
0.388 0.749 0.118 0.082 
0.306 0.584 0.118 0.043 
0.082 0.667 0.0 0.043 
0.137 0.584 0.153 0.043 
0.196 0.584 0.102 0.125 
0.251 0.584 0.067 0.043 
0.137 0.459 0.102 0.043 
0.251 0.875 0.086 0.0 
0.165 0.459 0.086 0.043 
0.333 0.624 0.051 0.043 
0.027 0.416 0.051 0.043 
0.196 0.624 0.051 0.082 
0.027 0.502 0.051 0.043 
0.224 0.749 0.153 0.125 
0.224 0.749 0.102 0.043 
0.278 0.71 0.086 0.043 
0.165 0.416 0.067 0.043 
0.082 0.459 0.086 0.043 
0.306 0.792 0.118 0.125 
0.196 0.584 0.086 0.043 
0.165 0.459 0.086 0.0 
0.137 0.584 0.102 0.043 
0.0 0.416 0.016 0.0 
0.388 1.0 0.086 0.125 
0.224 0.624 0.067 0.082 
0.224 0.749 0.086 0.082 
0.224 0.71 0.086 0.125 
0.224 0.541 0.118 0.165 
0.196 0.416 0.102 0.043 
0.251 0.624 0.086 0.043 
0.11 0.502 0.102 0.043 
0.306 0.584 0.086 0.125 
0.333 0.918 0.067 0.043 
0.196 0.502 0.035 0.043 
0.165 0.667 0.067 0.0 
0.224 0.584 0.086 0.043 
0.055 0.125 0.051 0.082 
0.196 0.624 0.102 0.208 
0.137 0.416 0.067 0.082 
0.082 0.502 0.067 0.043 
0.196 0.541 0.067 0.043 
0.749 0.502 0.627 0.541 
0.722 0.459 0.663 0.584 
0.612 0.333 0.612 0.584 
0.557 0.541 0.627 0.624 
0.639 0.376 0.612 0.498 
0.196 0.0 0.424 0.376 
0.471 0.082 0.51 0.376 
0.361 0.376 0.439 0.498 
0.361 0.416 0.592 0.584 
0.529 0.082 0.592 0.584 
0.443 0.502 0.643 0.459 
0.557 0.208 0.663 0.584 
0.584 0.376 0.561 0.498 
0.694 0.333 0.643 0.541 
0.471 0.376 0.592 0.584 
0.333 0.169 0.475 0.416 
0.416 0.29 0.49 0.459 
0.306 0.416 0.592 0.584 
0.667 0.459 0.627 0.584 
0.361 0.416 0.525 0.498 
0.333 0.251 0.576 0.459 
0.416 0.251 0.51 0.459 
0.361 0.29 0.541 0.498 
0.388 0.376 0.541 0.498 
0.224 0.208 0.337 0.416 
0.584 0.502 0.592 0.584 
0.333 0.125 0.51 0.498 
0.388 0.333 0.592 0.498 
0.165 0.169 0.388 0.376 
0.251 0.29 0.49 0.541 
0.443 0.416 0.541 0.584 
0.498 0.376 0.627 0.541 
0.667 0.459 0.576 0.541 
0.416 0.29 0.525 0.376 
0.361 0.208 0.49 0.416 
0.498 0.333 0.51 0.498 
0.498 0.333 0.627 0.459 
0.639 0.416 0.576 0.541 
0.667 0.416 0.678 0.667 
0.388 0.251 0.424 0.376 
0.333 0.169 0.459 0.376 
0.471 0.29 0.694 0.624 
0.471 0.584 0.592 0.624 
0.557 0.125 0.576 0.498 
0.333 0.208 0.51 0.498 
0.498 0.416 0.612 0.541 
0.196 0.125 0.388 0.376 
0.388 0.416 0.541 0.459 
0.529 0.376 0.561 0.498 
0.388 0.333 0.525 0.498 
0.557 0.541 0.847 1.0 
0.776 0.416 0.831 0.831 
0.612 0.416 0.812 0.875 
0.165 0.208 0.592 0.667 
0.667 0.208 0.812 0.71 
0.612 0.502 0.694 0.792 
0.694 0.416 0.761 0.831 
0.416 0.333 0.694 0.957 
0.612 0.416 0.761 0.71 
0.945 0.251 1.0 0.918 
0.722 0.502 0.796 0.918 
0.945 0.333 0.965 0.792 
0.667 0.541 0.796 0.831 
0.529 0.333 0.643 0.71 
0.584 0.333 0.78 0.831 
0.863 0.333 0.863 0.749 
0.584 0.333 0.78 0.875 
0.498 0.251 0.78 0.541 
0.557 0.584 0.78 0.957 
0.471 0.416 0.643 0.71 
0.667 0.459 0.78 0.957 
0.416 0.29 0.694 0.749 
0.667 0.541 0.796 1.0 
0.557 0.208 0.678 0.749 
0.529 0.584 0.745 0.918 
0.416 0.29 0.694 0.749 
0.557 0.376 0.78 0.71 
0.918 0.416 0.949 0.831 
0.835 0.376 0.898 0.71 
0.804 0.667 0.863 1.0 
0.584 0.29 0.729 0.749 
0.388 0.208 0.678 0.792 
0.584 0.502 0.729 0.918 
0.945 0.749 0.965 0.875 
0.471 0.082 0.678 0.584 
0.361 0.333 0.663 0.792 
0.557 0.29 0.663 0.71 
0.804 0.502 0.847 0.71 
0.498 0.416 0.51 0.71 
0.804 0.416 0.812 0.624 
1.0 0.749 0.914 0.792 
0.557 0.333 0.694 0.584 
0.945 0.416 0.863 0.918 
0.584 0.459 0.761 0.71 
0.722 0.459 0.745 0.831 
0.722 0.459 0.694 0.918 
0.694 0.502 0.831 0.918 
0.667 0.416 0.714 0.918 
0.612 0.416 0.714 0.792 
0.443 0.416 0.694 0.71 
Teaching Patterns
1.0 0.0 0.0 
1.0 0.0 0.0 
1.0 0.0 0.0 
1.0 0.0 0.0 
1.0 0.0 0.0 
1.0 0.0 0.0 
1.0 0.0 0.0 
1.0 0.0 0.0 
1.0 0.0 0.0 
1.0 0.0 0.0 
1.0 0.0 0.0 
1.0 0.0 0.0 
1.0 0.0 0.0 
1.0 0.0 0.0 
1.0 0.0 0.0 
1.0 0.0 0.0 
1.0 0.0 0.0 
1.0 0.0 0.0 
1.0 0.0 0.0 
1.0 0.0 0.0 
1.0 0.0 0.0 
1.0 0.0 0.0 
1.0 0.0 0.0 
1.0 0.0 0.0 
1.0 0.0 0.0 
1.0 0.0 0.0 
1.0 0.0 0.0 
1.0 0.0 0.0 
1.0 0.0 0.0 
1.0 0.0 0.0 
1.0 0.0 0.0 
1.0 0.0 0.0 
1.0 0.0 0.0 
1.0 0.0 0.0 
1.0 0.0 0.0 
1.0 0.0 0.0 
1.0 0.0 0.0 
1.0 0.0 0.0 
1.0 0.0 0.0 
1.0 0.0 0.0 
1.0 0.0 0.0 
1.0 0.0 0.0 
1.0 0.0 0.0 
1.0 0.0 0.0 
1.0 0.0 0.0 
1.0 0.0 0.0 
1.0 0.0 0.0 
1.0 0.0 0.0 
1.0 0.0 0.0 
1.0 0.0 0.0 
0.0 1.0 0.0 
0.0 1.0 0.0 
0.0 1.0 0.0 
0.0 1.0 0.0 
0.0 1.0 0.0 
0.0 1.0 0.0 
0.0 1.0 0.0 
0.0 1.0 0.0 
0.0 1.0 0.0 
0.0 1.0 0.0 
0.0 1.0 0.0 
0.0 1.0 0.0 
0.0 1.0 0.0 
0.0 1.0 0.0 
0.0 1.0 0.0 
0.0 1.0 0.0 
0.0 1.0 0.0 
0.0 1.0 0.0 
0.0 1.0 0.0 
0.0 1.0 0.0 
0.0 1.0 0.0 
0.0 1.0 0.0 
0.0 1.0 0.0 
0.0 1.0 0.0 
0.0 1.0 0.0 
0.0 1.0 0.0 
0.0 1.0 0.0 
0.0 1.0 0.0 
0.0 1.0 0.0 
0.0 1.0 0.0 
0.0 1.0 0.0 
0.0 1.0 0.0 
0.0 1.0 0.0 
0.0 1.0 0.0 
0.0 1.0 0.0 
0.0 1.0 0.0 
0.0 1.0 0.0 
0.0 1.0 0.0 
0.0 1.0 0.0 
0.0 1.0 0.0 
0.0 1.0 0.0 
0.0 1.0 0.0 
0.0 1.0 0.0 
0.0 1.0 0.0 
0.0 1.0 0.0 
0.0 1.0 0.0 
0.0 1.0 0.0 
0.0 1.0 0.0 
0.0 1.0 0.0 
0.0 1.0 0.0 
0.0 0.0 1.0 
0.0 0.0 1.0 
0.0 0.0 1.0 
0.0 0.0 1.0 
0.0 0.0 1.0 
0.0 0.0 1.0 
0.0 0.0 1.0 
0.0 0.0 1.0 
0.0 0.0 1.0 
0.0 0.0 1.0 
0.0 0.0 1.0 
0.0 0.0 1.0 
0.0 0.0 1.0 
0.0 0.0 1.0 
0.0 0.0 1.0 
0.0 0.0 1.0 
0.0 0.0 1.0 
0.0 0.0 1.0 
0.0 0.0 1.0 
0.0 0.0 1.0 
0.0 0.0 1.0 
0.0 0.0 1.0 
0.0 0.0 1.0 
0.0 0.0 1.0 
0.0 0.0 1.0 
0.0 0.0 1.0 
0.0 0.0 1.0 
0.0 0.0 1.0 
0.0 0.0 1.0 
0.0 0.0 1.0 
0.0 0.0 1.0 
0.0 0.0 1.0 
0.0 0.0 1.0 
0.0 0.0 1.0 
0.0 0.0 1.0 
0.0 0.0 1.0 
0.0 0.0 1.0 
0.0 0.0 1.0 
0.0 0.0 1.0 
0.0 0.0 1.0 
0.0 0.0 1.0 
0.0 0.0 1.0 
0.0 0.0 1.0 
0.0 0.0 1.0 
0.0 0.0 1.0 
0.0 0.0 1.0 
0.0 0.0 1.0 
0.0 0.0 1.0 
0.0 0.0 1.0 
0.0 0.0 1.0 
Learning : 0.05
Momentum : 0.699999988079071
Epoch: 100, Error: 0.030503128748305845
Epoch: 200, Error: 0.0193554742564874
Epoch: 300, Error: 0.01734842722490174
Epoch: 400, Error: 0.015294452591955032
Epoch: 500, Error: 0.014724328311448034
Epoch: 600, Error: 0.014192976489696278
Epoch: 700, Error: 0.014069550861284544
Epoch: 800, Error: 0.013746454487947616
Epoch: 900, Error: 0.013576905417346736
Epoch: 1000, Error: 0.013528283276749166
Epoch: 1100, Error: 0.01333504058134255
Epoch: 1200, Error: 0.013239582414517623
Epoch: 1300, Error: 0.012890189597963439
Epoch: 1400, Error: 0.01298616409167574
Epoch: 1500, Error: 0.012690899738972323
Epoch: 1600, Error: 0.012673864675477757
Epoch: 1700, Error: 0.012774247607452938
Epoch: 1800, Error: 0.012532255160383572
Epoch: 1900, Error: 0.012545062395349266
Epoch: 2000, Error: 0.012594712102699022
Epoch: 2100, Error: 0.012471575100934496
Epoch: 2200, Error: 0.012407417468249216
Epoch: 2300, Error: 0.0123979242134326
Epoch: 2400, Error: 0.01237259846228522
Epoch: 2500, Error: 0.012382416457618797
Epoch: 2600, Error: 0.012372245696782394
Epoch: 2700, Error: 0.012370959080639834
Epoch: 2800, Error: 0.012300251808452036
Epoch: 2900, Error: 0.012290093095944988
Epoch: 3000, Error: 0.012362921305009428
Epoch: 3100, Error: 0.012390350223321881
Epoch: 3200, Error: 0.012259582073267893
Epoch: 3300, Error: 0.012242129919047362
Epoch: 3400, Error: 0.01218167179019531
Epoch: 3500, Error: 0.012137139507789496
Epoch: 3600, Error: 0.012163173548848053
Epoch: 3700, Error: 0.012148205349910483
Epoch: 3800, Error: 0.012238800263196953
Epoch: 3900, Error: 0.012161515052994848
Epoch: 4000, Error: 0.012126409687006432
Epoch: 4100, Error: 0.012201361687417455
Epoch: 4200, Error: 0.01208993911398304
Epoch: 4300, Error: 0.012080988222450122
Epoch: 4400, Error: 0.012138631261193166
Epoch: 4500, Error: 0.012131061782365575
Epoch: 4600, Error: 0.012059290971469077
Epoch: 4700, Error: 0.012071698602028844
Epoch: 4800, Error: 0.012062494698781729
Epoch: 4900, Error: 0.012031863399219358
Epoch: 5000, Error: 0.012046023958946118
Epoch: 5100, Error: 0.012172284135025096
Epoch: 5200, Error: 0.012071124607396063
Epoch: 5300, Error: 0.01203833517556285
Epoch: 5400, Error: 0.012019645046568507
Epoch: 5500, Error: 0.01201786835058958
Epoch: 5600, Error: 0.011984716902986694
Epoch: 5700, Error: 0.011964058618857612
Epoch: 5800, Error: 0.012070452217978894
Epoch: 5900, Error: 0.012305767073926561
Epoch: 6000, Error: 0.011944184250020487
Epoch: 6100, Error: 0.011934868805611416
Epoch: 6200, Error: 0.011968769179301895
Epoch: 6300, Error: 0.011895706772969116
Epoch: 6400, Error: 0.011862053408178388
Epoch: 6500, Error: 0.01187623366982346
Epoch: 6600, Error: 0.01185176944789008
Epoch: 6700, Error: 0.011925165354886937
Epoch: 6800, Error: 0.011914728369008252
Epoch: 6900, Error: 0.011844413588619063
Epoch: 7000, Error: 0.01183464671629475
Epoch: 7100, Error: 0.011794121878909958
Epoch: 7200, Error: 0.01181355321700701
Epoch: 7300, Error: 0.011797839077858996
Epoch: 7400, Error: 0.011756208430633535
Epoch: 7500, Error: 0.011868916496620762
Epoch: 7600, Error: 0.011732170533033291
Epoch: 7700, Error: 0.011710847765546855
Epoch: 7800, Error: 0.011697212191683737
Epoch: 7900, Error: 0.011773360183401187
Epoch: 8000, Error: 0.011682288131612022
Epoch: 8100, Error: 0.011636653135489854
Epoch: 8200, Error: 0.011611561882859788
Epoch: 8300, Error: 0.011579989827677637
Epoch: 8400, Error: 0.011558143775445475
Epoch: 8500, Error: 0.011555728440835675
Epoch: 8600, Error: 0.011486284639742798
Epoch: 8700, Error: 0.011452627505276857
Epoch: 8800, Error: 0.01145988023673307
Epoch: 8900, Error: 0.011420042006396132
Epoch: 9000, Error: 0.011364848680353914
Epoch: 9100, Error: 0.01133380026954476
Epoch: 9200, Error: 0.011297612768426352
Epoch: 9300, Error: 0.011256398620622929
Epoch: 9400, Error: 0.011226078910024806
Epoch: 9500, Error: 0.011187075778596121
Epoch: 9600, Error: 0.011103349944333655
Epoch: 9700, Error: 0.011052429755397315
Epoch: 9800, Error: 0.011000575609921237
Epoch: 9900, Error: 0.010996035588755072
Epoch: 10000, Error: 0.010890227964888975
Epoch: 10100, Error: 0.010805120750126239
Epoch: 10200, Error: 0.010739726273363106
Epoch: 10300, Error: 0.010715637123600212
Epoch: 10400, Error: 0.01073935223904826
Epoch: 10500, Error: 0.010522444166216479
Epoch: 10600, Error: 0.010441215548559129
Epoch: 10700, Error: 0.010487337842090886
Epoch: 10800, Error: 0.010272291890666002
Epoch: 10900, Error: 0.010197093803545412
Epoch: 11000, Error: 0.010061068933312507
Epoch: 11100, Error: 0.00995023371902261
Epoch: 11200, Error: 0.00993154032601225
Epoch: 11300, Error: 0.00971291685089122
Epoch: 11400, Error: 0.009608518190667974
Epoch: 11500, Error: 0.00953135288236652
Epoch: 11600, Error: 0.009414722261072045
Epoch: 11700, Error: 0.009283683926535653
Epoch: 11800, Error: 0.009345262882436596
Epoch: 11900, Error: 0.009101735054735615
Epoch: 12000, Error: 0.009015228033512419
Epoch: 12100, Error: 0.008868779322822947
Epoch: 12200, Error: 0.008780993932537113
Epoch: 12300, Error: 0.008716659115576371
Epoch: 12400, Error: 0.008576935842740736
Epoch: 12500, Error: 0.008472939127648332
Epoch: 12600, Error: 0.00836478985904058
Epoch: 12700, Error: 0.008289154759637374
Epoch: 12800, Error: 0.008208859641110601
Epoch: 12900, Error: 0.008120994846243073
Epoch: 13000, Error: 0.008025508239084867
Epoch: 13100, Error: 0.007954455624046005
Epoch: 13200, Error: 0.007880446413615771
Epoch: 13300, Error: 0.007782681516153869
Epoch: 13400, Error: 0.007716763195291232
Epoch: 13500, Error: 0.007663193421238081
Epoch: 13600, Error: 0.007593431701180253
Epoch: 13700, Error: 0.007523307776203693
Epoch: 13800, Error: 0.007448774018487668
Epoch: 13900, Error: 0.007410879593519464
Epoch: 14000, Error: 0.00735666389911129
Epoch: 14100, Error: 0.0073765413985017545
Epoch: 14200, Error: 0.0072147325765027975
Epoch: 14300, Error: 0.007169797032277483
Epoch: 14400, Error: 0.0071158332356445015
Epoch: 14500, Error: 0.007106243060836001
Epoch: 14600, Error: 0.0069966921851803065
Epoch: 14700, Error: 0.006928697826098909
Epoch: 14800, Error: 0.006875037690220806
Epoch: 14900, Error: 0.006839145148530055
Epoch: 15000, Error: 0.006756129590107444
Epoch: 15100, Error: 0.006708802520990905
Epoch: 15200, Error: 0.006673142891764842
Epoch: 15300, Error: 0.006616238080313084
Epoch: 15400, Error: 0.0065908821407044136
Epoch: 15500, Error: 0.006559963684915235
Epoch: 15600, Error: 0.0065420121959906645
Epoch: 15700, Error: 0.006490171484051296
Epoch: 15800, Error: 0.00646602321340674
Epoch: 15900, Error: 0.006426169559118945
Epoch: 16000, Error: 0.006393447777913183
Epoch: 16100, Error: 0.006357995961236411
Epoch: 16200, Error: 0.00632653761792104
Epoch: 16300, Error: 0.006304807220145364
Epoch: 16400, Error: 0.006279843672402631
Epoch: 16500, Error: 0.006255880121041989
Epoch: 16600, Error: 0.006222465555992551
Epoch: 16700, Error: 0.006206066384239493
Epoch: 16800, Error: 0.006188404097054531
Epoch: 16900, Error: 0.006158533783667926
Epoch: 17000, Error: 0.006130612543683514
Epoch: 17100, Error: 0.006111657857175902
Epoch: 17200, Error: 0.006168745581360626
Epoch: 17300, Error: 0.006069773413856238
Epoch: 17400, Error: 0.006057118485560264
Epoch: 17500, Error: 0.006036457853056991
Epoch: 17600, Error: 0.0060355247779072555
Epoch: 17700, Error: 0.006016482429935135
Epoch: 17800, Error: 0.006004542578014262
Epoch: 17900, Error: 0.0059822318500057075
Epoch: 18000, Error: 0.005966758735861011
Epoch: 18100, Error: 0.0059735265018716665
Epoch: 18200, Error: 0.005945364743464773
Epoch: 18300, Error: 0.005924331214956809
Epoch: 18400, Error: 0.0059053935169592125
Epoch: 18500, Error: 0.005887000826044743
Epoch: 18600, Error: 0.005872112218452276
Epoch: 18700, Error: 0.005858227362978063
Epoch: 18800, Error: 0.00589106732739288
Epoch: 18900, Error: 0.005823255056928342
Epoch: 19000, Error: 0.005818412073900065
Epoch: 19100, Error: 0.005787609579156453
Epoch: 19200, Error: 0.005771782002988577
Epoch: 19300, Error: 0.005799258237556528
Epoch: 19400, Error: 0.005742310500286535
Epoch: 19500, Error: 0.00572065758406552
Epoch: 19600, Error: 0.005725101556254026
Epoch: 19700, Error: 0.005692518767030833
Epoch: 19800, Error: 0.005690167273348775
Epoch: 19900, Error: 0.005667308836152408
Epoch: 20000, Error: 0.0056522026994510624
Epoch: 20100, Error: 0.005659284722780647
Epoch: 20200, Error: 0.005674426023065914
Epoch: 20300, Error: 0.005650715346729228
Epoch: 20400, Error: 0.0056370225885937755
Epoch: 20500, Error: 0.005589214436658245
Epoch: 20600, Error: 0.00560065577879501
Epoch: 20700, Error: 0.00554002022740203
Epoch: 20800, Error: 0.005590185287667915
Epoch: 20900, Error: 0.005506820825626948
Epoch: 21000, Error: 0.005472817504649678
Epoch: 21100, Error: 0.005464132721873345
Epoch: 21200, Error: 0.0054774180064233
Epoch: 21300, Error: 0.005513944602746688
Epoch: 21400, Error: 0.005436587681081626
Epoch: 21500, Error: 0.005426763544405678
Epoch: 21600, Error: 0.005404459577129712
Epoch: 21700, Error: 0.005372266336154868
Epoch: 21800, Error: 0.005352575808397492
Epoch: 21900, Error: 0.0053774566672763835
Epoch: 22000, Error: 0.005343675198804544
Epoch: 22100, Error: 0.005297372455460674
Epoch: 22200, Error: 0.00526644116975285
Epoch: 22300, Error: 0.00532833873297973
Epoch: 22400, Error: 0.005255647431368292
Epoch: 22500, Error: 0.005249673752078418
Epoch: 22600, Error: 0.005251217963431453
Epoch: 22700, Error: 0.005195043692150443
Epoch: 22800, Error: 0.005195501616809002
Epoch: 22900, Error: 0.0051839627047355254
Epoch: 23000, Error: 0.005167211356145525
Epoch: 23100, Error: 0.005158264093605575
Epoch: 23200, Error: 0.00517403474343288
Epoch: 23300, Error: 0.005143733433833058
Epoch: 23400, Error: 0.005159382900578183
Epoch: 23500, Error: 0.005107671606385276
Epoch: 23600, Error: 0.005095405480796546
Epoch: 23700, Error: 0.005069578179262099
Epoch: 23800, Error: 0.005038116723322198
Epoch: 23900, Error: 0.005072897360842993
Epoch: 24000, Error: 0.00503547363183772
Epoch: 24100, Error: 0.004990458751345728
Epoch: 24200, Error: 0.0050071541488860925
Epoch: 24300, Error: 0.0049964419760130515
Epoch: 24400, Error: 0.00500948182583477
Epoch: 24500, Error: 0.004997436704674046
Epoch: 24600, Error: 0.004966579134895865
Epoch: 24700, Error: 0.004965503195681434
Epoch: 24800, Error: 0.004923270614858198
Epoch: 24900, Error: 0.004932938761103403
Epoch: 25000, Error: 0.004914380658542133
Epoch: 25100, Error: 0.004876273747376166
Epoch: 25200, Error: 0.004889938651832203
Epoch: 25300, Error: 0.004828227969004702
Epoch: 25400, Error: 0.004808122315681197
Epoch: 25500, Error: 0.004785815488314731
Epoch: 25600, Error: 0.004796068806098341
Epoch: 25700, Error: 0.004714360367597829
Epoch: 25800, Error: 0.004698379878782207
Epoch: 25900, Error: 0.004662148589379873
Epoch: 26000, Error: 0.00464550771778849
Epoch: 26100, Error: 0.0046238074957830715
Epoch: 26200, Error: 0.004555447703402186
Epoch: 26300, Error: 0.0045379802785305125
Epoch: 26400, Error: 0.004654674575630887
Epoch: 26500, Error: 0.004513080966111394
Epoch: 26600, Error: 0.004479925269278993
Epoch: 26700, Error: 0.004432032543057233
Epoch: 26800, Error: 0.004415693166931703
Epoch: 26900, Error: 0.004384773218379803
Epoch: 27000, Error: 0.004342492857720502
Epoch: 27100, Error: 0.004322574293020289
Epoch: 27200, Error: 0.004294602542081188
Epoch: 27300, Error: 0.004267838366662578
Epoch: 27400, Error: 0.004277840661468941
Epoch: 27500, Error: 0.0042381619571916366
Epoch: 27600, Error: 0.004244283692442993
Epoch: 27700, Error: 0.00421684309612126
Epoch: 27800, Error: 0.004107613230933722
Epoch: 27900, Error: 0.004074018648099135
Epoch: 28000, Error: 0.004047171901563424
Epoch: 28100, Error: 0.004025175672920183
Epoch: 28200, Error: 0.00401226710726378
Epoch: 28300, Error: 0.0039816008578095
Epoch: 28400, Error: 0.003937702274397706
Epoch: 28500, Error: 0.003974698088799295
Epoch: 28600, Error: 0.0039013817149543403
Epoch: 28700, Error: 0.00388982857112682
Epoch: 28800, Error: 0.0038503924099377884
Epoch: 28900, Error: 0.0038208593503123198
Epoch: 29000, Error: 0.003821675960925134
Epoch: 29100, Error: 0.0037819421109275986
Epoch: 29200, Error: 0.0037604320259215043
Epoch: 29300, Error: 0.0037275192031651027
Epoch: 29400, Error: 0.0037000638177580513
Epoch: 29500, Error: 0.003664684550221825
Epoch: 29600, Error: 0.003669990228523925
Epoch: 29700, Error: 0.0036355836916930353
Epoch: 29800, Error: 0.003629553774719645
Epoch: 29900, Error: 0.003617549043823225
Epoch: 30000, Error: 0.0035693728376892295
Epoch: 30100, Error: 0.0035212254743206277
Epoch: 30200, Error: 0.003503268606815904
Epoch: 30300, Error: 0.0034769703707841727
Epoch: 30400, Error: 0.0034626305145547217
Epoch: 30500, Error: 0.003436729869329352
Epoch: 30600, Error: 0.0033977235788102828
Epoch: 30700, Error: 0.003374469928416399
Epoch: 30800, Error: 0.003344732251025366
Epoch: 30900, Error: 0.0033232649703410604
Epoch: 31000, Error: 0.0032643305998813323
Epoch: 31100, Error: 0.0032939422053317948
Epoch: 31200, Error: 0.0031988492258022408
Epoch: 31300, Error: 0.003219493473450576
Epoch: 31400, Error: 0.0031611777975990504
Epoch: 31500, Error: 0.0031463958872179295
Epoch: 31600, Error: 0.003169028493409025
Epoch: 31700, Error: 0.0030829191482724567
Epoch: 31800, Error: 0.0031049166262284806
Epoch: 31900, Error: 0.00304738864090937
Epoch: 32000, Error: 0.0030185128181207037
Epoch: 32100, Error: 0.0030328956272767335
Epoch: 32200, Error: 0.003039237685905668
Epoch: 32300, Error: 0.002970918310836118
Epoch: 32400, Error: 0.002949391839011525
Epoch: 32500, Error: 0.00303968436138799
Epoch: 32600, Error: 0.0029205360913192166
Epoch: 32700, Error: 0.0028820563583088206
Epoch: 32800, Error: 0.003088335588596663
Epoch: 32900, Error: 0.002856521034329967
Epoch: 33000, Error: 0.0028749789811451315
Epoch: 33100, Error: 0.0028467848951846658
Epoch: 33200, Error: 0.002777023838168602
Epoch: 33300, Error: 0.002759382494604238
Epoch: 33400, Error: 0.0027351483594261062
Epoch: 33500, Error: 0.0027226388352017236
Epoch: 33600, Error: 0.0027193944430612227
Epoch: 33700, Error: 0.002705882574659624
Epoch: 33800, Error: 0.002928443691535772
Epoch: 33900, Error: 0.0026505170656546504
Epoch: 34000, Error: 0.0026369822011417716
Epoch: 34100, Error: 0.0026515156744470877
Epoch: 34200, Error: 0.002624135980911937
Epoch: 34300, Error: 0.0025705221392472236
Epoch: 34400, Error: 0.002578778836449706
Epoch: 34500, Error: 0.002547822088954654
Epoch: 34600, Error: 0.002514668225973285
Epoch: 34700, Error: 0.002575612706735461
Epoch: 34800, Error: 0.0025055897237923957
Epoch: 34900, Error: 0.0024846723463177295
Epoch: 35000, Error: 0.00248014088190554
Epoch: 35100, Error: 0.0024963455850415023
Epoch: 35200, Error: 0.0024443446910102622
Epoch: 35300, Error: 0.0024572220012104296
Epoch: 35400, Error: 0.002427259920890107
Epoch: 35500, Error: 0.0024042031169432057
Epoch: 35600, Error: 0.0025433597140042227
Epoch: 35700, Error: 0.0023824436672227525
Epoch: 35800, Error: 0.0023745205108558712
Epoch: 35900, Error: 0.0023559057208170668
Epoch: 36000, Error: 0.002340895575540774
Epoch: 36100, Error: 0.0023770175168098405
Epoch: 36200, Error: 0.0023170046444914503
Epoch: 36300, Error: 0.0023078143616580495
Epoch: 36400, Error: 0.002327091694819217
Epoch: 36500, Error: 0.0023417548983679926
Epoch: 36600, Error: 0.0022956804020425573
Epoch: 36700, Error: 0.002327012875127761
Epoch: 36800, Error: 0.0022621725148105833
Epoch: 36900, Error: 0.0022464798756207647
Epoch: 37000, Error: 0.002234009073959627
Epoch: 37100, Error: 0.0022451562839156357
Epoch: 37200, Error: 0.0022516855124435895
Epoch: 37300, Error: 0.0022123621157041067
Epoch: 37400, Error: 0.002224451823824358
Epoch: 37500, Error: 0.002178387890433682
Epoch: 37600, Error: 0.0022031080117865375
Epoch: 37700, Error: 0.0021710238683848595
Epoch: 37800, Error: 0.002157317747297515
Epoch: 37900, Error: 0.002146564972282318
Epoch: 38000, Error: 0.0021206746143694753
Epoch: 38100, Error: 0.0021206188045954097
Epoch: 38200, Error: 0.0021057691028612178
Epoch: 38300, Error: 0.00209916000887354
Epoch: 38400, Error: 0.0020867238532455306
Epoch: 38500, Error: 0.0020736201670714573
Epoch: 38600, Error: 0.0021036255353402804
Epoch: 38700, Error: 0.0020788386893130983
Epoch: 38800, Error: 0.0020720128706429508
Epoch: 38900, Error: 0.002040247148777879
Epoch: 39000, Error: 0.0020159721007783774
Epoch: 39100, Error: 0.0020212516215511052
Epoch: 39200, Error: 0.002007260670649105
Epoch: 39300, Error: 0.0020173645041477685
Epoch: 39400, Error: 0.002006554974448255
Epoch: 39500, Error: 0.0019988099105579245
Epoch: 39600, Error: 0.0019748365974989793
Epoch: 39700, Error: 0.0019857880072462826
Epoch: 39800, Error: 0.0019646893868538653
Epoch: 39900, Error: 0.001978146367198777
Epoch: 40000, Error: 0.0019581216247275433
Epoch: 40100, Error: 0.001964203523328832
Epoch: 40200, Error: 0.0019277845438526353
Epoch: 40300, Error: 0.001961364174692954
Epoch: 40400, Error: 0.001930910130631172
Epoch: 40500, Error: 0.001954628452944058
Epoch: 40600, Error: 0.0019434749506111874
Epoch: 40700, Error: 0.0019508143719323425
Epoch: 40800, Error: 0.0019007962929554559
Epoch: 40900, Error: 0.0018926548296002812
Epoch: 41000, Error: 0.0019153839396598433
Epoch: 41100, Error: 0.001911116072686518
Epoch: 41200, Error: 0.001885466829877417
Epoch: 41300, Error: 0.0018817025492727422
Epoch: 41400, Error: 0.0019068420716633135
Epoch: 41500, Error: 0.0018881542094745056
Epoch: 41600, Error: 0.0018929702393562465
Epoch: 41700, Error: 0.0018534439249662548
Epoch: 41800, Error: 0.001851204492463296
Epoch: 41900, Error: 0.0018498259958793326
Epoch: 42000, Error: 0.0018505031969167848
Epoch: 42100, Error: 0.0018422280591319786
Epoch: 42200, Error: 0.0018586182045834975
Epoch: 42300, Error: 0.001829648636639996
Epoch: 42400, Error: 0.0018299572927633519
Epoch: 42500, Error: 0.0018214412268533892
Epoch: 42600, Error: 0.0018191601482730791
Epoch: 42700, Error: 0.0018089072378666131
Epoch: 42800, Error: 0.00180032912328593
Epoch: 42900, Error: 0.0018005302382601597
Epoch: 43000, Error: 0.001801889885237325
Epoch: 43100, Error: 0.0017795675173776805
Epoch: 43200, Error: 0.001771976280614761
Epoch: 43300, Error: 0.0017802945700380393
Epoch: 43400, Error: 0.0017659130309746619
Epoch: 43500, Error: 0.0017492612407739917
Epoch: 43600, Error: 0.0017835710981255674
Epoch: 43700, Error: 0.0017678612245538542
Epoch: 43800, Error: 0.0017414166777456254
Epoch: 43900, Error: 0.0017205882203711505
Epoch: 44000, Error: 0.001720746618456964
Epoch: 44100, Error: 0.0017428158651115596
Epoch: 44200, Error: 0.0017046887616744106
Epoch: 44300, Error: 0.001701985632906346
Epoch: 44400, Error: 0.0017189901729695218
Epoch: 44500, Error: 0.001722772820864514
Epoch: 44600, Error: 0.0016755246296502313
Epoch: 44700, Error: 0.0016702681836431742
Epoch: 44800, Error: 0.0016565110137499927
