Input Patterns
0.224 0.624 0.067 0.043 
0.11 0.502 0.051 0.043 
0.196 0.667 0.067 0.043 
0.055 0.584 0.067 0.082 
0.027 0.376 0.067 0.043 
0.306 0.71 0.086 0.043 
0.137 0.416 0.067 0.0 
0.416 0.831 0.035 0.043 
0.306 0.792 0.051 0.125 
0.388 0.749 0.118 0.082 
0.306 0.584 0.118 0.043 
0.082 0.667 0.0 0.043 
0.137 0.584 0.153 0.043 
0.196 0.584 0.102 0.125 
0.251 0.584 0.067 0.043 
0.137 0.459 0.102 0.043 
0.251 0.875 0.086 0.0 
0.165 0.459 0.086 0.043 
0.333 0.624 0.051 0.043 
0.027 0.416 0.051 0.043 
0.196 0.624 0.051 0.082 
0.027 0.502 0.051 0.043 
0.224 0.749 0.153 0.125 
0.224 0.749 0.102 0.043 
0.278 0.71 0.086 0.043 
0.165 0.416 0.067 0.043 
0.082 0.459 0.086 0.043 
0.306 0.792 0.118 0.125 
0.196 0.584 0.086 0.043 
0.165 0.459 0.086 0.0 
0.137 0.584 0.102 0.043 
0.0 0.416 0.016 0.0 
0.388 1.0 0.086 0.125 
0.224 0.624 0.067 0.082 
0.224 0.749 0.086 0.082 
0.224 0.71 0.086 0.125 
0.224 0.541 0.118 0.165 
0.196 0.416 0.102 0.043 
0.251 0.624 0.086 0.043 
0.11 0.502 0.102 0.043 
0.306 0.584 0.086 0.125 
0.333 0.918 0.067 0.043 
0.196 0.502 0.035 0.043 
0.165 0.667 0.067 0.0 
0.224 0.584 0.086 0.043 
0.055 0.125 0.051 0.082 
0.196 0.624 0.102 0.208 
0.137 0.416 0.067 0.082 
0.082 0.502 0.067 0.043 
0.196 0.541 0.067 0.043 
0.749 0.502 0.627 0.541 
0.722 0.459 0.663 0.584 
0.612 0.333 0.612 0.584 
0.557 0.541 0.627 0.624 
0.639 0.376 0.612 0.498 
0.196 0.0 0.424 0.376 
0.471 0.082 0.51 0.376 
0.361 0.376 0.439 0.498 
0.361 0.416 0.592 0.584 
0.529 0.082 0.592 0.584 
0.443 0.502 0.643 0.459 
0.557 0.208 0.663 0.584 
0.584 0.376 0.561 0.498 
0.694 0.333 0.643 0.541 
0.471 0.376 0.592 0.584 
0.333 0.169 0.475 0.416 
0.416 0.29 0.49 0.459 
0.306 0.416 0.592 0.584 
0.667 0.459 0.627 0.584 
0.361 0.416 0.525 0.498 
0.333 0.251 0.576 0.459 
0.416 0.251 0.51 0.459 
0.361 0.29 0.541 0.498 
0.388 0.376 0.541 0.498 
0.224 0.208 0.337 0.416 
0.584 0.502 0.592 0.584 
0.333 0.125 0.51 0.498 
0.388 0.333 0.592 0.498 
0.165 0.169 0.388 0.376 
0.251 0.29 0.49 0.541 
0.443 0.416 0.541 0.584 
0.498 0.376 0.627 0.541 
0.667 0.459 0.576 0.541 
0.416 0.29 0.525 0.376 
0.361 0.208 0.49 0.416 
0.498 0.333 0.51 0.498 
0.498 0.333 0.627 0.459 
0.639 0.416 0.576 0.541 
0.667 0.416 0.678 0.667 
0.388 0.251 0.424 0.376 
0.333 0.169 0.459 0.376 
0.471 0.29 0.694 0.624 
0.471 0.584 0.592 0.624 
0.557 0.125 0.576 0.498 
0.333 0.208 0.51 0.498 
0.498 0.416 0.612 0.541 
0.196 0.125 0.388 0.376 
0.388 0.416 0.541 0.459 
0.529 0.376 0.561 0.498 
0.388 0.333 0.525 0.498 
0.557 0.541 0.847 1.0 
0.776 0.416 0.831 0.831 
0.612 0.416 0.812 0.875 
0.165 0.208 0.592 0.667 
0.667 0.208 0.812 0.71 
0.612 0.502 0.694 0.792 
0.694 0.416 0.761 0.831 
0.416 0.333 0.694 0.957 
0.612 0.416 0.761 0.71 
0.945 0.251 1.0 0.918 
0.722 0.502 0.796 0.918 
0.945 0.333 0.965 0.792 
0.667 0.541 0.796 0.831 
0.529 0.333 0.643 0.71 
0.584 0.333 0.78 0.831 
0.863 0.333 0.863 0.749 
0.584 0.333 0.78 0.875 
0.498 0.251 0.78 0.541 
0.557 0.584 0.78 0.957 
0.471 0.416 0.643 0.71 
0.667 0.459 0.78 0.957 
0.416 0.29 0.694 0.749 
0.667 0.541 0.796 1.0 
0.557 0.208 0.678 0.749 
0.529 0.584 0.745 0.918 
0.416 0.29 0.694 0.749 
0.557 0.376 0.78 0.71 
0.918 0.416 0.949 0.831 
0.835 0.376 0.898 0.71 
0.804 0.667 0.863 1.0 
0.584 0.29 0.729 0.749 
0.388 0.208 0.678 0.792 
0.584 0.502 0.729 0.918 
0.945 0.749 0.965 0.875 
0.471 0.082 0.678 0.584 
0.361 0.333 0.663 0.792 
0.557 0.29 0.663 0.71 
0.804 0.502 0.847 0.71 
0.498 0.416 0.51 0.71 
0.804 0.416 0.812 0.624 
1.0 0.749 0.914 0.792 
0.557 0.333 0.694 0.584 
0.945 0.416 0.863 0.918 
0.584 0.459 0.761 0.71 
0.722 0.459 0.745 0.831 
0.722 0.459 0.694 0.918 
0.694 0.502 0.831 0.918 
0.667 0.416 0.714 0.918 
0.612 0.416 0.714 0.792 
0.443 0.416 0.694 0.71 
Teaching Patterns
1.0 0.0 0.0 
1.0 0.0 0.0 
1.0 0.0 0.0 
1.0 0.0 0.0 
1.0 0.0 0.0 
1.0 0.0 0.0 
1.0 0.0 0.0 
1.0 0.0 0.0 
1.0 0.0 0.0 
1.0 0.0 0.0 
1.0 0.0 0.0 
1.0 0.0 0.0 
1.0 0.0 0.0 
1.0 0.0 0.0 
1.0 0.0 0.0 
1.0 0.0 0.0 
1.0 0.0 0.0 
1.0 0.0 0.0 
1.0 0.0 0.0 
1.0 0.0 0.0 
1.0 0.0 0.0 
1.0 0.0 0.0 
1.0 0.0 0.0 
1.0 0.0 0.0 
1.0 0.0 0.0 
1.0 0.0 0.0 
1.0 0.0 0.0 
1.0 0.0 0.0 
1.0 0.0 0.0 
1.0 0.0 0.0 
1.0 0.0 0.0 
1.0 0.0 0.0 
1.0 0.0 0.0 
1.0 0.0 0.0 
1.0 0.0 0.0 
1.0 0.0 0.0 
1.0 0.0 0.0 
1.0 0.0 0.0 
1.0 0.0 0.0 
1.0 0.0 0.0 
1.0 0.0 0.0 
1.0 0.0 0.0 
1.0 0.0 0.0 
1.0 0.0 0.0 
1.0 0.0 0.0 
1.0 0.0 0.0 
1.0 0.0 0.0 
1.0 0.0 0.0 
1.0 0.0 0.0 
1.0 0.0 0.0 
0.0 1.0 0.0 
0.0 1.0 0.0 
0.0 1.0 0.0 
0.0 1.0 0.0 
0.0 1.0 0.0 
0.0 1.0 0.0 
0.0 1.0 0.0 
0.0 1.0 0.0 
0.0 1.0 0.0 
0.0 1.0 0.0 
0.0 1.0 0.0 
0.0 1.0 0.0 
0.0 1.0 0.0 
0.0 1.0 0.0 
0.0 1.0 0.0 
0.0 1.0 0.0 
0.0 1.0 0.0 
0.0 1.0 0.0 
0.0 1.0 0.0 
0.0 1.0 0.0 
0.0 1.0 0.0 
0.0 1.0 0.0 
0.0 1.0 0.0 
0.0 1.0 0.0 
0.0 1.0 0.0 
0.0 1.0 0.0 
0.0 1.0 0.0 
0.0 1.0 0.0 
0.0 1.0 0.0 
0.0 1.0 0.0 
0.0 1.0 0.0 
0.0 1.0 0.0 
0.0 1.0 0.0 
0.0 1.0 0.0 
0.0 1.0 0.0 
0.0 1.0 0.0 
0.0 1.0 0.0 
0.0 1.0 0.0 
0.0 1.0 0.0 
0.0 1.0 0.0 
0.0 1.0 0.0 
0.0 1.0 0.0 
0.0 1.0 0.0 
0.0 1.0 0.0 
0.0 1.0 0.0 
0.0 1.0 0.0 
0.0 1.0 0.0 
0.0 1.0 0.0 
0.0 1.0 0.0 
0.0 1.0 0.0 
0.0 0.0 1.0 
0.0 0.0 1.0 
0.0 0.0 1.0 
0.0 0.0 1.0 
0.0 0.0 1.0 
0.0 0.0 1.0 
0.0 0.0 1.0 
0.0 0.0 1.0 
0.0 0.0 1.0 
0.0 0.0 1.0 
0.0 0.0 1.0 
0.0 0.0 1.0 
0.0 0.0 1.0 
0.0 0.0 1.0 
0.0 0.0 1.0 
0.0 0.0 1.0 
0.0 0.0 1.0 
0.0 0.0 1.0 
0.0 0.0 1.0 
0.0 0.0 1.0 
0.0 0.0 1.0 
0.0 0.0 1.0 
0.0 0.0 1.0 
0.0 0.0 1.0 
0.0 0.0 1.0 
0.0 0.0 1.0 
0.0 0.0 1.0 
0.0 0.0 1.0 
0.0 0.0 1.0 
0.0 0.0 1.0 
0.0 0.0 1.0 
0.0 0.0 1.0 
0.0 0.0 1.0 
0.0 0.0 1.0 
0.0 0.0 1.0 
0.0 0.0 1.0 
0.0 0.0 1.0 
0.0 0.0 1.0 
0.0 0.0 1.0 
0.0 0.0 1.0 
0.0 0.0 1.0 
0.0 0.0 1.0 
0.0 0.0 1.0 
0.0 0.0 1.0 
0.0 0.0 1.0 
0.0 0.0 1.0 
0.0 0.0 1.0 
0.0 0.0 1.0 
0.0 0.0 1.0 
0.0 0.0 1.0 
Learning : 0.05
Momentum : 0.699999988079071
Epoch: 100, Error: 0.045917611083231606
Epoch: 200, Error: 0.020208789852489095
Epoch: 300, Error: 0.016686145736854428
Epoch: 400, Error: 0.014918034488665298
Epoch: 500, Error: 0.014092075335549535
Epoch: 600, Error: 0.01359907702499789
Epoch: 700, Error: 0.013183414384286423
Epoch: 800, Error: 0.012945338928031654
Epoch: 900, Error: 0.012759498874918347
Epoch: 1000, Error: 0.01276743669523882
Epoch: 1100, Error: 0.01260613687778948
Epoch: 1200, Error: 0.012459296258492944
Epoch: 1300, Error: 0.012460732455888378
Epoch: 1400, Error: 0.012380835634981534
Epoch: 1500, Error: 0.012341340584834009
Epoch: 1600, Error: 0.012396220983446029
Epoch: 1700, Error: 0.01226802118982897
Epoch: 1800, Error: 0.012329857548155125
Epoch: 1900, Error: 0.012272946816090558
Epoch: 2000, Error: 0.012237654828439476
Epoch: 2100, Error: 0.012280556597436194
Epoch: 2200, Error: 0.01213696992541845
Epoch: 2300, Error: 0.012138920572679492
Epoch: 2400, Error: 0.012134056176132314
Epoch: 2500, Error: 0.012114184911135226
Epoch: 2600, Error: 0.012166399682051453
Epoch: 2700, Error: 0.012134767224369215
Epoch: 2800, Error: 0.012238666500008462
Epoch: 2900, Error: 0.012277940671202463
Epoch: 3000, Error: 0.012135157614330781
Epoch: 3100, Error: 0.01214053219488048
Epoch: 3200, Error: 0.012106072404972384
Epoch: 3300, Error: 0.012171807889563338
Epoch: 3400, Error: 0.012252612354644803
Epoch: 3500, Error: 0.012161656532800956
Epoch: 3600, Error: 0.012184408228470313
Epoch: 3700, Error: 0.01210457112435223
Epoch: 3800, Error: 0.012133553229829749
Epoch: 3900, Error: 0.012215488230778
Epoch: 4000, Error: 0.012154733673047003
Epoch: 4100, Error: 0.012096606545804734
Epoch: 4200, Error: 0.012072332814395776
Epoch: 4300, Error: 0.012119240712478324
Epoch: 4400, Error: 0.012090482617212104
Epoch: 4500, Error: 0.01210410321648553
Epoch: 4600, Error: 0.012072724089677083
Epoch: 4700, Error: 0.01237447301494032
Epoch: 4800, Error: 0.012094507664819147
Epoch: 4900, Error: 0.01212064166150732
Epoch: 5000, Error: 0.012065864770168435
Epoch: 5100, Error: 0.012127484115749815
Epoch: 5200, Error: 0.012068823594072768
Epoch: 5300, Error: 0.012034856388819714
Epoch: 5400, Error: 0.012038988094798853
Epoch: 5500, Error: 0.012063375457969587
Epoch: 5600, Error: 0.012077730738697811
Epoch: 5700, Error: 0.012056757429669213
Epoch: 5800, Error: 0.012040461198560148
Epoch: 5900, Error: 0.012064359848807282
Epoch: 6000, Error: 0.01205505561098984
Epoch: 6100, Error: 0.012055637100820178
Epoch: 6200, Error: 0.01208616433033598
Epoch: 6300, Error: 0.011988848737043855
Epoch: 6400, Error: 0.011978624468079345
Epoch: 6500, Error: 0.012046841576347861
Epoch: 6600, Error: 0.012084472254540304
Epoch: 6700, Error: 0.012129877618598142
Epoch: 6800, Error: 0.012008807338978295
Epoch: 6900, Error: 0.011971438749104788
Epoch: 7000, Error: 0.011948263665764272
Epoch: 7100, Error: 0.011949001727575147
Epoch: 7200, Error: 0.012044633852066403
Epoch: 7300, Error: 0.012021971637717559
Epoch: 7400, Error: 0.012023785184401461
Epoch: 7500, Error: 0.01201516229317141
Epoch: 7600, Error: 0.012080755108769
Epoch: 7700, Error: 0.011970635365311406
Epoch: 7800, Error: 0.011920122512177977
Epoch: 7900, Error: 0.011936097151099457
Epoch: 8000, Error: 0.011987256933625068
Epoch: 8100, Error: 0.011991208401405927
Epoch: 8200, Error: 0.011933056919262972
Epoch: 8300, Error: 0.011911211953229006
Epoch: 8400, Error: 0.011931135877360225
Epoch: 8500, Error: 0.011941118731962347
Epoch: 8600, Error: 0.011946395497208967
Epoch: 8700, Error: 0.011938322648599113
Epoch: 8800, Error: 0.011929236967530411
Epoch: 8900, Error: 0.011979494067847731
Epoch: 9000, Error: 0.011996891229508642
Epoch: 9100, Error: 0.011920877689583116
Epoch: 9200, Error: 0.011945106229236046
Epoch: 9300, Error: 0.011918183337327049
Epoch: 9400, Error: 0.011962294968190517
Epoch: 9500, Error: 0.012001313791653102
Epoch: 9600, Error: 0.011936797844717992
Epoch: 9700, Error: 0.01197278244682403
Epoch: 9800, Error: 0.011959029845670854
Epoch: 9900, Error: 0.011949489600677184
Epoch: 10000, Error: 0.011898376108252085
Epoch: 10100, Error: 0.011917316839422234
Epoch: 10200, Error: 0.011870607330386493
Epoch: 10300, Error: 0.01187840861862698
Epoch: 10400, Error: 0.011992303668701854
Epoch: 10500, Error: 0.011919593111021875
Epoch: 10600, Error: 0.011911097799999807
Epoch: 10700, Error: 0.011941523399307437
Epoch: 10800, Error: 0.011899032971233429
Epoch: 10900, Error: 0.011828545222291452
Epoch: 11000, Error: 0.011816966513245333
Epoch: 11100, Error: 0.011756449822660863
Epoch: 11200, Error: 0.011757117778190785
Epoch: 11300, Error: 0.011757658942961963
Epoch: 11400, Error: 0.011751399621513569
Epoch: 11500, Error: 0.011753766873508613
Epoch: 11600, Error: 0.011814929537426813
Epoch: 11700, Error: 0.011756308022302344
Epoch: 11800, Error: 0.01179845629426138
Epoch: 11900, Error: 0.011761594034781993
Epoch: 12000, Error: 0.011714318611923574
Epoch: 12100, Error: 0.0116954827044807
Epoch: 12200, Error: 0.01167241402273502
Epoch: 12300, Error: 0.011640047875997836
Epoch: 12400, Error: 0.011595813639671586
Epoch: 12500, Error: 0.011587315860667238
Epoch: 12600, Error: 0.011573865645659783
Epoch: 12700, Error: 0.011592199958649492
Epoch: 12800, Error: 0.011534338929608331
Epoch: 12900, Error: 0.011573192293970878
Epoch: 13000, Error: 0.011493667306105229
Epoch: 13100, Error: 0.011525034928341714
Epoch: 13200, Error: 0.011472752822587784
Epoch: 13300, Error: 0.01145641878752016
Epoch: 13400, Error: 0.011442612441775262
Epoch: 13500, Error: 0.011393810899323223
Epoch: 13600, Error: 0.011361628476058021
Epoch: 13700, Error: 0.011353584811296752
Epoch: 13800, Error: 0.011375983873044107
Epoch: 13900, Error: 0.011318939748550362
Epoch: 14000, Error: 0.011284081358020592
Epoch: 14100, Error: 0.011335512989669385
Epoch: 14200, Error: 0.011236657945141688
Epoch: 14300, Error: 0.011321209242006419
Epoch: 14400, Error: 0.011201969755860337
Epoch: 14500, Error: 0.011138654401654223
Epoch: 14600, Error: 0.011136092829885673
Epoch: 14700, Error: 0.011090573388586919
Epoch: 14800, Error: 0.011104055045786279
Epoch: 14900, Error: 0.01109087678905278
Epoch: 15000, Error: 0.011029765124127865
Epoch: 15100, Error: 0.010968028238043359
Epoch: 15200, Error: 0.010947610724869232
Epoch: 15300, Error: 0.01092131626353558
Epoch: 15400, Error: 0.010892214781523525
Epoch: 15500, Error: 0.010863051171871248
Epoch: 15600, Error: 0.010814235299016919
Epoch: 15700, Error: 0.010770723845397527
Epoch: 15800, Error: 0.01072653719958234
Epoch: 15900, Error: 0.010708506070725751
Epoch: 16000, Error: 0.01067265826294122
Epoch: 16100, Error: 0.010617236584958075
Epoch: 16200, Error: 0.010559604783547784
Epoch: 16300, Error: 0.010478804949831265
Epoch: 16400, Error: 0.010399322286326071
Epoch: 16500, Error: 0.010316857884781287
Epoch: 16600, Error: 0.010239804961570773
Epoch: 16700, Error: 0.010239208725586906
Epoch: 16800, Error: 0.010146588226149464
Epoch: 16900, Error: 0.01009189998549712
Epoch: 17000, Error: 0.010059502693961497
Epoch: 17100, Error: 0.010035056446925482
Epoch: 17200, Error: 0.009963738258916985
Epoch: 17300, Error: 0.009918128129152276
Epoch: 17400, Error: 0.009878069706064726
Epoch: 17500, Error: 0.009849023435883146
Epoch: 17600, Error: 0.00977509783369813
Epoch: 17700, Error: 0.009741909849313486
Epoch: 17800, Error: 0.009759520301981808
Epoch: 17900, Error: 0.009676808053543243
Epoch: 18000, Error: 0.00959410073987137
Epoch: 18100, Error: 0.009578599718723343
Epoch: 18200, Error: 0.00953020259149732
Epoch: 18300, Error: 0.009460237500523749
Epoch: 18400, Error: 0.009403509026197727
Epoch: 18500, Error: 0.009344749610518255
Epoch: 18600, Error: 0.009317067883089992
Epoch: 18700, Error: 0.009252571578876238
Epoch: 18800, Error: 0.00919887500027786
Epoch: 18900, Error: 0.009139859552273042
Epoch: 19000, Error: 0.009075450993473509
Epoch: 19100, Error: 0.00902640465127844
Epoch: 19200, Error: 0.008935343760746126
Epoch: 19300, Error: 0.00889187816190751
Epoch: 19400, Error: 0.008859952003674343
Epoch: 19500, Error: 0.008739249713979727
Epoch: 19600, Error: 0.008635876608476143
Epoch: 19700, Error: 0.008551357023371911
Epoch: 19800, Error: 0.008441914241668846
Epoch: 19900, Error: 0.008361787629121074
Epoch: 20000, Error: 0.00834722243005487
Epoch: 20100, Error: 0.008191689680770959
Epoch: 20200, Error: 0.008106088796412675
Epoch: 20300, Error: 0.008012826578017412
Epoch: 20400, Error: 0.007959459114071575
Epoch: 20500, Error: 0.00785776216016958
Epoch: 20600, Error: 0.007822375900146377
Epoch: 20700, Error: 0.007686961980712845
Epoch: 20800, Error: 0.0075969676294663415
Epoch: 20900, Error: 0.0075211730463013585
Epoch: 21000, Error: 0.007444187884578308
Epoch: 21100, Error: 0.0074255684927681
Epoch: 21200, Error: 0.0073188047318714245
Epoch: 21300, Error: 0.007243115172509154
Epoch: 21400, Error: 0.007194510461205265
Epoch: 21500, Error: 0.00711121772927407
Epoch: 21600, Error: 0.0070327227206706065
Epoch: 21700, Error: 0.006963961703281287
Epoch: 21800, Error: 0.0069129693129697444
Epoch: 21900, Error: 0.006834805020887009
Epoch: 22000, Error: 0.006778959892643615
Epoch: 22100, Error: 0.00672711963634965
Epoch: 22200, Error: 0.006684587458203963
Epoch: 22300, Error: 0.0066023522780990895
Epoch: 22400, Error: 0.006538293644463968
Epoch: 22500, Error: 0.006502276002421228
Epoch: 22600, Error: 0.0064733323488607155
Epoch: 22700, Error: 0.006403801866542379
Epoch: 22800, Error: 0.0063677432504075
Epoch: 22900, Error: 0.006351058326438475
Epoch: 23000, Error: 0.006270322845134346
Epoch: 23100, Error: 0.00622894885389845
Epoch: 23200, Error: 0.0061858731120399335
Epoch: 23300, Error: 0.006167435200700597
Epoch: 23400, Error: 0.006115572279061409
Epoch: 23500, Error: 0.006092383505496662
Epoch: 23600, Error: 0.006054507785356256
Epoch: 23700, Error: 0.006038021942552866
Epoch: 23800, Error: 0.0060482537533450825
Epoch: 23900, Error: 0.005967712940689313
Epoch: 24000, Error: 0.005946246995477252
Epoch: 24100, Error: 0.005912969418803327
Epoch: 24200, Error: 0.0058819506146713
Epoch: 24300, Error: 0.005916572683141424
Epoch: 24400, Error: 0.005840951294283301
Epoch: 24500, Error: 0.005823820867739386
Epoch: 24600, Error: 0.005798512395076344
Epoch: 24700, Error: 0.005780195411461074
Epoch: 24800, Error: 0.005754318014848718
Epoch: 24900, Error: 0.005728137813046116
Epoch: 25000, Error: 0.0057100570967426505
Epoch: 25100, Error: 0.005677481590334667
Epoch: 25200, Error: 0.005653655568820754
Epoch: 25300, Error: 0.005638423676895391
Epoch: 25400, Error: 0.005614777829346882
Epoch: 25500, Error: 0.005586666858400532
Epoch: 25600, Error: 0.005644071679212427
Epoch: 25700, Error: 0.005529710234911718
Epoch: 25800, Error: 0.0055060556736802446
Epoch: 25900, Error: 0.0055015510311189585
Epoch: 26000, Error: 0.005479027574651279
Epoch: 26100, Error: 0.005471992109557079
Epoch: 26200, Error: 0.005456113035059688
Epoch: 26300, Error: 0.0054188157559611925
Epoch: 26400, Error: 0.005384301322922782
Epoch: 26500, Error: 0.005320534611493087
Epoch: 26600, Error: 0.005287521095586978
Epoch: 26700, Error: 0.005319413702013224
Epoch: 26800, Error: 0.0053044844833230334
Epoch: 26900, Error: 0.005305384008025143
Epoch: 27000, Error: 0.005275557670076034
Epoch: 27100, Error: 0.005216949239695187
Epoch: 27200, Error: 0.005199583835339059
Epoch: 27300, Error: 0.005201838301192353
Epoch: 27400, Error: 0.005204398279637626
Epoch: 27500, Error: 0.005114884556968454
Epoch: 27600, Error: 0.005092218302057845
Epoch: 27700, Error: 0.005107742265251165
Epoch: 27800, Error: 0.005152668063328187
Epoch: 27900, Error: 0.005136614426361062
Epoch: 28000, Error: 0.005031046116193146
Epoch: 28100, Error: 0.005016577664879152
Epoch: 28200, Error: 0.005023773179854614
Epoch: 28300, Error: 0.005001429276778553
Epoch: 28400, Error: 0.005002372021491102
Epoch: 28500, Error: 0.004969888511370959
Epoch: 28600, Error: 0.0049584053358408195
Epoch: 28700, Error: 0.004923108335583212
Epoch: 28800, Error: 0.004882018800118898
Epoch: 28900, Error: 0.004900135803906006
Epoch: 29000, Error: 0.004898003983015322
Epoch: 29100, Error: 0.0048620484533938475
Epoch: 29200, Error: 0.004822742932377253
Epoch: 29300, Error: 0.004804141930473168
Epoch: 29400, Error: 0.00480681617558204
Epoch: 29500, Error: 0.004710354707238715
Epoch: 29600, Error: 0.0046527732543671044
Epoch: 29700, Error: 0.004736345001182664
Epoch: 29800, Error: 0.004647291060107643
Epoch: 29900, Error: 0.004682134033029049
Epoch: 30000, Error: 0.004709782920108253
Epoch: 30100, Error: 0.004614670821907016
Epoch: 30200, Error: 0.0046047291572071875
Epoch: 30300, Error: 0.004514548701669224
Epoch: 30400, Error: 0.004459692847166741
Epoch: 30500, Error: 0.004509089751661419
Epoch: 30600, Error: 0.0044708846836056864
Epoch: 30700, Error: 0.004460592097091254
Epoch: 30800, Error: 0.004382759041806377
Epoch: 30900, Error: 0.004373635038428653
Epoch: 31000, Error: 0.0044100583005655825
Epoch: 31100, Error: 0.00435096695496509
Epoch: 31200, Error: 0.004287085798148014
Epoch: 31300, Error: 0.004274074121249627
Epoch: 31400, Error: 0.004247290688481456
Epoch: 31500, Error: 0.004216162990126333
Epoch: 31600, Error: 0.004177244691338712
Epoch: 31700, Error: 0.0041540987986956966
Epoch: 31800, Error: 0.004154446508593477
Epoch: 31900, Error: 0.004097125696585988
Epoch: 32000, Error: 0.00406212855667728
Epoch: 32100, Error: 0.00404982034010497
Epoch: 32200, Error: 0.004041244809168614
Epoch: 32300, Error: 0.0039934120925086795
Epoch: 32400, Error: 0.00397566404246985
Epoch: 32500, Error: 0.003955466042586207
Epoch: 32600, Error: 0.003968306934306297
Epoch: 32700, Error: 0.003964717096374407
Epoch: 32800, Error: 0.0038912438396378267
Epoch: 32900, Error: 0.003868464069384406
Epoch: 33000, Error: 0.0038353362356377415
Epoch: 33100, Error: 0.0038100802864407387
Epoch: 33200, Error: 0.003759507655429115
Epoch: 33300, Error: 0.0037543631470367666
Epoch: 33400, Error: 0.0037299712440152038
Epoch: 33500, Error: 0.0037047510291842458
Epoch: 33600, Error: 0.0036830415092887567
Epoch: 33700, Error: 0.0036486709248955114
Epoch: 33800, Error: 0.003660674256300424
Epoch: 33900, Error: 0.003721006478671941
Epoch: 34000, Error: 0.0035827309745193004
Epoch: 34100, Error: 0.0035992577116212175
Epoch: 34200, Error: 0.0035448172992617213
Epoch: 34300, Error: 0.0035092204553704067
Epoch: 34400, Error: 0.00357040538710428
Epoch: 34500, Error: 0.0034458989761525496
Epoch: 34600, Error: 0.003441812993701086
Epoch: 34700, Error: 0.003399124079689228
Epoch: 34800, Error: 0.003424576186772758
Epoch: 34900, Error: 0.0033695261471320005
Epoch: 35000, Error: 0.0033427204252336157
Epoch: 35100, Error: 0.003297644892661994
Epoch: 35200, Error: 0.003304647419364189
Epoch: 35300, Error: 0.0032765193328413537
Epoch: 35400, Error: 0.003635293225008484
Epoch: 35500, Error: 0.003227634300416698
Epoch: 35600, Error: 0.003178328405789368
Epoch: 35700, Error: 0.0031728082708545337
Epoch: 35800, Error: 0.003126961675940129
Epoch: 35900, Error: 0.0031006003847467737
Epoch: 36000, Error: 0.003193945907343178
Epoch: 36100, Error: 0.003064488262287016
Epoch: 36200, Error: 0.003049033708525004
Epoch: 36300, Error: 0.0029964451773706385
Epoch: 36400, Error: 0.0030129202256781416
Epoch: 36500, Error: 0.0030430063043986803
Epoch: 36600, Error: 0.0029352272583776018
Epoch: 36700, Error: 0.0029214930492637457
Epoch: 36800, Error: 0.002955676739433105
Epoch: 36900, Error: 0.002874919845506191
Epoch: 37000, Error: 0.0028776608290103983
Epoch: 37100, Error: 0.0028813776343887382
Epoch: 37200, Error: 0.0027929818633762858
Epoch: 37300, Error: 0.002788186108114866
Epoch: 37400, Error: 0.0027504289691430194
Epoch: 37500, Error: 0.002722906767306992
Epoch: 37600, Error: 0.002793074787005393
Epoch: 37700, Error: 0.002694077438666313
Epoch: 37800, Error: 0.002777321554192518
Epoch: 37900, Error: 0.002667482168113192
Epoch: 38000, Error: 0.0026442553178288807
Epoch: 38100, Error: 0.0026456925612171178
Epoch: 38200, Error: 0.002610596181532905
Epoch: 38300, Error: 0.0026065359417907314
Epoch: 38400, Error: 0.002559787136846739
Epoch: 38500, Error: 0.0025260541632445383
Epoch: 38600, Error: 0.0025339264759561293
Epoch: 38700, Error: 0.002487270887497954
Epoch: 38800, Error: 0.002470674051512982
Epoch: 38900, Error: 0.0024747910394005107
Epoch: 39000, Error: 0.0024846166634632954
Epoch: 39100, Error: 0.002461319252941693
Epoch: 39200, Error: 0.002430768679166465
Epoch: 39300, Error: 0.0024334589923167313
Epoch: 39400, Error: 0.002465146930612778
Epoch: 39500, Error: 0.0023045389075575552
Epoch: 39600, Error: 0.0023762503574170256
Epoch: 39700, Error: 0.0022765893395692975
Epoch: 39800, Error: 0.0022463353870816063
Epoch: 39900, Error: 0.002222336973762659
Epoch: 40000, Error: 0.002201020050186134
Epoch: 40100, Error: 0.002194040295598512
Epoch: 40200, Error: 0.002168132924479651
Epoch: 40300, Error: 0.0021439687395968907
Epoch: 40400, Error: 0.0022104077137369226
Epoch: 40500, Error: 0.0021097862716459664
Epoch: 40600, Error: 0.002112521970504448
Epoch: 40700, Error: 0.00209627743576584
Epoch: 40800, Error: 0.0021012956686804686
Epoch: 40900, Error: 0.0020302576358549747
Epoch: 41000, Error: 0.0020196156712716453
Epoch: 41100, Error: 0.0019959946087100607
Epoch: 41200, Error: 0.0020549838126427953
Epoch: 41300, Error: 0.001959016534651143
Epoch: 41400, Error: 0.001975134480934276
Epoch: 41500, Error: 0.0019415398342603443
Epoch: 41600, Error: 0.001957195591769315
Epoch: 41700, Error: 0.0019455797434043789
Epoch: 41800, Error: 0.0019507333468061416
Epoch: 41900, Error: 0.0018761673950218206
Epoch: 42000, Error: 0.0018815278740599638
Epoch: 42100, Error: 0.0019311464040248191
Epoch: 42200, Error: 0.0018538502789905735
Epoch: 42300, Error: 0.001830207667270301
Epoch: 42400, Error: 0.0018525469844377707
Epoch: 42500, Error: 0.0018670604176085762
Epoch: 42600, Error: 0.0018646558328875387
Epoch: 42700, Error: 0.0017931724873251165
Epoch: 42800, Error: 0.0017740920587487594
Epoch: 42900, Error: 0.001812511357735724
Epoch: 43000, Error: 0.001754426737874922
Epoch: 43100, Error: 0.0017494814753403302
Epoch: 43200, Error: 0.0017272447623829144
Epoch: 43300, Error: 0.0017969727104230604
Epoch: 43400, Error: 0.0016937911343060587
Epoch: 43500, Error: 0.0017529132391803637
Epoch: 43600, Error: 0.001737561274271955
Epoch: 43700, Error: 0.0016655467058108448
Epoch: 43800, Error: 0.0017498159009992137
Epoch: 43900, Error: 0.0016999044179693325
Epoch: 44000, Error: 0.001710054102135806
Epoch: 44100, Error: 0.0017361274097050644
Epoch: 44200, Error: 0.0016299433884874922
Epoch: 44300, Error: 0.0018137113471096988
Epoch: 44400, Error: 0.001636990216392187
Epoch: 44500, Error: 0.0016116194016391073
Epoch: 44600, Error: 0.0015890365624635645
Epoch: 44700, Error: 0.0015973058442222182
Epoch: 44800, Error: 0.00165909475314971
Epoch: 44900, Error: 0.0015727764609819086
Epoch: 45000, Error: 0.0015787539856909295
Epoch: 45100, Error: 0.00158878695659028
Epoch: 45200, Error: 0.001532381593594587
Epoch: 45300, Error: 0.0015884202038409707
Epoch: 45400, Error: 0.0016358947367793736
Epoch: 45500, Error: 0.0015166925036935303
Epoch: 45600, Error: 0.0015321126358161365
Epoch: 45700, Error: 0.0014861974613721578
Epoch: 45800, Error: 0.0015043286912065584
Epoch: 45900, Error: 0.0014662198122331394
Epoch: 46000, Error: 0.0014563006883940091
Epoch: 46100, Error: 0.0014879787413717034
Epoch: 46200, Error: 0.0014993849680357324
Epoch: 46300, Error: 0.001437916176396764
Epoch: 46400, Error: 0.0014329437206824672
Epoch: 46500, Error: 0.001415843555883856
Epoch: 46600, Error: 0.001455470608173638
Epoch: 46700, Error: 0.0014542979201253824
Epoch: 46800, Error: 0.0014453513832841
Epoch: 46900, Error: 0.0013938029442068383
Epoch: 47000, Error: 0.0013816137286938523
Epoch: 47100, Error: 0.0014066518071614202
Epoch: 47200, Error: 0.001366618084022912
Epoch: 47300, Error: 0.0013553117258010116
Epoch: 47400, Error: 0.0013571852516698218
Epoch: 47500, Error: 0.0013507733628810995
Epoch: 47600, Error: 0.0013642566685974132
Epoch: 47700, Error: 0.001324204043107784
Epoch: 47800, Error: 0.0013217828641508525
Epoch: 47900, Error: 0.0013180247414489865
Epoch: 48000, Error: 0.0013442181661536456
Epoch: 48100, Error: 0.0013148430246023544
Epoch: 48200, Error: 0.0013001247995184206
Epoch: 48300, Error: 0.0012986689410758561
Epoch: 48400, Error: 0.0013098617666629012
Epoch: 48500, Error: 0.001327910117463935
Epoch: 48600, Error: 0.001306844287542587
Epoch: 48700, Error: 0.0013258499389296353
Epoch: 48800, Error: 0.0012998221622756475
Epoch: 48900, Error: 0.0012916193081011207
Epoch: 49000, Error: 0.0012768826699430887
Epoch: 49100, Error: 0.0012795218319319047
Epoch: 49200, Error: 0.0012722984240048796
Epoch: 49300, Error: 0.001274072580342818
Epoch: 49400, Error: 0.001303149135519173
Epoch: 49500, Error: 0.001352072700503356
Epoch: 49600, Error: 0.0012704120667164978
Epoch: 49700, Error: 0.001284621757715254
Epoch: 49800, Error: 0.0012805079086452666
Epoch: 49900, Error: 0.00131048830733947
Epoch: 50000, Error: 0.001276343503780425
Epoch: 50100, Error: 0.0012682968863969326
Epoch: 50200, Error: 0.001265678707482611
Epoch: 50300, Error: 0.0012433978832106316
Epoch: 50400, Error: 0.001235831620177276
Epoch: 50500, Error: 0.0012414897574809622
Epoch: 50600, Error: 0.0012753012332591244
Epoch: 50700, Error: 0.0012897441350291892
Epoch: 50800, Error: 0.0012611856076671652
Epoch: 50900, Error: 0.0012630891433019465
Epoch: 51000, Error: 0.0012520399400443851
Epoch: 51100, Error: 0.0012798965806571708
Epoch: 51200, Error: 0.0013017402647609846
Epoch: 51300, Error: 0.0013021835780733688
Epoch: 51400, Error: 0.0012937000991207475
Epoch: 51500, Error: 0.001293836684424769
Epoch: 51600, Error: 0.0013094325672232611
Epoch: 51700, Error: 0.0012936804567337229
Epoch: 51800, Error: 0.0013097852044214547
Epoch: 51900, Error: 0.0012969523665337392
Epoch: 52000, Error: 0.001305800621800642
Epoch: 52100, Error: 0.0012890940014723112
Epoch: 52200, Error: 0.0013191010697314485
Epoch: 52300, Error: 0.0012968720455918648
Epoch: 52400, Error: 0.001302514945131999
Epoch: 52500, Error: 0.0012925625007174822
Epoch: 52600, Error: 0.0013048551823013645
