Input Patterns
0.224 0.624 0.067 0.043 
0.11 0.502 0.051 0.043 
0.196 0.667 0.067 0.043 
0.055 0.584 0.067 0.082 
0.027 0.376 0.067 0.043 
0.306 0.71 0.086 0.043 
0.137 0.416 0.067 0.0 
0.416 0.831 0.035 0.043 
0.306 0.792 0.051 0.125 
0.388 0.749 0.118 0.082 
0.306 0.584 0.118 0.043 
0.082 0.667 0.0 0.043 
0.137 0.584 0.153 0.043 
0.196 0.584 0.102 0.125 
0.251 0.584 0.067 0.043 
0.137 0.459 0.102 0.043 
0.251 0.875 0.086 0.0 
0.165 0.459 0.086 0.043 
0.333 0.624 0.051 0.043 
0.027 0.416 0.051 0.043 
0.196 0.624 0.051 0.082 
0.027 0.502 0.051 0.043 
0.224 0.749 0.153 0.125 
0.224 0.749 0.102 0.043 
0.278 0.71 0.086 0.043 
0.165 0.416 0.067 0.043 
0.082 0.459 0.086 0.043 
0.306 0.792 0.118 0.125 
0.196 0.584 0.086 0.043 
0.165 0.459 0.086 0.0 
0.137 0.584 0.102 0.043 
0.0 0.416 0.016 0.0 
0.388 1.0 0.086 0.125 
0.224 0.624 0.067 0.082 
0.224 0.749 0.086 0.082 
0.224 0.71 0.086 0.125 
0.224 0.541 0.118 0.165 
0.196 0.416 0.102 0.043 
0.251 0.624 0.086 0.043 
0.11 0.502 0.102 0.043 
0.306 0.584 0.086 0.125 
0.333 0.918 0.067 0.043 
0.196 0.502 0.035 0.043 
0.165 0.667 0.067 0.0 
0.224 0.584 0.086 0.043 
0.055 0.125 0.051 0.082 
0.196 0.624 0.102 0.208 
0.137 0.416 0.067 0.082 
0.082 0.502 0.067 0.043 
0.196 0.541 0.067 0.043 
0.749 0.502 0.627 0.541 
0.722 0.459 0.663 0.584 
0.612 0.333 0.612 0.584 
0.557 0.541 0.627 0.624 
0.639 0.376 0.612 0.498 
0.196 0.0 0.424 0.376 
0.471 0.082 0.51 0.376 
0.361 0.376 0.439 0.498 
0.361 0.416 0.592 0.584 
0.529 0.082 0.592 0.584 
0.443 0.502 0.643 0.459 
0.557 0.208 0.663 0.584 
0.584 0.376 0.561 0.498 
0.694 0.333 0.643 0.541 
0.471 0.376 0.592 0.584 
0.333 0.169 0.475 0.416 
0.416 0.29 0.49 0.459 
0.306 0.416 0.592 0.584 
0.667 0.459 0.627 0.584 
0.361 0.416 0.525 0.498 
0.333 0.251 0.576 0.459 
0.416 0.251 0.51 0.459 
0.361 0.29 0.541 0.498 
0.388 0.376 0.541 0.498 
0.224 0.208 0.337 0.416 
0.584 0.502 0.592 0.584 
0.333 0.125 0.51 0.498 
0.388 0.333 0.592 0.498 
0.165 0.169 0.388 0.376 
0.251 0.29 0.49 0.541 
0.443 0.416 0.541 0.584 
0.498 0.376 0.627 0.541 
0.667 0.459 0.576 0.541 
0.416 0.29 0.525 0.376 
0.361 0.208 0.49 0.416 
0.498 0.333 0.51 0.498 
0.498 0.333 0.627 0.459 
0.639 0.416 0.576 0.541 
0.667 0.416 0.678 0.667 
0.388 0.251 0.424 0.376 
0.333 0.169 0.459 0.376 
0.471 0.29 0.694 0.624 
0.471 0.584 0.592 0.624 
0.557 0.125 0.576 0.498 
0.333 0.208 0.51 0.498 
0.498 0.416 0.612 0.541 
0.196 0.125 0.388 0.376 
0.388 0.416 0.541 0.459 
0.529 0.376 0.561 0.498 
0.388 0.333 0.525 0.498 
0.557 0.541 0.847 1.0 
0.776 0.416 0.831 0.831 
0.612 0.416 0.812 0.875 
0.165 0.208 0.592 0.667 
0.667 0.208 0.812 0.71 
0.612 0.502 0.694 0.792 
0.694 0.416 0.761 0.831 
0.416 0.333 0.694 0.957 
0.612 0.416 0.761 0.71 
0.945 0.251 1.0 0.918 
0.722 0.502 0.796 0.918 
0.945 0.333 0.965 0.792 
0.667 0.541 0.796 0.831 
0.529 0.333 0.643 0.71 
0.584 0.333 0.78 0.831 
0.863 0.333 0.863 0.749 
0.584 0.333 0.78 0.875 
0.498 0.251 0.78 0.541 
0.557 0.584 0.78 0.957 
0.471 0.416 0.643 0.71 
0.667 0.459 0.78 0.957 
0.416 0.29 0.694 0.749 
0.667 0.541 0.796 1.0 
0.557 0.208 0.678 0.749 
0.529 0.584 0.745 0.918 
0.416 0.29 0.694 0.749 
0.557 0.376 0.78 0.71 
0.918 0.416 0.949 0.831 
0.835 0.376 0.898 0.71 
0.804 0.667 0.863 1.0 
0.584 0.29 0.729 0.749 
0.388 0.208 0.678 0.792 
0.584 0.502 0.729 0.918 
0.945 0.749 0.965 0.875 
0.471 0.082 0.678 0.584 
0.361 0.333 0.663 0.792 
0.557 0.29 0.663 0.71 
0.804 0.502 0.847 0.71 
0.498 0.416 0.51 0.71 
0.804 0.416 0.812 0.624 
1.0 0.749 0.914 0.792 
0.557 0.333 0.694 0.584 
0.945 0.416 0.863 0.918 
0.584 0.459 0.761 0.71 
0.722 0.459 0.745 0.831 
0.722 0.459 0.694 0.918 
0.694 0.502 0.831 0.918 
0.667 0.416 0.714 0.918 
0.612 0.416 0.714 0.792 
0.443 0.416 0.694 0.71 
Teaching Patterns
1.0 0.0 0.0 
1.0 0.0 0.0 
1.0 0.0 0.0 
1.0 0.0 0.0 
1.0 0.0 0.0 
1.0 0.0 0.0 
1.0 0.0 0.0 
1.0 0.0 0.0 
1.0 0.0 0.0 
1.0 0.0 0.0 
1.0 0.0 0.0 
1.0 0.0 0.0 
1.0 0.0 0.0 
1.0 0.0 0.0 
1.0 0.0 0.0 
1.0 0.0 0.0 
1.0 0.0 0.0 
1.0 0.0 0.0 
1.0 0.0 0.0 
1.0 0.0 0.0 
1.0 0.0 0.0 
1.0 0.0 0.0 
1.0 0.0 0.0 
1.0 0.0 0.0 
1.0 0.0 0.0 
1.0 0.0 0.0 
1.0 0.0 0.0 
1.0 0.0 0.0 
1.0 0.0 0.0 
1.0 0.0 0.0 
1.0 0.0 0.0 
1.0 0.0 0.0 
1.0 0.0 0.0 
1.0 0.0 0.0 
1.0 0.0 0.0 
1.0 0.0 0.0 
1.0 0.0 0.0 
1.0 0.0 0.0 
1.0 0.0 0.0 
1.0 0.0 0.0 
1.0 0.0 0.0 
1.0 0.0 0.0 
1.0 0.0 0.0 
1.0 0.0 0.0 
1.0 0.0 0.0 
1.0 0.0 0.0 
1.0 0.0 0.0 
1.0 0.0 0.0 
1.0 0.0 0.0 
1.0 0.0 0.0 
0.0 1.0 0.0 
0.0 1.0 0.0 
0.0 1.0 0.0 
0.0 1.0 0.0 
0.0 1.0 0.0 
0.0 1.0 0.0 
0.0 1.0 0.0 
0.0 1.0 0.0 
0.0 1.0 0.0 
0.0 1.0 0.0 
0.0 1.0 0.0 
0.0 1.0 0.0 
0.0 1.0 0.0 
0.0 1.0 0.0 
0.0 1.0 0.0 
0.0 1.0 0.0 
0.0 1.0 0.0 
0.0 1.0 0.0 
0.0 1.0 0.0 
0.0 1.0 0.0 
0.0 1.0 0.0 
0.0 1.0 0.0 
0.0 1.0 0.0 
0.0 1.0 0.0 
0.0 1.0 0.0 
0.0 1.0 0.0 
0.0 1.0 0.0 
0.0 1.0 0.0 
0.0 1.0 0.0 
0.0 1.0 0.0 
0.0 1.0 0.0 
0.0 1.0 0.0 
0.0 1.0 0.0 
0.0 1.0 0.0 
0.0 1.0 0.0 
0.0 1.0 0.0 
0.0 1.0 0.0 
0.0 1.0 0.0 
0.0 1.0 0.0 
0.0 1.0 0.0 
0.0 1.0 0.0 
0.0 1.0 0.0 
0.0 1.0 0.0 
0.0 1.0 0.0 
0.0 1.0 0.0 
0.0 1.0 0.0 
0.0 1.0 0.0 
0.0 1.0 0.0 
0.0 1.0 0.0 
0.0 1.0 0.0 
0.0 0.0 1.0 
0.0 0.0 1.0 
0.0 0.0 1.0 
0.0 0.0 1.0 
0.0 0.0 1.0 
0.0 0.0 1.0 
0.0 0.0 1.0 
0.0 0.0 1.0 
0.0 0.0 1.0 
0.0 0.0 1.0 
0.0 0.0 1.0 
0.0 0.0 1.0 
0.0 0.0 1.0 
0.0 0.0 1.0 
0.0 0.0 1.0 
0.0 0.0 1.0 
0.0 0.0 1.0 
0.0 0.0 1.0 
0.0 0.0 1.0 
0.0 0.0 1.0 
0.0 0.0 1.0 
0.0 0.0 1.0 
0.0 0.0 1.0 
0.0 0.0 1.0 
0.0 0.0 1.0 
0.0 0.0 1.0 
0.0 0.0 1.0 
0.0 0.0 1.0 
0.0 0.0 1.0 
0.0 0.0 1.0 
0.0 0.0 1.0 
0.0 0.0 1.0 
0.0 0.0 1.0 
0.0 0.0 1.0 
0.0 0.0 1.0 
0.0 0.0 1.0 
0.0 0.0 1.0 
0.0 0.0 1.0 
0.0 0.0 1.0 
0.0 0.0 1.0 
0.0 0.0 1.0 
0.0 0.0 1.0 
0.0 0.0 1.0 
0.0 0.0 1.0 
0.0 0.0 1.0 
0.0 0.0 1.0 
0.0 0.0 1.0 
0.0 0.0 1.0 
0.0 0.0 1.0 
0.0 0.0 1.0 
Learning : 0.05
Momentum : 0.699999988079071
Epoch: 100, Error: 0.03648346788120972
Epoch: 200, Error: 0.01921072386803627
Epoch: 300, Error: 0.015689780880429587
Epoch: 400, Error: 0.014404954307541325
Epoch: 500, Error: 0.013735792897819253
Epoch: 600, Error: 0.013293184641580585
Epoch: 700, Error: 0.012922101325561078
Epoch: 800, Error: 0.012731640099287832
Epoch: 900, Error: 0.01258059510163474
Epoch: 1000, Error: 0.012392902535892614
Epoch: 1100, Error: 0.012264496997260583
Epoch: 1200, Error: 0.012235330080330415
Epoch: 1300, Error: 0.012229104680966997
Epoch: 1400, Error: 0.012172707512711697
Epoch: 1500, Error: 0.012142560659196507
Epoch: 1600, Error: 0.012240472376748274
Epoch: 1700, Error: 0.012095077416592269
Epoch: 1800, Error: 0.012212494160560004
Epoch: 1900, Error: 0.012026652657519099
Epoch: 2000, Error: 0.012029849185003825
Epoch: 2100, Error: 0.012024094582273187
Epoch: 2200, Error: 0.012055524819493152
Epoch: 2300, Error: 0.011986756133545301
Epoch: 2400, Error: 0.012076839519654253
Epoch: 2500, Error: 0.011952425224642458
Epoch: 2600, Error: 0.011878574248642502
Epoch: 2700, Error: 0.012005328837377928
Epoch: 2800, Error: 0.011936847570688991
Epoch: 2900, Error: 0.011855262573668446
Epoch: 3000, Error: 0.011851808560634221
Epoch: 3100, Error: 0.01183885949344599
Epoch: 3200, Error: 0.011834242082236775
Epoch: 3300, Error: 0.011863890923423553
Epoch: 3400, Error: 0.011839392178086352
Epoch: 3500, Error: 0.011861245817822892
Epoch: 3600, Error: 0.011841243371538163
Epoch: 3700, Error: 0.011835496429986004
Epoch: 3800, Error: 0.011756292175516917
Epoch: 3900, Error: 0.011767747656953816
Epoch: 4000, Error: 0.011804092441422807
Epoch: 4100, Error: 0.011796590553050055
Epoch: 4200, Error: 0.01176721652865605
Epoch: 4300, Error: 0.01174556517299196
Epoch: 4400, Error: 0.011746680256307141
Epoch: 4500, Error: 0.011727972614889316
Epoch: 4600, Error: 0.01175926354477762
Epoch: 4700, Error: 0.011742498080396829
Epoch: 4800, Error: 0.01175416061125377
Epoch: 4900, Error: 0.011723717754232822
Epoch: 5000, Error: 0.011671114951731775
Epoch: 5100, Error: 0.011657401433382088
Epoch: 5200, Error: 0.011685778542461958
Epoch: 5300, Error: 0.011698779845323798
Epoch: 5400, Error: 0.011720052071806594
Epoch: 5500, Error: 0.011769428070156709
Epoch: 5600, Error: 0.011682285973607199
Epoch: 5700, Error: 0.011769409326519884
Epoch: 5800, Error: 0.011689364223019588
Epoch: 5900, Error: 0.011682963624721194
Epoch: 6000, Error: 0.011619617447475519
Epoch: 6100, Error: 0.011699835992301351
Epoch: 6200, Error: 0.011694876129252001
Epoch: 6300, Error: 0.011691727176989037
Epoch: 6400, Error: 0.01165667450198376
Epoch: 6500, Error: 0.011751690553858295
Epoch: 6600, Error: 0.011652747842719352
Epoch: 6700, Error: 0.011716212780857483
Epoch: 6800, Error: 0.011600686962233854
Epoch: 6900, Error: 0.011618898712458074
Epoch: 7000, Error: 0.011637616763972689
Epoch: 7100, Error: 0.011608838871280794
Epoch: 7200, Error: 0.011568394955535929
Epoch: 7300, Error: 0.011590748032005256
Epoch: 7400, Error: 0.011576593785497616
Epoch: 7500, Error: 0.011535248675695
Epoch: 7600, Error: 0.011528102711039705
Epoch: 7700, Error: 0.011561377588945414
Epoch: 7800, Error: 0.0114409614055349
Epoch: 7900, Error: 0.011469271533686492
Epoch: 8000, Error: 0.011441700923088325
Epoch: 8100, Error: 0.011494117409244518
Epoch: 8200, Error: 0.011585157179935072
Epoch: 8300, Error: 0.011417850117669786
Epoch: 8400, Error: 0.011380015962902586
Epoch: 8500, Error: 0.011460171191636271
Epoch: 8600, Error: 0.011332794297932023
Epoch: 8700, Error: 0.011334194404845373
Epoch: 8800, Error: 0.011293159583839755
Epoch: 8900, Error: 0.011277096990705065
Epoch: 9000, Error: 0.011260134407488269
Epoch: 9100, Error: 0.01127562656147732
Epoch: 9200, Error: 0.011306590505605067
Epoch: 9300, Error: 0.011284092161159455
Epoch: 9400, Error: 0.011216905479632246
Epoch: 9500, Error: 0.011305285534437302
Epoch: 9600, Error: 0.011137223602748178
Epoch: 9700, Error: 0.011116595452655198
Epoch: 9800, Error: 0.011134955275145506
Epoch: 9900, Error: 0.01108815314289298
Epoch: 10000, Error: 0.011080527757653115
Epoch: 10100, Error: 0.011053156768701375
Epoch: 10200, Error: 0.011030073693852333
Epoch: 10300, Error: 0.011016298482271081
Epoch: 10400, Error: 0.01105285499735786
Epoch: 10500, Error: 0.01092893739540683
Epoch: 10600, Error: 0.010892368719042348
Epoch: 10700, Error: 0.010857910027925476
Epoch: 10800, Error: 0.01085170180769165
Epoch: 10900, Error: 0.010770130690127054
Epoch: 11000, Error: 0.01073874902995528
Epoch: 11100, Error: 0.010713459555985494
Epoch: 11200, Error: 0.010680403729450116
Epoch: 11300, Error: 0.010637062081687127
Epoch: 11400, Error: 0.010677775113688844
Epoch: 11500, Error: 0.010575732609890106
Epoch: 11600, Error: 0.010546851430184424
Epoch: 11700, Error: 0.010540198231739352
Epoch: 11800, Error: 0.010494450973835544
Epoch: 11900, Error: 0.010421528106178371
Epoch: 12000, Error: 0.010397792330379765
Epoch: 12100, Error: 0.010304400249970981
Epoch: 12200, Error: 0.010287786093023705
Epoch: 12300, Error: 0.010242410509305869
Epoch: 12400, Error: 0.010152975391661668
Epoch: 12500, Error: 0.010107665172818171
Epoch: 12600, Error: 0.010033757128456477
Epoch: 12700, Error: 0.00995455548708916
Epoch: 12800, Error: 0.009883433659220899
Epoch: 12900, Error: 0.009889661106850077
Epoch: 13000, Error: 0.00978638390647149
Epoch: 13100, Error: 0.0097672546498575
Epoch: 13200, Error: 0.009685675600181666
Epoch: 13300, Error: 0.009669186558224161
Epoch: 13400, Error: 0.009546230201143719
Epoch: 13500, Error: 0.00949123248955441
Epoch: 13600, Error: 0.009440040455665362
Epoch: 13700, Error: 0.009374997649719077
Epoch: 13800, Error: 0.009302716355272082
Epoch: 13900, Error: 0.009258937065989478
Epoch: 14000, Error: 0.009187206121095363
Epoch: 14100, Error: 0.009124410720454472
Epoch: 14200, Error: 0.00910291359790769
Epoch: 14300, Error: 0.008980833295446617
Epoch: 14400, Error: 0.008912756792006888
Epoch: 14500, Error: 0.00889929868535418
Epoch: 14600, Error: 0.008777189867285876
Epoch: 14700, Error: 0.008719369115122257
Epoch: 14800, Error: 0.0086532129080784
Epoch: 14900, Error: 0.00860952433680355
Epoch: 15000, Error: 0.008448285046033744
Epoch: 15100, Error: 0.008405578357791238
Epoch: 15200, Error: 0.008299273542418767
Epoch: 15300, Error: 0.008215757138708738
Epoch: 15400, Error: 0.008166399248505493
Epoch: 15500, Error: 0.008091862147114106
Epoch: 15600, Error: 0.007995595315988696
Epoch: 15700, Error: 0.007913720348712912
Epoch: 15800, Error: 0.007841430693141272
Epoch: 15900, Error: 0.007775441940937252
Epoch: 16000, Error: 0.007704148461750326
Epoch: 16100, Error: 0.007670881597331034
Epoch: 16200, Error: 0.007573849124328396
Epoch: 16300, Error: 0.007505138067293158
Epoch: 16400, Error: 0.007474883985246319
Epoch: 16500, Error: 0.007404868375413237
Epoch: 16600, Error: 0.007342053380044671
Epoch: 16700, Error: 0.007276619705995008
Epoch: 16800, Error: 0.007194501928552209
Epoch: 16900, Error: 0.007134994295088756
Epoch: 17000, Error: 0.007067618850920005
Epoch: 17100, Error: 0.006986644821424795
Epoch: 17200, Error: 0.00690476616625921
Epoch: 17300, Error: 0.006880617631476353
Epoch: 17400, Error: 0.006840398858376302
Epoch: 17500, Error: 0.0067628219533403386
Epoch: 17600, Error: 0.0067131758618957016
Epoch: 17700, Error: 0.006632657691164377
Epoch: 17800, Error: 0.006569635632844849
Epoch: 17900, Error: 0.006535813181686137
Epoch: 18000, Error: 0.0064933627856097005
Epoch: 18100, Error: 0.006441578981136944
Epoch: 18200, Error: 0.006400501766822363
Epoch: 18300, Error: 0.006348168171513505
Epoch: 18400, Error: 0.006372823388921858
Epoch: 18500, Error: 0.006318233528086027
Epoch: 18600, Error: 0.006254148743559144
Epoch: 18700, Error: 0.0062161025246672405
Epoch: 18800, Error: 0.006196111968661256
Epoch: 18900, Error: 0.0061797197464966615
Epoch: 19000, Error: 0.006099004234475444
Epoch: 19100, Error: 0.006094103835377633
Epoch: 19200, Error: 0.0060478235752511765
Epoch: 19300, Error: 0.006012149336567184
Epoch: 19400, Error: 0.005976941147006352
Epoch: 19500, Error: 0.005956888093267559
Epoch: 19600, Error: 0.00591601968397087
Epoch: 19700, Error: 0.005875610505042263
Epoch: 19800, Error: 0.005863961761981076
Epoch: 19900, Error: 0.00581871587358641
Epoch: 20000, Error: 0.005781816039293694
Epoch: 20100, Error: 0.005759171974040967
Epoch: 20200, Error: 0.005804827947439202
Epoch: 20300, Error: 0.005712617334161931
Epoch: 20400, Error: 0.005711794933406205
Epoch: 20500, Error: 0.0056712424224802035
Epoch: 20600, Error: 0.005667387074145668
Epoch: 20700, Error: 0.005637780930345895
Epoch: 20800, Error: 0.005609227118823301
Epoch: 20900, Error: 0.005563694984725399
Epoch: 21000, Error: 0.005690767010606126
Epoch: 21100, Error: 0.005536913736768194
Epoch: 21200, Error: 0.005552518698685682
Epoch: 21300, Error: 0.005496797440607888
Epoch: 21400, Error: 0.005477311381888113
Epoch: 21500, Error: 0.00536590770785655
Epoch: 21600, Error: 0.0053898841399020085
Epoch: 21700, Error: 0.005369034629608086
Epoch: 21800, Error: 0.005295936858909533
Epoch: 21900, Error: 0.00530875153200283
Epoch: 22000, Error: 0.005292343887748704
Epoch: 22100, Error: 0.005269443697626386
Epoch: 22200, Error: 0.005274969240583785
Epoch: 22300, Error: 0.005241541353194954
Epoch: 22400, Error: 0.0052202836989690025
Epoch: 22500, Error: 0.005142753103647336
Epoch: 22600, Error: 0.005162626267974357
Epoch: 22700, Error: 0.005106493773010804
Epoch: 22800, Error: 0.005122287044678515
Epoch: 22900, Error: 0.005083210600040192
Epoch: 23000, Error: 0.005016954450750206
Epoch: 23100, Error: 0.005002477172703485
Epoch: 23200, Error: 0.004979220102261682
Epoch: 23300, Error: 0.0050325889749096376
Epoch: 23400, Error: 0.004918021367629131
Epoch: 23500, Error: 0.004933586253257774
Epoch: 23600, Error: 0.004870117436996726
Epoch: 23700, Error: 0.004875986856339522
Epoch: 23800, Error: 0.004884031906284859
Epoch: 23900, Error: 0.0048496679745128396
Epoch: 24000, Error: 0.0048367688238031
Epoch: 24100, Error: 0.004778454605099544
Epoch: 24200, Error: 0.004685686402393467
Epoch: 24300, Error: 0.0047136345033871535
Epoch: 24400, Error: 0.004616866569861812
Epoch: 24500, Error: 0.004667237510908861
Epoch: 24600, Error: 0.004630983084368408
Epoch: 24700, Error: 0.004568848645048608
Epoch: 24800, Error: 0.004610704882479068
Epoch: 24900, Error: 0.00455603680126703
Epoch: 25000, Error: 0.004503216038710703
Epoch: 25100, Error: 0.004531324253756505
Epoch: 25200, Error: 0.004477601128492584
Epoch: 25300, Error: 0.004530761279115542
Epoch: 25400, Error: 0.00441001082962662
Epoch: 25500, Error: 0.004412210296386697
Epoch: 25600, Error: 0.004523381253205358
Epoch: 25700, Error: 0.004356989442165202
Epoch: 25800, Error: 0.004342607316910069
Epoch: 25900, Error: 0.0042836731434765995
Epoch: 26000, Error: 0.004230977854695796
Epoch: 26100, Error: 0.004249959175978923
Epoch: 26200, Error: 0.004354444603421039
Epoch: 26300, Error: 0.004195466723385883
Epoch: 26400, Error: 0.0041457261774780745
Epoch: 26500, Error: 0.004126042522691089
Epoch: 26600, Error: 0.004132133401045372
Epoch: 26700, Error: 0.004085924736000565
Epoch: 26800, Error: 0.004108488636652835
Epoch: 26900, Error: 0.004032319670231349
Epoch: 27000, Error: 0.003993813371732372
Epoch: 27100, Error: 0.003955461919208634
Epoch: 27200, Error: 0.0039431228597829465
Epoch: 27300, Error: 0.003904487464960876
Epoch: 27400, Error: 0.0038972819593213913
Epoch: 27500, Error: 0.003888153349362631
Epoch: 27600, Error: 0.0037874811021955616
Epoch: 27700, Error: 0.003870495224460027
Epoch: 27800, Error: 0.00375886015406408
Epoch: 27900, Error: 0.0037110107170842646
Epoch: 28000, Error: 0.0037000911279325113
Epoch: 28100, Error: 0.003681474521039285
Epoch: 28200, Error: 0.0036780007684371406
Epoch: 28300, Error: 0.003661093405089272
Epoch: 28400, Error: 0.0035951849527531663
Epoch: 28500, Error: 0.0035669548835131036
Epoch: 28600, Error: 0.0035498752843073577
Epoch: 28700, Error: 0.003519487597865285
Epoch: 28800, Error: 0.0035468542096768426
Epoch: 28900, Error: 0.003521950895759105
Epoch: 29000, Error: 0.0034296591697973713
Epoch: 29100, Error: 0.0034394487667044503
Epoch: 29200, Error: 0.0033663357483319136
Epoch: 29300, Error: 0.0033396096539763703
Epoch: 29400, Error: 0.003320888300753381
Epoch: 29500, Error: 0.003308410300247578
Epoch: 29600, Error: 0.0032792003298801587
Epoch: 29700, Error: 0.003264344135914818
Epoch: 29800, Error: 0.0032208476962527067
Epoch: 29900, Error: 0.0031830632524428824
Epoch: 30000, Error: 0.0031938714958426834
Epoch: 30100, Error: 0.0031362000286453947
Epoch: 30200, Error: 0.003290265932004699
Epoch: 30300, Error: 0.003200311276879535
Epoch: 30400, Error: 0.0030777969941890846
Epoch: 30500, Error: 0.0031086665510515767
Epoch: 30600, Error: 0.003035130372132849
Epoch: 30700, Error: 0.0030045919800809045
Epoch: 30800, Error: 0.00314844414421678
Epoch: 30900, Error: 0.0029600265850225588
Epoch: 31000, Error: 0.0030362031880968635
Epoch: 31100, Error: 0.0029400080971709324
Epoch: 31200, Error: 0.002899240169053663
Epoch: 31300, Error: 0.0029122152927542285
Epoch: 31400, Error: 0.002873039613363629
Epoch: 31500, Error: 0.0028464285741511205
Epoch: 31600, Error: 0.003156084258055383
Epoch: 31700, Error: 0.002957540158355598
Epoch: 31800, Error: 0.002821561666577645
Epoch: 31900, Error: 0.0027461792453499934
Epoch: 32000, Error: 0.0027161225717482894
Epoch: 32100, Error: 0.002730486612632862
Epoch: 32200, Error: 0.002678437864876545
Epoch: 32300, Error: 0.00266966554831933
Epoch: 32400, Error: 0.002845500692530169
Epoch: 32500, Error: 0.0026369414895124174
Epoch: 32600, Error: 0.002636591047172461
Epoch: 32700, Error: 0.0025679881863976614
Epoch: 32800, Error: 0.002562384642038215
Epoch: 32900, Error: 0.002526974616685091
Epoch: 33000, Error: 0.0027222746239205235
Epoch: 33100, Error: 0.002526884576209392
Epoch: 33200, Error: 0.002537056607456011
Epoch: 33300, Error: 0.0024846688220295215
Epoch: 33400, Error: 0.002513423338772313
Epoch: 33500, Error: 0.0024085086224114862
Epoch: 33600, Error: 0.002460510965927422
Epoch: 33700, Error: 0.002375340683445498
Epoch: 33800, Error: 0.002365828248995622
Epoch: 33900, Error: 0.002345075228544956
Epoch: 34000, Error: 0.002336968215494837
Epoch: 34100, Error: 0.0023051985384823642
Epoch: 34200, Error: 0.002350212167947679
Epoch: 34300, Error: 0.0023300999038739444
Epoch: 34400, Error: 0.0022929574309230316
Epoch: 34500, Error: 0.0022517484062938727
Epoch: 34600, Error: 0.002249640306473623
Epoch: 34700, Error: 0.0022279588556885417
Epoch: 34800, Error: 0.0021913737440311027
Epoch: 34900, Error: 0.002174779023023308
Epoch: 35000, Error: 0.0022289530412571874
Epoch: 35100, Error: 0.0021833258060239996
Epoch: 35200, Error: 0.0022220924929908614
Epoch: 35300, Error: 0.0022704167441825896
Epoch: 35400, Error: 0.0021905388822638055
Epoch: 35500, Error: 0.00210781222905082
Epoch: 35600, Error: 0.0021432026828592282
Epoch: 35700, Error: 0.002085680342291707
Epoch: 35800, Error: 0.002089175402522717
Epoch: 35900, Error: 0.002122746175880449
Epoch: 36000, Error: 0.0021721647724874224
Epoch: 36100, Error: 0.0020877528078106747
Epoch: 36200, Error: 0.0020668417622132147
Epoch: 36300, Error: 0.002049019484804329
Epoch: 36400, Error: 0.002018733758979618
Epoch: 36500, Error: 0.0020173077380299296
Epoch: 36600, Error: 0.0022398485289528637
Epoch: 36700, Error: 0.0020001483216898178
Epoch: 36800, Error: 0.0020120379961890123
Epoch: 36900, Error: 0.002030265341430662
Epoch: 37000, Error: 0.0020039500943007365
Epoch: 37100, Error: 0.0019891672024696756
Epoch: 37200, Error: 0.0019520465307602632
Epoch: 37300, Error: 0.001975288032318736
Epoch: 37400, Error: 0.0020148043921166614
Epoch: 37500, Error: 0.001932823489024473
Epoch: 37600, Error: 0.001991233682892479
Epoch: 37700, Error: 0.0019280660231126598
Epoch: 37800, Error: 0.0019555294287254936
Epoch: 37900, Error: 0.0019666650930867595
Epoch: 38000, Error: 0.001978568670761714
Epoch: 38100, Error: 0.002002815989897819
Epoch: 38200, Error: 0.0019647565074563007
Epoch: 38300, Error: 0.0019113793942702817
Epoch: 38400, Error: 0.0019341982929558237
Epoch: 38500, Error: 0.0018756122770666069
Epoch: 38600, Error: 0.0018831437740429952
Epoch: 38700, Error: 0.001843880526039939
Epoch: 38800, Error: 0.0018516415698246538
Epoch: 38900, Error: 0.0018176651691030686
Epoch: 39000, Error: 0.0017857461033386503
Epoch: 39100, Error: 0.0017808041269943941
Epoch: 39200, Error: 0.0017996344403426459
Epoch: 39300, Error: 0.001798140093870542
Epoch: 39400, Error: 0.0017379654682335966
Epoch: 39500, Error: 0.0017156118789333134
Epoch: 39600, Error: 0.0017329891205774494
Epoch: 39700, Error: 0.0016887995345066993
Epoch: 39800, Error: 0.0017074413047487183
Epoch: 39900, Error: 0.0016706319762656344
Epoch: 40000, Error: 0.0016666576823879502
Epoch: 40100, Error: 0.0016936966114013728
Epoch: 40200, Error: 0.0016232720510966354
Epoch: 40300, Error: 0.0016151568221974004
Epoch: 40400, Error: 0.0016134198470783468
Epoch: 40500, Error: 0.0015696723335082586
Epoch: 40600, Error: 0.0015570993788093677
Epoch: 40700, Error: 0.0015462374836983967
Epoch: 40800, Error: 0.0015344609882998695
Epoch: 40900, Error: 0.0015402110153346668
Epoch: 41000, Error: 0.0015019388215345387
Epoch: 41100, Error: 0.0014869969338717256
Epoch: 41200, Error: 0.0014858952212416028
Epoch: 41300, Error: 0.0014978837332056617
Epoch: 41400, Error: 0.0014616811640973037
Epoch: 41500, Error: 0.0015061617510548195
Epoch: 41600, Error: 0.0014371705988672474
Epoch: 41700, Error: 0.0014122948648204628
Epoch: 41800, Error: 0.0014248603069331642
Epoch: 41900, Error: 0.0013964737239766949
Epoch: 42000, Error: 0.0013815578285465261
Epoch: 42100, Error: 0.0014051164218517056
Epoch: 42200, Error: 0.0013988586603648548
Epoch: 42300, Error: 0.0014042687966038408
Epoch: 42400, Error: 0.0013413634651565963
Epoch: 42500, Error: 0.0013250024814336742
Epoch: 42600, Error: 0.0013727994679458805
Epoch: 42700, Error: 0.0013014920485184575
Epoch: 42800, Error: 0.0012977722562228379
Epoch: 42900, Error: 0.0013132377689009868
Epoch: 43000, Error: 0.0012717391269009269
Epoch: 43100, Error: 0.0012713546299400439
Epoch: 43200, Error: 0.001243643032687178
Epoch: 43300, Error: 0.0012412992864294643
Epoch: 43400, Error: 0.0013313234853972078
Epoch: 43500, Error: 0.0012290553230025177
Epoch: 43600, Error: 0.0012260203693910592
Epoch: 43700, Error: 0.0012002670048762364
Epoch: 43800, Error: 0.0011852010378874162
Epoch: 43900, Error: 0.0011816959515086715
Epoch: 44000, Error: 0.001193462595191903
Epoch: 44100, Error: 0.0011771645747564825
Epoch: 44200, Error: 0.001155224840617389
Epoch: 44300, Error: 0.0011458028233568688
Epoch: 44400, Error: 0.001159274027861732
Epoch: 44500, Error: 0.0011273037476580254
Epoch: 44600, Error: 0.001137101144585371
Epoch: 44700, Error: 0.0011077790176342289
Epoch: 44800, Error: 0.0011001744990825277
Epoch: 44900, Error: 0.001113430453559977
Epoch: 45000, Error: 0.0010880889913436607
Epoch: 45100, Error: 0.0010823637438214344
Epoch: 45200, Error: 0.001089805864608896
Epoch: 45300, Error: 0.0011765043332728476
Epoch: 45400, Error: 0.001058656680652887
Epoch: 45500, Error: 0.0010557789584884612
Epoch: 45600, Error: 0.0010468070160053048
Epoch: 45700, Error: 0.0010395328791476652
Epoch: 45800, Error: 0.001033053226338105
Epoch: 45900, Error: 0.0010302952845020784
Epoch: 46000, Error: 0.0010386832983776536
Epoch: 46100, Error: 0.0010240071057168228
Epoch: 46200, Error: 0.0010238840547610955
Epoch: 46300, Error: 0.0010248897945428356
Epoch: 46400, Error: 0.0010197134391048412
Epoch: 46500, Error: 0.0010468392904323268
Epoch: 46600, Error: 0.0010131307802535912
Epoch: 46700, Error: 0.0010209576669564246
Epoch: 46800, Error: 0.0010148566533465292
Epoch: 46900, Error: 0.0010037572425530502
Epoch: 47000, Error: 9.875381022458806E-4
Epoch: 47100, Error: 0.001007965821634359
Epoch: 47200, Error: 9.822346736451594E-4
Epoch: 47300, Error: 9.859200042464514E-4
Epoch: 47400, Error: 9.854982483836856E-4
Epoch: 47500, Error: 9.88514468857396E-4
Epoch: 47600, Error: 9.76597291031205E-4
Epoch: 47700, Error: 9.678013051666284E-4
Epoch: 47800, Error: 9.677751301017491E-4
Epoch: 47900, Error: 9.675161039988667E-4
Epoch: 48000, Error: 9.608200915927727E-4
