Input Patterns
0.224 0.624 0.067 0.043 
0.11 0.502 0.051 0.043 
0.196 0.667 0.067 0.043 
0.055 0.584 0.067 0.082 
0.027 0.376 0.067 0.043 
0.306 0.71 0.086 0.043 
0.137 0.416 0.067 0.0 
0.416 0.831 0.035 0.043 
0.306 0.792 0.051 0.125 
0.388 0.749 0.118 0.082 
0.306 0.584 0.118 0.043 
0.082 0.667 0.0 0.043 
0.137 0.584 0.153 0.043 
0.196 0.584 0.102 0.125 
0.251 0.584 0.067 0.043 
0.137 0.459 0.102 0.043 
0.251 0.875 0.086 0.0 
0.165 0.459 0.086 0.043 
0.333 0.624 0.051 0.043 
0.027 0.416 0.051 0.043 
0.196 0.624 0.051 0.082 
0.027 0.502 0.051 0.043 
0.224 0.749 0.153 0.125 
0.224 0.749 0.102 0.043 
0.278 0.71 0.086 0.043 
0.165 0.416 0.067 0.043 
0.082 0.459 0.086 0.043 
0.306 0.792 0.118 0.125 
0.196 0.584 0.086 0.043 
0.165 0.459 0.086 0.0 
0.137 0.584 0.102 0.043 
0.0 0.416 0.016 0.0 
0.388 1.0 0.086 0.125 
0.224 0.624 0.067 0.082 
0.224 0.749 0.086 0.082 
0.224 0.71 0.086 0.125 
0.224 0.541 0.118 0.165 
0.196 0.416 0.102 0.043 
0.251 0.624 0.086 0.043 
0.11 0.502 0.102 0.043 
0.306 0.584 0.086 0.125 
0.333 0.918 0.067 0.043 
0.196 0.502 0.035 0.043 
0.165 0.667 0.067 0.0 
0.224 0.584 0.086 0.043 
0.055 0.125 0.051 0.082 
0.196 0.624 0.102 0.208 
0.137 0.416 0.067 0.082 
0.082 0.502 0.067 0.043 
0.196 0.541 0.067 0.043 
0.749 0.502 0.627 0.541 
0.722 0.459 0.663 0.584 
0.612 0.333 0.612 0.584 
0.557 0.541 0.627 0.624 
0.639 0.376 0.612 0.498 
0.196 0.0 0.424 0.376 
0.471 0.082 0.51 0.376 
0.361 0.376 0.439 0.498 
0.361 0.416 0.592 0.584 
0.529 0.082 0.592 0.584 
0.443 0.502 0.643 0.459 
0.557 0.208 0.663 0.584 
0.584 0.376 0.561 0.498 
0.694 0.333 0.643 0.541 
0.471 0.376 0.592 0.584 
0.333 0.169 0.475 0.416 
0.416 0.29 0.49 0.459 
0.306 0.416 0.592 0.584 
0.667 0.459 0.627 0.584 
0.361 0.416 0.525 0.498 
0.333 0.251 0.576 0.459 
0.416 0.251 0.51 0.459 
0.361 0.29 0.541 0.498 
0.388 0.376 0.541 0.498 
0.224 0.208 0.337 0.416 
0.584 0.502 0.592 0.584 
0.333 0.125 0.51 0.498 
0.388 0.333 0.592 0.498 
0.165 0.169 0.388 0.376 
0.251 0.29 0.49 0.541 
0.443 0.416 0.541 0.584 
0.498 0.376 0.627 0.541 
0.667 0.459 0.576 0.541 
0.416 0.29 0.525 0.376 
0.361 0.208 0.49 0.416 
0.498 0.333 0.51 0.498 
0.498 0.333 0.627 0.459 
0.639 0.416 0.576 0.541 
0.667 0.416 0.678 0.667 
0.388 0.251 0.424 0.376 
0.333 0.169 0.459 0.376 
0.471 0.29 0.694 0.624 
0.471 0.584 0.592 0.624 
0.557 0.125 0.576 0.498 
0.333 0.208 0.51 0.498 
0.498 0.416 0.612 0.541 
0.196 0.125 0.388 0.376 
0.388 0.416 0.541 0.459 
0.529 0.376 0.561 0.498 
0.388 0.333 0.525 0.498 
0.557 0.541 0.847 1.0 
0.776 0.416 0.831 0.831 
0.612 0.416 0.812 0.875 
0.165 0.208 0.592 0.667 
0.667 0.208 0.812 0.71 
0.612 0.502 0.694 0.792 
0.694 0.416 0.761 0.831 
0.416 0.333 0.694 0.957 
0.612 0.416 0.761 0.71 
0.945 0.251 1.0 0.918 
0.722 0.502 0.796 0.918 
0.945 0.333 0.965 0.792 
0.667 0.541 0.796 0.831 
0.529 0.333 0.643 0.71 
0.584 0.333 0.78 0.831 
0.863 0.333 0.863 0.749 
0.584 0.333 0.78 0.875 
0.498 0.251 0.78 0.541 
0.557 0.584 0.78 0.957 
0.471 0.416 0.643 0.71 
0.667 0.459 0.78 0.957 
0.416 0.29 0.694 0.749 
0.667 0.541 0.796 1.0 
0.557 0.208 0.678 0.749 
0.529 0.584 0.745 0.918 
0.416 0.29 0.694 0.749 
0.557 0.376 0.78 0.71 
0.918 0.416 0.949 0.831 
0.835 0.376 0.898 0.71 
0.804 0.667 0.863 1.0 
0.584 0.29 0.729 0.749 
0.388 0.208 0.678 0.792 
0.584 0.502 0.729 0.918 
0.945 0.749 0.965 0.875 
0.471 0.082 0.678 0.584 
0.361 0.333 0.663 0.792 
0.557 0.29 0.663 0.71 
0.804 0.502 0.847 0.71 
0.498 0.416 0.51 0.71 
0.804 0.416 0.812 0.624 
1.0 0.749 0.914 0.792 
0.557 0.333 0.694 0.584 
0.945 0.416 0.863 0.918 
0.584 0.459 0.761 0.71 
0.722 0.459 0.745 0.831 
0.722 0.459 0.694 0.918 
0.694 0.502 0.831 0.918 
0.667 0.416 0.714 0.918 
0.612 0.416 0.714 0.792 
0.443 0.416 0.694 0.71 
Teaching Patterns
1.0 0.0 0.0 
1.0 0.0 0.0 
1.0 0.0 0.0 
1.0 0.0 0.0 
1.0 0.0 0.0 
1.0 0.0 0.0 
1.0 0.0 0.0 
1.0 0.0 0.0 
1.0 0.0 0.0 
1.0 0.0 0.0 
1.0 0.0 0.0 
1.0 0.0 0.0 
1.0 0.0 0.0 
1.0 0.0 0.0 
1.0 0.0 0.0 
1.0 0.0 0.0 
1.0 0.0 0.0 
1.0 0.0 0.0 
1.0 0.0 0.0 
1.0 0.0 0.0 
1.0 0.0 0.0 
1.0 0.0 0.0 
1.0 0.0 0.0 
1.0 0.0 0.0 
1.0 0.0 0.0 
1.0 0.0 0.0 
1.0 0.0 0.0 
1.0 0.0 0.0 
1.0 0.0 0.0 
1.0 0.0 0.0 
1.0 0.0 0.0 
1.0 0.0 0.0 
1.0 0.0 0.0 
1.0 0.0 0.0 
1.0 0.0 0.0 
1.0 0.0 0.0 
1.0 0.0 0.0 
1.0 0.0 0.0 
1.0 0.0 0.0 
1.0 0.0 0.0 
1.0 0.0 0.0 
1.0 0.0 0.0 
1.0 0.0 0.0 
1.0 0.0 0.0 
1.0 0.0 0.0 
1.0 0.0 0.0 
1.0 0.0 0.0 
1.0 0.0 0.0 
1.0 0.0 0.0 
1.0 0.0 0.0 
0.0 1.0 0.0 
0.0 1.0 0.0 
0.0 1.0 0.0 
0.0 1.0 0.0 
0.0 1.0 0.0 
0.0 1.0 0.0 
0.0 1.0 0.0 
0.0 1.0 0.0 
0.0 1.0 0.0 
0.0 1.0 0.0 
0.0 1.0 0.0 
0.0 1.0 0.0 
0.0 1.0 0.0 
0.0 1.0 0.0 
0.0 1.0 0.0 
0.0 1.0 0.0 
0.0 1.0 0.0 
0.0 1.0 0.0 
0.0 1.0 0.0 
0.0 1.0 0.0 
0.0 1.0 0.0 
0.0 1.0 0.0 
0.0 1.0 0.0 
0.0 1.0 0.0 
0.0 1.0 0.0 
0.0 1.0 0.0 
0.0 1.0 0.0 
0.0 1.0 0.0 
0.0 1.0 0.0 
0.0 1.0 0.0 
0.0 1.0 0.0 
0.0 1.0 0.0 
0.0 1.0 0.0 
0.0 1.0 0.0 
0.0 1.0 0.0 
0.0 1.0 0.0 
0.0 1.0 0.0 
0.0 1.0 0.0 
0.0 1.0 0.0 
0.0 1.0 0.0 
0.0 1.0 0.0 
0.0 1.0 0.0 
0.0 1.0 0.0 
0.0 1.0 0.0 
0.0 1.0 0.0 
0.0 1.0 0.0 
0.0 1.0 0.0 
0.0 1.0 0.0 
0.0 1.0 0.0 
0.0 1.0 0.0 
0.0 0.0 1.0 
0.0 0.0 1.0 
0.0 0.0 1.0 
0.0 0.0 1.0 
0.0 0.0 1.0 
0.0 0.0 1.0 
0.0 0.0 1.0 
0.0 0.0 1.0 
0.0 0.0 1.0 
0.0 0.0 1.0 
0.0 0.0 1.0 
0.0 0.0 1.0 
0.0 0.0 1.0 
0.0 0.0 1.0 
0.0 0.0 1.0 
0.0 0.0 1.0 
0.0 0.0 1.0 
0.0 0.0 1.0 
0.0 0.0 1.0 
0.0 0.0 1.0 
0.0 0.0 1.0 
0.0 0.0 1.0 
0.0 0.0 1.0 
0.0 0.0 1.0 
0.0 0.0 1.0 
0.0 0.0 1.0 
0.0 0.0 1.0 
0.0 0.0 1.0 
0.0 0.0 1.0 
0.0 0.0 1.0 
0.0 0.0 1.0 
0.0 0.0 1.0 
0.0 0.0 1.0 
0.0 0.0 1.0 
0.0 0.0 1.0 
0.0 0.0 1.0 
0.0 0.0 1.0 
0.0 0.0 1.0 
0.0 0.0 1.0 
0.0 0.0 1.0 
0.0 0.0 1.0 
0.0 0.0 1.0 
0.0 0.0 1.0 
0.0 0.0 1.0 
0.0 0.0 1.0 
0.0 0.0 1.0 
0.0 0.0 1.0 
0.0 0.0 1.0 
0.0 0.0 1.0 
0.0 0.0 1.0 
Learning : 0.20000000298023224
Momentum : 0.9
Epoch: 100, Error: 0.022813352884655847
Epoch: 200, Error: 0.01272451625566183
Epoch: 300, Error: 0.011961542559516892
Epoch: 400, Error: 0.012002041274219376
Epoch: 500, Error: 0.012252268829715165
Epoch: 600, Error: 0.011640074253073111
Epoch: 700, Error: 0.011950718891396551
Epoch: 800, Error: 0.011989026334585857
Epoch: 900, Error: 0.012650346767481127
Epoch: 1000, Error: 0.012247411481153802
Epoch: 1100, Error: 0.011616583252584536
Epoch: 1200, Error: 0.012707345418622727
Epoch: 1300, Error: 0.011981344686238469
Epoch: 1400, Error: 0.011672162269866053
Epoch: 1500, Error: 0.011573700483231605
Epoch: 1600, Error: 0.011664794917266038
Epoch: 1700, Error: 0.011925964488864854
Epoch: 1800, Error: 0.011639872846748663
Epoch: 1900, Error: 0.011517588027829134
Epoch: 2000, Error: 0.01180734987088399
Epoch: 2100, Error: 0.011605299674373312
Epoch: 2200, Error: 0.012448301571231394
Epoch: 2300, Error: 0.011690911539210666
Epoch: 2400, Error: 0.01135136339426875
Epoch: 2500, Error: 0.011390423706100307
Epoch: 2600, Error: 0.011240009685907491
Epoch: 2700, Error: 0.011097309564809489
Epoch: 2800, Error: 0.011143132462377917
Epoch: 2900, Error: 0.010878162300059122
Epoch: 3000, Error: 0.0107778762810439
Epoch: 3100, Error: 0.01080016164048103
Epoch: 3200, Error: 0.010478854347869623
Epoch: 3300, Error: 0.010521342633359217
Epoch: 3400, Error: 0.010048132242921056
Epoch: 3500, Error: 0.010260412026820223
Epoch: 3600, Error: 0.00947766870939337
Epoch: 3700, Error: 0.009088362876027895
Epoch: 3800, Error: 0.009205188554998588
Epoch: 3900, Error: 0.00836334558037202
Epoch: 4000, Error: 0.00794077360244308
Epoch: 4100, Error: 0.007545825814130517
Epoch: 4200, Error: 0.007277519117999533
Epoch: 4300, Error: 0.006875771920907737
Epoch: 4400, Error: 0.0066922853717800625
Epoch: 4500, Error: 0.00678596810617005
Epoch: 4600, Error: 0.00632462653791011
Epoch: 4700, Error: 0.006109991859409211
Epoch: 4800, Error: 0.005982101309777529
Epoch: 4900, Error: 0.006096719437587701
Epoch: 5000, Error: 0.00582970629680235
Epoch: 5100, Error: 0.005761549629828943
Epoch: 5200, Error: 0.005735485698699514
Epoch: 5300, Error: 0.00578354782905612
Epoch: 5400, Error: 0.005710525584293126
Epoch: 5500, Error: 0.005665625730551155
Epoch: 5600, Error: 0.005702209844441563
Epoch: 5700, Error: 0.005623984508606513
Epoch: 5800, Error: 0.005682696444214108
Epoch: 5900, Error: 0.005719592483119891
Epoch: 6000, Error: 0.005746061572871691
Epoch: 6100, Error: 0.0056626009645598975
Epoch: 6200, Error: 0.005577873800381907
Epoch: 6300, Error: 0.005594750506194912
Epoch: 6400, Error: 0.005540055095526487
Epoch: 6500, Error: 0.005547187998392248
Epoch: 6600, Error: 0.005608283723039693
Epoch: 6700, Error: 0.005547010195526796
Epoch: 6800, Error: 0.005512848635976733
Epoch: 6900, Error: 0.005528567299235957
Epoch: 7000, Error: 0.0055382327657377516
Epoch: 7100, Error: 0.005559013487732196
Epoch: 7200, Error: 0.005532539666266611
Epoch: 7300, Error: 0.005570483127735766
Epoch: 7400, Error: 0.005585918745312754
Epoch: 7500, Error: 0.005604781953900475
Epoch: 7600, Error: 0.0056463166147697665
Epoch: 7700, Error: 0.005591402185577215
Epoch: 7800, Error: 0.005615380436721584
Epoch: 7900, Error: 0.005628675862055167
Epoch: 8000, Error: 0.005669910117830343
Epoch: 8100, Error: 0.005644182343532373
Epoch: 8200, Error: 0.005682253774795922
Epoch: 8300, Error: 0.0057093504388174435
Epoch: 8400, Error: 0.005662951830745122
Epoch: 8500, Error: 0.00565618694265368
Epoch: 8600, Error: 0.0056999229541452815
Epoch: 8700, Error: 0.005648809299339998
Epoch: 8800, Error: 0.005651146577778066
Epoch: 8900, Error: 0.005648369217973992
Epoch: 9000, Error: 0.00568833987823029
Epoch: 9100, Error: 0.005669663371711785
Epoch: 9200, Error: 0.005669225246663372
Epoch: 9300, Error: 0.0057505909835508335
Epoch: 9400, Error: 0.00566487814411266
Epoch: 9500, Error: 0.0057213519388102955
Epoch: 9600, Error: 0.005723863815659957
Epoch: 9700, Error: 0.005726272683963745
Epoch: 9800, Error: 0.005730458276558205
Epoch: 9900, Error: 0.005736221518034869
Epoch: 10000, Error: 0.005721303223981711
Epoch: 10100, Error: 0.005726743150375814
Epoch: 10200, Error: 0.005717127668477481
Epoch: 10300, Error: 0.00570499193760274
Epoch: 10400, Error: 0.005706246462757201
finished
