Input Patterns
0.224 0.624 0.067 0.043 
0.11 0.502 0.051 0.043 
0.196 0.667 0.067 0.043 
0.055 0.584 0.067 0.082 
0.027 0.376 0.067 0.043 
0.306 0.71 0.086 0.043 
0.137 0.416 0.067 0.0 
0.416 0.831 0.035 0.043 
0.306 0.792 0.051 0.125 
0.388 0.749 0.118 0.082 
0.306 0.584 0.118 0.043 
0.082 0.667 0.0 0.043 
0.137 0.584 0.153 0.043 
0.196 0.584 0.102 0.125 
0.251 0.584 0.067 0.043 
0.137 0.459 0.102 0.043 
0.251 0.875 0.086 0.0 
0.165 0.459 0.086 0.043 
0.333 0.624 0.051 0.043 
0.027 0.416 0.051 0.043 
0.196 0.624 0.051 0.082 
0.027 0.502 0.051 0.043 
0.224 0.749 0.153 0.125 
0.224 0.749 0.102 0.043 
0.278 0.71 0.086 0.043 
0.165 0.416 0.067 0.043 
0.082 0.459 0.086 0.043 
0.306 0.792 0.118 0.125 
0.196 0.584 0.086 0.043 
0.165 0.459 0.086 0.0 
0.137 0.584 0.102 0.043 
0.0 0.416 0.016 0.0 
0.388 1.0 0.086 0.125 
0.224 0.624 0.067 0.082 
0.224 0.749 0.086 0.082 
0.224 0.71 0.086 0.125 
0.224 0.541 0.118 0.165 
0.196 0.416 0.102 0.043 
0.251 0.624 0.086 0.043 
0.11 0.502 0.102 0.043 
0.306 0.584 0.086 0.125 
0.333 0.918 0.067 0.043 
0.196 0.502 0.035 0.043 
0.165 0.667 0.067 0.0 
0.224 0.584 0.086 0.043 
0.055 0.125 0.051 0.082 
0.196 0.624 0.102 0.208 
0.137 0.416 0.067 0.082 
0.082 0.502 0.067 0.043 
0.196 0.541 0.067 0.043 
0.749 0.502 0.627 0.541 
0.722 0.459 0.663 0.584 
0.612 0.333 0.612 0.584 
0.557 0.541 0.627 0.624 
0.639 0.376 0.612 0.498 
0.196 0.0 0.424 0.376 
0.471 0.082 0.51 0.376 
0.361 0.376 0.439 0.498 
0.361 0.416 0.592 0.584 
0.529 0.082 0.592 0.584 
0.443 0.502 0.643 0.459 
0.557 0.208 0.663 0.584 
0.584 0.376 0.561 0.498 
0.694 0.333 0.643 0.541 
0.471 0.376 0.592 0.584 
0.333 0.169 0.475 0.416 
0.416 0.29 0.49 0.459 
0.306 0.416 0.592 0.584 
0.667 0.459 0.627 0.584 
0.361 0.416 0.525 0.498 
0.333 0.251 0.576 0.459 
0.416 0.251 0.51 0.459 
0.361 0.29 0.541 0.498 
0.388 0.376 0.541 0.498 
0.224 0.208 0.337 0.416 
0.584 0.502 0.592 0.584 
0.333 0.125 0.51 0.498 
0.388 0.333 0.592 0.498 
0.165 0.169 0.388 0.376 
0.251 0.29 0.49 0.541 
0.443 0.416 0.541 0.584 
0.498 0.376 0.627 0.541 
0.667 0.459 0.576 0.541 
0.416 0.29 0.525 0.376 
0.361 0.208 0.49 0.416 
0.498 0.333 0.51 0.498 
0.498 0.333 0.627 0.459 
0.639 0.416 0.576 0.541 
0.667 0.416 0.678 0.667 
0.388 0.251 0.424 0.376 
0.333 0.169 0.459 0.376 
0.471 0.29 0.694 0.624 
0.471 0.584 0.592 0.624 
0.557 0.125 0.576 0.498 
0.333 0.208 0.51 0.498 
0.498 0.416 0.612 0.541 
0.196 0.125 0.388 0.376 
0.388 0.416 0.541 0.459 
0.529 0.376 0.561 0.498 
0.388 0.333 0.525 0.498 
0.557 0.541 0.847 1.0 
0.776 0.416 0.831 0.831 
0.612 0.416 0.812 0.875 
0.165 0.208 0.592 0.667 
0.667 0.208 0.812 0.71 
0.612 0.502 0.694 0.792 
0.694 0.416 0.761 0.831 
0.416 0.333 0.694 0.957 
0.612 0.416 0.761 0.71 
0.945 0.251 1.0 0.918 
0.722 0.502 0.796 0.918 
0.945 0.333 0.965 0.792 
0.667 0.541 0.796 0.831 
0.529 0.333 0.643 0.71 
0.584 0.333 0.78 0.831 
0.863 0.333 0.863 0.749 
0.584 0.333 0.78 0.875 
0.498 0.251 0.78 0.541 
0.557 0.584 0.78 0.957 
0.471 0.416 0.643 0.71 
0.667 0.459 0.78 0.957 
0.416 0.29 0.694 0.749 
0.667 0.541 0.796 1.0 
0.557 0.208 0.678 0.749 
0.529 0.584 0.745 0.918 
0.416 0.29 0.694 0.749 
0.557 0.376 0.78 0.71 
0.918 0.416 0.949 0.831 
0.835 0.376 0.898 0.71 
0.804 0.667 0.863 1.0 
0.584 0.29 0.729 0.749 
0.388 0.208 0.678 0.792 
0.584 0.502 0.729 0.918 
0.945 0.749 0.965 0.875 
0.471 0.082 0.678 0.584 
0.361 0.333 0.663 0.792 
0.557 0.29 0.663 0.71 
0.804 0.502 0.847 0.71 
0.498 0.416 0.51 0.71 
0.804 0.416 0.812 0.624 
1.0 0.749 0.914 0.792 
0.557 0.333 0.694 0.584 
0.945 0.416 0.863 0.918 
0.584 0.459 0.761 0.71 
0.722 0.459 0.745 0.831 
0.722 0.459 0.694 0.918 
0.694 0.502 0.831 0.918 
0.667 0.416 0.714 0.918 
0.612 0.416 0.714 0.792 
0.443 0.416 0.694 0.71 
Teaching Patterns
1.0 0.0 0.0 
1.0 0.0 0.0 
1.0 0.0 0.0 
1.0 0.0 0.0 
1.0 0.0 0.0 
1.0 0.0 0.0 
1.0 0.0 0.0 
1.0 0.0 0.0 
1.0 0.0 0.0 
1.0 0.0 0.0 
1.0 0.0 0.0 
1.0 0.0 0.0 
1.0 0.0 0.0 
1.0 0.0 0.0 
1.0 0.0 0.0 
1.0 0.0 0.0 
1.0 0.0 0.0 
1.0 0.0 0.0 
1.0 0.0 0.0 
1.0 0.0 0.0 
1.0 0.0 0.0 
1.0 0.0 0.0 
1.0 0.0 0.0 
1.0 0.0 0.0 
1.0 0.0 0.0 
1.0 0.0 0.0 
1.0 0.0 0.0 
1.0 0.0 0.0 
1.0 0.0 0.0 
1.0 0.0 0.0 
1.0 0.0 0.0 
1.0 0.0 0.0 
1.0 0.0 0.0 
1.0 0.0 0.0 
1.0 0.0 0.0 
1.0 0.0 0.0 
1.0 0.0 0.0 
1.0 0.0 0.0 
1.0 0.0 0.0 
1.0 0.0 0.0 
1.0 0.0 0.0 
1.0 0.0 0.0 
1.0 0.0 0.0 
1.0 0.0 0.0 
1.0 0.0 0.0 
1.0 0.0 0.0 
1.0 0.0 0.0 
1.0 0.0 0.0 
1.0 0.0 0.0 
1.0 0.0 0.0 
0.0 1.0 0.0 
0.0 1.0 0.0 
0.0 1.0 0.0 
0.0 1.0 0.0 
0.0 1.0 0.0 
0.0 1.0 0.0 
0.0 1.0 0.0 
0.0 1.0 0.0 
0.0 1.0 0.0 
0.0 1.0 0.0 
0.0 1.0 0.0 
0.0 1.0 0.0 
0.0 1.0 0.0 
0.0 1.0 0.0 
0.0 1.0 0.0 
0.0 1.0 0.0 
0.0 1.0 0.0 
0.0 1.0 0.0 
0.0 1.0 0.0 
0.0 1.0 0.0 
0.0 1.0 0.0 
0.0 1.0 0.0 
0.0 1.0 0.0 
0.0 1.0 0.0 
0.0 1.0 0.0 
0.0 1.0 0.0 
0.0 1.0 0.0 
0.0 1.0 0.0 
0.0 1.0 0.0 
0.0 1.0 0.0 
0.0 1.0 0.0 
0.0 1.0 0.0 
0.0 1.0 0.0 
0.0 1.0 0.0 
0.0 1.0 0.0 
0.0 1.0 0.0 
0.0 1.0 0.0 
0.0 1.0 0.0 
0.0 1.0 0.0 
0.0 1.0 0.0 
0.0 1.0 0.0 
0.0 1.0 0.0 
0.0 1.0 0.0 
0.0 1.0 0.0 
0.0 1.0 0.0 
0.0 1.0 0.0 
0.0 1.0 0.0 
0.0 1.0 0.0 
0.0 1.0 0.0 
0.0 1.0 0.0 
0.0 0.0 1.0 
0.0 0.0 1.0 
0.0 0.0 1.0 
0.0 0.0 1.0 
0.0 0.0 1.0 
0.0 0.0 1.0 
0.0 0.0 1.0 
0.0 0.0 1.0 
0.0 0.0 1.0 
0.0 0.0 1.0 
0.0 0.0 1.0 
0.0 0.0 1.0 
0.0 0.0 1.0 
0.0 0.0 1.0 
0.0 0.0 1.0 
0.0 0.0 1.0 
0.0 0.0 1.0 
0.0 0.0 1.0 
0.0 0.0 1.0 
0.0 0.0 1.0 
0.0 0.0 1.0 
0.0 0.0 1.0 
0.0 0.0 1.0 
0.0 0.0 1.0 
0.0 0.0 1.0 
0.0 0.0 1.0 
0.0 0.0 1.0 
0.0 0.0 1.0 
0.0 0.0 1.0 
0.0 0.0 1.0 
0.0 0.0 1.0 
0.0 0.0 1.0 
0.0 0.0 1.0 
0.0 0.0 1.0 
0.0 0.0 1.0 
0.0 0.0 1.0 
0.0 0.0 1.0 
0.0 0.0 1.0 
0.0 0.0 1.0 
0.0 0.0 1.0 
0.0 0.0 1.0 
0.0 0.0 1.0 
0.0 0.0 1.0 
0.0 0.0 1.0 
0.0 0.0 1.0 
0.0 0.0 1.0 
0.0 0.0 1.0 
0.0 0.0 1.0 
0.0 0.0 1.0 
0.0 0.0 1.0 
Learning : 0.20000000298023224
Momentum : 0.9
Epoch: 100, Error: 0.014222177285937661
Epoch: 200, Error: 0.013366159796837545
Epoch: 300, Error: 0.012097377019364107
Epoch: 400, Error: 0.013954693183488496
Epoch: 500, Error: 0.011921879101417605
Epoch: 600, Error: 0.012137193790137446
Epoch: 700, Error: 0.012638514330167668
Epoch: 800, Error: 0.011702323375304267
Epoch: 900, Error: 0.011777602362355593
Epoch: 1000, Error: 0.011740790664887106
Epoch: 1100, Error: 0.011741239702747036
Epoch: 1200, Error: 0.01159613504256855
Epoch: 1300, Error: 0.01279046355380808
Epoch: 1400, Error: 0.011713604991373581
Epoch: 1500, Error: 0.011519180878997183
Epoch: 1600, Error: 0.012259794384013992
Epoch: 1700, Error: 0.011904375293078293
Epoch: 1800, Error: 0.011439539926890582
Epoch: 1900, Error: 0.011480199520155707
Epoch: 2000, Error: 0.011440826721311461
Epoch: 2100, Error: 0.011389394957764363
Epoch: 2200, Error: 0.011270350308525953
Epoch: 2300, Error: 0.011274639988992956
Epoch: 2400, Error: 0.011383734111699231
Epoch: 2500, Error: 0.012022237046513244
Epoch: 2600, Error: 0.011110139799062084
Epoch: 2700, Error: 0.01086459432665273
Epoch: 2800, Error: 0.010714562583147777
Epoch: 2900, Error: 0.010241328098644663
Epoch: 3000, Error: 0.010526063831988213
Epoch: 3100, Error: 0.009510158118302612
Epoch: 3200, Error: 0.0093686929489548
Epoch: 3300, Error: 0.008965349557373964
Epoch: 3400, Error: 0.00859286154028317
Epoch: 3500, Error: 0.008099656922314387
Epoch: 3600, Error: 0.007827344386195013
Epoch: 3700, Error: 0.007519349518314308
Epoch: 3800, Error: 0.007385624566422492
Epoch: 3900, Error: 0.0070654577434623575
Epoch: 4000, Error: 0.007508631465492482
Epoch: 4100, Error: 0.007343552247063664
Epoch: 4200, Error: 0.0065961027976219975
Epoch: 4300, Error: 0.00653723652194394
Epoch: 4400, Error: 0.006305546886057857
Epoch: 4500, Error: 0.006455955106088004
Epoch: 4600, Error: 0.006143784922166487
Epoch: 4700, Error: 0.006031629064718469
Epoch: 4800, Error: 0.005921401138581701
Epoch: 4900, Error: 0.005902645137279427
Epoch: 5000, Error: 0.005774753576005568
Epoch: 5100, Error: 0.0057464564923995366
Epoch: 5200, Error: 0.005732782010481882
Epoch: 5300, Error: 0.005791368195190925
Epoch: 5400, Error: 0.005674127922739073
Epoch: 5500, Error: 0.0057276612218976515
Epoch: 5600, Error: 0.005603692500969388
Epoch: 5700, Error: 0.005633285159966557
Epoch: 5800, Error: 0.005684164137273315
Epoch: 5900, Error: 0.005698055362514218
Epoch: 6000, Error: 0.00576061600344405
Epoch: 6100, Error: 0.005847600749601689
Epoch: 6200, Error: 0.005870640987286381
Epoch: 6300, Error: 0.005742273987228075
Epoch: 6400, Error: 0.005769378582084972
Epoch: 6500, Error: 0.00579307123571989
Epoch: 6600, Error: 0.005804706939528298
Epoch: 6700, Error: 0.005784913947817102
Epoch: 6800, Error: 0.005794182392667758
Epoch: 6900, Error: 0.005819161285545733
Epoch: 7000, Error: 0.0058387015355834525
Epoch: 7100, Error: 0.005785211518774108
Epoch: 7200, Error: 0.005805037552234992
Epoch: 7300, Error: 0.005768404933358905
Epoch: 7400, Error: 0.005777520068601113
Epoch: 7500, Error: 0.005781460156018197
Epoch: 7600, Error: 0.005790732322118225
Epoch: 7700, Error: 0.005736146039533791
Epoch: 7800, Error: 0.00583790747145393
Epoch: 7900, Error: 0.005801626252278819
Epoch: 8000, Error: 0.005757851713946926
Epoch: 8100, Error: 0.0058047958852657415
Epoch: 8200, Error: 0.0058209824209804785
Epoch: 8300, Error: 0.00574696942400614
Epoch: 8400, Error: 0.0058195415940359525
Epoch: 8500, Error: 0.005843224951219394
Epoch: 8600, Error: 0.005815800763949204
Epoch: 8700, Error: 0.005790733128094872
Epoch: 8800, Error: 0.00578867974877169
Epoch: 8900, Error: 0.005802890161699352
Epoch: 9000, Error: 0.005762290280431721
Epoch: 9100, Error: 0.005750514629915821
Epoch: 9200, Error: 0.0057489500533329085
finished
