Input Patterns
0.224 0.624 0.067 0.043 
0.11 0.502 0.051 0.043 
0.196 0.667 0.067 0.043 
0.055 0.584 0.067 0.082 
0.027 0.376 0.067 0.043 
0.306 0.71 0.086 0.043 
0.137 0.416 0.067 0.0 
0.416 0.831 0.035 0.043 
0.306 0.792 0.051 0.125 
0.388 0.749 0.118 0.082 
0.306 0.584 0.118 0.043 
0.082 0.667 0.0 0.043 
0.137 0.584 0.153 0.043 
0.196 0.584 0.102 0.125 
0.251 0.584 0.067 0.043 
0.137 0.459 0.102 0.043 
0.251 0.875 0.086 0.0 
0.165 0.459 0.086 0.043 
0.333 0.624 0.051 0.043 
0.027 0.416 0.051 0.043 
0.196 0.624 0.051 0.082 
0.027 0.502 0.051 0.043 
0.224 0.749 0.153 0.125 
0.224 0.749 0.102 0.043 
0.278 0.71 0.086 0.043 
0.165 0.416 0.067 0.043 
0.082 0.459 0.086 0.043 
0.306 0.792 0.118 0.125 
0.196 0.584 0.086 0.043 
0.165 0.459 0.086 0.0 
0.137 0.584 0.102 0.043 
0.0 0.416 0.016 0.0 
0.388 1.0 0.086 0.125 
0.224 0.624 0.067 0.082 
0.224 0.749 0.086 0.082 
0.224 0.71 0.086 0.125 
0.224 0.541 0.118 0.165 
0.196 0.416 0.102 0.043 
0.251 0.624 0.086 0.043 
0.11 0.502 0.102 0.043 
0.306 0.584 0.086 0.125 
0.333 0.918 0.067 0.043 
0.196 0.502 0.035 0.043 
0.165 0.667 0.067 0.0 
0.224 0.584 0.086 0.043 
0.055 0.125 0.051 0.082 
0.196 0.624 0.102 0.208 
0.137 0.416 0.067 0.082 
0.082 0.502 0.067 0.043 
0.196 0.541 0.067 0.043 
0.749 0.502 0.627 0.541 
0.722 0.459 0.663 0.584 
0.612 0.333 0.612 0.584 
0.557 0.541 0.627 0.624 
0.639 0.376 0.612 0.498 
0.196 0.0 0.424 0.376 
0.471 0.082 0.51 0.376 
0.361 0.376 0.439 0.498 
0.361 0.416 0.592 0.584 
0.529 0.082 0.592 0.584 
0.443 0.502 0.643 0.459 
0.557 0.208 0.663 0.584 
0.584 0.376 0.561 0.498 
0.694 0.333 0.643 0.541 
0.471 0.376 0.592 0.584 
0.333 0.169 0.475 0.416 
0.416 0.29 0.49 0.459 
0.306 0.416 0.592 0.584 
0.667 0.459 0.627 0.584 
0.361 0.416 0.525 0.498 
0.333 0.251 0.576 0.459 
0.416 0.251 0.51 0.459 
0.361 0.29 0.541 0.498 
0.388 0.376 0.541 0.498 
0.224 0.208 0.337 0.416 
0.584 0.502 0.592 0.584 
0.333 0.125 0.51 0.498 
0.388 0.333 0.592 0.498 
0.165 0.169 0.388 0.376 
0.251 0.29 0.49 0.541 
0.443 0.416 0.541 0.584 
0.498 0.376 0.627 0.541 
0.667 0.459 0.576 0.541 
0.416 0.29 0.525 0.376 
0.361 0.208 0.49 0.416 
0.498 0.333 0.51 0.498 
0.498 0.333 0.627 0.459 
0.639 0.416 0.576 0.541 
0.667 0.416 0.678 0.667 
0.388 0.251 0.424 0.376 
0.333 0.169 0.459 0.376 
0.471 0.29 0.694 0.624 
0.471 0.584 0.592 0.624 
0.557 0.125 0.576 0.498 
0.333 0.208 0.51 0.498 
0.498 0.416 0.612 0.541 
0.196 0.125 0.388 0.376 
0.388 0.416 0.541 0.459 
0.529 0.376 0.561 0.498 
0.388 0.333 0.525 0.498 
0.557 0.541 0.847 1.0 
0.776 0.416 0.831 0.831 
0.612 0.416 0.812 0.875 
0.165 0.208 0.592 0.667 
0.667 0.208 0.812 0.71 
0.612 0.502 0.694 0.792 
0.694 0.416 0.761 0.831 
0.416 0.333 0.694 0.957 
0.612 0.416 0.761 0.71 
0.945 0.251 1.0 0.918 
0.722 0.502 0.796 0.918 
0.945 0.333 0.965 0.792 
0.667 0.541 0.796 0.831 
0.529 0.333 0.643 0.71 
0.584 0.333 0.78 0.831 
0.863 0.333 0.863 0.749 
0.584 0.333 0.78 0.875 
0.498 0.251 0.78 0.541 
0.557 0.584 0.78 0.957 
0.471 0.416 0.643 0.71 
0.667 0.459 0.78 0.957 
0.416 0.29 0.694 0.749 
0.667 0.541 0.796 1.0 
0.557 0.208 0.678 0.749 
0.529 0.584 0.745 0.918 
0.416 0.29 0.694 0.749 
0.557 0.376 0.78 0.71 
0.918 0.416 0.949 0.831 
0.835 0.376 0.898 0.71 
0.804 0.667 0.863 1.0 
0.584 0.29 0.729 0.749 
0.388 0.208 0.678 0.792 
0.584 0.502 0.729 0.918 
0.945 0.749 0.965 0.875 
0.471 0.082 0.678 0.584 
0.361 0.333 0.663 0.792 
0.557 0.29 0.663 0.71 
0.804 0.502 0.847 0.71 
0.498 0.416 0.51 0.71 
0.804 0.416 0.812 0.624 
1.0 0.749 0.914 0.792 
0.557 0.333 0.694 0.584 
0.945 0.416 0.863 0.918 
0.584 0.459 0.761 0.71 
0.722 0.459 0.745 0.831 
0.722 0.459 0.694 0.918 
0.694 0.502 0.831 0.918 
0.667 0.416 0.714 0.918 
0.612 0.416 0.714 0.792 
0.443 0.416 0.694 0.71 
Teaching Patterns
1.0 0.0 0.0 
1.0 0.0 0.0 
1.0 0.0 0.0 
1.0 0.0 0.0 
1.0 0.0 0.0 
1.0 0.0 0.0 
1.0 0.0 0.0 
1.0 0.0 0.0 
1.0 0.0 0.0 
1.0 0.0 0.0 
1.0 0.0 0.0 
1.0 0.0 0.0 
1.0 0.0 0.0 
1.0 0.0 0.0 
1.0 0.0 0.0 
1.0 0.0 0.0 
1.0 0.0 0.0 
1.0 0.0 0.0 
1.0 0.0 0.0 
1.0 0.0 0.0 
1.0 0.0 0.0 
1.0 0.0 0.0 
1.0 0.0 0.0 
1.0 0.0 0.0 
1.0 0.0 0.0 
1.0 0.0 0.0 
1.0 0.0 0.0 
1.0 0.0 0.0 
1.0 0.0 0.0 
1.0 0.0 0.0 
1.0 0.0 0.0 
1.0 0.0 0.0 
1.0 0.0 0.0 
1.0 0.0 0.0 
1.0 0.0 0.0 
1.0 0.0 0.0 
1.0 0.0 0.0 
1.0 0.0 0.0 
1.0 0.0 0.0 
1.0 0.0 0.0 
1.0 0.0 0.0 
1.0 0.0 0.0 
1.0 0.0 0.0 
1.0 0.0 0.0 
1.0 0.0 0.0 
1.0 0.0 0.0 
1.0 0.0 0.0 
1.0 0.0 0.0 
1.0 0.0 0.0 
1.0 0.0 0.0 
0.0 1.0 0.0 
0.0 1.0 0.0 
0.0 1.0 0.0 
0.0 1.0 0.0 
0.0 1.0 0.0 
0.0 1.0 0.0 
0.0 1.0 0.0 
0.0 1.0 0.0 
0.0 1.0 0.0 
0.0 1.0 0.0 
0.0 1.0 0.0 
0.0 1.0 0.0 
0.0 1.0 0.0 
0.0 1.0 0.0 
0.0 1.0 0.0 
0.0 1.0 0.0 
0.0 1.0 0.0 
0.0 1.0 0.0 
0.0 1.0 0.0 
0.0 1.0 0.0 
0.0 1.0 0.0 
0.0 1.0 0.0 
0.0 1.0 0.0 
0.0 1.0 0.0 
0.0 1.0 0.0 
0.0 1.0 0.0 
0.0 1.0 0.0 
0.0 1.0 0.0 
0.0 1.0 0.0 
0.0 1.0 0.0 
0.0 1.0 0.0 
0.0 1.0 0.0 
0.0 1.0 0.0 
0.0 1.0 0.0 
0.0 1.0 0.0 
0.0 1.0 0.0 
0.0 1.0 0.0 
0.0 1.0 0.0 
0.0 1.0 0.0 
0.0 1.0 0.0 
0.0 1.0 0.0 
0.0 1.0 0.0 
0.0 1.0 0.0 
0.0 1.0 0.0 
0.0 1.0 0.0 
0.0 1.0 0.0 
0.0 1.0 0.0 
0.0 1.0 0.0 
0.0 1.0 0.0 
0.0 1.0 0.0 
0.0 0.0 1.0 
0.0 0.0 1.0 
0.0 0.0 1.0 
0.0 0.0 1.0 
0.0 0.0 1.0 
0.0 0.0 1.0 
0.0 0.0 1.0 
0.0 0.0 1.0 
0.0 0.0 1.0 
0.0 0.0 1.0 
0.0 0.0 1.0 
0.0 0.0 1.0 
0.0 0.0 1.0 
0.0 0.0 1.0 
0.0 0.0 1.0 
0.0 0.0 1.0 
0.0 0.0 1.0 
0.0 0.0 1.0 
0.0 0.0 1.0 
0.0 0.0 1.0 
0.0 0.0 1.0 
0.0 0.0 1.0 
0.0 0.0 1.0 
0.0 0.0 1.0 
0.0 0.0 1.0 
0.0 0.0 1.0 
0.0 0.0 1.0 
0.0 0.0 1.0 
0.0 0.0 1.0 
0.0 0.0 1.0 
0.0 0.0 1.0 
0.0 0.0 1.0 
0.0 0.0 1.0 
0.0 0.0 1.0 
0.0 0.0 1.0 
0.0 0.0 1.0 
0.0 0.0 1.0 
0.0 0.0 1.0 
0.0 0.0 1.0 
0.0 0.0 1.0 
0.0 0.0 1.0 
0.0 0.0 1.0 
0.0 0.0 1.0 
0.0 0.0 1.0 
0.0 0.0 1.0 
0.0 0.0 1.0 
0.0 0.0 1.0 
0.0 0.0 1.0 
0.0 0.0 1.0 
0.0 0.0 1.0 
Learning : 0.20000000298023224
Momentum : 0.9
Epoch: 100, Error: 0.014663184837256447
Epoch: 200, Error: 0.013180330749095498
Epoch: 300, Error: 0.013689609811629483
Epoch: 400, Error: 0.012751724812001602
Epoch: 500, Error: 0.013048867148800599
Epoch: 600, Error: 0.01255521870861433
Epoch: 700, Error: 0.012080700687181076
Epoch: 800, Error: 0.012479526149941075
Epoch: 900, Error: 0.012734904024642663
Epoch: 1000, Error: 0.013077371139907748
Epoch: 1100, Error: 0.013657253560062393
Epoch: 1200, Error: 0.012129926218519146
Epoch: 1300, Error: 0.01300305861401307
Epoch: 1400, Error: 0.011940174302707553
Epoch: 1500, Error: 0.012414574206394073
Epoch: 1600, Error: 0.011895518601190829
Epoch: 1700, Error: 0.01177665338606122
Epoch: 1800, Error: 0.011752097860722911
Epoch: 1900, Error: 0.012083025513034498
Epoch: 2000, Error: 0.011720848668014669
Epoch: 2100, Error: 0.011612413966063046
Epoch: 2200, Error: 0.011574202473648598
Epoch: 2300, Error: 0.011485519151919314
Epoch: 2400, Error: 0.012156762679999558
Epoch: 2500, Error: 0.011659658976086463
Epoch: 2600, Error: 0.011776295238422583
Epoch: 2700, Error: 0.01241266239627853
Epoch: 2800, Error: 0.01040067595426677
Epoch: 2900, Error: 0.010347590056887417
Epoch: 3000, Error: 0.009489665392896186
Epoch: 3100, Error: 0.008979774798504578
Epoch: 3200, Error: 0.008557133041831538
Epoch: 3300, Error: 0.00868172541877031
Epoch: 3400, Error: 0.009334753858416764
Epoch: 3500, Error: 0.00755865199255308
Epoch: 3600, Error: 0.007482772395287813
Epoch: 3700, Error: 0.007042718543651286
Epoch: 3800, Error: 0.0069251552548803665
Epoch: 3900, Error: 0.006714824686077466
Epoch: 4000, Error: 0.007511212317694568
Epoch: 4100, Error: 0.006614125782578246
Epoch: 4200, Error: 0.006531808726034992
Epoch: 4300, Error: 0.006498885485662364
Epoch: 4400, Error: 0.006299711817627674
Epoch: 4500, Error: 0.006117852172311081
Epoch: 4600, Error: 0.006621731085160263
Epoch: 4700, Error: 0.006843593471191134
Epoch: 4800, Error: 0.00604242414399426
Epoch: 4900, Error: 0.005970580088642687
Epoch: 5000, Error: 0.005973696192516438
Epoch: 5100, Error: 0.005882589123152966
Epoch: 5200, Error: 0.005881317165642914
Epoch: 5300, Error: 0.00583798407431727
Epoch: 5400, Error: 0.005829096417118272
Epoch: 5500, Error: 0.005764935088862973
Epoch: 5600, Error: 0.005862602127158967
Epoch: 5700, Error: 0.005778093550114135
Epoch: 5800, Error: 0.005765350878601602
Epoch: 5900, Error: 0.005705997641815192
Epoch: 6000, Error: 0.005703193809716015
Epoch: 6100, Error: 0.005682132991421032
Epoch: 6200, Error: 0.005792536325506878
Epoch: 6300, Error: 0.0056325430505305505
Epoch: 6400, Error: 0.005656288563868109
Epoch: 6500, Error: 0.00567223883775891
Epoch: 6600, Error: 0.005637623313266647
Epoch: 6700, Error: 0.005666612505835713
Epoch: 6800, Error: 0.005578033094022545
Epoch: 6900, Error: 0.0055728373996506925
Epoch: 7000, Error: 0.005534205666259708
Epoch: 7100, Error: 0.005537413714015978
Epoch: 7200, Error: 0.005535517917825987
Epoch: 7300, Error: 0.005484248859184205
Epoch: 7400, Error: 0.005472142047980769
Epoch: 7500, Error: 0.005541440568135473
Epoch: 7600, Error: 0.005462388515221327
Epoch: 7700, Error: 0.005395595832586886
Epoch: 7800, Error: 0.005449954208548475
Epoch: 7900, Error: 0.00543906271354006
Epoch: 8000, Error: 0.005490697294857819
Epoch: 8100, Error: 0.005331017665180833
Epoch: 8200, Error: 0.005305925451246631
Epoch: 8300, Error: 0.005312836323991647
Epoch: 8400, Error: 0.00533329028329319
Epoch: 8500, Error: 0.00528559955001871
Epoch: 8600, Error: 0.005266620051916537
Epoch: 8700, Error: 0.005190116629898632
Epoch: 8800, Error: 0.005146243393191037
Epoch: 8900, Error: 0.00505469378077172
Epoch: 9000, Error: 0.004993688644135652
Epoch: 9100, Error: 0.004970506961863311
Epoch: 9200, Error: 0.004944205086420909
Epoch: 9300, Error: 0.004887834696111171
Epoch: 9400, Error: 0.00484070721075995
Epoch: 9500, Error: 0.004740073805763144
Epoch: 9600, Error: 0.004647855233287836
Epoch: 9700, Error: 0.004666386872276899
Epoch: 9800, Error: 0.0045189722988096
Epoch: 9900, Error: 0.004493741319942986
Epoch: 10000, Error: 0.004504003833560579
Epoch: 10100, Error: 0.004405468462894438
Epoch: 10200, Error: 0.004401386237793217
Epoch: 10300, Error: 0.004502237015083027
Epoch: 10400, Error: 0.0045660088321243875
Epoch: 10500, Error: 0.0045663441105115304
Epoch: 10600, Error: 0.003998483919777965
Epoch: 10700, Error: 0.004106168070708895
Epoch: 10800, Error: 0.004013686445660726
Epoch: 10900, Error: 0.004187030776430766
Epoch: 11000, Error: 0.0037565887431698
Epoch: 11100, Error: 0.0036507355797943644
Epoch: 11200, Error: 0.004069468336655838
Epoch: 11300, Error: 0.003602295095212411
Epoch: 11400, Error: 0.003520551486722401
Epoch: 11500, Error: 0.0034999022405522947
Epoch: 11600, Error: 0.0035165944320285627
Epoch: 11700, Error: 0.003258964582743219
Epoch: 11800, Error: 0.00333622303631932
Epoch: 11900, Error: 0.00324618959061117
Epoch: 12000, Error: 0.0036253945063051815
Epoch: 12100, Error: 0.0034403862244194758
Epoch: 12200, Error: 0.0030872066991436326
Epoch: 12300, Error: 0.003290613293255854
Epoch: 12400, Error: 0.0033801169215374994
Epoch: 12500, Error: 0.003166485714080807
Epoch: 12600, Error: 0.0033577638987373733
Epoch: 12700, Error: 0.0034492510201394946
Epoch: 12800, Error: 0.0030821878134223695
Epoch: 12900, Error: 0.0032608350877616453
Epoch: 13000, Error: 0.003120999282376394
Epoch: 13100, Error: 0.003252271847555872
Epoch: 13200, Error: 0.003399675050497668
Epoch: 13300, Error: 0.0034569701983292573
Epoch: 13400, Error: 0.002526292300678933
Epoch: 13500, Error: 0.0031841672701922153
Epoch: 13600, Error: 0.0028347222637154093
Epoch: 13700, Error: 0.002822875131523856
Epoch: 13800, Error: 0.002455316763734829
Epoch: 13900, Error: 0.0025861217286523856
Epoch: 14000, Error: 0.0028148528970281216
Epoch: 14100, Error: 0.002417994946234748
Epoch: 14200, Error: 0.002665926180892361
Epoch: 14300, Error: 0.002672413269936921
Epoch: 14400, Error: 0.0022056524502152433
Epoch: 14500, Error: 0.0021353235092453284
Epoch: 14600, Error: 0.0021135711864860036
Epoch: 14700, Error: 0.002208241743751577
Epoch: 14800, Error: 0.0025510778590150194
Epoch: 14900, Error: 0.002518285513048946
Epoch: 15000, Error: 0.002417532663829609
Epoch: 15100, Error: 0.0022739336086861563
Epoch: 15200, Error: 0.002132472752763587
Epoch: 15300, Error: 0.001959439869544821
Epoch: 15400, Error: 0.0020869751997604716
Epoch: 15500, Error: 0.0019260487151129145
Epoch: 15600, Error: 0.001917286851826844
Epoch: 15700, Error: 0.0019297536377528815
Epoch: 15800, Error: 0.001982513844238864
Epoch: 15900, Error: 0.001932510333501065
Epoch: 16000, Error: 0.001989029482141432
Epoch: 16100, Error: 0.002019504945866836
Epoch: 16200, Error: 0.0018645793688328884
Epoch: 16300, Error: 0.0019072952425403919
Epoch: 16400, Error: 0.0020225436961485124
Epoch: 16500, Error: 0.0018823953736806208
Epoch: 16600, Error: 0.001950281319417307
Epoch: 16700, Error: 0.0019712035916336565
Epoch: 16800, Error: 0.0018831250971981604
Epoch: 16900, Error: 0.001860757276314098
Epoch: 17000, Error: 0.0018552853091986096
Epoch: 17100, Error: 0.001922405008589645
Epoch: 17200, Error: 0.002014551962499166
Epoch: 17300, Error: 0.0019075816891273565
Epoch: 17400, Error: 0.0019273772015458335
Epoch: 17500, Error: 0.0018460746145669794
Epoch: 17600, Error: 0.0018822462725335556
Epoch: 17700, Error: 0.0018262735569091163
Epoch: 17800, Error: 0.0019287513007371598
Epoch: 17900, Error: 0.001906999539136669
Epoch: 18000, Error: 0.001891120142851724
Epoch: 18100, Error: 0.001887014964750378
Epoch: 18200, Error: 0.0018376531970814836
Epoch: 18300, Error: 0.001756900237901956
Epoch: 18400, Error: 0.0018087787069816948
Epoch: 18500, Error: 0.0017608127631651353
Epoch: 18600, Error: 0.0018195750577433246
Epoch: 18700, Error: 0.0018618484263243026
Epoch: 18800, Error: 0.0018420899090382
Epoch: 18900, Error: 0.0018535893375042855
Epoch: 19000, Error: 0.0018727373868721211
Epoch: 19100, Error: 0.001829620944628305
Epoch: 19200, Error: 0.0022956073594888973
Epoch: 19300, Error: 0.001880405575717512
Epoch: 19400, Error: 0.0018216951957159126
Epoch: 19500, Error: 0.001826934511903431
Epoch: 19600, Error: 0.0017647088431055414
Epoch: 19700, Error: 0.0017624906405468376
Epoch: 19800, Error: 0.0017421712161101088
Epoch: 19900, Error: 0.0017181127219304576
Epoch: 20000, Error: 0.0017094642765167198
Epoch: 20100, Error: 0.001666621137698104
Epoch: 20200, Error: 0.0017051440642911141
Epoch: 20300, Error: 0.001642045922219961
Epoch: 20400, Error: 0.001668769153357731
Epoch: 20500, Error: 0.0016648389553483454
Epoch: 20600, Error: 0.001644733722327586
Epoch: 20700, Error: 0.0016616005481109575
Epoch: 20800, Error: 0.0016376062954835799
Epoch: 20900, Error: 0.001609998154209851
Epoch: 21000, Error: 0.0015792854107992127
Epoch: 21100, Error: 0.001556454352582217
Epoch: 21200, Error: 0.0015030130937674397
Epoch: 21300, Error: 0.001503130414677405
Epoch: 21400, Error: 0.0014728522109902333
Epoch: 21500, Error: 0.001462517357490888
Epoch: 21600, Error: 0.001467810785273843
Epoch: 21700, Error: 0.0014645853956912031
Epoch: 21800, Error: 0.001438986771556389
Epoch: 21900, Error: 0.0014159205690162052
Epoch: 22000, Error: 0.0014063467702097074
Epoch: 22100, Error: 0.0014298520448871054
Epoch: 22200, Error: 0.0014417008111527433
Epoch: 22300, Error: 0.0014150264173714148
Epoch: 22400, Error: 0.0014436964257418074
Epoch: 22500, Error: 0.0014017611064151203
Epoch: 22600, Error: 0.0013869407470967453
finished
