Input Patterns
0.224 0.624 0.067 0.043 
0.11 0.502 0.051 0.043 
0.196 0.667 0.067 0.043 
0.055 0.584 0.067 0.082 
0.027 0.376 0.067 0.043 
0.306 0.71 0.086 0.043 
0.137 0.416 0.067 0.0 
0.416 0.831 0.035 0.043 
0.306 0.792 0.051 0.125 
0.388 0.749 0.118 0.082 
0.306 0.584 0.118 0.043 
0.082 0.667 0.0 0.043 
0.137 0.584 0.153 0.043 
0.196 0.584 0.102 0.125 
0.251 0.584 0.067 0.043 
0.137 0.459 0.102 0.043 
0.251 0.875 0.086 0.0 
0.165 0.459 0.086 0.043 
0.333 0.624 0.051 0.043 
0.027 0.416 0.051 0.043 
0.196 0.624 0.051 0.082 
0.027 0.502 0.051 0.043 
0.224 0.749 0.153 0.125 
0.224 0.749 0.102 0.043 
0.278 0.71 0.086 0.043 
0.165 0.416 0.067 0.043 
0.082 0.459 0.086 0.043 
0.306 0.792 0.118 0.125 
0.196 0.584 0.086 0.043 
0.165 0.459 0.086 0.0 
0.137 0.584 0.102 0.043 
0.0 0.416 0.016 0.0 
0.388 1.0 0.086 0.125 
0.224 0.624 0.067 0.082 
0.224 0.749 0.086 0.082 
0.224 0.71 0.086 0.125 
0.224 0.541 0.118 0.165 
0.196 0.416 0.102 0.043 
0.251 0.624 0.086 0.043 
0.11 0.502 0.102 0.043 
0.306 0.584 0.086 0.125 
0.333 0.918 0.067 0.043 
0.196 0.502 0.035 0.043 
0.165 0.667 0.067 0.0 
0.224 0.584 0.086 0.043 
0.055 0.125 0.051 0.082 
0.196 0.624 0.102 0.208 
0.137 0.416 0.067 0.082 
0.082 0.502 0.067 0.043 
0.196 0.541 0.067 0.043 
0.749 0.502 0.627 0.541 
0.722 0.459 0.663 0.584 
0.612 0.333 0.612 0.584 
0.557 0.541 0.627 0.624 
0.639 0.376 0.612 0.498 
0.196 0.0 0.424 0.376 
0.471 0.082 0.51 0.376 
0.361 0.376 0.439 0.498 
0.361 0.416 0.592 0.584 
0.529 0.082 0.592 0.584 
0.443 0.502 0.643 0.459 
0.557 0.208 0.663 0.584 
0.584 0.376 0.561 0.498 
0.694 0.333 0.643 0.541 
0.471 0.376 0.592 0.584 
0.333 0.169 0.475 0.416 
0.416 0.29 0.49 0.459 
0.306 0.416 0.592 0.584 
0.667 0.459 0.627 0.584 
0.361 0.416 0.525 0.498 
0.333 0.251 0.576 0.459 
0.416 0.251 0.51 0.459 
0.361 0.29 0.541 0.498 
0.388 0.376 0.541 0.498 
0.224 0.208 0.337 0.416 
0.584 0.502 0.592 0.584 
0.333 0.125 0.51 0.498 
0.388 0.333 0.592 0.498 
0.165 0.169 0.388 0.376 
0.251 0.29 0.49 0.541 
0.443 0.416 0.541 0.584 
0.498 0.376 0.627 0.541 
0.667 0.459 0.576 0.541 
0.416 0.29 0.525 0.376 
0.361 0.208 0.49 0.416 
0.498 0.333 0.51 0.498 
0.498 0.333 0.627 0.459 
0.639 0.416 0.576 0.541 
0.667 0.416 0.678 0.667 
0.388 0.251 0.424 0.376 
0.333 0.169 0.459 0.376 
0.471 0.29 0.694 0.624 
0.471 0.584 0.592 0.624 
0.557 0.125 0.576 0.498 
0.333 0.208 0.51 0.498 
0.498 0.416 0.612 0.541 
0.196 0.125 0.388 0.376 
0.388 0.416 0.541 0.459 
0.529 0.376 0.561 0.498 
0.388 0.333 0.525 0.498 
0.557 0.541 0.847 1.0 
0.776 0.416 0.831 0.831 
0.612 0.416 0.812 0.875 
0.165 0.208 0.592 0.667 
0.667 0.208 0.812 0.71 
0.612 0.502 0.694 0.792 
0.694 0.416 0.761 0.831 
0.416 0.333 0.694 0.957 
0.612 0.416 0.761 0.71 
0.945 0.251 1.0 0.918 
0.722 0.502 0.796 0.918 
0.945 0.333 0.965 0.792 
0.667 0.541 0.796 0.831 
0.529 0.333 0.643 0.71 
0.584 0.333 0.78 0.831 
0.863 0.333 0.863 0.749 
0.584 0.333 0.78 0.875 
0.498 0.251 0.78 0.541 
0.557 0.584 0.78 0.957 
0.471 0.416 0.643 0.71 
0.667 0.459 0.78 0.957 
0.416 0.29 0.694 0.749 
0.667 0.541 0.796 1.0 
0.557 0.208 0.678 0.749 
0.529 0.584 0.745 0.918 
0.416 0.29 0.694 0.749 
0.557 0.376 0.78 0.71 
0.918 0.416 0.949 0.831 
0.835 0.376 0.898 0.71 
0.804 0.667 0.863 1.0 
0.584 0.29 0.729 0.749 
0.388 0.208 0.678 0.792 
0.584 0.502 0.729 0.918 
0.945 0.749 0.965 0.875 
0.471 0.082 0.678 0.584 
0.361 0.333 0.663 0.792 
0.557 0.29 0.663 0.71 
0.804 0.502 0.847 0.71 
0.498 0.416 0.51 0.71 
0.804 0.416 0.812 0.624 
1.0 0.749 0.914 0.792 
0.557 0.333 0.694 0.584 
0.945 0.416 0.863 0.918 
0.584 0.459 0.761 0.71 
0.722 0.459 0.745 0.831 
0.722 0.459 0.694 0.918 
0.694 0.502 0.831 0.918 
0.667 0.416 0.714 0.918 
0.612 0.416 0.714 0.792 
0.443 0.416 0.694 0.71 
Teaching Patterns
1.0 0.0 0.0 
1.0 0.0 0.0 
1.0 0.0 0.0 
1.0 0.0 0.0 
1.0 0.0 0.0 
1.0 0.0 0.0 
1.0 0.0 0.0 
1.0 0.0 0.0 
1.0 0.0 0.0 
1.0 0.0 0.0 
1.0 0.0 0.0 
1.0 0.0 0.0 
1.0 0.0 0.0 
1.0 0.0 0.0 
1.0 0.0 0.0 
1.0 0.0 0.0 
1.0 0.0 0.0 
1.0 0.0 0.0 
1.0 0.0 0.0 
1.0 0.0 0.0 
1.0 0.0 0.0 
1.0 0.0 0.0 
1.0 0.0 0.0 
1.0 0.0 0.0 
1.0 0.0 0.0 
1.0 0.0 0.0 
1.0 0.0 0.0 
1.0 0.0 0.0 
1.0 0.0 0.0 
1.0 0.0 0.0 
1.0 0.0 0.0 
1.0 0.0 0.0 
1.0 0.0 0.0 
1.0 0.0 0.0 
1.0 0.0 0.0 
1.0 0.0 0.0 
1.0 0.0 0.0 
1.0 0.0 0.0 
1.0 0.0 0.0 
1.0 0.0 0.0 
1.0 0.0 0.0 
1.0 0.0 0.0 
1.0 0.0 0.0 
1.0 0.0 0.0 
1.0 0.0 0.0 
1.0 0.0 0.0 
1.0 0.0 0.0 
1.0 0.0 0.0 
1.0 0.0 0.0 
1.0 0.0 0.0 
0.0 1.0 0.0 
0.0 1.0 0.0 
0.0 1.0 0.0 
0.0 1.0 0.0 
0.0 1.0 0.0 
0.0 1.0 0.0 
0.0 1.0 0.0 
0.0 1.0 0.0 
0.0 1.0 0.0 
0.0 1.0 0.0 
0.0 1.0 0.0 
0.0 1.0 0.0 
0.0 1.0 0.0 
0.0 1.0 0.0 
0.0 1.0 0.0 
0.0 1.0 0.0 
0.0 1.0 0.0 
0.0 1.0 0.0 
0.0 1.0 0.0 
0.0 1.0 0.0 
0.0 1.0 0.0 
0.0 1.0 0.0 
0.0 1.0 0.0 
0.0 1.0 0.0 
0.0 1.0 0.0 
0.0 1.0 0.0 
0.0 1.0 0.0 
0.0 1.0 0.0 
0.0 1.0 0.0 
0.0 1.0 0.0 
0.0 1.0 0.0 
0.0 1.0 0.0 
0.0 1.0 0.0 
0.0 1.0 0.0 
0.0 1.0 0.0 
0.0 1.0 0.0 
0.0 1.0 0.0 
0.0 1.0 0.0 
0.0 1.0 0.0 
0.0 1.0 0.0 
0.0 1.0 0.0 
0.0 1.0 0.0 
0.0 1.0 0.0 
0.0 1.0 0.0 
0.0 1.0 0.0 
0.0 1.0 0.0 
0.0 1.0 0.0 
0.0 1.0 0.0 
0.0 1.0 0.0 
0.0 1.0 0.0 
0.0 0.0 1.0 
0.0 0.0 1.0 
0.0 0.0 1.0 
0.0 0.0 1.0 
0.0 0.0 1.0 
0.0 0.0 1.0 
0.0 0.0 1.0 
0.0 0.0 1.0 
0.0 0.0 1.0 
0.0 0.0 1.0 
0.0 0.0 1.0 
0.0 0.0 1.0 
0.0 0.0 1.0 
0.0 0.0 1.0 
0.0 0.0 1.0 
0.0 0.0 1.0 
0.0 0.0 1.0 
0.0 0.0 1.0 
0.0 0.0 1.0 
0.0 0.0 1.0 
0.0 0.0 1.0 
0.0 0.0 1.0 
0.0 0.0 1.0 
0.0 0.0 1.0 
0.0 0.0 1.0 
0.0 0.0 1.0 
0.0 0.0 1.0 
0.0 0.0 1.0 
0.0 0.0 1.0 
0.0 0.0 1.0 
0.0 0.0 1.0 
0.0 0.0 1.0 
0.0 0.0 1.0 
0.0 0.0 1.0 
0.0 0.0 1.0 
0.0 0.0 1.0 
0.0 0.0 1.0 
0.0 0.0 1.0 
0.0 0.0 1.0 
0.0 0.0 1.0 
0.0 0.0 1.0 
0.0 0.0 1.0 
0.0 0.0 1.0 
0.0 0.0 1.0 
0.0 0.0 1.0 
0.0 0.0 1.0 
0.0 0.0 1.0 
0.0 0.0 1.0 
0.0 0.0 1.0 
0.0 0.0 1.0 
Learning : 0.20000000298023224
Momentum : 0.9
Epoch: 100, Error: 0.017636317900658956
Epoch: 200, Error: 0.018240172542270137
Epoch: 300, Error: 0.012626261752081265
Epoch: 400, Error: 0.01247378997392128
Epoch: 500, Error: 0.012335128754567017
Epoch: 600, Error: 0.012373574472125589
Epoch: 700, Error: 0.012413160334897777
Epoch: 800, Error: 0.012164264702086956
Epoch: 900, Error: 0.012364036665166875
Epoch: 1000, Error: 0.012411888164649366
Epoch: 1100, Error: 0.012249583248981894
Epoch: 1200, Error: 0.012831252877711372
Epoch: 1300, Error: 0.013761034687168985
Epoch: 1400, Error: 0.011909322659186131
Epoch: 1500, Error: 0.012124073285528777
Epoch: 1600, Error: 0.013417456393271321
Epoch: 1700, Error: 0.012114981838112677
Epoch: 1800, Error: 0.012095500772883773
Epoch: 1900, Error: 0.011793388796441125
Epoch: 2000, Error: 0.01193908609851814
Epoch: 2100, Error: 0.011734723858852391
Epoch: 2200, Error: 0.011793355007740636
Epoch: 2300, Error: 0.011678900627321685
Epoch: 2400, Error: 0.011781815915528786
Epoch: 2500, Error: 0.011767207188361165
Epoch: 2600, Error: 0.011712226404927485
Epoch: 2700, Error: 0.011465701973610775
Epoch: 2800, Error: 0.011432072005170164
Epoch: 2900, Error: 0.011993376729455156
Epoch: 3000, Error: 0.011432217520222398
Epoch: 3100, Error: 0.011320009782976878
Epoch: 3200, Error: 0.011344782628033753
Epoch: 3300, Error: 0.01114655029175386
Epoch: 3400, Error: 0.010737776643035322
Epoch: 3500, Error: 0.010952961512385792
Epoch: 3600, Error: 0.010888084750447566
Epoch: 3700, Error: 0.010534716115275138
Epoch: 3800, Error: 0.01029645691575362
Epoch: 3900, Error: 0.010256470774739616
Epoch: 4000, Error: 0.009867641259058986
Epoch: 4100, Error: 0.009837198296232592
Epoch: 4200, Error: 0.009577111944848704
Epoch: 4300, Error: 0.009813002882491043
Epoch: 4400, Error: 0.009378622848146749
Epoch: 4500, Error: 0.009068352639830081
Epoch: 4600, Error: 0.008770524996949823
Epoch: 4700, Error: 0.01000096182055936
Epoch: 4800, Error: 0.008306067662691109
Epoch: 4900, Error: 0.008089460590116185
Epoch: 5000, Error: 0.007796198862489931
Epoch: 5100, Error: 0.007769390290445646
Epoch: 5200, Error: 0.007271521634786047
Epoch: 5300, Error: 0.00727653400904808
Epoch: 5400, Error: 0.008103424133158076
Epoch: 5500, Error: 0.006711091772382506
Epoch: 5600, Error: 0.0065444342065905745
Epoch: 5700, Error: 0.006528365539345047
Epoch: 5800, Error: 0.006238902214092142
Epoch: 5900, Error: 0.006271325895458458
Epoch: 6000, Error: 0.005953103651526217
Epoch: 6100, Error: 0.006025666411591644
Epoch: 6200, Error: 0.005775135661419856
Epoch: 6300, Error: 0.005772384345835887
Epoch: 6400, Error: 0.005770766655259771
Epoch: 6500, Error: 0.00561719992184062
Epoch: 6600, Error: 0.005573336295315594
Epoch: 6700, Error: 0.005548376351742944
Epoch: 6800, Error: 0.005584953792813831
Epoch: 6900, Error: 0.005543190400521281
Epoch: 7000, Error: 0.005488084723769098
Epoch: 7100, Error: 0.005607806523198648
Epoch: 7200, Error: 0.005493281665109779
Epoch: 7300, Error: 0.005517715949252429
Epoch: 7400, Error: 0.005587023385095436
Epoch: 7500, Error: 0.005533747520564191
Epoch: 7600, Error: 0.00552770315382196
Epoch: 7700, Error: 0.0056113092489355615
Epoch: 7800, Error: 0.005585261914583054
Epoch: 7900, Error: 0.005580577953854352
Epoch: 8000, Error: 0.005544787267076254
Epoch: 8100, Error: 0.005653547057266253
Epoch: 8200, Error: 0.0055912982314241105
Epoch: 8300, Error: 0.005641046099535786
Epoch: 8400, Error: 0.005608092555012624
Epoch: 8500, Error: 0.005619276996239421
Epoch: 8600, Error: 0.005669002684841042
Epoch: 8700, Error: 0.005607993351564125
Epoch: 8800, Error: 0.005623749787446801
Epoch: 8900, Error: 0.005602032507137139
Epoch: 9000, Error: 0.005578050003969297
Epoch: 9100, Error: 0.005607696377650919
Epoch: 9200, Error: 0.005597384959147004
Epoch: 9300, Error: 0.005533212268759333
Epoch: 9400, Error: 0.005553168147066188
Epoch: 9500, Error: 0.005556490287635687
Epoch: 9600, Error: 0.005532588150421561
Epoch: 9700, Error: 0.005566470264237724
Epoch: 9800, Error: 0.005519674140909888
finished
