Epoch: 9200, Error: 0.0057489500533329085
Epoch: 10400, Error: 0.005706246462757201
Epoch: 9700, Error: 0.006126592294440221
Epoch: 22600, Error: 0.0013869407470967453
Epoch: 11700, Error: 0.005034395612756164
Epoch: 9800, Error: 0.005519674140909888
Epoch: 22600, Error: 0.0013544960751298981
Epoch: 8300, Error: 0.005631760500679196
Epoch: 26100, Error: 0.0010799087290811337
Epoch: 9200, Error: 0.005212413487285099
