Input Patterns
0.224 0.624 0.067 0.043 
0.11 0.502 0.051 0.043 
0.196 0.667 0.067 0.043 
0.055 0.584 0.067 0.082 
0.027 0.376 0.067 0.043 
0.306 0.71 0.086 0.043 
0.137 0.416 0.067 0.0 
0.416 0.831 0.035 0.043 
0.306 0.792 0.051 0.125 
0.388 0.749 0.118 0.082 
0.306 0.584 0.118 0.043 
0.082 0.667 0.0 0.043 
0.137 0.584 0.153 0.043 
0.196 0.584 0.102 0.125 
0.251 0.584 0.067 0.043 
0.137 0.459 0.102 0.043 
0.251 0.875 0.086 0.0 
0.165 0.459 0.086 0.043 
0.333 0.624 0.051 0.043 
0.027 0.416 0.051 0.043 
0.196 0.624 0.051 0.082 
0.027 0.502 0.051 0.043 
0.224 0.749 0.153 0.125 
0.224 0.749 0.102 0.043 
0.278 0.71 0.086 0.043 
0.165 0.416 0.067 0.043 
0.082 0.459 0.086 0.043 
0.306 0.792 0.118 0.125 
0.196 0.584 0.086 0.043 
0.165 0.459 0.086 0.0 
0.137 0.584 0.102 0.043 
0.0 0.416 0.016 0.0 
0.388 1.0 0.086 0.125 
0.224 0.624 0.067 0.082 
0.224 0.749 0.086 0.082 
0.224 0.71 0.086 0.125 
0.224 0.541 0.118 0.165 
0.196 0.416 0.102 0.043 
0.251 0.624 0.086 0.043 
0.11 0.502 0.102 0.043 
0.306 0.584 0.086 0.125 
0.333 0.918 0.067 0.043 
0.196 0.502 0.035 0.043 
0.165 0.667 0.067 0.0 
0.224 0.584 0.086 0.043 
0.055 0.125 0.051 0.082 
0.196 0.624 0.102 0.208 
0.137 0.416 0.067 0.082 
0.082 0.502 0.067 0.043 
0.196 0.541 0.067 0.043 
0.749 0.502 0.627 0.541 
0.722 0.459 0.663 0.584 
0.612 0.333 0.612 0.584 
0.557 0.541 0.627 0.624 
0.639 0.376 0.612 0.498 
0.196 0.0 0.424 0.376 
0.471 0.082 0.51 0.376 
0.361 0.376 0.439 0.498 
0.361 0.416 0.592 0.584 
0.529 0.082 0.592 0.584 
0.443 0.502 0.643 0.459 
0.557 0.208 0.663 0.584 
0.584 0.376 0.561 0.498 
0.694 0.333 0.643 0.541 
0.471 0.376 0.592 0.584 
0.333 0.169 0.475 0.416 
0.416 0.29 0.49 0.459 
0.306 0.416 0.592 0.584 
0.667 0.459 0.627 0.584 
0.361 0.416 0.525 0.498 
0.333 0.251 0.576 0.459 
0.416 0.251 0.51 0.459 
0.361 0.29 0.541 0.498 
0.388 0.376 0.541 0.498 
0.224 0.208 0.337 0.416 
0.584 0.502 0.592 0.584 
0.333 0.125 0.51 0.498 
0.388 0.333 0.592 0.498 
0.165 0.169 0.388 0.376 
0.251 0.29 0.49 0.541 
0.443 0.416 0.541 0.584 
0.498 0.376 0.627 0.541 
0.667 0.459 0.576 0.541 
0.416 0.29 0.525 0.376 
0.361 0.208 0.49 0.416 
0.498 0.333 0.51 0.498 
0.498 0.333 0.627 0.459 
0.639 0.416 0.576 0.541 
0.667 0.416 0.678 0.667 
0.388 0.251 0.424 0.376 
0.333 0.169 0.459 0.376 
0.471 0.29 0.694 0.624 
0.471 0.584 0.592 0.624 
0.557 0.125 0.576 0.498 
0.333 0.208 0.51 0.498 
0.498 0.416 0.612 0.541 
0.196 0.125 0.388 0.376 
0.388 0.416 0.541 0.459 
0.529 0.376 0.561 0.498 
0.388 0.333 0.525 0.498 
0.557 0.541 0.847 1.0 
0.776 0.416 0.831 0.831 
0.612 0.416 0.812 0.875 
0.165 0.208 0.592 0.667 
0.667 0.208 0.812 0.71 
0.612 0.502 0.694 0.792 
0.694 0.416 0.761 0.831 
0.416 0.333 0.694 0.957 
0.612 0.416 0.761 0.71 
0.945 0.251 1.0 0.918 
0.722 0.502 0.796 0.918 
0.945 0.333 0.965 0.792 
0.667 0.541 0.796 0.831 
0.529 0.333 0.643 0.71 
0.584 0.333 0.78 0.831 
0.863 0.333 0.863 0.749 
0.584 0.333 0.78 0.875 
0.498 0.251 0.78 0.541 
0.557 0.584 0.78 0.957 
0.471 0.416 0.643 0.71 
0.667 0.459 0.78 0.957 
0.416 0.29 0.694 0.749 
0.667 0.541 0.796 1.0 
0.557 0.208 0.678 0.749 
0.529 0.584 0.745 0.918 
0.416 0.29 0.694 0.749 
0.557 0.376 0.78 0.71 
0.918 0.416 0.949 0.831 
0.835 0.376 0.898 0.71 
0.804 0.667 0.863 1.0 
0.584 0.29 0.729 0.749 
0.388 0.208 0.678 0.792 
0.584 0.502 0.729 0.918 
0.945 0.749 0.965 0.875 
0.471 0.082 0.678 0.584 
0.361 0.333 0.663 0.792 
0.557 0.29 0.663 0.71 
0.804 0.502 0.847 0.71 
0.498 0.416 0.51 0.71 
0.804 0.416 0.812 0.624 
1.0 0.749 0.914 0.792 
0.557 0.333 0.694 0.584 
0.945 0.416 0.863 0.918 
0.584 0.459 0.761 0.71 
0.722 0.459 0.745 0.831 
0.722 0.459 0.694 0.918 
0.694 0.502 0.831 0.918 
0.667 0.416 0.714 0.918 
0.612 0.416 0.714 0.792 
0.443 0.416 0.694 0.71 
Teaching Patterns
1.0 0.0 0.0 
1.0 0.0 0.0 
1.0 0.0 0.0 
1.0 0.0 0.0 
1.0 0.0 0.0 
1.0 0.0 0.0 
1.0 0.0 0.0 
1.0 0.0 0.0 
1.0 0.0 0.0 
1.0 0.0 0.0 
1.0 0.0 0.0 
1.0 0.0 0.0 
1.0 0.0 0.0 
1.0 0.0 0.0 
1.0 0.0 0.0 
1.0 0.0 0.0 
1.0 0.0 0.0 
1.0 0.0 0.0 
1.0 0.0 0.0 
1.0 0.0 0.0 
1.0 0.0 0.0 
1.0 0.0 0.0 
1.0 0.0 0.0 
1.0 0.0 0.0 
1.0 0.0 0.0 
1.0 0.0 0.0 
1.0 0.0 0.0 
1.0 0.0 0.0 
1.0 0.0 0.0 
1.0 0.0 0.0 
1.0 0.0 0.0 
1.0 0.0 0.0 
1.0 0.0 0.0 
1.0 0.0 0.0 
1.0 0.0 0.0 
1.0 0.0 0.0 
1.0 0.0 0.0 
1.0 0.0 0.0 
1.0 0.0 0.0 
1.0 0.0 0.0 
1.0 0.0 0.0 
1.0 0.0 0.0 
1.0 0.0 0.0 
1.0 0.0 0.0 
1.0 0.0 0.0 
1.0 0.0 0.0 
1.0 0.0 0.0 
1.0 0.0 0.0 
1.0 0.0 0.0 
1.0 0.0 0.0 
0.0 1.0 0.0 
0.0 1.0 0.0 
0.0 1.0 0.0 
0.0 1.0 0.0 
0.0 1.0 0.0 
0.0 1.0 0.0 
0.0 1.0 0.0 
0.0 1.0 0.0 
0.0 1.0 0.0 
0.0 1.0 0.0 
0.0 1.0 0.0 
0.0 1.0 0.0 
0.0 1.0 0.0 
0.0 1.0 0.0 
0.0 1.0 0.0 
0.0 1.0 0.0 
0.0 1.0 0.0 
0.0 1.0 0.0 
0.0 1.0 0.0 
0.0 1.0 0.0 
0.0 1.0 0.0 
0.0 1.0 0.0 
0.0 1.0 0.0 
0.0 1.0 0.0 
0.0 1.0 0.0 
0.0 1.0 0.0 
0.0 1.0 0.0 
0.0 1.0 0.0 
0.0 1.0 0.0 
0.0 1.0 0.0 
0.0 1.0 0.0 
0.0 1.0 0.0 
0.0 1.0 0.0 
0.0 1.0 0.0 
0.0 1.0 0.0 
0.0 1.0 0.0 
0.0 1.0 0.0 
0.0 1.0 0.0 
0.0 1.0 0.0 
0.0 1.0 0.0 
0.0 1.0 0.0 
0.0 1.0 0.0 
0.0 1.0 0.0 
0.0 1.0 0.0 
0.0 1.0 0.0 
0.0 1.0 0.0 
0.0 1.0 0.0 
0.0 1.0 0.0 
0.0 1.0 0.0 
0.0 1.0 0.0 
0.0 0.0 1.0 
0.0 0.0 1.0 
0.0 0.0 1.0 
0.0 0.0 1.0 
0.0 0.0 1.0 
0.0 0.0 1.0 
0.0 0.0 1.0 
0.0 0.0 1.0 
0.0 0.0 1.0 
0.0 0.0 1.0 
0.0 0.0 1.0 
0.0 0.0 1.0 
0.0 0.0 1.0 
0.0 0.0 1.0 
0.0 0.0 1.0 
0.0 0.0 1.0 
0.0 0.0 1.0 
0.0 0.0 1.0 
0.0 0.0 1.0 
0.0 0.0 1.0 
0.0 0.0 1.0 
0.0 0.0 1.0 
0.0 0.0 1.0 
0.0 0.0 1.0 
0.0 0.0 1.0 
0.0 0.0 1.0 
0.0 0.0 1.0 
0.0 0.0 1.0 
0.0 0.0 1.0 
0.0 0.0 1.0 
0.0 0.0 1.0 
0.0 0.0 1.0 
0.0 0.0 1.0 
0.0 0.0 1.0 
0.0 0.0 1.0 
0.0 0.0 1.0 
0.0 0.0 1.0 
0.0 0.0 1.0 
0.0 0.0 1.0 
0.0 0.0 1.0 
0.0 0.0 1.0 
0.0 0.0 1.0 
0.0 0.0 1.0 
0.0 0.0 1.0 
0.0 0.0 1.0 
0.0 0.0 1.0 
0.0 0.0 1.0 
0.0 0.0 1.0 
0.0 0.0 1.0 
0.0 0.0 1.0 
Learning : 0.3499999940395355
Momentum : 0.9
Epoch: 100, Error: 0.013550676771074197
Epoch: 200, Error: 0.012786165298815684
Epoch: 300, Error: 0.012257429006241192
Epoch: 400, Error: 0.013371327714218057
Epoch: 500, Error: 0.012369370300232926
Epoch: 600, Error: 0.013357034017256023
Epoch: 700, Error: 0.011968902209780658
Epoch: 800, Error: 0.013875532151242556
Epoch: 900, Error: 0.011805459733928493
Epoch: 1000, Error: 0.014066278542241776
Epoch: 1100, Error: 0.012110033750163118
Epoch: 1200, Error: 0.012495310908246592
Epoch: 1300, Error: 0.013409035002264624
Epoch: 1400, Error: 0.011857339807793762
Epoch: 1500, Error: 0.012182561647285624
Epoch: 1600, Error: 0.01193635700555506
Epoch: 1700, Error: 0.011799931645570961
Epoch: 1800, Error: 0.011844511296553666
Epoch: 1900, Error: 0.011760339589219385
Epoch: 2000, Error: 0.012329749900533534
Epoch: 2100, Error: 0.01177628791357611
Epoch: 2200, Error: 0.016663310841773266
Epoch: 2300, Error: 0.011601988610058489
Epoch: 2400, Error: 0.011557810713935739
Epoch: 2500, Error: 0.01141897395204562
Epoch: 2600, Error: 0.011449023392980755
Epoch: 2700, Error: 0.011223375872588951
Epoch: 2800, Error: 0.011097369410607225
Epoch: 2900, Error: 0.010773444160538515
Epoch: 3000, Error: 0.010356274922862691
Epoch: 3100, Error: 0.010350901149166173
Epoch: 3200, Error: 0.009762401073021877
Epoch: 3300, Error: 0.009567574706654687
Epoch: 3400, Error: 0.009565463413767475
Epoch: 3500, Error: 0.008979525529876915
Epoch: 3600, Error: 0.008910847152552148
Epoch: 3700, Error: 0.008696082049416305
Epoch: 3800, Error: 0.008496399040423042
Epoch: 3900, Error: 0.00879814499167639
Epoch: 4000, Error: 0.008863135001151582
Epoch: 4100, Error: 0.008661857125287338
Epoch: 4200, Error: 0.008279699466750196
Epoch: 4300, Error: 0.00793822656260817
Epoch: 4400, Error: 0.007945034931710988
Epoch: 4500, Error: 0.007626205976831697
Epoch: 4600, Error: 0.007854271132294055
Epoch: 4700, Error: 0.007599633191055658
Epoch: 4800, Error: 0.007500506205500175
Epoch: 4900, Error: 0.007529285661371846
Epoch: 5000, Error: 0.008256156775627247
Epoch: 5100, Error: 0.007299347250209955
Epoch: 5200, Error: 0.007562038051238723
Epoch: 5300, Error: 0.007589331811309909
Epoch: 5400, Error: 0.00785142281330842
Epoch: 5500, Error: 0.006904748000701614
Epoch: 5600, Error: 0.007320500508224072
Epoch: 5700, Error: 0.006721312021320559
Epoch: 5800, Error: 0.00682099257540758
Epoch: 5900, Error: 0.006901293759079561
Epoch: 6000, Error: 0.006362954375232614
Epoch: 6100, Error: 0.007048018714310581
Epoch: 6200, Error: 0.006227312578827112
Epoch: 6300, Error: 0.006111075534018986
Epoch: 6400, Error: 0.006081996104102464
Epoch: 6500, Error: 0.006107345051197658
Epoch: 6600, Error: 0.006042884930680451
Epoch: 6700, Error: 0.005854330970136888
Epoch: 6800, Error: 0.005709806998987885
Epoch: 6900, Error: 0.005670148384541206
Epoch: 7000, Error: 0.005680789374681802
Epoch: 7100, Error: 0.005655600704776211
Epoch: 7200, Error: 0.005654612311308677
Epoch: 7300, Error: 0.005479377427967393
Epoch: 7400, Error: 0.00547084862627164
Epoch: 7500, Error: 0.005461002264133344
Epoch: 7600, Error: 0.005413443641284485
Epoch: 7700, Error: 0.005384935923963816
Epoch: 7800, Error: 0.005370039425391541
Epoch: 7900, Error: 0.005365734796593657
Epoch: 8000, Error: 0.005342486749567263
Epoch: 8100, Error: 0.00532951135589239
Epoch: 8200, Error: 0.005318250172943079
Epoch: 8300, Error: 0.005314910739920829
Epoch: 8400, Error: 0.005309673081182885
Epoch: 8500, Error: 0.005284944724387635
Epoch: 8600, Error: 0.005293218821167881
Epoch: 8700, Error: 0.005255496135567329
Epoch: 8800, Error: 0.005253255998251472
Epoch: 8900, Error: 0.005230546526974081
Epoch: 9000, Error: 0.005217757352559516
Epoch: 9100, Error: 0.005202618902317547
Epoch: 9200, Error: 0.0051970188510235505
Epoch: 9300, Error: 0.005188828250906061
Epoch: 9400, Error: 0.005187836421252314
Epoch: 9500, Error: 0.005178612856758975
Epoch: 9600, Error: 0.005161701290394359
Epoch: 9700, Error: 0.005159160006662748
Finished
