Input Patterns
0.224 0.624 0.067 0.043 
0.11 0.502 0.051 0.043 
0.196 0.667 0.067 0.043 
0.055 0.584 0.067 0.082 
0.027 0.376 0.067 0.043 
0.306 0.71 0.086 0.043 
0.137 0.416 0.067 0.0 
0.416 0.831 0.035 0.043 
0.306 0.792 0.051 0.125 
0.388 0.749 0.118 0.082 
0.306 0.584 0.118 0.043 
0.082 0.667 0.0 0.043 
0.137 0.584 0.153 0.043 
0.196 0.584 0.102 0.125 
0.251 0.584 0.067 0.043 
0.137 0.459 0.102 0.043 
0.251 0.875 0.086 0.0 
0.165 0.459 0.086 0.043 
0.333 0.624 0.051 0.043 
0.027 0.416 0.051 0.043 
0.196 0.624 0.051 0.082 
0.027 0.502 0.051 0.043 
0.224 0.749 0.153 0.125 
0.224 0.749 0.102 0.043 
0.278 0.71 0.086 0.043 
0.165 0.416 0.067 0.043 
0.082 0.459 0.086 0.043 
0.306 0.792 0.118 0.125 
0.196 0.584 0.086 0.043 
0.165 0.459 0.086 0.0 
0.137 0.584 0.102 0.043 
0.0 0.416 0.016 0.0 
0.388 1.0 0.086 0.125 
0.224 0.624 0.067 0.082 
0.224 0.749 0.086 0.082 
0.224 0.71 0.086 0.125 
0.224 0.541 0.118 0.165 
0.196 0.416 0.102 0.043 
0.251 0.624 0.086 0.043 
0.11 0.502 0.102 0.043 
0.306 0.584 0.086 0.125 
0.333 0.918 0.067 0.043 
0.196 0.502 0.035 0.043 
0.165 0.667 0.067 0.0 
0.224 0.584 0.086 0.043 
0.055 0.125 0.051 0.082 
0.196 0.624 0.102 0.208 
0.137 0.416 0.067 0.082 
0.082 0.502 0.067 0.043 
0.196 0.541 0.067 0.043 
0.749 0.502 0.627 0.541 
0.722 0.459 0.663 0.584 
0.612 0.333 0.612 0.584 
0.557 0.541 0.627 0.624 
0.639 0.376 0.612 0.498 
0.196 0.0 0.424 0.376 
0.471 0.082 0.51 0.376 
0.361 0.376 0.439 0.498 
0.361 0.416 0.592 0.584 
0.529 0.082 0.592 0.584 
0.443 0.502 0.643 0.459 
0.557 0.208 0.663 0.584 
0.584 0.376 0.561 0.498 
0.694 0.333 0.643 0.541 
0.471 0.376 0.592 0.584 
0.333 0.169 0.475 0.416 
0.416 0.29 0.49 0.459 
0.306 0.416 0.592 0.584 
0.667 0.459 0.627 0.584 
0.361 0.416 0.525 0.498 
0.333 0.251 0.576 0.459 
0.416 0.251 0.51 0.459 
0.361 0.29 0.541 0.498 
0.388 0.376 0.541 0.498 
0.224 0.208 0.337 0.416 
0.584 0.502 0.592 0.584 
0.333 0.125 0.51 0.498 
0.388 0.333 0.592 0.498 
0.165 0.169 0.388 0.376 
0.251 0.29 0.49 0.541 
0.443 0.416 0.541 0.584 
0.498 0.376 0.627 0.541 
0.667 0.459 0.576 0.541 
0.416 0.29 0.525 0.376 
0.361 0.208 0.49 0.416 
0.498 0.333 0.51 0.498 
0.498 0.333 0.627 0.459 
0.639 0.416 0.576 0.541 
0.667 0.416 0.678 0.667 
0.388 0.251 0.424 0.376 
0.333 0.169 0.459 0.376 
0.471 0.29 0.694 0.624 
0.471 0.584 0.592 0.624 
0.557 0.125 0.576 0.498 
0.333 0.208 0.51 0.498 
0.498 0.416 0.612 0.541 
0.196 0.125 0.388 0.376 
0.388 0.416 0.541 0.459 
0.529 0.376 0.561 0.498 
0.388 0.333 0.525 0.498 
0.557 0.541 0.847 1.0 
0.776 0.416 0.831 0.831 
0.612 0.416 0.812 0.875 
0.165 0.208 0.592 0.667 
0.667 0.208 0.812 0.71 
0.612 0.502 0.694 0.792 
0.694 0.416 0.761 0.831 
0.416 0.333 0.694 0.957 
0.612 0.416 0.761 0.71 
0.945 0.251 1.0 0.918 
0.722 0.502 0.796 0.918 
0.945 0.333 0.965 0.792 
0.667 0.541 0.796 0.831 
0.529 0.333 0.643 0.71 
0.584 0.333 0.78 0.831 
0.863 0.333 0.863 0.749 
0.584 0.333 0.78 0.875 
0.498 0.251 0.78 0.541 
0.557 0.584 0.78 0.957 
0.471 0.416 0.643 0.71 
0.667 0.459 0.78 0.957 
0.416 0.29 0.694 0.749 
0.667 0.541 0.796 1.0 
0.557 0.208 0.678 0.749 
0.529 0.584 0.745 0.918 
0.416 0.29 0.694 0.749 
0.557 0.376 0.78 0.71 
0.918 0.416 0.949 0.831 
0.835 0.376 0.898 0.71 
0.804 0.667 0.863 1.0 
0.584 0.29 0.729 0.749 
0.388 0.208 0.678 0.792 
0.584 0.502 0.729 0.918 
0.945 0.749 0.965 0.875 
0.471 0.082 0.678 0.584 
0.361 0.333 0.663 0.792 
0.557 0.29 0.663 0.71 
0.804 0.502 0.847 0.71 
0.498 0.416 0.51 0.71 
0.804 0.416 0.812 0.624 
1.0 0.749 0.914 0.792 
0.557 0.333 0.694 0.584 
0.945 0.416 0.863 0.918 
0.584 0.459 0.761 0.71 
0.722 0.459 0.745 0.831 
0.722 0.459 0.694 0.918 
0.694 0.502 0.831 0.918 
0.667 0.416 0.714 0.918 
0.612 0.416 0.714 0.792 
0.443 0.416 0.694 0.71 
Teaching Patterns
1.0 0.0 0.0 
1.0 0.0 0.0 
1.0 0.0 0.0 
1.0 0.0 0.0 
1.0 0.0 0.0 
1.0 0.0 0.0 
1.0 0.0 0.0 
1.0 0.0 0.0 
1.0 0.0 0.0 
1.0 0.0 0.0 
1.0 0.0 0.0 
1.0 0.0 0.0 
1.0 0.0 0.0 
1.0 0.0 0.0 
1.0 0.0 0.0 
1.0 0.0 0.0 
1.0 0.0 0.0 
1.0 0.0 0.0 
1.0 0.0 0.0 
1.0 0.0 0.0 
1.0 0.0 0.0 
1.0 0.0 0.0 
1.0 0.0 0.0 
1.0 0.0 0.0 
1.0 0.0 0.0 
1.0 0.0 0.0 
1.0 0.0 0.0 
1.0 0.0 0.0 
1.0 0.0 0.0 
1.0 0.0 0.0 
1.0 0.0 0.0 
1.0 0.0 0.0 
1.0 0.0 0.0 
1.0 0.0 0.0 
1.0 0.0 0.0 
1.0 0.0 0.0 
1.0 0.0 0.0 
1.0 0.0 0.0 
1.0 0.0 0.0 
1.0 0.0 0.0 
1.0 0.0 0.0 
1.0 0.0 0.0 
1.0 0.0 0.0 
1.0 0.0 0.0 
1.0 0.0 0.0 
1.0 0.0 0.0 
1.0 0.0 0.0 
1.0 0.0 0.0 
1.0 0.0 0.0 
1.0 0.0 0.0 
0.0 1.0 0.0 
0.0 1.0 0.0 
0.0 1.0 0.0 
0.0 1.0 0.0 
0.0 1.0 0.0 
0.0 1.0 0.0 
0.0 1.0 0.0 
0.0 1.0 0.0 
0.0 1.0 0.0 
0.0 1.0 0.0 
0.0 1.0 0.0 
0.0 1.0 0.0 
0.0 1.0 0.0 
0.0 1.0 0.0 
0.0 1.0 0.0 
0.0 1.0 0.0 
0.0 1.0 0.0 
0.0 1.0 0.0 
0.0 1.0 0.0 
0.0 1.0 0.0 
0.0 1.0 0.0 
0.0 1.0 0.0 
0.0 1.0 0.0 
0.0 1.0 0.0 
0.0 1.0 0.0 
0.0 1.0 0.0 
0.0 1.0 0.0 
0.0 1.0 0.0 
0.0 1.0 0.0 
0.0 1.0 0.0 
0.0 1.0 0.0 
0.0 1.0 0.0 
0.0 1.0 0.0 
0.0 1.0 0.0 
0.0 1.0 0.0 
0.0 1.0 0.0 
0.0 1.0 0.0 
0.0 1.0 0.0 
0.0 1.0 0.0 
0.0 1.0 0.0 
0.0 1.0 0.0 
0.0 1.0 0.0 
0.0 1.0 0.0 
0.0 1.0 0.0 
0.0 1.0 0.0 
0.0 1.0 0.0 
0.0 1.0 0.0 
0.0 1.0 0.0 
0.0 1.0 0.0 
0.0 1.0 0.0 
0.0 0.0 1.0 
0.0 0.0 1.0 
0.0 0.0 1.0 
0.0 0.0 1.0 
0.0 0.0 1.0 
0.0 0.0 1.0 
0.0 0.0 1.0 
0.0 0.0 1.0 
0.0 0.0 1.0 
0.0 0.0 1.0 
0.0 0.0 1.0 
0.0 0.0 1.0 
0.0 0.0 1.0 
0.0 0.0 1.0 
0.0 0.0 1.0 
0.0 0.0 1.0 
0.0 0.0 1.0 
0.0 0.0 1.0 
0.0 0.0 1.0 
0.0 0.0 1.0 
0.0 0.0 1.0 
0.0 0.0 1.0 
0.0 0.0 1.0 
0.0 0.0 1.0 
0.0 0.0 1.0 
0.0 0.0 1.0 
0.0 0.0 1.0 
0.0 0.0 1.0 
0.0 0.0 1.0 
0.0 0.0 1.0 
0.0 0.0 1.0 
0.0 0.0 1.0 
0.0 0.0 1.0 
0.0 0.0 1.0 
0.0 0.0 1.0 
0.0 0.0 1.0 
0.0 0.0 1.0 
0.0 0.0 1.0 
0.0 0.0 1.0 
0.0 0.0 1.0 
0.0 0.0 1.0 
0.0 0.0 1.0 
0.0 0.0 1.0 
0.0 0.0 1.0 
0.0 0.0 1.0 
0.0 0.0 1.0 
0.0 0.0 1.0 
0.0 0.0 1.0 
0.0 0.0 1.0 
0.0 0.0 1.0 
Learning : 0.3499999940395355
Momentum : 0.9
Epoch: 100, Error: 0.016244456025464832
Epoch: 200, Error: 0.012510974401734407
Epoch: 300, Error: 0.012238575755132442
Epoch: 400, Error: 0.01202543858441763
Epoch: 500, Error: 0.011887414829917375
Epoch: 600, Error: 0.011978166711968899
Epoch: 700, Error: 0.012776522787903205
Epoch: 800, Error: 0.012599447971974116
Epoch: 900, Error: 0.012436541136547226
Epoch: 1000, Error: 0.013259322647548937
Epoch: 1100, Error: 0.012841439700605353
Epoch: 1200, Error: 0.012848216135436017
Epoch: 1300, Error: 0.01236444008805383
Epoch: 1400, Error: 0.012064185173766888
Epoch: 1500, Error: 0.012080484454376714
Epoch: 1600, Error: 0.012031764877468468
Epoch: 1700, Error: 0.012094325332277129
Epoch: 1800, Error: 0.011936101593745856
Epoch: 1900, Error: 0.015922093552573627
Epoch: 2000, Error: 0.01187943786630295
Epoch: 2100, Error: 0.012004955417254007
Epoch: 2200, Error: 0.012226809411056597
Epoch: 2300, Error: 0.01177959032130269
Epoch: 2400, Error: 0.011788950678721728
Epoch: 2500, Error: 0.01150893223768077
Epoch: 2600, Error: 0.011577247739475981
Epoch: 2700, Error: 0.011207850173090221
Epoch: 2800, Error: 0.01192804954545039
Epoch: 2900, Error: 0.010662160752317766
Epoch: 3000, Error: 0.010201291988198725
Epoch: 3100, Error: 0.009213671821413923
Epoch: 3200, Error: 0.008632142779651897
Epoch: 3300, Error: 0.008035235164631822
Epoch: 3400, Error: 0.007518509619035679
Epoch: 3500, Error: 0.006981258413584522
Epoch: 3600, Error: 0.006991559938296088
Epoch: 3700, Error: 0.006409671968505961
Epoch: 3800, Error: 0.006249622655855127
Epoch: 3900, Error: 0.005975719322112461
Epoch: 4000, Error: 0.005821888801920355
Epoch: 4100, Error: 0.005701026912564437
Epoch: 4200, Error: 0.005592196230891783
Epoch: 4300, Error: 0.005694393657301419
Epoch: 4400, Error: 0.005538863458555838
Epoch: 4500, Error: 0.005413680934133319
Epoch: 4600, Error: 0.005370673928115819
Epoch: 4700, Error: 0.005344471369742214
Epoch: 4800, Error: 0.005347516466075166
Epoch: 4900, Error: 0.005320329515527995
Epoch: 5000, Error: 0.005295455893841757
Epoch: 5100, Error: 0.005307758970996488
Epoch: 5200, Error: 0.005291518493929282
Epoch: 5300, Error: 0.005286644248265948
Epoch: 5400, Error: 0.005325473769149569
Epoch: 5500, Error: 0.005287963708368361
Epoch: 5600, Error: 0.005294279612644767
Epoch: 5700, Error: 0.005325849308411754
Epoch: 5800, Error: 0.005288831396089386
Epoch: 5900, Error: 0.005308464005522431
Epoch: 6000, Error: 0.005285729163582387
Epoch: 6100, Error: 0.005285794892513271
Epoch: 6200, Error: 0.00529697963893796
Epoch: 6300, Error: 0.00528389737463574
Epoch: 6400, Error: 0.005253362998880572
Epoch: 6500, Error: 0.005193367054747154
Epoch: 6600, Error: 0.005120301040492523
Epoch: 6700, Error: 0.00510121254060606
Epoch: 6800, Error: 0.005154131239039978
Epoch: 6900, Error: 0.005099893619509829
Epoch: 7000, Error: 0.005102675881526543
Epoch: 7100, Error: 0.005114056545211721
Epoch: 7200, Error: 0.005112090211301597
Epoch: 7300, Error: 0.005092582981054234
Epoch: 7400, Error: 0.00508840358701462
Epoch: 7500, Error: 0.005102442712070236
Epoch: 7600, Error: 0.005052979047197196
Epoch: 7700, Error: 0.005067038293403298
Epoch: 7800, Error: 0.0050856833492098075
Epoch: 7900, Error: 0.00504418781229413
Epoch: 8000, Error: 0.004998409345904486
Epoch: 8100, Error: 0.005126108575134959
Epoch: 8200, Error: 0.004940393164438284
Epoch: 8300, Error: 0.004921597369168424
Epoch: 8400, Error: 0.004851335211080179
Epoch: 8500, Error: 0.00481989390433356
Epoch: 8600, Error: 0.004753217697342864
Epoch: 8700, Error: 0.004753381306926582
Epoch: 8800, Error: 0.004780906067620513
Epoch: 8900, Error: 0.004708113649957438
Epoch: 9000, Error: 0.004653901894903812
Epoch: 9100, Error: 0.004615178431689529
Epoch: 9200, Error: 0.0045079267098588685
Epoch: 9300, Error: 0.004585724960835403
Epoch: 9400, Error: 0.004530165809078597
Epoch: 9500, Error: 0.004721225492526878
Epoch: 9600, Error: 0.004550417603489985
Epoch: 9700, Error: 0.004681549198514957
Epoch: 9800, Error: 0.004524399587594467
Epoch: 9900, Error: 0.004284738430899515
Epoch: 10000, Error: 0.004268603067818446
Epoch: 10100, Error: 0.0038533169387045445
Epoch: 10200, Error: 0.004079195887443788
Epoch: 10300, Error: 0.0036984742166954934
Epoch: 10400, Error: 0.0035609506255871925
Epoch: 10500, Error: 0.003674222284951196
Epoch: 10600, Error: 0.0034271061290091992
Epoch: 10700, Error: 0.003185638085144589
Epoch: 10800, Error: 0.0029632607641772502
Epoch: 10900, Error: 0.00285077232787161
Epoch: 11000, Error: 0.0037116612664149394
Epoch: 11100, Error: 0.0025764935604514713
Epoch: 11200, Error: 0.003518073040754805
Epoch: 11300, Error: 0.003192457236088776
Epoch: 11400, Error: 0.003198016308522483
Epoch: 11500, Error: 0.0026584203006224886
Epoch: 11600, Error: 0.002070218866433162
Epoch: 11700, Error: 0.004409039019933419
Epoch: 11800, Error: 0.002704700299242749
Epoch: 11900, Error: 0.002583805068847109
Epoch: 12000, Error: 0.0027715648031588257
Epoch: 12100, Error: 0.0020237275881607518
Epoch: 12200, Error: 0.003773095573377863
Epoch: 12300, Error: 0.0016197693881751555
Epoch: 12400, Error: 0.0016678841400211155
Epoch: 12500, Error: 0.002195415185461167
Epoch: 12600, Error: 0.001608591209909557
Epoch: 12700, Error: 0.0030620623662772676
Epoch: 12800, Error: 0.002103458329340719
Epoch: 12900, Error: 0.001433892955873844
Epoch: 13000, Error: 0.002452035246952949
Epoch: 13100, Error: 0.0015364683583040553
Epoch: 13200, Error: 0.0021259448274093197
Epoch: 13300, Error: 0.0013864600527445994
Epoch: 13400, Error: 0.0013277858173909513
Epoch: 13500, Error: 0.0014120370192560812
Epoch: 13600, Error: 0.0012074749832474859
Epoch: 13700, Error: 0.0019904392185305605
Epoch: 13800, Error: 0.0011196289793526536
Epoch: 13900, Error: 0.0016484702821556046
Epoch: 14000, Error: 0.0015267676408596378
Epoch: 14100, Error: 0.0010193918437294454
Epoch: 14200, Error: 0.0015084204342986488
Epoch: 14300, Error: 0.0010817031739503483
Epoch: 14400, Error: 0.0010842142490516673
Epoch: 14500, Error: 0.0010492852900211333
Epoch: 14600, Error: 0.001056294696238698
Epoch: 14700, Error: 0.00101414931165357
Epoch: 14800, Error: 0.0010265671652366281
Epoch: 14900, Error: 0.0011015461790177138
Epoch: 15000, Error: 0.0010383025205201724
Epoch: 15100, Error: 0.0010299259870704945
Epoch: 15200, Error: 0.0010744294056929944
Epoch: 15300, Error: 0.0010269792892883924
Epoch: 15400, Error: 0.0010175389725479345
Epoch: 15500, Error: 0.0010215218866380983
Epoch: 15600, Error: 0.0010038616649437808
Epoch: 15700, Error: 0.0010094163585876229
Epoch: 15800, Error: 9.589365842188335E-4
Epoch: 15900, Error: 9.890270139141812E-4
Epoch: 16000, Error: 9.584938361361858E-4
Epoch: 16100, Error: 9.405132142422844E-4
Epoch: 16200, Error: 9.05381460172917E-4
Epoch: 16300, Error: 9.219843026844307E-4
Epoch: 16400, Error: 8.511951260819081E-4
Epoch: 16500, Error: 8.631663056813643E-4
Epoch: 16600, Error: 8.466707896590231E-4
Epoch: 16700, Error: 8.501816688791853E-4
Epoch: 16800, Error: 8.725761587841977E-4
Epoch: 16900, Error: 8.510435787974548E-4
Epoch: 17000, Error: 8.812683878731535E-4
Epoch: 17100, Error: 8.457544760092307E-4
Epoch: 17200, Error: 8.36369134781044E-4
Epoch: 17300, Error: 8.424672950650977E-4
Epoch: 17400, Error: 8.423171766241425E-4
Epoch: 17500, Error: 8.447343659412653E-4
Epoch: 17600, Error: 8.514707275960771E-4
Epoch: 17700, Error: 8.579426999459388E-4
Epoch: 17800, Error: 8.599263306811615E-4
Epoch: 17900, Error: 8.521545293871156E-4
Epoch: 18000, Error: 8.592345683384959E-4
Epoch: 18100, Error: 8.35646576532259E-4
Epoch: 18200, Error: 8.483365038784716E-4
Epoch: 18300, Error: 8.371009267393163E-4
Epoch: 18400, Error: 8.577275989986327E-4
Epoch: 18500, Error: 8.311144535800865E-4
Epoch: 18600, Error: 8.348828470090488E-4
Epoch: 18700, Error: 8.399714336604272E-4
Epoch: 18800, Error: 8.370445228887207E-4
Epoch: 18900, Error: 8.398168988736365E-4
Epoch: 19000, Error: 8.432054241439604E-4
Epoch: 19100, Error: 8.721222234380527E-4
Epoch: 19200, Error: 8.724413884825953E-4
Epoch: 19300, Error: 8.814319017360834E-4
Epoch: 19400, Error: 8.570821749617456E-4
Epoch: 19500, Error: 8.77724029533993E-4
Epoch: 19600, Error: 8.763028674635239E-4
Epoch: 19700, Error: 8.80421986232559E-4
Epoch: 19800, Error: 8.799561800543157E-4
Epoch: 19900, Error: 8.896267953214836E-4
Epoch: 20000, Error: 8.935245819640374E-4
Epoch: 20100, Error: 9.025135198373894E-4
Epoch: 20200, Error: 8.971693948683165E-4
Finished
