Input Patterns
0.224 0.624 0.067 0.043 
0.11 0.502 0.051 0.043 
0.196 0.667 0.067 0.043 
0.055 0.584 0.067 0.082 
0.027 0.376 0.067 0.043 
0.306 0.71 0.086 0.043 
0.137 0.416 0.067 0.0 
0.416 0.831 0.035 0.043 
0.306 0.792 0.051 0.125 
0.388 0.749 0.118 0.082 
0.306 0.584 0.118 0.043 
0.082 0.667 0.0 0.043 
0.137 0.584 0.153 0.043 
0.196 0.584 0.102 0.125 
0.251 0.584 0.067 0.043 
0.137 0.459 0.102 0.043 
0.251 0.875 0.086 0.0 
0.165 0.459 0.086 0.043 
0.333 0.624 0.051 0.043 
0.027 0.416 0.051 0.043 
0.196 0.624 0.051 0.082 
0.027 0.502 0.051 0.043 
0.224 0.749 0.153 0.125 
0.224 0.749 0.102 0.043 
0.278 0.71 0.086 0.043 
0.165 0.416 0.067 0.043 
0.082 0.459 0.086 0.043 
0.306 0.792 0.118 0.125 
0.196 0.584 0.086 0.043 
0.165 0.459 0.086 0.0 
0.137 0.584 0.102 0.043 
0.0 0.416 0.016 0.0 
0.388 1.0 0.086 0.125 
0.224 0.624 0.067 0.082 
0.224 0.749 0.086 0.082 
0.224 0.71 0.086 0.125 
0.224 0.541 0.118 0.165 
0.196 0.416 0.102 0.043 
0.251 0.624 0.086 0.043 
0.11 0.502 0.102 0.043 
0.306 0.584 0.086 0.125 
0.333 0.918 0.067 0.043 
0.196 0.502 0.035 0.043 
0.165 0.667 0.067 0.0 
0.224 0.584 0.086 0.043 
0.055 0.125 0.051 0.082 
0.196 0.624 0.102 0.208 
0.137 0.416 0.067 0.082 
0.082 0.502 0.067 0.043 
0.196 0.541 0.067 0.043 
0.749 0.502 0.627 0.541 
0.722 0.459 0.663 0.584 
0.612 0.333 0.612 0.584 
0.557 0.541 0.627 0.624 
0.639 0.376 0.612 0.498 
0.196 0.0 0.424 0.376 
0.471 0.082 0.51 0.376 
0.361 0.376 0.439 0.498 
0.361 0.416 0.592 0.584 
0.529 0.082 0.592 0.584 
0.443 0.502 0.643 0.459 
0.557 0.208 0.663 0.584 
0.584 0.376 0.561 0.498 
0.694 0.333 0.643 0.541 
0.471 0.376 0.592 0.584 
0.333 0.169 0.475 0.416 
0.416 0.29 0.49 0.459 
0.306 0.416 0.592 0.584 
0.667 0.459 0.627 0.584 
0.361 0.416 0.525 0.498 
0.333 0.251 0.576 0.459 
0.416 0.251 0.51 0.459 
0.361 0.29 0.541 0.498 
0.388 0.376 0.541 0.498 
0.224 0.208 0.337 0.416 
0.584 0.502 0.592 0.584 
0.333 0.125 0.51 0.498 
0.388 0.333 0.592 0.498 
0.165 0.169 0.388 0.376 
0.251 0.29 0.49 0.541 
0.443 0.416 0.541 0.584 
0.498 0.376 0.627 0.541 
0.667 0.459 0.576 0.541 
0.416 0.29 0.525 0.376 
0.361 0.208 0.49 0.416 
0.498 0.333 0.51 0.498 
0.498 0.333 0.627 0.459 
0.639 0.416 0.576 0.541 
0.667 0.416 0.678 0.667 
0.388 0.251 0.424 0.376 
0.333 0.169 0.459 0.376 
0.471 0.29 0.694 0.624 
0.471 0.584 0.592 0.624 
0.557 0.125 0.576 0.498 
0.333 0.208 0.51 0.498 
0.498 0.416 0.612 0.541 
0.196 0.125 0.388 0.376 
0.388 0.416 0.541 0.459 
0.529 0.376 0.561 0.498 
0.388 0.333 0.525 0.498 
0.557 0.541 0.847 1.0 
0.776 0.416 0.831 0.831 
0.612 0.416 0.812 0.875 
0.165 0.208 0.592 0.667 
0.667 0.208 0.812 0.71 
0.612 0.502 0.694 0.792 
0.694 0.416 0.761 0.831 
0.416 0.333 0.694 0.957 
0.612 0.416 0.761 0.71 
0.945 0.251 1.0 0.918 
0.722 0.502 0.796 0.918 
0.945 0.333 0.965 0.792 
0.667 0.541 0.796 0.831 
0.529 0.333 0.643 0.71 
0.584 0.333 0.78 0.831 
0.863 0.333 0.863 0.749 
0.584 0.333 0.78 0.875 
0.498 0.251 0.78 0.541 
0.557 0.584 0.78 0.957 
0.471 0.416 0.643 0.71 
0.667 0.459 0.78 0.957 
0.416 0.29 0.694 0.749 
0.667 0.541 0.796 1.0 
0.557 0.208 0.678 0.749 
0.529 0.584 0.745 0.918 
0.416 0.29 0.694 0.749 
0.557 0.376 0.78 0.71 
0.918 0.416 0.949 0.831 
0.835 0.376 0.898 0.71 
0.804 0.667 0.863 1.0 
0.584 0.29 0.729 0.749 
0.388 0.208 0.678 0.792 
0.584 0.502 0.729 0.918 
0.945 0.749 0.965 0.875 
0.471 0.082 0.678 0.584 
0.361 0.333 0.663 0.792 
0.557 0.29 0.663 0.71 
0.804 0.502 0.847 0.71 
0.498 0.416 0.51 0.71 
0.804 0.416 0.812 0.624 
1.0 0.749 0.914 0.792 
0.557 0.333 0.694 0.584 
0.945 0.416 0.863 0.918 
0.584 0.459 0.761 0.71 
0.722 0.459 0.745 0.831 
0.722 0.459 0.694 0.918 
0.694 0.502 0.831 0.918 
0.667 0.416 0.714 0.918 
0.612 0.416 0.714 0.792 
0.443 0.416 0.694 0.71 
Teaching Patterns
1.0 0.0 0.0 
1.0 0.0 0.0 
1.0 0.0 0.0 
1.0 0.0 0.0 
1.0 0.0 0.0 
1.0 0.0 0.0 
1.0 0.0 0.0 
1.0 0.0 0.0 
1.0 0.0 0.0 
1.0 0.0 0.0 
1.0 0.0 0.0 
1.0 0.0 0.0 
1.0 0.0 0.0 
1.0 0.0 0.0 
1.0 0.0 0.0 
1.0 0.0 0.0 
1.0 0.0 0.0 
1.0 0.0 0.0 
1.0 0.0 0.0 
1.0 0.0 0.0 
1.0 0.0 0.0 
1.0 0.0 0.0 
1.0 0.0 0.0 
1.0 0.0 0.0 
1.0 0.0 0.0 
1.0 0.0 0.0 
1.0 0.0 0.0 
1.0 0.0 0.0 
1.0 0.0 0.0 
1.0 0.0 0.0 
1.0 0.0 0.0 
1.0 0.0 0.0 
1.0 0.0 0.0 
1.0 0.0 0.0 
1.0 0.0 0.0 
1.0 0.0 0.0 
1.0 0.0 0.0 
1.0 0.0 0.0 
1.0 0.0 0.0 
1.0 0.0 0.0 
1.0 0.0 0.0 
1.0 0.0 0.0 
1.0 0.0 0.0 
1.0 0.0 0.0 
1.0 0.0 0.0 
1.0 0.0 0.0 
1.0 0.0 0.0 
1.0 0.0 0.0 
1.0 0.0 0.0 
1.0 0.0 0.0 
0.0 1.0 0.0 
0.0 1.0 0.0 
0.0 1.0 0.0 
0.0 1.0 0.0 
0.0 1.0 0.0 
0.0 1.0 0.0 
0.0 1.0 0.0 
0.0 1.0 0.0 
0.0 1.0 0.0 
0.0 1.0 0.0 
0.0 1.0 0.0 
0.0 1.0 0.0 
0.0 1.0 0.0 
0.0 1.0 0.0 
0.0 1.0 0.0 
0.0 1.0 0.0 
0.0 1.0 0.0 
0.0 1.0 0.0 
0.0 1.0 0.0 
0.0 1.0 0.0 
0.0 1.0 0.0 
0.0 1.0 0.0 
0.0 1.0 0.0 
0.0 1.0 0.0 
0.0 1.0 0.0 
0.0 1.0 0.0 
0.0 1.0 0.0 
0.0 1.0 0.0 
0.0 1.0 0.0 
0.0 1.0 0.0 
0.0 1.0 0.0 
0.0 1.0 0.0 
0.0 1.0 0.0 
0.0 1.0 0.0 
0.0 1.0 0.0 
0.0 1.0 0.0 
0.0 1.0 0.0 
0.0 1.0 0.0 
0.0 1.0 0.0 
0.0 1.0 0.0 
0.0 1.0 0.0 
0.0 1.0 0.0 
0.0 1.0 0.0 
0.0 1.0 0.0 
0.0 1.0 0.0 
0.0 1.0 0.0 
0.0 1.0 0.0 
0.0 1.0 0.0 
0.0 1.0 0.0 
0.0 1.0 0.0 
0.0 0.0 1.0 
0.0 0.0 1.0 
0.0 0.0 1.0 
0.0 0.0 1.0 
0.0 0.0 1.0 
0.0 0.0 1.0 
0.0 0.0 1.0 
0.0 0.0 1.0 
0.0 0.0 1.0 
0.0 0.0 1.0 
0.0 0.0 1.0 
0.0 0.0 1.0 
0.0 0.0 1.0 
0.0 0.0 1.0 
0.0 0.0 1.0 
0.0 0.0 1.0 
0.0 0.0 1.0 
0.0 0.0 1.0 
0.0 0.0 1.0 
0.0 0.0 1.0 
0.0 0.0 1.0 
0.0 0.0 1.0 
0.0 0.0 1.0 
0.0 0.0 1.0 
0.0 0.0 1.0 
0.0 0.0 1.0 
0.0 0.0 1.0 
0.0 0.0 1.0 
0.0 0.0 1.0 
0.0 0.0 1.0 
0.0 0.0 1.0 
0.0 0.0 1.0 
0.0 0.0 1.0 
0.0 0.0 1.0 
0.0 0.0 1.0 
0.0 0.0 1.0 
0.0 0.0 1.0 
0.0 0.0 1.0 
0.0 0.0 1.0 
0.0 0.0 1.0 
0.0 0.0 1.0 
0.0 0.0 1.0 
0.0 0.0 1.0 
0.0 0.0 1.0 
0.0 0.0 1.0 
0.0 0.0 1.0 
0.0 0.0 1.0 
0.0 0.0 1.0 
0.0 0.0 1.0 
0.0 0.0 1.0 
Learning : 0.3499999940395355
Momentum : 0.9
Epoch: 100, Error: 0.013105203108139325
Epoch: 200, Error: 0.012014640396451552
Epoch: 300, Error: 0.011962476182275335
Epoch: 400, Error: 0.012093761341379879
Epoch: 500, Error: 0.017515229012723735
Epoch: 600, Error: 0.011946305078140616
Epoch: 700, Error: 0.012124222231863274
Epoch: 800, Error: 0.011924755258453318
Epoch: 900, Error: 0.013779336563173103
Epoch: 1000, Error: 0.011953701234939133
Epoch: 1100, Error: 0.01184762472099823
Epoch: 1200, Error: 0.011907480847056246
Epoch: 1300, Error: 0.011921896780618705
Epoch: 1400, Error: 0.012305143629190746
Epoch: 1500, Error: 0.0119857920782841
Epoch: 1600, Error: 0.011840754369646208
Epoch: 1700, Error: 0.011826509859455254
Epoch: 1800, Error: 0.011884635455095561
Epoch: 1900, Error: 0.012306239078661397
Epoch: 2000, Error: 0.011918010188028549
Epoch: 2100, Error: 0.011722877870154967
Epoch: 2200, Error: 0.01191198378077436
Epoch: 2300, Error: 0.01169176697345375
Epoch: 2400, Error: 0.011605845603048595
Epoch: 2500, Error: 0.011575860017912814
Epoch: 2600, Error: 0.01150055939663792
Epoch: 2700, Error: 0.011379619404627955
Epoch: 2800, Error: 0.011309683213731068
Epoch: 2900, Error: 0.011295321448702272
Epoch: 3000, Error: 0.011938095333293661
Epoch: 3100, Error: 0.010844323730259646
Epoch: 3200, Error: 0.011166591294910445
Epoch: 3300, Error: 0.011806730934531712
Epoch: 3400, Error: 0.009999912553824443
Epoch: 3500, Error: 0.009620346547767134
Epoch: 3600, Error: 0.009387345674983269
Epoch: 3700, Error: 0.009317336017149956
Epoch: 3800, Error: 0.008863296329575372
Epoch: 3900, Error: 0.008796908213740098
Epoch: 4000, Error: 0.00841961806086703
Epoch: 4100, Error: 0.008166076496766582
Epoch: 4200, Error: 0.008559572804474808
Epoch: 4300, Error: 0.00840785050946597
Epoch: 4400, Error: 0.00791534215006036
Epoch: 4500, Error: 0.0078013172619378224
Epoch: 4600, Error: 0.007604385463171561
Epoch: 4700, Error: 0.007748780387469373
Epoch: 4800, Error: 0.007471604155646521
Epoch: 4900, Error: 0.0076786959085794314
Epoch: 5000, Error: 0.007389498805638071
Epoch: 5100, Error: 0.0069574610463326355
Epoch: 5200, Error: 0.006810837120358239
Epoch: 5300, Error: 0.007211748463496984
Epoch: 5400, Error: 0.006426489761283852
Epoch: 5500, Error: 0.006391773142754668
Epoch: 5600, Error: 0.006008600726961352
Epoch: 5700, Error: 0.005874396255129763
Epoch: 5800, Error: 0.005947822264064161
Epoch: 5900, Error: 0.005617481998794533
Epoch: 6000, Error: 0.005547633111744918
Epoch: 6100, Error: 0.005567353579843169
Epoch: 6200, Error: 0.005416144297549536
Epoch: 6300, Error: 0.005520688825529616
Epoch: 6400, Error: 0.005459784528118243
Epoch: 6500, Error: 0.00562282707345137
Epoch: 6600, Error: 0.005612898652906163
Epoch: 6700, Error: 0.005708923449628615
Epoch: 6800, Error: 0.005735258790661908
Epoch: 6900, Error: 0.005762007396948821
Epoch: 7000, Error: 0.0057635092862583556
Epoch: 7100, Error: 0.005819002761865608
Epoch: 7200, Error: 0.005770748119912522
Epoch: 7300, Error: 0.005726306317773855
Epoch: 7400, Error: 0.005724702588356128
Epoch: 7500, Error: 0.005710895102856317
Epoch: 7600, Error: 0.005738185570638188
Epoch: 7700, Error: 0.005630221472762111
Epoch: 7800, Error: 0.0056308118845215275
Epoch: 7900, Error: 0.005630149269990998
Epoch: 8000, Error: 0.005595773289875205
Epoch: 8100, Error: 0.005637111948704822
Epoch: 8200, Error: 0.005621103304336034
Epoch: 8300, Error: 0.005610703341641305
Epoch: 8400, Error: 0.005566960378021701
Epoch: 8500, Error: 0.005576253332028751
Epoch: 8600, Error: 0.00559032885511396
Epoch: 8700, Error: 0.005564228220930595
Epoch: 8800, Error: 0.005578453000012211
Epoch: 8900, Error: 0.0055700715651555745
Epoch: 9000, Error: 0.0055549964455758796
Epoch: 9100, Error: 0.0055878422299639975
Epoch: 9200, Error: 0.0055524547089508755
Epoch: 9300, Error: 0.0055310472710633045
Finished
