Input Patterns
0.224 0.624 0.067 0.043 
0.11 0.502 0.051 0.043 
0.196 0.667 0.067 0.043 
0.055 0.584 0.067 0.082 
0.027 0.376 0.067 0.043 
0.306 0.71 0.086 0.043 
0.137 0.416 0.067 0.0 
0.416 0.831 0.035 0.043 
0.306 0.792 0.051 0.125 
0.388 0.749 0.118 0.082 
0.306 0.584 0.118 0.043 
0.082 0.667 0.0 0.043 
0.137 0.584 0.153 0.043 
0.196 0.584 0.102 0.125 
0.251 0.584 0.067 0.043 
0.137 0.459 0.102 0.043 
0.251 0.875 0.086 0.0 
0.165 0.459 0.086 0.043 
0.333 0.624 0.051 0.043 
0.027 0.416 0.051 0.043 
0.196 0.624 0.051 0.082 
0.027 0.502 0.051 0.043 
0.224 0.749 0.153 0.125 
0.224 0.749 0.102 0.043 
0.278 0.71 0.086 0.043 
0.165 0.416 0.067 0.043 
0.082 0.459 0.086 0.043 
0.306 0.792 0.118 0.125 
0.196 0.584 0.086 0.043 
0.165 0.459 0.086 0.0 
0.137 0.584 0.102 0.043 
0.0 0.416 0.016 0.0 
0.388 1.0 0.086 0.125 
0.224 0.624 0.067 0.082 
0.224 0.749 0.086 0.082 
0.224 0.71 0.086 0.125 
0.224 0.541 0.118 0.165 
0.196 0.416 0.102 0.043 
0.251 0.624 0.086 0.043 
0.11 0.502 0.102 0.043 
0.306 0.584 0.086 0.125 
0.333 0.918 0.067 0.043 
0.196 0.502 0.035 0.043 
0.165 0.667 0.067 0.0 
0.224 0.584 0.086 0.043 
0.055 0.125 0.051 0.082 
0.196 0.624 0.102 0.208 
0.137 0.416 0.067 0.082 
0.082 0.502 0.067 0.043 
0.196 0.541 0.067 0.043 
0.749 0.502 0.627 0.541 
0.722 0.459 0.663 0.584 
0.612 0.333 0.612 0.584 
0.557 0.541 0.627 0.624 
0.639 0.376 0.612 0.498 
0.196 0.0 0.424 0.376 
0.471 0.082 0.51 0.376 
0.361 0.376 0.439 0.498 
0.361 0.416 0.592 0.584 
0.529 0.082 0.592 0.584 
0.443 0.502 0.643 0.459 
0.557 0.208 0.663 0.584 
0.584 0.376 0.561 0.498 
0.694 0.333 0.643 0.541 
0.471 0.376 0.592 0.584 
0.333 0.169 0.475 0.416 
0.416 0.29 0.49 0.459 
0.306 0.416 0.592 0.584 
0.667 0.459 0.627 0.584 
0.361 0.416 0.525 0.498 
0.333 0.251 0.576 0.459 
0.416 0.251 0.51 0.459 
0.361 0.29 0.541 0.498 
0.388 0.376 0.541 0.498 
0.224 0.208 0.337 0.416 
0.584 0.502 0.592 0.584 
0.333 0.125 0.51 0.498 
0.388 0.333 0.592 0.498 
0.165 0.169 0.388 0.376 
0.251 0.29 0.49 0.541 
0.443 0.416 0.541 0.584 
0.498 0.376 0.627 0.541 
0.667 0.459 0.576 0.541 
0.416 0.29 0.525 0.376 
0.361 0.208 0.49 0.416 
0.498 0.333 0.51 0.498 
0.498 0.333 0.627 0.459 
0.639 0.416 0.576 0.541 
0.667 0.416 0.678 0.667 
0.388 0.251 0.424 0.376 
0.333 0.169 0.459 0.376 
0.471 0.29 0.694 0.624 
0.471 0.584 0.592 0.624 
0.557 0.125 0.576 0.498 
0.333 0.208 0.51 0.498 
0.498 0.416 0.612 0.541 
0.196 0.125 0.388 0.376 
0.388 0.416 0.541 0.459 
0.529 0.376 0.561 0.498 
0.388 0.333 0.525 0.498 
0.557 0.541 0.847 1.0 
0.776 0.416 0.831 0.831 
0.612 0.416 0.812 0.875 
0.165 0.208 0.592 0.667 
0.667 0.208 0.812 0.71 
0.612 0.502 0.694 0.792 
0.694 0.416 0.761 0.831 
0.416 0.333 0.694 0.957 
0.612 0.416 0.761 0.71 
0.945 0.251 1.0 0.918 
0.722 0.502 0.796 0.918 
0.945 0.333 0.965 0.792 
0.667 0.541 0.796 0.831 
0.529 0.333 0.643 0.71 
0.584 0.333 0.78 0.831 
0.863 0.333 0.863 0.749 
0.584 0.333 0.78 0.875 
0.498 0.251 0.78 0.541 
0.557 0.584 0.78 0.957 
0.471 0.416 0.643 0.71 
0.667 0.459 0.78 0.957 
0.416 0.29 0.694 0.749 
0.667 0.541 0.796 1.0 
0.557 0.208 0.678 0.749 
0.529 0.584 0.745 0.918 
0.416 0.29 0.694 0.749 
0.557 0.376 0.78 0.71 
0.918 0.416 0.949 0.831 
0.835 0.376 0.898 0.71 
0.804 0.667 0.863 1.0 
0.584 0.29 0.729 0.749 
0.388 0.208 0.678 0.792 
0.584 0.502 0.729 0.918 
0.945 0.749 0.965 0.875 
0.471 0.082 0.678 0.584 
0.361 0.333 0.663 0.792 
0.557 0.29 0.663 0.71 
0.804 0.502 0.847 0.71 
0.498 0.416 0.51 0.71 
0.804 0.416 0.812 0.624 
1.0 0.749 0.914 0.792 
0.557 0.333 0.694 0.584 
0.945 0.416 0.863 0.918 
0.584 0.459 0.761 0.71 
0.722 0.459 0.745 0.831 
0.722 0.459 0.694 0.918 
0.694 0.502 0.831 0.918 
0.667 0.416 0.714 0.918 
0.612 0.416 0.714 0.792 
0.443 0.416 0.694 0.71 
Teaching Patterns
1.0 0.0 0.0 
1.0 0.0 0.0 
1.0 0.0 0.0 
1.0 0.0 0.0 
1.0 0.0 0.0 
1.0 0.0 0.0 
1.0 0.0 0.0 
1.0 0.0 0.0 
1.0 0.0 0.0 
1.0 0.0 0.0 
1.0 0.0 0.0 
1.0 0.0 0.0 
1.0 0.0 0.0 
1.0 0.0 0.0 
1.0 0.0 0.0 
1.0 0.0 0.0 
1.0 0.0 0.0 
1.0 0.0 0.0 
1.0 0.0 0.0 
1.0 0.0 0.0 
1.0 0.0 0.0 
1.0 0.0 0.0 
1.0 0.0 0.0 
1.0 0.0 0.0 
1.0 0.0 0.0 
1.0 0.0 0.0 
1.0 0.0 0.0 
1.0 0.0 0.0 
1.0 0.0 0.0 
1.0 0.0 0.0 
1.0 0.0 0.0 
1.0 0.0 0.0 
1.0 0.0 0.0 
1.0 0.0 0.0 
1.0 0.0 0.0 
1.0 0.0 0.0 
1.0 0.0 0.0 
1.0 0.0 0.0 
1.0 0.0 0.0 
1.0 0.0 0.0 
1.0 0.0 0.0 
1.0 0.0 0.0 
1.0 0.0 0.0 
1.0 0.0 0.0 
1.0 0.0 0.0 
1.0 0.0 0.0 
1.0 0.0 0.0 
1.0 0.0 0.0 
1.0 0.0 0.0 
1.0 0.0 0.0 
0.0 1.0 0.0 
0.0 1.0 0.0 
0.0 1.0 0.0 
0.0 1.0 0.0 
0.0 1.0 0.0 
0.0 1.0 0.0 
0.0 1.0 0.0 
0.0 1.0 0.0 
0.0 1.0 0.0 
0.0 1.0 0.0 
0.0 1.0 0.0 
0.0 1.0 0.0 
0.0 1.0 0.0 
0.0 1.0 0.0 
0.0 1.0 0.0 
0.0 1.0 0.0 
0.0 1.0 0.0 
0.0 1.0 0.0 
0.0 1.0 0.0 
0.0 1.0 0.0 
0.0 1.0 0.0 
0.0 1.0 0.0 
0.0 1.0 0.0 
0.0 1.0 0.0 
0.0 1.0 0.0 
0.0 1.0 0.0 
0.0 1.0 0.0 
0.0 1.0 0.0 
0.0 1.0 0.0 
0.0 1.0 0.0 
0.0 1.0 0.0 
0.0 1.0 0.0 
0.0 1.0 0.0 
0.0 1.0 0.0 
0.0 1.0 0.0 
0.0 1.0 0.0 
0.0 1.0 0.0 
0.0 1.0 0.0 
0.0 1.0 0.0 
0.0 1.0 0.0 
0.0 1.0 0.0 
0.0 1.0 0.0 
0.0 1.0 0.0 
0.0 1.0 0.0 
0.0 1.0 0.0 
0.0 1.0 0.0 
0.0 1.0 0.0 
0.0 1.0 0.0 
0.0 1.0 0.0 
0.0 1.0 0.0 
0.0 0.0 1.0 
0.0 0.0 1.0 
0.0 0.0 1.0 
0.0 0.0 1.0 
0.0 0.0 1.0 
0.0 0.0 1.0 
0.0 0.0 1.0 
0.0 0.0 1.0 
0.0 0.0 1.0 
0.0 0.0 1.0 
0.0 0.0 1.0 
0.0 0.0 1.0 
0.0 0.0 1.0 
0.0 0.0 1.0 
0.0 0.0 1.0 
0.0 0.0 1.0 
0.0 0.0 1.0 
0.0 0.0 1.0 
0.0 0.0 1.0 
0.0 0.0 1.0 
0.0 0.0 1.0 
0.0 0.0 1.0 
0.0 0.0 1.0 
0.0 0.0 1.0 
0.0 0.0 1.0 
0.0 0.0 1.0 
0.0 0.0 1.0 
0.0 0.0 1.0 
0.0 0.0 1.0 
0.0 0.0 1.0 
0.0 0.0 1.0 
0.0 0.0 1.0 
0.0 0.0 1.0 
0.0 0.0 1.0 
0.0 0.0 1.0 
0.0 0.0 1.0 
0.0 0.0 1.0 
0.0 0.0 1.0 
0.0 0.0 1.0 
0.0 0.0 1.0 
0.0 0.0 1.0 
0.0 0.0 1.0 
0.0 0.0 1.0 
0.0 0.0 1.0 
0.0 0.0 1.0 
0.0 0.0 1.0 
0.0 0.0 1.0 
0.0 0.0 1.0 
0.0 0.0 1.0 
0.0 0.0 1.0 
Learning : 0.3499999940395355
Momentum : 0.9
Epoch: 100, Error: 0.013919188691029592
Epoch: 200, Error: 0.012508765601892298
Epoch: 300, Error: 0.015389765753748525
Epoch: 400, Error: 0.01194210143099706
Epoch: 500, Error: 0.012108778830364876
Epoch: 600, Error: 0.011983947303833013
Epoch: 700, Error: 0.012089636335650427
Epoch: 800, Error: 0.012894396525330427
Epoch: 900, Error: 0.012914712719159878
Epoch: 1000, Error: 0.012020854631953936
Epoch: 1100, Error: 0.012341102827308886
Epoch: 1200, Error: 0.012062282280102076
Epoch: 1300, Error: 0.012377845671601719
Epoch: 1400, Error: 0.01225453618418916
Epoch: 1500, Error: 0.012523773292945704
Epoch: 1600, Error: 0.011922515052861201
Epoch: 1700, Error: 0.01190787222184863
Epoch: 1800, Error: 0.012131636543690167
Epoch: 1900, Error: 0.012607898959482769
Epoch: 2000, Error: 0.011941212456623536
Epoch: 2100, Error: 0.011952225885219887
Epoch: 2200, Error: 0.011892847227076696
Epoch: 2300, Error: 0.011800863461527773
Epoch: 2400, Error: 0.011819082827912034
Epoch: 2500, Error: 0.011788424483951442
Epoch: 2600, Error: 0.011827348581735906
Epoch: 2700, Error: 0.012509959496137174
Epoch: 2800, Error: 0.011852690895160766
Epoch: 2900, Error: 0.01190192491387207
Epoch: 3000, Error: 0.012495593738981847
Epoch: 3100, Error: 0.012141312215436408
Epoch: 3200, Error: 0.011950145836877464
Epoch: 3300, Error: 0.01195078902081728
Epoch: 3400, Error: 0.011937677073314858
Epoch: 3500, Error: 0.011915006171027408
Epoch: 3600, Error: 0.011865738000487097
Epoch: 3700, Error: 0.011899293179693486
Epoch: 3800, Error: 0.011971411175441834
Epoch: 3900, Error: 0.01186628157348542
Epoch: 4000, Error: 0.011962220924239599
Epoch: 4100, Error: 0.011886185043671366
Epoch: 4200, Error: 0.012654593484486205
Epoch: 4300, Error: 0.011939134614272788
Epoch: 4400, Error: 0.012148951453268558
Epoch: 4500, Error: 0.011999362827396939
Epoch: 4600, Error: 0.01194697988261237
Epoch: 4700, Error: 0.012021481023080616
Epoch: 4800, Error: 0.012162798880379046
Epoch: 4900, Error: 0.01239795613206742
Epoch: 5000, Error: 0.012065841409591811
Epoch: 5100, Error: 0.011946764586855294
Epoch: 5200, Error: 0.012277301908383343
Epoch: 5300, Error: 0.011995364588308256
Epoch: 5400, Error: 0.012006859941723298
Epoch: 5500, Error: 0.012058298160287749
Epoch: 5600, Error: 0.011955312133839028
Epoch: 5700, Error: 0.012074019030860918
Epoch: 5800, Error: 0.012087434546922465
Epoch: 5900, Error: 0.011949661693995629
Epoch: 6000, Error: 0.012004873891092291
Epoch: 6100, Error: 0.011915522469979884
Epoch: 6200, Error: 0.011916544566323732
Epoch: 6300, Error: 0.011953141273385618
Epoch: 6400, Error: 0.01184712473398244
Epoch: 6500, Error: 0.012072033238336067
Epoch: 6600, Error: 0.011864437280435762
Epoch: 6700, Error: 0.012029701472590602
Epoch: 6800, Error: 0.011831818545634823
Epoch: 6900, Error: 0.011779626166076638
Epoch: 7000, Error: 0.011824580305179098
Epoch: 7100, Error: 0.011642142310817285
Epoch: 7200, Error: 0.01180475003419563
Epoch: 7300, Error: 0.011657823676320797
Epoch: 7400, Error: 0.011588407526699464
Epoch: 7500, Error: 0.011599328805235037
Epoch: 7600, Error: 0.011556132316100372
Epoch: 7700, Error: 0.011507017581813894
Epoch: 7800, Error: 0.011551115630796579
Epoch: 7900, Error: 0.011826899928604116
Epoch: 8000, Error: 0.011347541626788846
Epoch: 8100, Error: 0.011300126933327524
Epoch: 8200, Error: 0.011439237782346061
Epoch: 8300, Error: 0.011276980636838088
Epoch: 8400, Error: 0.01120958324483512
Epoch: 8500, Error: 0.011269240264866613
Epoch: 8600, Error: 0.011164119863104586
Epoch: 8700, Error: 0.01378759405148583
Epoch: 8800, Error: 0.011088523784375224
Epoch: 8900, Error: 0.011028854464017345
Epoch: 9000, Error: 0.011229469609724207
Epoch: 9100, Error: 0.011109545211270309
Epoch: 9200, Error: 0.010982096857958637
Epoch: 9300, Error: 0.010953050831234202
Epoch: 9400, Error: 0.010805899323181316
Epoch: 9500, Error: 0.011892936409647527
Epoch: 9600, Error: 0.01068143808376519
Epoch: 9700, Error: 0.010719634945319537
Epoch: 9800, Error: 0.010659435487996421
Epoch: 9900, Error: 0.010555829216543593
Epoch: 10000, Error: 0.010642740099174005
Epoch: 10100, Error: 0.010460869891347792
Epoch: 10200, Error: 0.010400439186766133
Epoch: 10300, Error: 0.010360067437930678
Epoch: 10400, Error: 0.010330786015261563
Epoch: 10500, Error: 0.010171287520668829
Epoch: 10600, Error: 0.010384915888195368
Epoch: 10700, Error: 0.010107068133851729
Epoch: 10800, Error: 0.010047731723706372
Epoch: 10900, Error: 0.010114047278385194
Epoch: 11000, Error: 0.010072844125498697
Epoch: 11100, Error: 0.01002110688090523
Epoch: 11200, Error: 0.009935240321450808
Epoch: 11300, Error: 0.009935117268595039
Epoch: 11400, Error: 0.009911223851764732
Epoch: 11500, Error: 0.009903936641991833
Epoch: 11600, Error: 0.009840479104422132
Epoch: 11700, Error: 0.009826698297574954
Epoch: 11800, Error: 0.009813856965498071
Epoch: 11900, Error: 0.009837934266999864
Epoch: 12000, Error: 0.009839173573380792
Epoch: 12100, Error: 0.009779188115183452
Epoch: 12200, Error: 0.009814257306024596
Epoch: 12300, Error: 0.009782952712512914
Epoch: 12400, Error: 0.009796009246606422
Epoch: 12500, Error: 0.009749465357943398
Epoch: 12600, Error: 0.00976135061229733
Epoch: 12700, Error: 0.009713760434512544
Epoch: 12800, Error: 0.009699505254599323
Epoch: 12900, Error: 0.009690493638336036
Epoch: 13000, Error: 0.009729810098560695
Epoch: 13100, Error: 0.009714786233466595
Epoch: 13200, Error: 0.009677856844790772
Epoch: 13300, Error: 0.009648464737768517
Epoch: 13400, Error: 0.009647117984418078
Epoch: 13500, Error: 0.009640795076883106
Epoch: 13600, Error: 0.009608745518543594
Epoch: 13700, Error: 0.009608626757907671
Epoch: 13800, Error: 0.009663026091404552
Epoch: 13900, Error: 0.009617993850746832
Epoch: 14000, Error: 0.009613756190416985
Epoch: 14100, Error: 0.009594353619394475
Epoch: 14200, Error: 0.00959175553505208
Epoch: 14300, Error: 0.009582359787950386
Epoch: 14400, Error: 0.009569433639276443
Epoch: 14500, Error: 0.009585010726469244
Epoch: 14600, Error: 0.009589275681465448
Epoch: 14700, Error: 0.009584514049118167
Epoch: 14800, Error: 0.00957779763067285
Epoch: 14900, Error: 0.00960394790112311
Epoch: 15000, Error: 0.00960909442020403
Epoch: 15100, Error: 0.0095845899034762
Epoch: 15200, Error: 0.009533155687403764
Epoch: 15300, Error: 0.009581519139581343
Epoch: 15400, Error: 0.009544284749291181
Epoch: 15500, Error: 0.00954967881098123
Epoch: 15600, Error: 0.009585979031319334
Epoch: 15700, Error: 0.00962325386445441
Epoch: 15800, Error: 0.009574608733532752
Epoch: 15900, Error: 0.00961206400428971
Epoch: 16000, Error: 0.009559600158034517
Finished
