Input Patterns
0.224 0.624 0.067 0.043 
0.11 0.502 0.051 0.043 
0.196 0.667 0.067 0.043 
0.055 0.584 0.067 0.082 
0.027 0.376 0.067 0.043 
0.306 0.71 0.086 0.043 
0.137 0.416 0.067 0.0 
0.416 0.831 0.035 0.043 
0.306 0.792 0.051 0.125 
0.388 0.749 0.118 0.082 
0.306 0.584 0.118 0.043 
0.082 0.667 0.0 0.043 
0.137 0.584 0.153 0.043 
0.196 0.584 0.102 0.125 
0.251 0.584 0.067 0.043 
0.137 0.459 0.102 0.043 
0.251 0.875 0.086 0.0 
0.165 0.459 0.086 0.043 
0.333 0.624 0.051 0.043 
0.027 0.416 0.051 0.043 
0.196 0.624 0.051 0.082 
0.027 0.502 0.051 0.043 
0.224 0.749 0.153 0.125 
0.224 0.749 0.102 0.043 
0.278 0.71 0.086 0.043 
0.165 0.416 0.067 0.043 
0.082 0.459 0.086 0.043 
0.306 0.792 0.118 0.125 
0.196 0.584 0.086 0.043 
0.165 0.459 0.086 0.0 
0.137 0.584 0.102 0.043 
0.0 0.416 0.016 0.0 
0.388 1.0 0.086 0.125 
0.224 0.624 0.067 0.082 
0.224 0.749 0.086 0.082 
0.224 0.71 0.086 0.125 
0.224 0.541 0.118 0.165 
0.196 0.416 0.102 0.043 
0.251 0.624 0.086 0.043 
0.11 0.502 0.102 0.043 
0.306 0.584 0.086 0.125 
0.333 0.918 0.067 0.043 
0.196 0.502 0.035 0.043 
0.165 0.667 0.067 0.0 
0.224 0.584 0.086 0.043 
0.055 0.125 0.051 0.082 
0.196 0.624 0.102 0.208 
0.137 0.416 0.067 0.082 
0.082 0.502 0.067 0.043 
0.196 0.541 0.067 0.043 
0.749 0.502 0.627 0.541 
0.722 0.459 0.663 0.584 
0.612 0.333 0.612 0.584 
0.557 0.541 0.627 0.624 
0.639 0.376 0.612 0.498 
0.196 0.0 0.424 0.376 
0.471 0.082 0.51 0.376 
0.361 0.376 0.439 0.498 
0.361 0.416 0.592 0.584 
0.529 0.082 0.592 0.584 
0.443 0.502 0.643 0.459 
0.557 0.208 0.663 0.584 
0.584 0.376 0.561 0.498 
0.694 0.333 0.643 0.541 
0.471 0.376 0.592 0.584 
0.333 0.169 0.475 0.416 
0.416 0.29 0.49 0.459 
0.306 0.416 0.592 0.584 
0.667 0.459 0.627 0.584 
0.361 0.416 0.525 0.498 
0.333 0.251 0.576 0.459 
0.416 0.251 0.51 0.459 
0.361 0.29 0.541 0.498 
0.388 0.376 0.541 0.498 
0.224 0.208 0.337 0.416 
0.584 0.502 0.592 0.584 
0.333 0.125 0.51 0.498 
0.388 0.333 0.592 0.498 
0.165 0.169 0.388 0.376 
0.251 0.29 0.49 0.541 
0.443 0.416 0.541 0.584 
0.498 0.376 0.627 0.541 
0.667 0.459 0.576 0.541 
0.416 0.29 0.525 0.376 
0.361 0.208 0.49 0.416 
0.498 0.333 0.51 0.498 
0.498 0.333 0.627 0.459 
0.639 0.416 0.576 0.541 
0.667 0.416 0.678 0.667 
0.388 0.251 0.424 0.376 
0.333 0.169 0.459 0.376 
0.471 0.29 0.694 0.624 
0.471 0.584 0.592 0.624 
0.557 0.125 0.576 0.498 
0.333 0.208 0.51 0.498 
0.498 0.416 0.612 0.541 
0.196 0.125 0.388 0.376 
0.388 0.416 0.541 0.459 
0.529 0.376 0.561 0.498 
0.388 0.333 0.525 0.498 
0.557 0.541 0.847 1.0 
0.776 0.416 0.831 0.831 
0.612 0.416 0.812 0.875 
0.165 0.208 0.592 0.667 
0.667 0.208 0.812 0.71 
0.612 0.502 0.694 0.792 
0.694 0.416 0.761 0.831 
0.416 0.333 0.694 0.957 
0.612 0.416 0.761 0.71 
0.945 0.251 1.0 0.918 
0.722 0.502 0.796 0.918 
0.945 0.333 0.965 0.792 
0.667 0.541 0.796 0.831 
0.529 0.333 0.643 0.71 
0.584 0.333 0.78 0.831 
0.863 0.333 0.863 0.749 
0.584 0.333 0.78 0.875 
0.498 0.251 0.78 0.541 
0.557 0.584 0.78 0.957 
0.471 0.416 0.643 0.71 
0.667 0.459 0.78 0.957 
0.416 0.29 0.694 0.749 
0.667 0.541 0.796 1.0 
0.557 0.208 0.678 0.749 
0.529 0.584 0.745 0.918 
0.416 0.29 0.694 0.749 
0.557 0.376 0.78 0.71 
0.918 0.416 0.949 0.831 
0.835 0.376 0.898 0.71 
0.804 0.667 0.863 1.0 
0.584 0.29 0.729 0.749 
0.388 0.208 0.678 0.792 
0.584 0.502 0.729 0.918 
0.945 0.749 0.965 0.875 
0.471 0.082 0.678 0.584 
0.361 0.333 0.663 0.792 
0.557 0.29 0.663 0.71 
0.804 0.502 0.847 0.71 
0.498 0.416 0.51 0.71 
0.804 0.416 0.812 0.624 
1.0 0.749 0.914 0.792 
0.557 0.333 0.694 0.584 
0.945 0.416 0.863 0.918 
0.584 0.459 0.761 0.71 
0.722 0.459 0.745 0.831 
0.722 0.459 0.694 0.918 
0.694 0.502 0.831 0.918 
0.667 0.416 0.714 0.918 
0.612 0.416 0.714 0.792 
0.443 0.416 0.694 0.71 
Teaching Patterns
1.0 0.0 0.0 
1.0 0.0 0.0 
1.0 0.0 0.0 
1.0 0.0 0.0 
1.0 0.0 0.0 
1.0 0.0 0.0 
1.0 0.0 0.0 
1.0 0.0 0.0 
1.0 0.0 0.0 
1.0 0.0 0.0 
1.0 0.0 0.0 
1.0 0.0 0.0 
1.0 0.0 0.0 
1.0 0.0 0.0 
1.0 0.0 0.0 
1.0 0.0 0.0 
1.0 0.0 0.0 
1.0 0.0 0.0 
1.0 0.0 0.0 
1.0 0.0 0.0 
1.0 0.0 0.0 
1.0 0.0 0.0 
1.0 0.0 0.0 
1.0 0.0 0.0 
1.0 0.0 0.0 
1.0 0.0 0.0 
1.0 0.0 0.0 
1.0 0.0 0.0 
1.0 0.0 0.0 
1.0 0.0 0.0 
1.0 0.0 0.0 
1.0 0.0 0.0 
1.0 0.0 0.0 
1.0 0.0 0.0 
1.0 0.0 0.0 
1.0 0.0 0.0 
1.0 0.0 0.0 
1.0 0.0 0.0 
1.0 0.0 0.0 
1.0 0.0 0.0 
1.0 0.0 0.0 
1.0 0.0 0.0 
1.0 0.0 0.0 
1.0 0.0 0.0 
1.0 0.0 0.0 
1.0 0.0 0.0 
1.0 0.0 0.0 
1.0 0.0 0.0 
1.0 0.0 0.0 
1.0 0.0 0.0 
0.0 1.0 0.0 
0.0 1.0 0.0 
0.0 1.0 0.0 
0.0 1.0 0.0 
0.0 1.0 0.0 
0.0 1.0 0.0 
0.0 1.0 0.0 
0.0 1.0 0.0 
0.0 1.0 0.0 
0.0 1.0 0.0 
0.0 1.0 0.0 
0.0 1.0 0.0 
0.0 1.0 0.0 
0.0 1.0 0.0 
0.0 1.0 0.0 
0.0 1.0 0.0 
0.0 1.0 0.0 
0.0 1.0 0.0 
0.0 1.0 0.0 
0.0 1.0 0.0 
0.0 1.0 0.0 
0.0 1.0 0.0 
0.0 1.0 0.0 
0.0 1.0 0.0 
0.0 1.0 0.0 
0.0 1.0 0.0 
0.0 1.0 0.0 
0.0 1.0 0.0 
0.0 1.0 0.0 
0.0 1.0 0.0 
0.0 1.0 0.0 
0.0 1.0 0.0 
0.0 1.0 0.0 
0.0 1.0 0.0 
0.0 1.0 0.0 
0.0 1.0 0.0 
0.0 1.0 0.0 
0.0 1.0 0.0 
0.0 1.0 0.0 
0.0 1.0 0.0 
0.0 1.0 0.0 
0.0 1.0 0.0 
0.0 1.0 0.0 
0.0 1.0 0.0 
0.0 1.0 0.0 
0.0 1.0 0.0 
0.0 1.0 0.0 
0.0 1.0 0.0 
0.0 1.0 0.0 
0.0 1.0 0.0 
0.0 0.0 1.0 
0.0 0.0 1.0 
0.0 0.0 1.0 
0.0 0.0 1.0 
0.0 0.0 1.0 
0.0 0.0 1.0 
0.0 0.0 1.0 
0.0 0.0 1.0 
0.0 0.0 1.0 
0.0 0.0 1.0 
0.0 0.0 1.0 
0.0 0.0 1.0 
0.0 0.0 1.0 
0.0 0.0 1.0 
0.0 0.0 1.0 
0.0 0.0 1.0 
0.0 0.0 1.0 
0.0 0.0 1.0 
0.0 0.0 1.0 
0.0 0.0 1.0 
0.0 0.0 1.0 
0.0 0.0 1.0 
0.0 0.0 1.0 
0.0 0.0 1.0 
0.0 0.0 1.0 
0.0 0.0 1.0 
0.0 0.0 1.0 
0.0 0.0 1.0 
0.0 0.0 1.0 
0.0 0.0 1.0 
0.0 0.0 1.0 
0.0 0.0 1.0 
0.0 0.0 1.0 
0.0 0.0 1.0 
0.0 0.0 1.0 
0.0 0.0 1.0 
0.0 0.0 1.0 
0.0 0.0 1.0 
0.0 0.0 1.0 
0.0 0.0 1.0 
0.0 0.0 1.0 
0.0 0.0 1.0 
0.0 0.0 1.0 
0.0 0.0 1.0 
0.0 0.0 1.0 
0.0 0.0 1.0 
0.0 0.0 1.0 
0.0 0.0 1.0 
0.0 0.0 1.0 
0.0 0.0 1.0 
Learning : 0.3499999940395355
Momentum : 0.9
Epoch: 100, Error: 0.012917252081845309
Epoch: 200, Error: 0.012265450725019736
Epoch: 300, Error: 0.012326828624886915
Epoch: 400, Error: 0.012359097301527901
Epoch: 500, Error: 0.013248551270307909
Epoch: 600, Error: 0.019313001351327592
Epoch: 700, Error: 0.013379972991656792
Epoch: 800, Error: 0.013020093007256168
Epoch: 900, Error: 0.013038249425282318
Epoch: 1000, Error: 0.011963287317268983
Epoch: 1100, Error: 0.012119451096098766
Epoch: 1200, Error: 0.011955088930485915
Epoch: 1300, Error: 0.011629812961839776
Epoch: 1400, Error: 0.014751193246140713
Epoch: 1500, Error: 0.011533990542690189
Epoch: 1600, Error: 0.01168157838227067
Epoch: 1700, Error: 0.011693594282562706
Epoch: 1800, Error: 0.011593600019660324
Epoch: 1900, Error: 0.011459112223143176
Epoch: 2000, Error: 0.011486397822722115
Epoch: 2100, Error: 0.011401786227515634
Epoch: 2200, Error: 0.011346129644902897
Epoch: 2300, Error: 0.01149351295051903
Epoch: 2400, Error: 0.011750476314697165
Epoch: 2500, Error: 0.011524518570511453
Epoch: 2600, Error: 0.011747786934784947
Epoch: 2700, Error: 0.01208997522225667
Epoch: 2800, Error: 0.010689801534958817
Epoch: 2900, Error: 0.010465188932121046
Epoch: 3000, Error: 0.010079228669305091
Epoch: 3100, Error: 0.010307047526770466
Epoch: 3200, Error: 0.011265659753518092
Epoch: 3300, Error: 0.009248849539026681
Epoch: 3400, Error: 0.009091232700633273
Epoch: 3500, Error: 0.008610294067287428
Epoch: 3600, Error: 0.008865223920362568
Epoch: 3700, Error: 0.009288384223720277
Epoch: 3800, Error: 0.00792369859991833
Epoch: 3900, Error: 0.008061126616188073
Epoch: 4000, Error: 0.0077977877652393515
Epoch: 4100, Error: 0.007619532236797458
Epoch: 4200, Error: 0.007474266784710131
Epoch: 4300, Error: 0.007294647040430494
Epoch: 4400, Error: 0.006971659555051172
Epoch: 4500, Error: 0.0067794239203195755
Epoch: 4600, Error: 0.006556839418999251
Epoch: 4700, Error: 0.006350754471823066
Epoch: 4800, Error: 0.006167289092549743
Epoch: 4900, Error: 0.006026370231957071
Epoch: 5000, Error: 0.0059950795958851975
Epoch: 5100, Error: 0.005928058901150663
Epoch: 5200, Error: 0.005873337526758639
Epoch: 5300, Error: 0.006020451621523493
Epoch: 5400, Error: 0.005809430130298643
Epoch: 5500, Error: 0.005828205314561495
Epoch: 5600, Error: 0.005875045569905682
Epoch: 5700, Error: 0.005808999124801014
Epoch: 5800, Error: 0.005665642469104312
Epoch: 5900, Error: 0.0058068081738292575
Epoch: 6000, Error: 0.005713480898766206
Epoch: 6100, Error: 0.005697481685496833
Epoch: 6200, Error: 0.00558827981333968
Epoch: 6300, Error: 0.005625305695414584
Epoch: 6400, Error: 0.005621506420969167
Epoch: 6500, Error: 0.005578963178392218
Epoch: 6600, Error: 0.005568133866696026
Epoch: 6700, Error: 0.005583206132170779
Epoch: 6800, Error: 0.005539203680321875
Epoch: 6900, Error: 0.005549044549153333
Epoch: 7000, Error: 0.005538021427986934
Epoch: 7100, Error: 0.005542957941448154
Epoch: 7200, Error: 0.0054943351902001026
Epoch: 7300, Error: 0.005479393283888635
Epoch: 7400, Error: 0.005450551253283811
Epoch: 7500, Error: 0.005417268495462555
Epoch: 7600, Error: 0.005412872051209649
Epoch: 7700, Error: 0.005408276597780145
Epoch: 7800, Error: 0.005446800541806805
Epoch: 7900, Error: 0.005422608059001838
Epoch: 8000, Error: 0.005422722396500195
Epoch: 8100, Error: 0.0054093869448308025
Epoch: 8200, Error: 0.005442991274436393
Epoch: 8300, Error: 0.005433611272117809
Epoch: 8400, Error: 0.005432107086550933
Epoch: 8500, Error: 0.0054404514632114005
Epoch: 8600, Error: 0.005442102385663649
Epoch: 8700, Error: 0.005441719155936394
Epoch: 8800, Error: 0.005451035820057904
Epoch: 8900, Error: 0.005473284714544145
Epoch: 9000, Error: 0.005469207390339194
Epoch: 9100, Error: 0.00549466328085053
Epoch: 9200, Error: 0.0054844104616138456
Epoch: 9300, Error: 0.005485469441128683
Epoch: 9400, Error: 0.005485432162163618
Epoch: 9500, Error: 0.005483928918844654
Epoch: 9600, Error: 0.0054853625337377325
Epoch: 9700, Error: 0.00550641683611524
Epoch: 9800, Error: 0.0054769156525306005
Epoch: 9900, Error: 0.005488561385358581
Epoch: 10000, Error: 0.005494260914564355
Epoch: 10100, Error: 0.005494672645727452
Epoch: 10200, Error: 0.0054178906469652425
Epoch: 10300, Error: 0.005355843394098812
Epoch: 10400, Error: 0.005342413874805917
Epoch: 10500, Error: 0.005329081821878507
Epoch: 10600, Error: 0.0053259742891918855
Epoch: 10700, Error: 0.005322051951022536
Epoch: 10800, Error: 0.005318769916335579
Epoch: 10900, Error: 0.005319048125019683
Epoch: 11000, Error: 0.005294668389526315
Epoch: 11100, Error: 0.005283647708138492
Epoch: 11200, Error: 0.0052814346383006465
Epoch: 11300, Error: 0.005279530980822221
Epoch: 11400, Error: 0.005267737580776826
Epoch: 11500, Error: 0.005257759912074831
Epoch: 11600, Error: 0.005260034108991773
Epoch: 11700, Error: 0.005254231693829192
Epoch: 11800, Error: 0.005257612829191226
Epoch: 11900, Error: 0.00525026925313914
Epoch: 12000, Error: 0.005247276894836557
Finished
