Input Patterns
0.224 0.624 0.067 0.043 
0.11 0.502 0.051 0.043 
0.196 0.667 0.067 0.043 
0.055 0.584 0.067 0.082 
0.027 0.376 0.067 0.043 
0.306 0.71 0.086 0.043 
0.137 0.416 0.067 0.0 
0.416 0.831 0.035 0.043 
0.306 0.792 0.051 0.125 
0.388 0.749 0.118 0.082 
0.306 0.584 0.118 0.043 
0.082 0.667 0.0 0.043 
0.137 0.584 0.153 0.043 
0.196 0.584 0.102 0.125 
0.251 0.584 0.067 0.043 
0.137 0.459 0.102 0.043 
0.251 0.875 0.086 0.0 
0.165 0.459 0.086 0.043 
0.333 0.624 0.051 0.043 
0.027 0.416 0.051 0.043 
0.196 0.624 0.051 0.082 
0.027 0.502 0.051 0.043 
0.224 0.749 0.153 0.125 
0.224 0.749 0.102 0.043 
0.278 0.71 0.086 0.043 
0.165 0.416 0.067 0.043 
0.082 0.459 0.086 0.043 
0.306 0.792 0.118 0.125 
0.196 0.584 0.086 0.043 
0.165 0.459 0.086 0.0 
0.137 0.584 0.102 0.043 
0.0 0.416 0.016 0.0 
0.388 1.0 0.086 0.125 
0.224 0.624 0.067 0.082 
0.224 0.749 0.086 0.082 
0.224 0.71 0.086 0.125 
0.224 0.541 0.118 0.165 
0.196 0.416 0.102 0.043 
0.251 0.624 0.086 0.043 
0.11 0.502 0.102 0.043 
0.306 0.584 0.086 0.125 
0.333 0.918 0.067 0.043 
0.196 0.502 0.035 0.043 
0.165 0.667 0.067 0.0 
0.224 0.584 0.086 0.043 
0.055 0.125 0.051 0.082 
0.196 0.624 0.102 0.208 
0.137 0.416 0.067 0.082 
0.082 0.502 0.067 0.043 
0.196 0.541 0.067 0.043 
0.749 0.502 0.627 0.541 
0.722 0.459 0.663 0.584 
0.612 0.333 0.612 0.584 
0.557 0.541 0.627 0.624 
0.639 0.376 0.612 0.498 
0.196 0.0 0.424 0.376 
0.471 0.082 0.51 0.376 
0.361 0.376 0.439 0.498 
0.361 0.416 0.592 0.584 
0.529 0.082 0.592 0.584 
0.443 0.502 0.643 0.459 
0.557 0.208 0.663 0.584 
0.584 0.376 0.561 0.498 
0.694 0.333 0.643 0.541 
0.471 0.376 0.592 0.584 
0.333 0.169 0.475 0.416 
0.416 0.29 0.49 0.459 
0.306 0.416 0.592 0.584 
0.667 0.459 0.627 0.584 
0.361 0.416 0.525 0.498 
0.333 0.251 0.576 0.459 
0.416 0.251 0.51 0.459 
0.361 0.29 0.541 0.498 
0.388 0.376 0.541 0.498 
0.224 0.208 0.337 0.416 
0.584 0.502 0.592 0.584 
0.333 0.125 0.51 0.498 
0.388 0.333 0.592 0.498 
0.165 0.169 0.388 0.376 
0.251 0.29 0.49 0.541 
0.443 0.416 0.541 0.584 
0.498 0.376 0.627 0.541 
0.667 0.459 0.576 0.541 
0.416 0.29 0.525 0.376 
0.361 0.208 0.49 0.416 
0.498 0.333 0.51 0.498 
0.498 0.333 0.627 0.459 
0.639 0.416 0.576 0.541 
0.667 0.416 0.678 0.667 
0.388 0.251 0.424 0.376 
0.333 0.169 0.459 0.376 
0.471 0.29 0.694 0.624 
0.471 0.584 0.592 0.624 
0.557 0.125 0.576 0.498 
0.333 0.208 0.51 0.498 
0.498 0.416 0.612 0.541 
0.196 0.125 0.388 0.376 
0.388 0.416 0.541 0.459 
0.529 0.376 0.561 0.498 
0.388 0.333 0.525 0.498 
0.557 0.541 0.847 1.0 
0.776 0.416 0.831 0.831 
0.612 0.416 0.812 0.875 
0.165 0.208 0.592 0.667 
0.667 0.208 0.812 0.71 
0.612 0.502 0.694 0.792 
0.694 0.416 0.761 0.831 
0.416 0.333 0.694 0.957 
0.612 0.416 0.761 0.71 
0.945 0.251 1.0 0.918 
0.722 0.502 0.796 0.918 
0.945 0.333 0.965 0.792 
0.667 0.541 0.796 0.831 
0.529 0.333 0.643 0.71 
0.584 0.333 0.78 0.831 
0.863 0.333 0.863 0.749 
0.584 0.333 0.78 0.875 
0.498 0.251 0.78 0.541 
0.557 0.584 0.78 0.957 
0.471 0.416 0.643 0.71 
0.667 0.459 0.78 0.957 
0.416 0.29 0.694 0.749 
0.667 0.541 0.796 1.0 
0.557 0.208 0.678 0.749 
0.529 0.584 0.745 0.918 
0.416 0.29 0.694 0.749 
0.557 0.376 0.78 0.71 
0.918 0.416 0.949 0.831 
0.835 0.376 0.898 0.71 
0.804 0.667 0.863 1.0 
0.584 0.29 0.729 0.749 
0.388 0.208 0.678 0.792 
0.584 0.502 0.729 0.918 
0.945 0.749 0.965 0.875 
0.471 0.082 0.678 0.584 
0.361 0.333 0.663 0.792 
0.557 0.29 0.663 0.71 
0.804 0.502 0.847 0.71 
0.498 0.416 0.51 0.71 
0.804 0.416 0.812 0.624 
1.0 0.749 0.914 0.792 
0.557 0.333 0.694 0.584 
0.945 0.416 0.863 0.918 
0.584 0.459 0.761 0.71 
0.722 0.459 0.745 0.831 
0.722 0.459 0.694 0.918 
0.694 0.502 0.831 0.918 
0.667 0.416 0.714 0.918 
0.612 0.416 0.714 0.792 
0.443 0.416 0.694 0.71 
Teaching Patterns
1.0 0.0 0.0 
1.0 0.0 0.0 
1.0 0.0 0.0 
1.0 0.0 0.0 
1.0 0.0 0.0 
1.0 0.0 0.0 
1.0 0.0 0.0 
1.0 0.0 0.0 
1.0 0.0 0.0 
1.0 0.0 0.0 
1.0 0.0 0.0 
1.0 0.0 0.0 
1.0 0.0 0.0 
1.0 0.0 0.0 
1.0 0.0 0.0 
1.0 0.0 0.0 
1.0 0.0 0.0 
1.0 0.0 0.0 
1.0 0.0 0.0 
1.0 0.0 0.0 
1.0 0.0 0.0 
1.0 0.0 0.0 
1.0 0.0 0.0 
1.0 0.0 0.0 
1.0 0.0 0.0 
1.0 0.0 0.0 
1.0 0.0 0.0 
1.0 0.0 0.0 
1.0 0.0 0.0 
1.0 0.0 0.0 
1.0 0.0 0.0 
1.0 0.0 0.0 
1.0 0.0 0.0 
1.0 0.0 0.0 
1.0 0.0 0.0 
1.0 0.0 0.0 
1.0 0.0 0.0 
1.0 0.0 0.0 
1.0 0.0 0.0 
1.0 0.0 0.0 
1.0 0.0 0.0 
1.0 0.0 0.0 
1.0 0.0 0.0 
1.0 0.0 0.0 
1.0 0.0 0.0 
1.0 0.0 0.0 
1.0 0.0 0.0 
1.0 0.0 0.0 
1.0 0.0 0.0 
1.0 0.0 0.0 
0.0 1.0 0.0 
0.0 1.0 0.0 
0.0 1.0 0.0 
0.0 1.0 0.0 
0.0 1.0 0.0 
0.0 1.0 0.0 
0.0 1.0 0.0 
0.0 1.0 0.0 
0.0 1.0 0.0 
0.0 1.0 0.0 
0.0 1.0 0.0 
0.0 1.0 0.0 
0.0 1.0 0.0 
0.0 1.0 0.0 
0.0 1.0 0.0 
0.0 1.0 0.0 
0.0 1.0 0.0 
0.0 1.0 0.0 
0.0 1.0 0.0 
0.0 1.0 0.0 
0.0 1.0 0.0 
0.0 1.0 0.0 
0.0 1.0 0.0 
0.0 1.0 0.0 
0.0 1.0 0.0 
0.0 1.0 0.0 
0.0 1.0 0.0 
0.0 1.0 0.0 
0.0 1.0 0.0 
0.0 1.0 0.0 
0.0 1.0 0.0 
0.0 1.0 0.0 
0.0 1.0 0.0 
0.0 1.0 0.0 
0.0 1.0 0.0 
0.0 1.0 0.0 
0.0 1.0 0.0 
0.0 1.0 0.0 
0.0 1.0 0.0 
0.0 1.0 0.0 
0.0 1.0 0.0 
0.0 1.0 0.0 
0.0 1.0 0.0 
0.0 1.0 0.0 
0.0 1.0 0.0 
0.0 1.0 0.0 
0.0 1.0 0.0 
0.0 1.0 0.0 
0.0 1.0 0.0 
0.0 1.0 0.0 
0.0 0.0 1.0 
0.0 0.0 1.0 
0.0 0.0 1.0 
0.0 0.0 1.0 
0.0 0.0 1.0 
0.0 0.0 1.0 
0.0 0.0 1.0 
0.0 0.0 1.0 
0.0 0.0 1.0 
0.0 0.0 1.0 
0.0 0.0 1.0 
0.0 0.0 1.0 
0.0 0.0 1.0 
0.0 0.0 1.0 
0.0 0.0 1.0 
0.0 0.0 1.0 
0.0 0.0 1.0 
0.0 0.0 1.0 
0.0 0.0 1.0 
0.0 0.0 1.0 
0.0 0.0 1.0 
0.0 0.0 1.0 
0.0 0.0 1.0 
0.0 0.0 1.0 
0.0 0.0 1.0 
0.0 0.0 1.0 
0.0 0.0 1.0 
0.0 0.0 1.0 
0.0 0.0 1.0 
0.0 0.0 1.0 
0.0 0.0 1.0 
0.0 0.0 1.0 
0.0 0.0 1.0 
0.0 0.0 1.0 
0.0 0.0 1.0 
0.0 0.0 1.0 
0.0 0.0 1.0 
0.0 0.0 1.0 
0.0 0.0 1.0 
0.0 0.0 1.0 
0.0 0.0 1.0 
0.0 0.0 1.0 
0.0 0.0 1.0 
0.0 0.0 1.0 
0.0 0.0 1.0 
0.0 0.0 1.0 
0.0 0.0 1.0 
0.0 0.0 1.0 
0.0 0.0 1.0 
0.0 0.0 1.0 
Learning : 0.3499999940395355
Momentum : 0.9
Epoch: 100, Error: 0.012698741413652416
Epoch: 200, Error: 0.014158667899299504
Epoch: 300, Error: 0.011761222367649262
Epoch: 400, Error: 0.011806606664895788
Epoch: 500, Error: 0.01443630255555375
Epoch: 600, Error: 0.012497122447898709
Epoch: 700, Error: 0.01223745824904445
Epoch: 800, Error: 0.01220259271178948
Epoch: 900, Error: 0.011964442335141752
Epoch: 1000, Error: 0.01185230323728839
Epoch: 1100, Error: 0.011696879687983995
Epoch: 1200, Error: 0.011697409062999146
Epoch: 1300, Error: 0.011949638095536702
Epoch: 1400, Error: 0.012316889496620126
Epoch: 1500, Error: 0.011592046048934601
Epoch: 1600, Error: 0.011538298369103302
Epoch: 1700, Error: 0.01141725768560385
Epoch: 1800, Error: 0.011311405481890652
Epoch: 1900, Error: 0.011253721400850793
Epoch: 2000, Error: 0.011010343079543919
Epoch: 2100, Error: 0.011004900722450927
Epoch: 2200, Error: 0.010584696010961459
Epoch: 2300, Error: 0.010865472227947705
Epoch: 2400, Error: 0.010254398658459287
Epoch: 2500, Error: 0.011876211380807392
Epoch: 2600, Error: 0.009815128240082996
Epoch: 2700, Error: 0.010232472925510798
Epoch: 2800, Error: 0.010118034760898554
Epoch: 2900, Error: 0.008620801929522177
Epoch: 3000, Error: 0.008129881259205737
Epoch: 3100, Error: 0.007802217314983331
Epoch: 3200, Error: 0.006722907636619178
Epoch: 3300, Error: 0.006348968597725558
Epoch: 3400, Error: 0.006036677029172492
Epoch: 3500, Error: 0.006306038994402003
Epoch: 3600, Error: 0.005605052146107073
Epoch: 3700, Error: 0.005766811088218447
Epoch: 3800, Error: 0.0053070656982967005
Epoch: 3900, Error: 0.005416953988642877
Epoch: 4000, Error: 0.005256055939053701
Epoch: 4100, Error: 0.005423343099288468
Epoch: 4200, Error: 0.005300901153794729
Epoch: 4300, Error: 0.005239094714693852
Epoch: 4400, Error: 0.005289003811849669
Epoch: 4500, Error: 0.00529366675057695
Epoch: 4600, Error: 0.005419607331639114
Epoch: 4700, Error: 0.005340378336319007
Epoch: 4800, Error: 0.0054379973451463125
Epoch: 4900, Error: 0.005518206482554301
Epoch: 5000, Error: 0.0055101515141437974
Epoch: 5100, Error: 0.005546569733385756
Epoch: 5200, Error: 0.005734445650980642
Epoch: 5300, Error: 0.005720781161957176
Epoch: 5400, Error: 0.005795437425809255
Epoch: 5500, Error: 0.0058032330086106336
Epoch: 5600, Error: 0.005894916941888806
Epoch: 5700, Error: 0.005817810444499642
Epoch: 5800, Error: 0.005817687626881291
Epoch: 5900, Error: 0.005808739734516832
Epoch: 6000, Error: 0.005826106767931511
Epoch: 6100, Error: 0.0057947817331354965
Epoch: 6200, Error: 0.0057666385884937435
Epoch: 6300, Error: 0.00576303813428543
Epoch: 6400, Error: 0.005753139923211245
Epoch: 6500, Error: 0.005772677074971217
Epoch: 6600, Error: 0.00572725170093105
Finished
