Input Patterns
0.224 0.624 0.067 0.043 
0.11 0.502 0.051 0.043 
0.196 0.667 0.067 0.043 
0.055 0.584 0.067 0.082 
0.027 0.376 0.067 0.043 
0.306 0.71 0.086 0.043 
0.137 0.416 0.067 0.0 
0.416 0.831 0.035 0.043 
0.306 0.792 0.051 0.125 
0.388 0.749 0.118 0.082 
0.306 0.584 0.118 0.043 
0.082 0.667 0.0 0.043 
0.137 0.584 0.153 0.043 
0.196 0.584 0.102 0.125 
0.251 0.584 0.067 0.043 
0.137 0.459 0.102 0.043 
0.251 0.875 0.086 0.0 
0.165 0.459 0.086 0.043 
0.333 0.624 0.051 0.043 
0.027 0.416 0.051 0.043 
0.196 0.624 0.051 0.082 
0.027 0.502 0.051 0.043 
0.224 0.749 0.153 0.125 
0.224 0.749 0.102 0.043 
0.278 0.71 0.086 0.043 
0.165 0.416 0.067 0.043 
0.082 0.459 0.086 0.043 
0.306 0.792 0.118 0.125 
0.196 0.584 0.086 0.043 
0.165 0.459 0.086 0.0 
0.137 0.584 0.102 0.043 
0.0 0.416 0.016 0.0 
0.388 1.0 0.086 0.125 
0.224 0.624 0.067 0.082 
0.224 0.749 0.086 0.082 
0.224 0.71 0.086 0.125 
0.224 0.541 0.118 0.165 
0.196 0.416 0.102 0.043 
0.251 0.624 0.086 0.043 
0.11 0.502 0.102 0.043 
0.306 0.584 0.086 0.125 
0.333 0.918 0.067 0.043 
0.196 0.502 0.035 0.043 
0.165 0.667 0.067 0.0 
0.224 0.584 0.086 0.043 
0.055 0.125 0.051 0.082 
0.196 0.624 0.102 0.208 
0.137 0.416 0.067 0.082 
0.082 0.502 0.067 0.043 
0.196 0.541 0.067 0.043 
0.749 0.502 0.627 0.541 
0.722 0.459 0.663 0.584 
0.612 0.333 0.612 0.584 
0.557 0.541 0.627 0.624 
0.639 0.376 0.612 0.498 
0.196 0.0 0.424 0.376 
0.471 0.082 0.51 0.376 
0.361 0.376 0.439 0.498 
0.361 0.416 0.592 0.584 
0.529 0.082 0.592 0.584 
0.443 0.502 0.643 0.459 
0.557 0.208 0.663 0.584 
0.584 0.376 0.561 0.498 
0.694 0.333 0.643 0.541 
0.471 0.376 0.592 0.584 
0.333 0.169 0.475 0.416 
0.416 0.29 0.49 0.459 
0.306 0.416 0.592 0.584 
0.667 0.459 0.627 0.584 
0.361 0.416 0.525 0.498 
0.333 0.251 0.576 0.459 
0.416 0.251 0.51 0.459 
0.361 0.29 0.541 0.498 
0.388 0.376 0.541 0.498 
0.224 0.208 0.337 0.416 
0.584 0.502 0.592 0.584 
0.333 0.125 0.51 0.498 
0.388 0.333 0.592 0.498 
0.165 0.169 0.388 0.376 
0.251 0.29 0.49 0.541 
0.443 0.416 0.541 0.584 
0.498 0.376 0.627 0.541 
0.667 0.459 0.576 0.541 
0.416 0.29 0.525 0.376 
0.361 0.208 0.49 0.416 
0.498 0.333 0.51 0.498 
0.498 0.333 0.627 0.459 
0.639 0.416 0.576 0.541 
0.667 0.416 0.678 0.667 
0.388 0.251 0.424 0.376 
0.333 0.169 0.459 0.376 
0.471 0.29 0.694 0.624 
0.471 0.584 0.592 0.624 
0.557 0.125 0.576 0.498 
0.333 0.208 0.51 0.498 
0.498 0.416 0.612 0.541 
0.196 0.125 0.388 0.376 
0.388 0.416 0.541 0.459 
0.529 0.376 0.561 0.498 
0.388 0.333 0.525 0.498 
0.557 0.541 0.847 1.0 
0.776 0.416 0.831 0.831 
0.612 0.416 0.812 0.875 
0.165 0.208 0.592 0.667 
0.667 0.208 0.812 0.71 
0.612 0.502 0.694 0.792 
0.694 0.416 0.761 0.831 
0.416 0.333 0.694 0.957 
0.612 0.416 0.761 0.71 
0.945 0.251 1.0 0.918 
0.722 0.502 0.796 0.918 
0.945 0.333 0.965 0.792 
0.667 0.541 0.796 0.831 
0.529 0.333 0.643 0.71 
0.584 0.333 0.78 0.831 
0.863 0.333 0.863 0.749 
0.584 0.333 0.78 0.875 
0.498 0.251 0.78 0.541 
0.557 0.584 0.78 0.957 
0.471 0.416 0.643 0.71 
0.667 0.459 0.78 0.957 
0.416 0.29 0.694 0.749 
0.667 0.541 0.796 1.0 
0.557 0.208 0.678 0.749 
0.529 0.584 0.745 0.918 
0.416 0.29 0.694 0.749 
0.557 0.376 0.78 0.71 
0.918 0.416 0.949 0.831 
0.835 0.376 0.898 0.71 
0.804 0.667 0.863 1.0 
0.584 0.29 0.729 0.749 
0.388 0.208 0.678 0.792 
0.584 0.502 0.729 0.918 
0.945 0.749 0.965 0.875 
0.471 0.082 0.678 0.584 
0.361 0.333 0.663 0.792 
0.557 0.29 0.663 0.71 
0.804 0.502 0.847 0.71 
0.498 0.416 0.51 0.71 
0.804 0.416 0.812 0.624 
1.0 0.749 0.914 0.792 
0.557 0.333 0.694 0.584 
0.945 0.416 0.863 0.918 
0.584 0.459 0.761 0.71 
0.722 0.459 0.745 0.831 
0.722 0.459 0.694 0.918 
0.694 0.502 0.831 0.918 
0.667 0.416 0.714 0.918 
0.612 0.416 0.714 0.792 
0.443 0.416 0.694 0.71 
Teaching Patterns
1.0 0.0 0.0 
1.0 0.0 0.0 
1.0 0.0 0.0 
1.0 0.0 0.0 
1.0 0.0 0.0 
1.0 0.0 0.0 
1.0 0.0 0.0 
1.0 0.0 0.0 
1.0 0.0 0.0 
1.0 0.0 0.0 
1.0 0.0 0.0 
1.0 0.0 0.0 
1.0 0.0 0.0 
1.0 0.0 0.0 
1.0 0.0 0.0 
1.0 0.0 0.0 
1.0 0.0 0.0 
1.0 0.0 0.0 
1.0 0.0 0.0 
1.0 0.0 0.0 
1.0 0.0 0.0 
1.0 0.0 0.0 
1.0 0.0 0.0 
1.0 0.0 0.0 
1.0 0.0 0.0 
1.0 0.0 0.0 
1.0 0.0 0.0 
1.0 0.0 0.0 
1.0 0.0 0.0 
1.0 0.0 0.0 
1.0 0.0 0.0 
1.0 0.0 0.0 
1.0 0.0 0.0 
1.0 0.0 0.0 
1.0 0.0 0.0 
1.0 0.0 0.0 
1.0 0.0 0.0 
1.0 0.0 0.0 
1.0 0.0 0.0 
1.0 0.0 0.0 
1.0 0.0 0.0 
1.0 0.0 0.0 
1.0 0.0 0.0 
1.0 0.0 0.0 
1.0 0.0 0.0 
1.0 0.0 0.0 
1.0 0.0 0.0 
1.0 0.0 0.0 
1.0 0.0 0.0 
1.0 0.0 0.0 
0.0 1.0 0.0 
0.0 1.0 0.0 
0.0 1.0 0.0 
0.0 1.0 0.0 
0.0 1.0 0.0 
0.0 1.0 0.0 
0.0 1.0 0.0 
0.0 1.0 0.0 
0.0 1.0 0.0 
0.0 1.0 0.0 
0.0 1.0 0.0 
0.0 1.0 0.0 
0.0 1.0 0.0 
0.0 1.0 0.0 
0.0 1.0 0.0 
0.0 1.0 0.0 
0.0 1.0 0.0 
0.0 1.0 0.0 
0.0 1.0 0.0 
0.0 1.0 0.0 
0.0 1.0 0.0 
0.0 1.0 0.0 
0.0 1.0 0.0 
0.0 1.0 0.0 
0.0 1.0 0.0 
0.0 1.0 0.0 
0.0 1.0 0.0 
0.0 1.0 0.0 
0.0 1.0 0.0 
0.0 1.0 0.0 
0.0 1.0 0.0 
0.0 1.0 0.0 
0.0 1.0 0.0 
0.0 1.0 0.0 
0.0 1.0 0.0 
0.0 1.0 0.0 
0.0 1.0 0.0 
0.0 1.0 0.0 
0.0 1.0 0.0 
0.0 1.0 0.0 
0.0 1.0 0.0 
0.0 1.0 0.0 
0.0 1.0 0.0 
0.0 1.0 0.0 
0.0 1.0 0.0 
0.0 1.0 0.0 
0.0 1.0 0.0 
0.0 1.0 0.0 
0.0 1.0 0.0 
0.0 1.0 0.0 
0.0 0.0 1.0 
0.0 0.0 1.0 
0.0 0.0 1.0 
0.0 0.0 1.0 
0.0 0.0 1.0 
0.0 0.0 1.0 
0.0 0.0 1.0 
0.0 0.0 1.0 
0.0 0.0 1.0 
0.0 0.0 1.0 
0.0 0.0 1.0 
0.0 0.0 1.0 
0.0 0.0 1.0 
0.0 0.0 1.0 
0.0 0.0 1.0 
0.0 0.0 1.0 
0.0 0.0 1.0 
0.0 0.0 1.0 
0.0 0.0 1.0 
0.0 0.0 1.0 
0.0 0.0 1.0 
0.0 0.0 1.0 
0.0 0.0 1.0 
0.0 0.0 1.0 
0.0 0.0 1.0 
0.0 0.0 1.0 
0.0 0.0 1.0 
0.0 0.0 1.0 
0.0 0.0 1.0 
0.0 0.0 1.0 
0.0 0.0 1.0 
0.0 0.0 1.0 
0.0 0.0 1.0 
0.0 0.0 1.0 
0.0 0.0 1.0 
0.0 0.0 1.0 
0.0 0.0 1.0 
0.0 0.0 1.0 
0.0 0.0 1.0 
0.0 0.0 1.0 
0.0 0.0 1.0 
0.0 0.0 1.0 
0.0 0.0 1.0 
0.0 0.0 1.0 
0.0 0.0 1.0 
0.0 0.0 1.0 
0.0 0.0 1.0 
0.0 0.0 1.0 
0.0 0.0 1.0 
0.0 0.0 1.0 
Learning : 0.3499999940395355
Momentum : 0.9
Epoch: 100, Error: 0.014286024936759543
Epoch: 200, Error: 0.013007925555707248
Epoch: 300, Error: 0.021243864594679182
Epoch: 400, Error: 0.017167257059571967
Epoch: 500, Error: 0.012566456543538893
Epoch: 600, Error: 0.012434704633520654
Epoch: 700, Error: 0.012385487840347794
Epoch: 800, Error: 0.012059294677495922
Epoch: 900, Error: 0.013229769967812053
Epoch: 1000, Error: 0.012141002340150923
Epoch: 1100, Error: 0.01218298896466779
Epoch: 1200, Error: 0.012285501040819564
Epoch: 1300, Error: 0.012998699470032066
Epoch: 1400, Error: 0.012638278854448763
Epoch: 1500, Error: 0.012336999995114197
Epoch: 1600, Error: 0.013240490092509265
Epoch: 1700, Error: 0.012355134046805884
Epoch: 1800, Error: 0.012276110288376841
Epoch: 1900, Error: 0.012204943450251178
Epoch: 2000, Error: 0.012301846018139198
Epoch: 2100, Error: 0.01227118647144432
Epoch: 2200, Error: 0.012162252837552418
Epoch: 2300, Error: 0.012162968883751749
Epoch: 2400, Error: 0.012226690950745548
Epoch: 2500, Error: 0.012405909243846948
Epoch: 2600, Error: 0.012299560051762798
Epoch: 2700, Error: 0.012386931036041111
Epoch: 2800, Error: 0.012234183725167195
Epoch: 2900, Error: 0.012517141074246086
Epoch: 3000, Error: 0.012177180188274567
Epoch: 3100, Error: 0.012440933057402289
Epoch: 3200, Error: 0.012511524645900008
Epoch: 3300, Error: 0.012341984521757303
Epoch: 3400, Error: 0.012672475000546144
Epoch: 3500, Error: 0.012298607551854577
Epoch: 3600, Error: 0.01227945895318728
Epoch: 3700, Error: 0.01233514526775597
Epoch: 3800, Error: 0.012251163625367642
Epoch: 3900, Error: 0.012928205943269015
Epoch: 4000, Error: 0.012200960919628618
Epoch: 4100, Error: 0.012220025899389086
Epoch: 4200, Error: 0.013018693686499177
Epoch: 4300, Error: 0.012231810802190206
Epoch: 4400, Error: 0.012644632251872436
Epoch: 4500, Error: 0.012285013989692088
Epoch: 4600, Error: 0.012595431812619622
Epoch: 4700, Error: 0.012233880639552708
Epoch: 4800, Error: 0.012395077849200343
Epoch: 4900, Error: 0.01220517354093745
Epoch: 5000, Error: 0.012171638434612546
Epoch: 5100, Error: 0.012232400852967082
Epoch: 5200, Error: 0.012271373938208568
Epoch: 5300, Error: 0.012138096050751196
Epoch: 5400, Error: 0.012178821213347926
Epoch: 5500, Error: 0.012252167909232005
Epoch: 5600, Error: 0.012201390024736358
Epoch: 5700, Error: 0.011989760688132381
Epoch: 5800, Error: 0.012099010556322745
Epoch: 5900, Error: 0.012054178672761755
Epoch: 6000, Error: 0.012366475524953761
Epoch: 6100, Error: 0.01204005530124267
Epoch: 6200, Error: 0.01187052652311139
Epoch: 6300, Error: 0.011966534318548798
Epoch: 6400, Error: 0.011766168845887288
Epoch: 6500, Error: 0.011719226667020336
Epoch: 6600, Error: 0.011796374247453794
Epoch: 6700, Error: 0.011726932089877573
Epoch: 6800, Error: 0.01165064479142667
Epoch: 6900, Error: 0.011621822923705113
Epoch: 7000, Error: 0.011829265032183513
Epoch: 7100, Error: 0.011568330792751503
Epoch: 7200, Error: 0.011547979296146708
Epoch: 7300, Error: 0.011426983752994448
Epoch: 7400, Error: 0.011424130206813852
Epoch: 7500, Error: 0.011490625313922928
Epoch: 7600, Error: 0.011383725431950773
Epoch: 7700, Error: 0.011362233003416083
Epoch: 7800, Error: 0.011212766825970803
Epoch: 7900, Error: 0.01118191036286102
Epoch: 8000, Error: 0.011096754510815576
Epoch: 8100, Error: 0.011160613501577463
Epoch: 8200, Error: 0.011046980050817284
Epoch: 8300, Error: 0.01104177793402107
Epoch: 8400, Error: 0.01092285075709204
Epoch: 8500, Error: 0.011145574986609362
Epoch: 8600, Error: 0.010861616391250885
Epoch: 8700, Error: 0.010831577972100452
Epoch: 8800, Error: 0.010883401031762665
Epoch: 8900, Error: 0.01095579765862364
Epoch: 9000, Error: 0.01064058810112968
Epoch: 9100, Error: 0.010715697199700565
Epoch: 9200, Error: 0.010585820903441902
Epoch: 9300, Error: 0.010713049521162355
Epoch: 9400, Error: 0.010465431018948222
Epoch: 9500, Error: 0.01048152695538292
Epoch: 9600, Error: 0.010610213465824898
Epoch: 9700, Error: 0.010421520026668562
Epoch: 9800, Error: 0.010350159003552755
Epoch: 9900, Error: 0.01025539269109757
Epoch: 10000, Error: 0.010330432558081864
Epoch: 10100, Error: 0.010167258288098382
Epoch: 10200, Error: 0.010150285863544477
Epoch: 10300, Error: 0.010097581017556968
Epoch: 10400, Error: 0.010078785264419701
Epoch: 10500, Error: 0.010018809735112294
Epoch: 10600, Error: 0.00999695968193826
Epoch: 10700, Error: 0.009966169979949088
Epoch: 10800, Error: 0.009968170047265475
Epoch: 10900, Error: 0.0098648206151393
Epoch: 11000, Error: 0.00985647557843413
Epoch: 11100, Error: 0.009859444181262441
Epoch: 11200, Error: 0.009846899398458392
Epoch: 11300, Error: 0.009842217960207523
Epoch: 11400, Error: 0.009804667251880509
Epoch: 11500, Error: 0.00975736980354793
Epoch: 11600, Error: 0.009797612169572086
Epoch: 11700, Error: 0.009799512577309476
Epoch: 11800, Error: 0.009747221427785254
Epoch: 11900, Error: 0.009773473822395295
Epoch: 12000, Error: 0.009712909302621498
Epoch: 12100, Error: 0.009705594382098235
Epoch: 12200, Error: 0.009703667464623119
Epoch: 12300, Error: 0.009686652413936571
Epoch: 12400, Error: 0.009676066430243456
Epoch: 12500, Error: 0.009667558598453724
Epoch: 12600, Error: 0.009665099885128243
Epoch: 12700, Error: 0.009665436363462948
Epoch: 12800, Error: 0.009654195827305903
Epoch: 12900, Error: 0.00963581298380161
Epoch: 13000, Error: 0.0096555907782016
Epoch: 13100, Error: 0.00963696586728607
Epoch: 13200, Error: 0.00967125283003238
Epoch: 13300, Error: 0.00964479610257839
Epoch: 13400, Error: 0.009655413202376478
Epoch: 13500, Error: 0.009667879034881227
Epoch: 13600, Error: 0.009650753231752475
Epoch: 13700, Error: 0.009638785384814814
Epoch: 13800, Error: 0.009636721369258425
Epoch: 13900, Error: 0.009653439654016022
Epoch: 14000, Error: 0.009633772365406135
Epoch: 14100, Error: 0.00962015485815454
Epoch: 14200, Error: 0.00961955034652671
Epoch: 14300, Error: 0.009605447373614353
Epoch: 14400, Error: 0.009593735195106666
Epoch: 14500, Error: 0.009592922945245398
Finished
