Input Patterns
0.224 0.624 0.067 0.043 
0.11 0.502 0.051 0.043 
0.196 0.667 0.067 0.043 
0.055 0.584 0.067 0.082 
0.027 0.376 0.067 0.043 
0.306 0.71 0.086 0.043 
0.137 0.416 0.067 0.0 
0.416 0.831 0.035 0.043 
0.306 0.792 0.051 0.125 
0.388 0.749 0.118 0.082 
0.306 0.584 0.118 0.043 
0.082 0.667 0.0 0.043 
0.137 0.584 0.153 0.043 
0.196 0.584 0.102 0.125 
0.251 0.584 0.067 0.043 
0.137 0.459 0.102 0.043 
0.251 0.875 0.086 0.0 
0.165 0.459 0.086 0.043 
0.333 0.624 0.051 0.043 
0.027 0.416 0.051 0.043 
0.196 0.624 0.051 0.082 
0.027 0.502 0.051 0.043 
0.224 0.749 0.153 0.125 
0.224 0.749 0.102 0.043 
0.278 0.71 0.086 0.043 
0.165 0.416 0.067 0.043 
0.082 0.459 0.086 0.043 
0.306 0.792 0.118 0.125 
0.196 0.584 0.086 0.043 
0.165 0.459 0.086 0.0 
0.137 0.584 0.102 0.043 
0.0 0.416 0.016 0.0 
0.388 1.0 0.086 0.125 
0.224 0.624 0.067 0.082 
0.224 0.749 0.086 0.082 
0.224 0.71 0.086 0.125 
0.224 0.541 0.118 0.165 
0.196 0.416 0.102 0.043 
0.251 0.624 0.086 0.043 
0.11 0.502 0.102 0.043 
0.306 0.584 0.086 0.125 
0.333 0.918 0.067 0.043 
0.196 0.502 0.035 0.043 
0.165 0.667 0.067 0.0 
0.224 0.584 0.086 0.043 
0.055 0.125 0.051 0.082 
0.196 0.624 0.102 0.208 
0.137 0.416 0.067 0.082 
0.082 0.502 0.067 0.043 
0.196 0.541 0.067 0.043 
0.749 0.502 0.627 0.541 
0.722 0.459 0.663 0.584 
0.612 0.333 0.612 0.584 
0.557 0.541 0.627 0.624 
0.639 0.376 0.612 0.498 
0.196 0.0 0.424 0.376 
0.471 0.082 0.51 0.376 
0.361 0.376 0.439 0.498 
0.361 0.416 0.592 0.584 
0.529 0.082 0.592 0.584 
0.443 0.502 0.643 0.459 
0.557 0.208 0.663 0.584 
0.584 0.376 0.561 0.498 
0.694 0.333 0.643 0.541 
0.471 0.376 0.592 0.584 
0.333 0.169 0.475 0.416 
0.416 0.29 0.49 0.459 
0.306 0.416 0.592 0.584 
0.667 0.459 0.627 0.584 
0.361 0.416 0.525 0.498 
0.333 0.251 0.576 0.459 
0.416 0.251 0.51 0.459 
0.361 0.29 0.541 0.498 
0.388 0.376 0.541 0.498 
0.224 0.208 0.337 0.416 
0.584 0.502 0.592 0.584 
0.333 0.125 0.51 0.498 
0.388 0.333 0.592 0.498 
0.165 0.169 0.388 0.376 
0.251 0.29 0.49 0.541 
0.443 0.416 0.541 0.584 
0.498 0.376 0.627 0.541 
0.667 0.459 0.576 0.541 
0.416 0.29 0.525 0.376 
0.361 0.208 0.49 0.416 
0.498 0.333 0.51 0.498 
0.498 0.333 0.627 0.459 
0.639 0.416 0.576 0.541 
0.667 0.416 0.678 0.667 
0.388 0.251 0.424 0.376 
0.333 0.169 0.459 0.376 
0.471 0.29 0.694 0.624 
0.471 0.584 0.592 0.624 
0.557 0.125 0.576 0.498 
0.333 0.208 0.51 0.498 
0.498 0.416 0.612 0.541 
0.196 0.125 0.388 0.376 
0.388 0.416 0.541 0.459 
0.529 0.376 0.561 0.498 
0.388 0.333 0.525 0.498 
0.557 0.541 0.847 1.0 
0.776 0.416 0.831 0.831 
0.612 0.416 0.812 0.875 
0.165 0.208 0.592 0.667 
0.667 0.208 0.812 0.71 
0.612 0.502 0.694 0.792 
0.694 0.416 0.761 0.831 
0.416 0.333 0.694 0.957 
0.612 0.416 0.761 0.71 
0.945 0.251 1.0 0.918 
0.722 0.502 0.796 0.918 
0.945 0.333 0.965 0.792 
0.667 0.541 0.796 0.831 
0.529 0.333 0.643 0.71 
0.584 0.333 0.78 0.831 
0.863 0.333 0.863 0.749 
0.584 0.333 0.78 0.875 
0.498 0.251 0.78 0.541 
0.557 0.584 0.78 0.957 
0.471 0.416 0.643 0.71 
0.667 0.459 0.78 0.957 
0.416 0.29 0.694 0.749 
0.667 0.541 0.796 1.0 
0.557 0.208 0.678 0.749 
0.529 0.584 0.745 0.918 
0.416 0.29 0.694 0.749 
0.557 0.376 0.78 0.71 
0.918 0.416 0.949 0.831 
0.835 0.376 0.898 0.71 
0.804 0.667 0.863 1.0 
0.584 0.29 0.729 0.749 
0.388 0.208 0.678 0.792 
0.584 0.502 0.729 0.918 
0.945 0.749 0.965 0.875 
0.471 0.082 0.678 0.584 
0.361 0.333 0.663 0.792 
0.557 0.29 0.663 0.71 
0.804 0.502 0.847 0.71 
0.498 0.416 0.51 0.71 
0.804 0.416 0.812 0.624 
1.0 0.749 0.914 0.792 
0.557 0.333 0.694 0.584 
0.945 0.416 0.863 0.918 
0.584 0.459 0.761 0.71 
0.722 0.459 0.745 0.831 
0.722 0.459 0.694 0.918 
0.694 0.502 0.831 0.918 
0.667 0.416 0.714 0.918 
0.612 0.416 0.714 0.792 
0.443 0.416 0.694 0.71 
Teaching Patterns
1.0 0.0 0.0 
1.0 0.0 0.0 
1.0 0.0 0.0 
1.0 0.0 0.0 
1.0 0.0 0.0 
1.0 0.0 0.0 
1.0 0.0 0.0 
1.0 0.0 0.0 
1.0 0.0 0.0 
1.0 0.0 0.0 
1.0 0.0 0.0 
1.0 0.0 0.0 
1.0 0.0 0.0 
1.0 0.0 0.0 
1.0 0.0 0.0 
1.0 0.0 0.0 
1.0 0.0 0.0 
1.0 0.0 0.0 
1.0 0.0 0.0 
1.0 0.0 0.0 
1.0 0.0 0.0 
1.0 0.0 0.0 
1.0 0.0 0.0 
1.0 0.0 0.0 
1.0 0.0 0.0 
1.0 0.0 0.0 
1.0 0.0 0.0 
1.0 0.0 0.0 
1.0 0.0 0.0 
1.0 0.0 0.0 
1.0 0.0 0.0 
1.0 0.0 0.0 
1.0 0.0 0.0 
1.0 0.0 0.0 
1.0 0.0 0.0 
1.0 0.0 0.0 
1.0 0.0 0.0 
1.0 0.0 0.0 
1.0 0.0 0.0 
1.0 0.0 0.0 
1.0 0.0 0.0 
1.0 0.0 0.0 
1.0 0.0 0.0 
1.0 0.0 0.0 
1.0 0.0 0.0 
1.0 0.0 0.0 
1.0 0.0 0.0 
1.0 0.0 0.0 
1.0 0.0 0.0 
1.0 0.0 0.0 
0.0 1.0 0.0 
0.0 1.0 0.0 
0.0 1.0 0.0 
0.0 1.0 0.0 
0.0 1.0 0.0 
0.0 1.0 0.0 
0.0 1.0 0.0 
0.0 1.0 0.0 
0.0 1.0 0.0 
0.0 1.0 0.0 
0.0 1.0 0.0 
0.0 1.0 0.0 
0.0 1.0 0.0 
0.0 1.0 0.0 
0.0 1.0 0.0 
0.0 1.0 0.0 
0.0 1.0 0.0 
0.0 1.0 0.0 
0.0 1.0 0.0 
0.0 1.0 0.0 
0.0 1.0 0.0 
0.0 1.0 0.0 
0.0 1.0 0.0 
0.0 1.0 0.0 
0.0 1.0 0.0 
0.0 1.0 0.0 
0.0 1.0 0.0 
0.0 1.0 0.0 
0.0 1.0 0.0 
0.0 1.0 0.0 
0.0 1.0 0.0 
0.0 1.0 0.0 
0.0 1.0 0.0 
0.0 1.0 0.0 
0.0 1.0 0.0 
0.0 1.0 0.0 
0.0 1.0 0.0 
0.0 1.0 0.0 
0.0 1.0 0.0 
0.0 1.0 0.0 
0.0 1.0 0.0 
0.0 1.0 0.0 
0.0 1.0 0.0 
0.0 1.0 0.0 
0.0 1.0 0.0 
0.0 1.0 0.0 
0.0 1.0 0.0 
0.0 1.0 0.0 
0.0 1.0 0.0 
0.0 1.0 0.0 
0.0 0.0 1.0 
0.0 0.0 1.0 
0.0 0.0 1.0 
0.0 0.0 1.0 
0.0 0.0 1.0 
0.0 0.0 1.0 
0.0 0.0 1.0 
0.0 0.0 1.0 
0.0 0.0 1.0 
0.0 0.0 1.0 
0.0 0.0 1.0 
0.0 0.0 1.0 
0.0 0.0 1.0 
0.0 0.0 1.0 
0.0 0.0 1.0 
0.0 0.0 1.0 
0.0 0.0 1.0 
0.0 0.0 1.0 
0.0 0.0 1.0 
0.0 0.0 1.0 
0.0 0.0 1.0 
0.0 0.0 1.0 
0.0 0.0 1.0 
0.0 0.0 1.0 
0.0 0.0 1.0 
0.0 0.0 1.0 
0.0 0.0 1.0 
0.0 0.0 1.0 
0.0 0.0 1.0 
0.0 0.0 1.0 
0.0 0.0 1.0 
0.0 0.0 1.0 
0.0 0.0 1.0 
0.0 0.0 1.0 
0.0 0.0 1.0 
0.0 0.0 1.0 
0.0 0.0 1.0 
0.0 0.0 1.0 
0.0 0.0 1.0 
0.0 0.0 1.0 
0.0 0.0 1.0 
0.0 0.0 1.0 
0.0 0.0 1.0 
0.0 0.0 1.0 
0.0 0.0 1.0 
0.0 0.0 1.0 
0.0 0.0 1.0 
0.0 0.0 1.0 
0.0 0.0 1.0 
0.0 0.0 1.0 
Learning : 0.05
Momentum : 0.5
Epoch: 100, Error: 0.059246887661660454
Epoch: 200, Error: 0.022137851013174854
Epoch: 300, Error: 0.01733754365787867
Epoch: 400, Error: 0.015460772533728186
Epoch: 500, Error: 0.01502215341618259
Epoch: 600, Error: 0.014361655188480427
Epoch: 700, Error: 0.013940401028466156
Epoch: 800, Error: 0.013535801393481182
Epoch: 900, Error: 0.013446153196787124
Epoch: 1000, Error: 0.01325654880495494
Epoch: 1100, Error: 0.013185021843652008
Epoch: 1200, Error: 0.013649730129825049
Epoch: 1300, Error: 0.013063726159393874
Epoch: 1400, Error: 0.013054715340173701
Epoch: 1500, Error: 0.013007912291904558
Epoch: 1600, Error: 0.013103846821902175
Epoch: 1700, Error: 0.012946668793109696
Epoch: 1800, Error: 0.012983658630549302
Epoch: 1900, Error: 0.012748454110429562
Epoch: 2000, Error: 0.012650170493107177
Epoch: 2100, Error: 0.012626536218496685
Epoch: 2200, Error: 0.012636184955652812
Epoch: 2300, Error: 0.0124934158040506
Epoch: 2400, Error: 0.012524349542301215
Epoch: 2500, Error: 0.012443538119999608
Epoch: 2600, Error: 0.012391776402282515
Epoch: 2700, Error: 0.012306374775071988
Epoch: 2800, Error: 0.012331366640896612
Epoch: 2900, Error: 0.012290034963460744
Epoch: 3000, Error: 0.0122340857509358
Epoch: 3100, Error: 0.01221561083534348
Epoch: 3200, Error: 0.012275415304062074
Epoch: 3300, Error: 0.012178968418826992
Epoch: 3400, Error: 0.012126562464373814
Epoch: 3500, Error: 0.012093461054757223
Epoch: 3600, Error: 0.012126081488171469
Epoch: 3700, Error: 0.012142955823472606
Epoch: 3800, Error: 0.012035301124187716
Epoch: 3900, Error: 0.012032009310753048
Epoch: 4000, Error: 0.01196039038877963
Epoch: 4100, Error: 0.011989398113938099
Epoch: 4200, Error: 0.011903676078940145
Epoch: 4300, Error: 0.011847280022960278
Epoch: 4400, Error: 0.011829597249057964
Epoch: 4500, Error: 0.011831168533246469
Epoch: 4600, Error: 0.011816883445639269
Epoch: 4700, Error: 0.011858147302514768
Epoch: 4800, Error: 0.011817646931261458
Epoch: 4900, Error: 0.011778302263062727
Epoch: 5000, Error: 0.01180560237150099
Epoch: 5100, Error: 0.011769229713825035
Epoch: 5200, Error: 0.011778653610903427
Epoch: 5300, Error: 0.011741650396739379
Epoch: 5400, Error: 0.011778436592076431
Epoch: 5500, Error: 0.011737288068774065
Epoch: 5600, Error: 0.011753645070305812
Epoch: 5700, Error: 0.01172066058342586
Epoch: 5800, Error: 0.011706594298233019
Epoch: 5900, Error: 0.011738186694698085
Epoch: 6000, Error: 0.01172470788754678
Epoch: 6100, Error: 0.011724855989473962
Epoch: 6200, Error: 0.011668949582514104
Epoch: 6300, Error: 0.011676256112643595
Epoch: 6400, Error: 0.011645419278006143
Epoch: 6500, Error: 0.011633105331414404
Epoch: 6600, Error: 0.01165887394277896
Epoch: 6700, Error: 0.011643871360315283
Epoch: 6800, Error: 0.011744371127499563
Epoch: 6900, Error: 0.011664454497370991
Epoch: 7000, Error: 0.011586926094922678
Epoch: 7100, Error: 0.011562851483481755
Epoch: 7200, Error: 0.01155350653288113
Epoch: 7300, Error: 0.011606400520853032
Epoch: 7400, Error: 0.01154605059095796
Epoch: 7500, Error: 0.011531437997849068
Epoch: 7600, Error: 0.011507351676303809
Epoch: 7700, Error: 0.01153686304211926
Epoch: 7800, Error: 0.011496876239021347
Epoch: 7900, Error: 0.011496498778592424
Epoch: 8000, Error: 0.01147172654873119
Epoch: 8100, Error: 0.011450459197525579
Epoch: 8200, Error: 0.011453104247218475
Epoch: 8300, Error: 0.011429977828328376
Epoch: 8400, Error: 0.01140780187550549
Epoch: 8500, Error: 0.011443918264459675
Epoch: 8600, Error: 0.011396168738169668
Epoch: 8700, Error: 0.01133864584168822
Epoch: 8800, Error: 0.011316637419825103
Epoch: 8900, Error: 0.011289167751546189
Epoch: 9000, Error: 0.01127300402635043
Epoch: 9100, Error: 0.011255203870742731
Epoch: 9200, Error: 0.011232049617748029
Epoch: 9300, Error: 0.011176281600570057
Epoch: 9400, Error: 0.011135446396254772
Epoch: 9500, Error: 0.011186739855486606
Epoch: 9600, Error: 0.011097846661298729
Epoch: 9700, Error: 0.01103058392835499
Epoch: 9800, Error: 0.011030565009542853
Epoch: 9900, Error: 0.010963352325307773
Epoch: 10000, Error: 0.010904255390889956
Epoch: 10100, Error: 0.010854575063896225
Epoch: 10200, Error: 0.010808103420201817
Epoch: 10300, Error: 0.010744277075786854
Epoch: 10400, Error: 0.010701705411433142
Epoch: 10500, Error: 0.010631035215541203
Epoch: 10600, Error: 0.010600787092638203
Epoch: 10700, Error: 0.010575398487341046
Epoch: 10800, Error: 0.010468976896647853
Epoch: 10900, Error: 0.01044159666321775
Epoch: 11000, Error: 0.010329529273573609
Epoch: 11100, Error: 0.010254181575587553
Epoch: 11200, Error: 0.010228905378627475
Epoch: 11300, Error: 0.010224413806662181
Epoch: 11400, Error: 0.01001726026732334
Epoch: 11500, Error: 0.009946160000424911
Epoch: 11600, Error: 0.009884514016993228
Epoch: 11700, Error: 0.009785187450449708
Epoch: 11800, Error: 0.00975462908922783
Epoch: 11900, Error: 0.00960428780718679
Epoch: 12000, Error: 0.00955356822778402
Epoch: 12100, Error: 0.009433587293034718
Epoch: 12200, Error: 0.009448117504651242
Epoch: 12300, Error: 0.009304174307708744
Epoch: 12400, Error: 0.009162871369088882
Epoch: 12500, Error: 0.009074494829295203
Epoch: 12600, Error: 0.008980391097433146
Epoch: 12700, Error: 0.008935433776831024
Epoch: 12800, Error: 0.008799059459293046
Epoch: 12900, Error: 0.008712083939297375
Epoch: 13000, Error: 0.008646495024101357
Epoch: 13100, Error: 0.008561720382801752
Epoch: 13200, Error: 0.008461697981212013
Epoch: 13300, Error: 0.008383633092266522
Epoch: 13400, Error: 0.00831385847432447
Epoch: 13500, Error: 0.008215190435283563
Epoch: 13600, Error: 0.008138034664243727
Epoch: 13700, Error: 0.008073920547363726
Epoch: 13800, Error: 0.00798880541005866
Epoch: 13900, Error: 0.00793567976530207
Epoch: 14000, Error: 0.007845699375120783
Epoch: 14100, Error: 0.007776392184418439
Epoch: 14200, Error: 0.007738573832118779
Epoch: 14300, Error: 0.007656515153804167
Epoch: 14400, Error: 0.007590295363306997
Epoch: 14500, Error: 0.007574360790379303
Epoch: 14600, Error: 0.007547508549173823
Epoch: 14700, Error: 0.007458763826020421
Epoch: 14800, Error: 0.007339305047307929
Epoch: 14900, Error: 0.007434866017268139
Epoch: 15000, Error: 0.00728124076359108
Epoch: 15100, Error: 0.007216874708644613
Epoch: 15200, Error: 0.007153793843797791
Epoch: 15300, Error: 0.007080612405946224
Epoch: 15400, Error: 0.007035485018937932
Epoch: 15500, Error: 0.006967494869978598
Epoch: 15600, Error: 0.006896885177458462
Epoch: 15700, Error: 0.006852063102347538
Epoch: 15800, Error: 0.006806064678980383
Epoch: 15900, Error: 0.006776876067748707
Epoch: 16000, Error: 0.006730739050624124
Epoch: 16100, Error: 0.006693047234298555
Epoch: 16200, Error: 0.00666704031824551
Epoch: 16300, Error: 0.006654599795624678
Epoch: 16400, Error: 0.006601854070275486
Epoch: 16500, Error: 0.006574890617736105
Epoch: 16600, Error: 0.006566573350794008
Epoch: 16700, Error: 0.006547568774241981
Epoch: 16800, Error: 0.0065278107663638086
Epoch: 16900, Error: 0.006509133995623023
Epoch: 17000, Error: 0.0065040292439671925
Epoch: 17100, Error: 0.00648967794921717
Epoch: 17200, Error: 0.006440945820696516
Epoch: 17300, Error: 0.0064207118282710975
Epoch: 17400, Error: 0.00639628740010095
Epoch: 17500, Error: 0.006372431109362715
Epoch: 17600, Error: 0.0063608450379725135
Epoch: 17700, Error: 0.0063244990035681925
Epoch: 17800, Error: 0.006320748301203985
Epoch: 17900, Error: 0.00629441402515486
Epoch: 18000, Error: 0.006275357851424289
Epoch: 18100, Error: 0.006293867433204278
Epoch: 18200, Error: 0.0062872632429493355
Epoch: 18300, Error: 0.006246452325462116
Epoch: 18400, Error: 0.006243569287393737
Epoch: 18500, Error: 0.0062046077863574835
Epoch: 18600, Error: 0.006200679143969682
Epoch: 18700, Error: 0.006188337283028215
Epoch: 18800, Error: 0.006184476114532271
Epoch: 18900, Error: 0.006159345254469672
Epoch: 19000, Error: 0.006149376873708704
Epoch: 19100, Error: 0.006127334111561911
Epoch: 19200, Error: 0.006112225675025124
Epoch: 19300, Error: 0.0061045873589679585
Epoch: 19400, Error: 0.006073340977002189
Epoch: 19500, Error: 0.00605936257448751
Epoch: 19600, Error: 0.006047413383609542
Epoch: 19700, Error: 0.006030445206806513
Epoch: 19800, Error: 0.006032713300606313
Epoch: 19900, Error: 0.0060246445562983225
Epoch: 20000, Error: 0.006002643522937054
Epoch: 20100, Error: 0.006016513616966063
Epoch: 20200, Error: 0.005986818510031121
Epoch: 20300, Error: 0.005972055273093607
Epoch: 20400, Error: 0.005959370317732571
Epoch: 20500, Error: 0.005997959690017255
Epoch: 20600, Error: 0.005981531084011594
Epoch: 20700, Error: 0.006001065812740139
Epoch: 20800, Error: 0.00600970933152706
Epoch: 20900, Error: 0.005998431522252745
Epoch: 21000, Error: 0.006037787522669593
Epoch: 21100, Error: 0.006054579589949021
Epoch: 21200, Error: 0.0060396166488573075
Epoch: 21300, Error: 0.0060371168314803355
Epoch: 21400, Error: 0.006022350223612798
Epoch: 21500, Error: 0.006021709744076893
Epoch: 21600, Error: 0.006007582704996913
Epoch: 21700, Error: 0.00600741776418336
Epoch: 21800, Error: 0.006023382215986394
Epoch: 21900, Error: 0.0059998107149387735
Epoch: 22000, Error: 0.006051000335516654
Epoch: 22100, Error: 0.0060290659134162585
Finished
