Input Patterns
0.224 0.624 0.067 0.043 
0.11 0.502 0.051 0.043 
0.196 0.667 0.067 0.043 
0.055 0.584 0.067 0.082 
0.027 0.376 0.067 0.043 
0.306 0.71 0.086 0.043 
0.137 0.416 0.067 0.0 
0.416 0.831 0.035 0.043 
0.306 0.792 0.051 0.125 
0.388 0.749 0.118 0.082 
0.306 0.584 0.118 0.043 
0.082 0.667 0.0 0.043 
0.137 0.584 0.153 0.043 
0.196 0.584 0.102 0.125 
0.251 0.584 0.067 0.043 
0.137 0.459 0.102 0.043 
0.251 0.875 0.086 0.0 
0.165 0.459 0.086 0.043 
0.333 0.624 0.051 0.043 
0.027 0.416 0.051 0.043 
0.196 0.624 0.051 0.082 
0.027 0.502 0.051 0.043 
0.224 0.749 0.153 0.125 
0.224 0.749 0.102 0.043 
0.278 0.71 0.086 0.043 
0.165 0.416 0.067 0.043 
0.082 0.459 0.086 0.043 
0.306 0.792 0.118 0.125 
0.196 0.584 0.086 0.043 
0.165 0.459 0.086 0.0 
0.137 0.584 0.102 0.043 
0.0 0.416 0.016 0.0 
0.388 1.0 0.086 0.125 
0.224 0.624 0.067 0.082 
0.224 0.749 0.086 0.082 
0.224 0.71 0.086 0.125 
0.224 0.541 0.118 0.165 
0.196 0.416 0.102 0.043 
0.251 0.624 0.086 0.043 
0.11 0.502 0.102 0.043 
0.306 0.584 0.086 0.125 
0.333 0.918 0.067 0.043 
0.196 0.502 0.035 0.043 
0.165 0.667 0.067 0.0 
0.224 0.584 0.086 0.043 
0.055 0.125 0.051 0.082 
0.196 0.624 0.102 0.208 
0.137 0.416 0.067 0.082 
0.082 0.502 0.067 0.043 
0.196 0.541 0.067 0.043 
0.749 0.502 0.627 0.541 
0.722 0.459 0.663 0.584 
0.612 0.333 0.612 0.584 
0.557 0.541 0.627 0.624 
0.639 0.376 0.612 0.498 
0.196 0.0 0.424 0.376 
0.471 0.082 0.51 0.376 
0.361 0.376 0.439 0.498 
0.361 0.416 0.592 0.584 
0.529 0.082 0.592 0.584 
0.443 0.502 0.643 0.459 
0.557 0.208 0.663 0.584 
0.584 0.376 0.561 0.498 
0.694 0.333 0.643 0.541 
0.471 0.376 0.592 0.584 
0.333 0.169 0.475 0.416 
0.416 0.29 0.49 0.459 
0.306 0.416 0.592 0.584 
0.667 0.459 0.627 0.584 
0.361 0.416 0.525 0.498 
0.333 0.251 0.576 0.459 
0.416 0.251 0.51 0.459 
0.361 0.29 0.541 0.498 
0.388 0.376 0.541 0.498 
0.224 0.208 0.337 0.416 
0.584 0.502 0.592 0.584 
0.333 0.125 0.51 0.498 
0.388 0.333 0.592 0.498 
0.165 0.169 0.388 0.376 
0.251 0.29 0.49 0.541 
0.443 0.416 0.541 0.584 
0.498 0.376 0.627 0.541 
0.667 0.459 0.576 0.541 
0.416 0.29 0.525 0.376 
0.361 0.208 0.49 0.416 
0.498 0.333 0.51 0.498 
0.498 0.333 0.627 0.459 
0.639 0.416 0.576 0.541 
0.667 0.416 0.678 0.667 
0.388 0.251 0.424 0.376 
0.333 0.169 0.459 0.376 
0.471 0.29 0.694 0.624 
0.471 0.584 0.592 0.624 
0.557 0.125 0.576 0.498 
0.333 0.208 0.51 0.498 
0.498 0.416 0.612 0.541 
0.196 0.125 0.388 0.376 
0.388 0.416 0.541 0.459 
0.529 0.376 0.561 0.498 
0.388 0.333 0.525 0.498 
0.557 0.541 0.847 1.0 
0.776 0.416 0.831 0.831 
0.612 0.416 0.812 0.875 
0.165 0.208 0.592 0.667 
0.667 0.208 0.812 0.71 
0.612 0.502 0.694 0.792 
0.694 0.416 0.761 0.831 
0.416 0.333 0.694 0.957 
0.612 0.416 0.761 0.71 
0.945 0.251 1.0 0.918 
0.722 0.502 0.796 0.918 
0.945 0.333 0.965 0.792 
0.667 0.541 0.796 0.831 
0.529 0.333 0.643 0.71 
0.584 0.333 0.78 0.831 
0.863 0.333 0.863 0.749 
0.584 0.333 0.78 0.875 
0.498 0.251 0.78 0.541 
0.557 0.584 0.78 0.957 
0.471 0.416 0.643 0.71 
0.667 0.459 0.78 0.957 
0.416 0.29 0.694 0.749 
0.667 0.541 0.796 1.0 
0.557 0.208 0.678 0.749 
0.529 0.584 0.745 0.918 
0.416 0.29 0.694 0.749 
0.557 0.376 0.78 0.71 
0.918 0.416 0.949 0.831 
0.835 0.376 0.898 0.71 
0.804 0.667 0.863 1.0 
0.584 0.29 0.729 0.749 
0.388 0.208 0.678 0.792 
0.584 0.502 0.729 0.918 
0.945 0.749 0.965 0.875 
0.471 0.082 0.678 0.584 
0.361 0.333 0.663 0.792 
0.557 0.29 0.663 0.71 
0.804 0.502 0.847 0.71 
0.498 0.416 0.51 0.71 
0.804 0.416 0.812 0.624 
1.0 0.749 0.914 0.792 
0.557 0.333 0.694 0.584 
0.945 0.416 0.863 0.918 
0.584 0.459 0.761 0.71 
0.722 0.459 0.745 0.831 
0.722 0.459 0.694 0.918 
0.694 0.502 0.831 0.918 
0.667 0.416 0.714 0.918 
0.612 0.416 0.714 0.792 
0.443 0.416 0.694 0.71 
Teaching Patterns
1.0 0.0 0.0 
1.0 0.0 0.0 
1.0 0.0 0.0 
1.0 0.0 0.0 
1.0 0.0 0.0 
1.0 0.0 0.0 
1.0 0.0 0.0 
1.0 0.0 0.0 
1.0 0.0 0.0 
1.0 0.0 0.0 
1.0 0.0 0.0 
1.0 0.0 0.0 
1.0 0.0 0.0 
1.0 0.0 0.0 
1.0 0.0 0.0 
1.0 0.0 0.0 
1.0 0.0 0.0 
1.0 0.0 0.0 
1.0 0.0 0.0 
1.0 0.0 0.0 
1.0 0.0 0.0 
1.0 0.0 0.0 
1.0 0.0 0.0 
1.0 0.0 0.0 
1.0 0.0 0.0 
1.0 0.0 0.0 
1.0 0.0 0.0 
1.0 0.0 0.0 
1.0 0.0 0.0 
1.0 0.0 0.0 
1.0 0.0 0.0 
1.0 0.0 0.0 
1.0 0.0 0.0 
1.0 0.0 0.0 
1.0 0.0 0.0 
1.0 0.0 0.0 
1.0 0.0 0.0 
1.0 0.0 0.0 
1.0 0.0 0.0 
1.0 0.0 0.0 
1.0 0.0 0.0 
1.0 0.0 0.0 
1.0 0.0 0.0 
1.0 0.0 0.0 
1.0 0.0 0.0 
1.0 0.0 0.0 
1.0 0.0 0.0 
1.0 0.0 0.0 
1.0 0.0 0.0 
1.0 0.0 0.0 
0.0 1.0 0.0 
0.0 1.0 0.0 
0.0 1.0 0.0 
0.0 1.0 0.0 
0.0 1.0 0.0 
0.0 1.0 0.0 
0.0 1.0 0.0 
0.0 1.0 0.0 
0.0 1.0 0.0 
0.0 1.0 0.0 
0.0 1.0 0.0 
0.0 1.0 0.0 
0.0 1.0 0.0 
0.0 1.0 0.0 
0.0 1.0 0.0 
0.0 1.0 0.0 
0.0 1.0 0.0 
0.0 1.0 0.0 
0.0 1.0 0.0 
0.0 1.0 0.0 
0.0 1.0 0.0 
0.0 1.0 0.0 
0.0 1.0 0.0 
0.0 1.0 0.0 
0.0 1.0 0.0 
0.0 1.0 0.0 
0.0 1.0 0.0 
0.0 1.0 0.0 
0.0 1.0 0.0 
0.0 1.0 0.0 
0.0 1.0 0.0 
0.0 1.0 0.0 
0.0 1.0 0.0 
0.0 1.0 0.0 
0.0 1.0 0.0 
0.0 1.0 0.0 
0.0 1.0 0.0 
0.0 1.0 0.0 
0.0 1.0 0.0 
0.0 1.0 0.0 
0.0 1.0 0.0 
0.0 1.0 0.0 
0.0 1.0 0.0 
0.0 1.0 0.0 
0.0 1.0 0.0 
0.0 1.0 0.0 
0.0 1.0 0.0 
0.0 1.0 0.0 
0.0 1.0 0.0 
0.0 1.0 0.0 
0.0 0.0 1.0 
0.0 0.0 1.0 
0.0 0.0 1.0 
0.0 0.0 1.0 
0.0 0.0 1.0 
0.0 0.0 1.0 
0.0 0.0 1.0 
0.0 0.0 1.0 
0.0 0.0 1.0 
0.0 0.0 1.0 
0.0 0.0 1.0 
0.0 0.0 1.0 
0.0 0.0 1.0 
0.0 0.0 1.0 
0.0 0.0 1.0 
0.0 0.0 1.0 
0.0 0.0 1.0 
0.0 0.0 1.0 
0.0 0.0 1.0 
0.0 0.0 1.0 
0.0 0.0 1.0 
0.0 0.0 1.0 
0.0 0.0 1.0 
0.0 0.0 1.0 
0.0 0.0 1.0 
0.0 0.0 1.0 
0.0 0.0 1.0 
0.0 0.0 1.0 
0.0 0.0 1.0 
0.0 0.0 1.0 
0.0 0.0 1.0 
0.0 0.0 1.0 
0.0 0.0 1.0 
0.0 0.0 1.0 
0.0 0.0 1.0 
0.0 0.0 1.0 
0.0 0.0 1.0 
0.0 0.0 1.0 
0.0 0.0 1.0 
0.0 0.0 1.0 
0.0 0.0 1.0 
0.0 0.0 1.0 
0.0 0.0 1.0 
0.0 0.0 1.0 
0.0 0.0 1.0 
0.0 0.0 1.0 
0.0 0.0 1.0 
0.0 0.0 1.0 
0.0 0.0 1.0 
0.0 0.0 1.0 
Learning : 0.05
Momentum : 0.5
Epoch: 100, Error: 0.060227526605347095
Epoch: 200, Error: 0.022454479597879592
Epoch: 300, Error: 0.01788164468692324
Epoch: 400, Error: 0.016037021216276585
Epoch: 500, Error: 0.015145873267646399
Epoch: 600, Error: 0.014543062656807496
Epoch: 700, Error: 0.01408891942910113
Epoch: 800, Error: 0.01370315419097452
Epoch: 900, Error: 0.013438687829637344
Epoch: 1000, Error: 0.013240690645397334
Epoch: 1100, Error: 0.013184586498172645
Epoch: 1200, Error: 0.012988225569100563
Epoch: 1300, Error: 0.012900102321864351
Epoch: 1400, Error: 0.012770847569401807
Epoch: 1500, Error: 0.012703293837332298
Epoch: 1600, Error: 0.012675305591548188
Epoch: 1700, Error: 0.012637000150290898
Epoch: 1800, Error: 0.012546845816834334
Epoch: 1900, Error: 0.012541656692792913
Epoch: 2000, Error: 0.012516487291821464
Epoch: 2100, Error: 0.012546572902156099
Epoch: 2200, Error: 0.012494602253446042
Epoch: 2300, Error: 0.012448054043185098
Epoch: 2400, Error: 0.01250601853118929
Epoch: 2500, Error: 0.012478538922151951
Epoch: 2600, Error: 0.012449267033970693
Epoch: 2700, Error: 0.01242949559843858
Epoch: 2800, Error: 0.012427447442464904
Epoch: 2900, Error: 0.012479183182390562
Epoch: 3000, Error: 0.012405960720563342
Epoch: 3100, Error: 0.012422262392024591
Epoch: 3200, Error: 0.012449738121109354
Epoch: 3300, Error: 0.012366033515393572
Epoch: 3400, Error: 0.012359441139961912
Epoch: 3500, Error: 0.012337627269815592
Epoch: 3600, Error: 0.012384334587337448
Epoch: 3700, Error: 0.012461028441238014
Epoch: 3800, Error: 0.012310765497006639
Epoch: 3900, Error: 0.012278640493387888
Epoch: 4000, Error: 0.012283461303142748
Epoch: 4100, Error: 0.012252460144417068
Epoch: 4200, Error: 0.012343718907723764
Epoch: 4300, Error: 0.012385238129358664
Epoch: 4400, Error: 0.01226032176342654
Epoch: 4500, Error: 0.012296458447142472
Epoch: 4600, Error: 0.012299876816146364
Epoch: 4700, Error: 0.012301933880628637
Epoch: 4800, Error: 0.012218040621797932
Epoch: 4900, Error: 0.012217622858555703
Epoch: 5000, Error: 0.012229230868614825
Epoch: 5100, Error: 0.012213357048558257
Epoch: 5200, Error: 0.01217323916512553
Epoch: 5300, Error: 0.012149477994237762
Epoch: 5400, Error: 0.012140001062442392
Epoch: 5500, Error: 0.012155110180369019
Epoch: 5600, Error: 0.012183081180163088
Epoch: 5700, Error: 0.01231697540458878
Epoch: 5800, Error: 0.012241581779940624
Epoch: 5900, Error: 0.01229494417730232
Epoch: 6000, Error: 0.012342193048815198
Epoch: 6100, Error: 0.012193125147909068
Epoch: 6200, Error: 0.012186721034006535
Epoch: 6300, Error: 0.012140637828620028
Epoch: 6400, Error: 0.01212689392756163
Epoch: 6500, Error: 0.012190789325220351
Epoch: 6600, Error: 0.012143995633866336
Epoch: 6700, Error: 0.012179756259082925
Epoch: 6800, Error: 0.012107085451643563
Epoch: 6900, Error: 0.01209843139530394
Epoch: 7000, Error: 0.012118186779849879
Epoch: 7100, Error: 0.012069719665503664
Epoch: 7200, Error: 0.012033966663885948
Epoch: 7300, Error: 0.012157520075093992
Epoch: 7400, Error: 0.012060460070089507
Epoch: 7500, Error: 0.012035648337052384
Epoch: 7600, Error: 0.012011978787188866
Epoch: 7700, Error: 0.01198989722757399
Epoch: 7800, Error: 0.012045832104272226
Epoch: 7900, Error: 0.011996081090986137
Epoch: 8000, Error: 0.011952614253870637
Epoch: 8100, Error: 0.011991415835378442
Epoch: 8200, Error: 0.011929917898556193
Epoch: 8300, Error: 0.011882844354188269
Epoch: 8400, Error: 0.011905361956831872
Epoch: 8500, Error: 0.011882453266939886
Epoch: 8600, Error: 0.011814014995573632
Epoch: 8700, Error: 0.011823534161361442
Epoch: 8800, Error: 0.011798252107155089
Epoch: 8900, Error: 0.011750606952845374
Epoch: 9000, Error: 0.011734026270767884
Epoch: 9100, Error: 0.011708976928865841
Epoch: 9200, Error: 0.011663519594365977
Epoch: 9300, Error: 0.011667935027998417
Epoch: 9400, Error: 0.011591414594669967
Epoch: 9500, Error: 0.011581882343773539
Epoch: 9600, Error: 0.011522492152544101
Epoch: 9700, Error: 0.011487863906561327
Epoch: 9800, Error: 0.011432066054325242
Epoch: 9900, Error: 0.01140287545007637
Epoch: 10000, Error: 0.011351072592130506
Epoch: 10100, Error: 0.011352995682634492
Epoch: 10200, Error: 0.01120241507129782
Epoch: 10300, Error: 0.011176275700565012
Epoch: 10400, Error: 0.011156428507994223
Epoch: 10500, Error: 0.011084920274311256
Epoch: 10600, Error: 0.010999233081648106
Epoch: 10700, Error: 0.010960140920295552
Epoch: 10800, Error: 0.01095025549015052
Epoch: 10900, Error: 0.010883381869168159
Epoch: 11000, Error: 0.010788303020950126
Epoch: 11100, Error: 0.010719317898692324
Epoch: 11200, Error: 0.010707528219743103
Epoch: 11300, Error: 0.010593356143094946
Epoch: 11400, Error: 0.010537096218926859
Epoch: 11500, Error: 0.010446494251073999
Epoch: 11600, Error: 0.010387095471487334
Epoch: 11700, Error: 0.010329441996324488
Epoch: 11800, Error: 0.01023637853817574
Epoch: 11900, Error: 0.010188337155144065
Epoch: 12000, Error: 0.010150267188173051
Epoch: 12100, Error: 0.010004794767468274
Epoch: 12200, Error: 0.009934775836876585
Epoch: 12300, Error: 0.009904493457580427
Epoch: 12400, Error: 0.009836069092413715
Epoch: 12500, Error: 0.009761417974786343
Epoch: 12600, Error: 0.009657742049578796
Epoch: 12700, Error: 0.00958063923224236
Epoch: 12800, Error: 0.009474799559812001
Epoch: 12900, Error: 0.009380854093684644
Epoch: 13000, Error: 0.009307852597372537
Epoch: 13100, Error: 0.009239285949025598
Epoch: 13200, Error: 0.009085739539210854
Epoch: 13300, Error: 0.00900658611821469
Epoch: 13400, Error: 0.008899916115862768
Epoch: 13500, Error: 0.008803055622817638
Epoch: 13600, Error: 0.008660539928729838
Epoch: 13700, Error: 0.008555554776232646
Epoch: 13800, Error: 0.00844340033577616
Epoch: 13900, Error: 0.008291124454516033
Epoch: 14000, Error: 0.008157256084576115
Epoch: 14100, Error: 0.00805722643487783
Epoch: 14200, Error: 0.007945314112726573
Epoch: 14300, Error: 0.007854544368660102
Epoch: 14400, Error: 0.007787700171868712
Epoch: 14500, Error: 0.007680839241392993
Epoch: 14600, Error: 0.007643715876584728
Epoch: 14700, Error: 0.00756242513678338
Epoch: 14800, Error: 0.007495830480324844
Epoch: 14900, Error: 0.007421901407356261
Epoch: 15000, Error: 0.007359439640815172
Epoch: 15100, Error: 0.007272196657716683
Epoch: 15200, Error: 0.0072072901042367875
Epoch: 15300, Error: 0.007137414584613808
Epoch: 15400, Error: 0.007087603507212706
Epoch: 15500, Error: 0.007022735488261481
Epoch: 15600, Error: 0.007005843977292942
Epoch: 15700, Error: 0.006925123950534829
Epoch: 15800, Error: 0.006908040054419214
Epoch: 15900, Error: 0.0068652390324076915
Epoch: 16000, Error: 0.006824837089181635
Epoch: 16100, Error: 0.006793147741084016
Epoch: 16200, Error: 0.0067566526784051785
Epoch: 16300, Error: 0.006714911318877258
Epoch: 16400, Error: 0.006700242830219221
Epoch: 16500, Error: 0.006686183187031222
Epoch: 16600, Error: 0.00663810155472789
Epoch: 16700, Error: 0.006641317661105115
Epoch: 16800, Error: 0.0066202190453448885
Epoch: 16900, Error: 0.006638870035382148
Epoch: 17000, Error: 0.006625757360042169
Epoch: 17100, Error: 0.006621667030388633
Epoch: 17200, Error: 0.006634199892512085
Epoch: 17300, Error: 0.006625505386867135
Epoch: 17400, Error: 0.00665950494568615
Finished
