Input Patterns
0.224 0.624 0.067 0.043 
0.11 0.502 0.051 0.043 
0.196 0.667 0.067 0.043 
0.055 0.584 0.067 0.082 
0.027 0.376 0.067 0.043 
0.306 0.71 0.086 0.043 
0.137 0.416 0.067 0.0 
0.416 0.831 0.035 0.043 
0.306 0.792 0.051 0.125 
0.388 0.749 0.118 0.082 
0.306 0.584 0.118 0.043 
0.082 0.667 0.0 0.043 
0.137 0.584 0.153 0.043 
0.196 0.584 0.102 0.125 
0.251 0.584 0.067 0.043 
0.137 0.459 0.102 0.043 
0.251 0.875 0.086 0.0 
0.165 0.459 0.086 0.043 
0.333 0.624 0.051 0.043 
0.027 0.416 0.051 0.043 
0.196 0.624 0.051 0.082 
0.027 0.502 0.051 0.043 
0.224 0.749 0.153 0.125 
0.224 0.749 0.102 0.043 
0.278 0.71 0.086 0.043 
0.165 0.416 0.067 0.043 
0.082 0.459 0.086 0.043 
0.306 0.792 0.118 0.125 
0.196 0.584 0.086 0.043 
0.165 0.459 0.086 0.0 
0.137 0.584 0.102 0.043 
0.0 0.416 0.016 0.0 
0.388 1.0 0.086 0.125 
0.224 0.624 0.067 0.082 
0.224 0.749 0.086 0.082 
0.224 0.71 0.086 0.125 
0.224 0.541 0.118 0.165 
0.196 0.416 0.102 0.043 
0.251 0.624 0.086 0.043 
0.11 0.502 0.102 0.043 
0.306 0.584 0.086 0.125 
0.333 0.918 0.067 0.043 
0.196 0.502 0.035 0.043 
0.165 0.667 0.067 0.0 
0.224 0.584 0.086 0.043 
0.055 0.125 0.051 0.082 
0.196 0.624 0.102 0.208 
0.137 0.416 0.067 0.082 
0.082 0.502 0.067 0.043 
0.196 0.541 0.067 0.043 
0.749 0.502 0.627 0.541 
0.722 0.459 0.663 0.584 
0.612 0.333 0.612 0.584 
0.557 0.541 0.627 0.624 
0.639 0.376 0.612 0.498 
0.196 0.0 0.424 0.376 
0.471 0.082 0.51 0.376 
0.361 0.376 0.439 0.498 
0.361 0.416 0.592 0.584 
0.529 0.082 0.592 0.584 
0.443 0.502 0.643 0.459 
0.557 0.208 0.663 0.584 
0.584 0.376 0.561 0.498 
0.694 0.333 0.643 0.541 
0.471 0.376 0.592 0.584 
0.333 0.169 0.475 0.416 
0.416 0.29 0.49 0.459 
0.306 0.416 0.592 0.584 
0.667 0.459 0.627 0.584 
0.361 0.416 0.525 0.498 
0.333 0.251 0.576 0.459 
0.416 0.251 0.51 0.459 
0.361 0.29 0.541 0.498 
0.388 0.376 0.541 0.498 
0.224 0.208 0.337 0.416 
0.584 0.502 0.592 0.584 
0.333 0.125 0.51 0.498 
0.388 0.333 0.592 0.498 
0.165 0.169 0.388 0.376 
0.251 0.29 0.49 0.541 
0.443 0.416 0.541 0.584 
0.498 0.376 0.627 0.541 
0.667 0.459 0.576 0.541 
0.416 0.29 0.525 0.376 
0.361 0.208 0.49 0.416 
0.498 0.333 0.51 0.498 
0.498 0.333 0.627 0.459 
0.639 0.416 0.576 0.541 
0.667 0.416 0.678 0.667 
0.388 0.251 0.424 0.376 
0.333 0.169 0.459 0.376 
0.471 0.29 0.694 0.624 
0.471 0.584 0.592 0.624 
0.557 0.125 0.576 0.498 
0.333 0.208 0.51 0.498 
0.498 0.416 0.612 0.541 
0.196 0.125 0.388 0.376 
0.388 0.416 0.541 0.459 
0.529 0.376 0.561 0.498 
0.388 0.333 0.525 0.498 
0.557 0.541 0.847 1.0 
0.776 0.416 0.831 0.831 
0.612 0.416 0.812 0.875 
0.165 0.208 0.592 0.667 
0.667 0.208 0.812 0.71 
0.612 0.502 0.694 0.792 
0.694 0.416 0.761 0.831 
0.416 0.333 0.694 0.957 
0.612 0.416 0.761 0.71 
0.945 0.251 1.0 0.918 
0.722 0.502 0.796 0.918 
0.945 0.333 0.965 0.792 
0.667 0.541 0.796 0.831 
0.529 0.333 0.643 0.71 
0.584 0.333 0.78 0.831 
0.863 0.333 0.863 0.749 
0.584 0.333 0.78 0.875 
0.498 0.251 0.78 0.541 
0.557 0.584 0.78 0.957 
0.471 0.416 0.643 0.71 
0.667 0.459 0.78 0.957 
0.416 0.29 0.694 0.749 
0.667 0.541 0.796 1.0 
0.557 0.208 0.678 0.749 
0.529 0.584 0.745 0.918 
0.416 0.29 0.694 0.749 
0.557 0.376 0.78 0.71 
0.918 0.416 0.949 0.831 
0.835 0.376 0.898 0.71 
0.804 0.667 0.863 1.0 
0.584 0.29 0.729 0.749 
0.388 0.208 0.678 0.792 
0.584 0.502 0.729 0.918 
0.945 0.749 0.965 0.875 
0.471 0.082 0.678 0.584 
0.361 0.333 0.663 0.792 
0.557 0.29 0.663 0.71 
0.804 0.502 0.847 0.71 
0.498 0.416 0.51 0.71 
0.804 0.416 0.812 0.624 
1.0 0.749 0.914 0.792 
0.557 0.333 0.694 0.584 
0.945 0.416 0.863 0.918 
0.584 0.459 0.761 0.71 
0.722 0.459 0.745 0.831 
0.722 0.459 0.694 0.918 
0.694 0.502 0.831 0.918 
0.667 0.416 0.714 0.918 
0.612 0.416 0.714 0.792 
0.443 0.416 0.694 0.71 
Teaching Patterns
1.0 0.0 0.0 
1.0 0.0 0.0 
1.0 0.0 0.0 
1.0 0.0 0.0 
1.0 0.0 0.0 
1.0 0.0 0.0 
1.0 0.0 0.0 
1.0 0.0 0.0 
1.0 0.0 0.0 
1.0 0.0 0.0 
1.0 0.0 0.0 
1.0 0.0 0.0 
1.0 0.0 0.0 
1.0 0.0 0.0 
1.0 0.0 0.0 
1.0 0.0 0.0 
1.0 0.0 0.0 
1.0 0.0 0.0 
1.0 0.0 0.0 
1.0 0.0 0.0 
1.0 0.0 0.0 
1.0 0.0 0.0 
1.0 0.0 0.0 
1.0 0.0 0.0 
1.0 0.0 0.0 
1.0 0.0 0.0 
1.0 0.0 0.0 
1.0 0.0 0.0 
1.0 0.0 0.0 
1.0 0.0 0.0 
1.0 0.0 0.0 
1.0 0.0 0.0 
1.0 0.0 0.0 
1.0 0.0 0.0 
1.0 0.0 0.0 
1.0 0.0 0.0 
1.0 0.0 0.0 
1.0 0.0 0.0 
1.0 0.0 0.0 
1.0 0.0 0.0 
1.0 0.0 0.0 
1.0 0.0 0.0 
1.0 0.0 0.0 
1.0 0.0 0.0 
1.0 0.0 0.0 
1.0 0.0 0.0 
1.0 0.0 0.0 
1.0 0.0 0.0 
1.0 0.0 0.0 
1.0 0.0 0.0 
0.0 1.0 0.0 
0.0 1.0 0.0 
0.0 1.0 0.0 
0.0 1.0 0.0 
0.0 1.0 0.0 
0.0 1.0 0.0 
0.0 1.0 0.0 
0.0 1.0 0.0 
0.0 1.0 0.0 
0.0 1.0 0.0 
0.0 1.0 0.0 
0.0 1.0 0.0 
0.0 1.0 0.0 
0.0 1.0 0.0 
0.0 1.0 0.0 
0.0 1.0 0.0 
0.0 1.0 0.0 
0.0 1.0 0.0 
0.0 1.0 0.0 
0.0 1.0 0.0 
0.0 1.0 0.0 
0.0 1.0 0.0 
0.0 1.0 0.0 
0.0 1.0 0.0 
0.0 1.0 0.0 
0.0 1.0 0.0 
0.0 1.0 0.0 
0.0 1.0 0.0 
0.0 1.0 0.0 
0.0 1.0 0.0 
0.0 1.0 0.0 
0.0 1.0 0.0 
0.0 1.0 0.0 
0.0 1.0 0.0 
0.0 1.0 0.0 
0.0 1.0 0.0 
0.0 1.0 0.0 
0.0 1.0 0.0 
0.0 1.0 0.0 
0.0 1.0 0.0 
0.0 1.0 0.0 
0.0 1.0 0.0 
0.0 1.0 0.0 
0.0 1.0 0.0 
0.0 1.0 0.0 
0.0 1.0 0.0 
0.0 1.0 0.0 
0.0 1.0 0.0 
0.0 1.0 0.0 
0.0 1.0 0.0 
0.0 0.0 1.0 
0.0 0.0 1.0 
0.0 0.0 1.0 
0.0 0.0 1.0 
0.0 0.0 1.0 
0.0 0.0 1.0 
0.0 0.0 1.0 
0.0 0.0 1.0 
0.0 0.0 1.0 
0.0 0.0 1.0 
0.0 0.0 1.0 
0.0 0.0 1.0 
0.0 0.0 1.0 
0.0 0.0 1.0 
0.0 0.0 1.0 
0.0 0.0 1.0 
0.0 0.0 1.0 
0.0 0.0 1.0 
0.0 0.0 1.0 
0.0 0.0 1.0 
0.0 0.0 1.0 
0.0 0.0 1.0 
0.0 0.0 1.0 
0.0 0.0 1.0 
0.0 0.0 1.0 
0.0 0.0 1.0 
0.0 0.0 1.0 
0.0 0.0 1.0 
0.0 0.0 1.0 
0.0 0.0 1.0 
0.0 0.0 1.0 
0.0 0.0 1.0 
0.0 0.0 1.0 
0.0 0.0 1.0 
0.0 0.0 1.0 
0.0 0.0 1.0 
0.0 0.0 1.0 
0.0 0.0 1.0 
0.0 0.0 1.0 
0.0 0.0 1.0 
0.0 0.0 1.0 
0.0 0.0 1.0 
0.0 0.0 1.0 
0.0 0.0 1.0 
0.0 0.0 1.0 
0.0 0.0 1.0 
0.0 0.0 1.0 
0.0 0.0 1.0 
0.0 0.0 1.0 
0.0 0.0 1.0 
Learning : 0.05
Momentum : 0.5
Epoch: 100, Error: 0.05325481694118451
Epoch: 200, Error: 0.02069573357294172
Epoch: 300, Error: 0.01653024526565513
Epoch: 400, Error: 0.015017724063532174
Epoch: 500, Error: 0.014095214216966627
Epoch: 600, Error: 0.013526312646625712
Epoch: 700, Error: 0.013219631733530322
Epoch: 800, Error: 0.01299472213209773
Epoch: 900, Error: 0.012693653917365195
Epoch: 1000, Error: 0.012489435820714274
Epoch: 1100, Error: 0.012366468230257659
Epoch: 1200, Error: 0.012438829124195154
Epoch: 1300, Error: 0.012211723081239648
Epoch: 1400, Error: 0.01217578457469945
Epoch: 1500, Error: 0.012135915649075303
Epoch: 1600, Error: 0.012106362185642535
Epoch: 1700, Error: 0.012093301101864275
Epoch: 1800, Error: 0.012073191535673556
Epoch: 1900, Error: 0.01217854405776137
Epoch: 2000, Error: 0.01205473516175274
Epoch: 2100, Error: 0.012040889023484649
Epoch: 2200, Error: 0.012043225651802679
Epoch: 2300, Error: 0.01203846828537511
Epoch: 2400, Error: 0.012017081542566175
Epoch: 2500, Error: 0.012006753919418063
Epoch: 2600, Error: 0.011997915218049429
Epoch: 2700, Error: 0.01203865640042012
Epoch: 2800, Error: 0.012022338443871227
Epoch: 2900, Error: 0.012035654027556249
Epoch: 3000, Error: 0.012024526150086838
Epoch: 3100, Error: 0.012112498398863513
Epoch: 3200, Error: 0.011992829950717949
Epoch: 3300, Error: 0.011998510929767676
Epoch: 3400, Error: 0.011995845096268307
Epoch: 3500, Error: 0.011994714932332264
Epoch: 3600, Error: 0.012058310395409947
Epoch: 3700, Error: 0.012025835980308758
Epoch: 3800, Error: 0.011997529555181477
Epoch: 3900, Error: 0.011957653709609186
Epoch: 4000, Error: 0.012021158117056896
Epoch: 4100, Error: 0.01204028644025047
Epoch: 4200, Error: 0.012112646219721279
Epoch: 4300, Error: 0.011957569605211545
Epoch: 4400, Error: 0.011987987378708475
Epoch: 4500, Error: 0.01200385951296421
Epoch: 4600, Error: 0.011988324359607639
Epoch: 4700, Error: 0.011977639619052653
Epoch: 4800, Error: 0.011991374884038819
Epoch: 4900, Error: 0.011976875509847773
Epoch: 5000, Error: 0.011892997969694931
Epoch: 5100, Error: 0.011866975484462198
Epoch: 5200, Error: 0.01192631969614856
Epoch: 5300, Error: 0.011943068410131635
Epoch: 5400, Error: 0.012052555011616365
Epoch: 5500, Error: 0.011946345462610046
Epoch: 5600, Error: 0.01192260171189746
Epoch: 5700, Error: 0.011970364245961934
Epoch: 5800, Error: 0.011918689296676903
Epoch: 5900, Error: 0.011890824252385489
Epoch: 6000, Error: 0.011898481322909833
Epoch: 6100, Error: 0.01199187885430758
Epoch: 6200, Error: 0.011989218864016337
Epoch: 6300, Error: 0.01189886964735007
Epoch: 6400, Error: 0.011914106793094462
Epoch: 6500, Error: 0.01193727388213043
Epoch: 6600, Error: 0.011918340945096188
Epoch: 6700, Error: 0.011908420210733975
Epoch: 6800, Error: 0.011929625142510574
Epoch: 6900, Error: 0.01195321994882098
Epoch: 7000, Error: 0.011890458475351173
Epoch: 7100, Error: 0.011935931900538809
Epoch: 7200, Error: 0.01194167331588589
Epoch: 7300, Error: 0.01195448714270143
Epoch: 7400, Error: 0.011930153972464686
Epoch: 7500, Error: 0.01195600741992417
Epoch: 7600, Error: 0.011949242044212332
Epoch: 7700, Error: 0.011993152177695098
Epoch: 7800, Error: 0.011962070360567997
Epoch: 7900, Error: 0.011957596025139629
Epoch: 8000, Error: 0.011960185133879378
Epoch: 8100, Error: 0.01195257928965031
Epoch: 8200, Error: 0.011938251390919677
Epoch: 8300, Error: 0.011967561281798482
Epoch: 8400, Error: 0.011881822578204054
Epoch: 8500, Error: 0.011895057754207905
Epoch: 8600, Error: 0.011949795844126794
Epoch: 8700, Error: 0.01192736898014291
Epoch: 8800, Error: 0.011979744415479778
Epoch: 8900, Error: 0.01194077848869317
Epoch: 9000, Error: 0.011988801930265173
Epoch: 9100, Error: 0.01194586700832064
Epoch: 9200, Error: 0.011973859699318393
Epoch: 9300, Error: 0.011891817086116073
Epoch: 9400, Error: 0.011918789979516746
Epoch: 9500, Error: 0.011951290749632136
Epoch: 9600, Error: 0.011979016402992333
Epoch: 9700, Error: 0.011970465112305782
Epoch: 9800, Error: 0.011972268350632725
Epoch: 9900, Error: 0.011939950349231848
Epoch: 10000, Error: 0.011951353794994955
Epoch: 10100, Error: 0.01196181579982266
Epoch: 10200, Error: 0.011935637130296323
Epoch: 10300, Error: 0.012022974451339942
Epoch: 10400, Error: 0.011975943798778648
Epoch: 10500, Error: 0.011965617151888836
Epoch: 10600, Error: 0.011976703831408756
Epoch: 10700, Error: 0.012028998180012136
Epoch: 10800, Error: 0.011985619354218102
Epoch: 10900, Error: 0.011992544676670743
Epoch: 11000, Error: 0.011989068378170067
Epoch: 11100, Error: 0.011980050924749056
Epoch: 11200, Error: 0.01197676783856558
Epoch: 11300, Error: 0.01195929597468749
Epoch: 11400, Error: 0.012003254657026004
Epoch: 11500, Error: 0.012037048993704634
Epoch: 11600, Error: 0.011940583506672245
Epoch: 11700, Error: 0.01200737724196164
Epoch: 11800, Error: 0.011982757689128157
Epoch: 11900, Error: 0.01204355694141699
Epoch: 12000, Error: 0.012043716040858203
Epoch: 12100, Error: 0.012031644185800232
Epoch: 12200, Error: 0.011991576271434603
Epoch: 12300, Error: 0.0120074520821449
Epoch: 12400, Error: 0.012095518372648294
Epoch: 12500, Error: 0.01203411058227938
Epoch: 12600, Error: 0.012032103201543243
Epoch: 12700, Error: 0.012128292734763069
Epoch: 12800, Error: 0.011940652993505312
Epoch: 12900, Error: 0.011980554637329985
Epoch: 13000, Error: 0.0120107191707516
Epoch: 13100, Error: 0.012002054156851136
Epoch: 13200, Error: 0.012071592891006937
Epoch: 13300, Error: 0.0119729143918232
Epoch: 13400, Error: 0.011974708441829669
Epoch: 13500, Error: 0.011977844544465268
Epoch: 13600, Error: 0.011949275682437466
Epoch: 13700, Error: 0.012052720081262073
Epoch: 13800, Error: 0.012075019317026514
Epoch: 13900, Error: 0.011980447286219822
Epoch: 14000, Error: 0.012063731448741942
Epoch: 14100, Error: 0.012025401094603306
Epoch: 14200, Error: 0.01203827262766791
Epoch: 14300, Error: 0.012016077306906164
Epoch: 14400, Error: 0.01191986152802693
Epoch: 14500, Error: 0.011955211001112683
Epoch: 14600, Error: 0.011961010982835104
Epoch: 14700, Error: 0.011933916891597118
Epoch: 14800, Error: 0.011887691398528787
Epoch: 14900, Error: 0.012055906054465123
Epoch: 15000, Error: 0.01196518071622465
Epoch: 15100, Error: 0.011898623729084637
Epoch: 15200, Error: 0.011918400677194818
Epoch: 15300, Error: 0.011925204186044812
Epoch: 15400, Error: 0.011888600591311312
Epoch: 15500, Error: 0.011859645842023554
Epoch: 15600, Error: 0.011878374290763877
Epoch: 15700, Error: 0.01187863612212778
Epoch: 15800, Error: 0.011827678565882328
Epoch: 15900, Error: 0.011902440714077289
Epoch: 16000, Error: 0.011782885558960865
Epoch: 16100, Error: 0.011883567232477004
Epoch: 16200, Error: 0.011804039038951575
Epoch: 16300, Error: 0.011788546745632487
Epoch: 16400, Error: 0.01172798483555407
Epoch: 16500, Error: 0.011787615849397236
Epoch: 16600, Error: 0.011799065074804488
Epoch: 16700, Error: 0.011803283437592587
Epoch: 16800, Error: 0.011724240996614819
Epoch: 16900, Error: 0.011776784192297992
Epoch: 17000, Error: 0.011701824990098758
Epoch: 17100, Error: 0.011867056211810844
Epoch: 17200, Error: 0.011680213701111528
Epoch: 17300, Error: 0.011741906067708025
Epoch: 17400, Error: 0.011648537196530761
Epoch: 17500, Error: 0.011674271565489822
Epoch: 17600, Error: 0.011589992450124782
Epoch: 17700, Error: 0.011678869729535198
Epoch: 17800, Error: 0.011577408852136267
Epoch: 17900, Error: 0.011553441811538069
Epoch: 18000, Error: 0.011590070751162463
Epoch: 18100, Error: 0.011477967934122688
Epoch: 18200, Error: 0.01157418606650055
Epoch: 18300, Error: 0.011531803260108133
Epoch: 18400, Error: 0.011443494801451104
Epoch: 18500, Error: 0.011513619476167926
Epoch: 18600, Error: 0.011391163514596804
Epoch: 18700, Error: 0.011356609232671544
Epoch: 18800, Error: 0.011458213362658709
Epoch: 18900, Error: 0.011301923106569384
Epoch: 19000, Error: 0.01130025701827123
Epoch: 19100, Error: 0.011330803407296952
Epoch: 19200, Error: 0.011281009194478261
Epoch: 19300, Error: 0.011299635810232835
Epoch: 19400, Error: 0.01120428460727804
Epoch: 19500, Error: 0.011173068667603753
Epoch: 19600, Error: 0.011237643899023372
Epoch: 19700, Error: 0.011232909532448687
Epoch: 19800, Error: 0.01116524312837448
Epoch: 19900, Error: 0.011117999923741115
Epoch: 20000, Error: 0.011063639062571776
Epoch: 20100, Error: 0.011133250349428175
Epoch: 20200, Error: 0.011074745612594177
Epoch: 20300, Error: 0.011000168438627882
Epoch: 20400, Error: 0.010981724105729061
Epoch: 20500, Error: 0.010974902846208853
Epoch: 20600, Error: 0.010939457011376257
Epoch: 20700, Error: 0.01099228760728342
Epoch: 20800, Error: 0.010883003074851759
Epoch: 20900, Error: 0.010863460083507642
Epoch: 21000, Error: 0.010797248427650523
Epoch: 21100, Error: 0.010805523866159968
Epoch: 21200, Error: 0.01077006193203695
Epoch: 21300, Error: 0.01078128808293676
Epoch: 21400, Error: 0.010688885267221547
Epoch: 21500, Error: 0.010659940115847314
Epoch: 21600, Error: 0.010606734970447812
Epoch: 21700, Error: 0.01059116776496662
Epoch: 21800, Error: 0.010627684527366614
Epoch: 21900, Error: 0.010555508137648592
Epoch: 22000, Error: 0.010446389383673097
Epoch: 22100, Error: 0.01037706052807861
Epoch: 22200, Error: 0.010339785186094009
Epoch: 22300, Error: 0.010264735894818557
Epoch: 22400, Error: 0.010322442935697475
Epoch: 22500, Error: 0.010163807153981255
Epoch: 22600, Error: 0.010182021028363884
Epoch: 22700, Error: 0.01009829972470898
Epoch: 22800, Error: 0.010054854003532569
Epoch: 22900, Error: 0.009985989905199485
Epoch: 23000, Error: 0.00991619728828755
Epoch: 23100, Error: 0.009874544223886037
Epoch: 23200, Error: 0.009841982458508208
Epoch: 23300, Error: 0.009795307545585831
Epoch: 23400, Error: 0.00972619940798599
Epoch: 23500, Error: 0.009635882765657123
Epoch: 23600, Error: 0.009546635913069102
Epoch: 23700, Error: 0.009499667833824702
Epoch: 23800, Error: 0.0094031761416505
Epoch: 23900, Error: 0.009348794310910376
Epoch: 24000, Error: 0.00925281880089024
Epoch: 24100, Error: 0.009183782385664682
Epoch: 24200, Error: 0.009140753017381233
Epoch: 24300, Error: 0.009161213907756073
Epoch: 24400, Error: 0.009021384802362784
Epoch: 24500, Error: 0.009036972124644129
Epoch: 24600, Error: 0.008877213585008615
Epoch: 24700, Error: 0.0088793518655903
Epoch: 24800, Error: 0.008908951062100712
Epoch: 24900, Error: 0.00879557961720454
Epoch: 25000, Error: 0.008704886797209063
Epoch: 25100, Error: 0.00865340497417386
Epoch: 25200, Error: 0.008581601341231761
Epoch: 25300, Error: 0.008543350535196738
Epoch: 25400, Error: 0.008513642988187931
Epoch: 25500, Error: 0.008405996703105798
Epoch: 25600, Error: 0.008409694301818994
Epoch: 25700, Error: 0.008366274349151053
Epoch: 25800, Error: 0.008328156266530563
Epoch: 25900, Error: 0.008269657804051509
Epoch: 26000, Error: 0.008224557954453187
Epoch: 26100, Error: 0.008165765889916545
Epoch: 26200, Error: 0.008124792772792745
Epoch: 26300, Error: 0.008153047888700152
Epoch: 26400, Error: 0.008050664537700921
Epoch: 26500, Error: 0.007994635216408008
Epoch: 26600, Error: 0.00797876126637321
Epoch: 26700, Error: 0.007903816507378486
Epoch: 26800, Error: 0.007859491019928872
Epoch: 26900, Error: 0.00782701404923317
Epoch: 27000, Error: 0.007772165349692676
Epoch: 27100, Error: 0.00773395245742997
Epoch: 27200, Error: 0.007721554321392419
Epoch: 27300, Error: 0.007683230083083715
Epoch: 27400, Error: 0.0076767845622738575
Epoch: 27500, Error: 0.007629811605374643
Epoch: 27600, Error: 0.007588593698847887
Epoch: 27700, Error: 0.00756853636321386
Epoch: 27800, Error: 0.007554290354702003
Epoch: 27900, Error: 0.007512288833781016
Epoch: 28000, Error: 0.007493586148973072
Epoch: 28100, Error: 0.007458902717026513
Epoch: 28200, Error: 0.007441812550328333
Epoch: 28300, Error: 0.007409841292044707
Epoch: 28400, Error: 0.007417148620965721
Epoch: 28500, Error: 0.007388805759176137
Epoch: 28600, Error: 0.007377086843049365
Epoch: 28700, Error: 0.007377159444034015
Epoch: 28800, Error: 0.007354279670610465
Epoch: 28900, Error: 0.007315878058869769
Epoch: 29000, Error: 0.007298391458935415
Epoch: 29100, Error: 0.007288594398323976
Epoch: 29200, Error: 0.007271401651199136
Epoch: 29300, Error: 0.007250849424722526
Epoch: 29400, Error: 0.007241748642286813
Epoch: 29500, Error: 0.007210983117853078
Epoch: 29600, Error: 0.007209814504411142
Epoch: 29700, Error: 0.007169141525256175
Epoch: 29800, Error: 0.007183681308305882
Epoch: 29900, Error: 0.007141079175356069
Epoch: 30000, Error: 0.007128687013748253
Epoch: 30100, Error: 0.0071154441401071016
Epoch: 30200, Error: 0.0071171389735506345
Epoch: 30300, Error: 0.007082102731116873
Epoch: 30400, Error: 0.007071761334765545
Epoch: 30500, Error: 0.007071543915825323
Epoch: 30600, Error: 0.007047505482180742
Epoch: 30700, Error: 0.0070646908739698585
Epoch: 30800, Error: 0.007073634975922289
Epoch: 30900, Error: 0.007020934076969664
Epoch: 31000, Error: 0.007044504968740601
Epoch: 31100, Error: 0.00700802343281956
Epoch: 31200, Error: 0.006985830708375898
Epoch: 31300, Error: 0.006973879575672431
Epoch: 31400, Error: 0.006978862424710196
Finished
