Input Patterns
0.224 0.624 0.067 0.043 
0.11 0.502 0.051 0.043 
0.196 0.667 0.067 0.043 
0.055 0.584 0.067 0.082 
0.027 0.376 0.067 0.043 
0.306 0.71 0.086 0.043 
0.137 0.416 0.067 0.0 
0.416 0.831 0.035 0.043 
0.306 0.792 0.051 0.125 
0.388 0.749 0.118 0.082 
0.306 0.584 0.118 0.043 
0.082 0.667 0.0 0.043 
0.137 0.584 0.153 0.043 
0.196 0.584 0.102 0.125 
0.251 0.584 0.067 0.043 
0.137 0.459 0.102 0.043 
0.251 0.875 0.086 0.0 
0.165 0.459 0.086 0.043 
0.333 0.624 0.051 0.043 
0.027 0.416 0.051 0.043 
0.196 0.624 0.051 0.082 
0.027 0.502 0.051 0.043 
0.224 0.749 0.153 0.125 
0.224 0.749 0.102 0.043 
0.278 0.71 0.086 0.043 
0.165 0.416 0.067 0.043 
0.082 0.459 0.086 0.043 
0.306 0.792 0.118 0.125 
0.196 0.584 0.086 0.043 
0.165 0.459 0.086 0.0 
0.137 0.584 0.102 0.043 
0.0 0.416 0.016 0.0 
0.388 1.0 0.086 0.125 
0.224 0.624 0.067 0.082 
0.224 0.749 0.086 0.082 
0.224 0.71 0.086 0.125 
0.224 0.541 0.118 0.165 
0.196 0.416 0.102 0.043 
0.251 0.624 0.086 0.043 
0.11 0.502 0.102 0.043 
0.306 0.584 0.086 0.125 
0.333 0.918 0.067 0.043 
0.196 0.502 0.035 0.043 
0.165 0.667 0.067 0.0 
0.224 0.584 0.086 0.043 
0.055 0.125 0.051 0.082 
0.196 0.624 0.102 0.208 
0.137 0.416 0.067 0.082 
0.082 0.502 0.067 0.043 
0.196 0.541 0.067 0.043 
0.749 0.502 0.627 0.541 
0.722 0.459 0.663 0.584 
0.612 0.333 0.612 0.584 
0.557 0.541 0.627 0.624 
0.639 0.376 0.612 0.498 
0.196 0.0 0.424 0.376 
0.471 0.082 0.51 0.376 
0.361 0.376 0.439 0.498 
0.361 0.416 0.592 0.584 
0.529 0.082 0.592 0.584 
0.443 0.502 0.643 0.459 
0.557 0.208 0.663 0.584 
0.584 0.376 0.561 0.498 
0.694 0.333 0.643 0.541 
0.471 0.376 0.592 0.584 
0.333 0.169 0.475 0.416 
0.416 0.29 0.49 0.459 
0.306 0.416 0.592 0.584 
0.667 0.459 0.627 0.584 
0.361 0.416 0.525 0.498 
0.333 0.251 0.576 0.459 
0.416 0.251 0.51 0.459 
0.361 0.29 0.541 0.498 
0.388 0.376 0.541 0.498 
0.224 0.208 0.337 0.416 
0.584 0.502 0.592 0.584 
0.333 0.125 0.51 0.498 
0.388 0.333 0.592 0.498 
0.165 0.169 0.388 0.376 
0.251 0.29 0.49 0.541 
0.443 0.416 0.541 0.584 
0.498 0.376 0.627 0.541 
0.667 0.459 0.576 0.541 
0.416 0.29 0.525 0.376 
0.361 0.208 0.49 0.416 
0.498 0.333 0.51 0.498 
0.498 0.333 0.627 0.459 
0.639 0.416 0.576 0.541 
0.667 0.416 0.678 0.667 
0.388 0.251 0.424 0.376 
0.333 0.169 0.459 0.376 
0.471 0.29 0.694 0.624 
0.471 0.584 0.592 0.624 
0.557 0.125 0.576 0.498 
0.333 0.208 0.51 0.498 
0.498 0.416 0.612 0.541 
0.196 0.125 0.388 0.376 
0.388 0.416 0.541 0.459 
0.529 0.376 0.561 0.498 
0.388 0.333 0.525 0.498 
0.557 0.541 0.847 1.0 
0.776 0.416 0.831 0.831 
0.612 0.416 0.812 0.875 
0.165 0.208 0.592 0.667 
0.667 0.208 0.812 0.71 
0.612 0.502 0.694 0.792 
0.694 0.416 0.761 0.831 
0.416 0.333 0.694 0.957 
0.612 0.416 0.761 0.71 
0.945 0.251 1.0 0.918 
0.722 0.502 0.796 0.918 
0.945 0.333 0.965 0.792 
0.667 0.541 0.796 0.831 
0.529 0.333 0.643 0.71 
0.584 0.333 0.78 0.831 
0.863 0.333 0.863 0.749 
0.584 0.333 0.78 0.875 
0.498 0.251 0.78 0.541 
0.557 0.584 0.78 0.957 
0.471 0.416 0.643 0.71 
0.667 0.459 0.78 0.957 
0.416 0.29 0.694 0.749 
0.667 0.541 0.796 1.0 
0.557 0.208 0.678 0.749 
0.529 0.584 0.745 0.918 
0.416 0.29 0.694 0.749 
0.557 0.376 0.78 0.71 
0.918 0.416 0.949 0.831 
0.835 0.376 0.898 0.71 
0.804 0.667 0.863 1.0 
0.584 0.29 0.729 0.749 
0.388 0.208 0.678 0.792 
0.584 0.502 0.729 0.918 
0.945 0.749 0.965 0.875 
0.471 0.082 0.678 0.584 
0.361 0.333 0.663 0.792 
0.557 0.29 0.663 0.71 
0.804 0.502 0.847 0.71 
0.498 0.416 0.51 0.71 
0.804 0.416 0.812 0.624 
1.0 0.749 0.914 0.792 
0.557 0.333 0.694 0.584 
0.945 0.416 0.863 0.918 
0.584 0.459 0.761 0.71 
0.722 0.459 0.745 0.831 
0.722 0.459 0.694 0.918 
0.694 0.502 0.831 0.918 
0.667 0.416 0.714 0.918 
0.612 0.416 0.714 0.792 
0.443 0.416 0.694 0.71 
Teaching Patterns
1.0 0.0 0.0 
1.0 0.0 0.0 
1.0 0.0 0.0 
1.0 0.0 0.0 
1.0 0.0 0.0 
1.0 0.0 0.0 
1.0 0.0 0.0 
1.0 0.0 0.0 
1.0 0.0 0.0 
1.0 0.0 0.0 
1.0 0.0 0.0 
1.0 0.0 0.0 
1.0 0.0 0.0 
1.0 0.0 0.0 
1.0 0.0 0.0 
1.0 0.0 0.0 
1.0 0.0 0.0 
1.0 0.0 0.0 
1.0 0.0 0.0 
1.0 0.0 0.0 
1.0 0.0 0.0 
1.0 0.0 0.0 
1.0 0.0 0.0 
1.0 0.0 0.0 
1.0 0.0 0.0 
1.0 0.0 0.0 
1.0 0.0 0.0 
1.0 0.0 0.0 
1.0 0.0 0.0 
1.0 0.0 0.0 
1.0 0.0 0.0 
1.0 0.0 0.0 
1.0 0.0 0.0 
1.0 0.0 0.0 
1.0 0.0 0.0 
1.0 0.0 0.0 
1.0 0.0 0.0 
1.0 0.0 0.0 
1.0 0.0 0.0 
1.0 0.0 0.0 
1.0 0.0 0.0 
1.0 0.0 0.0 
1.0 0.0 0.0 
1.0 0.0 0.0 
1.0 0.0 0.0 
1.0 0.0 0.0 
1.0 0.0 0.0 
1.0 0.0 0.0 
1.0 0.0 0.0 
1.0 0.0 0.0 
0.0 1.0 0.0 
0.0 1.0 0.0 
0.0 1.0 0.0 
0.0 1.0 0.0 
0.0 1.0 0.0 
0.0 1.0 0.0 
0.0 1.0 0.0 
0.0 1.0 0.0 
0.0 1.0 0.0 
0.0 1.0 0.0 
0.0 1.0 0.0 
0.0 1.0 0.0 
0.0 1.0 0.0 
0.0 1.0 0.0 
0.0 1.0 0.0 
0.0 1.0 0.0 
0.0 1.0 0.0 
0.0 1.0 0.0 
0.0 1.0 0.0 
0.0 1.0 0.0 
0.0 1.0 0.0 
0.0 1.0 0.0 
0.0 1.0 0.0 
0.0 1.0 0.0 
0.0 1.0 0.0 
0.0 1.0 0.0 
0.0 1.0 0.0 
0.0 1.0 0.0 
0.0 1.0 0.0 
0.0 1.0 0.0 
0.0 1.0 0.0 
0.0 1.0 0.0 
0.0 1.0 0.0 
0.0 1.0 0.0 
0.0 1.0 0.0 
0.0 1.0 0.0 
0.0 1.0 0.0 
0.0 1.0 0.0 
0.0 1.0 0.0 
0.0 1.0 0.0 
0.0 1.0 0.0 
0.0 1.0 0.0 
0.0 1.0 0.0 
0.0 1.0 0.0 
0.0 1.0 0.0 
0.0 1.0 0.0 
0.0 1.0 0.0 
0.0 1.0 0.0 
0.0 1.0 0.0 
0.0 1.0 0.0 
0.0 0.0 1.0 
0.0 0.0 1.0 
0.0 0.0 1.0 
0.0 0.0 1.0 
0.0 0.0 1.0 
0.0 0.0 1.0 
0.0 0.0 1.0 
0.0 0.0 1.0 
0.0 0.0 1.0 
0.0 0.0 1.0 
0.0 0.0 1.0 
0.0 0.0 1.0 
0.0 0.0 1.0 
0.0 0.0 1.0 
0.0 0.0 1.0 
0.0 0.0 1.0 
0.0 0.0 1.0 
0.0 0.0 1.0 
0.0 0.0 1.0 
0.0 0.0 1.0 
0.0 0.0 1.0 
0.0 0.0 1.0 
0.0 0.0 1.0 
0.0 0.0 1.0 
0.0 0.0 1.0 
0.0 0.0 1.0 
0.0 0.0 1.0 
0.0 0.0 1.0 
0.0 0.0 1.0 
0.0 0.0 1.0 
0.0 0.0 1.0 
0.0 0.0 1.0 
0.0 0.0 1.0 
0.0 0.0 1.0 
0.0 0.0 1.0 
0.0 0.0 1.0 
0.0 0.0 1.0 
0.0 0.0 1.0 
0.0 0.0 1.0 
0.0 0.0 1.0 
0.0 0.0 1.0 
0.0 0.0 1.0 
0.0 0.0 1.0 
0.0 0.0 1.0 
0.0 0.0 1.0 
0.0 0.0 1.0 
0.0 0.0 1.0 
0.0 0.0 1.0 
0.0 0.0 1.0 
0.0 0.0 1.0 
Learning : 0.05
Momentum : 0.5
Epoch: 100, Error: 0.06331458464989202
Epoch: 200, Error: 0.02326524278179344
Epoch: 300, Error: 0.01817663196523905
Epoch: 400, Error: 0.016378490231236605
Epoch: 500, Error: 0.015240318810699548
Epoch: 600, Error: 0.014403804006124031
Epoch: 700, Error: 0.013957066781358617
Epoch: 800, Error: 0.013802418122035538
Epoch: 900, Error: 0.013548659056875214
Epoch: 1000, Error: 0.013323070264258349
Epoch: 1100, Error: 0.013192756097219323
Epoch: 1200, Error: 0.012991034878095924
Epoch: 1300, Error: 0.012976123733934664
Epoch: 1400, Error: 0.012896717094273532
Epoch: 1500, Error: 0.012815849177768623
Epoch: 1600, Error: 0.012717494821478844
Epoch: 1700, Error: 0.01267520371292896
Epoch: 1800, Error: 0.012652180883879337
Epoch: 1900, Error: 0.01258235724614933
Epoch: 2000, Error: 0.012582674197016945
Epoch: 2100, Error: 0.012543385215347109
Epoch: 2200, Error: 0.0125139729176639
Epoch: 2300, Error: 0.012519778907062922
Epoch: 2400, Error: 0.012441282707766711
Epoch: 2500, Error: 0.01244599934371868
Epoch: 2600, Error: 0.012451955832318127
Epoch: 2700, Error: 0.012458318900149125
Epoch: 2800, Error: 0.012407475595509164
Epoch: 2900, Error: 0.012389645119326777
Epoch: 3000, Error: 0.012377061552762213
Epoch: 3100, Error: 0.01241102454498014
Epoch: 3200, Error: 0.012430151240958464
Epoch: 3300, Error: 0.01235024406112057
Epoch: 3400, Error: 0.01235247714352367
Epoch: 3500, Error: 0.012354441142111114
Epoch: 3600, Error: 0.012317553537899928
Epoch: 3700, Error: 0.012321000222422886
Epoch: 3800, Error: 0.012322836981249665
Epoch: 3900, Error: 0.012283794308770097
Epoch: 4000, Error: 0.012242063338320501
Epoch: 4100, Error: 0.012266951984926947
Epoch: 4200, Error: 0.01218675842173892
Epoch: 4300, Error: 0.01219477174017785
Epoch: 4400, Error: 0.012184551744895692
Epoch: 4500, Error: 0.012205080754724403
Epoch: 4600, Error: 0.012188434324555424
Epoch: 4700, Error: 0.012201864687534982
Epoch: 4800, Error: 0.01220160474509439
Epoch: 4900, Error: 0.012183172882214332
Epoch: 5000, Error: 0.012183688900007032
Epoch: 5100, Error: 0.012149588425120426
Epoch: 5200, Error: 0.012129967849530918
Epoch: 5300, Error: 0.0121006106903529
Epoch: 5400, Error: 0.012103487822987065
Epoch: 5500, Error: 0.012118264831071614
Epoch: 5600, Error: 0.012103905163403577
Epoch: 5700, Error: 0.012157339751796918
Epoch: 5800, Error: 0.012105237750590473
Epoch: 5900, Error: 0.012125889705222501
Epoch: 6000, Error: 0.012107278871535133
Epoch: 6100, Error: 0.012052951932851504
Epoch: 6200, Error: 0.01204826389554889
Epoch: 6300, Error: 0.012061624822964304
Epoch: 6400, Error: 0.012039361341388284
Epoch: 6500, Error: 0.012031301419641104
Epoch: 6600, Error: 0.012013957595307028
Epoch: 6700, Error: 0.012014457337993705
Epoch: 6800, Error: 0.012058917826235563
Epoch: 6900, Error: 0.012021504268118655
Epoch: 7000, Error: 0.012005901531114123
Epoch: 7100, Error: 0.012067261031727195
Epoch: 7200, Error: 0.011999096672723962
Epoch: 7300, Error: 0.011954295742584591
Epoch: 7400, Error: 0.011964547019130882
Epoch: 7500, Error: 0.01196690027174338
Epoch: 7600, Error: 0.011973409841351684
Epoch: 7700, Error: 0.01202351049222091
Epoch: 7800, Error: 0.01205146062330039
Epoch: 7900, Error: 0.012048537718355803
Epoch: 8000, Error: 0.012045037720007359
Epoch: 8100, Error: 0.01206136227607583
Epoch: 8200, Error: 0.01199334830207191
Epoch: 8300, Error: 0.012040256414669341
Epoch: 8400, Error: 0.012004258451118672
Epoch: 8500, Error: 0.01202256585923234
Epoch: 8600, Error: 0.011988630238520816
Epoch: 8700, Error: 0.011976075305599118
Epoch: 8800, Error: 0.012007143574756173
Epoch: 8900, Error: 0.012026472104766395
Epoch: 9000, Error: 0.012018327968198184
Epoch: 9100, Error: 0.012011856828250999
Epoch: 9200, Error: 0.012093537682047616
Epoch: 9300, Error: 0.011984125712540566
Epoch: 9400, Error: 0.01200647746020875
Epoch: 9500, Error: 0.011955438202713288
Epoch: 9600, Error: 0.012023026896122365
Epoch: 9700, Error: 0.011960538158133529
Epoch: 9800, Error: 0.011940220822395351
Epoch: 9900, Error: 0.011935722783944227
Epoch: 10000, Error: 0.011958403753340724
Epoch: 10100, Error: 0.01193477626852213
Epoch: 10200, Error: 0.0119344581213917
Epoch: 10300, Error: 0.011978915727474218
Epoch: 10400, Error: 0.011954125684627765
Epoch: 10500, Error: 0.01195227972957029
Epoch: 10600, Error: 0.0119546100554265
Epoch: 10700, Error: 0.011922211142407062
Epoch: 10800, Error: 0.01215298283382314
Epoch: 10900, Error: 0.012002185334354728
Epoch: 11000, Error: 0.011961406249784909
Epoch: 11100, Error: 0.011954449448270827
Epoch: 11200, Error: 0.011993770090944648
Epoch: 11300, Error: 0.011933663047748382
Epoch: 11400, Error: 0.011926865972938912
Epoch: 11500, Error: 0.011942216474839035
Epoch: 11600, Error: 0.0119160680298337
Epoch: 11700, Error: 0.011962817413591165
Epoch: 11800, Error: 0.011886799113686588
Epoch: 11900, Error: 0.011869792970740508
Epoch: 12000, Error: 0.011896020570376586
Epoch: 12100, Error: 0.011832488871065907
Epoch: 12200, Error: 0.011843338834002836
Epoch: 12300, Error: 0.011819650299522196
Epoch: 12400, Error: 0.011893403715595677
Epoch: 12500, Error: 0.011791605419318913
Epoch: 12600, Error: 0.01188391425911802
Epoch: 12700, Error: 0.011737967166790887
Epoch: 12800, Error: 0.011772608315068751
Epoch: 12900, Error: 0.011708397526459833
Epoch: 13000, Error: 0.011666544886442094
Epoch: 13100, Error: 0.01162282300352409
Epoch: 13200, Error: 0.011623293230597988
Epoch: 13300, Error: 0.01167509611078563
Epoch: 13400, Error: 0.011580356207942798
Epoch: 13500, Error: 0.011595912516719088
Epoch: 13600, Error: 0.011547799700182578
Epoch: 13700, Error: 0.011504233986217095
Epoch: 13800, Error: 0.011503497313146966
Epoch: 13900, Error: 0.011531381338053573
Epoch: 14000, Error: 0.011460844440637321
Epoch: 14100, Error: 0.011422462574256465
Epoch: 14200, Error: 0.011421636680921997
Epoch: 14300, Error: 0.011393315379573603
Epoch: 14400, Error: 0.011404867681927071
Epoch: 14500, Error: 0.011356769482731326
Epoch: 14600, Error: 0.01138707866326401
Epoch: 14700, Error: 0.011371390224052971
Epoch: 14800, Error: 0.011345799441644424
Epoch: 14900, Error: 0.011266955528629607
Epoch: 15000, Error: 0.01126011790709228
Epoch: 15100, Error: 0.011220493677332006
Epoch: 15200, Error: 0.011187160121533923
Epoch: 15300, Error: 0.011165384690905134
Epoch: 15400, Error: 0.01112178384484766
Epoch: 15500, Error: 0.011074921376445456
Epoch: 15600, Error: 0.011024789309890013
Epoch: 15700, Error: 0.010970550237320431
Epoch: 15800, Error: 0.01089885158862779
Epoch: 15900, Error: 0.010872514661175902
Epoch: 16000, Error: 0.010796515898350519
Epoch: 16100, Error: 0.01074146596400483
Epoch: 16200, Error: 0.01069238289999619
Epoch: 16300, Error: 0.010650000133382022
Epoch: 16400, Error: 0.01061105285108759
Epoch: 16500, Error: 0.010535149630208691
Epoch: 16600, Error: 0.010503967432979539
Epoch: 16700, Error: 0.010463301702734821
Epoch: 16800, Error: 0.010407338695835244
Epoch: 16900, Error: 0.010361499420630808
Epoch: 17000, Error: 0.01029514200199999
Epoch: 17100, Error: 0.010220710816495518
Epoch: 17200, Error: 0.010160281113061966
Epoch: 17300, Error: 0.010139160755622354
Epoch: 17400, Error: 0.010051268011567348
Epoch: 17500, Error: 0.010018092905470032
Epoch: 17600, Error: 0.0099312886339014
Epoch: 17700, Error: 0.009873555094294342
Epoch: 17800, Error: 0.009814921965650075
Epoch: 17900, Error: 0.009750047661379383
Epoch: 18000, Error: 0.009725415320275155
Epoch: 18100, Error: 0.009595602616939569
Epoch: 18200, Error: 0.009576228097865512
Epoch: 18300, Error: 0.00952153395652823
Epoch: 18400, Error: 0.009398419244888141
Epoch: 18500, Error: 0.009333471801485398
Epoch: 18600, Error: 0.009276105520374583
Epoch: 18700, Error: 0.009222175128518416
Epoch: 18800, Error: 0.0091648699931767
Epoch: 18900, Error: 0.009108642172684062
Epoch: 19000, Error: 0.00905750228149251
Epoch: 19100, Error: 0.009019986720340675
Epoch: 19200, Error: 0.008980685071495803
Epoch: 19300, Error: 0.008927901578573327
Epoch: 19400, Error: 0.008915072119740304
Epoch: 19500, Error: 0.008925205343080245
Epoch: 19600, Error: 0.008889983483114754
Epoch: 19700, Error: 0.008924120368080176
Epoch: 19800, Error: 0.008896571442100541
Epoch: 19900, Error: 0.008884518118398452
Epoch: 20000, Error: 0.008809971289303596
Epoch: 20100, Error: 0.008743785238298921
Epoch: 20200, Error: 0.008655104353176154
Epoch: 20300, Error: 0.008585234469482169
Epoch: 20400, Error: 0.008561363008017702
Epoch: 20500, Error: 0.008545437678133549
Epoch: 20600, Error: 0.008538981244368837
Epoch: 20700, Error: 0.008502119351743918
Epoch: 20800, Error: 0.008472307932360965
Epoch: 20900, Error: 0.00850434782996838
Epoch: 21000, Error: 0.008445184919182006
Epoch: 21100, Error: 0.008415952901267105
Epoch: 21200, Error: 0.008419186416822473
Epoch: 21300, Error: 0.008360907058555486
Epoch: 21400, Error: 0.008337156376669356
Epoch: 21500, Error: 0.008329923493202038
Epoch: 21600, Error: 0.008310365709980456
Epoch: 21700, Error: 0.0082602480800634
Epoch: 21800, Error: 0.008237735477167022
Epoch: 21900, Error: 0.008217679285036843
Epoch: 22000, Error: 0.008254093415655956
Epoch: 22100, Error: 0.008250356604354856
Epoch: 22200, Error: 0.008241026182132795
Epoch: 22300, Error: 0.008201346186074515
Epoch: 22400, Error: 0.008204242513677452
Epoch: 22500, Error: 0.008199035638020845
Epoch: 22600, Error: 0.008171753154605749
Epoch: 22700, Error: 0.008159625872618597
Epoch: 22800, Error: 0.008173282194075896
Epoch: 22900, Error: 0.008158662644565301
Epoch: 23000, Error: 0.0081379833918155
Epoch: 23100, Error: 0.008107934965707813
Epoch: 23200, Error: 0.008114732204803993
Epoch: 23300, Error: 0.008038414669069177
Epoch: 23400, Error: 0.008015595017791154
Epoch: 23500, Error: 0.008017635028956796
Epoch: 23600, Error: 0.007973625823957206
Epoch: 23700, Error: 0.007942734924081735
Epoch: 23800, Error: 0.007927097007644494
Epoch: 23900, Error: 0.007921083554038751
Epoch: 24000, Error: 0.007885900618811604
Epoch: 24100, Error: 0.007862936030265466
Epoch: 24200, Error: 0.00782909049414595
Epoch: 24300, Error: 0.00780005576642174
Epoch: 24400, Error: 0.007804700345516525
Epoch: 24500, Error: 0.007732853573060789
Epoch: 24600, Error: 0.007727339502921613
Epoch: 24700, Error: 0.007696900009223137
Epoch: 24800, Error: 0.007686158004817952
Epoch: 24900, Error: 0.007651402217588422
Epoch: 25000, Error: 0.0076250394119147654
Epoch: 25100, Error: 0.0076007471640652385
Epoch: 25200, Error: 0.007573998557833424
Epoch: 25300, Error: 0.0075472009536522435
Epoch: 25400, Error: 0.007534249850022436
Epoch: 25500, Error: 0.0075191040292226455
Epoch: 25600, Error: 0.007470126549128699
Epoch: 25700, Error: 0.007445114723878764
Epoch: 25800, Error: 0.007405554656537407
Epoch: 25900, Error: 0.0073860533115014506
Epoch: 26000, Error: 0.007369298730088687
Epoch: 26100, Error: 0.0073771516473160525
Epoch: 26200, Error: 0.007313402169401355
Epoch: 26300, Error: 0.00726877150471724
Epoch: 26400, Error: 0.007242550238565251
Epoch: 26500, Error: 0.007221130514661064
Epoch: 26600, Error: 0.007185197875856674
Epoch: 26700, Error: 0.007194110342263206
Epoch: 26800, Error: 0.00716867189557097
Epoch: 26900, Error: 0.00716138129486673
Epoch: 27000, Error: 0.007135268349661108
Epoch: 27100, Error: 0.00710896881039584
Epoch: 27200, Error: 0.007090789151592639
Epoch: 27300, Error: 0.007084412591620635
Epoch: 27400, Error: 0.007045272197608356
Epoch: 27500, Error: 0.0070318510813660645
Epoch: 27600, Error: 0.007025856497278481
Epoch: 27700, Error: 0.007010131396903162
Epoch: 27800, Error: 0.006989378443464034
Epoch: 27900, Error: 0.00696296393384535
Epoch: 28000, Error: 0.006955222772423973
Epoch: 28100, Error: 0.006960451824273033
Epoch: 28200, Error: 0.006948519776898456
Epoch: 28300, Error: 0.006948514592945734
Epoch: 28400, Error: 0.00691825519307234
Epoch: 28500, Error: 0.006907451667137017
Epoch: 28600, Error: 0.0068939503411727535
Epoch: 28700, Error: 0.006891019072692379
Epoch: 28800, Error: 0.006874010637839304
Epoch: 28900, Error: 0.006848611906886175
Epoch: 29000, Error: 0.006823127893753086
Epoch: 29100, Error: 0.006811964867699052
Epoch: 29200, Error: 0.006787025025030375
Epoch: 29300, Error: 0.0067684015341572335
Epoch: 29400, Error: 0.006755480339576136
Epoch: 29500, Error: 0.006734856289860556
Epoch: 29600, Error: 0.006729227057410236
Epoch: 29700, Error: 0.006714682331225037
Epoch: 29800, Error: 0.006697154703576901
Epoch: 29900, Error: 0.006678154037771035
Epoch: 30000, Error: 0.006643169381854462
Epoch: 30100, Error: 0.006638209874774391
Epoch: 30200, Error: 0.006629608257589912
Epoch: 30300, Error: 0.0066418886341157906
Epoch: 30400, Error: 0.00663044664251707
Epoch: 30500, Error: 0.006620159638658168
Epoch: 30600, Error: 0.0065873459149718835
Epoch: 30700, Error: 0.006585157867195774
Epoch: 30800, Error: 0.00655877657509364
Epoch: 30900, Error: 0.006566379948835392
Epoch: 31000, Error: 0.006585813777915449
Epoch: 31100, Error: 0.006578825954914587
Epoch: 31200, Error: 0.006582581939802381
Epoch: 31300, Error: 0.00661491559290376
Epoch: 31400, Error: 0.0066338146138173
Epoch: 31500, Error: 0.006654721445232216
Epoch: 31600, Error: 0.0066665236036617575
Epoch: 31700, Error: 0.0066717614816241754
Epoch: 31800, Error: 0.00666863788026185
Epoch: 31900, Error: 0.006669468507054182
Epoch: 32000, Error: 0.006678287689647076
Epoch: 32100, Error: 0.006671432704668264
Epoch: 32200, Error: 0.00666753618032221
Epoch: 32300, Error: 0.006679935855511498
Epoch: 32400, Error: 0.006689386032271322
Finished
