Input Patterns
0.224 0.624 0.067 0.043 
0.11 0.502 0.051 0.043 
0.196 0.667 0.067 0.043 
0.055 0.584 0.067 0.082 
0.027 0.376 0.067 0.043 
0.306 0.71 0.086 0.043 
0.137 0.416 0.067 0.0 
0.416 0.831 0.035 0.043 
0.306 0.792 0.051 0.125 
0.388 0.749 0.118 0.082 
0.306 0.584 0.118 0.043 
0.082 0.667 0.0 0.043 
0.137 0.584 0.153 0.043 
0.196 0.584 0.102 0.125 
0.251 0.584 0.067 0.043 
0.137 0.459 0.102 0.043 
0.251 0.875 0.086 0.0 
0.165 0.459 0.086 0.043 
0.333 0.624 0.051 0.043 
0.027 0.416 0.051 0.043 
0.196 0.624 0.051 0.082 
0.027 0.502 0.051 0.043 
0.224 0.749 0.153 0.125 
0.224 0.749 0.102 0.043 
0.278 0.71 0.086 0.043 
0.165 0.416 0.067 0.043 
0.082 0.459 0.086 0.043 
0.306 0.792 0.118 0.125 
0.196 0.584 0.086 0.043 
0.165 0.459 0.086 0.0 
0.137 0.584 0.102 0.043 
0.0 0.416 0.016 0.0 
0.388 1.0 0.086 0.125 
0.224 0.624 0.067 0.082 
0.224 0.749 0.086 0.082 
0.224 0.71 0.086 0.125 
0.224 0.541 0.118 0.165 
0.196 0.416 0.102 0.043 
0.251 0.624 0.086 0.043 
0.11 0.502 0.102 0.043 
0.306 0.584 0.086 0.125 
0.333 0.918 0.067 0.043 
0.196 0.502 0.035 0.043 
0.165 0.667 0.067 0.0 
0.224 0.584 0.086 0.043 
0.055 0.125 0.051 0.082 
0.196 0.624 0.102 0.208 
0.137 0.416 0.067 0.082 
0.082 0.502 0.067 0.043 
0.196 0.541 0.067 0.043 
0.749 0.502 0.627 0.541 
0.722 0.459 0.663 0.584 
0.612 0.333 0.612 0.584 
0.557 0.541 0.627 0.624 
0.639 0.376 0.612 0.498 
0.196 0.0 0.424 0.376 
0.471 0.082 0.51 0.376 
0.361 0.376 0.439 0.498 
0.361 0.416 0.592 0.584 
0.529 0.082 0.592 0.584 
0.443 0.502 0.643 0.459 
0.557 0.208 0.663 0.584 
0.584 0.376 0.561 0.498 
0.694 0.333 0.643 0.541 
0.471 0.376 0.592 0.584 
0.333 0.169 0.475 0.416 
0.416 0.29 0.49 0.459 
0.306 0.416 0.592 0.584 
0.667 0.459 0.627 0.584 
0.361 0.416 0.525 0.498 
0.333 0.251 0.576 0.459 
0.416 0.251 0.51 0.459 
0.361 0.29 0.541 0.498 
0.388 0.376 0.541 0.498 
0.224 0.208 0.337 0.416 
0.584 0.502 0.592 0.584 
0.333 0.125 0.51 0.498 
0.388 0.333 0.592 0.498 
0.165 0.169 0.388 0.376 
0.251 0.29 0.49 0.541 
0.443 0.416 0.541 0.584 
0.498 0.376 0.627 0.541 
0.667 0.459 0.576 0.541 
0.416 0.29 0.525 0.376 
0.361 0.208 0.49 0.416 
0.498 0.333 0.51 0.498 
0.498 0.333 0.627 0.459 
0.639 0.416 0.576 0.541 
0.667 0.416 0.678 0.667 
0.388 0.251 0.424 0.376 
0.333 0.169 0.459 0.376 
0.471 0.29 0.694 0.624 
0.471 0.584 0.592 0.624 
0.557 0.125 0.576 0.498 
0.333 0.208 0.51 0.498 
0.498 0.416 0.612 0.541 
0.196 0.125 0.388 0.376 
0.388 0.416 0.541 0.459 
0.529 0.376 0.561 0.498 
0.388 0.333 0.525 0.498 
0.557 0.541 0.847 1.0 
0.776 0.416 0.831 0.831 
0.612 0.416 0.812 0.875 
0.165 0.208 0.592 0.667 
0.667 0.208 0.812 0.71 
0.612 0.502 0.694 0.792 
0.694 0.416 0.761 0.831 
0.416 0.333 0.694 0.957 
0.612 0.416 0.761 0.71 
0.945 0.251 1.0 0.918 
0.722 0.502 0.796 0.918 
0.945 0.333 0.965 0.792 
0.667 0.541 0.796 0.831 
0.529 0.333 0.643 0.71 
0.584 0.333 0.78 0.831 
0.863 0.333 0.863 0.749 
0.584 0.333 0.78 0.875 
0.498 0.251 0.78 0.541 
0.557 0.584 0.78 0.957 
0.471 0.416 0.643 0.71 
0.667 0.459 0.78 0.957 
0.416 0.29 0.694 0.749 
0.667 0.541 0.796 1.0 
0.557 0.208 0.678 0.749 
0.529 0.584 0.745 0.918 
0.416 0.29 0.694 0.749 
0.557 0.376 0.78 0.71 
0.918 0.416 0.949 0.831 
0.835 0.376 0.898 0.71 
0.804 0.667 0.863 1.0 
0.584 0.29 0.729 0.749 
0.388 0.208 0.678 0.792 
0.584 0.502 0.729 0.918 
0.945 0.749 0.965 0.875 
0.471 0.082 0.678 0.584 
0.361 0.333 0.663 0.792 
0.557 0.29 0.663 0.71 
0.804 0.502 0.847 0.71 
0.498 0.416 0.51 0.71 
0.804 0.416 0.812 0.624 
1.0 0.749 0.914 0.792 
0.557 0.333 0.694 0.584 
0.945 0.416 0.863 0.918 
0.584 0.459 0.761 0.71 
0.722 0.459 0.745 0.831 
0.722 0.459 0.694 0.918 
0.694 0.502 0.831 0.918 
0.667 0.416 0.714 0.918 
0.612 0.416 0.714 0.792 
0.443 0.416 0.694 0.71 
Teaching Patterns
1.0 0.0 0.0 
1.0 0.0 0.0 
1.0 0.0 0.0 
1.0 0.0 0.0 
1.0 0.0 0.0 
1.0 0.0 0.0 
1.0 0.0 0.0 
1.0 0.0 0.0 
1.0 0.0 0.0 
1.0 0.0 0.0 
1.0 0.0 0.0 
1.0 0.0 0.0 
1.0 0.0 0.0 
1.0 0.0 0.0 
1.0 0.0 0.0 
1.0 0.0 0.0 
1.0 0.0 0.0 
1.0 0.0 0.0 
1.0 0.0 0.0 
1.0 0.0 0.0 
1.0 0.0 0.0 
1.0 0.0 0.0 
1.0 0.0 0.0 
1.0 0.0 0.0 
1.0 0.0 0.0 
1.0 0.0 0.0 
1.0 0.0 0.0 
1.0 0.0 0.0 
1.0 0.0 0.0 
1.0 0.0 0.0 
1.0 0.0 0.0 
1.0 0.0 0.0 
1.0 0.0 0.0 
1.0 0.0 0.0 
1.0 0.0 0.0 
1.0 0.0 0.0 
1.0 0.0 0.0 
1.0 0.0 0.0 
1.0 0.0 0.0 
1.0 0.0 0.0 
1.0 0.0 0.0 
1.0 0.0 0.0 
1.0 0.0 0.0 
1.0 0.0 0.0 
1.0 0.0 0.0 
1.0 0.0 0.0 
1.0 0.0 0.0 
1.0 0.0 0.0 
1.0 0.0 0.0 
1.0 0.0 0.0 
0.0 1.0 0.0 
0.0 1.0 0.0 
0.0 1.0 0.0 
0.0 1.0 0.0 
0.0 1.0 0.0 
0.0 1.0 0.0 
0.0 1.0 0.0 
0.0 1.0 0.0 
0.0 1.0 0.0 
0.0 1.0 0.0 
0.0 1.0 0.0 
0.0 1.0 0.0 
0.0 1.0 0.0 
0.0 1.0 0.0 
0.0 1.0 0.0 
0.0 1.0 0.0 
0.0 1.0 0.0 
0.0 1.0 0.0 
0.0 1.0 0.0 
0.0 1.0 0.0 
0.0 1.0 0.0 
0.0 1.0 0.0 
0.0 1.0 0.0 
0.0 1.0 0.0 
0.0 1.0 0.0 
0.0 1.0 0.0 
0.0 1.0 0.0 
0.0 1.0 0.0 
0.0 1.0 0.0 
0.0 1.0 0.0 
0.0 1.0 0.0 
0.0 1.0 0.0 
0.0 1.0 0.0 
0.0 1.0 0.0 
0.0 1.0 0.0 
0.0 1.0 0.0 
0.0 1.0 0.0 
0.0 1.0 0.0 
0.0 1.0 0.0 
0.0 1.0 0.0 
0.0 1.0 0.0 
0.0 1.0 0.0 
0.0 1.0 0.0 
0.0 1.0 0.0 
0.0 1.0 0.0 
0.0 1.0 0.0 
0.0 1.0 0.0 
0.0 1.0 0.0 
0.0 1.0 0.0 
0.0 1.0 0.0 
0.0 0.0 1.0 
0.0 0.0 1.0 
0.0 0.0 1.0 
0.0 0.0 1.0 
0.0 0.0 1.0 
0.0 0.0 1.0 
0.0 0.0 1.0 
0.0 0.0 1.0 
0.0 0.0 1.0 
0.0 0.0 1.0 
0.0 0.0 1.0 
0.0 0.0 1.0 
0.0 0.0 1.0 
0.0 0.0 1.0 
0.0 0.0 1.0 
0.0 0.0 1.0 
0.0 0.0 1.0 
0.0 0.0 1.0 
0.0 0.0 1.0 
0.0 0.0 1.0 
0.0 0.0 1.0 
0.0 0.0 1.0 
0.0 0.0 1.0 
0.0 0.0 1.0 
0.0 0.0 1.0 
0.0 0.0 1.0 
0.0 0.0 1.0 
0.0 0.0 1.0 
0.0 0.0 1.0 
0.0 0.0 1.0 
0.0 0.0 1.0 
0.0 0.0 1.0 
0.0 0.0 1.0 
0.0 0.0 1.0 
0.0 0.0 1.0 
0.0 0.0 1.0 
0.0 0.0 1.0 
0.0 0.0 1.0 
0.0 0.0 1.0 
0.0 0.0 1.0 
0.0 0.0 1.0 
0.0 0.0 1.0 
0.0 0.0 1.0 
0.0 0.0 1.0 
0.0 0.0 1.0 
0.0 0.0 1.0 
0.0 0.0 1.0 
0.0 0.0 1.0 
0.0 0.0 1.0 
0.0 0.0 1.0 
Learning : 0.05
Momentum : 0.5
Epoch: 100, Error: 0.06499632743889282
Epoch: 200, Error: 0.021419154354903547
Epoch: 300, Error: 0.016761511096867698
Epoch: 400, Error: 0.015151778955890491
Epoch: 500, Error: 0.014203071163247165
Epoch: 600, Error: 0.013555537140064034
Epoch: 700, Error: 0.013155324665861608
Epoch: 800, Error: 0.012867313064110238
Epoch: 900, Error: 0.012665695358872138
Epoch: 1000, Error: 0.012467401062945202
Epoch: 1100, Error: 0.012338885177361487
Epoch: 1200, Error: 0.012278393698669045
Epoch: 1300, Error: 0.012160675349614123
Epoch: 1400, Error: 0.01218741826790034
Epoch: 1500, Error: 0.012044107450284803
Epoch: 1600, Error: 0.01199870078073608
Epoch: 1700, Error: 0.011960801774668354
Epoch: 1800, Error: 0.012267556035996835
Epoch: 1900, Error: 0.011953227705500795
Epoch: 2000, Error: 0.012020254592640226
Epoch: 2100, Error: 0.011910711655926482
Epoch: 2200, Error: 0.011837855476549676
Epoch: 2300, Error: 0.011868250620270455
Epoch: 2400, Error: 0.011843923494981513
Epoch: 2500, Error: 0.011833278405927917
Epoch: 2600, Error: 0.01188458906869738
Epoch: 2700, Error: 0.011893211420706257
Epoch: 2800, Error: 0.011935727315832713
Epoch: 2900, Error: 0.011812258509651494
Epoch: 3000, Error: 0.011813413254325215
Epoch: 3100, Error: 0.011807541761676286
Epoch: 3200, Error: 0.011804934181109707
Epoch: 3300, Error: 0.011877041035417655
Epoch: 3400, Error: 0.011873003780230916
Epoch: 3500, Error: 0.011860670655841492
Epoch: 3600, Error: 0.011799918940407477
Epoch: 3700, Error: 0.011810963473075189
Epoch: 3800, Error: 0.011804518629637516
Epoch: 3900, Error: 0.011803979623917868
Epoch: 4000, Error: 0.011798352824832922
Epoch: 4100, Error: 0.011850090283197836
Epoch: 4200, Error: 0.011823312394237931
Epoch: 4300, Error: 0.011833762983367387
Epoch: 4400, Error: 0.01182387637985713
Epoch: 4500, Error: 0.011841417038865501
Epoch: 4600, Error: 0.011843681043504858
Epoch: 4700, Error: 0.011872694725353369
Epoch: 4800, Error: 0.011829942739290703
Epoch: 4900, Error: 0.011870456362394616
Epoch: 5000, Error: 0.011851851844707944
Epoch: 5100, Error: 0.011865434620133583
Epoch: 5200, Error: 0.011840574103395243
Epoch: 5300, Error: 0.011882822687921095
Epoch: 5400, Error: 0.011837494841027403
Epoch: 5500, Error: 0.011831639827773726
Epoch: 5600, Error: 0.011843127809602826
Epoch: 5700, Error: 0.011911593525515749
Epoch: 5800, Error: 0.011864062576305413
Epoch: 5900, Error: 0.01183373879404143
Epoch: 6000, Error: 0.011841026746627773
Epoch: 6100, Error: 0.011843271221429072
Epoch: 6200, Error: 0.011828805093103183
Epoch: 6300, Error: 0.0118179758668698
Epoch: 6400, Error: 0.011820164390721487
Epoch: 6500, Error: 0.011825240765825272
Epoch: 6600, Error: 0.01182409484351036
Epoch: 6700, Error: 0.011820497366488273
Epoch: 6800, Error: 0.011831930537075359
Epoch: 6900, Error: 0.011830270433466152
Epoch: 7000, Error: 0.011878020133818504
Epoch: 7100, Error: 0.011807627086687679
Epoch: 7200, Error: 0.011803448819612521
Epoch: 7300, Error: 0.011806118617658328
Epoch: 7400, Error: 0.011803724167343113
Epoch: 7500, Error: 0.011811844808766524
Epoch: 7600, Error: 0.011857753647691496
Epoch: 7700, Error: 0.011815905298131849
Epoch: 7800, Error: 0.011808894733601506
Epoch: 7900, Error: 0.011810100654334176
Epoch: 8000, Error: 0.011811706023990726
Epoch: 8100, Error: 0.011821083959162773
Epoch: 8200, Error: 0.011816337406812967
Epoch: 8300, Error: 0.011820680766048976
Epoch: 8400, Error: 0.011796123356040874
Epoch: 8500, Error: 0.011813029322573823
Epoch: 8600, Error: 0.011853444840806951
Epoch: 8700, Error: 0.01179517297194559
Epoch: 8800, Error: 0.011827562565510069
Epoch: 8900, Error: 0.011795837558301325
Epoch: 9000, Error: 0.011807847200152318
Epoch: 9100, Error: 0.011788628875333463
Epoch: 9200, Error: 0.0118160823920871
Epoch: 9300, Error: 0.011755551160883417
Epoch: 9400, Error: 0.011764355194910517
Epoch: 9500, Error: 0.011796737729278743
Epoch: 9600, Error: 0.011752931576148552
Epoch: 9700, Error: 0.011782732250368279
Epoch: 9800, Error: 0.011725913140435291
Epoch: 9900, Error: 0.011803577843429228
Epoch: 10000, Error: 0.011736096254890133
Epoch: 10100, Error: 0.011696463939491438
Epoch: 10200, Error: 0.011729775797228656
Epoch: 10300, Error: 0.011697083548171425
Epoch: 10400, Error: 0.011672033865108683
Epoch: 10500, Error: 0.01164283610454838
Epoch: 10600, Error: 0.011642924340153684
Epoch: 10700, Error: 0.011668393546918844
Epoch: 10800, Error: 0.01160041223604824
Epoch: 10900, Error: 0.011654231616401455
Epoch: 11000, Error: 0.011592007396552558
Epoch: 11100, Error: 0.011650121483990803
Epoch: 11200, Error: 0.011548858869890176
Epoch: 11300, Error: 0.011519258689229353
Epoch: 11400, Error: 0.011509844438768924
Epoch: 11500, Error: 0.011573517949498905
Epoch: 11600, Error: 0.011481773363408096
Epoch: 11700, Error: 0.011424703320810211
Epoch: 11800, Error: 0.011393917817681844
Epoch: 11900, Error: 0.011358355783725417
Epoch: 12000, Error: 0.01135634508415669
Epoch: 12100, Error: 0.01130592297421273
Epoch: 12200, Error: 0.011260153364840805
Epoch: 12300, Error: 0.011198830013245885
Epoch: 12400, Error: 0.01117095923639803
Epoch: 12500, Error: 0.011093999230708697
Epoch: 12600, Error: 0.011059409229711688
Epoch: 12700, Error: 0.010955950653392624
Epoch: 12800, Error: 0.01092854087220827
Epoch: 12900, Error: 0.010787552904676515
Epoch: 13000, Error: 0.010705129571018355
Epoch: 13100, Error: 0.010758900703233957
Epoch: 13200, Error: 0.010468681069527053
Epoch: 13300, Error: 0.010568170559774635
Epoch: 13400, Error: 0.010330683327251376
Epoch: 13500, Error: 0.01015390490127164
Epoch: 13600, Error: 0.010004503375086144
Epoch: 13700, Error: 0.009859535844489948
Epoch: 13800, Error: 0.009738649662845366
Epoch: 13900, Error: 0.00958691769577876
Epoch: 14000, Error: 0.009438064089632745
Epoch: 14100, Error: 0.00931300508916177
Epoch: 14200, Error: 0.009139022739746396
Epoch: 14300, Error: 0.008971570300718436
Epoch: 14400, Error: 0.008828952725029943
Epoch: 14500, Error: 0.008694691504262903
Epoch: 14600, Error: 0.008551330068133934
Epoch: 14700, Error: 0.008426514889515999
Epoch: 14800, Error: 0.008294943206944265
Epoch: 14900, Error: 0.008247784016043803
Epoch: 15000, Error: 0.008082700490886345
Epoch: 15100, Error: 0.007975254413198032
Epoch: 15200, Error: 0.007882631237357997
Epoch: 15300, Error: 0.007801491174123072
Epoch: 15400, Error: 0.0077065173825484334
Epoch: 15500, Error: 0.007605995136854998
Epoch: 15600, Error: 0.007526850323910683
Epoch: 15700, Error: 0.007453265668356355
Epoch: 15800, Error: 0.007386814028279298
Epoch: 15900, Error: 0.0073195383305675885
Epoch: 16000, Error: 0.007293619089567367
Epoch: 16100, Error: 0.007238535019390781
Epoch: 16200, Error: 0.007136366224088027
Epoch: 16300, Error: 0.007102643884688832
Epoch: 16400, Error: 0.007041176896901975
Epoch: 16500, Error: 0.006982960419490716
Epoch: 16600, Error: 0.006939228607303081
Epoch: 16700, Error: 0.006894537957369724
Epoch: 16800, Error: 0.006856999020456743
Epoch: 16900, Error: 0.00681093389497134
Epoch: 17000, Error: 0.006771534209190724
Epoch: 17100, Error: 0.006740906334700637
Epoch: 17200, Error: 0.006708827952214836
Epoch: 17300, Error: 0.006679326245811895
Epoch: 17400, Error: 0.006641998664225834
Epoch: 17500, Error: 0.006634126796246093
Epoch: 17600, Error: 0.006643523137416252
Epoch: 17700, Error: 0.006591986241300102
Epoch: 17800, Error: 0.006586844643281876
Epoch: 17900, Error: 0.006532497335221454
Epoch: 18000, Error: 0.006505815718528306
Epoch: 18100, Error: 0.0065128566332127704
Epoch: 18200, Error: 0.006465563963744224
Epoch: 18300, Error: 0.0064474652360952366
Epoch: 18400, Error: 0.006431168358736804
Epoch: 18500, Error: 0.006433281854323042
Epoch: 18600, Error: 0.0063911007988356645
Epoch: 18700, Error: 0.006375715888819413
Epoch: 18800, Error: 0.00634433105571684
Epoch: 18900, Error: 0.006337817760172812
Epoch: 19000, Error: 0.006324564041629481
Epoch: 19100, Error: 0.0063088739156315025
Epoch: 19200, Error: 0.00627720928266139
Epoch: 19300, Error: 0.006267458584832527
Epoch: 19400, Error: 0.006255694038445235
Epoch: 19500, Error: 0.006242462985057253
Epoch: 19600, Error: 0.006213715967368412
Epoch: 19700, Error: 0.006170119022331813
Epoch: 19800, Error: 0.006172975629627269
Epoch: 19900, Error: 0.006134029937852789
Epoch: 20000, Error: 0.006107739454798115
Epoch: 20100, Error: 0.006106299235435379
Epoch: 20200, Error: 0.006089831922079961
Epoch: 20300, Error: 0.006135400248251526
Epoch: 20400, Error: 0.0060477970924175456
Epoch: 20500, Error: 0.006036530373630886
Epoch: 20600, Error: 0.0060533182373995725
Epoch: 20700, Error: 0.0060495141594867005
Epoch: 20800, Error: 0.006026755650058528
Epoch: 20900, Error: 0.006050630461574604
Epoch: 21000, Error: 0.0060596155960611995
Epoch: 21100, Error: 0.006045565133310638
Epoch: 21200, Error: 0.006046989987209648
Epoch: 21300, Error: 0.006006623223064636
Epoch: 21400, Error: 0.005972806906928685
Epoch: 21500, Error: 0.005995935689659148
Epoch: 21600, Error: 0.006015347607477387
Epoch: 21700, Error: 0.0059371741063715365
Epoch: 21800, Error: 0.005962753986823528
Epoch: 21900, Error: 0.005915734820629598
Epoch: 22000, Error: 0.005902478867292532
Epoch: 22100, Error: 0.0058901097378782526
Epoch: 22200, Error: 0.005898878361556707
Epoch: 22300, Error: 0.005885338799011159
Epoch: 22400, Error: 0.005897388981669809
Epoch: 22500, Error: 0.00587159137410762
Epoch: 22600, Error: 0.0058557945810384275
Epoch: 22700, Error: 0.005828015120116472
Epoch: 22800, Error: 0.005832334178335936
Epoch: 22900, Error: 0.0058556686953828065
Epoch: 23000, Error: 0.005839886809144413
Epoch: 23100, Error: 0.005796011337973201
Epoch: 23200, Error: 0.005805040709485201
Epoch: 23300, Error: 0.005751425378893459
Epoch: 23400, Error: 0.005776155481846147
Epoch: 23500, Error: 0.005734058697749471
Epoch: 23600, Error: 0.005716925667467451
Epoch: 23700, Error: 0.005732484628781799
Epoch: 23800, Error: 0.0057167660303463945
Epoch: 23900, Error: 0.005754130934451869
Epoch: 24000, Error: 0.005674748931510321
Epoch: 24100, Error: 0.005690902928593875
Epoch: 24200, Error: 0.005670945783756543
Epoch: 24300, Error: 0.005666043090271155
Epoch: 24400, Error: 0.005646247491793027
Epoch: 24500, Error: 0.005636965487272843
Epoch: 24600, Error: 0.005566090342685207
Epoch: 24700, Error: 0.005547267485636743
Epoch: 24800, Error: 0.00554365057295418
Epoch: 24900, Error: 0.005545603447906891
Epoch: 25000, Error: 0.005520145653348023
Epoch: 25100, Error: 0.005508020574679671
Epoch: 25200, Error: 0.00547745505033887
Epoch: 25300, Error: 0.005499635885694419
Epoch: 25400, Error: 0.005458027536324094
Epoch: 25500, Error: 0.00547303226169972
Epoch: 25600, Error: 0.005458243738304489
Epoch: 25700, Error: 0.005415368922859219
Epoch: 25800, Error: 0.005393440193095129
Epoch: 25900, Error: 0.005383947029769063
Epoch: 26000, Error: 0.005414752335098684
Epoch: 26100, Error: 0.005408864679982048
Epoch: 26200, Error: 0.005360107020432991
Epoch: 26300, Error: 0.005334563211703079
Epoch: 26400, Error: 0.005364470283197755
Epoch: 26500, Error: 0.005327319025967265
Epoch: 26600, Error: 0.005303909565970993
Epoch: 26700, Error: 0.005269212228103592
Epoch: 26800, Error: 0.005293049846706807
Epoch: 26900, Error: 0.0053056750731199954
Epoch: 27000, Error: 0.005266533971562195
Epoch: 27100, Error: 0.005270518634287881
Epoch: 27200, Error: 0.005266240024431652
Epoch: 27300, Error: 0.005246652847724517
Epoch: 27400, Error: 0.005185865273198039
Epoch: 27500, Error: 0.005170004883777835
Epoch: 27600, Error: 0.005186732568288217
Epoch: 27700, Error: 0.0051802306875163425
Epoch: 27800, Error: 0.005149394008152878
Epoch: 27900, Error: 0.005148495606820747
Epoch: 28000, Error: 0.005134166276222353
Epoch: 28100, Error: 0.005123435130627954
Epoch: 28200, Error: 0.0050709683377810205
Epoch: 28300, Error: 0.00504272470756258
Epoch: 28400, Error: 0.00502696874921026
Epoch: 28500, Error: 0.00499730096690018
Epoch: 28600, Error: 0.005037287586483239
Epoch: 28700, Error: 0.00497373011416421
Epoch: 28800, Error: 0.004996963604225372
Epoch: 28900, Error: 0.004946376351086042
Epoch: 29000, Error: 0.004919396443568172
Epoch: 29100, Error: 0.004897997388106319
Epoch: 29200, Error: 0.0048698319179298665
Epoch: 29300, Error: 0.004841949866761246
Epoch: 29400, Error: 0.004809027709711204
Epoch: 29500, Error: 0.0047853122864593345
Epoch: 29600, Error: 0.004781047902761976
Epoch: 29700, Error: 0.004747879093327492
Epoch: 29800, Error: 0.0047186073653098645
Epoch: 29900, Error: 0.004725088355648503
Epoch: 30000, Error: 0.004673139786838706
Epoch: 30100, Error: 0.004639627194022575
Epoch: 30200, Error: 0.004600218334088528
Epoch: 30300, Error: 0.004611075490589706
Epoch: 30400, Error: 0.004561740023858278
Epoch: 30500, Error: 0.004536400742359972
Epoch: 30600, Error: 0.004527173308825955
Epoch: 30700, Error: 0.00450526628832795
Epoch: 30800, Error: 0.0045476428863295195
Epoch: 30900, Error: 0.004461963907418765
Epoch: 31000, Error: 0.004435973538762646
Epoch: 31100, Error: 0.004403105605968752
Epoch: 31200, Error: 0.004402701697146295
Epoch: 31300, Error: 0.004384670696878891
Epoch: 31400, Error: 0.004322872444892111
Epoch: 31500, Error: 0.004297881359651032
Epoch: 31600, Error: 0.0042762657017662575
Epoch: 31700, Error: 0.004257545274618677
Epoch: 31800, Error: 0.004237374542229359
Epoch: 31900, Error: 0.004208960872495235
Epoch: 32000, Error: 0.004203299976527278
Epoch: 32100, Error: 0.004173242701244551
Epoch: 32200, Error: 0.004154758805192484
Epoch: 32300, Error: 0.004141855509803724
Epoch: 32400, Error: 0.004115640002256995
Epoch: 32500, Error: 0.00408047918461973
Epoch: 32600, Error: 0.004068042489068129
Epoch: 32700, Error: 0.004050926321401222
Epoch: 32800, Error: 0.004061388907783271
Epoch: 32900, Error: 0.004004378114532786
Epoch: 33000, Error: 0.004003809325998829
Epoch: 33100, Error: 0.003971134316171936
Epoch: 33200, Error: 0.0039408886274243755
Epoch: 33300, Error: 0.003920390761940299
Epoch: 33400, Error: 0.0038940767336964133
Epoch: 33500, Error: 0.003908016793004992
Epoch: 33600, Error: 0.0038553516383019668
Epoch: 33700, Error: 0.003824859741427942
Epoch: 33800, Error: 0.0037990774060653316
Epoch: 33900, Error: 0.003824283059830079
Epoch: 34000, Error: 0.003754584888684899
Epoch: 34100, Error: 0.003762509724805079
Epoch: 34200, Error: 0.003770162060632335
Epoch: 34300, Error: 0.0036918916579037806
Epoch: 34400, Error: 0.0037101059317592566
Epoch: 34500, Error: 0.0036831827300539766
Epoch: 34600, Error: 0.003659201519411224
Epoch: 34700, Error: 0.003651579244356493
Epoch: 34800, Error: 0.0035927698579068103
Epoch: 34900, Error: 0.0035731717800663383
Epoch: 35000, Error: 0.0035551506011756583
Epoch: 35100, Error: 0.0035455956688451875
Epoch: 35200, Error: 0.0035159585317720374
Epoch: 35300, Error: 0.0034975816442159007
Epoch: 35400, Error: 0.0034693309246548675
Epoch: 35500, Error: 0.003444117647908523
Epoch: 35600, Error: 0.0034167383606213252
Epoch: 35700, Error: 0.0034106111416863662
Epoch: 35800, Error: 0.0033947075651708787
Epoch: 35900, Error: 0.003353638624783668
Epoch: 36000, Error: 0.003323753957031927
Epoch: 36100, Error: 0.00333063756197775
Epoch: 36200, Error: 0.0033012411423818558
Epoch: 36300, Error: 0.0032570452476662175
Epoch: 36400, Error: 0.00324570679751567
Epoch: 36500, Error: 0.0032202063662053627
Epoch: 36600, Error: 0.003190346445363251
Epoch: 36700, Error: 0.0031536229442767016
Epoch: 36800, Error: 0.003168135205177492
Epoch: 36900, Error: 0.0031795282803884573
Epoch: 37000, Error: 0.00311166003102923
Epoch: 37100, Error: 0.003071157753590497
Epoch: 37200, Error: 0.0030635517493799464
Epoch: 37300, Error: 0.0031722310521823966
Epoch: 37400, Error: 0.0030790871573242516
Epoch: 37500, Error: 0.002984766691220401
Epoch: 37600, Error: 0.003010489483262249
Epoch: 37700, Error: 0.0029624925745217355
Epoch: 37800, Error: 0.0029650555580543027
Epoch: 37900, Error: 0.0029020463581065615
Epoch: 38000, Error: 0.0028979509072524
Epoch: 38100, Error: 0.0028835552090610665
Epoch: 38200, Error: 0.002838512568283244
Epoch: 38300, Error: 0.002816408902835402
Epoch: 38400, Error: 0.0028531035550749206
Epoch: 38500, Error: 0.002767791111020315
Epoch: 38600, Error: 0.002779941748439335
Epoch: 38700, Error: 0.0027212785545043705
Epoch: 38800, Error: 0.0027790622710726805
Epoch: 38900, Error: 0.002773243819817
Epoch: 39000, Error: 0.002821089961362329
Epoch: 39100, Error: 0.0027368843813133357
Epoch: 39200, Error: 0.002641412270816578
Epoch: 39300, Error: 0.0026311921797524582
Epoch: 39400, Error: 0.0026014876136079574
Epoch: 39500, Error: 0.0026422139453289328
Epoch: 39600, Error: 0.002553434138525623
Epoch: 39700, Error: 0.002542826906246392
Epoch: 39800, Error: 0.002575326161374422
Epoch: 39900, Error: 0.002533645568585206
Epoch: 40000, Error: 0.0025138340205660874
Epoch: 40100, Error: 0.002471421280718188
Epoch: 40200, Error: 0.0024583384987456806
Epoch: 40300, Error: 0.002439704112398652
Epoch: 40400, Error: 0.0024156295377398516
Epoch: 40500, Error: 0.002435421666852574
Epoch: 40600, Error: 0.0023835754376947916
Epoch: 40700, Error: 0.002394017860753897
Epoch: 40800, Error: 0.00236766291069404
Epoch: 40900, Error: 0.0023537661620383543
Epoch: 41000, Error: 0.0023823549833464435
Epoch: 41100, Error: 0.0023331585972320404
Epoch: 41200, Error: 0.0022874782870998564
Epoch: 41300, Error: 0.002288559709887947
Epoch: 41400, Error: 0.0022556421486099494
Epoch: 41500, Error: 0.002288949131071235
Epoch: 41600, Error: 0.002223490776930808
Epoch: 41700, Error: 0.002241932537455706
Epoch: 41800, Error: 0.002235163806570001
Epoch: 41900, Error: 0.002209301351247838
Epoch: 42000, Error: 0.0022340551934461003
Epoch: 42100, Error: 0.0022033987488346185
Epoch: 42200, Error: 0.002141670404131989
Epoch: 42300, Error: 0.002204774395316152
Epoch: 42400, Error: 0.0021552757401615925
Epoch: 42500, Error: 0.0021323008111345998
Epoch: 42600, Error: 0.0021185968075297682
Epoch: 42700, Error: 0.0021256810720543555
Epoch: 42800, Error: 0.0021687642263861356
Epoch: 42900, Error: 0.002044134622252744
Epoch: 43000, Error: 0.0020557983872724773
Epoch: 43100, Error: 0.002026840955217469
Epoch: 43200, Error: 0.002022050952136911
Epoch: 43300, Error: 0.002000829904821224
Epoch: 43400, Error: 0.002009132804298707
Epoch: 43500, Error: 0.001965555421391666
Epoch: 43600, Error: 0.0019517588982012758
Epoch: 43700, Error: 0.0019427448538376893
Epoch: 43800, Error: 0.0019679502454062413
Epoch: 43900, Error: 0.0019157450834665268
Epoch: 44000, Error: 0.0019268030956573212
Epoch: 44100, Error: 0.0019087255734385397
Epoch: 44200, Error: 0.0020444132755710973
Epoch: 44300, Error: 0.0018671574400768397
Epoch: 44400, Error: 0.0018903937769808629
Epoch: 44500, Error: 0.001854223985302985
Epoch: 44600, Error: 0.0018901184427031032
Epoch: 44700, Error: 0.0018247115228516586
Epoch: 44800, Error: 0.0017999782104224941
Epoch: 44900, Error: 0.0018384115087449696
Epoch: 45000, Error: 0.001782013438454158
Epoch: 45100, Error: 0.001768058243926835
Epoch: 45200, Error: 0.001762939930468577
Epoch: 45300, Error: 0.0018084757796323749
Epoch: 45400, Error: 0.0018171692827013393
Epoch: 45500, Error: 0.0017284099301371563
Epoch: 45600, Error: 0.0017806996375689806
Epoch: 45700, Error: 0.0017079140510998503
Epoch: 45800, Error: 0.0017267986559212677
Epoch: 45900, Error: 0.0016877433777266668
Epoch: 46000, Error: 0.0016791228585243522
Epoch: 46100, Error: 0.001687346298799893
Epoch: 46200, Error: 0.0016559005552425564
Epoch: 46300, Error: 0.0016823271117573071
Epoch: 46400, Error: 0.0016333964111140155
Epoch: 46500, Error: 0.0016673528653244518
Epoch: 46600, Error: 0.00163006273317973
Epoch: 46700, Error: 0.0016086459189936539
Epoch: 46800, Error: 0.0016159946597172161
Epoch: 46900, Error: 0.0015930008178747553
Epoch: 47000, Error: 0.0016190767931224465
Epoch: 47100, Error: 0.001632850947937496
Epoch: 47200, Error: 0.0015905776873502038
Epoch: 47300, Error: 0.001555514168343787
Epoch: 47400, Error: 0.0015526661377116213
Epoch: 47500, Error: 0.0015362895036954696
Epoch: 47600, Error: 0.0015460966402532242
Epoch: 47700, Error: 0.001526790933418198
Epoch: 47800, Error: 0.0015191572625902069
Epoch: 47900, Error: 0.0015138604200386912
Epoch: 48000, Error: 0.0015059415814528503
Epoch: 48100, Error: 0.001495250709673344
Epoch: 48200, Error: 0.0014976619870257228
Epoch: 48300, Error: 0.0014883181847432615
Epoch: 48400, Error: 0.0014889653905061123
Epoch: 48500, Error: 0.0014861929108877486
Epoch: 48600, Error: 0.0014593861814304898
Finished
