Input Patterns
0.224 0.624 0.067 0.043 
0.11 0.502 0.051 0.043 
0.196 0.667 0.067 0.043 
0.055 0.584 0.067 0.082 
0.027 0.376 0.067 0.043 
0.306 0.71 0.086 0.043 
0.137 0.416 0.067 0.0 
0.416 0.831 0.035 0.043 
0.306 0.792 0.051 0.125 
0.388 0.749 0.118 0.082 
0.306 0.584 0.118 0.043 
0.082 0.667 0.0 0.043 
0.137 0.584 0.153 0.043 
0.196 0.584 0.102 0.125 
0.251 0.584 0.067 0.043 
0.137 0.459 0.102 0.043 
0.251 0.875 0.086 0.0 
0.165 0.459 0.086 0.043 
0.333 0.624 0.051 0.043 
0.027 0.416 0.051 0.043 
0.196 0.624 0.051 0.082 
0.027 0.502 0.051 0.043 
0.224 0.749 0.153 0.125 
0.224 0.749 0.102 0.043 
0.278 0.71 0.086 0.043 
0.165 0.416 0.067 0.043 
0.082 0.459 0.086 0.043 
0.306 0.792 0.118 0.125 
0.196 0.584 0.086 0.043 
0.165 0.459 0.086 0.0 
0.137 0.584 0.102 0.043 
0.0 0.416 0.016 0.0 
0.388 1.0 0.086 0.125 
0.224 0.624 0.067 0.082 
0.224 0.749 0.086 0.082 
0.224 0.71 0.086 0.125 
0.224 0.541 0.118 0.165 
0.196 0.416 0.102 0.043 
0.251 0.624 0.086 0.043 
0.11 0.502 0.102 0.043 
0.306 0.584 0.086 0.125 
0.333 0.918 0.067 0.043 
0.196 0.502 0.035 0.043 
0.165 0.667 0.067 0.0 
0.224 0.584 0.086 0.043 
0.055 0.125 0.051 0.082 
0.196 0.624 0.102 0.208 
0.137 0.416 0.067 0.082 
0.082 0.502 0.067 0.043 
0.196 0.541 0.067 0.043 
0.749 0.502 0.627 0.541 
0.722 0.459 0.663 0.584 
0.612 0.333 0.612 0.584 
0.557 0.541 0.627 0.624 
0.639 0.376 0.612 0.498 
0.196 0.0 0.424 0.376 
0.471 0.082 0.51 0.376 
0.361 0.376 0.439 0.498 
0.361 0.416 0.592 0.584 
0.529 0.082 0.592 0.584 
0.443 0.502 0.643 0.459 
0.557 0.208 0.663 0.584 
0.584 0.376 0.561 0.498 
0.694 0.333 0.643 0.541 
0.471 0.376 0.592 0.584 
0.333 0.169 0.475 0.416 
0.416 0.29 0.49 0.459 
0.306 0.416 0.592 0.584 
0.667 0.459 0.627 0.584 
0.361 0.416 0.525 0.498 
0.333 0.251 0.576 0.459 
0.416 0.251 0.51 0.459 
0.361 0.29 0.541 0.498 
0.388 0.376 0.541 0.498 
0.224 0.208 0.337 0.416 
0.584 0.502 0.592 0.584 
0.333 0.125 0.51 0.498 
0.388 0.333 0.592 0.498 
0.165 0.169 0.388 0.376 
0.251 0.29 0.49 0.541 
0.443 0.416 0.541 0.584 
0.498 0.376 0.627 0.541 
0.667 0.459 0.576 0.541 
0.416 0.29 0.525 0.376 
0.361 0.208 0.49 0.416 
0.498 0.333 0.51 0.498 
0.498 0.333 0.627 0.459 
0.639 0.416 0.576 0.541 
0.667 0.416 0.678 0.667 
0.388 0.251 0.424 0.376 
0.333 0.169 0.459 0.376 
0.471 0.29 0.694 0.624 
0.471 0.584 0.592 0.624 
0.557 0.125 0.576 0.498 
0.333 0.208 0.51 0.498 
0.498 0.416 0.612 0.541 
0.196 0.125 0.388 0.376 
0.388 0.416 0.541 0.459 
0.529 0.376 0.561 0.498 
0.388 0.333 0.525 0.498 
0.557 0.541 0.847 1.0 
0.776 0.416 0.831 0.831 
0.612 0.416 0.812 0.875 
0.165 0.208 0.592 0.667 
0.667 0.208 0.812 0.71 
0.612 0.502 0.694 0.792 
0.694 0.416 0.761 0.831 
0.416 0.333 0.694 0.957 
0.612 0.416 0.761 0.71 
0.945 0.251 1.0 0.918 
0.722 0.502 0.796 0.918 
0.945 0.333 0.965 0.792 
0.667 0.541 0.796 0.831 
0.529 0.333 0.643 0.71 
0.584 0.333 0.78 0.831 
0.863 0.333 0.863 0.749 
0.584 0.333 0.78 0.875 
0.498 0.251 0.78 0.541 
0.557 0.584 0.78 0.957 
0.471 0.416 0.643 0.71 
0.667 0.459 0.78 0.957 
0.416 0.29 0.694 0.749 
0.667 0.541 0.796 1.0 
0.557 0.208 0.678 0.749 
0.529 0.584 0.745 0.918 
0.416 0.29 0.694 0.749 
0.557 0.376 0.78 0.71 
0.918 0.416 0.949 0.831 
0.835 0.376 0.898 0.71 
0.804 0.667 0.863 1.0 
0.584 0.29 0.729 0.749 
0.388 0.208 0.678 0.792 
0.584 0.502 0.729 0.918 
0.945 0.749 0.965 0.875 
0.471 0.082 0.678 0.584 
0.361 0.333 0.663 0.792 
0.557 0.29 0.663 0.71 
0.804 0.502 0.847 0.71 
0.498 0.416 0.51 0.71 
0.804 0.416 0.812 0.624 
1.0 0.749 0.914 0.792 
0.557 0.333 0.694 0.584 
0.945 0.416 0.863 0.918 
0.584 0.459 0.761 0.71 
0.722 0.459 0.745 0.831 
0.722 0.459 0.694 0.918 
0.694 0.502 0.831 0.918 
0.667 0.416 0.714 0.918 
0.612 0.416 0.714 0.792 
0.443 0.416 0.694 0.71 
Teaching Patterns
1.0 0.0 0.0 
1.0 0.0 0.0 
1.0 0.0 0.0 
1.0 0.0 0.0 
1.0 0.0 0.0 
1.0 0.0 0.0 
1.0 0.0 0.0 
1.0 0.0 0.0 
1.0 0.0 0.0 
1.0 0.0 0.0 
1.0 0.0 0.0 
1.0 0.0 0.0 
1.0 0.0 0.0 
1.0 0.0 0.0 
1.0 0.0 0.0 
1.0 0.0 0.0 
1.0 0.0 0.0 
1.0 0.0 0.0 
1.0 0.0 0.0 
1.0 0.0 0.0 
1.0 0.0 0.0 
1.0 0.0 0.0 
1.0 0.0 0.0 
1.0 0.0 0.0 
1.0 0.0 0.0 
1.0 0.0 0.0 
1.0 0.0 0.0 
1.0 0.0 0.0 
1.0 0.0 0.0 
1.0 0.0 0.0 
1.0 0.0 0.0 
1.0 0.0 0.0 
1.0 0.0 0.0 
1.0 0.0 0.0 
1.0 0.0 0.0 
1.0 0.0 0.0 
1.0 0.0 0.0 
1.0 0.0 0.0 
1.0 0.0 0.0 
1.0 0.0 0.0 
1.0 0.0 0.0 
1.0 0.0 0.0 
1.0 0.0 0.0 
1.0 0.0 0.0 
1.0 0.0 0.0 
1.0 0.0 0.0 
1.0 0.0 0.0 
1.0 0.0 0.0 
1.0 0.0 0.0 
1.0 0.0 0.0 
0.0 1.0 0.0 
0.0 1.0 0.0 
0.0 1.0 0.0 
0.0 1.0 0.0 
0.0 1.0 0.0 
0.0 1.0 0.0 
0.0 1.0 0.0 
0.0 1.0 0.0 
0.0 1.0 0.0 
0.0 1.0 0.0 
0.0 1.0 0.0 
0.0 1.0 0.0 
0.0 1.0 0.0 
0.0 1.0 0.0 
0.0 1.0 0.0 
0.0 1.0 0.0 
0.0 1.0 0.0 
0.0 1.0 0.0 
0.0 1.0 0.0 
0.0 1.0 0.0 
0.0 1.0 0.0 
0.0 1.0 0.0 
0.0 1.0 0.0 
0.0 1.0 0.0 
0.0 1.0 0.0 
0.0 1.0 0.0 
0.0 1.0 0.0 
0.0 1.0 0.0 
0.0 1.0 0.0 
0.0 1.0 0.0 
0.0 1.0 0.0 
0.0 1.0 0.0 
0.0 1.0 0.0 
0.0 1.0 0.0 
0.0 1.0 0.0 
0.0 1.0 0.0 
0.0 1.0 0.0 
0.0 1.0 0.0 
0.0 1.0 0.0 
0.0 1.0 0.0 
0.0 1.0 0.0 
0.0 1.0 0.0 
0.0 1.0 0.0 
0.0 1.0 0.0 
0.0 1.0 0.0 
0.0 1.0 0.0 
0.0 1.0 0.0 
0.0 1.0 0.0 
0.0 1.0 0.0 
0.0 1.0 0.0 
0.0 0.0 1.0 
0.0 0.0 1.0 
0.0 0.0 1.0 
0.0 0.0 1.0 
0.0 0.0 1.0 
0.0 0.0 1.0 
0.0 0.0 1.0 
0.0 0.0 1.0 
0.0 0.0 1.0 
0.0 0.0 1.0 
0.0 0.0 1.0 
0.0 0.0 1.0 
0.0 0.0 1.0 
0.0 0.0 1.0 
0.0 0.0 1.0 
0.0 0.0 1.0 
0.0 0.0 1.0 
0.0 0.0 1.0 
0.0 0.0 1.0 
0.0 0.0 1.0 
0.0 0.0 1.0 
0.0 0.0 1.0 
0.0 0.0 1.0 
0.0 0.0 1.0 
0.0 0.0 1.0 
0.0 0.0 1.0 
0.0 0.0 1.0 
0.0 0.0 1.0 
0.0 0.0 1.0 
0.0 0.0 1.0 
0.0 0.0 1.0 
0.0 0.0 1.0 
0.0 0.0 1.0 
0.0 0.0 1.0 
0.0 0.0 1.0 
0.0 0.0 1.0 
0.0 0.0 1.0 
0.0 0.0 1.0 
0.0 0.0 1.0 
0.0 0.0 1.0 
0.0 0.0 1.0 
0.0 0.0 1.0 
0.0 0.0 1.0 
0.0 0.0 1.0 
0.0 0.0 1.0 
0.0 0.0 1.0 
0.0 0.0 1.0 
0.0 0.0 1.0 
0.0 0.0 1.0 
0.0 0.0 1.0 
Learning : 0.05
Momentum : 0.5
Epoch: 100, Error: 0.05759895442403333
Epoch: 200, Error: 0.02216455628917511
Epoch: 300, Error: 0.017406510874289002
Epoch: 400, Error: 0.015678365429215853
Epoch: 500, Error: 0.01476774628565338
Epoch: 600, Error: 0.01431879283176297
Epoch: 700, Error: 0.013962946813692659
Epoch: 800, Error: 0.013778919099860959
Epoch: 900, Error: 0.014002461052449122
Epoch: 1000, Error: 0.013357664428350466
Epoch: 1100, Error: 0.01316679159611928
Epoch: 1200, Error: 0.013177181254636858
Epoch: 1300, Error: 0.013035539352151168
Epoch: 1400, Error: 0.013136009815738734
Epoch: 1500, Error: 0.012884939372547033
Epoch: 1600, Error: 0.012759212700928859
Epoch: 1700, Error: 0.012992506568917046
Epoch: 1800, Error: 0.012688703766009155
Epoch: 1900, Error: 0.012660511359562657
Epoch: 2000, Error: 0.012566505952982601
Epoch: 2100, Error: 0.012527919475814952
Epoch: 2200, Error: 0.012468945973977222
Epoch: 2300, Error: 0.012479837776980755
Epoch: 2400, Error: 0.012492807466556259
Epoch: 2500, Error: 0.012548001987804288
Epoch: 2600, Error: 0.012475732757668665
Epoch: 2700, Error: 0.012423895470217139
Epoch: 2800, Error: 0.012533853668561013
Epoch: 2900, Error: 0.012459797181794909
Epoch: 3000, Error: 0.012433340832090646
Epoch: 3100, Error: 0.012438981996907196
Epoch: 3200, Error: 0.012434349686098776
Epoch: 3300, Error: 0.012373179897820606
Epoch: 3400, Error: 0.012333444932301154
Epoch: 3500, Error: 0.012364251044456038
Epoch: 3600, Error: 0.012374047514309488
Epoch: 3700, Error: 0.012418122591560473
Epoch: 3800, Error: 0.01236579802160636
Epoch: 3900, Error: 0.012357642619570829
Epoch: 4000, Error: 0.012345489249323688
Epoch: 4100, Error: 0.012367903998706293
Epoch: 4200, Error: 0.012352562956279674
Epoch: 4300, Error: 0.01234514641315677
Epoch: 4400, Error: 0.012297005427858342
Epoch: 4500, Error: 0.012324130233737103
Epoch: 4600, Error: 0.012360167419221534
Epoch: 4700, Error: 0.012412035581801187
Epoch: 4800, Error: 0.012359177778881346
Epoch: 4900, Error: 0.012392032355511473
Epoch: 5000, Error: 0.012371602974599384
Epoch: 5100, Error: 0.01234511953772601
Epoch: 5200, Error: 0.012391967456641721
Epoch: 5300, Error: 0.012497705880689127
Epoch: 5400, Error: 0.012424746342095401
Epoch: 5500, Error: 0.012424474839493415
Epoch: 5600, Error: 0.01239208164203904
Epoch: 5700, Error: 0.012317996434154592
Epoch: 5800, Error: 0.012335831573708617
Epoch: 5900, Error: 0.01232033534228723
Epoch: 6000, Error: 0.01233094708297048
Epoch: 6100, Error: 0.0124334254331686
Epoch: 6200, Error: 0.012357607352833871
Epoch: 6300, Error: 0.012341399797951309
Epoch: 6400, Error: 0.012359743609233306
Epoch: 6500, Error: 0.012383643728599753
Epoch: 6600, Error: 0.012384872940597164
Epoch: 6700, Error: 0.012345109422734275
Epoch: 6800, Error: 0.012387101609480013
Epoch: 6900, Error: 0.012355226118925196
Epoch: 7000, Error: 0.01235560476033835
Epoch: 7100, Error: 0.012401097005970111
Epoch: 7200, Error: 0.012306776631810441
Epoch: 7300, Error: 0.012325764447843023
Epoch: 7400, Error: 0.012350644429143567
Epoch: 7500, Error: 0.012341739631640904
Epoch: 7600, Error: 0.012324226868558079
Epoch: 7700, Error: 0.0123713668144049
Epoch: 7800, Error: 0.012397417633409893
Epoch: 7900, Error: 0.012295735905247117
Epoch: 8000, Error: 0.012342834297470759
Epoch: 8100, Error: 0.012720397480724321
Epoch: 8200, Error: 0.012355679065784296
Epoch: 8300, Error: 0.012321344606252302
Epoch: 8400, Error: 0.012355825165750333
Epoch: 8500, Error: 0.012335689839951418
Epoch: 8600, Error: 0.012314710402474605
Epoch: 8700, Error: 0.012298975290701
Epoch: 8800, Error: 0.012342375797148761
Epoch: 8900, Error: 0.012274920718795034
Epoch: 9000, Error: 0.012294207442659053
Epoch: 9100, Error: 0.012296813878293929
Epoch: 9200, Error: 0.012311294422801213
Epoch: 9300, Error: 0.012272874558563926
Epoch: 9400, Error: 0.012276564498410943
Epoch: 9500, Error: 0.01227602024398125
Epoch: 9600, Error: 0.012290441168721116
Epoch: 9700, Error: 0.012264591507694987
Epoch: 9800, Error: 0.012259931862141882
Epoch: 9900, Error: 0.012286844415332543
Epoch: 10000, Error: 0.012318972884421195
Epoch: 10100, Error: 0.012356470607691454
Epoch: 10200, Error: 0.012307781501293842
Epoch: 10300, Error: 0.01228134951807982
Epoch: 10400, Error: 0.012303145512327309
Epoch: 10500, Error: 0.012312432686543688
Epoch: 10600, Error: 0.0122695738155085
Epoch: 10700, Error: 0.012298883898773661
Epoch: 10800, Error: 0.012272490541599188
Epoch: 10900, Error: 0.012323833053497426
Epoch: 11000, Error: 0.012242799016198033
Epoch: 11100, Error: 0.012267115408604121
Epoch: 11200, Error: 0.012264734232446891
Epoch: 11300, Error: 0.012245739212884223
Epoch: 11400, Error: 0.012362122326364683
Epoch: 11500, Error: 0.012331191205061931
Epoch: 11600, Error: 0.012286018626135325
Epoch: 11700, Error: 0.012214870045550235
Epoch: 11800, Error: 0.01225489103349424
Epoch: 11900, Error: 0.012247826745018281
Epoch: 12000, Error: 0.012278675012330527
Epoch: 12100, Error: 0.012238498798166094
Epoch: 12200, Error: 0.012269832432713396
Epoch: 12300, Error: 0.01227637476706586
Epoch: 12400, Error: 0.012312629338495517
Epoch: 12500, Error: 0.012261470859396939
Epoch: 12600, Error: 0.01223011763840253
Epoch: 12700, Error: 0.012218330073517617
Epoch: 12800, Error: 0.012241649779354918
Epoch: 12900, Error: 0.01228029301843275
Epoch: 13000, Error: 0.012262166233197765
Epoch: 13100, Error: 0.012249669429155076
Epoch: 13200, Error: 0.012196940243783956
Epoch: 13300, Error: 0.012218699461536324
Epoch: 13400, Error: 0.012181983130176429
Epoch: 13500, Error: 0.012151387474071814
Epoch: 13600, Error: 0.012193614960781841
Epoch: 13700, Error: 0.012278327667323601
Epoch: 13800, Error: 0.012195916728014209
Epoch: 13900, Error: 0.012163091442749595
Epoch: 14000, Error: 0.012121185244593739
Epoch: 14100, Error: 0.012193930382780188
Epoch: 14200, Error: 0.012147111595752134
Epoch: 14300, Error: 0.012069856181357778
Epoch: 14400, Error: 0.012146941979085812
Epoch: 14500, Error: 0.012023214584492127
Epoch: 14600, Error: 0.012026415644183153
Epoch: 14700, Error: 0.011976024707130875
Epoch: 14800, Error: 0.012015290157174943
Epoch: 14900, Error: 0.011945062959185876
Epoch: 15000, Error: 0.011968752691999313
Epoch: 15100, Error: 0.011951224091347861
Epoch: 15200, Error: 0.01191945578477685
Epoch: 15300, Error: 0.011939408216550502
Epoch: 15400, Error: 0.011880077324923978
Epoch: 15500, Error: 0.011879472482009924
Epoch: 15600, Error: 0.01188856793293919
Epoch: 15700, Error: 0.011890346528117398
Epoch: 15800, Error: 0.01183147648576397
Epoch: 15900, Error: 0.011800431506777592
Epoch: 16000, Error: 0.011740490149487548
Epoch: 16100, Error: 0.011707755335342362
Epoch: 16200, Error: 0.011647039402281295
Epoch: 16300, Error: 0.011624995639438526
Epoch: 16400, Error: 0.01163059537411048
Epoch: 16500, Error: 0.011552756666734979
Epoch: 16600, Error: 0.011497004924469104
Epoch: 16700, Error: 0.011465172105278726
Epoch: 16800, Error: 0.011422999691072007
Epoch: 16900, Error: 0.011388570107398532
Epoch: 17000, Error: 0.01136672371795161
Epoch: 17100, Error: 0.011331028365895729
Epoch: 17200, Error: 0.01128912449528074
Epoch: 17300, Error: 0.011202860487258213
Epoch: 17400, Error: 0.011181846666078821
Epoch: 17500, Error: 0.011137189903220322
Epoch: 17600, Error: 0.011044295790093533
Epoch: 17700, Error: 0.011023223711591075
Epoch: 17800, Error: 0.010908070925869394
Epoch: 17900, Error: 0.010909340067770211
Epoch: 18000, Error: 0.010835599347394155
Epoch: 18100, Error: 0.01077618834203097
Epoch: 18200, Error: 0.010777608100261647
Epoch: 18300, Error: 0.010764990202924063
Epoch: 18400, Error: 0.010717393441600177
Epoch: 18500, Error: 0.010665533058403854
Epoch: 18600, Error: 0.010655969993965184
Epoch: 18700, Error: 0.01064107340126098
Epoch: 18800, Error: 0.010609241310230794
Epoch: 18900, Error: 0.010575744308290266
Epoch: 19000, Error: 0.010578466851575765
Epoch: 19100, Error: 0.010549624338925818
Epoch: 19200, Error: 0.01061698306683047
Epoch: 19300, Error: 0.0105058554493538
Epoch: 19400, Error: 0.010468466104568358
Epoch: 19500, Error: 0.010460913774547205
Epoch: 19600, Error: 0.010367789754140924
Epoch: 19700, Error: 0.01033182135390548
Epoch: 19800, Error: 0.010308706739210093
Epoch: 19900, Error: 0.010262621510290448
Epoch: 20000, Error: 0.01023049069193793
Epoch: 20100, Error: 0.010200893861457058
Epoch: 20200, Error: 0.010091138547164721
Epoch: 20300, Error: 0.009984203507240585
Epoch: 20400, Error: 0.009916201797432337
Epoch: 20500, Error: 0.009865259043005227
Epoch: 20600, Error: 0.009775366612659896
Epoch: 20700, Error: 0.00968830167865711
Epoch: 20800, Error: 0.009642370630741358
Epoch: 20900, Error: 0.009545377284405627
Epoch: 21000, Error: 0.009460396631333978
Epoch: 21100, Error: 0.009406752551184772
Epoch: 21200, Error: 0.009329398921051965
Epoch: 21300, Error: 0.009275148139907138
Epoch: 21400, Error: 0.009189619753721104
Epoch: 21500, Error: 0.009129232255515771
Epoch: 21600, Error: 0.009045290320222901
Epoch: 21700, Error: 0.00900793844860206
Epoch: 21800, Error: 0.008942465314785788
Epoch: 21900, Error: 0.00894081644365884
Epoch: 22000, Error: 0.008824360328504399
Epoch: 22100, Error: 0.008759217489620452
Epoch: 22200, Error: 0.008706761686567295
Epoch: 22300, Error: 0.008687928065056166
Epoch: 22400, Error: 0.008635716584790572
Epoch: 22500, Error: 0.008584097769478107
Epoch: 22600, Error: 0.008533000351323197
Epoch: 22700, Error: 0.0085147205219799
Epoch: 22800, Error: 0.00851781677031954
Epoch: 22900, Error: 0.008472621089382763
Epoch: 23000, Error: 0.008450270891485808
Epoch: 23100, Error: 0.008469432240854228
Epoch: 23200, Error: 0.00850160227783039
Epoch: 23300, Error: 0.008553414571299925
Epoch: 23400, Error: 0.008608961013830775
Epoch: 23500, Error: 0.008632312421627326
Epoch: 23600, Error: 0.008660893773401526
Epoch: 23700, Error: 0.00865789314665669
Epoch: 23800, Error: 0.008715180543478716
Epoch: 23900, Error: 0.00861881942606664
Epoch: 24000, Error: 0.008583887659575696
Epoch: 24100, Error: 0.008500781289239402
Epoch: 24200, Error: 0.008447574253464438
Epoch: 24300, Error: 0.008264646590390006
Epoch: 24400, Error: 0.008000302077720291
Epoch: 24500, Error: 0.007844930134802962
Epoch: 24600, Error: 0.007721864754139675
Epoch: 24700, Error: 0.007657892283462242
Epoch: 24800, Error: 0.00764370431153894
Epoch: 24900, Error: 0.00763149695809904
Epoch: 25000, Error: 0.007631581187549339
Epoch: 25100, Error: 0.007648685737284398
Epoch: 25200, Error: 0.007659445412980375
Epoch: 25300, Error: 0.007616166719153702
Epoch: 25400, Error: 0.0075940534268238635
Epoch: 25500, Error: 0.007582564171050535
Epoch: 25600, Error: 0.007534960273442174
Epoch: 25700, Error: 0.007528216009097854
Epoch: 25800, Error: 0.007494074505996103
Epoch: 25900, Error: 0.007486431110709032
Epoch: 26000, Error: 0.007456574501966199
Epoch: 26100, Error: 0.0074366487938104025
Epoch: 26200, Error: 0.007422587831486503
Epoch: 26300, Error: 0.007432738461650658
Epoch: 26400, Error: 0.007414845713557784
Epoch: 26500, Error: 0.007418582994693169
Epoch: 26600, Error: 0.007421306796283945
Epoch: 26700, Error: 0.0074266070438717266
Epoch: 26800, Error: 0.007434685799881355
Finished
