Input Patterns
0.224 0.624 0.067 0.043 
0.11 0.502 0.051 0.043 
0.196 0.667 0.067 0.043 
0.055 0.584 0.067 0.082 
0.027 0.376 0.067 0.043 
0.306 0.71 0.086 0.043 
0.137 0.416 0.067 0.0 
0.416 0.831 0.035 0.043 
0.306 0.792 0.051 0.125 
0.388 0.749 0.118 0.082 
0.306 0.584 0.118 0.043 
0.082 0.667 0.0 0.043 
0.137 0.584 0.153 0.043 
0.196 0.584 0.102 0.125 
0.251 0.584 0.067 0.043 
0.137 0.459 0.102 0.043 
0.251 0.875 0.086 0.0 
0.165 0.459 0.086 0.043 
0.333 0.624 0.051 0.043 
0.027 0.416 0.051 0.043 
0.196 0.624 0.051 0.082 
0.027 0.502 0.051 0.043 
0.224 0.749 0.153 0.125 
0.224 0.749 0.102 0.043 
0.278 0.71 0.086 0.043 
0.165 0.416 0.067 0.043 
0.082 0.459 0.086 0.043 
0.306 0.792 0.118 0.125 
0.196 0.584 0.086 0.043 
0.165 0.459 0.086 0.0 
0.137 0.584 0.102 0.043 
0.0 0.416 0.016 0.0 
0.388 1.0 0.086 0.125 
0.224 0.624 0.067 0.082 
0.224 0.749 0.086 0.082 
0.224 0.71 0.086 0.125 
0.224 0.541 0.118 0.165 
0.196 0.416 0.102 0.043 
0.251 0.624 0.086 0.043 
0.11 0.502 0.102 0.043 
0.306 0.584 0.086 0.125 
0.333 0.918 0.067 0.043 
0.196 0.502 0.035 0.043 
0.165 0.667 0.067 0.0 
0.224 0.584 0.086 0.043 
0.055 0.125 0.051 0.082 
0.196 0.624 0.102 0.208 
0.137 0.416 0.067 0.082 
0.082 0.502 0.067 0.043 
0.196 0.541 0.067 0.043 
0.749 0.502 0.627 0.541 
0.722 0.459 0.663 0.584 
0.612 0.333 0.612 0.584 
0.557 0.541 0.627 0.624 
0.639 0.376 0.612 0.498 
0.196 0.0 0.424 0.376 
0.471 0.082 0.51 0.376 
0.361 0.376 0.439 0.498 
0.361 0.416 0.592 0.584 
0.529 0.082 0.592 0.584 
0.443 0.502 0.643 0.459 
0.557 0.208 0.663 0.584 
0.584 0.376 0.561 0.498 
0.694 0.333 0.643 0.541 
0.471 0.376 0.592 0.584 
0.333 0.169 0.475 0.416 
0.416 0.29 0.49 0.459 
0.306 0.416 0.592 0.584 
0.667 0.459 0.627 0.584 
0.361 0.416 0.525 0.498 
0.333 0.251 0.576 0.459 
0.416 0.251 0.51 0.459 
0.361 0.29 0.541 0.498 
0.388 0.376 0.541 0.498 
0.224 0.208 0.337 0.416 
0.584 0.502 0.592 0.584 
0.333 0.125 0.51 0.498 
0.388 0.333 0.592 0.498 
0.165 0.169 0.388 0.376 
0.251 0.29 0.49 0.541 
0.443 0.416 0.541 0.584 
0.498 0.376 0.627 0.541 
0.667 0.459 0.576 0.541 
0.416 0.29 0.525 0.376 
0.361 0.208 0.49 0.416 
0.498 0.333 0.51 0.498 
0.498 0.333 0.627 0.459 
0.639 0.416 0.576 0.541 
0.667 0.416 0.678 0.667 
0.388 0.251 0.424 0.376 
0.333 0.169 0.459 0.376 
0.471 0.29 0.694 0.624 
0.471 0.584 0.592 0.624 
0.557 0.125 0.576 0.498 
0.333 0.208 0.51 0.498 
0.498 0.416 0.612 0.541 
0.196 0.125 0.388 0.376 
0.388 0.416 0.541 0.459 
0.529 0.376 0.561 0.498 
0.388 0.333 0.525 0.498 
0.557 0.541 0.847 1.0 
0.776 0.416 0.831 0.831 
0.612 0.416 0.812 0.875 
0.165 0.208 0.592 0.667 
0.667 0.208 0.812 0.71 
0.612 0.502 0.694 0.792 
0.694 0.416 0.761 0.831 
0.416 0.333 0.694 0.957 
0.612 0.416 0.761 0.71 
0.945 0.251 1.0 0.918 
0.722 0.502 0.796 0.918 
0.945 0.333 0.965 0.792 
0.667 0.541 0.796 0.831 
0.529 0.333 0.643 0.71 
0.584 0.333 0.78 0.831 
0.863 0.333 0.863 0.749 
0.584 0.333 0.78 0.875 
0.498 0.251 0.78 0.541 
0.557 0.584 0.78 0.957 
0.471 0.416 0.643 0.71 
0.667 0.459 0.78 0.957 
0.416 0.29 0.694 0.749 
0.667 0.541 0.796 1.0 
0.557 0.208 0.678 0.749 
0.529 0.584 0.745 0.918 
0.416 0.29 0.694 0.749 
0.557 0.376 0.78 0.71 
0.918 0.416 0.949 0.831 
0.835 0.376 0.898 0.71 
0.804 0.667 0.863 1.0 
0.584 0.29 0.729 0.749 
0.388 0.208 0.678 0.792 
0.584 0.502 0.729 0.918 
0.945 0.749 0.965 0.875 
0.471 0.082 0.678 0.584 
0.361 0.333 0.663 0.792 
0.557 0.29 0.663 0.71 
0.804 0.502 0.847 0.71 
0.498 0.416 0.51 0.71 
0.804 0.416 0.812 0.624 
1.0 0.749 0.914 0.792 
0.557 0.333 0.694 0.584 
0.945 0.416 0.863 0.918 
0.584 0.459 0.761 0.71 
0.722 0.459 0.745 0.831 
0.722 0.459 0.694 0.918 
0.694 0.502 0.831 0.918 
0.667 0.416 0.714 0.918 
0.612 0.416 0.714 0.792 
0.443 0.416 0.694 0.71 
Teaching Patterns
1.0 0.0 0.0 
1.0 0.0 0.0 
1.0 0.0 0.0 
1.0 0.0 0.0 
1.0 0.0 0.0 
1.0 0.0 0.0 
1.0 0.0 0.0 
1.0 0.0 0.0 
1.0 0.0 0.0 
1.0 0.0 0.0 
1.0 0.0 0.0 
1.0 0.0 0.0 
1.0 0.0 0.0 
1.0 0.0 0.0 
1.0 0.0 0.0 
1.0 0.0 0.0 
1.0 0.0 0.0 
1.0 0.0 0.0 
1.0 0.0 0.0 
1.0 0.0 0.0 
1.0 0.0 0.0 
1.0 0.0 0.0 
1.0 0.0 0.0 
1.0 0.0 0.0 
1.0 0.0 0.0 
1.0 0.0 0.0 
1.0 0.0 0.0 
1.0 0.0 0.0 
1.0 0.0 0.0 
1.0 0.0 0.0 
1.0 0.0 0.0 
1.0 0.0 0.0 
1.0 0.0 0.0 
1.0 0.0 0.0 
1.0 0.0 0.0 
1.0 0.0 0.0 
1.0 0.0 0.0 
1.0 0.0 0.0 
1.0 0.0 0.0 
1.0 0.0 0.0 
1.0 0.0 0.0 
1.0 0.0 0.0 
1.0 0.0 0.0 
1.0 0.0 0.0 
1.0 0.0 0.0 
1.0 0.0 0.0 
1.0 0.0 0.0 
1.0 0.0 0.0 
1.0 0.0 0.0 
1.0 0.0 0.0 
0.0 1.0 0.0 
0.0 1.0 0.0 
0.0 1.0 0.0 
0.0 1.0 0.0 
0.0 1.0 0.0 
0.0 1.0 0.0 
0.0 1.0 0.0 
0.0 1.0 0.0 
0.0 1.0 0.0 
0.0 1.0 0.0 
0.0 1.0 0.0 
0.0 1.0 0.0 
0.0 1.0 0.0 
0.0 1.0 0.0 
0.0 1.0 0.0 
0.0 1.0 0.0 
0.0 1.0 0.0 
0.0 1.0 0.0 
0.0 1.0 0.0 
0.0 1.0 0.0 
0.0 1.0 0.0 
0.0 1.0 0.0 
0.0 1.0 0.0 
0.0 1.0 0.0 
0.0 1.0 0.0 
0.0 1.0 0.0 
0.0 1.0 0.0 
0.0 1.0 0.0 
0.0 1.0 0.0 
0.0 1.0 0.0 
0.0 1.0 0.0 
0.0 1.0 0.0 
0.0 1.0 0.0 
0.0 1.0 0.0 
0.0 1.0 0.0 
0.0 1.0 0.0 
0.0 1.0 0.0 
0.0 1.0 0.0 
0.0 1.0 0.0 
0.0 1.0 0.0 
0.0 1.0 0.0 
0.0 1.0 0.0 
0.0 1.0 0.0 
0.0 1.0 0.0 
0.0 1.0 0.0 
0.0 1.0 0.0 
0.0 1.0 0.0 
0.0 1.0 0.0 
0.0 1.0 0.0 
0.0 1.0 0.0 
0.0 0.0 1.0 
0.0 0.0 1.0 
0.0 0.0 1.0 
0.0 0.0 1.0 
0.0 0.0 1.0 
0.0 0.0 1.0 
0.0 0.0 1.0 
0.0 0.0 1.0 
0.0 0.0 1.0 
0.0 0.0 1.0 
0.0 0.0 1.0 
0.0 0.0 1.0 
0.0 0.0 1.0 
0.0 0.0 1.0 
0.0 0.0 1.0 
0.0 0.0 1.0 
0.0 0.0 1.0 
0.0 0.0 1.0 
0.0 0.0 1.0 
0.0 0.0 1.0 
0.0 0.0 1.0 
0.0 0.0 1.0 
0.0 0.0 1.0 
0.0 0.0 1.0 
0.0 0.0 1.0 
0.0 0.0 1.0 
0.0 0.0 1.0 
0.0 0.0 1.0 
0.0 0.0 1.0 
0.0 0.0 1.0 
0.0 0.0 1.0 
0.0 0.0 1.0 
0.0 0.0 1.0 
0.0 0.0 1.0 
0.0 0.0 1.0 
0.0 0.0 1.0 
0.0 0.0 1.0 
0.0 0.0 1.0 
0.0 0.0 1.0 
0.0 0.0 1.0 
0.0 0.0 1.0 
0.0 0.0 1.0 
0.0 0.0 1.0 
0.0 0.0 1.0 
0.0 0.0 1.0 
0.0 0.0 1.0 
0.0 0.0 1.0 
0.0 0.0 1.0 
0.0 0.0 1.0 
0.0 0.0 1.0 
Learning : 0.05
Momentum : 0.5
Epoch: 100, Error: 0.06655398721070949
Epoch: 200, Error: 0.022896711355917157
Epoch: 300, Error: 0.017278005128889936
Epoch: 400, Error: 0.015363032144302857
Epoch: 500, Error: 0.014335939509702167
Epoch: 600, Error: 0.013696414085907159
Epoch: 700, Error: 0.013615317777045707
Epoch: 800, Error: 0.012988855668648859
Epoch: 900, Error: 0.012730538467282173
Epoch: 1000, Error: 0.012649644580620085
Epoch: 1100, Error: 0.012497712686827072
Epoch: 1200, Error: 0.012414689913973683
Epoch: 1300, Error: 0.012289736712709179
Epoch: 1400, Error: 0.012227213573801441
Epoch: 1500, Error: 0.012178601198872051
Epoch: 1600, Error: 0.01211843776868706
Epoch: 1700, Error: 0.012077652281823495
Epoch: 1800, Error: 0.012051597042030349
Epoch: 1900, Error: 0.012078664358946029
Epoch: 2000, Error: 0.012029213020380966
Epoch: 2100, Error: 0.012043600191655849
Epoch: 2200, Error: 0.012001040692193394
Epoch: 2300, Error: 0.01200930325864445
Epoch: 2400, Error: 0.011966802000502036
Epoch: 2500, Error: 0.012014586660712794
Epoch: 2600, Error: 0.011955542159691855
Epoch: 2700, Error: 0.011940092949045524
Epoch: 2800, Error: 0.011952738175026815
Epoch: 2900, Error: 0.011950566919100281
Epoch: 3000, Error: 0.01195885387844228
Epoch: 3100, Error: 0.011946138915199238
Epoch: 3200, Error: 0.011944436567390925
Epoch: 3300, Error: 0.01191332132071658
Epoch: 3400, Error: 0.011958438033841211
Epoch: 3500, Error: 0.011880289202910748
Epoch: 3600, Error: 0.011905432502862412
Epoch: 3700, Error: 0.011991442565151427
Epoch: 3800, Error: 0.011997635939404942
Epoch: 3900, Error: 0.011911316245659
Epoch: 4000, Error: 0.011851354578542026
Epoch: 4100, Error: 0.011852098743976035
Epoch: 4200, Error: 0.011831963160315859
Epoch: 4300, Error: 0.011889577516496467
Epoch: 4400, Error: 0.011797178136218668
Epoch: 4500, Error: 0.01181908139126536
Epoch: 4600, Error: 0.011795015941343641
Epoch: 4700, Error: 0.011800647653608222
Epoch: 4800, Error: 0.011778316780052546
Epoch: 4900, Error: 0.01176235483564189
Epoch: 5000, Error: 0.011895153586442173
Epoch: 5100, Error: 0.011792449978178982
Epoch: 5200, Error: 0.011733713953191333
Epoch: 5300, Error: 0.011741112722022868
Epoch: 5400, Error: 0.011729982966298416
Epoch: 5500, Error: 0.011765995553772163
Epoch: 5600, Error: 0.01171157615686026
Epoch: 5700, Error: 0.011705064280162264
Epoch: 5800, Error: 0.011711425251078591
Epoch: 5900, Error: 0.011710341419118208
Epoch: 6000, Error: 0.011702874027193326
Epoch: 6100, Error: 0.011668707902374743
Epoch: 6200, Error: 0.01164918303673616
Epoch: 6300, Error: 0.011630981365414789
Epoch: 6400, Error: 0.011601537256701787
Epoch: 6500, Error: 0.011588911000326638
Epoch: 6600, Error: 0.011573197047702967
Epoch: 6700, Error: 0.011586761116092168
Epoch: 6800, Error: 0.011538877546499748
Epoch: 6900, Error: 0.011528352451860699
Epoch: 7000, Error: 0.011520545106704883
Epoch: 7100, Error: 0.011567687516549125
Epoch: 7200, Error: 0.011543452256082352
Epoch: 7300, Error: 0.011501849763763592
Epoch: 7400, Error: 0.01147936317109069
Epoch: 7500, Error: 0.011452543617867992
Epoch: 7600, Error: 0.01140917884210765
Epoch: 7700, Error: 0.011390277650474163
Epoch: 7800, Error: 0.011371236747697876
Epoch: 7900, Error: 0.011360104039945158
Epoch: 8000, Error: 0.01138256939360661
Epoch: 8100, Error: 0.011294620856032205
Epoch: 8200, Error: 0.011281097404670168
Epoch: 8300, Error: 0.011236184557169682
Epoch: 8400, Error: 0.011272553419678553
Epoch: 8500, Error: 0.011177144923328823
Epoch: 8600, Error: 0.011142457311265154
Epoch: 8700, Error: 0.011121437068008685
Epoch: 8800, Error: 0.011099385305422886
Epoch: 8900, Error: 0.011044773073326167
Epoch: 9000, Error: 0.011009725157987562
Epoch: 9100, Error: 0.010945941831157706
Epoch: 9200, Error: 0.01092882151835599
Epoch: 9300, Error: 0.010880299413912567
Epoch: 9400, Error: 0.010831782647289448
Epoch: 9500, Error: 0.010792206778780141
Epoch: 9600, Error: 0.010736281987116871
Epoch: 9700, Error: 0.010770966581883054
Epoch: 9800, Error: 0.010654375454635311
Epoch: 9900, Error: 0.0106015602034226
Epoch: 10000, Error: 0.010481732612350875
Epoch: 10100, Error: 0.01042982953801431
Epoch: 10200, Error: 0.010353680234141297
Epoch: 10300, Error: 0.010306023038139414
Epoch: 10400, Error: 0.010209286685787529
Epoch: 10500, Error: 0.010138965120732672
Epoch: 10600, Error: 0.01005158020527723
Epoch: 10700, Error: 0.010022954270140244
Epoch: 10800, Error: 0.00992473946351877
Epoch: 10900, Error: 0.00983776458345074
Epoch: 11000, Error: 0.00977028039861097
Epoch: 11100, Error: 0.009688592631061995
Epoch: 11200, Error: 0.009596596347961119
Epoch: 11300, Error: 0.009551682150020807
Epoch: 11400, Error: 0.009460341205750771
Epoch: 11500, Error: 0.009377561956414036
Epoch: 11600, Error: 0.009311311143442413
Epoch: 11700, Error: 0.009250374730768493
Epoch: 11800, Error: 0.009213961573676323
Epoch: 11900, Error: 0.00906993806919106
Epoch: 12000, Error: 0.008977897735976112
Epoch: 12100, Error: 0.008903430924273802
Epoch: 12200, Error: 0.008832047875514976
Epoch: 12300, Error: 0.00880279747541072
Epoch: 12400, Error: 0.008667304735126839
Epoch: 12500, Error: 0.008586861007558438
Epoch: 12600, Error: 0.008525729517590844
Epoch: 12700, Error: 0.008425451226230384
Epoch: 12800, Error: 0.008352178272874888
Epoch: 12900, Error: 0.008282714131180615
Epoch: 13000, Error: 0.008237553843424419
Epoch: 13100, Error: 0.008170019282218968
Epoch: 13200, Error: 0.008046879865528052
Epoch: 13300, Error: 0.008010485441502915
Epoch: 13400, Error: 0.007913831761355287
Epoch: 13500, Error: 0.00787401873433912
Epoch: 13600, Error: 0.007803269004795144
Epoch: 13700, Error: 0.007719759365498131
Epoch: 13800, Error: 0.007663089011254541
Epoch: 13900, Error: 0.007588599771605565
Epoch: 14000, Error: 0.007522010272507541
Epoch: 14100, Error: 0.007459269971121589
Epoch: 14200, Error: 0.007479659384243079
Epoch: 14300, Error: 0.007357454108866596
Epoch: 14400, Error: 0.0072821480987355506
Epoch: 14500, Error: 0.007259129483665819
Epoch: 14600, Error: 0.007225811628354568
Epoch: 14700, Error: 0.007214633842819998
Epoch: 14800, Error: 0.007097955118799716
Epoch: 14900, Error: 0.007035250449920499
Epoch: 15000, Error: 0.006966956436948194
Epoch: 15100, Error: 0.006927117872857014
Epoch: 15200, Error: 0.00688765455892514
Epoch: 15300, Error: 0.006835434443044389
Epoch: 15400, Error: 0.006778322793719005
Epoch: 15500, Error: 0.006753520055084302
Epoch: 15600, Error: 0.0066958365634889345
Epoch: 15700, Error: 0.006682121806492326
Epoch: 15800, Error: 0.0066028296038419644
Epoch: 15900, Error: 0.0065720508890819915
Epoch: 16000, Error: 0.006526943614925088
Epoch: 16100, Error: 0.00649379670269247
Epoch: 16200, Error: 0.0064654443168645935
Epoch: 16300, Error: 0.006452857155415887
Epoch: 16400, Error: 0.006407927432553134
Epoch: 16500, Error: 0.006368586780330468
Epoch: 16600, Error: 0.0063868731020298684
Epoch: 16700, Error: 0.006318956819068382
Epoch: 16800, Error: 0.006284790043597319
Epoch: 16900, Error: 0.00625807629887199
Epoch: 17000, Error: 0.006241288782571288
Epoch: 17100, Error: 0.00622622168266998
Epoch: 17200, Error: 0.006177586293539767
Epoch: 17300, Error: 0.006201620301365505
Epoch: 17400, Error: 0.0061335154900437755
Epoch: 17500, Error: 0.00612010891846922
Epoch: 17600, Error: 0.00608768312999583
Epoch: 17700, Error: 0.0060520563193410875
Epoch: 17800, Error: 0.006026856990682338
Epoch: 17900, Error: 0.006012759185149016
Epoch: 18000, Error: 0.005991953404321838
Epoch: 18100, Error: 0.005962471580335272
Epoch: 18200, Error: 0.00597087738379814
Epoch: 18300, Error: 0.005944004860296185
Epoch: 18400, Error: 0.0059062033255025065
Epoch: 18500, Error: 0.0059047110038515215
Epoch: 18600, Error: 0.005887674473324823
Epoch: 18700, Error: 0.005867625178165826
Epoch: 18800, Error: 0.005850496841286683
Epoch: 18900, Error: 0.005855804072668282
Epoch: 19000, Error: 0.005810844225714628
Epoch: 19100, Error: 0.005806155954994388
Epoch: 19200, Error: 0.005820520921223238
Epoch: 19300, Error: 0.005757221209568346
Epoch: 19400, Error: 0.00573764898379492
Epoch: 19500, Error: 0.0057204872733010205
Epoch: 19600, Error: 0.005703358999443713
Epoch: 19700, Error: 0.005692821638309018
Epoch: 19800, Error: 0.0056456352789496875
Epoch: 19900, Error: 0.005623823610354254
Epoch: 20000, Error: 0.005602787483829479
Epoch: 20100, Error: 0.0055779292258030105
Epoch: 20200, Error: 0.005564883374541892
Epoch: 20300, Error: 0.0055388384817902335
Epoch: 20400, Error: 0.0055165776142714635
Epoch: 20500, Error: 0.005494846306630299
Epoch: 20600, Error: 0.005503514872766987
Epoch: 20700, Error: 0.0054641545734951304
Epoch: 20800, Error: 0.005434277800547598
Epoch: 20900, Error: 0.005414042550800769
Epoch: 21000, Error: 0.005395034278156722
Epoch: 21100, Error: 0.0053796539437686395
Epoch: 21200, Error: 0.005370228152471376
Epoch: 21300, Error: 0.005335521466169105
Epoch: 21400, Error: 0.005262695287209046
Epoch: 21500, Error: 0.005305408517922237
Epoch: 21600, Error: 0.005289037641718952
Epoch: 21700, Error: 0.005379772064598088
Epoch: 21800, Error: 0.005269319023656244
Epoch: 21900, Error: 0.005245819718127177
Epoch: 22000, Error: 0.005217080104987284
Epoch: 22100, Error: 0.005201752559928686
Epoch: 22200, Error: 0.005197351960531269
Epoch: 22300, Error: 0.005207116573305278
Epoch: 22400, Error: 0.005162098919695528
Epoch: 22500, Error: 0.0051618641621762875
Epoch: 22600, Error: 0.005145714824260672
Epoch: 22700, Error: 0.0051222316008158915
Epoch: 22800, Error: 0.005073293057725105
Epoch: 22900, Error: 0.005039318529977624
Epoch: 23000, Error: 0.00508565655590419
Epoch: 23100, Error: 0.005079500271352781
Epoch: 23200, Error: 0.0050641487173413244
Epoch: 23300, Error: 0.0050158881081695545
Epoch: 23400, Error: 0.004949733911902218
Epoch: 23500, Error: 0.0049748351843821315
Epoch: 23600, Error: 0.004951482723910422
Epoch: 23700, Error: 0.004904622880203784
Epoch: 23800, Error: 0.004894440669291557
Epoch: 23900, Error: 0.004859573504089669
Epoch: 24000, Error: 0.004829233513799895
Epoch: 24100, Error: 0.004790379965248563
Epoch: 24200, Error: 0.004761536342099273
Epoch: 24300, Error: 0.004746037404512595
Epoch: 24400, Error: 0.004690287558195587
Epoch: 24500, Error: 0.004663049040230895
Epoch: 24600, Error: 0.004630400858852203
Epoch: 24700, Error: 0.004603593744536654
Epoch: 24800, Error: 0.004721941175207195
Epoch: 24900, Error: 0.004545455116829207
Epoch: 25000, Error: 0.004519413570777264
Epoch: 25100, Error: 0.004484491126837661
Epoch: 25200, Error: 0.004459145474982631
Epoch: 25300, Error: 0.004427378212516235
Epoch: 25400, Error: 0.004399761602521813
Epoch: 25500, Error: 0.004379380298370787
Epoch: 25600, Error: 0.0043405846575071995
Epoch: 25700, Error: 0.004363230038855189
Epoch: 25800, Error: 0.004329606833171304
Epoch: 25900, Error: 0.004275930102668519
Epoch: 26000, Error: 0.0042482153477624695
Epoch: 26100, Error: 0.004218518242790497
Epoch: 26200, Error: 0.004198229701165329
Epoch: 26300, Error: 0.004172363470611216
Epoch: 26400, Error: 0.004149517897961146
Epoch: 26500, Error: 0.004136055083829948
Epoch: 26600, Error: 0.0041323046311283395
Epoch: 26700, Error: 0.004097701086700031
Epoch: 26800, Error: 0.004041622760657239
Epoch: 26900, Error: 0.004026676617885091
Epoch: 27000, Error: 0.003995892253020093
Epoch: 27100, Error: 0.0040073676977523415
Epoch: 27200, Error: 0.003944077213934654
Epoch: 27300, Error: 0.003918809073382888
Epoch: 27400, Error: 0.003891404641111295
Epoch: 27500, Error: 0.003869512422867048
Epoch: 27600, Error: 0.0038614953434818284
Epoch: 27700, Error: 0.0038685973187088728
Epoch: 27800, Error: 0.0038280617548151303
Epoch: 27900, Error: 0.003832142802096072
Epoch: 28000, Error: 0.00376781605334416
Epoch: 28100, Error: 0.0038102232335212975
Epoch: 28200, Error: 0.0038087592485252855
Epoch: 28300, Error: 0.0036895736532835135
Epoch: 28400, Error: 0.0036647356356184317
Epoch: 28500, Error: 0.0036432147713703245
Epoch: 28600, Error: 0.0036218091692594256
Epoch: 28700, Error: 0.003600429489025607
Epoch: 28800, Error: 0.0036457443026115892
Epoch: 28900, Error: 0.0035670804422055446
Epoch: 29000, Error: 0.0035477151673692963
Epoch: 29100, Error: 0.003590443416476691
Epoch: 29200, Error: 0.003494042342992257
Epoch: 29300, Error: 0.0035162494143057194
Epoch: 29400, Error: 0.0035772192094370553
Epoch: 29500, Error: 0.003436643785721142
Epoch: 29600, Error: 0.0034835481503880626
Epoch: 29700, Error: 0.0034396904436237996
Epoch: 29800, Error: 0.0033808012619169435
Epoch: 29900, Error: 0.0034507583161781977
Epoch: 30000, Error: 0.003487133295136098
Epoch: 30100, Error: 0.0033547354383245257
Epoch: 30200, Error: 0.003355183300252286
Epoch: 30300, Error: 0.0032917836971534708
Epoch: 30400, Error: 0.0033126992171949596
Epoch: 30500, Error: 0.0032878220130532175
Epoch: 30600, Error: 0.003228016509254148
Epoch: 30700, Error: 0.0032396243895489747
Epoch: 30800, Error: 0.0032709498731890363
Epoch: 30900, Error: 0.0032024131115203345
Epoch: 31000, Error: 0.0032748696543035494
Epoch: 31100, Error: 0.003229025874689763
Epoch: 31200, Error: 0.0031603387918018857
Epoch: 31300, Error: 0.003158693361424495
Epoch: 31400, Error: 0.003116316360778314
Epoch: 31500, Error: 0.0031518308507947103
Epoch: 31600, Error: 0.0030689945491780626
Epoch: 31700, Error: 0.003091041901265473
Epoch: 31800, Error: 0.0030954586196204714
Epoch: 31900, Error: 0.0030351260071047204
Epoch: 32000, Error: 0.003060805293878508
Epoch: 32100, Error: 0.0029791860307439317
Epoch: 32200, Error: 0.002998115059324957
Epoch: 32300, Error: 0.0029458827993634118
Epoch: 32400, Error: 0.002937436286812852
Epoch: 32500, Error: 0.0029283164134275797
Epoch: 32600, Error: 0.0029012079257420757
Epoch: 32700, Error: 0.0028723075826547757
Epoch: 32800, Error: 0.002849487558796528
Epoch: 32900, Error: 0.0028423621134549483
Epoch: 33000, Error: 0.002812814871089041
Epoch: 33100, Error: 0.00279294168231999
Epoch: 33200, Error: 0.0027824421776941723
Epoch: 33300, Error: 0.002937960855772844
Epoch: 33400, Error: 0.0028087569850274545
Epoch: 33500, Error: 0.002767958491405625
Epoch: 33600, Error: 0.002734329210207526
Epoch: 33700, Error: 0.002729918735212594
Epoch: 33800, Error: 0.00272977566750372
Epoch: 33900, Error: 0.00268101497471576
Epoch: 34000, Error: 0.0026826666382578166
Epoch: 34100, Error: 0.0026494044362040344
Epoch: 34200, Error: 0.0026732979148281215
Epoch: 34300, Error: 0.0026508263142215947
Epoch: 34400, Error: 0.002624684817327917
Epoch: 34500, Error: 0.002847891170778252
Epoch: 34600, Error: 0.0026463506682116596
Epoch: 34700, Error: 0.002567222367979341
Epoch: 34800, Error: 0.002699388547268896
Epoch: 34900, Error: 0.0025818227245285696
Epoch: 35000, Error: 0.0025819912161647402
Epoch: 35100, Error: 0.002496586595163134
Epoch: 35200, Error: 0.0025270436126413253
Epoch: 35300, Error: 0.002474056323483217
Epoch: 35400, Error: 0.0024571820263577997
Epoch: 35500, Error: 0.002437514177584182
Epoch: 35600, Error: 0.0024454106619674963
Epoch: 35700, Error: 0.002415918913933993
Epoch: 35800, Error: 0.002428220712687053
Epoch: 35900, Error: 0.0024571611274868126
Epoch: 36000, Error: 0.0023910265919347123
Epoch: 36100, Error: 0.0023500708552354178
Epoch: 36200, Error: 0.0024576215531500007
Epoch: 36300, Error: 0.002344979873507676
Epoch: 36400, Error: 0.002440906163393046
Epoch: 36500, Error: 0.0024216385176048225
Epoch: 36600, Error: 0.0023163447993757636
Epoch: 36700, Error: 0.002280728366601294
Epoch: 36800, Error: 0.0022673222167476654
Epoch: 36900, Error: 0.0023327294173761137
Epoch: 37000, Error: 0.0022567537784747766
Epoch: 37100, Error: 0.002269941757255735
Epoch: 37200, Error: 0.002233407429107317
Epoch: 37300, Error: 0.0022853847325763595
Epoch: 37400, Error: 0.00223373148400799
Epoch: 37500, Error: 0.002192812040135741
Epoch: 37600, Error: 0.002203313369829679
Epoch: 37700, Error: 0.0022498618605097
Epoch: 37800, Error: 0.0022042927769327946
Epoch: 37900, Error: 0.00215754432890647
Epoch: 38000, Error: 0.00215492030853642
Epoch: 38100, Error: 0.0021347375375825317
Epoch: 38200, Error: 0.0021270073008588406
Epoch: 38300, Error: 0.0021263469921850645
Epoch: 38400, Error: 0.0021410633866441433
Epoch: 38500, Error: 0.0020963779471289256
Epoch: 38600, Error: 0.0021066650415424337
Epoch: 38700, Error: 0.0020780946324141627
Epoch: 38800, Error: 0.0020667515271841634
Epoch: 38900, Error: 0.0020572040556314564
Epoch: 39000, Error: 0.0020387890093656043
Epoch: 39100, Error: 0.0020506694772949086
Epoch: 39200, Error: 0.002018219972114772
Epoch: 39300, Error: 0.0020226721745453683
Epoch: 39400, Error: 0.00203916896848623
Epoch: 39500, Error: 0.002006452358297717
Epoch: 39600, Error: 0.0019811590623424334
Epoch: 39700, Error: 0.0019669788798428204
Epoch: 39800, Error: 0.001961305035696771
Epoch: 39900, Error: 0.0019636215740231897
Epoch: 40000, Error: 0.0019523569014227742
Epoch: 40100, Error: 0.0019238294273928363
Epoch: 40200, Error: 0.0019474297501352157
Epoch: 40300, Error: 0.0019155193345090746
Epoch: 40400, Error: 0.0019388374248578322
Epoch: 40500, Error: 0.001908912020047952
Epoch: 40600, Error: 0.0018829233364829562
Epoch: 40700, Error: 0.001963848629546362
Epoch: 40800, Error: 0.001893236765992959
Epoch: 40900, Error: 0.0018562575957871887
Epoch: 41000, Error: 0.001813162477854141
Epoch: 41100, Error: 0.0018139067199028267
Epoch: 41200, Error: 0.0017822611265919434
Epoch: 41300, Error: 0.0017765839314058743
Epoch: 41400, Error: 0.0017739527213946184
Epoch: 41500, Error: 0.0017639454600414104
Epoch: 41600, Error: 0.001788361174133647
Epoch: 41700, Error: 0.001755813051915178
Epoch: 41800, Error: 0.0017429345124624017
Epoch: 41900, Error: 0.0017418840847975353
Epoch: 42000, Error: 0.0017180609764062488
Epoch: 42100, Error: 0.0017499742143378418
Epoch: 42200, Error: 0.0017183677537244268
Epoch: 42300, Error: 0.0017093054416060895
Epoch: 42400, Error: 0.0017053007672276183
Epoch: 42500, Error: 0.0017227269122808014
Epoch: 42600, Error: 0.0017098330277858479
Epoch: 42700, Error: 0.0017169760702538026
Epoch: 42800, Error: 0.0017142574104699472
Epoch: 42900, Error: 0.0016835788031982486
Epoch: 43000, Error: 0.0016848768703647827
Epoch: 43100, Error: 0.0016534619255964883
Epoch: 43200, Error: 0.0016550481472910265
Epoch: 43300, Error: 0.0016377871248952779
Epoch: 43400, Error: 0.0016331066030732158
Epoch: 43500, Error: 0.0016355965970664998
Finished
