Input Patterns
0.224 0.624 0.067 0.043 
0.11 0.502 0.051 0.043 
0.196 0.667 0.067 0.043 
0.055 0.584 0.067 0.082 
0.027 0.376 0.067 0.043 
0.306 0.71 0.086 0.043 
0.137 0.416 0.067 0.0 
0.416 0.831 0.035 0.043 
0.306 0.792 0.051 0.125 
0.388 0.749 0.118 0.082 
0.306 0.584 0.118 0.043 
0.082 0.667 0.0 0.043 
0.137 0.584 0.153 0.043 
0.196 0.584 0.102 0.125 
0.251 0.584 0.067 0.043 
0.137 0.459 0.102 0.043 
0.251 0.875 0.086 0.0 
0.165 0.459 0.086 0.043 
0.333 0.624 0.051 0.043 
0.027 0.416 0.051 0.043 
0.196 0.624 0.051 0.082 
0.027 0.502 0.051 0.043 
0.224 0.749 0.153 0.125 
0.224 0.749 0.102 0.043 
0.278 0.71 0.086 0.043 
0.165 0.416 0.067 0.043 
0.082 0.459 0.086 0.043 
0.306 0.792 0.118 0.125 
0.196 0.584 0.086 0.043 
0.165 0.459 0.086 0.0 
0.137 0.584 0.102 0.043 
0.0 0.416 0.016 0.0 
0.388 1.0 0.086 0.125 
0.224 0.624 0.067 0.082 
0.224 0.749 0.086 0.082 
0.224 0.71 0.086 0.125 
0.224 0.541 0.118 0.165 
0.196 0.416 0.102 0.043 
0.251 0.624 0.086 0.043 
0.11 0.502 0.102 0.043 
0.306 0.584 0.086 0.125 
0.333 0.918 0.067 0.043 
0.196 0.502 0.035 0.043 
0.165 0.667 0.067 0.0 
0.224 0.584 0.086 0.043 
0.055 0.125 0.051 0.082 
0.196 0.624 0.102 0.208 
0.137 0.416 0.067 0.082 
0.082 0.502 0.067 0.043 
0.196 0.541 0.067 0.043 
0.749 0.502 0.627 0.541 
0.722 0.459 0.663 0.584 
0.612 0.333 0.612 0.584 
0.557 0.541 0.627 0.624 
0.639 0.376 0.612 0.498 
0.196 0.0 0.424 0.376 
0.471 0.082 0.51 0.376 
0.361 0.376 0.439 0.498 
0.361 0.416 0.592 0.584 
0.529 0.082 0.592 0.584 
0.443 0.502 0.643 0.459 
0.557 0.208 0.663 0.584 
0.584 0.376 0.561 0.498 
0.694 0.333 0.643 0.541 
0.471 0.376 0.592 0.584 
0.333 0.169 0.475 0.416 
0.416 0.29 0.49 0.459 
0.306 0.416 0.592 0.584 
0.667 0.459 0.627 0.584 
0.361 0.416 0.525 0.498 
0.333 0.251 0.576 0.459 
0.416 0.251 0.51 0.459 
0.361 0.29 0.541 0.498 
0.388 0.376 0.541 0.498 
0.224 0.208 0.337 0.416 
0.584 0.502 0.592 0.584 
0.333 0.125 0.51 0.498 
0.388 0.333 0.592 0.498 
0.165 0.169 0.388 0.376 
0.251 0.29 0.49 0.541 
0.443 0.416 0.541 0.584 
0.498 0.376 0.627 0.541 
0.667 0.459 0.576 0.541 
0.416 0.29 0.525 0.376 
0.361 0.208 0.49 0.416 
0.498 0.333 0.51 0.498 
0.498 0.333 0.627 0.459 
0.639 0.416 0.576 0.541 
0.667 0.416 0.678 0.667 
0.388 0.251 0.424 0.376 
0.333 0.169 0.459 0.376 
0.471 0.29 0.694 0.624 
0.471 0.584 0.592 0.624 
0.557 0.125 0.576 0.498 
0.333 0.208 0.51 0.498 
0.498 0.416 0.612 0.541 
0.196 0.125 0.388 0.376 
0.388 0.416 0.541 0.459 
0.529 0.376 0.561 0.498 
0.388 0.333 0.525 0.498 
0.557 0.541 0.847 1.0 
0.776 0.416 0.831 0.831 
0.612 0.416 0.812 0.875 
0.165 0.208 0.592 0.667 
0.667 0.208 0.812 0.71 
0.612 0.502 0.694 0.792 
0.694 0.416 0.761 0.831 
0.416 0.333 0.694 0.957 
0.612 0.416 0.761 0.71 
0.945 0.251 1.0 0.918 
0.722 0.502 0.796 0.918 
0.945 0.333 0.965 0.792 
0.667 0.541 0.796 0.831 
0.529 0.333 0.643 0.71 
0.584 0.333 0.78 0.831 
0.863 0.333 0.863 0.749 
0.584 0.333 0.78 0.875 
0.498 0.251 0.78 0.541 
0.557 0.584 0.78 0.957 
0.471 0.416 0.643 0.71 
0.667 0.459 0.78 0.957 
0.416 0.29 0.694 0.749 
0.667 0.541 0.796 1.0 
0.557 0.208 0.678 0.749 
0.529 0.584 0.745 0.918 
0.416 0.29 0.694 0.749 
0.557 0.376 0.78 0.71 
0.918 0.416 0.949 0.831 
0.835 0.376 0.898 0.71 
0.804 0.667 0.863 1.0 
0.584 0.29 0.729 0.749 
0.388 0.208 0.678 0.792 
0.584 0.502 0.729 0.918 
0.945 0.749 0.965 0.875 
0.471 0.082 0.678 0.584 
0.361 0.333 0.663 0.792 
0.557 0.29 0.663 0.71 
0.804 0.502 0.847 0.71 
0.498 0.416 0.51 0.71 
0.804 0.416 0.812 0.624 
1.0 0.749 0.914 0.792 
0.557 0.333 0.694 0.584 
0.945 0.416 0.863 0.918 
0.584 0.459 0.761 0.71 
0.722 0.459 0.745 0.831 
0.722 0.459 0.694 0.918 
0.694 0.502 0.831 0.918 
0.667 0.416 0.714 0.918 
0.612 0.416 0.714 0.792 
0.443 0.416 0.694 0.71 
Teaching Patterns
1.0 0.0 0.0 
1.0 0.0 0.0 
1.0 0.0 0.0 
1.0 0.0 0.0 
1.0 0.0 0.0 
1.0 0.0 0.0 
1.0 0.0 0.0 
1.0 0.0 0.0 
1.0 0.0 0.0 
1.0 0.0 0.0 
1.0 0.0 0.0 
1.0 0.0 0.0 
1.0 0.0 0.0 
1.0 0.0 0.0 
1.0 0.0 0.0 
1.0 0.0 0.0 
1.0 0.0 0.0 
1.0 0.0 0.0 
1.0 0.0 0.0 
1.0 0.0 0.0 
1.0 0.0 0.0 
1.0 0.0 0.0 
1.0 0.0 0.0 
1.0 0.0 0.0 
1.0 0.0 0.0 
1.0 0.0 0.0 
1.0 0.0 0.0 
1.0 0.0 0.0 
1.0 0.0 0.0 
1.0 0.0 0.0 
1.0 0.0 0.0 
1.0 0.0 0.0 
1.0 0.0 0.0 
1.0 0.0 0.0 
1.0 0.0 0.0 
1.0 0.0 0.0 
1.0 0.0 0.0 
1.0 0.0 0.0 
1.0 0.0 0.0 
1.0 0.0 0.0 
1.0 0.0 0.0 
1.0 0.0 0.0 
1.0 0.0 0.0 
1.0 0.0 0.0 
1.0 0.0 0.0 
1.0 0.0 0.0 
1.0 0.0 0.0 
1.0 0.0 0.0 
1.0 0.0 0.0 
1.0 0.0 0.0 
0.0 1.0 0.0 
0.0 1.0 0.0 
0.0 1.0 0.0 
0.0 1.0 0.0 
0.0 1.0 0.0 
0.0 1.0 0.0 
0.0 1.0 0.0 
0.0 1.0 0.0 
0.0 1.0 0.0 
0.0 1.0 0.0 
0.0 1.0 0.0 
0.0 1.0 0.0 
0.0 1.0 0.0 
0.0 1.0 0.0 
0.0 1.0 0.0 
0.0 1.0 0.0 
0.0 1.0 0.0 
0.0 1.0 0.0 
0.0 1.0 0.0 
0.0 1.0 0.0 
0.0 1.0 0.0 
0.0 1.0 0.0 
0.0 1.0 0.0 
0.0 1.0 0.0 
0.0 1.0 0.0 
0.0 1.0 0.0 
0.0 1.0 0.0 
0.0 1.0 0.0 
0.0 1.0 0.0 
0.0 1.0 0.0 
0.0 1.0 0.0 
0.0 1.0 0.0 
0.0 1.0 0.0 
0.0 1.0 0.0 
0.0 1.0 0.0 
0.0 1.0 0.0 
0.0 1.0 0.0 
0.0 1.0 0.0 
0.0 1.0 0.0 
0.0 1.0 0.0 
0.0 1.0 0.0 
0.0 1.0 0.0 
0.0 1.0 0.0 
0.0 1.0 0.0 
0.0 1.0 0.0 
0.0 1.0 0.0 
0.0 1.0 0.0 
0.0 1.0 0.0 
0.0 1.0 0.0 
0.0 1.0 0.0 
0.0 0.0 1.0 
0.0 0.0 1.0 
0.0 0.0 1.0 
0.0 0.0 1.0 
0.0 0.0 1.0 
0.0 0.0 1.0 
0.0 0.0 1.0 
0.0 0.0 1.0 
0.0 0.0 1.0 
0.0 0.0 1.0 
0.0 0.0 1.0 
0.0 0.0 1.0 
0.0 0.0 1.0 
0.0 0.0 1.0 
0.0 0.0 1.0 
0.0 0.0 1.0 
0.0 0.0 1.0 
0.0 0.0 1.0 
0.0 0.0 1.0 
0.0 0.0 1.0 
0.0 0.0 1.0 
0.0 0.0 1.0 
0.0 0.0 1.0 
0.0 0.0 1.0 
0.0 0.0 1.0 
0.0 0.0 1.0 
0.0 0.0 1.0 
0.0 0.0 1.0 
0.0 0.0 1.0 
0.0 0.0 1.0 
0.0 0.0 1.0 
0.0 0.0 1.0 
0.0 0.0 1.0 
0.0 0.0 1.0 
0.0 0.0 1.0 
0.0 0.0 1.0 
0.0 0.0 1.0 
0.0 0.0 1.0 
0.0 0.0 1.0 
0.0 0.0 1.0 
0.0 0.0 1.0 
0.0 0.0 1.0 
0.0 0.0 1.0 
0.0 0.0 1.0 
0.0 0.0 1.0 
0.0 0.0 1.0 
0.0 0.0 1.0 
0.0 0.0 1.0 
0.0 0.0 1.0 
0.0 0.0 1.0 
Learning : 0.05
Momentum : 0.5
Epoch: 100, Error: 0.06964965973663903
Epoch: 200, Error: 0.022918488933390345
Epoch: 300, Error: 0.016996386574108405
Epoch: 400, Error: 0.015038665543815102
Epoch: 500, Error: 0.01400337312054577
Epoch: 600, Error: 0.013537719314029873
Epoch: 700, Error: 0.013020540437524597
Epoch: 800, Error: 0.012698004420195273
Epoch: 900, Error: 0.012494809461131157
Epoch: 1000, Error: 0.012323142272874248
Epoch: 1100, Error: 0.012459326019543334
Epoch: 1200, Error: 0.012160475838747384
Epoch: 1300, Error: 0.012167892882805427
Epoch: 1400, Error: 0.012208053295112303
Epoch: 1500, Error: 0.012074305359850596
Epoch: 1600, Error: 0.012054397066927906
Epoch: 1700, Error: 0.012004449863588826
Epoch: 1800, Error: 0.01198713197656906
Epoch: 1900, Error: 0.012277542827543494
Epoch: 2000, Error: 0.012042437351977374
Epoch: 2100, Error: 0.011954246060553878
Epoch: 2200, Error: 0.011922379573053617
Epoch: 2300, Error: 0.011911435739848571
Epoch: 2400, Error: 0.01191229608989056
Epoch: 2500, Error: 0.011993763657270238
Epoch: 2600, Error: 0.011919384371558117
Epoch: 2700, Error: 0.01195119363767541
Epoch: 2800, Error: 0.011867536653210197
Epoch: 2900, Error: 0.01187774570796544
Epoch: 3000, Error: 0.011830383094006115
Epoch: 3100, Error: 0.01183305451932117
Epoch: 3200, Error: 0.011826224809493115
Epoch: 3300, Error: 0.01180850619168281
Epoch: 3400, Error: 0.011786288541576843
Epoch: 3500, Error: 0.011776291272957417
Epoch: 3600, Error: 0.01177351689271766
Epoch: 3700, Error: 0.011776117800814508
Epoch: 3800, Error: 0.011777195931174997
Epoch: 3900, Error: 0.011746111946592603
Epoch: 4000, Error: 0.011758211488732148
Epoch: 4100, Error: 0.011750634897899532
Epoch: 4200, Error: 0.011758142787034579
Epoch: 4300, Error: 0.011742283507042607
Epoch: 4400, Error: 0.01174907804559951
Epoch: 4500, Error: 0.011775121118099438
Epoch: 4600, Error: 0.011725080149357725
Epoch: 4700, Error: 0.011740543799071137
Epoch: 4800, Error: 0.011722681064610522
Epoch: 4900, Error: 0.011729163110064956
Epoch: 5000, Error: 0.011681748839458356
Epoch: 5100, Error: 0.011699533148216973
Epoch: 5200, Error: 0.011663855904116276
Epoch: 5300, Error: 0.011737131059440466
Epoch: 5400, Error: 0.011715383057851518
Epoch: 5500, Error: 0.011711815109433067
Epoch: 5600, Error: 0.011665257884117125
Epoch: 5700, Error: 0.011746339165566527
Epoch: 5800, Error: 0.011662346896992293
Epoch: 5900, Error: 0.011655117851670288
Epoch: 6000, Error: 0.011665357261127862
Epoch: 6100, Error: 0.012002300218877358
Epoch: 6200, Error: 0.011739771793176422
Epoch: 6300, Error: 0.011758607833498304
Epoch: 6400, Error: 0.01161707918683745
Epoch: 6500, Error: 0.011657796523813442
Epoch: 6600, Error: 0.011681335715112597
Epoch: 6700, Error: 0.011751242009994747
Epoch: 6800, Error: 0.011628995259162986
Epoch: 6900, Error: 0.011661243083746452
Epoch: 7000, Error: 0.011649472714186674
Epoch: 7100, Error: 0.01161066038936174
Epoch: 7200, Error: 0.011608721051358132
Epoch: 7300, Error: 0.01165074934602315
Epoch: 7400, Error: 0.011713561519803347
Epoch: 7500, Error: 0.011621145172340908
Epoch: 7600, Error: 0.011645534236468028
Epoch: 7700, Error: 0.011752211256332145
Epoch: 7800, Error: 0.011621083637607879
Epoch: 7900, Error: 0.011642498608774433
Epoch: 8000, Error: 0.011621866249492326
Epoch: 8100, Error: 0.01165881162124445
Epoch: 8200, Error: 0.011653055458922972
Epoch: 8300, Error: 0.011637671764243723
Epoch: 8400, Error: 0.011618433753470271
Epoch: 8500, Error: 0.01167562991109743
Epoch: 8600, Error: 0.011657430123847921
Epoch: 8700, Error: 0.01161508487583733
Epoch: 8800, Error: 0.011672150392228136
Epoch: 8900, Error: 0.011645613626082244
Epoch: 9000, Error: 0.011648981067148177
Epoch: 9100, Error: 0.01164572809675748
Epoch: 9200, Error: 0.011616112898554506
Epoch: 9300, Error: 0.011652471642274656
Epoch: 9400, Error: 0.011692807227530742
Epoch: 9500, Error: 0.011670718154308075
Epoch: 9600, Error: 0.011689006834628961
Epoch: 9700, Error: 0.011668509061362851
Epoch: 9800, Error: 0.011663108891594358
Epoch: 9900, Error: 0.01166602767312934
Epoch: 10000, Error: 0.011676646024445925
Epoch: 10100, Error: 0.01163382284355849
Epoch: 10200, Error: 0.011706664178629913
Epoch: 10300, Error: 0.011658202526511629
Epoch: 10400, Error: 0.011638596854429759
Epoch: 10500, Error: 0.011705636828050625
Epoch: 10600, Error: 0.011658326336986307
Epoch: 10700, Error: 0.011668514152168507
Epoch: 10800, Error: 0.01166987820776743
Epoch: 10900, Error: 0.011765767963863312
Epoch: 11000, Error: 0.011664950668951398
Epoch: 11100, Error: 0.011634288111747174
Epoch: 11200, Error: 0.01165613152349923
Epoch: 11300, Error: 0.011672382984824784
Epoch: 11400, Error: 0.011685054885578269
Epoch: 11500, Error: 0.011677241851616784
Epoch: 11600, Error: 0.011656146326800109
Epoch: 11700, Error: 0.011655377086661572
Epoch: 11800, Error: 0.011654079916752807
Epoch: 11900, Error: 0.011644199333983196
Epoch: 12000, Error: 0.011683430509655184
Epoch: 12100, Error: 0.011684253796937967
Epoch: 12200, Error: 0.011690621466876128
Epoch: 12300, Error: 0.011664256342826909
Epoch: 12400, Error: 0.011790334308662326
Epoch: 12500, Error: 0.011650529750438362
Epoch: 12600, Error: 0.011735986659514974
Epoch: 12700, Error: 0.01167092286442894
Epoch: 12800, Error: 0.011666113625029012
Epoch: 12900, Error: 0.01171087903498227
Epoch: 13000, Error: 0.011645654183105602
Epoch: 13100, Error: 0.011669122195636492
Epoch: 13200, Error: 0.01160369239453368
Epoch: 13300, Error: 0.011647911705369
Epoch: 13400, Error: 0.011733862715013196
Epoch: 13500, Error: 0.011628491987706971
Epoch: 13600, Error: 0.011726505135658583
Epoch: 13700, Error: 0.011626416307982024
Epoch: 13800, Error: 0.011605060963606162
Epoch: 13900, Error: 0.011626186134207264
Epoch: 14000, Error: 0.011609661258618833
Epoch: 14100, Error: 0.011587026404247228
Epoch: 14200, Error: 0.011593171659730943
Epoch: 14300, Error: 0.011610829374535038
Epoch: 14400, Error: 0.011616509327272777
Epoch: 14500, Error: 0.011646114795189151
Epoch: 14600, Error: 0.011613579144501127
Epoch: 14700, Error: 0.011579681475389608
Epoch: 14800, Error: 0.011555010130786835
Epoch: 14900, Error: 0.011582286597830551
Epoch: 15000, Error: 0.011569087910239632
Epoch: 15100, Error: 0.011545965234223967
Epoch: 15200, Error: 0.011503475337201419
Epoch: 15300, Error: 0.01149001485474441
Epoch: 15400, Error: 0.011480260247239431
Epoch: 15500, Error: 0.01145451784569678
Epoch: 15600, Error: 0.01143931883354072
Epoch: 15700, Error: 0.01140557445578137
Epoch: 15800, Error: 0.011400295687164818
Epoch: 15900, Error: 0.011365441339149494
Epoch: 16000, Error: 0.01138375720292967
Epoch: 16100, Error: 0.011403711988472095
Epoch: 16200, Error: 0.011367394418756548
Epoch: 16300, Error: 0.011346755477193217
Epoch: 16400, Error: 0.01133563429755785
Epoch: 16500, Error: 0.011306651037219662
Epoch: 16600, Error: 0.01129196184587373
Epoch: 16700, Error: 0.011271452259667875
Epoch: 16800, Error: 0.011325553914011369
Epoch: 16900, Error: 0.011299554660354833
Epoch: 17000, Error: 0.011263700752875421
Epoch: 17100, Error: 0.011265777003907023
Epoch: 17200, Error: 0.011185664487473348
Epoch: 17300, Error: 0.011229164040426889
Epoch: 17400, Error: 0.011222993415559204
Epoch: 17500, Error: 0.01115214719469785
Epoch: 17600, Error: 0.01116606812861149
Epoch: 17700, Error: 0.011148143239949993
Epoch: 17800, Error: 0.011289747946410402
Epoch: 17900, Error: 0.011164264787572424
Epoch: 18000, Error: 0.011063736725808428
Epoch: 18100, Error: 0.011057010232852143
Epoch: 18200, Error: 0.010954392254659724
Epoch: 18300, Error: 0.010926963979700093
Epoch: 18400, Error: 0.010851568738930185
Epoch: 18500, Error: 0.010819992193757172
Epoch: 18600, Error: 0.010758985317177885
Epoch: 18700, Error: 0.010727429720636004
Epoch: 18800, Error: 0.010623867302040464
Epoch: 18900, Error: 0.010590029791839185
Epoch: 19000, Error: 0.010560156748950644
Epoch: 19100, Error: 0.010499777024916812
Epoch: 19200, Error: 0.010430637880523478
Epoch: 19300, Error: 0.01037695092778822
Epoch: 19400, Error: 0.010316984960072271
Epoch: 19500, Error: 0.010272806046720033
Epoch: 19600, Error: 0.010218749796216776
Epoch: 19700, Error: 0.010183272771478872
Epoch: 19800, Error: 0.010163952677771015
Epoch: 19900, Error: 0.010089955296136387
Epoch: 20000, Error: 0.010039830138754043
Epoch: 20100, Error: 0.010022583390902638
Epoch: 20200, Error: 0.00998466163184586
Epoch: 20300, Error: 0.009928214009255908
Epoch: 20400, Error: 0.009915457747359985
Epoch: 20500, Error: 0.009853586410916803
Epoch: 20600, Error: 0.009819567345971884
Epoch: 20700, Error: 0.009791176677839348
Epoch: 20800, Error: 0.009799258324257293
Epoch: 20900, Error: 0.009753168007705888
Epoch: 21000, Error: 0.00969590097866424
Epoch: 21100, Error: 0.009618191987062076
Epoch: 21200, Error: 0.00958058557069038
Epoch: 21300, Error: 0.00957428470615103
Epoch: 21400, Error: 0.009505575770704404
Epoch: 21500, Error: 0.009476351306751831
Epoch: 21600, Error: 0.009431705214602678
Epoch: 21700, Error: 0.009459634492928875
Epoch: 21800, Error: 0.009338298633324622
Epoch: 21900, Error: 0.009315264849975117
Epoch: 22000, Error: 0.009239355988682571
Epoch: 22100, Error: 0.009197326312322248
Epoch: 22200, Error: 0.009215741228344874
Epoch: 22300, Error: 0.009114274564741006
Epoch: 22400, Error: 0.009069322794547
Epoch: 22500, Error: 0.009111990198470447
Epoch: 22600, Error: 0.008948431540369844
Epoch: 22700, Error: 0.008908322511624711
Epoch: 22800, Error: 0.008848665211624326
Epoch: 22900, Error: 0.008816511262895576
Epoch: 23000, Error: 0.008790047054214998
Epoch: 23100, Error: 0.008703274833030046
Epoch: 23200, Error: 0.008655555081021882
Epoch: 23300, Error: 0.008646413457882317
Epoch: 23400, Error: 0.008559373632887961
Epoch: 23500, Error: 0.008535704395995049
Epoch: 23600, Error: 0.008482420944176101
Epoch: 23700, Error: 0.008404818600102773
Epoch: 23800, Error: 0.008428915342923032
Epoch: 23900, Error: 0.008348179603467587
Epoch: 24000, Error: 0.008281167734144454
Epoch: 24100, Error: 0.008218518184827219
Epoch: 24200, Error: 0.008188439673068532
Epoch: 24300, Error: 0.008136211510845473
Epoch: 24400, Error: 0.0080931338375542
Epoch: 24500, Error: 0.0080462711270461
Epoch: 24600, Error: 0.00806991753071437
Epoch: 24700, Error: 0.007965061374624044
Epoch: 24800, Error: 0.007931056209327459
Epoch: 24900, Error: 0.007892646773167903
Epoch: 25000, Error: 0.007856339217286722
Epoch: 25100, Error: 0.0078113140964176575
Epoch: 25200, Error: 0.00777879920036004
Epoch: 25300, Error: 0.007755759977138112
Epoch: 25400, Error: 0.007709413733184206
Epoch: 25500, Error: 0.007725741466947888
Epoch: 25600, Error: 0.007644328659346391
Epoch: 25700, Error: 0.007624249786462549
Epoch: 25800, Error: 0.00760713255253199
Epoch: 25900, Error: 0.007558263150467641
Epoch: 26000, Error: 0.007520274554316922
Epoch: 26100, Error: 0.007495766275933252
Epoch: 26200, Error: 0.0074549212382630835
Epoch: 26300, Error: 0.0074223924019044445
Epoch: 26400, Error: 0.007398548170071885
Epoch: 26500, Error: 0.007379629055948946
Epoch: 26600, Error: 0.007331734104206847
Epoch: 26700, Error: 0.007311716833904619
Epoch: 26800, Error: 0.007282259361423984
Epoch: 26900, Error: 0.007258162843875559
Epoch: 27000, Error: 0.007213836500509511
Epoch: 27100, Error: 0.007203411481771792
Epoch: 27200, Error: 0.007174534530886372
Epoch: 27300, Error: 0.00715235638845128
Epoch: 27400, Error: 0.0071223645420113646
Epoch: 27500, Error: 0.007092792392261374
Epoch: 27600, Error: 0.007062954045427056
Epoch: 27700, Error: 0.007072453614051728
Epoch: 27800, Error: 0.007031978240969816
Epoch: 27900, Error: 0.007037111334855799
Epoch: 28000, Error: 0.006987170607560936
Epoch: 28100, Error: 0.006982256631946262
Epoch: 28200, Error: 0.00694800168623933
Epoch: 28300, Error: 0.00692679966071481
Epoch: 28400, Error: 0.006924560034218795
Epoch: 28500, Error: 0.006860637437589026
Epoch: 28600, Error: 0.006839517128755748
Epoch: 28700, Error: 0.006811478686111631
Epoch: 28800, Error: 0.0068066131609742335
Epoch: 28900, Error: 0.00676534326537517
Epoch: 29000, Error: 0.006778627341776312
Epoch: 29100, Error: 0.006716612097119168
Epoch: 29200, Error: 0.00671708112099001
Epoch: 29300, Error: 0.0066749409983060445
Epoch: 29400, Error: 0.006669053485016452
Epoch: 29500, Error: 0.006628187731446055
Epoch: 29600, Error: 0.006620366537861614
Epoch: 29700, Error: 0.006584766332635112
Epoch: 29800, Error: 0.006563630151095916
Epoch: 29900, Error: 0.006554091171521423
Epoch: 30000, Error: 0.0065312223032909485
Epoch: 30100, Error: 0.006524531931639858
Epoch: 30200, Error: 0.0065297504339386124
Epoch: 30300, Error: 0.006519762280010762
Epoch: 30400, Error: 0.006517131456470301
Epoch: 30500, Error: 0.006528244280986492
Epoch: 30600, Error: 0.00651605302840804
Epoch: 30700, Error: 0.006514808652811338
Epoch: 30800, Error: 0.006521896106164384
Epoch: 30900, Error: 0.0065331956992421515
Epoch: 31000, Error: 0.006509194897365192
Epoch: 31100, Error: 0.006497007172480372
Epoch: 31200, Error: 0.00649448617622308
Epoch: 31300, Error: 0.006489305727517719
Epoch: 31400, Error: 0.00649466591169281
Epoch: 31500, Error: 0.006503428697343846
Epoch: 31600, Error: 0.006506847509030877
Epoch: 31700, Error: 0.006486262610480352
Epoch: 31800, Error: 0.006488673317937016
Epoch: 31900, Error: 0.006502751315944207
Finished
