Input Patterns
0.224 0.624 0.067 0.043 
0.11 0.502 0.051 0.043 
0.196 0.667 0.067 0.043 
0.055 0.584 0.067 0.082 
0.027 0.376 0.067 0.043 
0.306 0.71 0.086 0.043 
0.137 0.416 0.067 0.0 
0.416 0.831 0.035 0.043 
0.306 0.792 0.051 0.125 
0.388 0.749 0.118 0.082 
0.306 0.584 0.118 0.043 
0.082 0.667 0.0 0.043 
0.137 0.584 0.153 0.043 
0.196 0.584 0.102 0.125 
0.251 0.584 0.067 0.043 
0.137 0.459 0.102 0.043 
0.251 0.875 0.086 0.0 
0.165 0.459 0.086 0.043 
0.333 0.624 0.051 0.043 
0.027 0.416 0.051 0.043 
0.196 0.624 0.051 0.082 
0.027 0.502 0.051 0.043 
0.224 0.749 0.153 0.125 
0.224 0.749 0.102 0.043 
0.278 0.71 0.086 0.043 
0.165 0.416 0.067 0.043 
0.082 0.459 0.086 0.043 
0.306 0.792 0.118 0.125 
0.196 0.584 0.086 0.043 
0.165 0.459 0.086 0.0 
0.137 0.584 0.102 0.043 
0.0 0.416 0.016 0.0 
0.388 1.0 0.086 0.125 
0.224 0.624 0.067 0.082 
0.224 0.749 0.086 0.082 
0.224 0.71 0.086 0.125 
0.224 0.541 0.118 0.165 
0.196 0.416 0.102 0.043 
0.251 0.624 0.086 0.043 
0.11 0.502 0.102 0.043 
0.306 0.584 0.086 0.125 
0.333 0.918 0.067 0.043 
0.196 0.502 0.035 0.043 
0.165 0.667 0.067 0.0 
0.224 0.584 0.086 0.043 
0.055 0.125 0.051 0.082 
0.196 0.624 0.102 0.208 
0.137 0.416 0.067 0.082 
0.082 0.502 0.067 0.043 
0.196 0.541 0.067 0.043 
0.749 0.502 0.627 0.541 
0.722 0.459 0.663 0.584 
0.612 0.333 0.612 0.584 
0.557 0.541 0.627 0.624 
0.639 0.376 0.612 0.498 
0.196 0.0 0.424 0.376 
0.471 0.082 0.51 0.376 
0.361 0.376 0.439 0.498 
0.361 0.416 0.592 0.584 
0.529 0.082 0.592 0.584 
0.443 0.502 0.643 0.459 
0.557 0.208 0.663 0.584 
0.584 0.376 0.561 0.498 
0.694 0.333 0.643 0.541 
0.471 0.376 0.592 0.584 
0.333 0.169 0.475 0.416 
0.416 0.29 0.49 0.459 
0.306 0.416 0.592 0.584 
0.667 0.459 0.627 0.584 
0.361 0.416 0.525 0.498 
0.333 0.251 0.576 0.459 
0.416 0.251 0.51 0.459 
0.361 0.29 0.541 0.498 
0.388 0.376 0.541 0.498 
0.224 0.208 0.337 0.416 
0.584 0.502 0.592 0.584 
0.333 0.125 0.51 0.498 
0.388 0.333 0.592 0.498 
0.165 0.169 0.388 0.376 
0.251 0.29 0.49 0.541 
0.443 0.416 0.541 0.584 
0.498 0.376 0.627 0.541 
0.667 0.459 0.576 0.541 
0.416 0.29 0.525 0.376 
0.361 0.208 0.49 0.416 
0.498 0.333 0.51 0.498 
0.498 0.333 0.627 0.459 
0.639 0.416 0.576 0.541 
0.667 0.416 0.678 0.667 
0.388 0.251 0.424 0.376 
0.333 0.169 0.459 0.376 
0.471 0.29 0.694 0.624 
0.471 0.584 0.592 0.624 
0.557 0.125 0.576 0.498 
0.333 0.208 0.51 0.498 
0.498 0.416 0.612 0.541 
0.196 0.125 0.388 0.376 
0.388 0.416 0.541 0.459 
0.529 0.376 0.561 0.498 
0.388 0.333 0.525 0.498 
0.557 0.541 0.847 1.0 
0.776 0.416 0.831 0.831 
0.612 0.416 0.812 0.875 
0.165 0.208 0.592 0.667 
0.667 0.208 0.812 0.71 
0.612 0.502 0.694 0.792 
0.694 0.416 0.761 0.831 
0.416 0.333 0.694 0.957 
0.612 0.416 0.761 0.71 
0.945 0.251 1.0 0.918 
0.722 0.502 0.796 0.918 
0.945 0.333 0.965 0.792 
0.667 0.541 0.796 0.831 
0.529 0.333 0.643 0.71 
0.584 0.333 0.78 0.831 
0.863 0.333 0.863 0.749 
0.584 0.333 0.78 0.875 
0.498 0.251 0.78 0.541 
0.557 0.584 0.78 0.957 
0.471 0.416 0.643 0.71 
0.667 0.459 0.78 0.957 
0.416 0.29 0.694 0.749 
0.667 0.541 0.796 1.0 
0.557 0.208 0.678 0.749 
0.529 0.584 0.745 0.918 
0.416 0.29 0.694 0.749 
0.557 0.376 0.78 0.71 
0.918 0.416 0.949 0.831 
0.835 0.376 0.898 0.71 
0.804 0.667 0.863 1.0 
0.584 0.29 0.729 0.749 
0.388 0.208 0.678 0.792 
0.584 0.502 0.729 0.918 
0.945 0.749 0.965 0.875 
0.471 0.082 0.678 0.584 
0.361 0.333 0.663 0.792 
0.557 0.29 0.663 0.71 
0.804 0.502 0.847 0.71 
0.498 0.416 0.51 0.71 
0.804 0.416 0.812 0.624 
1.0 0.749 0.914 0.792 
0.557 0.333 0.694 0.584 
0.945 0.416 0.863 0.918 
0.584 0.459 0.761 0.71 
0.722 0.459 0.745 0.831 
0.722 0.459 0.694 0.918 
0.694 0.502 0.831 0.918 
0.667 0.416 0.714 0.918 
0.612 0.416 0.714 0.792 
0.443 0.416 0.694 0.71 
Teaching Patterns
1.0 0.0 0.0 
1.0 0.0 0.0 
1.0 0.0 0.0 
1.0 0.0 0.0 
1.0 0.0 0.0 
1.0 0.0 0.0 
1.0 0.0 0.0 
1.0 0.0 0.0 
1.0 0.0 0.0 
1.0 0.0 0.0 
1.0 0.0 0.0 
1.0 0.0 0.0 
1.0 0.0 0.0 
1.0 0.0 0.0 
1.0 0.0 0.0 
1.0 0.0 0.0 
1.0 0.0 0.0 
1.0 0.0 0.0 
1.0 0.0 0.0 
1.0 0.0 0.0 
1.0 0.0 0.0 
1.0 0.0 0.0 
1.0 0.0 0.0 
1.0 0.0 0.0 
1.0 0.0 0.0 
1.0 0.0 0.0 
1.0 0.0 0.0 
1.0 0.0 0.0 
1.0 0.0 0.0 
1.0 0.0 0.0 
1.0 0.0 0.0 
1.0 0.0 0.0 
1.0 0.0 0.0 
1.0 0.0 0.0 
1.0 0.0 0.0 
1.0 0.0 0.0 
1.0 0.0 0.0 
1.0 0.0 0.0 
1.0 0.0 0.0 
1.0 0.0 0.0 
1.0 0.0 0.0 
1.0 0.0 0.0 
1.0 0.0 0.0 
1.0 0.0 0.0 
1.0 0.0 0.0 
1.0 0.0 0.0 
1.0 0.0 0.0 
1.0 0.0 0.0 
1.0 0.0 0.0 
1.0 0.0 0.0 
0.0 1.0 0.0 
0.0 1.0 0.0 
0.0 1.0 0.0 
0.0 1.0 0.0 
0.0 1.0 0.0 
0.0 1.0 0.0 
0.0 1.0 0.0 
0.0 1.0 0.0 
0.0 1.0 0.0 
0.0 1.0 0.0 
0.0 1.0 0.0 
0.0 1.0 0.0 
0.0 1.0 0.0 
0.0 1.0 0.0 
0.0 1.0 0.0 
0.0 1.0 0.0 
0.0 1.0 0.0 
0.0 1.0 0.0 
0.0 1.0 0.0 
0.0 1.0 0.0 
0.0 1.0 0.0 
0.0 1.0 0.0 
0.0 1.0 0.0 
0.0 1.0 0.0 
0.0 1.0 0.0 
0.0 1.0 0.0 
0.0 1.0 0.0 
0.0 1.0 0.0 
0.0 1.0 0.0 
0.0 1.0 0.0 
0.0 1.0 0.0 
0.0 1.0 0.0 
0.0 1.0 0.0 
0.0 1.0 0.0 
0.0 1.0 0.0 
0.0 1.0 0.0 
0.0 1.0 0.0 
0.0 1.0 0.0 
0.0 1.0 0.0 
0.0 1.0 0.0 
0.0 1.0 0.0 
0.0 1.0 0.0 
0.0 1.0 0.0 
0.0 1.0 0.0 
0.0 1.0 0.0 
0.0 1.0 0.0 
0.0 1.0 0.0 
0.0 1.0 0.0 
0.0 1.0 0.0 
0.0 1.0 0.0 
0.0 0.0 1.0 
0.0 0.0 1.0 
0.0 0.0 1.0 
0.0 0.0 1.0 
0.0 0.0 1.0 
0.0 0.0 1.0 
0.0 0.0 1.0 
0.0 0.0 1.0 
0.0 0.0 1.0 
0.0 0.0 1.0 
0.0 0.0 1.0 
0.0 0.0 1.0 
0.0 0.0 1.0 
0.0 0.0 1.0 
0.0 0.0 1.0 
0.0 0.0 1.0 
0.0 0.0 1.0 
0.0 0.0 1.0 
0.0 0.0 1.0 
0.0 0.0 1.0 
0.0 0.0 1.0 
0.0 0.0 1.0 
0.0 0.0 1.0 
0.0 0.0 1.0 
0.0 0.0 1.0 
0.0 0.0 1.0 
0.0 0.0 1.0 
0.0 0.0 1.0 
0.0 0.0 1.0 
0.0 0.0 1.0 
0.0 0.0 1.0 
0.0 0.0 1.0 
0.0 0.0 1.0 
0.0 0.0 1.0 
0.0 0.0 1.0 
0.0 0.0 1.0 
0.0 0.0 1.0 
0.0 0.0 1.0 
0.0 0.0 1.0 
0.0 0.0 1.0 
0.0 0.0 1.0 
0.0 0.0 1.0 
0.0 0.0 1.0 
0.0 0.0 1.0 
0.0 0.0 1.0 
0.0 0.0 1.0 
0.0 0.0 1.0 
0.0 0.0 1.0 
0.0 0.0 1.0 
0.0 0.0 1.0 
Learning : 0.05
Momentum : 0.8999999761581421
Epoch: 100, Error: 0.022535003645558344
Epoch: 200, Error: 0.017300758075695224
Epoch: 300, Error: 0.015612535443744595
Epoch: 400, Error: 0.01502131484069877
Epoch: 500, Error: 0.014071633756774737
Epoch: 600, Error: 0.013902873521219558
Epoch: 700, Error: 0.013396891563658258
Epoch: 800, Error: 0.013215446872345136
Epoch: 900, Error: 0.013134057874667558
Epoch: 1000, Error: 0.013008994337928587
Epoch: 1100, Error: 0.012855609110934424
Epoch: 1200, Error: 0.012828542620694229
Epoch: 1300, Error: 0.012726108150277284
Epoch: 1400, Error: 0.01293177436422584
Epoch: 1500, Error: 0.01263236485581148
Epoch: 1600, Error: 0.012633653500608312
Epoch: 1700, Error: 0.012470183407755932
Epoch: 1800, Error: 0.012566244581899932
Epoch: 1900, Error: 0.01252201014662561
Epoch: 2000, Error: 0.012415398384675676
Epoch: 2100, Error: 0.012679100656395518
Epoch: 2200, Error: 0.01241652901035742
Epoch: 2300, Error: 0.012391557527377164
Epoch: 2400, Error: 0.012404950489280694
Epoch: 2500, Error: 0.012411399708135139
Epoch: 2600, Error: 0.012530178035269426
Epoch: 2700, Error: 0.012337584135891753
Epoch: 2800, Error: 0.012478528381654093
Epoch: 2900, Error: 0.01234270420784878
Epoch: 3000, Error: 0.012344103541330276
Epoch: 3100, Error: 0.012332580929418817
Epoch: 3200, Error: 0.012288234754764137
Epoch: 3300, Error: 0.0123740580956525
Epoch: 3400, Error: 0.012232578730980007
Epoch: 3500, Error: 0.012285727338527846
Epoch: 3600, Error: 0.012198690091032166
Epoch: 3700, Error: 0.012307118650426746
Epoch: 3800, Error: 0.012318414447039374
Epoch: 3900, Error: 0.01236302623412881
Epoch: 4000, Error: 0.012402074308027672
Epoch: 4100, Error: 0.012339088994834099
Epoch: 4200, Error: 0.012230469244280031
Epoch: 4300, Error: 0.01235988272162333
Epoch: 4400, Error: 0.012238121949250357
Epoch: 4500, Error: 0.012629785153950053
Epoch: 4600, Error: 0.012236361142139744
Epoch: 4700, Error: 0.012199357928327414
Epoch: 4800, Error: 0.01241486059023768
Epoch: 4900, Error: 0.012330725212322226
Epoch: 5000, Error: 0.012229017095952824
Epoch: 5100, Error: 0.012266858045456198
Epoch: 5200, Error: 0.012272812910382597
Epoch: 5300, Error: 0.01226659022903253
Epoch: 5400, Error: 0.012314562932560124
Epoch: 5500, Error: 0.01219824458101771
Epoch: 5600, Error: 0.012112580826920476
Epoch: 5700, Error: 0.012119804125671454
Epoch: 5800, Error: 0.01211629613867583
Epoch: 5900, Error: 0.012197209103669835
Epoch: 6000, Error: 0.012138603051907197
Epoch: 6100, Error: 0.01217960404496927
Epoch: 6200, Error: 0.012108371215753365
Epoch: 6300, Error: 0.012160886418524206
Epoch: 6400, Error: 0.012280104146397184
Epoch: 6500, Error: 0.012154024198769849
Epoch: 6600, Error: 0.012108030805553196
Epoch: 6700, Error: 0.01208644813195381
Epoch: 6800, Error: 0.012082350543556705
Epoch: 6900, Error: 0.012094579631922318
Epoch: 7000, Error: 0.012069316713413523
Epoch: 7100, Error: 0.012168802651410345
Epoch: 7200, Error: 0.01212753449029883
Epoch: 7300, Error: 0.012113733045643353
Epoch: 7400, Error: 0.01206886003091712
Epoch: 7500, Error: 0.012056018275714259
Epoch: 7600, Error: 0.012116109974917872
Epoch: 7700, Error: 0.012147548554766834
Epoch: 7800, Error: 0.012089327631305203
Epoch: 7900, Error: 0.012013213111476916
Epoch: 8000, Error: 0.012045284421822117
Epoch: 8100, Error: 0.011996960318245204
Epoch: 8200, Error: 0.012159082014897751
Epoch: 8300, Error: 0.012013082895640839
Epoch: 8400, Error: 0.01201956896159611
Epoch: 8500, Error: 0.01200618617196902
Epoch: 8600, Error: 0.012068969383743527
Epoch: 8700, Error: 0.011971172673493255
Epoch: 8800, Error: 0.012065582079690811
Epoch: 8900, Error: 0.011940347431059492
Epoch: 9000, Error: 0.011917315049329292
Epoch: 9100, Error: 0.011949856609314809
Epoch: 9200, Error: 0.01209587456095302
Epoch: 9300, Error: 0.011860664022363755
Epoch: 9400, Error: 0.011860606832606728
Epoch: 9500, Error: 0.011845312272699979
Epoch: 9600, Error: 0.011804137659706655
Epoch: 9700, Error: 0.011830561070853807
Epoch: 9800, Error: 0.011784763627827622
Epoch: 9900, Error: 0.011756890684722207
Epoch: 10000, Error: 0.011756458587381773
Epoch: 10100, Error: 0.011767511928371945
Epoch: 10200, Error: 0.011723296790712653
Epoch: 10300, Error: 0.011698485705834732
Epoch: 10400, Error: 0.011654966443233293
Epoch: 10500, Error: 0.011619641596975929
Epoch: 10600, Error: 0.011608366122734581
Epoch: 10700, Error: 0.011584834855030908
Epoch: 10800, Error: 0.011544189636552451
Epoch: 10900, Error: 0.011558003840982418
Epoch: 11000, Error: 0.011504023128916883
Epoch: 11100, Error: 0.011456742156227592
Epoch: 11200, Error: 0.011427552408529638
Epoch: 11300, Error: 0.011416461997448946
Epoch: 11400, Error: 0.011332374293190133
Epoch: 11500, Error: 0.01142195317259859
Epoch: 11600, Error: 0.011242468776095409
Epoch: 11700, Error: 0.011249357192877285
Epoch: 11800, Error: 0.011176052735633244
Epoch: 11900, Error: 0.011143469494583358
Epoch: 12000, Error: 0.011087591190570152
Epoch: 12100, Error: 0.011031980799364478
Epoch: 12200, Error: 0.010977711873786067
Epoch: 12300, Error: 0.010948048755544311
Epoch: 12400, Error: 0.011064732827569599
Epoch: 12500, Error: 0.010947970597413566
Epoch: 12600, Error: 0.010825426838418802
Epoch: 12700, Error: 0.010716014649456224
Epoch: 12800, Error: 0.010641195853885366
Epoch: 12900, Error: 0.010614423363445051
Epoch: 13000, Error: 0.010667662567689452
Epoch: 13100, Error: 0.010538706058718296
Epoch: 13200, Error: 0.010533959610678111
Epoch: 13300, Error: 0.010474223055776636
Epoch: 13400, Error: 0.01051460220861678
Epoch: 13500, Error: 0.010337249817259956
Epoch: 13600, Error: 0.010234141789518513
Epoch: 13700, Error: 0.01023304711716939
Epoch: 13800, Error: 0.010128299859753038
Epoch: 13900, Error: 0.01007381131869106
Epoch: 14000, Error: 0.010016035545211209
Epoch: 14100, Error: 0.009931190667809104
Epoch: 14200, Error: 0.010003013398083986
Epoch: 14300, Error: 0.009784550325966255
Epoch: 14400, Error: 0.00969182159683892
Epoch: 14500, Error: 0.009627582217775286
Epoch: 14600, Error: 0.009463715908380986
Epoch: 14700, Error: 0.009354772954869882
Epoch: 14800, Error: 0.009376806471135826
Epoch: 14900, Error: 0.009158394591197673
Epoch: 15000, Error: 0.009082619092926531
Epoch: 15100, Error: 0.00901792827235745
Epoch: 15200, Error: 0.008961982421628028
Epoch: 15300, Error: 0.008835468984666575
Epoch: 15400, Error: 0.008741683689670088
Epoch: 15500, Error: 0.008661604473271349
Epoch: 15600, Error: 0.008620636093604845
Epoch: 15700, Error: 0.008455881224032307
Epoch: 15800, Error: 0.00838792931572909
Epoch: 15900, Error: 0.008343683129197442
Epoch: 16000, Error: 0.00819115666215236
Epoch: 16100, Error: 0.00810274789362458
Epoch: 16200, Error: 0.008042066300428734
Epoch: 16300, Error: 0.007969591021221708
Epoch: 16400, Error: 0.0077997708096754735
Epoch: 16500, Error: 0.007718660077597483
Epoch: 16600, Error: 0.007636291300192294
Epoch: 16700, Error: 0.007575530229015113
Epoch: 16800, Error: 0.007495653580272966
Epoch: 16900, Error: 0.007460151595441171
Epoch: 17000, Error: 0.007364995990356087
Epoch: 17100, Error: 0.007273383720716023
Epoch: 17200, Error: 0.007201467825100118
Epoch: 17300, Error: 0.007141916513130316
Epoch: 17400, Error: 0.007077139603800845
Epoch: 17500, Error: 0.007040468434601117
Epoch: 17600, Error: 0.006969835795668687
Epoch: 17700, Error: 0.00692269816007983
Epoch: 17800, Error: 0.0068660398035456
Epoch: 17900, Error: 0.00683231077914084
Epoch: 18000, Error: 0.006763679458168015
Epoch: 18100, Error: 0.006719975218178494
Epoch: 18200, Error: 0.006695236544622048
Epoch: 18300, Error: 0.006661580488261564
Epoch: 18400, Error: 0.006606505238437281
Epoch: 18500, Error: 0.006510789413867671
Epoch: 18600, Error: 0.006531394992718801
Epoch: 18700, Error: 0.006499063317786966
Epoch: 18800, Error: 0.006515769112011766
Epoch: 18900, Error: 0.006379624944366691
Epoch: 19000, Error: 0.006415487106583645
Epoch: 19100, Error: 0.006396750979113341
Epoch: 19200, Error: 0.006362522683470993
Epoch: 19300, Error: 0.0063560473735983555
Epoch: 19400, Error: 0.006382550218442897
Epoch: 19500, Error: 0.006304147651930927
Epoch: 19600, Error: 0.006266573838333508
Epoch: 19700, Error: 0.006400673562912074
Epoch: 19800, Error: 0.006283322491996012
Epoch: 19900, Error: 0.006263590174193081
Epoch: 20000, Error: 0.006201221868300356
Epoch: 20100, Error: 0.006230365078698948
Epoch: 20200, Error: 0.0062350713979664185
Epoch: 20300, Error: 0.006242781904036149
Epoch: 20400, Error: 0.006210778936970416
Epoch: 20500, Error: 0.006103258002075518
Epoch: 20600, Error: 0.006130572790935044
Epoch: 20700, Error: 0.00612740357377458
Epoch: 20800, Error: 0.0060533112913221465
Epoch: 20900, Error: 0.006021355360644069
Epoch: 21000, Error: 0.006070831643933352
Epoch: 21100, Error: 0.0061012630932192075
Epoch: 21200, Error: 0.0060613679558566185
Epoch: 21300, Error: 0.00604646150561943
Epoch: 21400, Error: 0.0060106307324851475
Epoch: 21500, Error: 0.005974677939837911
Epoch: 21600, Error: 0.0060024561703054535
Epoch: 21700, Error: 0.0060014636367016335
Epoch: 21800, Error: 0.006012960364701539
Epoch: 21900, Error: 0.005968038511422834
Epoch: 22000, Error: 0.005943261478100491
Epoch: 22100, Error: 0.005914748162313729
Epoch: 22200, Error: 0.005961445021447786
Epoch: 22300, Error: 0.0059226371718745455
Epoch: 22400, Error: 0.0058350262491256456
Epoch: 22500, Error: 0.0057329167554914405
Epoch: 22600, Error: 0.005749308274083399
Epoch: 22700, Error: 0.0057286047496772925
Epoch: 22800, Error: 0.005691799334875235
Epoch: 22900, Error: 0.005713988470329488
Epoch: 23000, Error: 0.005654159802193438
Epoch: 23100, Error: 0.0056111265998345355
Epoch: 23200, Error: 0.005601878506171825
Epoch: 23300, Error: 0.005619224263322309
Epoch: 23400, Error: 0.005595007284060969
Epoch: 23500, Error: 0.005542731469497214
Epoch: 23600, Error: 0.0055116436706560395
Epoch: 23700, Error: 0.0055391240911466825
Epoch: 23800, Error: 0.005522054832260016
Epoch: 23900, Error: 0.005518122138754405
Epoch: 24000, Error: 0.005521872505919166
Epoch: 24100, Error: 0.005462031570891432
Epoch: 24200, Error: 0.005458336272178829
Epoch: 24300, Error: 0.005450343142785261
Epoch: 24400, Error: 0.005421577019984816
Epoch: 24500, Error: 0.005425592509150903
Epoch: 24600, Error: 0.005389105489590059
Epoch: 24700, Error: 0.005386586646486117
Epoch: 24800, Error: 0.005363778597520178
Epoch: 24900, Error: 0.0053254320049874486
Epoch: 25000, Error: 0.005326574752395687
Epoch: 25100, Error: 0.005312116678719746
Epoch: 25200, Error: 0.005266436323561592
Epoch: 25300, Error: 0.005230320481236272
Epoch: 25400, Error: 0.005221993405917869
Epoch: 25500, Error: 0.0051884639777114135
Epoch: 25600, Error: 0.005163613864996175
Epoch: 25700, Error: 0.005145636763991996
Epoch: 25800, Error: 0.005130833720834901
Epoch: 25900, Error: 0.005111028618961846
Epoch: 26000, Error: 0.005085294527745362
Epoch: 26100, Error: 0.005047420020923903
Epoch: 26200, Error: 0.005034208562765269
Epoch: 26300, Error: 0.005013291192452809
Epoch: 26400, Error: 0.004994916470020299
Epoch: 26500, Error: 0.0049513796975345446
Epoch: 26600, Error: 0.004970703972588569
Epoch: 26700, Error: 0.00489973457223482
Epoch: 26800, Error: 0.004884639608019761
Epoch: 26900, Error: 0.0048796749586308506
Epoch: 27000, Error: 0.0048492352508708965
Epoch: 27100, Error: 0.004842553899036784
Epoch: 27200, Error: 0.004901957770042017
Epoch: 27300, Error: 0.004768032726726323
Epoch: 27400, Error: 0.004900495568940148
Epoch: 27500, Error: 0.004831666925563653
Epoch: 27600, Error: 0.0047406236425803034
Epoch: 27700, Error: 0.004692061640587177
Epoch: 27800, Error: 0.004688004506711054
Epoch: 27900, Error: 0.00464329876481702
Epoch: 28000, Error: 0.004717291643662971
Epoch: 28100, Error: 0.004611488534827164
Epoch: 28200, Error: 0.00459159927369577
Epoch: 28300, Error: 0.004678539684639387
Epoch: 28400, Error: 0.004549482559784319
Epoch: 28500, Error: 0.0045731341628875806
Epoch: 28600, Error: 0.004506761817797994
Epoch: 28700, Error: 0.004468700618124923
Epoch: 28800, Error: 0.004441374606652844
Epoch: 28900, Error: 0.004596468931520764
Epoch: 29000, Error: 0.004406205819745661
Epoch: 29100, Error: 0.004396644756555933
Epoch: 29200, Error: 0.004411054650994017
Epoch: 29300, Error: 0.004319663812943165
Epoch: 29400, Error: 0.004311973616899614
Epoch: 29500, Error: 0.0043149484973203705
Epoch: 29600, Error: 0.004298671296439961
Epoch: 29700, Error: 0.0042837185669990455
Epoch: 29800, Error: 0.0042393379673538786
Epoch: 29900, Error: 0.004271407012975042
Epoch: 30000, Error: 0.004234399264199777
Epoch: 30100, Error: 0.004188384852407374
Epoch: 30200, Error: 0.004166296439746091
Epoch: 30300, Error: 0.004272424938185857
Epoch: 30400, Error: 0.004114966768183414
Epoch: 30500, Error: 0.004076815986545755
Epoch: 30600, Error: 0.004104057042321006
Epoch: 30700, Error: 0.004078478984251767
Epoch: 30800, Error: 0.0040899476365913266
Epoch: 30900, Error: 0.0039949598451463255
Epoch: 31000, Error: 0.00396978952545071
Epoch: 31100, Error: 0.003932201566775394
Epoch: 31200, Error: 0.0039029300402261156
Epoch: 31300, Error: 0.003881415604054742
Epoch: 31400, Error: 0.003836555783295219
Epoch: 31500, Error: 0.0038652979146072465
Epoch: 31600, Error: 0.0037960163236699317
Epoch: 31700, Error: 0.003785576187132388
Epoch: 31800, Error: 0.003769763795884677
Epoch: 31900, Error: 0.0038669240333940613
Epoch: 32000, Error: 0.0037880496665505664
Epoch: 32100, Error: 0.0037143307767553264
Epoch: 32200, Error: 0.003674342210988883
Epoch: 32300, Error: 0.00366086276299732
Epoch: 32400, Error: 0.0036059331651395383
Epoch: 32500, Error: 0.0035959170049883913
Epoch: 32600, Error: 0.00363513408796841
Epoch: 32700, Error: 0.0035505179688969635
Epoch: 32800, Error: 0.003517745498365978
Epoch: 32900, Error: 0.003517334754138872
Epoch: 33000, Error: 0.0034683926640181138
Epoch: 33100, Error: 0.0034822287204287756
Epoch: 33200, Error: 0.0034540673223860123
Epoch: 33300, Error: 0.003398324309057921
Epoch: 33400, Error: 0.003354217785825882
Epoch: 33500, Error: 0.003393923480124703
Epoch: 33600, Error: 0.003324552759110594
Epoch: 33700, Error: 0.003318316971366497
Epoch: 33800, Error: 0.0032770597348229465
Epoch: 33900, Error: 0.0032975391998718373
Epoch: 34000, Error: 0.0032521845113659136
Epoch: 34100, Error: 0.0032590004040523616
Epoch: 34200, Error: 0.0032176859218646494
Epoch: 34300, Error: 0.0031906759357128575
Epoch: 34400, Error: 0.003196160832859399
Epoch: 34500, Error: 0.003220971177585757
Epoch: 34600, Error: 0.003168564530830099
Epoch: 34700, Error: 0.0031038628808021953
Epoch: 34800, Error: 0.0030789105288177958
Epoch: 34900, Error: 0.0030507174643153627
Epoch: 35000, Error: 0.003093034506723739
Epoch: 35100, Error: 0.0030318980648356836
Epoch: 35200, Error: 0.0030186630328808265
Epoch: 35300, Error: 0.003012776076679498
Epoch: 35400, Error: 0.002965149593500192
Epoch: 35500, Error: 0.002942215353071698
Epoch: 35600, Error: 0.0029191738867474157
Epoch: 35700, Error: 0.003014410466014774
Epoch: 35800, Error: 0.0029001184294245204
Epoch: 35900, Error: 0.0028706568604515478
Epoch: 36000, Error: 0.0029203647340410033
Epoch: 36100, Error: 0.0028503290372160596
Epoch: 36200, Error: 0.002849721752930261
Epoch: 36300, Error: 0.0028180153301798003
Epoch: 36400, Error: 0.002923951634160112
Epoch: 36500, Error: 0.0028121751606622154
Epoch: 36600, Error: 0.0028599504253232115
Epoch: 36700, Error: 0.002755462546769186
Epoch: 36800, Error: 0.0027488147957542416
Epoch: 36900, Error: 0.0027596168006915832
Epoch: 37000, Error: 0.002742311020403319
Epoch: 37100, Error: 0.0027162762246514525
Epoch: 37200, Error: 0.002737621165598343
Epoch: 37300, Error: 0.0026924506331864745
Epoch: 37400, Error: 0.0027220677505806292
Epoch: 37500, Error: 0.0026631677371305117
Epoch: 37600, Error: 0.0026628181788303927
Epoch: 37700, Error: 0.0027129783511786517
Epoch: 37800, Error: 0.002636712262790263
Epoch: 37900, Error: 0.002695458515269493
Epoch: 38000, Error: 0.002632317634436456
Epoch: 38100, Error: 0.0026791571968772378
Epoch: 38200, Error: 0.0026281411691295793
Epoch: 38300, Error: 0.0025826985356106457
Epoch: 38400, Error: 0.0030892051047924445
Epoch: 38500, Error: 0.003053319287970806
Epoch: 38600, Error: 0.0025303921831918274
Epoch: 38700, Error: 0.002562504459757361
Epoch: 38800, Error: 0.002575524971219678
Epoch: 38900, Error: 0.0024911799602315666
Epoch: 39000, Error: 0.0024866361532509865
Epoch: 39100, Error: 0.00250610892812747
Epoch: 39200, Error: 0.002474987271180363
Epoch: 39300, Error: 0.0024483296815982557
Epoch: 39400, Error: 0.0024860108628530675
Epoch: 39500, Error: 0.0024224972769463274
Epoch: 39600, Error: 0.0024408164636861756
Epoch: 39700, Error: 0.0024235895433827887
Epoch: 39800, Error: 0.0023813318575688887
Epoch: 39900, Error: 0.0023916919374848532
Epoch: 40000, Error: 0.002350402273912803
Epoch: 40100, Error: 0.002380796835005374
Epoch: 40200, Error: 0.0023495995285915524
Epoch: 40300, Error: 0.0023258532795209807
Epoch: 40400, Error: 0.0023229407932473067
Epoch: 40500, Error: 0.0023012107775904574
Epoch: 40600, Error: 0.0023169830304912873
Epoch: 40700, Error: 0.002357872488940016
Epoch: 40800, Error: 0.0022550602794505067
Epoch: 40900, Error: 0.002315767678593978
Epoch: 41000, Error: 0.0022642395651978225
Epoch: 41100, Error: 0.0022988736512113586
Epoch: 41200, Error: 0.0022343883253540878
Epoch: 41300, Error: 0.0022428110738948585
Epoch: 41400, Error: 0.0022217768002106533
Epoch: 41500, Error: 0.002198749735786786
Epoch: 41600, Error: 0.00217750457564832
Epoch: 41700, Error: 0.0021702157623344196
Epoch: 41800, Error: 0.0021665907728438656
Epoch: 41900, Error: 0.0021445366158830393
Epoch: 42000, Error: 0.0021314204596810994
Epoch: 42100, Error: 0.0021875798007528844
Epoch: 42200, Error: 0.002104614479083268
Epoch: 42300, Error: 0.0020977001937009846
Epoch: 42400, Error: 0.0020900606198822605
Epoch: 42500, Error: 0.002085096704679819
Epoch: 42600, Error: 0.0020659947488779265
Epoch: 42700, Error: 0.0020563833534193708
Epoch: 42800, Error: 0.002124666185381356
Epoch: 42900, Error: 0.002031717888579733
Epoch: 43000, Error: 0.0022006883403268597
Epoch: 43100, Error: 0.002060306201251342
Epoch: 43200, Error: 0.002040627972272725
Epoch: 43300, Error: 0.0019999575584708942
Epoch: 43400, Error: 0.0020153351926601028
Epoch: 43500, Error: 0.0020013513042281606
Epoch: 43600, Error: 0.0020038361455412246
Epoch: 43700, Error: 0.001970861690735468
Epoch: 43800, Error: 0.0019910445325105964
Epoch: 43900, Error: 0.0019627537491927736
Epoch: 44000, Error: 0.0019452595030126768
Epoch: 44100, Error: 0.0019484293155251524
Epoch: 44200, Error: 0.0019682186095904847
Epoch: 44300, Error: 0.0019582529823420234
Epoch: 44400, Error: 0.001946185097954056
Epoch: 44500, Error: 0.0019245268937313367
Epoch: 44600, Error: 0.0018884822215371594
Epoch: 44700, Error: 0.0019226145490514267
Epoch: 44800, Error: 0.0019429243771534076
Epoch: 44900, Error: 0.0018670968374809287
Epoch: 45000, Error: 0.001848495117640741
Epoch: 45100, Error: 0.001836708828019553
Epoch: 45200, Error: 0.0018338269402096775
Epoch: 45300, Error: 0.0018158184694283877
Epoch: 45400, Error: 0.0017939754771420693
Epoch: 45500, Error: 0.0017934270314481963
Epoch: 45600, Error: 0.0017796959710616575
Epoch: 45700, Error: 0.001766942660112405
Epoch: 45800, Error: 0.0017534914773262883
Epoch: 45900, Error: 0.001754531088340197
Epoch: 46000, Error: 0.0017304748581405702
Epoch: 46100, Error: 0.0017300312847003195
Epoch: 46200, Error: 0.001739986216630001
Epoch: 46300, Error: 0.0017063694081448822
Epoch: 46400, Error: 0.0017037760698178314
Epoch: 46500, Error: 0.001740714227537185
Epoch: 46600, Error: 0.0016935337975950223
Epoch: 46700, Error: 0.0016829124008523391
Epoch: 46800, Error: 0.001665418660063761
Epoch: 46900, Error: 0.0016633100515717647
Epoch: 47000, Error: 0.0016706626076663058
Epoch: 47100, Error: 0.0016577800328585952
Epoch: 47200, Error: 0.0016491141739236582
Epoch: 47300, Error: 0.0016453938043565811
Epoch: 47400, Error: 0.0016363220658908585
Epoch: 47500, Error: 0.00165316017914168
Epoch: 47600, Error: 0.0016242694488667923
Epoch: 47700, Error: 0.00179889762569267
Epoch: 47800, Error: 0.0016402856294794918
Epoch: 47900, Error: 0.001632565421326548
Epoch: 48000, Error: 0.0016038983080109413
Epoch: 48100, Error: 0.0016092137602421262
Epoch: 48200, Error: 0.0015941039166412214
Epoch: 48300, Error: 0.0015909703042719433
Epoch: 48400, Error: 0.0015980953169122607
Epoch: 48500, Error: 0.0015743018286477747
Epoch: 48600, Error: 0.0015681694458657717
Epoch: 48700, Error: 0.001573983888482951
Epoch: 48800, Error: 0.0015787895984370577
Epoch: 48900, Error: 0.0015865421457931434
Epoch: 49000, Error: 0.0015589857689180442
Epoch: 49100, Error: 0.0016122875748335696
Epoch: 49200, Error: 0.0015482400958468556
Epoch: 49300, Error: 0.001549107830247816
Epoch: 49400, Error: 0.001551894178473291
Epoch: 49500, Error: 0.0015404869590097266
Epoch: 49600, Error: 0.0015420319543044104
Epoch: 49700, Error: 0.001543549636452081
Epoch: 49800, Error: 0.0015471074714240017
Epoch: 49900, Error: 0.001529388607024553
Epoch: 50000, Error: 0.0015303770175201588
Epoch: 50100, Error: 0.0015221983693644602
Epoch: 50200, Error: 0.0015115578931257383
Epoch: 50300, Error: 0.0015855251705845514
Epoch: 50400, Error: 0.0015247939542605028
Epoch: 50500, Error: 0.001503263834329693
Finished
Input Patterns
0.224 0.624 0.067 0.043 
0.11 0.502 0.051 0.043 
0.196 0.667 0.067 0.043 
0.055 0.584 0.067 0.082 
0.027 0.376 0.067 0.043 
0.306 0.71 0.086 0.043 
0.137 0.416 0.067 0.0 
0.416 0.831 0.035 0.043 
0.306 0.792 0.051 0.125 
0.388 0.749 0.118 0.082 
0.306 0.584 0.118 0.043 
0.082 0.667 0.0 0.043 
0.137 0.584 0.153 0.043 
0.196 0.584 0.102 0.125 
0.251 0.584 0.067 0.043 
0.137 0.459 0.102 0.043 
0.251 0.875 0.086 0.0 
0.165 0.459 0.086 0.043 
0.333 0.624 0.051 0.043 
0.027 0.416 0.051 0.043 
0.196 0.624 0.051 0.082 
0.027 0.502 0.051 0.043 
0.224 0.749 0.153 0.125 
0.224 0.749 0.102 0.043 
0.278 0.71 0.086 0.043 
0.165 0.416 0.067 0.043 
0.082 0.459 0.086 0.043 
0.306 0.792 0.118 0.125 
0.196 0.584 0.086 0.043 
0.165 0.459 0.086 0.0 
0.137 0.584 0.102 0.043 
0.0 0.416 0.016 0.0 
0.388 1.0 0.086 0.125 
0.224 0.624 0.067 0.082 
0.224 0.749 0.086 0.082 
0.224 0.71 0.086 0.125 
0.224 0.541 0.118 0.165 
0.196 0.416 0.102 0.043 
0.251 0.624 0.086 0.043 
0.11 0.502 0.102 0.043 
0.306 0.584 0.086 0.125 
0.333 0.918 0.067 0.043 
0.196 0.502 0.035 0.043 
0.165 0.667 0.067 0.0 
0.224 0.584 0.086 0.043 
0.055 0.125 0.051 0.082 
0.196 0.624 0.102 0.208 
0.137 0.416 0.067 0.082 
0.082 0.502 0.067 0.043 
0.196 0.541 0.067 0.043 
0.749 0.502 0.627 0.541 
0.722 0.459 0.663 0.584 
0.612 0.333 0.612 0.584 
0.557 0.541 0.627 0.624 
0.639 0.376 0.612 0.498 
0.196 0.0 0.424 0.376 
0.471 0.082 0.51 0.376 
0.361 0.376 0.439 0.498 
0.361 0.416 0.592 0.584 
0.529 0.082 0.592 0.584 
0.443 0.502 0.643 0.459 
0.557 0.208 0.663 0.584 
0.584 0.376 0.561 0.498 
0.694 0.333 0.643 0.541 
0.471 0.376 0.592 0.584 
0.333 0.169 0.475 0.416 
0.416 0.29 0.49 0.459 
0.306 0.416 0.592 0.584 
0.667 0.459 0.627 0.584 
0.361 0.416 0.525 0.498 
0.333 0.251 0.576 0.459 
0.416 0.251 0.51 0.459 
0.361 0.29 0.541 0.498 
0.388 0.376 0.541 0.498 
0.224 0.208 0.337 0.416 
0.584 0.502 0.592 0.584 
0.333 0.125 0.51 0.498 
0.388 0.333 0.592 0.498 
0.165 0.169 0.388 0.376 
0.251 0.29 0.49 0.541 
0.443 0.416 0.541 0.584 
0.498 0.376 0.627 0.541 
0.667 0.459 0.576 0.541 
0.416 0.29 0.525 0.376 
0.361 0.208 0.49 0.416 
0.498 0.333 0.51 0.498 
0.498 0.333 0.627 0.459 
0.639 0.416 0.576 0.541 
0.667 0.416 0.678 0.667 
0.388 0.251 0.424 0.376 
0.333 0.169 0.459 0.376 
0.471 0.29 0.694 0.624 
0.471 0.584 0.592 0.624 
0.557 0.125 0.576 0.498 
0.333 0.208 0.51 0.498 
0.498 0.416 0.612 0.541 
0.196 0.125 0.388 0.376 
0.388 0.416 0.541 0.459 
0.529 0.376 0.561 0.498 
0.388 0.333 0.525 0.498 
0.557 0.541 0.847 1.0 
0.776 0.416 0.831 0.831 
0.612 0.416 0.812 0.875 
0.165 0.208 0.592 0.667 
0.667 0.208 0.812 0.71 
0.612 0.502 0.694 0.792 
0.694 0.416 0.761 0.831 
0.416 0.333 0.694 0.957 
0.612 0.416 0.761 0.71 
0.945 0.251 1.0 0.918 
0.722 0.502 0.796 0.918 
0.945 0.333 0.965 0.792 
0.667 0.541 0.796 0.831 
0.529 0.333 0.643 0.71 
0.584 0.333 0.78 0.831 
0.863 0.333 0.863 0.749 
0.584 0.333 0.78 0.875 
0.498 0.251 0.78 0.541 
0.557 0.584 0.78 0.957 
0.471 0.416 0.643 0.71 
0.667 0.459 0.78 0.957 
0.416 0.29 0.694 0.749 
0.667 0.541 0.796 1.0 
0.557 0.208 0.678 0.749 
0.529 0.584 0.745 0.918 
0.416 0.29 0.694 0.749 
0.557 0.376 0.78 0.71 
0.918 0.416 0.949 0.831 
0.835 0.376 0.898 0.71 
0.804 0.667 0.863 1.0 
0.584 0.29 0.729 0.749 
0.388 0.208 0.678 0.792 
0.584 0.502 0.729 0.918 
0.945 0.749 0.965 0.875 
0.471 0.082 0.678 0.584 
0.361 0.333 0.663 0.792 
0.557 0.29 0.663 0.71 
0.804 0.502 0.847 0.71 
0.498 0.416 0.51 0.71 
0.804 0.416 0.812 0.624 
1.0 0.749 0.914 0.792 
0.557 0.333 0.694 0.584 
0.945 0.416 0.863 0.918 
0.584 0.459 0.761 0.71 
0.722 0.459 0.745 0.831 
0.722 0.459 0.694 0.918 
0.694 0.502 0.831 0.918 
0.667 0.416 0.714 0.918 
0.612 0.416 0.714 0.792 
0.443 0.416 0.694 0.71 
Teaching Patterns
1.0 0.0 0.0 
1.0 0.0 0.0 
1.0 0.0 0.0 
1.0 0.0 0.0 
1.0 0.0 0.0 
1.0 0.0 0.0 
1.0 0.0 0.0 
1.0 0.0 0.0 
1.0 0.0 0.0 
1.0 0.0 0.0 
1.0 0.0 0.0 
1.0 0.0 0.0 
1.0 0.0 0.0 
1.0 0.0 0.0 
1.0 0.0 0.0 
1.0 0.0 0.0 
1.0 0.0 0.0 
1.0 0.0 0.0 
1.0 0.0 0.0 
1.0 0.0 0.0 
1.0 0.0 0.0 
1.0 0.0 0.0 
1.0 0.0 0.0 
1.0 0.0 0.0 
1.0 0.0 0.0 
1.0 0.0 0.0 
1.0 0.0 0.0 
1.0 0.0 0.0 
1.0 0.0 0.0 
1.0 0.0 0.0 
1.0 0.0 0.0 
1.0 0.0 0.0 
1.0 0.0 0.0 
1.0 0.0 0.0 
1.0 0.0 0.0 
1.0 0.0 0.0 
1.0 0.0 0.0 
1.0 0.0 0.0 
1.0 0.0 0.0 
1.0 0.0 0.0 
1.0 0.0 0.0 
1.0 0.0 0.0 
1.0 0.0 0.0 
1.0 0.0 0.0 
1.0 0.0 0.0 
1.0 0.0 0.0 
1.0 0.0 0.0 
1.0 0.0 0.0 
1.0 0.0 0.0 
1.0 0.0 0.0 
0.0 1.0 0.0 
0.0 1.0 0.0 
0.0 1.0 0.0 
0.0 1.0 0.0 
0.0 1.0 0.0 
0.0 1.0 0.0 
0.0 1.0 0.0 
0.0 1.0 0.0 
0.0 1.0 0.0 
0.0 1.0 0.0 
0.0 1.0 0.0 
0.0 1.0 0.0 
0.0 1.0 0.0 
0.0 1.0 0.0 
0.0 1.0 0.0 
0.0 1.0 0.0 
0.0 1.0 0.0 
0.0 1.0 0.0 
0.0 1.0 0.0 
0.0 1.0 0.0 
0.0 1.0 0.0 
0.0 1.0 0.0 
0.0 1.0 0.0 
0.0 1.0 0.0 
0.0 1.0 0.0 
0.0 1.0 0.0 
0.0 1.0 0.0 
0.0 1.0 0.0 
0.0 1.0 0.0 
0.0 1.0 0.0 
0.0 1.0 0.0 
0.0 1.0 0.0 
0.0 1.0 0.0 
0.0 1.0 0.0 
0.0 1.0 0.0 
0.0 1.0 0.0 
0.0 1.0 0.0 
0.0 1.0 0.0 
0.0 1.0 0.0 
0.0 1.0 0.0 
0.0 1.0 0.0 
0.0 1.0 0.0 
0.0 1.0 0.0 
0.0 1.0 0.0 
0.0 1.0 0.0 
0.0 1.0 0.0 
0.0 1.0 0.0 
0.0 1.0 0.0 
0.0 1.0 0.0 
0.0 1.0 0.0 
0.0 0.0 1.0 
0.0 0.0 1.0 
0.0 0.0 1.0 
0.0 0.0 1.0 
0.0 0.0 1.0 
0.0 0.0 1.0 
0.0 0.0 1.0 
0.0 0.0 1.0 
0.0 0.0 1.0 
0.0 0.0 1.0 
0.0 0.0 1.0 
0.0 0.0 1.0 
0.0 0.0 1.0 
0.0 0.0 1.0 
0.0 0.0 1.0 
0.0 0.0 1.0 
0.0 0.0 1.0 
0.0 0.0 1.0 
0.0 0.0 1.0 
0.0 0.0 1.0 
0.0 0.0 1.0 
0.0 0.0 1.0 
0.0 0.0 1.0 
0.0 0.0 1.0 
0.0 0.0 1.0 
0.0 0.0 1.0 
0.0 0.0 1.0 
0.0 0.0 1.0 
0.0 0.0 1.0 
0.0 0.0 1.0 
0.0 0.0 1.0 
0.0 0.0 1.0 
0.0 0.0 1.0 
0.0 0.0 1.0 
0.0 0.0 1.0 
0.0 0.0 1.0 
0.0 0.0 1.0 
0.0 0.0 1.0 
0.0 0.0 1.0 
0.0 0.0 1.0 
0.0 0.0 1.0 
0.0 0.0 1.0 
0.0 0.0 1.0 
0.0 0.0 1.0 
0.0 0.0 1.0 
0.0 0.0 1.0 
0.0 0.0 1.0 
0.0 0.0 1.0 
0.0 0.0 1.0 
0.0 0.0 1.0 
Learning : 0.05
Momentum : 0.8999999761581421
Epoch: 100, Error: 0.023259937393636944
Epoch: 200, Error: 0.01633913180963379
Epoch: 300, Error: 0.015148020615009701
Epoch: 400, Error: 0.013893562550502813
Epoch: 500, Error: 0.013537089082928758
Epoch: 600, Error: 0.013268208604552382
Epoch: 700, Error: 0.01301933567739917
Epoch: 800, Error: 0.012518976531085158
Epoch: 900, Error: 0.012523907063623784
Epoch: 1000, Error: 0.012496168024519735
Epoch: 1100, Error: 0.012408211979902755
Epoch: 1200, Error: 0.01221337461408044
Epoch: 1300, Error: 0.012421979698891212
Epoch: 1400, Error: 0.012167908876194867
Epoch: 1500, Error: 0.01211366317437997
Epoch: 1600, Error: 0.012065293465640566
Epoch: 1700, Error: 0.012058321328783829
Epoch: 1800, Error: 0.012102676929235162
Epoch: 1900, Error: 0.012074781525982611
Epoch: 2000, Error: 0.012015210919164429
Epoch: 2100, Error: 0.012014623582025798
Epoch: 2200, Error: 0.01195758622421498
Epoch: 2300, Error: 0.012038036588198466
Epoch: 2400, Error: 0.012848024969291813
Epoch: 2500, Error: 0.011983045610063433
Epoch: 2600, Error: 0.011942806719227143
Epoch: 2700, Error: 0.012017031818081584
Epoch: 2800, Error: 0.011928119837753973
Epoch: 2900, Error: 0.011863000730596759
Epoch: 3000, Error: 0.01184483408893854
Epoch: 3100, Error: 0.011858015277748548
Epoch: 3200, Error: 0.011862699420536077
Epoch: 3300, Error: 0.011903010943955824
Epoch: 3400, Error: 0.011946510974843175
Epoch: 3500, Error: 0.011865502340026028
Epoch: 3600, Error: 0.011934458717972114
Epoch: 3700, Error: 0.011959457812629038
Epoch: 3800, Error: 0.012008191594157508
Epoch: 3900, Error: 0.011992394446251544
Epoch: 4000, Error: 0.012233655645759385
Epoch: 4100, Error: 0.01193539547777945
Epoch: 4200, Error: 0.011954631726336493
Epoch: 4300, Error: 0.01189566978599018
Epoch: 4400, Error: 0.01190512555477611
Epoch: 4500, Error: 0.011899303341943735
Epoch: 4600, Error: 0.011868881452671865
Epoch: 4700, Error: 0.011860652841714043
Epoch: 4800, Error: 0.011948277626256613
Epoch: 4900, Error: 0.011872543410175568
Epoch: 5000, Error: 0.011915977351464392
Epoch: 5100, Error: 0.012343826946168679
Epoch: 5200, Error: 0.011980116102857156
Epoch: 5300, Error: 0.011883067504119943
Epoch: 5400, Error: 0.011901289567919832
Epoch: 5500, Error: 0.011897704090149529
Epoch: 5600, Error: 0.012285498265802821
Epoch: 5700, Error: 0.011851929916730813
Epoch: 5800, Error: 0.011836361821668664
Epoch: 5900, Error: 0.011876510089735844
Epoch: 6000, Error: 0.011906207515619695
Epoch: 6100, Error: 0.01187282518357784
Epoch: 6200, Error: 0.011887043204574685
Epoch: 6300, Error: 0.011835178690314236
Epoch: 6400, Error: 0.011929319798381166
Epoch: 6500, Error: 0.012060412207107279
Epoch: 6600, Error: 0.012012148894591275
Epoch: 6700, Error: 0.01196421242704349
Epoch: 6800, Error: 0.011964254752485614
Epoch: 6900, Error: 0.011924673432148642
Epoch: 7000, Error: 0.012051104070383059
Epoch: 7100, Error: 0.011824554852501955
Epoch: 7200, Error: 0.01183844237195707
Epoch: 7300, Error: 0.011865615068993307
Epoch: 7400, Error: 0.011886975420427433
Epoch: 7500, Error: 0.011930482994240987
Epoch: 7600, Error: 0.011914720218615903
Epoch: 7700, Error: 0.011867150016854884
Epoch: 7800, Error: 0.011877933027845664
Epoch: 7900, Error: 0.011936844090652703
Epoch: 8000, Error: 0.011904881390218272
Epoch: 8100, Error: 0.011925924060071015
Epoch: 8200, Error: 0.011882060396137649
Epoch: 8300, Error: 0.011884127162636073
Epoch: 8400, Error: 0.01185516790719365
Epoch: 8500, Error: 0.01191034395460178
Epoch: 8600, Error: 0.01185554189260892
Epoch: 8700, Error: 0.012038885062510532
Epoch: 8800, Error: 0.01188405942380625
Epoch: 8900, Error: 0.01190865979071868
Epoch: 9000, Error: 0.011805994779219436
Epoch: 9100, Error: 0.011906449137989402
Epoch: 9200, Error: 0.012131376101351109
Epoch: 9300, Error: 0.012160584355116147
Epoch: 9400, Error: 0.011944378694190164
Epoch: 9500, Error: 0.011858837129498095
Epoch: 9600, Error: 0.011981434353816
Epoch: 9700, Error: 0.011875975091245307
Epoch: 9800, Error: 0.011810566526985849
Epoch: 9900, Error: 0.011838231856112413
Epoch: 10000, Error: 0.011873669011522172
Epoch: 10100, Error: 0.011889236140346815
Epoch: 10200, Error: 0.011886724910235553
Epoch: 10300, Error: 0.011846351891387333
Epoch: 10400, Error: 0.011875678200984851
Epoch: 10500, Error: 0.011900637378681493
Epoch: 10600, Error: 0.0119178286320377
Epoch: 10700, Error: 0.011865553140924292
Epoch: 10800, Error: 0.011855484578266
Epoch: 10900, Error: 0.011882475625820996
Epoch: 11000, Error: 0.011843348195852853
Epoch: 11100, Error: 0.011830539787440511
Epoch: 11200, Error: 0.01187002943868862
Epoch: 11300, Error: 0.011819635280199867
Epoch: 11400, Error: 0.01189480547496597
Epoch: 11500, Error: 0.011776776877234134
Epoch: 11600, Error: 0.011792668688322929
Epoch: 11700, Error: 0.011883598207687371
Epoch: 11800, Error: 0.011902295541036589
Epoch: 11900, Error: 0.011724744725299868
Epoch: 12000, Error: 0.011857920249422244
Epoch: 12100, Error: 0.011894951667687484
Epoch: 12200, Error: 0.011842557808792372
Epoch: 12300, Error: 0.011826293520309134
Epoch: 12400, Error: 0.011823571626389778
Epoch: 12500, Error: 0.011825784335722494
Epoch: 12600, Error: 0.011907912272009104
Epoch: 12700, Error: 0.011742180348280626
Epoch: 12800, Error: 0.011876851507264535
Epoch: 12900, Error: 0.011786124779772408
Epoch: 13000, Error: 0.011849861491130192
Epoch: 13100, Error: 0.011868962817497138
Epoch: 13200, Error: 0.011894647154787283
Epoch: 13300, Error: 0.011817626108972483
Epoch: 13400, Error: 0.011724618407593528
Epoch: 13500, Error: 0.011834989115792416
Epoch: 13600, Error: 0.011826794158061888
Epoch: 13700, Error: 0.011962395461065098
Epoch: 13800, Error: 0.011853129877343748
Epoch: 13900, Error: 0.011819350150897436
Epoch: 14000, Error: 0.011811840071787061
Epoch: 14100, Error: 0.011806199841652031
Epoch: 14200, Error: 0.011769317067519436
Epoch: 14300, Error: 0.011892353711014585
Epoch: 14400, Error: 0.011832224432385744
Epoch: 14500, Error: 0.011767030165810995
Epoch: 14600, Error: 0.011829432111669421
Epoch: 14700, Error: 0.011830965962012486
Epoch: 14800, Error: 0.011848359841411714
Epoch: 14900, Error: 0.01176146464388674
Epoch: 15000, Error: 0.01176096760550796
Epoch: 15100, Error: 0.011803728035508675
Epoch: 15200, Error: 0.011817610875123374
Epoch: 15300, Error: 0.011916253267500837
Epoch: 15400, Error: 0.011829347176487811
Epoch: 15500, Error: 0.011649291309506721
Epoch: 15600, Error: 0.011708582980868904
Epoch: 15700, Error: 0.01178594507036213
Epoch: 15800, Error: 0.011862771226533293
Epoch: 15900, Error: 0.011708788151198628
Epoch: 16000, Error: 0.011764021811211934
Epoch: 16100, Error: 0.011703601540019625
Epoch: 16200, Error: 0.01164548058691078
Epoch: 16300, Error: 0.011711208110973566
Epoch: 16400, Error: 0.011661320769029832
Epoch: 16500, Error: 0.011659032002702598
Epoch: 16600, Error: 0.011633446907193635
Epoch: 16700, Error: 0.011654081598632987
Epoch: 16800, Error: 0.011624966019016233
Epoch: 16900, Error: 0.0116419406826975
Epoch: 17000, Error: 0.011631654943354627
Epoch: 17100, Error: 0.011618780871656086
Epoch: 17200, Error: 0.011574351529199044
Epoch: 17300, Error: 0.011627998526432095
Epoch: 17400, Error: 0.011726252045361575
Epoch: 17500, Error: 0.011559043255208472
Epoch: 17600, Error: 0.01148387696417685
Epoch: 17700, Error: 0.01147673678490262
Epoch: 17800, Error: 0.011413820014978546
Epoch: 17900, Error: 0.011495117652914071
Epoch: 18000, Error: 0.011473503254680335
Epoch: 18100, Error: 0.011339067071688335
Epoch: 18200, Error: 0.011376082662504625
Epoch: 18300, Error: 0.011350587602779417
Epoch: 18400, Error: 0.011344650711355278
Epoch: 18500, Error: 0.011263678500038666
Epoch: 18600, Error: 0.01133170382988086
Epoch: 18700, Error: 0.01121558421732986
Epoch: 18800, Error: 0.01119741975049681
Epoch: 18900, Error: 0.011141085567492813
Epoch: 19000, Error: 0.011175324883686133
Epoch: 19100, Error: 0.011236811902070603
Epoch: 19200, Error: 0.011089505375526205
Epoch: 19300, Error: 0.011208551048142274
Epoch: 19400, Error: 0.011043788975651071
Epoch: 19500, Error: 0.011057402198949346
Epoch: 19600, Error: 0.010952969313826354
Epoch: 19700, Error: 0.010982500852772317
Epoch: 19800, Error: 0.010974924589682234
Epoch: 19900, Error: 0.010896745296082939
Epoch: 20000, Error: 0.010802358992682053
Epoch: 20100, Error: 0.010956542874848613
Epoch: 20200, Error: 0.010723209383203444
Epoch: 20300, Error: 0.01084114840801749
Epoch: 20400, Error: 0.01068692213696869
Epoch: 20500, Error: 0.010687555272017457
Epoch: 20600, Error: 0.010586110477407205
Epoch: 20700, Error: 0.010626206088488271
Epoch: 20800, Error: 0.010556460693928385
Epoch: 20900, Error: 0.010497503969747048
Epoch: 21000, Error: 0.010476659368666813
Epoch: 21100, Error: 0.010448467274827842
Epoch: 21200, Error: 0.01040228619921694
Epoch: 21300, Error: 0.010318968364426868
Epoch: 21400, Error: 0.010286449594914083
Epoch: 21500, Error: 0.010283250094470918
Epoch: 21600, Error: 0.01022622066155162
Epoch: 21700, Error: 0.010151361154673917
Epoch: 21800, Error: 0.010127283299103975
Epoch: 21900, Error: 0.01002185155485432
Epoch: 22000, Error: 0.009961920208998061
Epoch: 22100, Error: 0.009942011668879319
Epoch: 22200, Error: 0.009893540655091113
Epoch: 22300, Error: 0.009830930090332327
Epoch: 22400, Error: 0.00977781460096631
Epoch: 22500, Error: 0.009800212586688721
Epoch: 22600, Error: 0.00971933214959081
Epoch: 22700, Error: 0.009609093129342446
Epoch: 22800, Error: 0.009529611336036024
Epoch: 22900, Error: 0.009490603738517175
Epoch: 23000, Error: 0.009405386148426235
Epoch: 23100, Error: 0.009342136092612516
Epoch: 23200, Error: 0.009284390824711608
Epoch: 23300, Error: 0.009242713150150097
Epoch: 23400, Error: 0.009182889624124136
Epoch: 23500, Error: 0.009141435569027703
Epoch: 23600, Error: 0.009073018521557865
Epoch: 23700, Error: 0.008953643631632358
Epoch: 23800, Error: 0.008912805255835151
Epoch: 23900, Error: 0.008840319689673514
Epoch: 24000, Error: 0.008799636788857451
Epoch: 24100, Error: 0.00872237959527048
Epoch: 24200, Error: 0.008660178759573126
Epoch: 24300, Error: 0.008589065347721149
Epoch: 24400, Error: 0.008581628159043455
Epoch: 24500, Error: 0.00853483469475524
Epoch: 24600, Error: 0.008483662772608739
Epoch: 24700, Error: 0.008403446659905089
Epoch: 24800, Error: 0.008296489187911153
Epoch: 24900, Error: 0.008262315728060363
Epoch: 25000, Error: 0.00818583966056297
Epoch: 25100, Error: 0.00815718131249086
Epoch: 25200, Error: 0.008102905183803223
Epoch: 25300, Error: 0.008069574293888323
Epoch: 25400, Error: 0.008050400053302301
Epoch: 25500, Error: 0.007952380849724392
Epoch: 25600, Error: 0.00790403604826113
Epoch: 25700, Error: 0.007849996915276545
Epoch: 25800, Error: 0.007819677186656746
Epoch: 25900, Error: 0.007782371179536876
Epoch: 26000, Error: 0.0077225757607516455
Epoch: 26100, Error: 0.007724843779482794
Epoch: 26200, Error: 0.007663493401809836
Epoch: 26300, Error: 0.007613607513518085
Epoch: 26400, Error: 0.007583825439939673
Epoch: 26500, Error: 0.007554812651536774
Epoch: 26600, Error: 0.007516939006970417
Epoch: 26700, Error: 0.007490685345658982
Epoch: 26800, Error: 0.007459046520291245
Epoch: 26900, Error: 0.007435604599760137
Epoch: 27000, Error: 0.007425603593566154
Epoch: 27100, Error: 0.007476568084633249
Epoch: 27200, Error: 0.007408199526303319
Epoch: 27300, Error: 0.007376391155257829
Epoch: 27400, Error: 0.007354026565397927
Epoch: 27500, Error: 0.007452446602850102
Epoch: 27600, Error: 0.007311590790187723
Epoch: 27700, Error: 0.007364847210807925
Epoch: 27800, Error: 0.00729569815772953
Epoch: 27900, Error: 0.00729625511123986
Epoch: 28000, Error: 0.007279769684936987
Epoch: 28100, Error: 0.007288815380557923
Epoch: 28200, Error: 0.007263914458845048
Epoch: 28300, Error: 0.007254619225190154
Epoch: 28400, Error: 0.007255959164503754
Epoch: 28500, Error: 0.007259398821753455
Epoch: 28600, Error: 0.00723804433314407
Epoch: 28700, Error: 0.007260291359793964
Epoch: 28800, Error: 0.007226465619556085
Epoch: 28900, Error: 0.007211174340067727
Epoch: 29000, Error: 0.00720823528023117
Epoch: 29100, Error: 0.007203356455010435
Epoch: 29200, Error: 0.0072304824548564154
Epoch: 29300, Error: 0.00717264256663869
Epoch: 29400, Error: 0.007145438165165762
Epoch: 29500, Error: 0.007106870534001163
Epoch: 29600, Error: 0.007103295364150932
Epoch: 29700, Error: 0.007064747370411666
Epoch: 29800, Error: 0.007053222920890308
Epoch: 29900, Error: 0.0070592312285603165
Epoch: 30000, Error: 0.007040594766227144
Epoch: 30100, Error: 0.007029846898342403
Epoch: 30200, Error: 0.007019216684382611
Epoch: 30300, Error: 0.007070034349403832
Epoch: 30400, Error: 0.00699547494254828
Epoch: 30500, Error: 0.006965048634151865
Epoch: 30600, Error: 0.006984129291888508
Epoch: 30700, Error: 0.006992194886580895
Epoch: 30800, Error: 0.00692425249042662
Epoch: 30900, Error: 0.006922477708849151
Epoch: 31000, Error: 0.006910799179604133
Epoch: 31100, Error: 0.006948753110624579
Epoch: 31200, Error: 0.006911774218631645
Epoch: 31300, Error: 0.006883019823968255
Epoch: 31400, Error: 0.0068889847718671396
Epoch: 31500, Error: 0.006878298129677048
Epoch: 31600, Error: 0.006844997115119928
Epoch: 31700, Error: 0.006878771435287929
Epoch: 31800, Error: 0.006915526343526896
Epoch: 31900, Error: 0.0068307762961608304
Epoch: 32000, Error: 0.006811966076620356
Epoch: 32100, Error: 0.006804129843134026
Epoch: 32200, Error: 0.006781633423674556
Epoch: 32300, Error: 0.006846621489162351
Epoch: 32400, Error: 0.0068164406402432135
Epoch: 32500, Error: 0.006786342068757543
Epoch: 32600, Error: 0.006756141333772385
Epoch: 32700, Error: 0.0067641107035932325
Epoch: 32800, Error: 0.006770627156074077
Epoch: 32900, Error: 0.006768152145659152
Epoch: 33000, Error: 0.006787150946799748
Epoch: 33100, Error: 0.006714861982563746
Epoch: 33200, Error: 0.006714146116267161
Epoch: 33300, Error: 0.006694639714910059
Epoch: 33400, Error: 0.006706609679933448
Epoch: 33500, Error: 0.006700882402054735
Epoch: 33600, Error: 0.006681258510541116
Epoch: 33700, Error: 0.00669534701972978
Epoch: 33800, Error: 0.006721863413173276
Epoch: 33900, Error: 0.00665271610443205
Epoch: 34000, Error: 0.006655155155771529
Epoch: 34100, Error: 0.006694063679049027
Epoch: 34200, Error: 0.00664282570005219
Epoch: 34300, Error: 0.006677211605548607
Epoch: 34400, Error: 0.006622101323455462
Epoch: 34500, Error: 0.006600056221384798
Epoch: 34600, Error: 0.006611490574696557
Epoch: 34700, Error: 0.006587988256228098
Epoch: 34800, Error: 0.006625817510643987
Epoch: 34900, Error: 0.006568655641079
Epoch: 35000, Error: 0.006569352264329514
Epoch: 35100, Error: 0.006554226941536536
Epoch: 35200, Error: 0.006561686906161589
Epoch: 35300, Error: 0.00656328135568482
Epoch: 35400, Error: 0.0065991556946598685
Epoch: 35500, Error: 0.006586551689558066
Epoch: 35600, Error: 0.006558893713432154
Epoch: 35700, Error: 0.006543184206610788
Epoch: 35800, Error: 0.006550949984702068
Epoch: 35900, Error: 0.006549141140286588
Epoch: 36000, Error: 0.006533933160327461
Epoch: 36100, Error: 0.006528950498175726
Epoch: 36200, Error: 0.006522036400334603
Epoch: 36300, Error: 0.006498770622096206
Epoch: 36400, Error: 0.006520005598694129
Epoch: 36500, Error: 0.006561340869495264
Epoch: 36600, Error: 0.006476913686375912
Epoch: 36700, Error: 0.006489489320642876
Epoch: 36800, Error: 0.006491797385941241
Epoch: 36900, Error: 0.006458759721102253
Epoch: 37000, Error: 0.006521902634352375
Epoch: 37100, Error: 0.006457762573958032
Epoch: 37200, Error: 0.006460198817760545
Epoch: 37300, Error: 0.006425348713336718
Epoch: 37400, Error: 0.006438464596443507
Epoch: 37500, Error: 0.006467320237503342
Epoch: 37600, Error: 0.006464135276676553
Epoch: 37700, Error: 0.006447555902704089
Epoch: 37800, Error: 0.0063982735332491405
Epoch: 37900, Error: 0.006387485415809562
Epoch: 38000, Error: 0.006396753523643086
Epoch: 38100, Error: 0.006391201234217432
Epoch: 38200, Error: 0.006422174667317432
Epoch: 38300, Error: 0.00635951644002411
Epoch: 38400, Error: 0.006362634766334596
Epoch: 38500, Error: 0.006366716724216165
Epoch: 38600, Error: 0.006356087415976714
Epoch: 38700, Error: 0.006335420166265852
Epoch: 38800, Error: 0.006322993575677382
Epoch: 38900, Error: 0.006325185053384997
Epoch: 39000, Error: 0.006288278092903035
Epoch: 39100, Error: 0.006300623616225408
Epoch: 39200, Error: 0.006309237339386786
Epoch: 39300, Error: 0.006297491420066044
Epoch: 39400, Error: 0.006280451791039033
Epoch: 39500, Error: 0.006270911666848879
Epoch: 39600, Error: 0.006273867617677003
Epoch: 39700, Error: 0.006242868725522325
Epoch: 39800, Error: 0.006220847995363816
Epoch: 39900, Error: 0.006219197859243702
Epoch: 40000, Error: 0.006265917010477198
Epoch: 40100, Error: 0.006273276622721341
Epoch: 40200, Error: 0.006284038469632292
Epoch: 40300, Error: 0.006194952181373516
Epoch: 40400, Error: 0.006207041486937843
Epoch: 40500, Error: 0.006225109292007222
Epoch: 40600, Error: 0.006164891543024919
Epoch: 40700, Error: 0.006177088580428431
Epoch: 40800, Error: 0.006174347352174123
Epoch: 40900, Error: 0.006142285995321825
Epoch: 41000, Error: 0.00613352779095873
Epoch: 41100, Error: 0.006143300591846702
Epoch: 41200, Error: 0.006149247599889836
Epoch: 41300, Error: 0.006138989639733303
Epoch: 41400, Error: 0.006114489065045251
Epoch: 41500, Error: 0.006084921797934797
Epoch: 41600, Error: 0.006082768757487704
Epoch: 41700, Error: 0.006069395732474208
Epoch: 41800, Error: 0.00605949403535489
Epoch: 41900, Error: 0.006043554065337568
Epoch: 42000, Error: 0.006032283310375919
Epoch: 42100, Error: 0.0060918647604780475
Epoch: 42200, Error: 0.006052001260045379
Epoch: 42300, Error: 0.006026733677239625
Epoch: 42400, Error: 0.005997598118518013
Epoch: 42500, Error: 0.005977114415589682
Epoch: 42600, Error: 0.0059925410630338105
Epoch: 42700, Error: 0.005972423669194253
Epoch: 42800, Error: 0.005980477200386546
Epoch: 42900, Error: 0.005985107365885845
Epoch: 43000, Error: 0.005943421804813017
Epoch: 43100, Error: 0.005932053588184144
Epoch: 43200, Error: 0.0059612751761539285
Epoch: 43300, Error: 0.0059292661732039805
Epoch: 43400, Error: 0.005952190228220854
Epoch: 43500, Error: 0.0058877606804246954
Epoch: 43600, Error: 0.005907446628255888
Epoch: 43700, Error: 0.005964651659227901
Epoch: 43800, Error: 0.005846131232416256
Epoch: 43900, Error: 0.005826783397947949
Epoch: 44000, Error: 0.005813758615335283
Epoch: 44100, Error: 0.0058275735912632284
Epoch: 44200, Error: 0.005802826120477372
Epoch: 44300, Error: 0.005797844261339849
Epoch: 44400, Error: 0.0058187187583047
Epoch: 44500, Error: 0.005772468033774237
Epoch: 44600, Error: 0.005758496006467291
Epoch: 44700, Error: 0.005745804852994219
Epoch: 44800, Error: 0.005749217948103026
Epoch: 44900, Error: 0.0057421542368423515
Epoch: 45000, Error: 0.005720033441407124
Epoch: 45100, Error: 0.00571870985816758
Epoch: 45200, Error: 0.005718356873712277
Epoch: 45300, Error: 0.005714718277012953
Epoch: 45400, Error: 0.005664811295168774
Epoch: 45500, Error: 0.005661126865988815
Epoch: 45600, Error: 0.005695105075212635
Epoch: 45700, Error: 0.005654801916909084
Epoch: 45800, Error: 0.005609572539907768
Epoch: 45900, Error: 0.005661507276951846
Epoch: 46000, Error: 0.0056063252674222516
Epoch: 46100, Error: 0.005562940792390523
Epoch: 46200, Error: 0.005571001072272801
Epoch: 46300, Error: 0.0055436960444168295
Epoch: 46400, Error: 0.005546153887527233
Epoch: 46500, Error: 0.005546585326549217
Epoch: 46600, Error: 0.005585667344253039
Epoch: 46700, Error: 0.005505300372076843
Epoch: 46800, Error: 0.0055030273839009654
Epoch: 46900, Error: 0.005507035472181641
Epoch: 47000, Error: 0.005449958684834729
Epoch: 47100, Error: 0.005458613382624982
Epoch: 47200, Error: 0.005449508639798151
Epoch: 47300, Error: 0.005449152283718337
Epoch: 47400, Error: 0.005421763106729199
Epoch: 47500, Error: 0.0054029440578481315
Epoch: 47600, Error: 0.005445312139966897
Epoch: 47700, Error: 0.005379077332164839
Epoch: 47800, Error: 0.005374997256841023
Epoch: 47900, Error: 0.005354823394110698
Epoch: 48000, Error: 0.005335664562802514
Epoch: 48100, Error: 0.005335814379437345
Epoch: 48200, Error: 0.0053209736908279934
Epoch: 48300, Error: 0.005306245823891198
Epoch: 48400, Error: 0.0053341424129048015
Epoch: 48500, Error: 0.005290393184629954
Epoch: 48600, Error: 0.00528293286698285
Epoch: 48700, Error: 0.005276832485079276
Epoch: 48800, Error: 0.005256202373669716
Epoch: 48900, Error: 0.005230403490047512
Epoch: 49000, Error: 0.005213452950903483
Epoch: 49100, Error: 0.005215541400330385
Epoch: 49200, Error: 0.0052025081634741255
Epoch: 49300, Error: 0.00520546563314733
Epoch: 49400, Error: 0.005166759513098983
Epoch: 49500, Error: 0.005150927676195868
Epoch: 49600, Error: 0.005155389084281751
Epoch: 49700, Error: 0.005110787808018823
Epoch: 49800, Error: 0.005125386727473594
Epoch: 49900, Error: 0.005126102726499606
Epoch: 50000, Error: 0.0050958973854699115
Epoch: 50100, Error: 0.005061604357178271
Epoch: 50200, Error: 0.005065790850204515
Epoch: 50300, Error: 0.005078819735376747
Epoch: 50400, Error: 0.005034897384985928
Epoch: 50500, Error: 0.005029143589784822
Epoch: 50600, Error: 0.005030474306051231
Epoch: 50700, Error: 0.005022477374794496
Epoch: 50800, Error: 0.005009087576922321
Epoch: 50900, Error: 0.004947870074742231
Epoch: 51000, Error: 0.004949984706060428
Epoch: 51100, Error: 0.004946987866572684
Epoch: 51200, Error: 0.004934054733987919
Epoch: 51300, Error: 0.00492401672879038
Epoch: 51400, Error: 0.004905369143693231
Epoch: 51500, Error: 0.004914386584558071
Epoch: 51600, Error: 0.004886203778412263
Epoch: 51700, Error: 0.004843657050380105
Epoch: 51800, Error: 0.004834589362432599
Epoch: 51900, Error: 0.0048730817823347435
Epoch: 52000, Error: 0.004794155578667573
Epoch: 52100, Error: 0.004758677927410346
Epoch: 52200, Error: 0.004751606183203824
Epoch: 52300, Error: 0.004749305141767412
Epoch: 52400, Error: 0.0047076049872828585
Epoch: 52500, Error: 0.004735542847894362
Epoch: 52600, Error: 0.004709721530536666
Epoch: 52700, Error: 0.0046717129511728355
Epoch: 52800, Error: 0.004677791025268909
Epoch: 52900, Error: 0.004644984787313644
Epoch: 53000, Error: 0.004597317786794366
Epoch: 53100, Error: 0.004555469772668351
Epoch: 53200, Error: 0.004546237046970555
Epoch: 53300, Error: 0.004554184897963601
Epoch: 53400, Error: 0.0045077802658264835
Epoch: 53500, Error: 0.004485660139236034
Epoch: 53600, Error: 0.004516304948621687
Epoch: 53700, Error: 0.004437276950418731
Epoch: 53800, Error: 0.0044001115693473765
Epoch: 53900, Error: 0.00437998613425053
Epoch: 54000, Error: 0.004376749166766049
Epoch: 54100, Error: 0.004382348185277425
Epoch: 54200, Error: 0.004339450578192766
Epoch: 54300, Error: 0.004320908983319737
Epoch: 54400, Error: 0.00428312808208318
Epoch: 54500, Error: 0.004296934071667678
Epoch: 54600, Error: 0.004260560638866072
Epoch: 54700, Error: 0.004235242861111672
Epoch: 54800, Error: 0.004194400430724988
Epoch: 54900, Error: 0.004215566993788735
Epoch: 55000, Error: 0.00419795258134229
Epoch: 55100, Error: 0.004170051556074534
Epoch: 55200, Error: 0.004081022890481839
Epoch: 55300, Error: 0.004059615539610389
Epoch: 55400, Error: 0.004037996693560672
Epoch: 55500, Error: 0.004135500183491648
Epoch: 55600, Error: 0.003984027431771183
Epoch: 55700, Error: 0.003956852506528392
Epoch: 55800, Error: 0.003934266302755622
Epoch: 55900, Error: 0.003906285075237552
Epoch: 56000, Error: 0.003886157001195699
Epoch: 56100, Error: 0.003825811652003825
Epoch: 56200, Error: 0.0038127118771211286
Epoch: 56300, Error: 0.0038353825699250074
Epoch: 56400, Error: 0.0038089153817427415
Epoch: 56500, Error: 0.003768534373265356
Epoch: 56600, Error: 0.0037370264078457863
Epoch: 56700, Error: 0.003708655881322232
Epoch: 56800, Error: 0.0036868439445867196
Epoch: 56900, Error: 0.003659682524493905
Epoch: 57000, Error: 0.0036334447771208837
Epoch: 57100, Error: 0.003680416320497343
Epoch: 57200, Error: 0.0035976894901379557
Epoch: 57300, Error: 0.0035894607075263483
Epoch: 57400, Error: 0.003580132944690666
Epoch: 57500, Error: 0.003568023811297895
Epoch: 57600, Error: 0.0035246843144537588
Epoch: 57700, Error: 0.003509398484728551
Epoch: 57800, Error: 0.003496273462336733
Epoch: 57900, Error: 0.0034902650175513547
Epoch: 58000, Error: 0.003459085319988284
Epoch: 58100, Error: 0.0034421024177088253
Epoch: 58200, Error: 0.0033941078491458937
Epoch: 58300, Error: 0.0033829112213382756
Epoch: 58400, Error: 0.0033464060443368564
Epoch: 58500, Error: 0.0033265330241477003
Epoch: 58600, Error: 0.003299867923731396
Epoch: 58700, Error: 0.0033170901242624996
Epoch: 58800, Error: 0.0032439016287324923
Epoch: 58900, Error: 0.003263947931689244
Epoch: 59000, Error: 0.003186055690424976
Epoch: 59100, Error: 0.0031477116897357786
Epoch: 59200, Error: 0.003114762913587465
Epoch: 59300, Error: 0.003118877829294381
Epoch: 59400, Error: 0.0030790621445563136
Epoch: 59500, Error: 0.003040046930277367
Epoch: 59600, Error: 0.0030076222192533834
Epoch: 59700, Error: 0.00297140718380878
Epoch: 59800, Error: 0.0029504103848460063
Epoch: 59900, Error: 0.0029342614306725294
Epoch: 60000, Error: 0.0029225648361711483
Epoch: 60100, Error: 0.002861894400140491
Epoch: 60200, Error: 0.002860287611080548
Epoch: 60300, Error: 0.002828435930187776
Epoch: 60400, Error: 0.0027898631753280525
Epoch: 60500, Error: 0.0027728146072325613
Epoch: 60600, Error: 0.0027495484444210335
Epoch: 60700, Error: 0.0027280456547827347
Epoch: 60800, Error: 0.0027062790878215237
Epoch: 60900, Error: 0.0026934127065625034
Epoch: 61000, Error: 0.0026720115461125547
Epoch: 61100, Error: 0.002625662681569064
Epoch: 61200, Error: 0.0026180912573224467
Epoch: 61300, Error: 0.0026296959316526383
Epoch: 61400, Error: 0.0025674149506963975
Epoch: 61500, Error: 0.0025527798477548488
Epoch: 61600, Error: 0.0025285021876263907
Epoch: 61700, Error: 0.0025186364397459735
Epoch: 61800, Error: 0.002491090236239547
Epoch: 61900, Error: 0.0024760062137986136
Epoch: 62000, Error: 0.002452869549100181
Epoch: 62100, Error: 0.0024280381644587656
Epoch: 62200, Error: 0.0024236102647699925
Epoch: 62300, Error: 0.002399193357748939
Epoch: 62400, Error: 0.002393916959799634
Epoch: 62500, Error: 0.0023721984909261667
Epoch: 62600, Error: 0.002351016480451411
Epoch: 62700, Error: 0.0023556221229909264
Epoch: 62800, Error: 0.0023116199084126502
Epoch: 62900, Error: 0.0023117086280662496
Epoch: 63000, Error: 0.0022763705301498956
Epoch: 63100, Error: 0.0022514935462244422
Epoch: 63200, Error: 0.0022674884412799755
Epoch: 63300, Error: 0.002210572145332718
Epoch: 63400, Error: 0.002233001923740186
Epoch: 63500, Error: 0.002171239795864507
Epoch: 63600, Error: 0.0021501574494863273
Epoch: 63700, Error: 0.002140204858362284
Epoch: 63800, Error: 0.0021689077845006683
Epoch: 63900, Error: 0.002119196868727495
Epoch: 64000, Error: 0.002090426262988815
Epoch: 64100, Error: 0.0020810570401604304
Epoch: 64200, Error: 0.002082667403478966
Epoch: 64300, Error: 0.002048840896532519
Epoch: 64400, Error: 0.0020455662126556778
Epoch: 64500, Error: 0.002027023313357091
Epoch: 64600, Error: 0.0020245198726254253
Epoch: 64700, Error: 0.002014741599533625
Epoch: 64800, Error: 0.0019793814553435126
Epoch: 64900, Error: 0.0019867660982296562
Epoch: 65000, Error: 0.0019502547327736233
Epoch: 65100, Error: 0.0019357903077868127
Epoch: 65200, Error: 0.0019347168404235037
Epoch: 65300, Error: 0.0019200286645675853
Epoch: 65400, Error: 0.001907826625957081
Epoch: 65500, Error: 0.0018917331152269903
Epoch: 65600, Error: 0.0018866733355030888
Epoch: 65700, Error: 0.0018567771420461303
Epoch: 65800, Error: 0.001853537567486414
Epoch: 65900, Error: 0.0018301963989408865
Epoch: 66000, Error: 0.0018081894187965142
Epoch: 66100, Error: 0.001797826159823079
Epoch: 66200, Error: 0.0017766619689214883
Epoch: 66300, Error: 0.0017633081913527213
Epoch: 66400, Error: 0.0017757843253344194
Epoch: 66500, Error: 0.0017253136541998575
Epoch: 66600, Error: 0.0017068730792852676
Epoch: 66700, Error: 0.001699775854685008
Epoch: 66800, Error: 0.0016786311043662276
Epoch: 66900, Error: 0.0016731165495910885
Epoch: 67000, Error: 0.0016906981691967148
Epoch: 67100, Error: 0.0016720955407605524
Epoch: 67200, Error: 0.0016711120547775972
Epoch: 67300, Error: 0.0016278604768474479
Epoch: 67400, Error: 0.0016132659404014872
Epoch: 67500, Error: 0.0016062795697266222
Epoch: 67600, Error: 0.0015915671392629411
Epoch: 67700, Error: 0.00158332643697463
Epoch: 67800, Error: 0.001576158835435585
Epoch: 67900, Error: 0.0015803810731788218
Epoch: 68000, Error: 0.0015580660821021967
Epoch: 68100, Error: 0.001564428234866865
Epoch: 68200, Error: 0.0015557053284287916
Epoch: 68300, Error: 0.0015435655537594816
Epoch: 68400, Error: 0.0015368110254963575
Epoch: 68500, Error: 0.0015565238284674827
Epoch: 68600, Error: 0.001561463074682911
Epoch: 68700, Error: 0.001535736313657294
Epoch: 68800, Error: 0.0015337331492261026
Finished
