Input Patterns
0.224 0.624 0.067 0.043 
0.11 0.502 0.051 0.043 
0.196 0.667 0.067 0.043 
0.055 0.584 0.067 0.082 
0.027 0.376 0.067 0.043 
0.306 0.71 0.086 0.043 
0.137 0.416 0.067 0.0 
0.416 0.831 0.035 0.043 
0.306 0.792 0.051 0.125 
0.388 0.749 0.118 0.082 
0.306 0.584 0.118 0.043 
0.082 0.667 0.0 0.043 
0.137 0.584 0.153 0.043 
0.196 0.584 0.102 0.125 
0.251 0.584 0.067 0.043 
0.137 0.459 0.102 0.043 
0.251 0.875 0.086 0.0 
0.165 0.459 0.086 0.043 
0.333 0.624 0.051 0.043 
0.027 0.416 0.051 0.043 
0.196 0.624 0.051 0.082 
0.027 0.502 0.051 0.043 
0.224 0.749 0.153 0.125 
0.224 0.749 0.102 0.043 
0.278 0.71 0.086 0.043 
0.165 0.416 0.067 0.043 
0.082 0.459 0.086 0.043 
0.306 0.792 0.118 0.125 
0.196 0.584 0.086 0.043 
0.165 0.459 0.086 0.0 
0.137 0.584 0.102 0.043 
0.0 0.416 0.016 0.0 
0.388 1.0 0.086 0.125 
0.224 0.624 0.067 0.082 
0.224 0.749 0.086 0.082 
0.224 0.71 0.086 0.125 
0.224 0.541 0.118 0.165 
0.196 0.416 0.102 0.043 
0.251 0.624 0.086 0.043 
0.11 0.502 0.102 0.043 
0.306 0.584 0.086 0.125 
0.333 0.918 0.067 0.043 
0.196 0.502 0.035 0.043 
0.165 0.667 0.067 0.0 
0.224 0.584 0.086 0.043 
0.055 0.125 0.051 0.082 
0.196 0.624 0.102 0.208 
0.137 0.416 0.067 0.082 
0.082 0.502 0.067 0.043 
0.196 0.541 0.067 0.043 
0.749 0.502 0.627 0.541 
0.722 0.459 0.663 0.584 
0.612 0.333 0.612 0.584 
0.557 0.541 0.627 0.624 
0.639 0.376 0.612 0.498 
0.196 0.0 0.424 0.376 
0.471 0.082 0.51 0.376 
0.361 0.376 0.439 0.498 
0.361 0.416 0.592 0.584 
0.529 0.082 0.592 0.584 
0.443 0.502 0.643 0.459 
0.557 0.208 0.663 0.584 
0.584 0.376 0.561 0.498 
0.694 0.333 0.643 0.541 
0.471 0.376 0.592 0.584 
0.333 0.169 0.475 0.416 
0.416 0.29 0.49 0.459 
0.306 0.416 0.592 0.584 
0.667 0.459 0.627 0.584 
0.361 0.416 0.525 0.498 
0.333 0.251 0.576 0.459 
0.416 0.251 0.51 0.459 
0.361 0.29 0.541 0.498 
0.388 0.376 0.541 0.498 
0.224 0.208 0.337 0.416 
0.584 0.502 0.592 0.584 
0.333 0.125 0.51 0.498 
0.388 0.333 0.592 0.498 
0.165 0.169 0.388 0.376 
0.251 0.29 0.49 0.541 
0.443 0.416 0.541 0.584 
0.498 0.376 0.627 0.541 
0.667 0.459 0.576 0.541 
0.416 0.29 0.525 0.376 
0.361 0.208 0.49 0.416 
0.498 0.333 0.51 0.498 
0.498 0.333 0.627 0.459 
0.639 0.416 0.576 0.541 
0.667 0.416 0.678 0.667 
0.388 0.251 0.424 0.376 
0.333 0.169 0.459 0.376 
0.471 0.29 0.694 0.624 
0.471 0.584 0.592 0.624 
0.557 0.125 0.576 0.498 
0.333 0.208 0.51 0.498 
0.498 0.416 0.612 0.541 
0.196 0.125 0.388 0.376 
0.388 0.416 0.541 0.459 
0.529 0.376 0.561 0.498 
0.388 0.333 0.525 0.498 
0.557 0.541 0.847 1.0 
0.776 0.416 0.831 0.831 
0.612 0.416 0.812 0.875 
0.165 0.208 0.592 0.667 
0.667 0.208 0.812 0.71 
0.612 0.502 0.694 0.792 
0.694 0.416 0.761 0.831 
0.416 0.333 0.694 0.957 
0.612 0.416 0.761 0.71 
0.945 0.251 1.0 0.918 
0.722 0.502 0.796 0.918 
0.945 0.333 0.965 0.792 
0.667 0.541 0.796 0.831 
0.529 0.333 0.643 0.71 
0.584 0.333 0.78 0.831 
0.863 0.333 0.863 0.749 
0.584 0.333 0.78 0.875 
0.498 0.251 0.78 0.541 
0.557 0.584 0.78 0.957 
0.471 0.416 0.643 0.71 
0.667 0.459 0.78 0.957 
0.416 0.29 0.694 0.749 
0.667 0.541 0.796 1.0 
0.557 0.208 0.678 0.749 
0.529 0.584 0.745 0.918 
0.416 0.29 0.694 0.749 
0.557 0.376 0.78 0.71 
0.918 0.416 0.949 0.831 
0.835 0.376 0.898 0.71 
0.804 0.667 0.863 1.0 
0.584 0.29 0.729 0.749 
0.388 0.208 0.678 0.792 
0.584 0.502 0.729 0.918 
0.945 0.749 0.965 0.875 
0.471 0.082 0.678 0.584 
0.361 0.333 0.663 0.792 
0.557 0.29 0.663 0.71 
0.804 0.502 0.847 0.71 
0.498 0.416 0.51 0.71 
0.804 0.416 0.812 0.624 
1.0 0.749 0.914 0.792 
0.557 0.333 0.694 0.584 
0.945 0.416 0.863 0.918 
0.584 0.459 0.761 0.71 
0.722 0.459 0.745 0.831 
0.722 0.459 0.694 0.918 
0.694 0.502 0.831 0.918 
0.667 0.416 0.714 0.918 
0.612 0.416 0.714 0.792 
0.443 0.416 0.694 0.71 
Teaching Patterns
1.0 0.0 0.0 
1.0 0.0 0.0 
1.0 0.0 0.0 
1.0 0.0 0.0 
1.0 0.0 0.0 
1.0 0.0 0.0 
1.0 0.0 0.0 
1.0 0.0 0.0 
1.0 0.0 0.0 
1.0 0.0 0.0 
1.0 0.0 0.0 
1.0 0.0 0.0 
1.0 0.0 0.0 
1.0 0.0 0.0 
1.0 0.0 0.0 
1.0 0.0 0.0 
1.0 0.0 0.0 
1.0 0.0 0.0 
1.0 0.0 0.0 
1.0 0.0 0.0 
1.0 0.0 0.0 
1.0 0.0 0.0 
1.0 0.0 0.0 
1.0 0.0 0.0 
1.0 0.0 0.0 
1.0 0.0 0.0 
1.0 0.0 0.0 
1.0 0.0 0.0 
1.0 0.0 0.0 
1.0 0.0 0.0 
1.0 0.0 0.0 
1.0 0.0 0.0 
1.0 0.0 0.0 
1.0 0.0 0.0 
1.0 0.0 0.0 
1.0 0.0 0.0 
1.0 0.0 0.0 
1.0 0.0 0.0 
1.0 0.0 0.0 
1.0 0.0 0.0 
1.0 0.0 0.0 
1.0 0.0 0.0 
1.0 0.0 0.0 
1.0 0.0 0.0 
1.0 0.0 0.0 
1.0 0.0 0.0 
1.0 0.0 0.0 
1.0 0.0 0.0 
1.0 0.0 0.0 
1.0 0.0 0.0 
0.0 1.0 0.0 
0.0 1.0 0.0 
0.0 1.0 0.0 
0.0 1.0 0.0 
0.0 1.0 0.0 
0.0 1.0 0.0 
0.0 1.0 0.0 
0.0 1.0 0.0 
0.0 1.0 0.0 
0.0 1.0 0.0 
0.0 1.0 0.0 
0.0 1.0 0.0 
0.0 1.0 0.0 
0.0 1.0 0.0 
0.0 1.0 0.0 
0.0 1.0 0.0 
0.0 1.0 0.0 
0.0 1.0 0.0 
0.0 1.0 0.0 
0.0 1.0 0.0 
0.0 1.0 0.0 
0.0 1.0 0.0 
0.0 1.0 0.0 
0.0 1.0 0.0 
0.0 1.0 0.0 
0.0 1.0 0.0 
0.0 1.0 0.0 
0.0 1.0 0.0 
0.0 1.0 0.0 
0.0 1.0 0.0 
0.0 1.0 0.0 
0.0 1.0 0.0 
0.0 1.0 0.0 
0.0 1.0 0.0 
0.0 1.0 0.0 
0.0 1.0 0.0 
0.0 1.0 0.0 
0.0 1.0 0.0 
0.0 1.0 0.0 
0.0 1.0 0.0 
0.0 1.0 0.0 
0.0 1.0 0.0 
0.0 1.0 0.0 
0.0 1.0 0.0 
0.0 1.0 0.0 
0.0 1.0 0.0 
0.0 1.0 0.0 
0.0 1.0 0.0 
0.0 1.0 0.0 
0.0 1.0 0.0 
0.0 0.0 1.0 
0.0 0.0 1.0 
0.0 0.0 1.0 
0.0 0.0 1.0 
0.0 0.0 1.0 
0.0 0.0 1.0 
0.0 0.0 1.0 
0.0 0.0 1.0 
0.0 0.0 1.0 
0.0 0.0 1.0 
0.0 0.0 1.0 
0.0 0.0 1.0 
0.0 0.0 1.0 
0.0 0.0 1.0 
0.0 0.0 1.0 
0.0 0.0 1.0 
0.0 0.0 1.0 
0.0 0.0 1.0 
0.0 0.0 1.0 
0.0 0.0 1.0 
0.0 0.0 1.0 
0.0 0.0 1.0 
0.0 0.0 1.0 
0.0 0.0 1.0 
0.0 0.0 1.0 
0.0 0.0 1.0 
0.0 0.0 1.0 
0.0 0.0 1.0 
0.0 0.0 1.0 
0.0 0.0 1.0 
0.0 0.0 1.0 
0.0 0.0 1.0 
0.0 0.0 1.0 
0.0 0.0 1.0 
0.0 0.0 1.0 
0.0 0.0 1.0 
0.0 0.0 1.0 
0.0 0.0 1.0 
0.0 0.0 1.0 
0.0 0.0 1.0 
0.0 0.0 1.0 
0.0 0.0 1.0 
0.0 0.0 1.0 
0.0 0.0 1.0 
0.0 0.0 1.0 
0.0 0.0 1.0 
0.0 0.0 1.0 
0.0 0.0 1.0 
0.0 0.0 1.0 
0.0 0.0 1.0 
Learning : 0.05
Momentum : 0.8999999761581421
Epoch: 100, Error: 0.026366895489711085
Epoch: 200, Error: 0.01811969451256914
Epoch: 300, Error: 0.01615335774088421
Epoch: 400, Error: 0.015139123098966312
Epoch: 500, Error: 0.01469556411347432
Epoch: 600, Error: 0.013995344075202129
Epoch: 700, Error: 0.014056326135603987
Epoch: 800, Error: 0.013497378601202344
Epoch: 900, Error: 0.01337081552999306
Epoch: 1000, Error: 0.013368982487368303
Epoch: 1100, Error: 0.013150923678977758
Epoch: 1200, Error: 0.013050254188881144
Epoch: 1300, Error: 0.012829524706351302
Epoch: 1400, Error: 0.012996173776879522
Epoch: 1500, Error: 0.012786262933565764
Epoch: 1600, Error: 0.012872148633048124
Epoch: 1700, Error: 0.01265730026581006
Epoch: 1800, Error: 0.01292777830148407
Epoch: 1900, Error: 0.01292277825576407
Epoch: 2000, Error: 0.012641753620577088
Epoch: 2100, Error: 0.012506078551136607
Epoch: 2200, Error: 0.012455789022415942
Epoch: 2300, Error: 0.012382982147738177
Epoch: 2400, Error: 0.012428320001098494
Epoch: 2500, Error: 0.012480556119035174
Epoch: 2600, Error: 0.012491651713134589
Epoch: 2700, Error: 0.012383497138979018
Epoch: 2800, Error: 0.01242574759631342
Epoch: 2900, Error: 0.012399060590012754
Epoch: 3000, Error: 0.012366252792701368
Epoch: 3100, Error: 0.012423665049753877
Epoch: 3200, Error: 0.012393032527580072
Epoch: 3300, Error: 0.012411979418665798
Epoch: 3400, Error: 0.012380120010279168
Epoch: 3500, Error: 0.012384232528283657
Epoch: 3600, Error: 0.01233446731993555
Epoch: 3700, Error: 0.012311481463467538
Epoch: 3800, Error: 0.012665810211754586
Epoch: 3900, Error: 0.012347844360638844
Epoch: 4000, Error: 0.012209703696531413
Epoch: 4100, Error: 0.012185875970170543
Epoch: 4200, Error: 0.012184440382508124
Epoch: 4300, Error: 0.012189475360295882
Epoch: 4400, Error: 0.01225408042628626
Epoch: 4500, Error: 0.012281107871563259
Epoch: 4600, Error: 0.012212583471700738
Epoch: 4700, Error: 0.012260489428763122
Epoch: 4800, Error: 0.012145528724827343
Epoch: 4900, Error: 0.012191421044862604
Epoch: 5000, Error: 0.01227750006733021
Epoch: 5100, Error: 0.012274433998462479
Epoch: 5200, Error: 0.012119836338578207
Epoch: 5300, Error: 0.012112404293136678
Epoch: 5400, Error: 0.012052763682795654
Epoch: 5500, Error: 0.012014798623607825
Epoch: 5600, Error: 0.011954248669087123
Epoch: 5700, Error: 0.011980190774658811
Epoch: 5800, Error: 0.011916028460470029
Epoch: 5900, Error: 0.011940610530146743
Epoch: 6000, Error: 0.011996817065400713
Epoch: 6100, Error: 0.011915561945560644
Epoch: 6200, Error: 0.011943943541177168
Epoch: 6300, Error: 0.011827192544760706
Epoch: 6400, Error: 0.011917349946328535
Epoch: 6500, Error: 0.011753093586984394
Epoch: 6600, Error: 0.011764453576934465
Epoch: 6700, Error: 0.011694696960366511
Epoch: 6800, Error: 0.011659790738598711
Epoch: 6900, Error: 0.011679261189983211
Epoch: 7000, Error: 0.011614744884350674
Epoch: 7100, Error: 0.011631060037263127
Epoch: 7200, Error: 0.011566142402028997
Epoch: 7300, Error: 0.01151068246525911
Epoch: 7400, Error: 0.011474717927629866
Epoch: 7500, Error: 0.011410247824046097
Epoch: 7600, Error: 0.011362832461361001
Epoch: 7700, Error: 0.011310242857210958
Epoch: 7800, Error: 0.011288728813499259
Epoch: 7900, Error: 0.011214369639391071
Epoch: 8000, Error: 0.011152422580773935
Epoch: 8100, Error: 0.011258127444717833
Epoch: 8200, Error: 0.011088340136001228
Epoch: 8300, Error: 0.011015601734425019
Epoch: 8400, Error: 0.011109746819857727
Epoch: 8500, Error: 0.010912646459151472
Epoch: 8600, Error: 0.010939683873830255
Epoch: 8700, Error: 0.010922397818817773
Epoch: 8800, Error: 0.010908168151201323
Epoch: 8900, Error: 0.010734667900093005
Epoch: 9000, Error: 0.010703326592231211
Epoch: 9100, Error: 0.010601969864685774
Epoch: 9200, Error: 0.010533999963294167
Epoch: 9300, Error: 0.010475802000787258
Epoch: 9400, Error: 0.010381401772675054
Epoch: 9500, Error: 0.010359113203646337
Epoch: 9600, Error: 0.010259030425147845
Epoch: 9700, Error: 0.010187761851689703
Epoch: 9800, Error: 0.010065485950066923
Epoch: 9900, Error: 0.010037623267515295
Epoch: 10000, Error: 0.009927396890617354
Epoch: 10100, Error: 0.01009791812429323
Epoch: 10200, Error: 0.009748622263155355
Epoch: 10300, Error: 0.00964553732168082
Epoch: 10400, Error: 0.009632450644181896
Epoch: 10500, Error: 0.009517449162964464
Epoch: 10600, Error: 0.009447416907365357
Epoch: 10700, Error: 0.009431331190577874
Epoch: 10800, Error: 0.009249464058715852
Epoch: 10900, Error: 0.009183234851233976
Epoch: 11000, Error: 0.009061528867367278
Epoch: 11100, Error: 0.009030063039198066
Epoch: 11200, Error: 0.008872746648316622
Epoch: 11300, Error: 0.00883830406783837
Epoch: 11400, Error: 0.008760442911292072
Epoch: 11500, Error: 0.008562486215158852
Epoch: 11600, Error: 0.008443037877020911
Epoch: 11700, Error: 0.008406124779824128
Epoch: 11800, Error: 0.00825743290429886
Epoch: 11900, Error: 0.008139838675934452
Epoch: 12000, Error: 0.008045042384598584
Epoch: 12100, Error: 0.00794038728040252
Epoch: 12200, Error: 0.007905181260161483
Epoch: 12300, Error: 0.007831523521377344
Epoch: 12400, Error: 0.007726666732863087
Epoch: 12500, Error: 0.00763854167401533
Epoch: 12600, Error: 0.007599881095387955
Epoch: 12700, Error: 0.007447715766381215
Epoch: 12800, Error: 0.007363293695758029
Epoch: 12900, Error: 0.007368082465511965
Epoch: 13000, Error: 0.0072759950144433965
Epoch: 13100, Error: 0.007197532252958873
Epoch: 13200, Error: 0.007163035327172762
Epoch: 13300, Error: 0.00712881442431202
Epoch: 13400, Error: 0.00705139071221361
Epoch: 13500, Error: 0.007065339282140897
Epoch: 13600, Error: 0.007010271028743497
Epoch: 13700, Error: 0.006942237666178221
Epoch: 13800, Error: 0.006880270842398747
Epoch: 13900, Error: 0.006834301252444134
Epoch: 14000, Error: 0.006817713143837249
Epoch: 14100, Error: 0.006745621786956018
Epoch: 14200, Error: 0.006702052073778932
Epoch: 14300, Error: 0.006666678839200296
Epoch: 14400, Error: 0.006637212859611996
Epoch: 14500, Error: 0.006604211721134196
Epoch: 14600, Error: 0.006570425964485682
Epoch: 14700, Error: 0.006544036491199998
Epoch: 14800, Error: 0.006527001270048655
Epoch: 14900, Error: 0.006496103350530255
Epoch: 15000, Error: 0.006500618707407382
Epoch: 15100, Error: 0.0064742329250830335
Epoch: 15200, Error: 0.006464050332421025
Epoch: 15300, Error: 0.006445039301304844
Epoch: 15400, Error: 0.006428305653289002
Epoch: 15500, Error: 0.006422375454961867
Epoch: 15600, Error: 0.006406058465078859
Epoch: 15700, Error: 0.00640993912950519
Epoch: 15800, Error: 0.006402352112051613
Epoch: 15900, Error: 0.006417796142994226
Epoch: 16000, Error: 0.006457193131145887
Epoch: 16100, Error: 0.006452455363216
Epoch: 16200, Error: 0.006430558486273304
Epoch: 16300, Error: 0.006390352839041784
Epoch: 16400, Error: 0.00637724338408402
Epoch: 16500, Error: 0.006343266772812963
Epoch: 16600, Error: 0.006325364794345839
Epoch: 16700, Error: 0.006311988807039097
Epoch: 16800, Error: 0.006345182106951599
Epoch: 16900, Error: 0.006330757874697743
Epoch: 17000, Error: 0.006331412246266708
Epoch: 17100, Error: 0.006352514603390878
Epoch: 17200, Error: 0.006379359214370313
Epoch: 17300, Error: 0.006341617611350048
Epoch: 17400, Error: 0.0063333949553048005
Epoch: 17500, Error: 0.0063373755727718604
Epoch: 17600, Error: 0.006318841655736915
Epoch: 17700, Error: 0.006294495984013256
Epoch: 17800, Error: 0.006295345476493243
Epoch: 17900, Error: 0.006316925895155198
Epoch: 18000, Error: 0.006277520304571955
Epoch: 18100, Error: 0.00629180930445311
Epoch: 18200, Error: 0.006276423697171566
Epoch: 18300, Error: 0.006284337639764411
Epoch: 18400, Error: 0.006257399634619734
Epoch: 18500, Error: 0.006262261768309756
Epoch: 18600, Error: 0.006246618089146112
Epoch: 18700, Error: 0.006251263238508042
Epoch: 18800, Error: 0.006239170264788689
Epoch: 18900, Error: 0.006245414777064014
Epoch: 19000, Error: 0.006262622647543208
Epoch: 19100, Error: 0.006281612192064542
Epoch: 19200, Error: 0.006266961722952229
Epoch: 19300, Error: 0.006286298450969259
Epoch: 19400, Error: 0.006261665798405513
Epoch: 19500, Error: 0.006281718587069223
Epoch: 19600, Error: 0.0062740971203896385
Epoch: 19700, Error: 0.00628478205551801
Epoch: 19800, Error: 0.006278738717195652
Epoch: 19900, Error: 0.006299091568387466
Epoch: 20000, Error: 0.0062454504635305426
Epoch: 20100, Error: 0.006273359503674184
Epoch: 20200, Error: 0.006250418076432172
Finished
Input Patterns
0.224 0.624 0.067 0.043 
0.11 0.502 0.051 0.043 
0.196 0.667 0.067 0.043 
0.055 0.584 0.067 0.082 
0.027 0.376 0.067 0.043 
0.306 0.71 0.086 0.043 
0.137 0.416 0.067 0.0 
0.416 0.831 0.035 0.043 
0.306 0.792 0.051 0.125 
0.388 0.749 0.118 0.082 
0.306 0.584 0.118 0.043 
0.082 0.667 0.0 0.043 
0.137 0.584 0.153 0.043 
0.196 0.584 0.102 0.125 
0.251 0.584 0.067 0.043 
0.137 0.459 0.102 0.043 
0.251 0.875 0.086 0.0 
0.165 0.459 0.086 0.043 
0.333 0.624 0.051 0.043 
0.027 0.416 0.051 0.043 
0.196 0.624 0.051 0.082 
0.027 0.502 0.051 0.043 
0.224 0.749 0.153 0.125 
0.224 0.749 0.102 0.043 
0.278 0.71 0.086 0.043 
0.165 0.416 0.067 0.043 
0.082 0.459 0.086 0.043 
0.306 0.792 0.118 0.125 
0.196 0.584 0.086 0.043 
0.165 0.459 0.086 0.0 
0.137 0.584 0.102 0.043 
0.0 0.416 0.016 0.0 
0.388 1.0 0.086 0.125 
0.224 0.624 0.067 0.082 
0.224 0.749 0.086 0.082 
0.224 0.71 0.086 0.125 
0.224 0.541 0.118 0.165 
0.196 0.416 0.102 0.043 
0.251 0.624 0.086 0.043 
0.11 0.502 0.102 0.043 
0.306 0.584 0.086 0.125 
0.333 0.918 0.067 0.043 
0.196 0.502 0.035 0.043 
0.165 0.667 0.067 0.0 
0.224 0.584 0.086 0.043 
0.055 0.125 0.051 0.082 
0.196 0.624 0.102 0.208 
0.137 0.416 0.067 0.082 
0.082 0.502 0.067 0.043 
0.196 0.541 0.067 0.043 
0.749 0.502 0.627 0.541 
0.722 0.459 0.663 0.584 
0.612 0.333 0.612 0.584 
0.557 0.541 0.627 0.624 
0.639 0.376 0.612 0.498 
0.196 0.0 0.424 0.376 
0.471 0.082 0.51 0.376 
0.361 0.376 0.439 0.498 
0.361 0.416 0.592 0.584 
0.529 0.082 0.592 0.584 
0.443 0.502 0.643 0.459 
0.557 0.208 0.663 0.584 
0.584 0.376 0.561 0.498 
0.694 0.333 0.643 0.541 
0.471 0.376 0.592 0.584 
0.333 0.169 0.475 0.416 
0.416 0.29 0.49 0.459 
0.306 0.416 0.592 0.584 
0.667 0.459 0.627 0.584 
0.361 0.416 0.525 0.498 
0.333 0.251 0.576 0.459 
0.416 0.251 0.51 0.459 
0.361 0.29 0.541 0.498 
0.388 0.376 0.541 0.498 
0.224 0.208 0.337 0.416 
0.584 0.502 0.592 0.584 
0.333 0.125 0.51 0.498 
0.388 0.333 0.592 0.498 
0.165 0.169 0.388 0.376 
0.251 0.29 0.49 0.541 
0.443 0.416 0.541 0.584 
0.498 0.376 0.627 0.541 
0.667 0.459 0.576 0.541 
0.416 0.29 0.525 0.376 
0.361 0.208 0.49 0.416 
0.498 0.333 0.51 0.498 
0.498 0.333 0.627 0.459 
0.639 0.416 0.576 0.541 
0.667 0.416 0.678 0.667 
0.388 0.251 0.424 0.376 
0.333 0.169 0.459 0.376 
0.471 0.29 0.694 0.624 
0.471 0.584 0.592 0.624 
0.557 0.125 0.576 0.498 
0.333 0.208 0.51 0.498 
0.498 0.416 0.612 0.541 
0.196 0.125 0.388 0.376 
0.388 0.416 0.541 0.459 
0.529 0.376 0.561 0.498 
0.388 0.333 0.525 0.498 
0.557 0.541 0.847 1.0 
0.776 0.416 0.831 0.831 
0.612 0.416 0.812 0.875 
0.165 0.208 0.592 0.667 
0.667 0.208 0.812 0.71 
0.612 0.502 0.694 0.792 
0.694 0.416 0.761 0.831 
0.416 0.333 0.694 0.957 
0.612 0.416 0.761 0.71 
0.945 0.251 1.0 0.918 
0.722 0.502 0.796 0.918 
0.945 0.333 0.965 0.792 
0.667 0.541 0.796 0.831 
0.529 0.333 0.643 0.71 
0.584 0.333 0.78 0.831 
0.863 0.333 0.863 0.749 
0.584 0.333 0.78 0.875 
0.498 0.251 0.78 0.541 
0.557 0.584 0.78 0.957 
0.471 0.416 0.643 0.71 
0.667 0.459 0.78 0.957 
0.416 0.29 0.694 0.749 
0.667 0.541 0.796 1.0 
0.557 0.208 0.678 0.749 
0.529 0.584 0.745 0.918 
0.416 0.29 0.694 0.749 
0.557 0.376 0.78 0.71 
0.918 0.416 0.949 0.831 
0.835 0.376 0.898 0.71 
0.804 0.667 0.863 1.0 
0.584 0.29 0.729 0.749 
0.388 0.208 0.678 0.792 
0.584 0.502 0.729 0.918 
0.945 0.749 0.965 0.875 
0.471 0.082 0.678 0.584 
0.361 0.333 0.663 0.792 
0.557 0.29 0.663 0.71 
0.804 0.502 0.847 0.71 
0.498 0.416 0.51 0.71 
0.804 0.416 0.812 0.624 
1.0 0.749 0.914 0.792 
0.557 0.333 0.694 0.584 
0.945 0.416 0.863 0.918 
0.584 0.459 0.761 0.71 
0.722 0.459 0.745 0.831 
0.722 0.459 0.694 0.918 
0.694 0.502 0.831 0.918 
0.667 0.416 0.714 0.918 
0.612 0.416 0.714 0.792 
0.443 0.416 0.694 0.71 
Teaching Patterns
1.0 0.0 0.0 
1.0 0.0 0.0 
1.0 0.0 0.0 
1.0 0.0 0.0 
1.0 0.0 0.0 
1.0 0.0 0.0 
1.0 0.0 0.0 
1.0 0.0 0.0 
1.0 0.0 0.0 
1.0 0.0 0.0 
1.0 0.0 0.0 
1.0 0.0 0.0 
1.0 0.0 0.0 
1.0 0.0 0.0 
1.0 0.0 0.0 
1.0 0.0 0.0 
1.0 0.0 0.0 
1.0 0.0 0.0 
1.0 0.0 0.0 
1.0 0.0 0.0 
1.0 0.0 0.0 
1.0 0.0 0.0 
1.0 0.0 0.0 
1.0 0.0 0.0 
1.0 0.0 0.0 
1.0 0.0 0.0 
1.0 0.0 0.0 
1.0 0.0 0.0 
1.0 0.0 0.0 
1.0 0.0 0.0 
1.0 0.0 0.0 
1.0 0.0 0.0 
1.0 0.0 0.0 
1.0 0.0 0.0 
1.0 0.0 0.0 
1.0 0.0 0.0 
1.0 0.0 0.0 
1.0 0.0 0.0 
1.0 0.0 0.0 
1.0 0.0 0.0 
1.0 0.0 0.0 
1.0 0.0 0.0 
1.0 0.0 0.0 
1.0 0.0 0.0 
1.0 0.0 0.0 
1.0 0.0 0.0 
1.0 0.0 0.0 
1.0 0.0 0.0 
1.0 0.0 0.0 
1.0 0.0 0.0 
0.0 1.0 0.0 
0.0 1.0 0.0 
0.0 1.0 0.0 
0.0 1.0 0.0 
0.0 1.0 0.0 
0.0 1.0 0.0 
0.0 1.0 0.0 
0.0 1.0 0.0 
0.0 1.0 0.0 
0.0 1.0 0.0 
0.0 1.0 0.0 
0.0 1.0 0.0 
0.0 1.0 0.0 
0.0 1.0 0.0 
0.0 1.0 0.0 
0.0 1.0 0.0 
0.0 1.0 0.0 
0.0 1.0 0.0 
0.0 1.0 0.0 
0.0 1.0 0.0 
0.0 1.0 0.0 
0.0 1.0 0.0 
0.0 1.0 0.0 
0.0 1.0 0.0 
0.0 1.0 0.0 
0.0 1.0 0.0 
0.0 1.0 0.0 
0.0 1.0 0.0 
0.0 1.0 0.0 
0.0 1.0 0.0 
0.0 1.0 0.0 
0.0 1.0 0.0 
0.0 1.0 0.0 
0.0 1.0 0.0 
0.0 1.0 0.0 
0.0 1.0 0.0 
0.0 1.0 0.0 
0.0 1.0 0.0 
0.0 1.0 0.0 
0.0 1.0 0.0 
0.0 1.0 0.0 
0.0 1.0 0.0 
0.0 1.0 0.0 
0.0 1.0 0.0 
0.0 1.0 0.0 
0.0 1.0 0.0 
0.0 1.0 0.0 
0.0 1.0 0.0 
0.0 1.0 0.0 
0.0 1.0 0.0 
0.0 0.0 1.0 
0.0 0.0 1.0 
0.0 0.0 1.0 
0.0 0.0 1.0 
0.0 0.0 1.0 
0.0 0.0 1.0 
0.0 0.0 1.0 
0.0 0.0 1.0 
0.0 0.0 1.0 
0.0 0.0 1.0 
0.0 0.0 1.0 
0.0 0.0 1.0 
0.0 0.0 1.0 
0.0 0.0 1.0 
0.0 0.0 1.0 
0.0 0.0 1.0 
0.0 0.0 1.0 
0.0 0.0 1.0 
0.0 0.0 1.0 
0.0 0.0 1.0 
0.0 0.0 1.0 
0.0 0.0 1.0 
0.0 0.0 1.0 
0.0 0.0 1.0 
0.0 0.0 1.0 
0.0 0.0 1.0 
0.0 0.0 1.0 
0.0 0.0 1.0 
0.0 0.0 1.0 
0.0 0.0 1.0 
0.0 0.0 1.0 
0.0 0.0 1.0 
0.0 0.0 1.0 
0.0 0.0 1.0 
0.0 0.0 1.0 
0.0 0.0 1.0 
0.0 0.0 1.0 
0.0 0.0 1.0 
0.0 0.0 1.0 
0.0 0.0 1.0 
0.0 0.0 1.0 
0.0 0.0 1.0 
0.0 0.0 1.0 
0.0 0.0 1.0 
0.0 0.0 1.0 
0.0 0.0 1.0 
0.0 0.0 1.0 
0.0 0.0 1.0 
0.0 0.0 1.0 
0.0 0.0 1.0 
Learning : 0.05
Momentum : 0.8999999761581421
Epoch: 100, Error: 0.0231750706355645
Epoch: 200, Error: 0.016989145299410664
Epoch: 300, Error: 0.014944705777984301
Epoch: 400, Error: 0.014003783579098662
Epoch: 500, Error: 0.013434629987018483
Epoch: 600, Error: 0.01305977606267318
Epoch: 700, Error: 0.012872894408931879
Epoch: 800, Error: 0.012711229844678536
Epoch: 900, Error: 0.01249952552013335
Epoch: 1000, Error: 0.012407918475876578
Epoch: 1100, Error: 0.012400547147876287
Epoch: 1200, Error: 0.012342203817059355
Epoch: 1300, Error: 0.012298892276080222
Epoch: 1400, Error: 0.012227557517495396
Epoch: 1500, Error: 0.012265739320521671
Epoch: 1600, Error: 0.012313105284002892
Epoch: 1700, Error: 0.012128232058553842
Epoch: 1800, Error: 0.012139014086600392
Epoch: 1900, Error: 0.012178511439529048
Epoch: 2000, Error: 0.012089277723034107
Epoch: 2100, Error: 0.011974003871886348
Epoch: 2200, Error: 0.012093183622256073
Epoch: 2300, Error: 0.011966517643212894
Epoch: 2400, Error: 0.011952033026906743
Epoch: 2500, Error: 0.012014032495831406
Epoch: 2600, Error: 0.01198367681133162
Epoch: 2700, Error: 0.012072111288797416
Epoch: 2800, Error: 0.01195712518524842
Epoch: 2900, Error: 0.011920125504092653
Epoch: 3000, Error: 0.011977361343574165
Epoch: 3100, Error: 0.01189182271051666
Epoch: 3200, Error: 0.01188971671837421
Epoch: 3300, Error: 0.012122331598899146
Epoch: 3400, Error: 0.01186638069450746
Epoch: 3500, Error: 0.011863196935225194
Epoch: 3600, Error: 0.011903482733599773
Epoch: 3700, Error: 0.011848422011933058
Epoch: 3800, Error: 0.011897037065931345
Epoch: 3900, Error: 0.01210348774540531
Epoch: 4000, Error: 0.011894603373959783
Epoch: 4100, Error: 0.011857447004966958
Epoch: 4200, Error: 0.011834732946998138
Epoch: 4300, Error: 0.012343421107791014
Epoch: 4400, Error: 0.011822680575965371
Epoch: 4500, Error: 0.012036577629345025
Epoch: 4600, Error: 0.011869360304086743
Epoch: 4700, Error: 0.01200869266935703
Epoch: 4800, Error: 0.011845372010124358
Epoch: 4900, Error: 0.012099309005324943
Epoch: 5000, Error: 0.01187807145604455
Epoch: 5100, Error: 0.011825862801787986
Epoch: 5200, Error: 0.011879868713151644
Epoch: 5300, Error: 0.011745105371668374
Epoch: 5400, Error: 0.011732020589776883
Epoch: 5500, Error: 0.011744910180996377
Epoch: 5600, Error: 0.011755277409284316
Epoch: 5700, Error: 0.0118595214016548
Epoch: 5800, Error: 0.012398879216290971
Epoch: 5900, Error: 0.011912965968632968
Epoch: 6000, Error: 0.011757968606650907
Epoch: 6100, Error: 0.012030098627311964
Epoch: 6200, Error: 0.0118527267540971
Epoch: 6300, Error: 0.011705438258695335
Epoch: 6400, Error: 0.011651205050385456
Epoch: 6500, Error: 0.011632227557211291
Epoch: 6600, Error: 0.011688623473103808
Epoch: 6700, Error: 0.011686718652064148
Epoch: 6800, Error: 0.011697439603507222
Epoch: 6900, Error: 0.011717834787343574
Epoch: 7000, Error: 0.01178880852178916
Epoch: 7100, Error: 0.011793373376497258
Epoch: 7200, Error: 0.011695795385725398
Epoch: 7300, Error: 0.011682727064603307
Epoch: 7400, Error: 0.011748578466074598
Epoch: 7500, Error: 0.011686345017145074
Epoch: 7600, Error: 0.011645289950306373
Epoch: 7700, Error: 0.011628107517570405
Epoch: 7800, Error: 0.011639585330224146
Epoch: 7900, Error: 0.011573986282156817
Epoch: 8000, Error: 0.011536944771466653
Epoch: 8100, Error: 0.011621059675957932
Epoch: 8200, Error: 0.011578294145106534
Epoch: 8300, Error: 0.011621981998785448
Epoch: 8400, Error: 0.01173474057325897
Epoch: 8500, Error: 0.01194573976992333
Epoch: 8600, Error: 0.011765683539858667
Epoch: 8700, Error: 0.011744844322245299
Epoch: 8800, Error: 0.011719410772024956
Epoch: 8900, Error: 0.011745052268461464
Epoch: 9000, Error: 0.011728946455168386
Epoch: 9100, Error: 0.011649261367555135
Epoch: 9200, Error: 0.011684587122663806
Epoch: 9300, Error: 0.011714610200686836
Epoch: 9400, Error: 0.011678603906371637
Epoch: 9500, Error: 0.0117687438423914
Epoch: 9600, Error: 0.011924508820270447
Epoch: 9700, Error: 0.011645793895511338
Epoch: 9800, Error: 0.011654468043109541
Epoch: 9900, Error: 0.011714071907691727
Epoch: 10000, Error: 0.011664943229407268
Epoch: 10100, Error: 0.011716391599875071
Epoch: 10200, Error: 0.011705360272624804
Epoch: 10300, Error: 0.01172598911072803
Epoch: 10400, Error: 0.011646196923975585
Epoch: 10500, Error: 0.011733925293429976
Epoch: 10600, Error: 0.011637496453203292
Epoch: 10700, Error: 0.011637924852061894
Epoch: 10800, Error: 0.011713910256063803
Epoch: 10900, Error: 0.011700723655698589
Epoch: 11000, Error: 0.011699056201046217
Epoch: 11100, Error: 0.011772647814189373
Epoch: 11200, Error: 0.011868044084104369
Epoch: 11300, Error: 0.011748592589426586
Epoch: 11400, Error: 0.011654210341423043
Epoch: 11500, Error: 0.011666061265665538
Epoch: 11600, Error: 0.011720788384708618
Epoch: 11700, Error: 0.011634505595916765
Epoch: 11800, Error: 0.01165663028973119
Epoch: 11900, Error: 0.011620643750891266
Epoch: 12000, Error: 0.01173380737904924
Epoch: 12100, Error: 0.011599179819741434
Epoch: 12200, Error: 0.011546852514143637
Epoch: 12300, Error: 0.011566673573417547
Epoch: 12400, Error: 0.01162484092179328
Epoch: 12500, Error: 0.011666636801836768
Epoch: 12600, Error: 0.011726551248796808
Epoch: 12700, Error: 0.011599738524526046
Epoch: 12800, Error: 0.011686942448529272
Epoch: 12900, Error: 0.011624184097781279
Epoch: 13000, Error: 0.01159445514241701
Epoch: 13100, Error: 0.011496909055600664
Epoch: 13200, Error: 0.01156195160759312
Epoch: 13300, Error: 0.01151146903533406
Epoch: 13400, Error: 0.011477762546382832
Epoch: 13500, Error: 0.011593400174145
Epoch: 13600, Error: 0.011493573623645807
Epoch: 13700, Error: 0.01145914223965575
Epoch: 13800, Error: 0.011563299932127834
Epoch: 13900, Error: 0.011420316341392603
Epoch: 14000, Error: 0.011471656852308844
Epoch: 14100, Error: 0.011426512096577655
Epoch: 14200, Error: 0.011605311293152351
Epoch: 14300, Error: 0.011399730962447986
Epoch: 14400, Error: 0.011397386274845937
Epoch: 14500, Error: 0.011426196938559544
Epoch: 14600, Error: 0.011387897294711893
Epoch: 14700, Error: 0.01132937675098383
Epoch: 14800, Error: 0.011360130513943481
Epoch: 14900, Error: 0.011361577013543523
Epoch: 15000, Error: 0.011299750672758057
Epoch: 15100, Error: 0.011262604513110683
Epoch: 15200, Error: 0.011240505635463397
Epoch: 15300, Error: 0.011281031548916987
Epoch: 15400, Error: 0.011244049371406052
Epoch: 15500, Error: 0.01122258635108662
Epoch: 15600, Error: 0.011277897361006546
Epoch: 15700, Error: 0.011202536449235788
Epoch: 15800, Error: 0.011211329113013377
Epoch: 15900, Error: 0.011254116869593392
Epoch: 16000, Error: 0.011188113453716453
Epoch: 16100, Error: 0.011217079757413987
Epoch: 16200, Error: 0.011239240352598592
Epoch: 16300, Error: 0.011114520798824797
Epoch: 16400, Error: 0.011277952907747852
Epoch: 16500, Error: 0.011087910452771783
Epoch: 16600, Error: 0.011050107932463625
Epoch: 16700, Error: 0.011090834967198974
Epoch: 16800, Error: 0.01105794683564795
Epoch: 16900, Error: 0.011010136651148349
Epoch: 17000, Error: 0.011023841407916835
Epoch: 17100, Error: 0.011000655600311394
Epoch: 17200, Error: 0.010932870498506492
Epoch: 17300, Error: 0.010984199111216552
Epoch: 17400, Error: 0.010929512721810442
Epoch: 17500, Error: 0.010900832664820358
Epoch: 17600, Error: 0.010939648825137246
Epoch: 17700, Error: 0.010847781198472644
Epoch: 17800, Error: 0.01082383605719971
Epoch: 17900, Error: 0.01077070420762795
Epoch: 18000, Error: 0.010768618284342144
Epoch: 18100, Error: 0.010715205239269783
Epoch: 18200, Error: 0.010684363348721361
Epoch: 18300, Error: 0.010642420883012479
Epoch: 18400, Error: 0.010618477912707246
Epoch: 18500, Error: 0.010591007479233803
Epoch: 18600, Error: 0.010495114170783432
Epoch: 18700, Error: 0.010483064196070518
Epoch: 18800, Error: 0.010439140611977498
Epoch: 18900, Error: 0.010443650390587486
Epoch: 19000, Error: 0.010412512211895701
Epoch: 19100, Error: 0.01027760422604793
Epoch: 19200, Error: 0.010290353151035976
Epoch: 19300, Error: 0.010206957599481776
Epoch: 19400, Error: 0.010100303516431586
Epoch: 19500, Error: 0.010073855250149241
Epoch: 19600, Error: 0.010063405753684947
Epoch: 19700, Error: 0.009975358880117056
Epoch: 19800, Error: 0.009880104636831257
Epoch: 19900, Error: 0.009826967730467198
Epoch: 20000, Error: 0.0097388685348958
Epoch: 20100, Error: 0.009696855011972186
Epoch: 20200, Error: 0.009603728990642886
Epoch: 20300, Error: 0.00960553871317313
Epoch: 20400, Error: 0.009497659465993223
Epoch: 20500, Error: 0.009410870517840264
Epoch: 20600, Error: 0.009334854208105618
Epoch: 20700, Error: 0.009288632219912898
Epoch: 20800, Error: 0.009168957659999599
Epoch: 20900, Error: 0.00915552763025921
Epoch: 21000, Error: 0.009043701792533887
Epoch: 21100, Error: 0.00896520014690119
Epoch: 21200, Error: 0.008913636441003873
Epoch: 21300, Error: 0.00886970136266233
Epoch: 21400, Error: 0.008786275865260254
Epoch: 21500, Error: 0.008773226026879792
Epoch: 21600, Error: 0.008763997883192189
Epoch: 21700, Error: 0.008575429727094101
Epoch: 21800, Error: 0.008504620295156322
Epoch: 21900, Error: 0.008452238520612816
Epoch: 22000, Error: 0.008411339479050307
Epoch: 22100, Error: 0.00835740743476742
Epoch: 22200, Error: 0.008301237373899154
Epoch: 22300, Error: 0.00828462172536894
Epoch: 22400, Error: 0.008229449252389345
Epoch: 22500, Error: 0.008175442699948188
Epoch: 22600, Error: 0.008209775588219542
Epoch: 22700, Error: 0.00809510297759257
Epoch: 22800, Error: 0.008026803540326335
Epoch: 22900, Error: 0.008022353712112396
Epoch: 23000, Error: 0.007964297840300057
Epoch: 23100, Error: 0.007915983585544425
Epoch: 23200, Error: 0.007873496336810346
Epoch: 23300, Error: 0.007876150300962979
Epoch: 23400, Error: 0.007784206557061449
Epoch: 23500, Error: 0.007768693398725798
Epoch: 23600, Error: 0.007704005391136443
Epoch: 23700, Error: 0.0077042424758369836
Epoch: 23800, Error: 0.007614749057571429
Epoch: 23900, Error: 0.007562961139191877
Epoch: 24000, Error: 0.007540629425338972
Epoch: 24100, Error: 0.007500205173421283
Epoch: 24200, Error: 0.007497852977249477
Epoch: 24300, Error: 0.007442499037325014
Epoch: 24400, Error: 0.0074375753527249075
Epoch: 24500, Error: 0.007378957702829285
Epoch: 24600, Error: 0.007360346306213443
Epoch: 24700, Error: 0.007320225388145497
Epoch: 24800, Error: 0.007313288332869799
Epoch: 24900, Error: 0.0072569529651194346
Epoch: 25000, Error: 0.0072453967985691686
Epoch: 25100, Error: 0.007236014369277035
Epoch: 25200, Error: 0.007228469826667828
Epoch: 25300, Error: 0.00717120602832331
Epoch: 25400, Error: 0.007126740437784865
Epoch: 25500, Error: 0.00710731352056139
Epoch: 25600, Error: 0.007092507170073416
Epoch: 25700, Error: 0.007098436790782403
Epoch: 25800, Error: 0.00703140708669616
Epoch: 25900, Error: 0.0070059941073343235
Epoch: 26000, Error: 0.006999801542726964
Epoch: 26100, Error: 0.00696296774907127
Epoch: 26200, Error: 0.006946040922503454
Epoch: 26300, Error: 0.006923447586698528
Epoch: 26400, Error: 0.006908475830710724
Epoch: 26500, Error: 0.006896983495680359
Epoch: 26600, Error: 0.006880079908717331
Epoch: 26700, Error: 0.0068677367017754894
Epoch: 26800, Error: 0.0068821834617689434
Epoch: 26900, Error: 0.006902124148914723
Epoch: 27000, Error: 0.006837947005722869
Epoch: 27100, Error: 0.006812997168898565
Epoch: 27200, Error: 0.006840462120478259
Epoch: 27300, Error: 0.006782921831219028
Epoch: 27400, Error: 0.006734538350094556
Epoch: 27500, Error: 0.006764647776780005
Epoch: 27600, Error: 0.00673006832720168
Epoch: 27700, Error: 0.006697728671478991
Epoch: 27800, Error: 0.006745066510975574
Epoch: 27900, Error: 0.0067335823075625415
Epoch: 28000, Error: 0.006721447422071852
Epoch: 28100, Error: 0.006650349868414017
Epoch: 28200, Error: 0.006688619673503006
Epoch: 28300, Error: 0.006643922187119931
Epoch: 28400, Error: 0.006637877746884404
Epoch: 28500, Error: 0.006643080309883908
Epoch: 28600, Error: 0.006625283246765376
Epoch: 28700, Error: 0.006644765778048155
Epoch: 28800, Error: 0.0066237342776474415
Epoch: 28900, Error: 0.006583902872432928
Epoch: 29000, Error: 0.006622948880009831
Epoch: 29100, Error: 0.006567336456654726
Epoch: 29200, Error: 0.0065601881585145485
Epoch: 29300, Error: 0.006553012971902639
Epoch: 29400, Error: 0.00660676241372632
Epoch: 29500, Error: 0.006516334828193554
Epoch: 29600, Error: 0.006587136958116669
Epoch: 29700, Error: 0.006510592108692586
Epoch: 29800, Error: 0.006455492025413568
Epoch: 29900, Error: 0.006418947631432815
Epoch: 30000, Error: 0.006426113255855472
Epoch: 30100, Error: 0.00639863421375846
Epoch: 30200, Error: 0.006428235013768046
Epoch: 30300, Error: 0.006462000285670377
Epoch: 30400, Error: 0.0064455564963350675
Epoch: 30500, Error: 0.0063901878386250135
Epoch: 30600, Error: 0.006371451633030393
Epoch: 30700, Error: 0.00630082021696743
Epoch: 30800, Error: 0.006294375999175832
Epoch: 30900, Error: 0.00627528788565238
Epoch: 31000, Error: 0.006324662162919074
Epoch: 31100, Error: 0.006278131144395296
Epoch: 31200, Error: 0.006243908455182085
Epoch: 31300, Error: 0.006316135066849596
Epoch: 31400, Error: 0.006218734199254161
Epoch: 31500, Error: 0.006197808878290398
Epoch: 31600, Error: 0.006207026184473042
Epoch: 31700, Error: 0.006219338523900292
Epoch: 31800, Error: 0.006181982009655365
Epoch: 31900, Error: 0.006153306636015169
Epoch: 32000, Error: 0.006163688495676985
Epoch: 32100, Error: 0.00609985400620249
Epoch: 32200, Error: 0.006079172201814483
Epoch: 32300, Error: 0.006042116061983182
Epoch: 32400, Error: 0.006064927047822113
Epoch: 32500, Error: 0.006056526105768498
Epoch: 32600, Error: 0.006063181176127363
Epoch: 32700, Error: 0.006025033317048134
Epoch: 32800, Error: 0.006035170339463098
Epoch: 32900, Error: 0.006018661411130707
Epoch: 33000, Error: 0.005994818806304619
Epoch: 33100, Error: 0.005986200250808249
Epoch: 33200, Error: 0.005962902859843211
Epoch: 33300, Error: 0.005947018950899577
Epoch: 33400, Error: 0.0059490895749036085
Epoch: 33500, Error: 0.005957669431264262
Epoch: 33600, Error: 0.005950808473589912
Epoch: 33700, Error: 0.005948348791500321
Epoch: 33800, Error: 0.005974637789761119
Epoch: 33900, Error: 0.005901529866759631
Epoch: 34000, Error: 0.005885919332781399
Epoch: 34100, Error: 0.005876107819157062
Epoch: 34200, Error: 0.005856276725789681
Epoch: 34300, Error: 0.005834705839623076
Epoch: 34400, Error: 0.005830995645016313
Epoch: 34500, Error: 0.0058170886519066526
Epoch: 34600, Error: 0.005778361475294165
Epoch: 34700, Error: 0.005778647716580154
Epoch: 34800, Error: 0.005734878269942698
Epoch: 34900, Error: 0.005767725939424722
Epoch: 35000, Error: 0.005709065044415335
Epoch: 35100, Error: 0.005672418381564176
Epoch: 35200, Error: 0.005716375790645105
Epoch: 35300, Error: 0.005647483654966579
Epoch: 35400, Error: 0.005911453097603398
Epoch: 35500, Error: 0.005659876749368756
Epoch: 35600, Error: 0.005606211969050769
Epoch: 35700, Error: 0.0055929043684324765
Epoch: 35800, Error: 0.005545513025833542
Epoch: 35900, Error: 0.005567378809877844
Epoch: 36000, Error: 0.005532258132016964
Epoch: 36100, Error: 0.005537150087195298
Epoch: 36200, Error: 0.00553216153163346
Epoch: 36300, Error: 0.005542084711791436
Epoch: 36400, Error: 0.005496167502693301
Epoch: 36500, Error: 0.00546624140566158
Epoch: 36600, Error: 0.005451597039583402
Epoch: 36700, Error: 0.005495909466431893
Epoch: 36800, Error: 0.0054293282380563305
Epoch: 36900, Error: 0.005386215708621813
Epoch: 37000, Error: 0.005369434600799913
Epoch: 37100, Error: 0.005385512325356459
Epoch: 37200, Error: 0.0054875632509896535
Epoch: 37300, Error: 0.0053478126902960135
Epoch: 37400, Error: 0.005349282417634394
Epoch: 37500, Error: 0.005361746819180524
Epoch: 37600, Error: 0.005307332838934743
Epoch: 37700, Error: 0.005287425086978234
Epoch: 37800, Error: 0.005283712240766131
Epoch: 37900, Error: 0.005277203350045816
Epoch: 38000, Error: 0.005253313871808103
Epoch: 38100, Error: 0.005260247907363306
Epoch: 38200, Error: 0.005241819315073712
Epoch: 38300, Error: 0.005282822315615996
Epoch: 38400, Error: 0.005267055956624597
Epoch: 38500, Error: 0.005204136500129732
Epoch: 38600, Error: 0.005204898735090617
Epoch: 38700, Error: 0.005187515897669835
Epoch: 38800, Error: 0.005176996915078709
Epoch: 38900, Error: 0.005147043490369813
Epoch: 39000, Error: 0.005144909132234922
Epoch: 39100, Error: 0.0051533339224063895
Epoch: 39200, Error: 0.005129670217203429
Epoch: 39300, Error: 0.005080157278582573
Epoch: 39400, Error: 0.005120185159200196
Epoch: 39500, Error: 0.00503552221329139
Epoch: 39600, Error: 0.005048141413237993
Epoch: 39700, Error: 0.005000143256212347
Epoch: 39800, Error: 0.0050739139479808884
Epoch: 39900, Error: 0.005046859888835548
Epoch: 40000, Error: 0.004946227605523593
Epoch: 40100, Error: 0.004934497138374899
Epoch: 40200, Error: 0.00495503770365809
Epoch: 40300, Error: 0.005002769040441038
Epoch: 40400, Error: 0.004931568256883954
Epoch: 40500, Error: 0.004906915993826378
Epoch: 40600, Error: 0.004892543251662343
Epoch: 40700, Error: 0.004868885439836065
Epoch: 40800, Error: 0.004973760902934406
Epoch: 40900, Error: 0.004844663472812835
Epoch: 41000, Error: 0.004884816833451569
Epoch: 41100, Error: 0.00481053496253136
Epoch: 41200, Error: 0.004869377395226673
Epoch: 41300, Error: 0.004774281318658376
Epoch: 41400, Error: 0.00477467229553545
Epoch: 41500, Error: 0.004753693883827896
Epoch: 41600, Error: 0.004758721555220274
Epoch: 41700, Error: 0.004749503790471575
Epoch: 41800, Error: 0.0047234128419346875
Epoch: 41900, Error: 0.004766508047577867
Epoch: 42000, Error: 0.0046803031655588264
Epoch: 42100, Error: 0.00462612658174356
Epoch: 42200, Error: 0.004659591501607997
Epoch: 42300, Error: 0.004623328678242797
Epoch: 42400, Error: 0.004603610791143797
Epoch: 42500, Error: 0.004743181475880908
Epoch: 42600, Error: 0.004799716422288958
Epoch: 42700, Error: 0.004524356654682725
Epoch: 42800, Error: 0.004661181981156057
Epoch: 42900, Error: 0.0045684971701410145
Epoch: 43000, Error: 0.004742763410410167
Epoch: 43100, Error: 0.00452123611390635
Epoch: 43200, Error: 0.00443455202168219
Epoch: 43300, Error: 0.004407621464886419
Epoch: 43400, Error: 0.00442333862253971
Epoch: 43500, Error: 0.004384653356015019
Epoch: 43600, Error: 0.0043474921438392
Epoch: 43700, Error: 0.004318542100621463
Epoch: 43800, Error: 0.004375796620389229
Epoch: 43900, Error: 0.004274318456844105
Epoch: 44000, Error: 0.0042999258734941976
Epoch: 44100, Error: 0.004520511630737308
Epoch: 44200, Error: 0.004172126241333885
Epoch: 44300, Error: 0.004192907697480077
Epoch: 44400, Error: 0.004105698824499636
Epoch: 44500, Error: 0.004088309038136718
Epoch: 44600, Error: 0.0040948483877830885
Epoch: 44700, Error: 0.004099562894800142
Epoch: 44800, Error: 0.004024235181215356
Epoch: 44900, Error: 0.0040037443692390795
Epoch: 45000, Error: 0.003949944931525202
Epoch: 45100, Error: 0.00394025218021619
Epoch: 45200, Error: 0.0039029526939293796
Epoch: 45300, Error: 0.0038645033440221463
Epoch: 45400, Error: 0.0038511930944326073
Epoch: 45500, Error: 0.0038462982604750753
Epoch: 45600, Error: 0.0037939922340536458
Epoch: 45700, Error: 0.00375203075828811
Epoch: 45800, Error: 0.00393667931635719
Epoch: 45900, Error: 0.0037239980777554102
Epoch: 46000, Error: 0.0037253302157735893
Epoch: 46100, Error: 0.003676343056712741
Epoch: 46200, Error: 0.0036394460858217357
Epoch: 46300, Error: 0.003916685042797609
Epoch: 46400, Error: 0.003710682225219195
Epoch: 46500, Error: 0.0035505023527738935
Epoch: 46600, Error: 0.003495561416342683
Epoch: 46700, Error: 0.0034936987008815103
Epoch: 46800, Error: 0.0036651735175277102
Epoch: 46900, Error: 0.003404061602034908
Epoch: 47000, Error: 0.003422751757808331
Epoch: 47100, Error: 0.003541845141271951
Epoch: 47200, Error: 0.003379769226741497
Epoch: 47300, Error: 0.0034197472143681538
Epoch: 47400, Error: 0.0033757262044038457
Epoch: 47500, Error: 0.00324031792412506
Epoch: 47600, Error: 0.003637300827653074
Epoch: 47700, Error: 0.0032151221447318913
Epoch: 47800, Error: 0.0032597262105420848
Epoch: 47900, Error: 0.0031456583468659235
Epoch: 48000, Error: 0.003156167026697904
Epoch: 48100, Error: 0.0031485098993813947
Epoch: 48200, Error: 0.0030832336414007002
Epoch: 48300, Error: 0.003132291400802419
Epoch: 48400, Error: 0.0037724301903627844
Epoch: 48500, Error: 0.002973638690413256
Epoch: 48600, Error: 0.0031294317770369576
Epoch: 48700, Error: 0.0031403136941647175
Epoch: 48800, Error: 0.002986319012756772
Epoch: 48900, Error: 0.0029438170995305787
Epoch: 49000, Error: 0.0029039598307504613
Epoch: 49100, Error: 0.0028960862284182695
Epoch: 49200, Error: 0.0028037123016877445
Epoch: 49300, Error: 0.002779268701676555
Epoch: 49400, Error: 0.002770033342881068
Epoch: 49500, Error: 0.002789951187220462
Epoch: 49600, Error: 0.0028119894109729184
Epoch: 49700, Error: 0.002684942839263515
Epoch: 49800, Error: 0.0026780791430237373
Epoch: 49900, Error: 0.002783340145583275
Epoch: 50000, Error: 0.0026420797513545206
Epoch: 50100, Error: 0.0032735997552459286
Epoch: 50200, Error: 0.0026438031557978986
Epoch: 50300, Error: 0.002696256875334148
Epoch: 50400, Error: 0.0025529354177608894
Epoch: 50500, Error: 0.0025464733949614716
Epoch: 50600, Error: 0.002508566008228568
Epoch: 50700, Error: 0.0024847850055827333
Epoch: 50800, Error: 0.00250235855485338
Epoch: 50900, Error: 0.0024762580004607285
Epoch: 51000, Error: 0.002495868565752174
Epoch: 51100, Error: 0.003006875219947641
Epoch: 51200, Error: 0.0025428933835614374
Epoch: 51300, Error: 0.002396116143253886
Epoch: 51400, Error: 0.002397404532526186
Epoch: 51500, Error: 0.00237061667594502
Epoch: 51600, Error: 0.002374944030483513
Epoch: 51700, Error: 0.002409693451740328
Epoch: 51800, Error: 0.002396152696052348
Epoch: 51900, Error: 0.0023692970168504943
Epoch: 52000, Error: 0.0023689104415924103
Epoch: 52100, Error: 0.0025626938715732307
Epoch: 52200, Error: 0.002314893809341413
Epoch: 52300, Error: 0.0022507971039381542
Epoch: 52400, Error: 0.0022385536098262987
Epoch: 52500, Error: 0.0022252670095784487
Epoch: 52600, Error: 0.0022651887926327646
Epoch: 52700, Error: 0.0021903458446338665
Epoch: 52800, Error: 0.0021515117411711995
Epoch: 52900, Error: 0.002178211171645091
Epoch: 53000, Error: 0.002101480419885507
Epoch: 53100, Error: 0.0021854772959734145
Epoch: 53200, Error: 0.00208088378855382
Epoch: 53300, Error: 0.0020866169781890674
Epoch: 53400, Error: 0.002047758989887995
Epoch: 53500, Error: 0.0020599020103860255
Epoch: 53600, Error: 0.0020289632697459213
Epoch: 53700, Error: 0.0020442920490772246
Epoch: 53800, Error: 0.0020409697950436773
Epoch: 53900, Error: 0.002061741149522796
Epoch: 54000, Error: 0.0019719242182137772
Epoch: 54100, Error: 0.0020174510078954672
Epoch: 54200, Error: 0.0019582015425496963
Epoch: 54300, Error: 0.0019350607855298126
Epoch: 54400, Error: 0.002016104146090405
Epoch: 54500, Error: 0.0021153817826195702
Epoch: 54600, Error: 0.00188913163019893
Epoch: 54700, Error: 0.0020182868344779917
Epoch: 54800, Error: 0.0019334807478564762
Epoch: 54900, Error: 0.0019010316612060412
Epoch: 55000, Error: 0.0018710273458843996
Epoch: 55100, Error: 0.0018314604863443164
Epoch: 55200, Error: 0.0018059417911412462
Epoch: 55300, Error: 0.0018198316547378107
Epoch: 55400, Error: 0.0018311401733483146
Epoch: 55500, Error: 0.0018403136484263331
Epoch: 55600, Error: 0.0017578604636583888
Epoch: 55700, Error: 0.0017706848798000796
Epoch: 55800, Error: 0.001721217883138801
Epoch: 55900, Error: 0.001724557696514423
Epoch: 56000, Error: 0.0016900554722475455
Epoch: 56100, Error: 0.0016843347676506251
Epoch: 56200, Error: 0.0016763876124190503
Epoch: 56300, Error: 0.0016922669323640469
Epoch: 56400, Error: 0.0016514290759908103
Epoch: 56500, Error: 0.001669740874191775
Epoch: 56600, Error: 0.0016317550103412042
Epoch: 56700, Error: 0.0016436493299846534
Epoch: 56800, Error: 0.0016478120862864242
Epoch: 56900, Error: 0.0016163510464945238
Epoch: 57000, Error: 0.0016180102106809259
Epoch: 57100, Error: 0.0015804898221158177
Epoch: 57200, Error: 0.0015952622530915124
Epoch: 57300, Error: 0.001570836363129373
Epoch: 57400, Error: 0.001545950491840916
Epoch: 57500, Error: 0.0015426847267289
Epoch: 57600, Error: 0.0015253070807488183
Epoch: 57700, Error: 0.001519275134042911
Epoch: 57800, Error: 0.0015274114478181678
Epoch: 57900, Error: 0.0015574117777338006
Epoch: 58000, Error: 0.0015743095823841098
Epoch: 58100, Error: 0.0014897675988410635
Epoch: 58200, Error: 0.0014760710532865987
Epoch: 58300, Error: 0.0014846003569803517
Epoch: 58400, Error: 0.0015020152010879434
Epoch: 58500, Error: 0.0014574308472031672
Epoch: 58600, Error: 0.0014434686593525112
Epoch: 58700, Error: 0.0014893403856967287
Epoch: 58800, Error: 0.001453293932890105
Epoch: 58900, Error: 0.0014302898804764348
Epoch: 59000, Error: 0.0014317121902396289
Epoch: 59100, Error: 0.0014328612294221812
Epoch: 59200, Error: 0.0014513153295707285
Epoch: 59300, Error: 0.0013965987667440502
Epoch: 59400, Error: 0.0013943989231606467
Epoch: 59500, Error: 0.001422448313608042
Epoch: 59600, Error: 0.0014373682945730336
Epoch: 59700, Error: 0.0013794054177456605
Epoch: 59800, Error: 0.0014065907985332836
Epoch: 59900, Error: 0.0013632285516339483
Epoch: 60000, Error: 0.0013660111761228545
Epoch: 60100, Error: 0.00135355847086195
Epoch: 60200, Error: 0.0013523327327176044
Epoch: 60300, Error: 0.001346660613040233
Epoch: 60400, Error: 0.001340082119479293
Epoch: 60500, Error: 0.00135438062431263
Epoch: 60600, Error: 0.0013433308607682755
Epoch: 60700, Error: 0.0013221716863191658
Epoch: 60800, Error: 0.0013181605442535202
Epoch: 60900, Error: 0.001336877592006366
Epoch: 61000, Error: 0.0013184681689533517
Epoch: 61100, Error: 0.0013092373511770798
Epoch: 61200, Error: 0.0013055965416565907
Epoch: 61300, Error: 0.0013012335451007924
Epoch: 61400, Error: 0.0013242368073218057
Epoch: 61500, Error: 0.0013076955227080758
Epoch: 61600, Error: 0.0012840222217621964
Epoch: 61700, Error: 0.0012808861536395444
Epoch: 61800, Error: 0.0013061123125043214
Epoch: 61900, Error: 0.0012793151964531654
Epoch: 62000, Error: 0.001265366679892372
Epoch: 62100, Error: 0.00125916587163244
Epoch: 62200, Error: 0.0012535125899832042
Epoch: 62300, Error: 0.0012452876734372555
Epoch: 62400, Error: 0.0012475158915712002
Epoch: 62500, Error: 0.0012362055933614951
Epoch: 62600, Error: 0.0012356326808171147
Epoch: 62700, Error: 0.0012436343920319219
Epoch: 62800, Error: 0.0012239496894006555
Epoch: 62900, Error: 0.001234469859595361
Epoch: 63000, Error: 0.001234592616409426
Epoch: 63100, Error: 0.0012136547565300526
Epoch: 63200, Error: 0.0012253918547925817
Epoch: 63300, Error: 0.0012190950851853036
Epoch: 63400, Error: 0.0012072959889507801
Epoch: 63500, Error: 0.0012025606754833276
Epoch: 63600, Error: 0.0012138766903810314
Epoch: 63700, Error: 0.0011986951394536845
Epoch: 63800, Error: 0.001202907117898433
Epoch: 63900, Error: 0.0011844497263581242
Epoch: 64000, Error: 0.0012623228235510706
Epoch: 64100, Error: 0.0011855845440116842
Epoch: 64200, Error: 0.0011736694538939437
Epoch: 64300, Error: 0.0011644017504264283
Epoch: 64400, Error: 0.0011843050250381802
Epoch: 64500, Error: 0.0011665583403751927
Epoch: 64600, Error: 0.0011472961502889036
Epoch: 64700, Error: 0.001144953295583371
Epoch: 64800, Error: 0.001141441243154551
Epoch: 64900, Error: 0.0011322702857604905
Epoch: 65000, Error: 0.001130537924086878
Epoch: 65100, Error: 0.0011260352005418865
Epoch: 65200, Error: 0.0011353892033978674
Epoch: 65300, Error: 0.001120898200299569
Epoch: 65400, Error: 0.0011136064964813474
Epoch: 65500, Error: 0.0011205262485792723
Epoch: 65600, Error: 0.0010972424161617266
Epoch: 65700, Error: 0.0010923052033428306
Epoch: 65800, Error: 0.0010927078149520412
Epoch: 65900, Error: 0.0010903703152857725
Epoch: 66000, Error: 0.0010931169870021075
Epoch: 66100, Error: 0.0010831710345069203
Epoch: 66200, Error: 0.0010829606079603303
Epoch: 66300, Error: 0.0010828781010273287
Epoch: 66400, Error: 0.0010638124342973354
Epoch: 66500, Error: 0.0010635923765476229
Epoch: 66600, Error: 0.001071061788801482
Epoch: 66700, Error: 0.0010677686273402062
Epoch: 66800, Error: 0.0010502650259135511
Epoch: 66900, Error: 0.0010464033027494776
Epoch: 67000, Error: 0.001044975843531902
Epoch: 67100, Error: 0.001038013827170723
Epoch: 67200, Error: 0.0010556323866255737
Epoch: 67300, Error: 0.0010304555254898391
Epoch: 67400, Error: 0.0010312972523675173
Epoch: 67500, Error: 0.0010800122382411635
Finished
