Input Patterns
0.224 0.624 0.067 0.043 
0.11 0.502 0.051 0.043 
0.196 0.667 0.067 0.043 
0.055 0.584 0.067 0.082 
0.027 0.376 0.067 0.043 
0.306 0.71 0.086 0.043 
0.137 0.416 0.067 0.0 
0.416 0.831 0.035 0.043 
0.306 0.792 0.051 0.125 
0.388 0.749 0.118 0.082 
0.306 0.584 0.118 0.043 
0.082 0.667 0.0 0.043 
0.137 0.584 0.153 0.043 
0.196 0.584 0.102 0.125 
0.251 0.584 0.067 0.043 
0.137 0.459 0.102 0.043 
0.251 0.875 0.086 0.0 
0.165 0.459 0.086 0.043 
0.333 0.624 0.051 0.043 
0.027 0.416 0.051 0.043 
0.196 0.624 0.051 0.082 
0.027 0.502 0.051 0.043 
0.224 0.749 0.153 0.125 
0.224 0.749 0.102 0.043 
0.278 0.71 0.086 0.043 
0.165 0.416 0.067 0.043 
0.082 0.459 0.086 0.043 
0.306 0.792 0.118 0.125 
0.196 0.584 0.086 0.043 
0.165 0.459 0.086 0.0 
0.137 0.584 0.102 0.043 
0.0 0.416 0.016 0.0 
0.388 1.0 0.086 0.125 
0.224 0.624 0.067 0.082 
0.224 0.749 0.086 0.082 
0.224 0.71 0.086 0.125 
0.224 0.541 0.118 0.165 
0.196 0.416 0.102 0.043 
0.251 0.624 0.086 0.043 
0.11 0.502 0.102 0.043 
0.306 0.584 0.086 0.125 
0.333 0.918 0.067 0.043 
0.196 0.502 0.035 0.043 
0.165 0.667 0.067 0.0 
0.224 0.584 0.086 0.043 
0.055 0.125 0.051 0.082 
0.196 0.624 0.102 0.208 
0.137 0.416 0.067 0.082 
0.082 0.502 0.067 0.043 
0.196 0.541 0.067 0.043 
0.749 0.502 0.627 0.541 
0.722 0.459 0.663 0.584 
0.612 0.333 0.612 0.584 
0.557 0.541 0.627 0.624 
0.639 0.376 0.612 0.498 
0.196 0.0 0.424 0.376 
0.471 0.082 0.51 0.376 
0.361 0.376 0.439 0.498 
0.361 0.416 0.592 0.584 
0.529 0.082 0.592 0.584 
0.443 0.502 0.643 0.459 
0.557 0.208 0.663 0.584 
0.584 0.376 0.561 0.498 
0.694 0.333 0.643 0.541 
0.471 0.376 0.592 0.584 
0.333 0.169 0.475 0.416 
0.416 0.29 0.49 0.459 
0.306 0.416 0.592 0.584 
0.667 0.459 0.627 0.584 
0.361 0.416 0.525 0.498 
0.333 0.251 0.576 0.459 
0.416 0.251 0.51 0.459 
0.361 0.29 0.541 0.498 
0.388 0.376 0.541 0.498 
0.224 0.208 0.337 0.416 
0.584 0.502 0.592 0.584 
0.333 0.125 0.51 0.498 
0.388 0.333 0.592 0.498 
0.165 0.169 0.388 0.376 
0.251 0.29 0.49 0.541 
0.443 0.416 0.541 0.584 
0.498 0.376 0.627 0.541 
0.667 0.459 0.576 0.541 
0.416 0.29 0.525 0.376 
0.361 0.208 0.49 0.416 
0.498 0.333 0.51 0.498 
0.498 0.333 0.627 0.459 
0.639 0.416 0.576 0.541 
0.667 0.416 0.678 0.667 
0.388 0.251 0.424 0.376 
0.333 0.169 0.459 0.376 
0.471 0.29 0.694 0.624 
0.471 0.584 0.592 0.624 
0.557 0.125 0.576 0.498 
0.333 0.208 0.51 0.498 
0.498 0.416 0.612 0.541 
0.196 0.125 0.388 0.376 
0.388 0.416 0.541 0.459 
0.529 0.376 0.561 0.498 
0.388 0.333 0.525 0.498 
0.557 0.541 0.847 1.0 
0.776 0.416 0.831 0.831 
0.612 0.416 0.812 0.875 
0.165 0.208 0.592 0.667 
0.667 0.208 0.812 0.71 
0.612 0.502 0.694 0.792 
0.694 0.416 0.761 0.831 
0.416 0.333 0.694 0.957 
0.612 0.416 0.761 0.71 
0.945 0.251 1.0 0.918 
0.722 0.502 0.796 0.918 
0.945 0.333 0.965 0.792 
0.667 0.541 0.796 0.831 
0.529 0.333 0.643 0.71 
0.584 0.333 0.78 0.831 
0.863 0.333 0.863 0.749 
0.584 0.333 0.78 0.875 
0.498 0.251 0.78 0.541 
0.557 0.584 0.78 0.957 
0.471 0.416 0.643 0.71 
0.667 0.459 0.78 0.957 
0.416 0.29 0.694 0.749 
0.667 0.541 0.796 1.0 
0.557 0.208 0.678 0.749 
0.529 0.584 0.745 0.918 
0.416 0.29 0.694 0.749 
0.557 0.376 0.78 0.71 
0.918 0.416 0.949 0.831 
0.835 0.376 0.898 0.71 
0.804 0.667 0.863 1.0 
0.584 0.29 0.729 0.749 
0.388 0.208 0.678 0.792 
0.584 0.502 0.729 0.918 
0.945 0.749 0.965 0.875 
0.471 0.082 0.678 0.584 
0.361 0.333 0.663 0.792 
0.557 0.29 0.663 0.71 
0.804 0.502 0.847 0.71 
0.498 0.416 0.51 0.71 
0.804 0.416 0.812 0.624 
1.0 0.749 0.914 0.792 
0.557 0.333 0.694 0.584 
0.945 0.416 0.863 0.918 
0.584 0.459 0.761 0.71 
0.722 0.459 0.745 0.831 
0.722 0.459 0.694 0.918 
0.694 0.502 0.831 0.918 
0.667 0.416 0.714 0.918 
0.612 0.416 0.714 0.792 
0.443 0.416 0.694 0.71 
Teaching Patterns
1.0 0.0 0.0 
1.0 0.0 0.0 
1.0 0.0 0.0 
1.0 0.0 0.0 
1.0 0.0 0.0 
1.0 0.0 0.0 
1.0 0.0 0.0 
1.0 0.0 0.0 
1.0 0.0 0.0 
1.0 0.0 0.0 
1.0 0.0 0.0 
1.0 0.0 0.0 
1.0 0.0 0.0 
1.0 0.0 0.0 
1.0 0.0 0.0 
1.0 0.0 0.0 
1.0 0.0 0.0 
1.0 0.0 0.0 
1.0 0.0 0.0 
1.0 0.0 0.0 
1.0 0.0 0.0 
1.0 0.0 0.0 
1.0 0.0 0.0 
1.0 0.0 0.0 
1.0 0.0 0.0 
1.0 0.0 0.0 
1.0 0.0 0.0 
1.0 0.0 0.0 
1.0 0.0 0.0 
1.0 0.0 0.0 
1.0 0.0 0.0 
1.0 0.0 0.0 
1.0 0.0 0.0 
1.0 0.0 0.0 
1.0 0.0 0.0 
1.0 0.0 0.0 
1.0 0.0 0.0 
1.0 0.0 0.0 
1.0 0.0 0.0 
1.0 0.0 0.0 
1.0 0.0 0.0 
1.0 0.0 0.0 
1.0 0.0 0.0 
1.0 0.0 0.0 
1.0 0.0 0.0 
1.0 0.0 0.0 
1.0 0.0 0.0 
1.0 0.0 0.0 
1.0 0.0 0.0 
1.0 0.0 0.0 
0.0 1.0 0.0 
0.0 1.0 0.0 
0.0 1.0 0.0 
0.0 1.0 0.0 
0.0 1.0 0.0 
0.0 1.0 0.0 
0.0 1.0 0.0 
0.0 1.0 0.0 
0.0 1.0 0.0 
0.0 1.0 0.0 
0.0 1.0 0.0 
0.0 1.0 0.0 
0.0 1.0 0.0 
0.0 1.0 0.0 
0.0 1.0 0.0 
0.0 1.0 0.0 
0.0 1.0 0.0 
0.0 1.0 0.0 
0.0 1.0 0.0 
0.0 1.0 0.0 
0.0 1.0 0.0 
0.0 1.0 0.0 
0.0 1.0 0.0 
0.0 1.0 0.0 
0.0 1.0 0.0 
0.0 1.0 0.0 
0.0 1.0 0.0 
0.0 1.0 0.0 
0.0 1.0 0.0 
0.0 1.0 0.0 
0.0 1.0 0.0 
0.0 1.0 0.0 
0.0 1.0 0.0 
0.0 1.0 0.0 
0.0 1.0 0.0 
0.0 1.0 0.0 
0.0 1.0 0.0 
0.0 1.0 0.0 
0.0 1.0 0.0 
0.0 1.0 0.0 
0.0 1.0 0.0 
0.0 1.0 0.0 
0.0 1.0 0.0 
0.0 1.0 0.0 
0.0 1.0 0.0 
0.0 1.0 0.0 
0.0 1.0 0.0 
0.0 1.0 0.0 
0.0 1.0 0.0 
0.0 1.0 0.0 
0.0 0.0 1.0 
0.0 0.0 1.0 
0.0 0.0 1.0 
0.0 0.0 1.0 
0.0 0.0 1.0 
0.0 0.0 1.0 
0.0 0.0 1.0 
0.0 0.0 1.0 
0.0 0.0 1.0 
0.0 0.0 1.0 
0.0 0.0 1.0 
0.0 0.0 1.0 
0.0 0.0 1.0 
0.0 0.0 1.0 
0.0 0.0 1.0 
0.0 0.0 1.0 
0.0 0.0 1.0 
0.0 0.0 1.0 
0.0 0.0 1.0 
0.0 0.0 1.0 
0.0 0.0 1.0 
0.0 0.0 1.0 
0.0 0.0 1.0 
0.0 0.0 1.0 
0.0 0.0 1.0 
0.0 0.0 1.0 
0.0 0.0 1.0 
0.0 0.0 1.0 
0.0 0.0 1.0 
0.0 0.0 1.0 
0.0 0.0 1.0 
0.0 0.0 1.0 
0.0 0.0 1.0 
0.0 0.0 1.0 
0.0 0.0 1.0 
0.0 0.0 1.0 
0.0 0.0 1.0 
0.0 0.0 1.0 
0.0 0.0 1.0 
0.0 0.0 1.0 
0.0 0.0 1.0 
0.0 0.0 1.0 
0.0 0.0 1.0 
0.0 0.0 1.0 
0.0 0.0 1.0 
0.0 0.0 1.0 
0.0 0.0 1.0 
0.0 0.0 1.0 
0.0 0.0 1.0 
0.0 0.0 1.0 
Learning : 0.05
Momentum : 0.8999999761581421
Epoch: 100, Error: 0.022213400980549008
Epoch: 200, Error: 0.017104350287613774
Epoch: 300, Error: 0.01533304339184644
Epoch: 400, Error: 0.014172303702801006
Epoch: 500, Error: 0.013657595058784798
Epoch: 600, Error: 0.013291962776250426
Epoch: 700, Error: 0.013045541906772908
Epoch: 800, Error: 0.012845997450782796
Epoch: 900, Error: 0.012819100147245176
Epoch: 1000, Error: 0.012586280865235102
Epoch: 1100, Error: 0.012432851090306186
Epoch: 1200, Error: 0.01245091077001634
Epoch: 1300, Error: 0.012337115404941975
Epoch: 1400, Error: 0.012358039868365023
Epoch: 1500, Error: 0.012260205261251104
Epoch: 1600, Error: 0.012120930505251036
Epoch: 1700, Error: 0.012152881662104922
Epoch: 1800, Error: 0.01201999565781441
Epoch: 1900, Error: 0.012399994271634115
Epoch: 2000, Error: 0.012131108703561582
Epoch: 2100, Error: 0.011944841320484841
Epoch: 2200, Error: 0.012047383890813222
Epoch: 2300, Error: 0.012000934653739293
Epoch: 2400, Error: 0.011946798705714985
Epoch: 2500, Error: 0.011946706610049065
Epoch: 2600, Error: 0.011959857900471629
Epoch: 2700, Error: 0.011989924016784783
Epoch: 2800, Error: 0.011979006050783413
Epoch: 2900, Error: 0.011908933791942094
Epoch: 3000, Error: 0.011812576073844743
Epoch: 3100, Error: 0.011775505658844613
Epoch: 3200, Error: 0.011771922215369282
Epoch: 3300, Error: 0.011845888250806073
Epoch: 3400, Error: 0.011885047011360915
Epoch: 3500, Error: 0.01179245356678654
Epoch: 3600, Error: 0.011780587164349916
Epoch: 3700, Error: 0.011765425508554698
Epoch: 3800, Error: 0.011751463102258
Epoch: 3900, Error: 0.011958474721075625
Epoch: 4000, Error: 0.011901662792531097
Epoch: 4100, Error: 0.011754982797042207
Epoch: 4200, Error: 0.011785380010702297
Epoch: 4300, Error: 0.011676207547686243
Epoch: 4400, Error: 0.011699992401984445
Epoch: 4500, Error: 0.011727902771249016
Epoch: 4600, Error: 0.011685386060278715
Epoch: 4700, Error: 0.011641704858566094
Epoch: 4800, Error: 0.011608636953974509
Epoch: 4900, Error: 0.011575125276004062
Epoch: 5000, Error: 0.011610960733291707
Epoch: 5100, Error: 0.011582459934456371
Epoch: 5200, Error: 0.01161319470593815
Epoch: 5300, Error: 0.011687146792163405
Epoch: 5400, Error: 0.011622840035865424
Epoch: 5500, Error: 0.0115711202113268
Epoch: 5600, Error: 0.011554539071588776
Epoch: 5700, Error: 0.011534437730451071
Epoch: 5800, Error: 0.011450259812290642
Epoch: 5900, Error: 0.011517803877035304
Epoch: 6000, Error: 0.011527381257179335
Epoch: 6100, Error: 0.011491123652525501
Epoch: 6200, Error: 0.011425251908471195
Epoch: 6300, Error: 0.011313092994454254
Epoch: 6400, Error: 0.011383780483138893
Epoch: 6500, Error: 0.011273870157281173
Epoch: 6600, Error: 0.01121706787941878
Epoch: 6700, Error: 0.01119036096055944
Epoch: 6800, Error: 0.011181070990368172
Epoch: 6900, Error: 0.01116523741423972
Epoch: 7000, Error: 0.011138265517570177
Epoch: 7100, Error: 0.011040457041919622
Epoch: 7200, Error: 0.010975820562364071
Epoch: 7300, Error: 0.011012208694136319
Epoch: 7400, Error: 0.01097332288702125
Epoch: 7500, Error: 0.011111704296243015
Epoch: 7600, Error: 0.010874415902875027
Epoch: 7700, Error: 0.010789486819715862
Epoch: 7800, Error: 0.010723065275701231
Epoch: 7900, Error: 0.010642073087831503
Epoch: 8000, Error: 0.010570922720277253
Epoch: 8100, Error: 0.010495772112879624
Epoch: 8200, Error: 0.01043843832873856
Epoch: 8300, Error: 0.010379561684409153
Epoch: 8400, Error: 0.010280551410221115
Epoch: 8500, Error: 0.010275944387946443
Epoch: 8600, Error: 0.010193702334730773
Epoch: 8700, Error: 0.010068840230271273
Epoch: 8800, Error: 0.009975061285056345
Epoch: 8900, Error: 0.009864177732034738
Epoch: 9000, Error: 0.009783540634997841
Epoch: 9100, Error: 0.009688860899526837
Epoch: 9200, Error: 0.009587733086196594
Epoch: 9300, Error: 0.009522713178343311
Epoch: 9400, Error: 0.009393154558130083
Epoch: 9500, Error: 0.009248543793090324
Epoch: 9600, Error: 0.009168336278081293
Epoch: 9700, Error: 0.009052683418511141
Epoch: 9800, Error: 0.008921927434761785
Epoch: 9900, Error: 0.008820394150089369
Epoch: 10000, Error: 0.008677884502761316
Epoch: 10100, Error: 0.008581688236219513
Epoch: 10200, Error: 0.008458956611781384
Epoch: 10300, Error: 0.008407772717054757
Epoch: 10400, Error: 0.008267629027900437
Epoch: 10500, Error: 0.008133592533752716
Epoch: 10600, Error: 0.008036742693957244
Epoch: 10700, Error: 0.007925915881657648
Epoch: 10800, Error: 0.007797509708480924
Epoch: 10900, Error: 0.007851890702428171
Epoch: 11000, Error: 0.007628502012001233
Epoch: 11100, Error: 0.007568764143965185
Epoch: 11200, Error: 0.007466659781309895
Epoch: 11300, Error: 0.007400234693731154
Epoch: 11400, Error: 0.007306476070051207
Epoch: 11500, Error: 0.00724774113728434
Epoch: 11600, Error: 0.007181423228180391
Epoch: 11700, Error: 0.007136724136720253
Epoch: 11800, Error: 0.0070731918166215026
Epoch: 11900, Error: 0.007008517602413409
Epoch: 12000, Error: 0.006974703987594798
Epoch: 12100, Error: 0.006902727783408893
Epoch: 12200, Error: 0.006834484596369661
Epoch: 12300, Error: 0.0068487241215353465
Epoch: 12400, Error: 0.0068208670504566644
Epoch: 12500, Error: 0.006706025638713033
Epoch: 12600, Error: 0.006659537601967152
Epoch: 12700, Error: 0.006613382846357526
Epoch: 12800, Error: 0.0065675798201480055
Epoch: 12900, Error: 0.006520143082112395
Epoch: 13000, Error: 0.0064870798181767796
Epoch: 13100, Error: 0.006451267517324698
Epoch: 13200, Error: 0.006449052055899759
Epoch: 13300, Error: 0.006421590090356497
Epoch: 13400, Error: 0.006382072574298866
Epoch: 13500, Error: 0.006364994388908407
Epoch: 13600, Error: 0.006361163754912416
Epoch: 13700, Error: 0.0063140505713892995
Epoch: 13800, Error: 0.006291954504857093
Epoch: 13900, Error: 0.006275747173822755
Epoch: 14000, Error: 0.006252657017761915
Epoch: 14100, Error: 0.006239218262206818
Epoch: 14200, Error: 0.0062433083832228835
Epoch: 14300, Error: 0.006218662010867908
Epoch: 14400, Error: 0.006198629259166256
Epoch: 14500, Error: 0.0061636798419415694
Epoch: 14600, Error: 0.006154852722793546
Epoch: 14700, Error: 0.0061627985853922335
Epoch: 14800, Error: 0.006144970830520862
Epoch: 14900, Error: 0.006111712879726394
Epoch: 15000, Error: 0.006137686778410695
Epoch: 15100, Error: 0.006101383837134736
Epoch: 15200, Error: 0.00607873010727813
Epoch: 15300, Error: 0.006058716467881653
Epoch: 15400, Error: 0.006107152310165749
Epoch: 15500, Error: 0.006038602805438995
Epoch: 15600, Error: 0.006020977138231746
Epoch: 15700, Error: 0.0059867298621752345
Epoch: 15800, Error: 0.005956753347377157
Epoch: 15900, Error: 0.0059464494362336225
Epoch: 16000, Error: 0.005925660171418267
Epoch: 16100, Error: 0.005932585322420327
Epoch: 16200, Error: 0.005920670536287472
Epoch: 16300, Error: 0.005802687561303293
Epoch: 16400, Error: 0.005780234704795645
Epoch: 16500, Error: 0.005771561660612791
Epoch: 16600, Error: 0.005753269932988967
Epoch: 16700, Error: 0.005740707834430025
Epoch: 16800, Error: 0.005705655862460066
Epoch: 16900, Error: 0.005721188101295807
Epoch: 17000, Error: 0.005661790957911916
Epoch: 17100, Error: 0.005717998457302949
Epoch: 17200, Error: 0.005611828710381765
Epoch: 17300, Error: 0.005648878101534839
Epoch: 17400, Error: 0.005604485236447444
Epoch: 17500, Error: 0.005570679885288244
Epoch: 17600, Error: 0.005542187906915588
Epoch: 17700, Error: 0.005536338772428812
Epoch: 17800, Error: 0.005502925392830248
Epoch: 17900, Error: 0.005471440354663089
Epoch: 18000, Error: 0.005444424980172425
Epoch: 18100, Error: 0.005435182857783358
Epoch: 18200, Error: 0.0054485386010471384
Epoch: 18300, Error: 0.005404699439167585
Epoch: 18400, Error: 0.00535820630636375
Epoch: 18500, Error: 0.005290492705803802
Epoch: 18600, Error: 0.005262012731574073
Epoch: 18700, Error: 0.005251481972658461
Epoch: 18800, Error: 0.005277667350171824
Epoch: 18900, Error: 0.005231684523004809
Epoch: 19000, Error: 0.005307839380307617
Epoch: 19100, Error: 0.00519914338918488
Epoch: 19200, Error: 0.00517187912864162
Epoch: 19300, Error: 0.005139904000129281
Epoch: 19400, Error: 0.005128111943519895
Epoch: 19500, Error: 0.005103529426717727
Epoch: 19600, Error: 0.005130598573505593
Epoch: 19700, Error: 0.005054104714351384
Epoch: 19800, Error: 0.005035525478807211
Epoch: 19900, Error: 0.005001011656285457
Epoch: 20000, Error: 0.004963131378422481
Epoch: 20100, Error: 0.004968878400452082
Epoch: 20200, Error: 0.004930954774922923
Epoch: 20300, Error: 0.004917314062217707
Epoch: 20400, Error: 0.0048742981803725745
Epoch: 20500, Error: 0.004870993885807556
Epoch: 20600, Error: 0.004886600428722243
Epoch: 20700, Error: 0.004849329548770826
Epoch: 20800, Error: 0.004793590862195345
Epoch: 20900, Error: 0.004782360034194903
Epoch: 21000, Error: 0.00475172866500978
Epoch: 21100, Error: 0.00473825266972727
Epoch: 21200, Error: 0.004798354307150668
Epoch: 21300, Error: 0.004707435926535596
Epoch: 21400, Error: 0.0047021155965480625
Epoch: 21500, Error: 0.004693508825215757
Epoch: 21600, Error: 0.004715319191075388
Epoch: 21700, Error: 0.004699464764692021
Epoch: 21800, Error: 0.004636365668565963
Epoch: 21900, Error: 0.004632472638190832
Epoch: 22000, Error: 0.004613959312632258
Epoch: 22100, Error: 0.00459543632641545
Epoch: 22200, Error: 0.004661049174990903
Epoch: 22300, Error: 0.004568829698902881
Epoch: 22400, Error: 0.004531730009637413
Epoch: 22500, Error: 0.004575280805384047
Epoch: 22600, Error: 0.004494853817456434
Epoch: 22700, Error: 0.0045489940218767086
Epoch: 22800, Error: 0.004563261395856745
Epoch: 22900, Error: 0.004489617699352837
Epoch: 23000, Error: 0.004425749070642575
Epoch: 23100, Error: 0.00445230465766499
Epoch: 23200, Error: 0.004372654058375436
Epoch: 23300, Error: 0.004359817540897835
Epoch: 23400, Error: 0.004419425507530506
Epoch: 23500, Error: 0.004288637060159892
Epoch: 23600, Error: 0.0043082842072670125
Epoch: 23700, Error: 0.004355563014130589
Epoch: 23800, Error: 0.0042248934293807345
Epoch: 23900, Error: 0.004193456283668222
Epoch: 24000, Error: 0.0041783094374392375
Epoch: 24100, Error: 0.0041615110472000335
Epoch: 24200, Error: 0.004146995963629712
Epoch: 24300, Error: 0.004135026437208176
Epoch: 24400, Error: 0.004149289520174499
Epoch: 24500, Error: 0.0040974311704994465
Epoch: 24600, Error: 0.00408555961942412
Epoch: 24700, Error: 0.004058946454841028
Epoch: 24800, Error: 0.004029508783009394
Epoch: 24900, Error: 0.004016764973378218
Epoch: 25000, Error: 0.0040437118838938186
Epoch: 25100, Error: 0.003992683333949045
Epoch: 25200, Error: 0.0039657011387480064
Epoch: 25300, Error: 0.003936618985566318
Epoch: 25400, Error: 0.003902191413424004
Epoch: 25500, Error: 0.003866215036860486
Epoch: 25600, Error: 0.00389108153888959
Epoch: 25700, Error: 0.0038616604673441667
Epoch: 25800, Error: 0.003816610097433095
Epoch: 25900, Error: 0.003870365366366436
Epoch: 26000, Error: 0.003774114370143356
Epoch: 26100, Error: 0.003757836666553654
Epoch: 26200, Error: 0.0037297211534798465
Epoch: 26300, Error: 0.003719299792469735
Epoch: 26400, Error: 0.0038451775952524866
Epoch: 26500, Error: 0.0036451765491428627
Epoch: 26600, Error: 0.0036628827430727202
Epoch: 26700, Error: 0.003620002188494281
Epoch: 26800, Error: 0.003601853952222122
Epoch: 26900, Error: 0.0035846875419855376
Epoch: 27000, Error: 0.003534937195015121
Epoch: 27100, Error: 0.003539738198230272
Epoch: 27200, Error: 0.0035206613556183833
Epoch: 27300, Error: 0.003463889360160907
Epoch: 27400, Error: 0.0034344396364039435
Epoch: 27500, Error: 0.0034637304059482793
Epoch: 27600, Error: 0.0034503279844313823
Epoch: 27700, Error: 0.003426149942948352
Epoch: 27800, Error: 0.0034043648252866585
Epoch: 27900, Error: 0.003342525935196394
Epoch: 28000, Error: 0.003341630122135306
Epoch: 28100, Error: 0.0033035963091667913
Epoch: 28200, Error: 0.003274668852458737
Epoch: 28300, Error: 0.003275722084256678
Epoch: 28400, Error: 0.003332585943800721
Epoch: 28500, Error: 0.0032242905958247835
Epoch: 28600, Error: 0.0032213340660783322
Epoch: 28700, Error: 0.003177050784823152
Epoch: 28800, Error: 0.003169499391474356
Epoch: 28900, Error: 0.003135437073051475
Epoch: 29000, Error: 0.003114616503656278
Epoch: 29100, Error: 0.0031759481148361983
Epoch: 29200, Error: 0.0031020218239808774
Epoch: 29300, Error: 0.0031390214728104797
Epoch: 29400, Error: 0.0030296173687146986
Epoch: 29500, Error: 0.0030247803173736707
Epoch: 29600, Error: 0.003005549223905909
Epoch: 29700, Error: 0.0030303694043208144
Epoch: 29800, Error: 0.0029865387849880676
Epoch: 29900, Error: 0.002995270933118066
Epoch: 30000, Error: 0.002968138101305852
Epoch: 30100, Error: 0.0029260112333895655
Epoch: 30200, Error: 0.002941350899774815
Epoch: 30300, Error: 0.00292101292931368
Epoch: 30400, Error: 0.002889388195779823
Epoch: 30500, Error: 0.0028473696493622725
Epoch: 30600, Error: 0.002881655455171284
Epoch: 30700, Error: 0.002819482708572105
Epoch: 30800, Error: 0.002835410989986714
Epoch: 30900, Error: 0.002782911459205242
Epoch: 31000, Error: 0.002767059512970845
Epoch: 31100, Error: 0.0031331955321812206
Epoch: 31200, Error: 0.0027697076570657063
Epoch: 31300, Error: 0.0027008341306159448
Epoch: 31400, Error: 0.0027172114479617512
Epoch: 31500, Error: 0.0027565865740252363
Epoch: 31600, Error: 0.0027281519944670593
Epoch: 31700, Error: 0.00268152289263035
Epoch: 31800, Error: 0.002641255206364243
Epoch: 31900, Error: 0.0026510787668899945
Epoch: 32000, Error: 0.0026289516323024136
Epoch: 32100, Error: 0.0025959663521539947
Epoch: 32200, Error: 0.002578083892877413
Epoch: 32300, Error: 0.00311587318618403
Epoch: 32400, Error: 0.002552906254790996
Epoch: 32500, Error: 0.002516115367372846
Epoch: 32600, Error: 0.002514757241060153
Epoch: 32700, Error: 0.0025315666912874082
Epoch: 32800, Error: 0.002592340740513063
Epoch: 32900, Error: 0.0024662555508102695
Epoch: 33000, Error: 0.002472531413957855
Epoch: 33100, Error: 0.0025612065224410395
Epoch: 33200, Error: 0.002524300891460904
Epoch: 33300, Error: 0.002438851766317909
Epoch: 33400, Error: 0.002411327271641902
Epoch: 33500, Error: 0.002427966073267182
Epoch: 33600, Error: 0.002352845947496789
Epoch: 33700, Error: 0.002350790553154059
Epoch: 33800, Error: 0.0024229733294100467
Epoch: 33900, Error: 0.0023886638783744713
Epoch: 34000, Error: 0.0024132465730082103
Epoch: 34100, Error: 0.002338298817726748
Epoch: 34200, Error: 0.002305069902139772
Epoch: 34300, Error: 0.002253243889672946
Epoch: 34400, Error: 0.002243018744636994
Epoch: 34500, Error: 0.0023494348255037305
Epoch: 34600, Error: 0.0022160899940967182
Epoch: 34700, Error: 0.002248717663617342
Epoch: 34800, Error: 0.002206993812346383
Epoch: 34900, Error: 0.0022113932052514737
Epoch: 35000, Error: 0.002169872941067781
Epoch: 35100, Error: 0.0021578751969748653
Epoch: 35200, Error: 0.00223150228356573
Epoch: 35300, Error: 0.002163641403106189
Epoch: 35400, Error: 0.0021250457865633803
Epoch: 35500, Error: 0.0021065836870996957
Epoch: 35600, Error: 0.0021236328300563967
Epoch: 35700, Error: 0.0021192431053058333
Epoch: 35800, Error: 0.002080026908725753
Epoch: 35900, Error: 0.002075733248055006
Epoch: 36000, Error: 0.002613609895337005
Epoch: 36100, Error: 0.0020544704105809703
Epoch: 36200, Error: 0.002041341351665376
Epoch: 36300, Error: 0.002023559810411148
Epoch: 36400, Error: 0.0020475795319010812
Epoch: 36500, Error: 0.002012468249384973
Epoch: 36600, Error: 0.002052770753936923
Epoch: 36700, Error: 0.0019978722967541056
Epoch: 36800, Error: 0.001963279038405064
Epoch: 36900, Error: 0.0019920423751276554
Epoch: 37000, Error: 0.0019439410747345187
Epoch: 37100, Error: 0.0019442967550008248
Epoch: 37200, Error: 0.0019475620204276666
Epoch: 37300, Error: 0.0019443931447112727
Epoch: 37400, Error: 0.0019028517200257752
Epoch: 37500, Error: 0.0019378435958338994
Epoch: 37600, Error: 0.0019251106733066566
Epoch: 37700, Error: 0.0018535621806094365
Epoch: 37800, Error: 0.0018592839717708875
Epoch: 37900, Error: 0.0018500461578609632
Epoch: 38000, Error: 0.0018806834512276997
Epoch: 38100, Error: 0.0018233189236285287
Epoch: 38200, Error: 0.0018118775489723898
Epoch: 38300, Error: 0.0018077292385360406
Epoch: 38400, Error: 0.001794236219816272
Epoch: 38500, Error: 0.0017914540118879395
Epoch: 38600, Error: 0.0017951866604588125
Epoch: 38700, Error: 0.0017765909600439736
Epoch: 38800, Error: 0.0017625226700271482
Epoch: 38900, Error: 0.0017638379711195406
Epoch: 39000, Error: 0.0017807397044007887
Epoch: 39100, Error: 0.0017355433414051595
Epoch: 39200, Error: 0.0017395530982750316
Epoch: 39300, Error: 0.0017169348644460573
Epoch: 39400, Error: 0.0017176324502768902
Epoch: 39500, Error: 0.00172087974444583
Epoch: 39600, Error: 0.0017050233888475964
Epoch: 39700, Error: 0.0017383576659286814
Epoch: 39800, Error: 0.0016860745100208266
Epoch: 39900, Error: 0.001662292894742816
Epoch: 40000, Error: 0.0016649491126016613
Epoch: 40100, Error: 0.0016964289665990005
Epoch: 40200, Error: 0.001644678587240666
Epoch: 40300, Error: 0.0016441360605190956
Epoch: 40400, Error: 0.0016462025374474536
Epoch: 40500, Error: 0.0016495050684249353
Epoch: 40600, Error: 0.001661431671574078
Epoch: 40700, Error: 0.0016255884137685488
Epoch: 40800, Error: 0.0016273769848678475
Epoch: 40900, Error: 0.0016330296498757654
Epoch: 41000, Error: 0.0016677892773520953
Epoch: 41100, Error: 0.0016427166022253924
Epoch: 41200, Error: 0.001610612322201789
Epoch: 41300, Error: 0.0015781005360002722
Epoch: 41400, Error: 0.0015835811601852073
Epoch: 41500, Error: 0.00154295428187503
Epoch: 41600, Error: 0.0015235030493018632
Epoch: 41700, Error: 0.0015099626635192286
Epoch: 41800, Error: 0.0015175286446262003
Epoch: 41900, Error: 0.0015037091112939484
Epoch: 42000, Error: 0.001497386892836807
Epoch: 42100, Error: 0.0014762189715346596
Epoch: 42200, Error: 0.001500765654064131
Epoch: 42300, Error: 0.0014610188999327743
Epoch: 42400, Error: 0.0014500694510014489
Epoch: 42500, Error: 0.0014444574797143658
Epoch: 42600, Error: 0.0014362914671760974
Epoch: 42700, Error: 0.0014283583896030241
Epoch: 42800, Error: 0.001443505997359047
Epoch: 42900, Error: 0.0014301316020686502
Finished
Input Patterns
0.224 0.624 0.067 0.043 
0.11 0.502 0.051 0.043 
0.196 0.667 0.067 0.043 
0.055 0.584 0.067 0.082 
0.027 0.376 0.067 0.043 
0.306 0.71 0.086 0.043 
0.137 0.416 0.067 0.0 
0.416 0.831 0.035 0.043 
0.306 0.792 0.051 0.125 
0.388 0.749 0.118 0.082 
0.306 0.584 0.118 0.043 
0.082 0.667 0.0 0.043 
0.137 0.584 0.153 0.043 
0.196 0.584 0.102 0.125 
0.251 0.584 0.067 0.043 
0.137 0.459 0.102 0.043 
0.251 0.875 0.086 0.0 
0.165 0.459 0.086 0.043 
0.333 0.624 0.051 0.043 
0.027 0.416 0.051 0.043 
0.196 0.624 0.051 0.082 
0.027 0.502 0.051 0.043 
0.224 0.749 0.153 0.125 
0.224 0.749 0.102 0.043 
0.278 0.71 0.086 0.043 
0.165 0.416 0.067 0.043 
0.082 0.459 0.086 0.043 
0.306 0.792 0.118 0.125 
0.196 0.584 0.086 0.043 
0.165 0.459 0.086 0.0 
0.137 0.584 0.102 0.043 
0.0 0.416 0.016 0.0 
0.388 1.0 0.086 0.125 
0.224 0.624 0.067 0.082 
0.224 0.749 0.086 0.082 
0.224 0.71 0.086 0.125 
0.224 0.541 0.118 0.165 
0.196 0.416 0.102 0.043 
0.251 0.624 0.086 0.043 
0.11 0.502 0.102 0.043 
0.306 0.584 0.086 0.125 
0.333 0.918 0.067 0.043 
0.196 0.502 0.035 0.043 
0.165 0.667 0.067 0.0 
0.224 0.584 0.086 0.043 
0.055 0.125 0.051 0.082 
0.196 0.624 0.102 0.208 
0.137 0.416 0.067 0.082 
0.082 0.502 0.067 0.043 
0.196 0.541 0.067 0.043 
0.749 0.502 0.627 0.541 
0.722 0.459 0.663 0.584 
0.612 0.333 0.612 0.584 
0.557 0.541 0.627 0.624 
0.639 0.376 0.612 0.498 
0.196 0.0 0.424 0.376 
0.471 0.082 0.51 0.376 
0.361 0.376 0.439 0.498 
0.361 0.416 0.592 0.584 
0.529 0.082 0.592 0.584 
0.443 0.502 0.643 0.459 
0.557 0.208 0.663 0.584 
0.584 0.376 0.561 0.498 
0.694 0.333 0.643 0.541 
0.471 0.376 0.592 0.584 
0.333 0.169 0.475 0.416 
0.416 0.29 0.49 0.459 
0.306 0.416 0.592 0.584 
0.667 0.459 0.627 0.584 
0.361 0.416 0.525 0.498 
0.333 0.251 0.576 0.459 
0.416 0.251 0.51 0.459 
0.361 0.29 0.541 0.498 
0.388 0.376 0.541 0.498 
0.224 0.208 0.337 0.416 
0.584 0.502 0.592 0.584 
0.333 0.125 0.51 0.498 
0.388 0.333 0.592 0.498 
0.165 0.169 0.388 0.376 
0.251 0.29 0.49 0.541 
0.443 0.416 0.541 0.584 
0.498 0.376 0.627 0.541 
0.667 0.459 0.576 0.541 
0.416 0.29 0.525 0.376 
0.361 0.208 0.49 0.416 
0.498 0.333 0.51 0.498 
0.498 0.333 0.627 0.459 
0.639 0.416 0.576 0.541 
0.667 0.416 0.678 0.667 
0.388 0.251 0.424 0.376 
0.333 0.169 0.459 0.376 
0.471 0.29 0.694 0.624 
0.471 0.584 0.592 0.624 
0.557 0.125 0.576 0.498 
0.333 0.208 0.51 0.498 
0.498 0.416 0.612 0.541 
0.196 0.125 0.388 0.376 
0.388 0.416 0.541 0.459 
0.529 0.376 0.561 0.498 
0.388 0.333 0.525 0.498 
0.557 0.541 0.847 1.0 
0.776 0.416 0.831 0.831 
0.612 0.416 0.812 0.875 
0.165 0.208 0.592 0.667 
0.667 0.208 0.812 0.71 
0.612 0.502 0.694 0.792 
0.694 0.416 0.761 0.831 
0.416 0.333 0.694 0.957 
0.612 0.416 0.761 0.71 
0.945 0.251 1.0 0.918 
0.722 0.502 0.796 0.918 
0.945 0.333 0.965 0.792 
0.667 0.541 0.796 0.831 
0.529 0.333 0.643 0.71 
0.584 0.333 0.78 0.831 
0.863 0.333 0.863 0.749 
0.584 0.333 0.78 0.875 
0.498 0.251 0.78 0.541 
0.557 0.584 0.78 0.957 
0.471 0.416 0.643 0.71 
0.667 0.459 0.78 0.957 
0.416 0.29 0.694 0.749 
0.667 0.541 0.796 1.0 
0.557 0.208 0.678 0.749 
0.529 0.584 0.745 0.918 
0.416 0.29 0.694 0.749 
0.557 0.376 0.78 0.71 
0.918 0.416 0.949 0.831 
0.835 0.376 0.898 0.71 
0.804 0.667 0.863 1.0 
0.584 0.29 0.729 0.749 
0.388 0.208 0.678 0.792 
0.584 0.502 0.729 0.918 
0.945 0.749 0.965 0.875 
0.471 0.082 0.678 0.584 
0.361 0.333 0.663 0.792 
0.557 0.29 0.663 0.71 
0.804 0.502 0.847 0.71 
0.498 0.416 0.51 0.71 
0.804 0.416 0.812 0.624 
1.0 0.749 0.914 0.792 
0.557 0.333 0.694 0.584 
0.945 0.416 0.863 0.918 
0.584 0.459 0.761 0.71 
0.722 0.459 0.745 0.831 
0.722 0.459 0.694 0.918 
0.694 0.502 0.831 0.918 
0.667 0.416 0.714 0.918 
0.612 0.416 0.714 0.792 
0.443 0.416 0.694 0.71 
Teaching Patterns
1.0 0.0 0.0 
1.0 0.0 0.0 
1.0 0.0 0.0 
1.0 0.0 0.0 
1.0 0.0 0.0 
1.0 0.0 0.0 
1.0 0.0 0.0 
1.0 0.0 0.0 
1.0 0.0 0.0 
1.0 0.0 0.0 
1.0 0.0 0.0 
1.0 0.0 0.0 
1.0 0.0 0.0 
1.0 0.0 0.0 
1.0 0.0 0.0 
1.0 0.0 0.0 
1.0 0.0 0.0 
1.0 0.0 0.0 
1.0 0.0 0.0 
1.0 0.0 0.0 
1.0 0.0 0.0 
1.0 0.0 0.0 
1.0 0.0 0.0 
1.0 0.0 0.0 
1.0 0.0 0.0 
1.0 0.0 0.0 
1.0 0.0 0.0 
1.0 0.0 0.0 
1.0 0.0 0.0 
1.0 0.0 0.0 
1.0 0.0 0.0 
1.0 0.0 0.0 
1.0 0.0 0.0 
1.0 0.0 0.0 
1.0 0.0 0.0 
1.0 0.0 0.0 
1.0 0.0 0.0 
1.0 0.0 0.0 
1.0 0.0 0.0 
1.0 0.0 0.0 
1.0 0.0 0.0 
1.0 0.0 0.0 
1.0 0.0 0.0 
1.0 0.0 0.0 
1.0 0.0 0.0 
1.0 0.0 0.0 
1.0 0.0 0.0 
1.0 0.0 0.0 
1.0 0.0 0.0 
1.0 0.0 0.0 
0.0 1.0 0.0 
0.0 1.0 0.0 
0.0 1.0 0.0 
0.0 1.0 0.0 
0.0 1.0 0.0 
0.0 1.0 0.0 
0.0 1.0 0.0 
0.0 1.0 0.0 
0.0 1.0 0.0 
0.0 1.0 0.0 
0.0 1.0 0.0 
0.0 1.0 0.0 
0.0 1.0 0.0 
0.0 1.0 0.0 
0.0 1.0 0.0 
0.0 1.0 0.0 
0.0 1.0 0.0 
0.0 1.0 0.0 
0.0 1.0 0.0 
0.0 1.0 0.0 
0.0 1.0 0.0 
0.0 1.0 0.0 
0.0 1.0 0.0 
0.0 1.0 0.0 
0.0 1.0 0.0 
0.0 1.0 0.0 
0.0 1.0 0.0 
0.0 1.0 0.0 
0.0 1.0 0.0 
0.0 1.0 0.0 
0.0 1.0 0.0 
0.0 1.0 0.0 
0.0 1.0 0.0 
0.0 1.0 0.0 
0.0 1.0 0.0 
0.0 1.0 0.0 
0.0 1.0 0.0 
0.0 1.0 0.0 
0.0 1.0 0.0 
0.0 1.0 0.0 
0.0 1.0 0.0 
0.0 1.0 0.0 
0.0 1.0 0.0 
0.0 1.0 0.0 
0.0 1.0 0.0 
0.0 1.0 0.0 
0.0 1.0 0.0 
0.0 1.0 0.0 
0.0 1.0 0.0 
0.0 1.0 0.0 
0.0 0.0 1.0 
0.0 0.0 1.0 
0.0 0.0 1.0 
0.0 0.0 1.0 
0.0 0.0 1.0 
0.0 0.0 1.0 
0.0 0.0 1.0 
0.0 0.0 1.0 
0.0 0.0 1.0 
0.0 0.0 1.0 
0.0 0.0 1.0 
0.0 0.0 1.0 
0.0 0.0 1.0 
0.0 0.0 1.0 
0.0 0.0 1.0 
0.0 0.0 1.0 
0.0 0.0 1.0 
0.0 0.0 1.0 
0.0 0.0 1.0 
0.0 0.0 1.0 
0.0 0.0 1.0 
0.0 0.0 1.0 
0.0 0.0 1.0 
0.0 0.0 1.0 
0.0 0.0 1.0 
0.0 0.0 1.0 
0.0 0.0 1.0 
0.0 0.0 1.0 
0.0 0.0 1.0 
0.0 0.0 1.0 
0.0 0.0 1.0 
0.0 0.0 1.0 
0.0 0.0 1.0 
0.0 0.0 1.0 
0.0 0.0 1.0 
0.0 0.0 1.0 
0.0 0.0 1.0 
0.0 0.0 1.0 
0.0 0.0 1.0 
0.0 0.0 1.0 
0.0 0.0 1.0 
0.0 0.0 1.0 
0.0 0.0 1.0 
0.0 0.0 1.0 
0.0 0.0 1.0 
0.0 0.0 1.0 
0.0 0.0 1.0 
0.0 0.0 1.0 
0.0 0.0 1.0 
0.0 0.0 1.0 
Learning : 0.05
Momentum : 0.8999999761581421
Epoch: 100, Error: 0.025315618648964658
Epoch: 200, Error: 0.01811164024341772
Epoch: 300, Error: 0.015328008859299974
Epoch: 400, Error: 0.014497378282247349
Epoch: 500, Error: 0.014507781107585079
Epoch: 600, Error: 0.013320538508727107
Epoch: 700, Error: 0.012993879297241917
Epoch: 800, Error: 0.013238244058799392
Epoch: 900, Error: 0.012669062085005395
Epoch: 1000, Error: 0.012521575334073963
Epoch: 1100, Error: 0.012406876776844083
Epoch: 1200, Error: 0.012297144073623329
Epoch: 1300, Error: 0.012258513200002904
Epoch: 1400, Error: 0.012330436144965772
Epoch: 1500, Error: 0.012143287134497947
Epoch: 1600, Error: 0.012643643381412079
Epoch: 1700, Error: 0.012198340311147212
Epoch: 1800, Error: 0.012059874204877025
Epoch: 1900, Error: 0.01210249862853018
Epoch: 2000, Error: 0.012073072774017106
Epoch: 2100, Error: 0.012026928890097334
Epoch: 2200, Error: 0.012058959754709313
Epoch: 2300, Error: 0.011991547608538418
Epoch: 2400, Error: 0.012045835331339488
Epoch: 2500, Error: 0.012200237020279125
Epoch: 2600, Error: 0.012090321244437199
Epoch: 2700, Error: 0.011951139537049535
Epoch: 2800, Error: 0.012110432733631772
Epoch: 2900, Error: 0.01196724886426384
Epoch: 3000, Error: 0.011964302946672304
Epoch: 3100, Error: 0.01205324460919886
Epoch: 3200, Error: 0.012120183797806565
Epoch: 3300, Error: 0.011955566653426074
Epoch: 3400, Error: 0.012068909716052017
Epoch: 3500, Error: 0.011970416675913073
Epoch: 3600, Error: 0.011948155714671782
Epoch: 3700, Error: 0.01200860548844979
Epoch: 3800, Error: 0.011916822617675715
Epoch: 3900, Error: 0.011867518815497564
Epoch: 4000, Error: 0.011821493537239772
Epoch: 4100, Error: 0.011955792494896676
Epoch: 4200, Error: 0.011799115653012891
Epoch: 4300, Error: 0.011836509139882516
Epoch: 4400, Error: 0.012073102914812372
Epoch: 4500, Error: 0.011732577839415106
Epoch: 4600, Error: 0.011856043338053285
Epoch: 4700, Error: 0.011688915704364025
Epoch: 4800, Error: 0.011695902435797389
Epoch: 4900, Error: 0.01174320050276875
Epoch: 5000, Error: 0.011602283031373006
Epoch: 5100, Error: 0.011586583687914119
Epoch: 5200, Error: 0.01168466623863415
Epoch: 5300, Error: 0.01165133535284938
Epoch: 5400, Error: 0.011578852030436843
Epoch: 5500, Error: 0.011962904414864119
Epoch: 5600, Error: 0.011518871201876075
Epoch: 5700, Error: 0.011718064143660539
Epoch: 5800, Error: 0.011375687241013233
Epoch: 5900, Error: 0.011370909999091969
Epoch: 6000, Error: 0.01159199169586907
Epoch: 6100, Error: 0.011377095613731592
Epoch: 6200, Error: 0.011361706542956686
Epoch: 6300, Error: 0.011217048869047409
Epoch: 6400, Error: 0.011214881459862498
Epoch: 6500, Error: 0.011117006845979114
Epoch: 6600, Error: 0.011125291264169102
Epoch: 6700, Error: 0.011052440086379263
Epoch: 6800, Error: 0.010948632779295272
Epoch: 6900, Error: 0.010917487448680863
Epoch: 7000, Error: 0.010859757090239446
Epoch: 7100, Error: 0.010771447442343736
Epoch: 7200, Error: 0.010710606532902893
Epoch: 7300, Error: 0.010629890276636736
Epoch: 7400, Error: 0.010594420699557953
Epoch: 7500, Error: 0.010455342001822812
Epoch: 7600, Error: 0.010405196818619499
Epoch: 7700, Error: 0.010446256504846655
Epoch: 7800, Error: 0.010177260811012917
Epoch: 7900, Error: 0.010123033829142298
Epoch: 8000, Error: 0.00998934720426657
Epoch: 8100, Error: 0.009955531824324161
Epoch: 8200, Error: 0.00996034965430026
Epoch: 8300, Error: 0.009661845495504591
Epoch: 8400, Error: 0.009589018283567346
Epoch: 8500, Error: 0.0095040679260207
Epoch: 8600, Error: 0.0093038432735282
Epoch: 8700, Error: 0.009199530091212165
Epoch: 8800, Error: 0.009087620210028187
Epoch: 8900, Error: 0.008969590938387732
Epoch: 9000, Error: 0.008926876208821042
Epoch: 9100, Error: 0.00874006358153055
Epoch: 9200, Error: 0.008639823907756474
Epoch: 9300, Error: 0.008537423812953826
Epoch: 9400, Error: 0.00847386388889629
Epoch: 9500, Error: 0.008347953744864094
Epoch: 9600, Error: 0.00828895720299763
Epoch: 9700, Error: 0.008209464224722707
Epoch: 9800, Error: 0.008081019251521857
Epoch: 9900, Error: 0.008007080149451442
Epoch: 10000, Error: 0.008081083487965848
Epoch: 10100, Error: 0.007865082349766237
Epoch: 10200, Error: 0.007766359783485525
Epoch: 10300, Error: 0.007745238531770125
Epoch: 10400, Error: 0.007625078639248396
Epoch: 10500, Error: 0.007571077915996053
Epoch: 10600, Error: 0.007550363724139079
Epoch: 10700, Error: 0.007450196114979006
Epoch: 10800, Error: 0.007383218305372086
Epoch: 10900, Error: 0.0073549618402956336
Epoch: 11000, Error: 0.007284510245088273
Epoch: 11100, Error: 0.007264544931304073
Epoch: 11200, Error: 0.007201348107674311
Epoch: 11300, Error: 0.007149530036813059
Epoch: 11400, Error: 0.007126673056033124
Epoch: 11500, Error: 0.007098895577644464
Epoch: 11600, Error: 0.007060265399660099
Epoch: 11700, Error: 0.006993210315835475
Epoch: 11800, Error: 0.006960576601595016
Epoch: 11900, Error: 0.0069444627165620755
Epoch: 12000, Error: 0.006906327701897902
Epoch: 12100, Error: 0.007042169842045613
Epoch: 12200, Error: 0.006861252648129265
Epoch: 12300, Error: 0.006806807649115503
Epoch: 12400, Error: 0.006768221858366288
Epoch: 12500, Error: 0.006774583533820199
Epoch: 12600, Error: 0.006708587324459019
Epoch: 12700, Error: 0.006686841482270227
Epoch: 12800, Error: 0.006645315885935083
Epoch: 12900, Error: 0.006616508336116847
Epoch: 13000, Error: 0.006593433252530831
Epoch: 13100, Error: 0.006585855741005663
Epoch: 13200, Error: 0.006552763958706637
Epoch: 13300, Error: 0.0065570272156731686
Epoch: 13400, Error: 0.006525520567328137
Epoch: 13500, Error: 0.006499637707729525
Epoch: 13600, Error: 0.006450192018967584
Epoch: 13700, Error: 0.006422030482319106
Epoch: 13800, Error: 0.006439742064868208
Epoch: 13900, Error: 0.006401291717315607
Epoch: 14000, Error: 0.006394047878633439
Epoch: 14100, Error: 0.006356419236397703
Epoch: 14200, Error: 0.006344418166914916
Epoch: 14300, Error: 0.006334413625045422
Epoch: 14400, Error: 0.006267840896370239
Epoch: 14500, Error: 0.006278468059835243
Epoch: 14600, Error: 0.006259951257156028
Epoch: 14700, Error: 0.0062866036436328805
Epoch: 14800, Error: 0.00622387266764751
Epoch: 14900, Error: 0.006229347469750599
Epoch: 15000, Error: 0.0061993936459119724
Epoch: 15100, Error: 0.006191877525877418
Epoch: 15200, Error: 0.0061461057368078255
Epoch: 15300, Error: 0.006121549758828754
Epoch: 15400, Error: 0.006100336682984562
Epoch: 15500, Error: 0.0061106408550772534
Epoch: 15600, Error: 0.006107943357201667
Epoch: 15700, Error: 0.006083910244921335
Epoch: 15800, Error: 0.006101365533322228
Epoch: 15900, Error: 0.006098289307959001
Epoch: 16000, Error: 0.00609207277197926
Epoch: 16100, Error: 0.006075923351531831
Epoch: 16200, Error: 0.00603462983309089
Epoch: 16300, Error: 0.006056893842347477
Epoch: 16400, Error: 0.00604714156481167
Epoch: 16500, Error: 0.006055233657342773
Epoch: 16600, Error: 0.006152389664489358
Epoch: 16700, Error: 0.006039541113603365
Epoch: 16800, Error: 0.006052066623687945
Epoch: 16900, Error: 0.0060149503220461266
Epoch: 17000, Error: 0.006068483561288932
Epoch: 17100, Error: 0.0060314728355074865
Epoch: 17200, Error: 0.006049866769974609
Epoch: 17300, Error: 0.006030347900977421
Epoch: 17400, Error: 0.006042430718718902
Epoch: 17500, Error: 0.006013365486899736
Epoch: 17600, Error: 0.00605995665863912
Epoch: 17700, Error: 0.005997408638070587
Epoch: 17800, Error: 0.0059980471221260726
Epoch: 17900, Error: 0.0060490923566957275
Epoch: 18000, Error: 0.006022315457828733
Epoch: 18100, Error: 0.006007944614636336
Epoch: 18200, Error: 0.006047552494655288
Epoch: 18300, Error: 0.0060401165831023215
Epoch: 18400, Error: 0.005993434234125761
Epoch: 18500, Error: 0.005943211870504818
Epoch: 18600, Error: 0.005937690879595977
Epoch: 18700, Error: 0.005939757797446702
Epoch: 18800, Error: 0.005954399458301413
Epoch: 18900, Error: 0.005963585283614294
Epoch: 19000, Error: 0.005930944374868561
Epoch: 19100, Error: 0.005907954767444042
Epoch: 19200, Error: 0.005902163562581601
Epoch: 19300, Error: 0.005874292675745158
Epoch: 19400, Error: 0.005882161117747912
Epoch: 19500, Error: 0.005860613987280922
Epoch: 19600, Error: 0.005888521541998633
Epoch: 19700, Error: 0.005865077941277204
Epoch: 19800, Error: 0.005867439520818136
Epoch: 19900, Error: 0.00587849037529285
Epoch: 20000, Error: 0.005871292761854159
Epoch: 20100, Error: 0.005836288148869075
Epoch: 20200, Error: 0.005873911911746952
Epoch: 20300, Error: 0.0058345648569023065
Epoch: 20400, Error: 0.0058251283039654055
Epoch: 20500, Error: 0.005834482330233538
Epoch: 20600, Error: 0.005827143287648682
Epoch: 20700, Error: 0.005831791789300345
Epoch: 20800, Error: 0.0058250707867313675
Epoch: 20900, Error: 0.005816350069033664
Epoch: 21000, Error: 0.005824890536474286
Epoch: 21100, Error: 0.005880610474496044
Epoch: 21200, Error: 0.0058099067604372055
Epoch: 21300, Error: 0.005851065546576235
Epoch: 21400, Error: 0.005836337540875264
Epoch: 21500, Error: 0.0057633388205543075
Epoch: 21600, Error: 0.005814220797035097
Epoch: 21700, Error: 0.005793928575397684
Epoch: 21800, Error: 0.005789724673258387
Finished
