Input Patterns
0.224 0.624 0.067 0.043 
0.11 0.502 0.051 0.043 
0.196 0.667 0.067 0.043 
0.055 0.584 0.067 0.082 
0.027 0.376 0.067 0.043 
0.306 0.71 0.086 0.043 
0.137 0.416 0.067 0.0 
0.416 0.831 0.035 0.043 
0.306 0.792 0.051 0.125 
0.388 0.749 0.118 0.082 
0.306 0.584 0.118 0.043 
0.082 0.667 0.0 0.043 
0.137 0.584 0.153 0.043 
0.196 0.584 0.102 0.125 
0.251 0.584 0.067 0.043 
0.137 0.459 0.102 0.043 
0.251 0.875 0.086 0.0 
0.165 0.459 0.086 0.043 
0.333 0.624 0.051 0.043 
0.027 0.416 0.051 0.043 
0.196 0.624 0.051 0.082 
0.027 0.502 0.051 0.043 
0.224 0.749 0.153 0.125 
0.224 0.749 0.102 0.043 
0.278 0.71 0.086 0.043 
0.165 0.416 0.067 0.043 
0.082 0.459 0.086 0.043 
0.306 0.792 0.118 0.125 
0.196 0.584 0.086 0.043 
0.165 0.459 0.086 0.0 
0.137 0.584 0.102 0.043 
0.0 0.416 0.016 0.0 
0.388 1.0 0.086 0.125 
0.224 0.624 0.067 0.082 
0.224 0.749 0.086 0.082 
0.224 0.71 0.086 0.125 
0.224 0.541 0.118 0.165 
0.196 0.416 0.102 0.043 
0.251 0.624 0.086 0.043 
0.11 0.502 0.102 0.043 
0.306 0.584 0.086 0.125 
0.333 0.918 0.067 0.043 
0.196 0.502 0.035 0.043 
0.165 0.667 0.067 0.0 
0.224 0.584 0.086 0.043 
0.055 0.125 0.051 0.082 
0.196 0.624 0.102 0.208 
0.137 0.416 0.067 0.082 
0.082 0.502 0.067 0.043 
0.196 0.541 0.067 0.043 
0.749 0.502 0.627 0.541 
0.722 0.459 0.663 0.584 
0.612 0.333 0.612 0.584 
0.557 0.541 0.627 0.624 
0.639 0.376 0.612 0.498 
0.196 0.0 0.424 0.376 
0.471 0.082 0.51 0.376 
0.361 0.376 0.439 0.498 
0.361 0.416 0.592 0.584 
0.529 0.082 0.592 0.584 
0.443 0.502 0.643 0.459 
0.557 0.208 0.663 0.584 
0.584 0.376 0.561 0.498 
0.694 0.333 0.643 0.541 
0.471 0.376 0.592 0.584 
0.333 0.169 0.475 0.416 
0.416 0.29 0.49 0.459 
0.306 0.416 0.592 0.584 
0.667 0.459 0.627 0.584 
0.361 0.416 0.525 0.498 
0.333 0.251 0.576 0.459 
0.416 0.251 0.51 0.459 
0.361 0.29 0.541 0.498 
0.388 0.376 0.541 0.498 
0.224 0.208 0.337 0.416 
0.584 0.502 0.592 0.584 
0.333 0.125 0.51 0.498 
0.388 0.333 0.592 0.498 
0.165 0.169 0.388 0.376 
0.251 0.29 0.49 0.541 
0.443 0.416 0.541 0.584 
0.498 0.376 0.627 0.541 
0.667 0.459 0.576 0.541 
0.416 0.29 0.525 0.376 
0.361 0.208 0.49 0.416 
0.498 0.333 0.51 0.498 
0.498 0.333 0.627 0.459 
0.639 0.416 0.576 0.541 
0.667 0.416 0.678 0.667 
0.388 0.251 0.424 0.376 
0.333 0.169 0.459 0.376 
0.471 0.29 0.694 0.624 
0.471 0.584 0.592 0.624 
0.557 0.125 0.576 0.498 
0.333 0.208 0.51 0.498 
0.498 0.416 0.612 0.541 
0.196 0.125 0.388 0.376 
0.388 0.416 0.541 0.459 
0.529 0.376 0.561 0.498 
0.388 0.333 0.525 0.498 
0.557 0.541 0.847 1.0 
0.776 0.416 0.831 0.831 
0.612 0.416 0.812 0.875 
0.165 0.208 0.592 0.667 
0.667 0.208 0.812 0.71 
0.612 0.502 0.694 0.792 
0.694 0.416 0.761 0.831 
0.416 0.333 0.694 0.957 
0.612 0.416 0.761 0.71 
0.945 0.251 1.0 0.918 
0.722 0.502 0.796 0.918 
0.945 0.333 0.965 0.792 
0.667 0.541 0.796 0.831 
0.529 0.333 0.643 0.71 
0.584 0.333 0.78 0.831 
0.863 0.333 0.863 0.749 
0.584 0.333 0.78 0.875 
0.498 0.251 0.78 0.541 
0.557 0.584 0.78 0.957 
0.471 0.416 0.643 0.71 
0.667 0.459 0.78 0.957 
0.416 0.29 0.694 0.749 
0.667 0.541 0.796 1.0 
0.557 0.208 0.678 0.749 
0.529 0.584 0.745 0.918 
0.416 0.29 0.694 0.749 
0.557 0.376 0.78 0.71 
0.918 0.416 0.949 0.831 
0.835 0.376 0.898 0.71 
0.804 0.667 0.863 1.0 
0.584 0.29 0.729 0.749 
0.388 0.208 0.678 0.792 
0.584 0.502 0.729 0.918 
0.945 0.749 0.965 0.875 
0.471 0.082 0.678 0.584 
0.361 0.333 0.663 0.792 
0.557 0.29 0.663 0.71 
0.804 0.502 0.847 0.71 
0.498 0.416 0.51 0.71 
0.804 0.416 0.812 0.624 
1.0 0.749 0.914 0.792 
0.557 0.333 0.694 0.584 
0.945 0.416 0.863 0.918 
0.584 0.459 0.761 0.71 
0.722 0.459 0.745 0.831 
0.722 0.459 0.694 0.918 
0.694 0.502 0.831 0.918 
0.667 0.416 0.714 0.918 
0.612 0.416 0.714 0.792 
0.443 0.416 0.694 0.71 
Teaching Patterns
1.0 0.0 0.0 
1.0 0.0 0.0 
1.0 0.0 0.0 
1.0 0.0 0.0 
1.0 0.0 0.0 
1.0 0.0 0.0 
1.0 0.0 0.0 
1.0 0.0 0.0 
1.0 0.0 0.0 
1.0 0.0 0.0 
1.0 0.0 0.0 
1.0 0.0 0.0 
1.0 0.0 0.0 
1.0 0.0 0.0 
1.0 0.0 0.0 
1.0 0.0 0.0 
1.0 0.0 0.0 
1.0 0.0 0.0 
1.0 0.0 0.0 
1.0 0.0 0.0 
1.0 0.0 0.0 
1.0 0.0 0.0 
1.0 0.0 0.0 
1.0 0.0 0.0 
1.0 0.0 0.0 
1.0 0.0 0.0 
1.0 0.0 0.0 
1.0 0.0 0.0 
1.0 0.0 0.0 
1.0 0.0 0.0 
1.0 0.0 0.0 
1.0 0.0 0.0 
1.0 0.0 0.0 
1.0 0.0 0.0 
1.0 0.0 0.0 
1.0 0.0 0.0 
1.0 0.0 0.0 
1.0 0.0 0.0 
1.0 0.0 0.0 
1.0 0.0 0.0 
1.0 0.0 0.0 
1.0 0.0 0.0 
1.0 0.0 0.0 
1.0 0.0 0.0 
1.0 0.0 0.0 
1.0 0.0 0.0 
1.0 0.0 0.0 
1.0 0.0 0.0 
1.0 0.0 0.0 
1.0 0.0 0.0 
0.0 1.0 0.0 
0.0 1.0 0.0 
0.0 1.0 0.0 
0.0 1.0 0.0 
0.0 1.0 0.0 
0.0 1.0 0.0 
0.0 1.0 0.0 
0.0 1.0 0.0 
0.0 1.0 0.0 
0.0 1.0 0.0 
0.0 1.0 0.0 
0.0 1.0 0.0 
0.0 1.0 0.0 
0.0 1.0 0.0 
0.0 1.0 0.0 
0.0 1.0 0.0 
0.0 1.0 0.0 
0.0 1.0 0.0 
0.0 1.0 0.0 
0.0 1.0 0.0 
0.0 1.0 0.0 
0.0 1.0 0.0 
0.0 1.0 0.0 
0.0 1.0 0.0 
0.0 1.0 0.0 
0.0 1.0 0.0 
0.0 1.0 0.0 
0.0 1.0 0.0 
0.0 1.0 0.0 
0.0 1.0 0.0 
0.0 1.0 0.0 
0.0 1.0 0.0 
0.0 1.0 0.0 
0.0 1.0 0.0 
0.0 1.0 0.0 
0.0 1.0 0.0 
0.0 1.0 0.0 
0.0 1.0 0.0 
0.0 1.0 0.0 
0.0 1.0 0.0 
0.0 1.0 0.0 
0.0 1.0 0.0 
0.0 1.0 0.0 
0.0 1.0 0.0 
0.0 1.0 0.0 
0.0 1.0 0.0 
0.0 1.0 0.0 
0.0 1.0 0.0 
0.0 1.0 0.0 
0.0 1.0 0.0 
0.0 0.0 1.0 
0.0 0.0 1.0 
0.0 0.0 1.0 
0.0 0.0 1.0 
0.0 0.0 1.0 
0.0 0.0 1.0 
0.0 0.0 1.0 
0.0 0.0 1.0 
0.0 0.0 1.0 
0.0 0.0 1.0 
0.0 0.0 1.0 
0.0 0.0 1.0 
0.0 0.0 1.0 
0.0 0.0 1.0 
0.0 0.0 1.0 
0.0 0.0 1.0 
0.0 0.0 1.0 
0.0 0.0 1.0 
0.0 0.0 1.0 
0.0 0.0 1.0 
0.0 0.0 1.0 
0.0 0.0 1.0 
0.0 0.0 1.0 
0.0 0.0 1.0 
0.0 0.0 1.0 
0.0 0.0 1.0 
0.0 0.0 1.0 
0.0 0.0 1.0 
0.0 0.0 1.0 
0.0 0.0 1.0 
0.0 0.0 1.0 
0.0 0.0 1.0 
0.0 0.0 1.0 
0.0 0.0 1.0 
0.0 0.0 1.0 
0.0 0.0 1.0 
0.0 0.0 1.0 
0.0 0.0 1.0 
0.0 0.0 1.0 
0.0 0.0 1.0 
0.0 0.0 1.0 
0.0 0.0 1.0 
0.0 0.0 1.0 
0.0 0.0 1.0 
0.0 0.0 1.0 
0.0 0.0 1.0 
0.0 0.0 1.0 
0.0 0.0 1.0 
0.0 0.0 1.0 
0.0 0.0 1.0 
Learning : 0.05
Momentum : 0.8999999761581421
Epoch: 100, Error: 0.022536408998456086
Epoch: 200, Error: 0.016592613613778076
Epoch: 300, Error: 0.014762882074013578
Epoch: 400, Error: 0.013834056717815154
Epoch: 500, Error: 0.013343545674658116
Epoch: 600, Error: 0.01376176679897261
Epoch: 700, Error: 0.013027704602764404
Epoch: 800, Error: 0.012701698249202193
Epoch: 900, Error: 0.01261653434509945
Epoch: 1000, Error: 0.01262847540287588
Epoch: 1100, Error: 0.01238912490050675
Epoch: 1200, Error: 0.012429845948504
Epoch: 1300, Error: 0.012314317283348544
Epoch: 1400, Error: 0.012315563792094317
Epoch: 1500, Error: 0.012365364995414935
Epoch: 1600, Error: 0.012380797663144323
Epoch: 1700, Error: 0.012290295174633804
Epoch: 1800, Error: 0.012216065203848528
Epoch: 1900, Error: 0.012191080533143456
Epoch: 2000, Error: 0.012155378831333772
Epoch: 2100, Error: 0.01216741231280252
Epoch: 2200, Error: 0.012155961910766885
Epoch: 2300, Error: 0.012178540150590727
Epoch: 2400, Error: 0.012116909653888397
Epoch: 2500, Error: 0.012052945737087036
Epoch: 2600, Error: 0.012070312662853543
Epoch: 2700, Error: 0.012010122095618228
Epoch: 2800, Error: 0.012016522094575587
Epoch: 2900, Error: 0.011948076477785799
Epoch: 3000, Error: 0.011939145199879935
Epoch: 3100, Error: 0.012038745044367414
Epoch: 3200, Error: 0.011887039095149666
Epoch: 3300, Error: 0.011943688206248956
Epoch: 3400, Error: 0.011838164205698911
Epoch: 3500, Error: 0.011991292050905369
Epoch: 3600, Error: 0.011864596592007028
Epoch: 3700, Error: 0.011870813002875381
Epoch: 3800, Error: 0.011932194937787832
Epoch: 3900, Error: 0.011817516070114132
Epoch: 4000, Error: 0.011835835495272236
Epoch: 4100, Error: 0.011828627677945406
Epoch: 4200, Error: 0.01179428825469392
Epoch: 4300, Error: 0.011789402402181338
Epoch: 4400, Error: 0.011792991640158108
Epoch: 4500, Error: 0.011829388026440372
Epoch: 4600, Error: 0.01183605146736496
Epoch: 4700, Error: 0.011798126870511346
Epoch: 4800, Error: 0.011839112982568699
Epoch: 4900, Error: 0.01189267104733899
Epoch: 5000, Error: 0.011970919748855682
Epoch: 5100, Error: 0.011763560839948789
Epoch: 5200, Error: 0.011749178169644285
Epoch: 5300, Error: 0.011850532435310762
Epoch: 5400, Error: 0.011711357973555147
Epoch: 5500, Error: 0.01181457406088377
Epoch: 5600, Error: 0.011700881903618841
Epoch: 5700, Error: 0.011769909700269237
Epoch: 5800, Error: 0.011970921740289525
Epoch: 5900, Error: 0.011729866910370352
Epoch: 6000, Error: 0.01170901177327821
Epoch: 6100, Error: 0.011751843234175515
Epoch: 6200, Error: 0.011720591029227479
Epoch: 6300, Error: 0.011682443059056885
Epoch: 6400, Error: 0.011755990068073109
Epoch: 6500, Error: 0.011670677731360688
Epoch: 6600, Error: 0.01165243414817811
Epoch: 6700, Error: 0.01165933223386703
Epoch: 6800, Error: 0.011664715270296704
Epoch: 6900, Error: 0.011673757669669486
Epoch: 7000, Error: 0.011570702338811353
Epoch: 7100, Error: 0.011621689606563533
Epoch: 7200, Error: 0.011578058008034216
Epoch: 7300, Error: 0.011561392181709028
Epoch: 7400, Error: 0.01157324004425989
Epoch: 7500, Error: 0.011556996801008159
Epoch: 7600, Error: 0.011530379155456166
Epoch: 7700, Error: 0.011607897057743115
Epoch: 7800, Error: 0.011554375631689895
Epoch: 7900, Error: 0.011532523641091256
Epoch: 8000, Error: 0.011574553821482337
Epoch: 8100, Error: 0.011536648579526727
Epoch: 8200, Error: 0.011489464785277587
Epoch: 8300, Error: 0.011478446993218155
Epoch: 8400, Error: 0.0114466875452305
Epoch: 8500, Error: 0.011425686372351375
Epoch: 8600, Error: 0.01137962793774903
Epoch: 8700, Error: 0.011398663344378678
Epoch: 8800, Error: 0.011449696010470486
Epoch: 8900, Error: 0.011327270062608474
Epoch: 9000, Error: 0.011283321706349412
Epoch: 9100, Error: 0.011293110966103914
Epoch: 9200, Error: 0.01114497697288873
Epoch: 9300, Error: 0.011239923179042306
Epoch: 9400, Error: 0.011042569728934628
Epoch: 9500, Error: 0.011018766091516601
Epoch: 9600, Error: 0.010989992163459078
Epoch: 9700, Error: 0.010923058771207672
Epoch: 9800, Error: 0.010864300916600894
Epoch: 9900, Error: 0.010773415269241691
Epoch: 10000, Error: 0.010671877203556472
Epoch: 10100, Error: 0.01058722408743651
Epoch: 10200, Error: 0.010501943984685859
Epoch: 10300, Error: 0.01040909681515474
Epoch: 10400, Error: 0.010264037714582551
Epoch: 10500, Error: 0.010134388938967264
Epoch: 10600, Error: 0.01005144961676906
Epoch: 10700, Error: 0.00992562687848569
Epoch: 10800, Error: 0.009766641987851894
Epoch: 10900, Error: 0.00970198313952662
Epoch: 11000, Error: 0.009527043960320612
Epoch: 11100, Error: 0.00935688648613692
Epoch: 11200, Error: 0.009283319767007844
Epoch: 11300, Error: 0.009069162562153937
Epoch: 11400, Error: 0.008966364775160185
Epoch: 11500, Error: 0.00881583340074276
Epoch: 11600, Error: 0.008668332979280801
Epoch: 11700, Error: 0.008641002940228097
Epoch: 11800, Error: 0.008462136639406004
Epoch: 11900, Error: 0.008334535468610973
Epoch: 12000, Error: 0.008191550729902727
Epoch: 12100, Error: 0.008087451686950894
Epoch: 12200, Error: 0.008001295985801963
Epoch: 12300, Error: 0.007909742682678867
Epoch: 12400, Error: 0.007840415659192811
Epoch: 12500, Error: 0.007761540516993399
Epoch: 12600, Error: 0.007673911494038174
Epoch: 12700, Error: 0.007604122892043219
Epoch: 12800, Error: 0.007550889722695692
Epoch: 12900, Error: 0.007476606670513903
Epoch: 13000, Error: 0.007426802188392629
Epoch: 13100, Error: 0.007370442659743596
Epoch: 13200, Error: 0.0073305008595892455
Epoch: 13300, Error: 0.00727926814897894
Epoch: 13400, Error: 0.007236166922268675
Epoch: 13500, Error: 0.007203969993333267
Epoch: 13600, Error: 0.007161162500238741
Epoch: 13700, Error: 0.007126079402539742
Epoch: 13800, Error: 0.00708182119303992
Epoch: 13900, Error: 0.007061053452602293
Epoch: 14000, Error: 0.007013293647383926
Epoch: 14100, Error: 0.006977837982609112
Epoch: 14200, Error: 0.006947582367598718
Epoch: 14300, Error: 0.0069137910454622736
Epoch: 14400, Error: 0.006922638813911054
Epoch: 14500, Error: 0.006978927780270007
Epoch: 14600, Error: 0.006842468538458026
Epoch: 14700, Error: 0.006853684450332107
Epoch: 14800, Error: 0.006753720358992965
Epoch: 14900, Error: 0.006713825972906036
Epoch: 15000, Error: 0.0067100140856279685
Epoch: 15100, Error: 0.006693140925559424
Epoch: 15200, Error: 0.006665539306203398
Epoch: 15300, Error: 0.0066456210812194895
Epoch: 15400, Error: 0.006630291876561342
Epoch: 15500, Error: 0.006599095038560776
Epoch: 15600, Error: 0.0065839886118329
Epoch: 15700, Error: 0.006552284598215607
Epoch: 15800, Error: 0.006535842338206908
Epoch: 15900, Error: 0.006532638335100066
Epoch: 16000, Error: 0.006494025707269024
Epoch: 16100, Error: 0.006500687310816985
Epoch: 16200, Error: 0.006453778111015965
Epoch: 16300, Error: 0.006433689601952695
Epoch: 16400, Error: 0.006422676505009956
Epoch: 16500, Error: 0.006413006655859553
Epoch: 16600, Error: 0.0063814723785360905
Epoch: 16700, Error: 0.006331804725048658
Epoch: 16800, Error: 0.006328386572700828
Epoch: 16900, Error: 0.006343391389242981
Epoch: 17000, Error: 0.006440566637770676
Epoch: 17100, Error: 0.006292106698882258
Epoch: 17200, Error: 0.0062804217396684675
Epoch: 17300, Error: 0.006276805600499825
Epoch: 17400, Error: 0.006238165068854435
Epoch: 17500, Error: 0.0063378201814394495
Epoch: 17600, Error: 0.006231315479777297
Epoch: 17700, Error: 0.006257520922099213
Epoch: 17800, Error: 0.00621890890600618
Epoch: 17900, Error: 0.006183877734264659
Epoch: 18000, Error: 0.006178148557208567
Epoch: 18100, Error: 0.006169568526568422
Epoch: 18200, Error: 0.006126089310010844
Epoch: 18300, Error: 0.006163774310189686
Epoch: 18400, Error: 0.006143257203304973
Epoch: 18500, Error: 0.006080949222222572
Epoch: 18600, Error: 0.006082251321368142
Epoch: 18700, Error: 0.0061173445432716675
Epoch: 18800, Error: 0.0060809783359996455
Epoch: 18900, Error: 0.006055551831673634
Epoch: 19000, Error: 0.00606684540613832
Epoch: 19100, Error: 0.0060764125828190385
Epoch: 19200, Error: 0.006068543229245053
Epoch: 19300, Error: 0.006046693838271047
Epoch: 19400, Error: 0.006026258826400863
Epoch: 19500, Error: 0.005988192864620154
Epoch: 19600, Error: 0.005957927133826646
Epoch: 19700, Error: 0.005985716391770437
Epoch: 19800, Error: 0.005941942071822167
Epoch: 19900, Error: 0.0059400176605251135
Epoch: 20000, Error: 0.005945791744675532
Epoch: 20100, Error: 0.005977696113924023
Epoch: 20200, Error: 0.005943361254308038
Epoch: 20300, Error: 0.005924994669913713
Epoch: 20400, Error: 0.0058860869693432944
Epoch: 20500, Error: 0.005901667915922905
Epoch: 20600, Error: 0.0058818241546495596
Epoch: 20700, Error: 0.005819786438091389
Epoch: 20800, Error: 0.005802058427321119
Epoch: 20900, Error: 0.00583859647747333
Epoch: 21000, Error: 0.005801951594245927
Epoch: 21100, Error: 0.0057866991421084285
Epoch: 21200, Error: 0.005782543097611989
Epoch: 21300, Error: 0.005770647378621521
Epoch: 21400, Error: 0.005792030290720696
Epoch: 21500, Error: 0.005767451819580187
Epoch: 21600, Error: 0.0057606868700620035
Epoch: 21700, Error: 0.005693626854977542
Epoch: 21800, Error: 0.005662023714638788
Epoch: 21900, Error: 0.005696308416755181
Epoch: 22000, Error: 0.0056391427492613125
Epoch: 22100, Error: 0.005648429965864203
Epoch: 22200, Error: 0.005677624766302875
Epoch: 22300, Error: 0.005714680789443024
Epoch: 22400, Error: 0.005681773249658065
Epoch: 22500, Error: 0.005656239636962586
Epoch: 22600, Error: 0.005615648366490287
Epoch: 22700, Error: 0.0055898891428227
Epoch: 22800, Error: 0.005572817771706467
Epoch: 22900, Error: 0.005570592333981443
Epoch: 23000, Error: 0.005521151434728658
Epoch: 23100, Error: 0.005584389843640906
Epoch: 23200, Error: 0.005572011204855897
Epoch: 23300, Error: 0.005510156451613413
Epoch: 23400, Error: 0.005546358916036201
Epoch: 23500, Error: 0.005494284902466132
Epoch: 23600, Error: 0.005470692964438978
Epoch: 23700, Error: 0.005465336800723337
Epoch: 23800, Error: 0.005454650972242174
Epoch: 23900, Error: 0.0054538302021546635
Epoch: 24000, Error: 0.005456370853874782
Epoch: 24100, Error: 0.005449915388559578
Epoch: 24200, Error: 0.005467772896309202
Epoch: 24300, Error: 0.005408940780174907
Epoch: 24400, Error: 0.0053823893794532505
Epoch: 24500, Error: 0.005406201875714432
Epoch: 24600, Error: 0.00537629029961046
Epoch: 24700, Error: 0.0054396305936573654
Epoch: 24800, Error: 0.005389001978337775
Epoch: 24900, Error: 0.005337467690208345
Epoch: 25000, Error: 0.005292789541597941
Epoch: 25100, Error: 0.005313014391070583
Epoch: 25200, Error: 0.005287550958119513
Epoch: 25300, Error: 0.005268866134183571
Epoch: 25400, Error: 0.00528191238060784
Epoch: 25500, Error: 0.005266943282664909
Epoch: 25600, Error: 0.0052448836643459095
Epoch: 25700, Error: 0.005195114223376761
Epoch: 25800, Error: 0.005203488023254986
Epoch: 25900, Error: 0.005126985389550572
Epoch: 26000, Error: 0.005137491008230067
Epoch: 26100, Error: 0.0051024772250602216
Epoch: 26200, Error: 0.0051592526847384955
Epoch: 26300, Error: 0.00518443105394014
Epoch: 26400, Error: 0.005189286562057123
Epoch: 26500, Error: 0.005148037719982463
Epoch: 26600, Error: 0.005076161579837437
Epoch: 26700, Error: 0.0051605286164468885
Epoch: 26800, Error: 0.0051185247119661294
Epoch: 26900, Error: 0.005154145430409503
Epoch: 27000, Error: 0.005026936487453256
Epoch: 27100, Error: 0.005087360653372779
Epoch: 27200, Error: 0.0049813290623596665
Epoch: 27300, Error: 0.005106306790096323
Epoch: 27400, Error: 0.005013720752697672
Epoch: 27500, Error: 0.005023157727243976
Epoch: 27600, Error: 0.004864326549317718
Epoch: 27700, Error: 0.004853873272013823
Epoch: 27800, Error: 0.004826680712428142
Epoch: 27900, Error: 0.004762926474777828
Epoch: 28000, Error: 0.004751050721209771
Epoch: 28100, Error: 0.004811391811296282
Epoch: 28200, Error: 0.004740269147171356
Epoch: 28300, Error: 0.004624453102957875
Epoch: 28400, Error: 0.004571605780924917
Epoch: 28500, Error: 0.004611815612390494
Epoch: 28600, Error: 0.0044815343333587145
Epoch: 28700, Error: 0.004443162375141385
Epoch: 28800, Error: 0.004443661568462162
Epoch: 28900, Error: 0.0044010162497462235
Epoch: 29000, Error: 0.0043748068333091
Epoch: 29100, Error: 0.004349350573832036
Epoch: 29200, Error: 0.004401601151012065
Epoch: 29300, Error: 0.004320239478703423
Epoch: 29400, Error: 0.004292380916058141
Epoch: 29500, Error: 0.004310434067354092
Epoch: 29600, Error: 0.00426871292560708
Epoch: 29700, Error: 0.0042221078458116405
Epoch: 29800, Error: 0.004231554605482333
Epoch: 29900, Error: 0.004154423934788779
Epoch: 30000, Error: 0.0042083720531226575
Epoch: 30100, Error: 0.004168989023737362
Epoch: 30200, Error: 0.004086795777740226
Epoch: 30300, Error: 0.004067539753700506
Epoch: 30400, Error: 0.004059920717483943
Epoch: 30500, Error: 0.004064359384265096
Epoch: 30600, Error: 0.004030414133776851
Epoch: 30700, Error: 0.0040080149838239735
Epoch: 30800, Error: 0.0039920284514536695
Epoch: 30900, Error: 0.003971452513693358
Epoch: 31000, Error: 0.0040775695159394314
Epoch: 31100, Error: 0.0039385328997209946
Epoch: 31200, Error: 0.00392442829930415
Epoch: 31300, Error: 0.003976186937000818
Epoch: 31400, Error: 0.0038836604852824533
Epoch: 31500, Error: 0.003938260945558648
Epoch: 31600, Error: 0.0039087040822915016
Epoch: 31700, Error: 0.0038805289526650977
Epoch: 31800, Error: 0.0038789120091849007
Epoch: 31900, Error: 0.003930642061642987
Epoch: 32000, Error: 0.0038834957765504913
Epoch: 32100, Error: 0.0038825481558402005
Epoch: 32200, Error: 0.003933981050296525
Epoch: 32300, Error: 0.003939895683316606
Epoch: 32400, Error: 0.004084602848620876
Epoch: 32500, Error: 0.0038232554064004574
Epoch: 32600, Error: 0.003839933679957516
Epoch: 32700, Error: 0.0038591524730450183
Epoch: 32800, Error: 0.0038341867949721444
Epoch: 32900, Error: 0.0038641458472316544
Epoch: 33000, Error: 0.003799068879846984
Epoch: 33100, Error: 0.0038111380555612318
Epoch: 33200, Error: 0.003749787082511855
Epoch: 33300, Error: 0.003720923431309333
Epoch: 33400, Error: 0.0037073211411992597
Epoch: 33500, Error: 0.0037730567563910374
Epoch: 33600, Error: 0.0036994703989590935
Epoch: 33700, Error: 0.0036983691155852835
Epoch: 33800, Error: 0.00380796231101032
Epoch: 33900, Error: 0.003646255461355787
Epoch: 34000, Error: 0.0036654509603917316
Epoch: 34100, Error: 0.003605498344426394
Epoch: 34200, Error: 0.0036303511565478944
Epoch: 34300, Error: 0.0037303247364666127
Epoch: 34400, Error: 0.0035477078168548266
Epoch: 34500, Error: 0.0035761482089973896
Epoch: 34600, Error: 0.0035306403725584253
Epoch: 34700, Error: 0.003552251848580338
Epoch: 34800, Error: 0.0034824303295141754
Epoch: 34900, Error: 0.003454136041464518
Epoch: 35000, Error: 0.00352096571997137
Epoch: 35100, Error: 0.0034929959146256595
Epoch: 35200, Error: 0.003440482607979543
Epoch: 35300, Error: 0.0034381252871176
Epoch: 35400, Error: 0.0034525416241171477
Epoch: 35500, Error: 0.0035150178779220324
Epoch: 35600, Error: 0.003448555677297635
Epoch: 35700, Error: 0.0033950240168530745
Epoch: 35800, Error: 0.0033939561777131897
Epoch: 35900, Error: 0.0034583301427462037
Epoch: 36000, Error: 0.0033934460072244177
Epoch: 36100, Error: 0.0032824361205601314
Epoch: 36200, Error: 0.0033063025874641478
Epoch: 36300, Error: 0.0032867606787720994
Epoch: 36400, Error: 0.0032879097277469967
Epoch: 36500, Error: 0.0032613555210829533
Epoch: 36600, Error: 0.003267081480887656
Epoch: 36700, Error: 0.0031647160907419328
Epoch: 36800, Error: 0.003190404742259466
Epoch: 36900, Error: 0.0031752645136791757
Epoch: 37000, Error: 0.0030910448719757753
Epoch: 37100, Error: 0.0030756380858254205
Epoch: 37200, Error: 0.003051996824821387
Epoch: 37300, Error: 0.0030345412950363686
Epoch: 37400, Error: 0.003049563903551839
Epoch: 37500, Error: 0.0031607175147079793
Epoch: 37600, Error: 0.0030220714624740424
Epoch: 37700, Error: 0.0030386549749776967
Epoch: 37800, Error: 0.0030684608596507497
Epoch: 37900, Error: 0.002983921620413089
Epoch: 38000, Error: 0.002966162332276306
Epoch: 38100, Error: 0.002948580847695327
Epoch: 38200, Error: 0.0029183717215454496
Epoch: 38300, Error: 0.00292240789692224
Epoch: 38400, Error: 0.0029323324521219754
Epoch: 38500, Error: 0.003002079484048612
Epoch: 38600, Error: 0.002980030364699174
Epoch: 38700, Error: 0.00293241287693823
Epoch: 38800, Error: 0.0029125040381913895
Epoch: 38900, Error: 0.00287552904478223
Epoch: 39000, Error: 0.0029097891008467145
Epoch: 39100, Error: 0.002882458246818238
Epoch: 39200, Error: 0.002908995963077371
Epoch: 39300, Error: 0.002873745526862141
Epoch: 39400, Error: 0.002966730393632538
Epoch: 39500, Error: 0.0028694999519941183
Epoch: 39600, Error: 0.002878356676778419
Epoch: 39700, Error: 0.0028269147474584712
Epoch: 39800, Error: 0.0028371839179308065
Epoch: 39900, Error: 0.0028218017944284923
Epoch: 40000, Error: 0.0028409821171240775
Epoch: 40100, Error: 0.002858616909819352
Epoch: 40200, Error: 0.002766658323232914
Epoch: 40300, Error: 0.0028167257118844307
Epoch: 40400, Error: 0.0027534169597251
Epoch: 40500, Error: 0.002766691179630938
Epoch: 40600, Error: 0.0027326315085642893
Epoch: 40700, Error: 0.0027703626604123066
Epoch: 40800, Error: 0.002695477676884891
Epoch: 40900, Error: 0.0027185615905753737
Epoch: 41000, Error: 0.0027040236639679508
Epoch: 41100, Error: 0.0026650818952157138
Epoch: 41200, Error: 0.00265130380833134
Epoch: 41300, Error: 0.002665309153506923
Epoch: 41400, Error: 0.002623173950043334
Epoch: 41500, Error: 0.00272270253162131
Epoch: 41600, Error: 0.00261409360345251
Epoch: 41700, Error: 0.002620465767231408
Epoch: 41800, Error: 0.002612756833806345
Epoch: 41900, Error: 0.0025584559896294694
Epoch: 42000, Error: 0.0025751658549694563
Epoch: 42100, Error: 0.0025305195538226923
Epoch: 42200, Error: 0.0026318345251624834
Epoch: 42300, Error: 0.0025138872089267225
Epoch: 42400, Error: 0.002524144652139709
Epoch: 42500, Error: 0.0025155883946144926
Epoch: 42600, Error: 0.002509510075395538
Epoch: 42700, Error: 0.002527251338536503
Epoch: 42800, Error: 0.002470384462280447
Epoch: 42900, Error: 0.002495353235427636
Epoch: 43000, Error: 0.0024431250747774576
Epoch: 43100, Error: 0.0024311343022133864
Epoch: 43200, Error: 0.0024250413854132223
Epoch: 43300, Error: 0.0024290505747440795
Epoch: 43400, Error: 0.0024513814484355746
Epoch: 43500, Error: 0.0024030184506441806
Epoch: 43600, Error: 0.002401046850310313
Epoch: 43700, Error: 0.002374313477284377
Epoch: 43800, Error: 0.0023501861489279604
Epoch: 43900, Error: 0.0023404605097905166
Epoch: 44000, Error: 0.0023296506446326237
Epoch: 44100, Error: 0.002348217484428761
Epoch: 44200, Error: 0.002309052217172872
Epoch: 44300, Error: 0.002296136894754873
Epoch: 44400, Error: 0.002273978414839676
Epoch: 44500, Error: 0.002286769117851532
Epoch: 44600, Error: 0.0022717027820235
Epoch: 44700, Error: 0.002286064146063587
Epoch: 44800, Error: 0.0022348503125286874
Epoch: 44900, Error: 0.0022463598645504207
Epoch: 45000, Error: 0.0022470585218408216
Epoch: 45100, Error: 0.002221495254213001
Epoch: 45200, Error: 0.002206623774858233
Epoch: 45300, Error: 0.002177986349033328
Epoch: 45400, Error: 0.0022006377444411082
Epoch: 45500, Error: 0.002168137915699881
Epoch: 45600, Error: 0.0021684469256048953
Epoch: 45700, Error: 0.0021494169798151144
Epoch: 45800, Error: 0.0021489220385994896
Epoch: 45900, Error: 0.002140758516896198
Epoch: 46000, Error: 0.0021250916180698986
Epoch: 46100, Error: 0.0021414276543517703
Epoch: 46200, Error: 0.002099782365456625
Epoch: 46300, Error: 0.002087769908677612
Epoch: 46400, Error: 0.0020815648393756117
Epoch: 46500, Error: 0.0020978360992933726
Epoch: 46600, Error: 0.0020715896514229876
Epoch: 46700, Error: 0.00207218663588087
Epoch: 46800, Error: 0.002053420325453387
Epoch: 46900, Error: 0.0020991353432548814
Epoch: 47000, Error: 0.002046225919249664
Epoch: 47100, Error: 0.0020448474425334407
Epoch: 47200, Error: 0.0020273752060275332
Epoch: 47300, Error: 0.002007224281851293
Epoch: 47400, Error: 0.0020042300192979904
Epoch: 47500, Error: 0.0019840505561836822
Epoch: 47600, Error: 0.0019880987572779415
Epoch: 47700, Error: 0.00196886741130615
Epoch: 47800, Error: 0.0019710337971921934
Epoch: 47900, Error: 0.0019565973707366437
Epoch: 48000, Error: 0.0019540977444163577
Epoch: 48100, Error: 0.0019636895959081473
Epoch: 48200, Error: 0.00195987008150742
Epoch: 48300, Error: 0.0019286647206322469
Epoch: 48400, Error: 0.0019384330796865278
Epoch: 48500, Error: 0.0019333344437845762
Epoch: 48600, Error: 0.0019246635124553916
Epoch: 48700, Error: 0.0019011816142503297
Epoch: 48800, Error: 0.0019066572730418352
Epoch: 48900, Error: 0.0018979278280136617
Epoch: 49000, Error: 0.0018975975595625879
Epoch: 49100, Error: 0.0018794054779218813
Epoch: 49200, Error: 0.0018867178256139737
Epoch: 49300, Error: 0.0018762934934214263
Epoch: 49400, Error: 0.0018662183905911657
Epoch: 49500, Error: 0.0018657631033638085
Epoch: 49600, Error: 0.0018578668478431244
Epoch: 49700, Error: 0.0018594998494589519
Epoch: 49800, Error: 0.001848319661355375
Epoch: 49900, Error: 0.0018443141689265725
Epoch: 50000, Error: 0.001835283467488554
Finished
Input Patterns
0.224 0.624 0.067 0.043 
0.11 0.502 0.051 0.043 
0.196 0.667 0.067 0.043 
0.055 0.584 0.067 0.082 
0.027 0.376 0.067 0.043 
0.306 0.71 0.086 0.043 
0.137 0.416 0.067 0.0 
0.416 0.831 0.035 0.043 
0.306 0.792 0.051 0.125 
0.388 0.749 0.118 0.082 
0.306 0.584 0.118 0.043 
0.082 0.667 0.0 0.043 
0.137 0.584 0.153 0.043 
0.196 0.584 0.102 0.125 
0.251 0.584 0.067 0.043 
0.137 0.459 0.102 0.043 
0.251 0.875 0.086 0.0 
0.165 0.459 0.086 0.043 
0.333 0.624 0.051 0.043 
0.027 0.416 0.051 0.043 
0.196 0.624 0.051 0.082 
0.027 0.502 0.051 0.043 
0.224 0.749 0.153 0.125 
0.224 0.749 0.102 0.043 
0.278 0.71 0.086 0.043 
0.165 0.416 0.067 0.043 
0.082 0.459 0.086 0.043 
0.306 0.792 0.118 0.125 
0.196 0.584 0.086 0.043 
0.165 0.459 0.086 0.0 
0.137 0.584 0.102 0.043 
0.0 0.416 0.016 0.0 
0.388 1.0 0.086 0.125 
0.224 0.624 0.067 0.082 
0.224 0.749 0.086 0.082 
0.224 0.71 0.086 0.125 
0.224 0.541 0.118 0.165 
0.196 0.416 0.102 0.043 
0.251 0.624 0.086 0.043 
0.11 0.502 0.102 0.043 
0.306 0.584 0.086 0.125 
0.333 0.918 0.067 0.043 
0.196 0.502 0.035 0.043 
0.165 0.667 0.067 0.0 
0.224 0.584 0.086 0.043 
0.055 0.125 0.051 0.082 
0.196 0.624 0.102 0.208 
0.137 0.416 0.067 0.082 
0.082 0.502 0.067 0.043 
0.196 0.541 0.067 0.043 
0.749 0.502 0.627 0.541 
0.722 0.459 0.663 0.584 
0.612 0.333 0.612 0.584 
0.557 0.541 0.627 0.624 
0.639 0.376 0.612 0.498 
0.196 0.0 0.424 0.376 
0.471 0.082 0.51 0.376 
0.361 0.376 0.439 0.498 
0.361 0.416 0.592 0.584 
0.529 0.082 0.592 0.584 
0.443 0.502 0.643 0.459 
0.557 0.208 0.663 0.584 
0.584 0.376 0.561 0.498 
0.694 0.333 0.643 0.541 
0.471 0.376 0.592 0.584 
0.333 0.169 0.475 0.416 
0.416 0.29 0.49 0.459 
0.306 0.416 0.592 0.584 
0.667 0.459 0.627 0.584 
0.361 0.416 0.525 0.498 
0.333 0.251 0.576 0.459 
0.416 0.251 0.51 0.459 
0.361 0.29 0.541 0.498 
0.388 0.376 0.541 0.498 
0.224 0.208 0.337 0.416 
0.584 0.502 0.592 0.584 
0.333 0.125 0.51 0.498 
0.388 0.333 0.592 0.498 
0.165 0.169 0.388 0.376 
0.251 0.29 0.49 0.541 
0.443 0.416 0.541 0.584 
0.498 0.376 0.627 0.541 
0.667 0.459 0.576 0.541 
0.416 0.29 0.525 0.376 
0.361 0.208 0.49 0.416 
0.498 0.333 0.51 0.498 
0.498 0.333 0.627 0.459 
0.639 0.416 0.576 0.541 
0.667 0.416 0.678 0.667 
0.388 0.251 0.424 0.376 
0.333 0.169 0.459 0.376 
0.471 0.29 0.694 0.624 
0.471 0.584 0.592 0.624 
0.557 0.125 0.576 0.498 
0.333 0.208 0.51 0.498 
0.498 0.416 0.612 0.541 
0.196 0.125 0.388 0.376 
0.388 0.416 0.541 0.459 
0.529 0.376 0.561 0.498 
0.388 0.333 0.525 0.498 
0.557 0.541 0.847 1.0 
0.776 0.416 0.831 0.831 
0.612 0.416 0.812 0.875 
0.165 0.208 0.592 0.667 
0.667 0.208 0.812 0.71 
0.612 0.502 0.694 0.792 
0.694 0.416 0.761 0.831 
0.416 0.333 0.694 0.957 
0.612 0.416 0.761 0.71 
0.945 0.251 1.0 0.918 
0.722 0.502 0.796 0.918 
0.945 0.333 0.965 0.792 
0.667 0.541 0.796 0.831 
0.529 0.333 0.643 0.71 
0.584 0.333 0.78 0.831 
0.863 0.333 0.863 0.749 
0.584 0.333 0.78 0.875 
0.498 0.251 0.78 0.541 
0.557 0.584 0.78 0.957 
0.471 0.416 0.643 0.71 
0.667 0.459 0.78 0.957 
0.416 0.29 0.694 0.749 
0.667 0.541 0.796 1.0 
0.557 0.208 0.678 0.749 
0.529 0.584 0.745 0.918 
0.416 0.29 0.694 0.749 
0.557 0.376 0.78 0.71 
0.918 0.416 0.949 0.831 
0.835 0.376 0.898 0.71 
0.804 0.667 0.863 1.0 
0.584 0.29 0.729 0.749 
0.388 0.208 0.678 0.792 
0.584 0.502 0.729 0.918 
0.945 0.749 0.965 0.875 
0.471 0.082 0.678 0.584 
0.361 0.333 0.663 0.792 
0.557 0.29 0.663 0.71 
0.804 0.502 0.847 0.71 
0.498 0.416 0.51 0.71 
0.804 0.416 0.812 0.624 
1.0 0.749 0.914 0.792 
0.557 0.333 0.694 0.584 
0.945 0.416 0.863 0.918 
0.584 0.459 0.761 0.71 
0.722 0.459 0.745 0.831 
0.722 0.459 0.694 0.918 
0.694 0.502 0.831 0.918 
0.667 0.416 0.714 0.918 
0.612 0.416 0.714 0.792 
0.443 0.416 0.694 0.71 
Teaching Patterns
1.0 0.0 0.0 
1.0 0.0 0.0 
1.0 0.0 0.0 
1.0 0.0 0.0 
1.0 0.0 0.0 
1.0 0.0 0.0 
1.0 0.0 0.0 
1.0 0.0 0.0 
1.0 0.0 0.0 
1.0 0.0 0.0 
1.0 0.0 0.0 
1.0 0.0 0.0 
1.0 0.0 0.0 
1.0 0.0 0.0 
1.0 0.0 0.0 
1.0 0.0 0.0 
1.0 0.0 0.0 
1.0 0.0 0.0 
1.0 0.0 0.0 
1.0 0.0 0.0 
1.0 0.0 0.0 
1.0 0.0 0.0 
1.0 0.0 0.0 
1.0 0.0 0.0 
1.0 0.0 0.0 
1.0 0.0 0.0 
1.0 0.0 0.0 
1.0 0.0 0.0 
1.0 0.0 0.0 
1.0 0.0 0.0 
1.0 0.0 0.0 
1.0 0.0 0.0 
1.0 0.0 0.0 
1.0 0.0 0.0 
1.0 0.0 0.0 
1.0 0.0 0.0 
1.0 0.0 0.0 
1.0 0.0 0.0 
1.0 0.0 0.0 
1.0 0.0 0.0 
1.0 0.0 0.0 
1.0 0.0 0.0 
1.0 0.0 0.0 
1.0 0.0 0.0 
1.0 0.0 0.0 
1.0 0.0 0.0 
1.0 0.0 0.0 
1.0 0.0 0.0 
1.0 0.0 0.0 
1.0 0.0 0.0 
0.0 1.0 0.0 
0.0 1.0 0.0 
0.0 1.0 0.0 
0.0 1.0 0.0 
0.0 1.0 0.0 
0.0 1.0 0.0 
0.0 1.0 0.0 
0.0 1.0 0.0 
0.0 1.0 0.0 
0.0 1.0 0.0 
0.0 1.0 0.0 
0.0 1.0 0.0 
0.0 1.0 0.0 
0.0 1.0 0.0 
0.0 1.0 0.0 
0.0 1.0 0.0 
0.0 1.0 0.0 
0.0 1.0 0.0 
0.0 1.0 0.0 
0.0 1.0 0.0 
0.0 1.0 0.0 
0.0 1.0 0.0 
0.0 1.0 0.0 
0.0 1.0 0.0 
0.0 1.0 0.0 
0.0 1.0 0.0 
0.0 1.0 0.0 
0.0 1.0 0.0 
0.0 1.0 0.0 
0.0 1.0 0.0 
0.0 1.0 0.0 
0.0 1.0 0.0 
0.0 1.0 0.0 
0.0 1.0 0.0 
0.0 1.0 0.0 
0.0 1.0 0.0 
0.0 1.0 0.0 
0.0 1.0 0.0 
0.0 1.0 0.0 
0.0 1.0 0.0 
0.0 1.0 0.0 
0.0 1.0 0.0 
0.0 1.0 0.0 
0.0 1.0 0.0 
0.0 1.0 0.0 
0.0 1.0 0.0 
0.0 1.0 0.0 
0.0 1.0 0.0 
0.0 1.0 0.0 
0.0 1.0 0.0 
0.0 0.0 1.0 
0.0 0.0 1.0 
0.0 0.0 1.0 
0.0 0.0 1.0 
0.0 0.0 1.0 
0.0 0.0 1.0 
0.0 0.0 1.0 
0.0 0.0 1.0 
0.0 0.0 1.0 
0.0 0.0 1.0 
0.0 0.0 1.0 
0.0 0.0 1.0 
0.0 0.0 1.0 
0.0 0.0 1.0 
0.0 0.0 1.0 
0.0 0.0 1.0 
0.0 0.0 1.0 
0.0 0.0 1.0 
0.0 0.0 1.0 
0.0 0.0 1.0 
0.0 0.0 1.0 
0.0 0.0 1.0 
0.0 0.0 1.0 
0.0 0.0 1.0 
0.0 0.0 1.0 
0.0 0.0 1.0 
0.0 0.0 1.0 
0.0 0.0 1.0 
0.0 0.0 1.0 
0.0 0.0 1.0 
0.0 0.0 1.0 
0.0 0.0 1.0 
0.0 0.0 1.0 
0.0 0.0 1.0 
0.0 0.0 1.0 
0.0 0.0 1.0 
0.0 0.0 1.0 
0.0 0.0 1.0 
0.0 0.0 1.0 
0.0 0.0 1.0 
0.0 0.0 1.0 
0.0 0.0 1.0 
0.0 0.0 1.0 
0.0 0.0 1.0 
0.0 0.0 1.0 
0.0 0.0 1.0 
0.0 0.0 1.0 
0.0 0.0 1.0 
0.0 0.0 1.0 
0.0 0.0 1.0 
Learning : 0.05
Momentum : 0.8999999761581421
Epoch: 100, Error: 0.02232042493412435
Epoch: 200, Error: 0.016834263508627392
Epoch: 300, Error: 0.015328298956252168
Epoch: 400, Error: 0.014181832368971477
Epoch: 500, Error: 0.01370880874622353
Epoch: 600, Error: 0.013258496384846882
Epoch: 700, Error: 0.013151353650974975
Epoch: 800, Error: 0.012819649687122405
Epoch: 900, Error: 0.012600506575115222
Epoch: 1000, Error: 0.012658582243481457
Epoch: 1100, Error: 0.01240176615531805
Epoch: 1200, Error: 0.012439477130933782
Epoch: 1300, Error: 0.012358621753658532
Epoch: 1400, Error: 0.012280492262322041
Epoch: 1500, Error: 0.012184324343398237
Epoch: 1600, Error: 0.01226282311373685
Epoch: 1700, Error: 0.012145759858308732
Epoch: 1800, Error: 0.012126414566022585
Epoch: 1900, Error: 0.012261952791701773
Epoch: 2000, Error: 0.012037494689530234
Epoch: 2100, Error: 0.012290282619879005
Epoch: 2200, Error: 0.012019006961883955
Epoch: 2300, Error: 0.012183315534433492
Epoch: 2400, Error: 0.012042039782965535
Epoch: 2500, Error: 0.01197055494737982
Epoch: 2600, Error: 0.01203651342540678
Epoch: 2700, Error: 0.011947690464667161
Epoch: 2800, Error: 0.012112454743392091
Epoch: 2900, Error: 0.011943848582633886
Epoch: 3000, Error: 0.011964829639453908
Epoch: 3100, Error: 0.01200549333428954
Epoch: 3200, Error: 0.012000294615674508
Epoch: 3300, Error: 0.011885472759318581
Epoch: 3400, Error: 0.01185817707581734
Epoch: 3500, Error: 0.011853184749931755
Epoch: 3600, Error: 0.01199003135841036
Epoch: 3700, Error: 0.011844386522402217
Epoch: 3800, Error: 0.011843613937772118
Epoch: 3900, Error: 0.011802786256456239
Epoch: 4000, Error: 0.011810324742671614
Epoch: 4100, Error: 0.011878814845662859
Epoch: 4200, Error: 0.01187151610530729
Epoch: 4300, Error: 0.011819816512820243
Epoch: 4400, Error: 0.01177977953719971
Epoch: 4500, Error: 0.011918087688278688
Epoch: 4600, Error: 0.011855234738856494
Epoch: 4700, Error: 0.011825573018524148
Epoch: 4800, Error: 0.011774416252353597
Epoch: 4900, Error: 0.01172939839141924
Epoch: 5000, Error: 0.011731510312960967
Epoch: 5100, Error: 0.01171634282649889
Epoch: 5200, Error: 0.011742451226556825
Epoch: 5300, Error: 0.011707713818895207
Epoch: 5400, Error: 0.011732985590972102
Epoch: 5500, Error: 0.011794815322441265
Epoch: 5600, Error: 0.011715936471176015
Epoch: 5700, Error: 0.011730266790121062
Epoch: 5800, Error: 0.011841662292614779
Epoch: 5900, Error: 0.011726782943650574
Epoch: 6000, Error: 0.011727284308000735
Epoch: 6100, Error: 0.011729625270314167
Epoch: 6200, Error: 0.01168782066682046
Epoch: 6300, Error: 0.011689704860105482
Epoch: 6400, Error: 0.0116792972943944
Epoch: 6500, Error: 0.011693804960987118
Epoch: 6600, Error: 0.011713281786665595
Epoch: 6700, Error: 0.011699778569135299
Epoch: 6800, Error: 0.011672200498490689
Epoch: 6900, Error: 0.01166799963565097
Epoch: 7000, Error: 0.011693929890032772
Epoch: 7100, Error: 0.011693423880634869
Epoch: 7200, Error: 0.011739143933791734
Epoch: 7300, Error: 0.011758235815509197
Epoch: 7400, Error: 0.01163212093263381
Epoch: 7500, Error: 0.012020326580876834
Epoch: 7600, Error: 0.011631459481955016
Epoch: 7700, Error: 0.011632977188420348
Epoch: 7800, Error: 0.011583363014331974
Epoch: 7900, Error: 0.01166432072452462
Epoch: 8000, Error: 0.011588197749882964
Epoch: 8100, Error: 0.011619005647151941
Epoch: 8200, Error: 0.011607621221135041
Epoch: 8300, Error: 0.011690710350202319
Epoch: 8400, Error: 0.011616081724568187
Epoch: 8500, Error: 0.011614840629213792
Epoch: 8600, Error: 0.011662416525150543
Epoch: 8700, Error: 0.011652439816410598
Epoch: 8800, Error: 0.011658449594902717
Epoch: 8900, Error: 0.011661710839941079
Epoch: 9000, Error: 0.011617853550857015
Epoch: 9100, Error: 0.01159964374431303
Epoch: 9200, Error: 0.011651220273588746
Epoch: 9300, Error: 0.01166416166446004
Epoch: 9400, Error: 0.011688396138283002
Epoch: 9500, Error: 0.0116423639291122
Epoch: 9600, Error: 0.011675037722400064
Epoch: 9700, Error: 0.01163245980153143
Epoch: 9800, Error: 0.011695838265225713
Epoch: 9900, Error: 0.011671198918466375
Epoch: 10000, Error: 0.011646144733417121
Epoch: 10100, Error: 0.011657184055517255
Epoch: 10200, Error: 0.011905102830574357
Epoch: 10300, Error: 0.01163785276213386
Epoch: 10400, Error: 0.011687596261779334
Epoch: 10500, Error: 0.011712078766092544
Epoch: 10600, Error: 0.01170962631824801
Epoch: 10700, Error: 0.011867926554788267
Epoch: 10800, Error: 0.01171182140213819
Epoch: 10900, Error: 0.01165053302828042
Epoch: 11000, Error: 0.011650294057077928
Epoch: 11100, Error: 0.011696595726545992
Epoch: 11200, Error: 0.01167825338362069
Epoch: 11300, Error: 0.011675535206661907
Epoch: 11400, Error: 0.011675214566194487
Epoch: 11500, Error: 0.011683859026627517
Epoch: 11600, Error: 0.011642113147616118
Epoch: 11700, Error: 0.011650793812591943
Epoch: 11800, Error: 0.01167248981981138
Epoch: 11900, Error: 0.011668032093736479
Epoch: 12000, Error: 0.011687293416160439
Epoch: 12100, Error: 0.011651393804583722
Epoch: 12200, Error: 0.011604420395884994
Epoch: 12300, Error: 0.011665992540076232
Epoch: 12400, Error: 0.011680769714907113
Epoch: 12500, Error: 0.011608032648582458
Epoch: 12600, Error: 0.011660671938084403
Epoch: 12700, Error: 0.011570964723445506
Epoch: 12800, Error: 0.011622993899060975
Epoch: 12900, Error: 0.011546214169346695
Epoch: 13000, Error: 0.011547479445414115
Epoch: 13100, Error: 0.011558553158264758
Epoch: 13200, Error: 0.011546483648926603
Epoch: 13300, Error: 0.011580431943949766
Epoch: 13400, Error: 0.011528072871762928
Epoch: 13500, Error: 0.011606570870336244
Epoch: 13600, Error: 0.011492844221499862
Epoch: 13700, Error: 0.01150848992875525
Epoch: 13800, Error: 0.011529942389429334
Epoch: 13900, Error: 0.011508671718783075
Epoch: 14000, Error: 0.011463617249078953
Epoch: 14100, Error: 0.011516593676486067
Epoch: 14200, Error: 0.011467306570134264
Epoch: 14300, Error: 0.011490467500808213
Epoch: 14400, Error: 0.011462052666119618
Epoch: 14500, Error: 0.011516791110944608
Epoch: 14600, Error: 0.011503174576588941
Epoch: 14700, Error: 0.011488379682427073
Epoch: 14800, Error: 0.011516053660784203
Epoch: 14900, Error: 0.011443134614914287
Epoch: 15000, Error: 0.01146479211196946
Epoch: 15100, Error: 0.011600644085098175
Epoch: 15200, Error: 0.011513008096708771
Epoch: 15300, Error: 0.011523383152928423
Epoch: 15400, Error: 0.011402137312240825
Epoch: 15500, Error: 0.011466804482254294
Epoch: 15600, Error: 0.01140018131731991
Epoch: 15700, Error: 0.011428485764736932
Epoch: 15800, Error: 0.011411623311110933
Epoch: 15900, Error: 0.011399131627384842
Epoch: 16000, Error: 0.011402994685728522
Epoch: 16100, Error: 0.011394814490409716
Epoch: 16200, Error: 0.011430861581714307
Epoch: 16300, Error: 0.011359795083063683
Epoch: 16400, Error: 0.011394580064655104
Epoch: 16500, Error: 0.011423474282663632
Epoch: 16600, Error: 0.011333683991457552
Epoch: 16700, Error: 0.011355226508585335
Epoch: 16800, Error: 0.011409158159743363
Epoch: 16900, Error: 0.011291271069790965
Epoch: 17000, Error: 0.011285929400850905
Epoch: 17100, Error: 0.011215217381549224
Epoch: 17200, Error: 0.011291996119977006
Epoch: 17300, Error: 0.011246008851094464
Epoch: 17400, Error: 0.011298848877785123
Epoch: 17500, Error: 0.011304827043149612
Epoch: 17600, Error: 0.011442566468072965
Epoch: 17700, Error: 0.011287761135286987
Epoch: 17800, Error: 0.011248995482365964
Epoch: 17900, Error: 0.011188501338071553
Epoch: 18000, Error: 0.011151410859377361
Epoch: 18100, Error: 0.011111456832232147
Epoch: 18200, Error: 0.011134257898723354
Epoch: 18300, Error: 0.011093219558490415
Epoch: 18400, Error: 0.011098692207934089
Epoch: 18500, Error: 0.011059514316725291
Epoch: 18600, Error: 0.011078188154297704
Epoch: 18700, Error: 0.011162496958800536
Epoch: 18800, Error: 0.01100556762091732
Epoch: 18900, Error: 0.011017210494112565
Epoch: 19000, Error: 0.010944783184182084
Epoch: 19100, Error: 0.010926436495841046
Epoch: 19200, Error: 0.010925238138945534
Epoch: 19300, Error: 0.010909160517011659
Epoch: 19400, Error: 0.01093907270577438
Epoch: 19500, Error: 0.010901463636095066
Epoch: 19600, Error: 0.010818079667923362
Epoch: 19700, Error: 0.010765972872143056
Epoch: 19800, Error: 0.010678546536450612
Epoch: 19900, Error: 0.01063939446270222
Epoch: 20000, Error: 0.010661087986371246
Epoch: 20100, Error: 0.010655259203982909
Epoch: 20200, Error: 0.010599128437632555
Epoch: 20300, Error: 0.010546456662804795
Epoch: 20400, Error: 0.0105452183004245
Epoch: 20500, Error: 0.010545169076296185
Epoch: 20600, Error: 0.010492100574766688
Epoch: 20700, Error: 0.010497175113722213
Epoch: 20800, Error: 0.01039408281785248
Epoch: 20900, Error: 0.010387224715653948
Epoch: 21000, Error: 0.010324972471629805
Epoch: 21100, Error: 0.010250951634146216
Epoch: 21200, Error: 0.010177038863234315
Epoch: 21300, Error: 0.010139955253947877
Epoch: 21400, Error: 0.010087733322253694
Epoch: 21500, Error: 0.010048890851939649
Epoch: 21600, Error: 0.009980619098806976
Epoch: 21700, Error: 0.009918296394387831
Epoch: 21800, Error: 0.00983961734392642
Epoch: 21900, Error: 0.009777035713008812
Epoch: 22000, Error: 0.009753960306926315
Epoch: 22100, Error: 0.009699695968283342
Epoch: 22200, Error: 0.009635468946471031
Epoch: 22300, Error: 0.009572488140491721
Epoch: 22400, Error: 0.009497748951733803
Epoch: 22500, Error: 0.009400615059686744
Epoch: 22600, Error: 0.009323658598713775
Epoch: 22700, Error: 0.009248323810967756
Epoch: 22800, Error: 0.009172642029252526
Epoch: 22900, Error: 0.009060447981500946
Epoch: 23000, Error: 0.008978274942590044
Epoch: 23100, Error: 0.008930520756679482
Epoch: 23200, Error: 0.008845253569732646
Epoch: 23300, Error: 0.008776050888134056
Epoch: 23400, Error: 0.008708967541386736
Epoch: 23500, Error: 0.008643654549826013
Epoch: 23600, Error: 0.008594330515627963
Epoch: 23700, Error: 0.008537611988834742
Epoch: 23800, Error: 0.008481507278741226
Epoch: 23900, Error: 0.0084627500941054
Epoch: 24000, Error: 0.008379702918509493
Epoch: 24100, Error: 0.00833630682863691
Epoch: 24200, Error: 0.008316165732105031
Epoch: 24300, Error: 0.008262761689536059
Epoch: 24400, Error: 0.008239913360529733
Epoch: 24500, Error: 0.008196755971647937
Epoch: 24600, Error: 0.008167080317553617
Epoch: 24700, Error: 0.008133166313657188
Epoch: 24800, Error: 0.008217483433705118
Epoch: 24900, Error: 0.0081167994620819
Epoch: 25000, Error: 0.008123649991241827
Epoch: 25100, Error: 0.008089028735383842
Epoch: 25200, Error: 0.008078669632106896
Epoch: 25300, Error: 0.008045548917435329
Epoch: 25400, Error: 0.008026376796082774
Epoch: 25500, Error: 0.008026394799512091
Epoch: 25600, Error: 0.00795139533717662
Epoch: 25700, Error: 0.007926918050165141
Epoch: 25800, Error: 0.007901041430501738
Epoch: 25900, Error: 0.007873089336107681
Epoch: 26000, Error: 0.007856814824212754
Epoch: 26100, Error: 0.007843703222955887
Epoch: 26200, Error: 0.007818274403814432
Epoch: 26300, Error: 0.007791367373937366
Epoch: 26400, Error: 0.007776300411967197
Epoch: 26500, Error: 0.00776594240910476
Epoch: 26600, Error: 0.007731589838780975
Epoch: 26700, Error: 0.007737575028304197
Epoch: 26800, Error: 0.007676848047728429
Epoch: 26900, Error: 0.007658434632473134
Epoch: 27000, Error: 0.007625345050378604
Epoch: 27100, Error: 0.00761722014097905
Epoch: 27200, Error: 0.00758925156584024
Epoch: 27300, Error: 0.007549033984291646
Epoch: 27400, Error: 0.007567626880712124
Epoch: 27500, Error: 0.0075609369708051185
Epoch: 27600, Error: 0.007553121431899677
Epoch: 27700, Error: 0.007519700450333595
Epoch: 27800, Error: 0.007506893356470261
Epoch: 27900, Error: 0.007471067672894249
Epoch: 28000, Error: 0.007466115860538772
Epoch: 28100, Error: 0.007430818317763992
Epoch: 28200, Error: 0.00744098062765852
Epoch: 28300, Error: 0.0074070294430178315
Epoch: 28400, Error: 0.0073896443108669874
Epoch: 28500, Error: 0.007383231461186216
Epoch: 28600, Error: 0.00737780955890097
Epoch: 28700, Error: 0.007380741668037107
Epoch: 28800, Error: 0.0073719162840907805
Epoch: 28900, Error: 0.007339848001231192
Epoch: 29000, Error: 0.007358671659093738
Epoch: 29100, Error: 0.0073218011808949286
Epoch: 29200, Error: 0.0073787369110136485
Epoch: 29300, Error: 0.007310383041775084
Epoch: 29400, Error: 0.007323829981170908
Epoch: 29500, Error: 0.007303753812350821
Epoch: 29600, Error: 0.0072971422955630146
Epoch: 29700, Error: 0.007280046826894424
Epoch: 29800, Error: 0.007265783542732889
Epoch: 29900, Error: 0.007267103908321663
Epoch: 30000, Error: 0.0072631932092682054
Epoch: 30100, Error: 0.0072466738469715635
Epoch: 30200, Error: 0.0072614815842824846
Epoch: 30300, Error: 0.0072111441524959
Epoch: 30400, Error: 0.007224169085484592
Epoch: 30500, Error: 0.007234283983454391
Epoch: 30600, Error: 0.007191016287232219
Epoch: 30700, Error: 0.007254692969268217
Epoch: 30800, Error: 0.007248258662902896
Epoch: 30900, Error: 0.007191793498732578
Epoch: 31000, Error: 0.007210069005735404
Epoch: 31100, Error: 0.007176925305368687
Epoch: 31200, Error: 0.007153511760310166
Epoch: 31300, Error: 0.007147635452181017
Epoch: 31400, Error: 0.007158368302430549
Epoch: 31500, Error: 0.007134676978706001
Epoch: 31600, Error: 0.00711147253742283
Epoch: 31700, Error: 0.007116690900230858
Epoch: 31800, Error: 0.007106519956013668
Epoch: 31900, Error: 0.0071091230093285815
Epoch: 32000, Error: 0.0070894343318212705
Epoch: 32100, Error: 0.007095780673617426
Epoch: 32200, Error: 0.0070889233498505925
Epoch: 32300, Error: 0.007091999541411764
Epoch: 32400, Error: 0.007107834538381011
Epoch: 32500, Error: 0.0071043195316173036
Epoch: 32600, Error: 0.007066447922974716
Epoch: 32700, Error: 0.007085460088717032
Epoch: 32800, Error: 0.007080481839266327
Epoch: 32900, Error: 0.0070779920714030865
Epoch: 33000, Error: 0.007082165931493927
Epoch: 33100, Error: 0.007065921695873034
Epoch: 33200, Error: 0.00709628082984139
Epoch: 33300, Error: 0.007071847294089093
Epoch: 33400, Error: 0.007064453425824304
Epoch: 33500, Error: 0.007039638162866796
Epoch: 33600, Error: 0.007046057664703463
Epoch: 33700, Error: 0.007009350569532785
Epoch: 33800, Error: 0.006979693624446643
Epoch: 33900, Error: 0.006983600794539608
Epoch: 34000, Error: 0.006951443678006213
Epoch: 34100, Error: 0.006973817443834826
Epoch: 34200, Error: 0.006953296860753651
Epoch: 34300, Error: 0.0069706647966431634
Epoch: 34400, Error: 0.006924069686197274
Epoch: 34500, Error: 0.006941810963513845
Epoch: 34600, Error: 0.006905829498633707
Epoch: 34700, Error: 0.006931445101288125
Epoch: 34800, Error: 0.006899258511963085
Epoch: 34900, Error: 0.006859117267891828
Epoch: 35000, Error: 0.0068559767255305095
Epoch: 35100, Error: 0.006845148147722205
Epoch: 35200, Error: 0.006859560050455352
Epoch: 35300, Error: 0.0068402549228815685
Epoch: 35400, Error: 0.00686623609552973
Epoch: 35500, Error: 0.00690357851888014
Epoch: 35600, Error: 0.0068146308383741265
Epoch: 35700, Error: 0.006819222498511848
Epoch: 35800, Error: 0.006815807703852168
Epoch: 35900, Error: 0.006847024117591558
Epoch: 36000, Error: 0.0068305505330331475
Epoch: 36100, Error: 0.006800499912258609
Epoch: 36200, Error: 0.006783549858354855
Epoch: 36300, Error: 0.006780742060478094
Epoch: 36400, Error: 0.006734282621670513
Epoch: 36500, Error: 0.0067410900788729
Epoch: 36600, Error: 0.006739972058307314
Epoch: 36700, Error: 0.006781808901620773
Epoch: 36800, Error: 0.00674218575971141
Epoch: 36900, Error: 0.006712794977245498
Epoch: 37000, Error: 0.006736625236701313
Epoch: 37100, Error: 0.00674278464529099
Epoch: 37200, Error: 0.006702979713807437
Epoch: 37300, Error: 0.006744405980508127
Epoch: 37400, Error: 0.006722476739223247
Epoch: 37500, Error: 0.0067462217835644114
Epoch: 37600, Error: 0.0066931843727441875
Epoch: 37700, Error: 0.006707862956020207
Epoch: 37800, Error: 0.00672183812780543
Epoch: 37900, Error: 0.006705013173376311
Epoch: 38000, Error: 0.006670072878515783
Epoch: 38100, Error: 0.0066620970572462725
Epoch: 38200, Error: 0.006715394983162271
Epoch: 38300, Error: 0.00666051015616989
Epoch: 38400, Error: 0.006667563642505587
Epoch: 38500, Error: 0.006645112121745629
Epoch: 38600, Error: 0.006671499717367412
Epoch: 38700, Error: 0.006651608032822341
Epoch: 38800, Error: 0.006646694053036026
Epoch: 38900, Error: 0.006651830807615534
Epoch: 39000, Error: 0.00662247522380134
Epoch: 39100, Error: 0.006726453016602113
Epoch: 39200, Error: 0.006643134206372949
Epoch: 39300, Error: 0.006627987779768442
Epoch: 39400, Error: 0.006631608095200936
Epoch: 39500, Error: 0.006609218293076961
Epoch: 39600, Error: 0.006608090680872464
Epoch: 39700, Error: 0.006599021155191891
Epoch: 39800, Error: 0.006581509855924684
Epoch: 39900, Error: 0.006579187737567276
Epoch: 40000, Error: 0.0065738637699498045
Epoch: 40100, Error: 0.006580732565439349
Epoch: 40200, Error: 0.0065589130834608775
Epoch: 40300, Error: 0.006703093157970264
Epoch: 40400, Error: 0.0065462026274782995
Epoch: 40500, Error: 0.006568181648880855
Epoch: 40600, Error: 0.006561319514523808
Epoch: 40700, Error: 0.006518035373593794
Epoch: 40800, Error: 0.006517946267434064
Epoch: 40900, Error: 0.0066100136464484534
Epoch: 41000, Error: 0.006531360725755924
Epoch: 41100, Error: 0.006499324723389725
Epoch: 41200, Error: 0.006521849458793925
Epoch: 41300, Error: 0.006515362429583391
Epoch: 41400, Error: 0.006511126420873559
Epoch: 41500, Error: 0.006506960122415199
Epoch: 41600, Error: 0.0064768774950651736
Epoch: 41700, Error: 0.006483220917112665
Epoch: 41800, Error: 0.006451395273569268
Epoch: 41900, Error: 0.006484664597277603
Epoch: 42000, Error: 0.006456229289744671
Epoch: 42100, Error: 0.00645402511868946
Epoch: 42200, Error: 0.006450984049444009
Epoch: 42300, Error: 0.006437667633767111
Epoch: 42400, Error: 0.006454361698701519
Epoch: 42500, Error: 0.006417035664289962
Epoch: 42600, Error: 0.006432078435188086
Epoch: 42700, Error: 0.00640162915914298
Epoch: 42800, Error: 0.006357618434146224
Epoch: 42900, Error: 0.006405401724370258
Epoch: 43000, Error: 0.006362740164681264
Epoch: 43100, Error: 0.006405299099168287
Epoch: 43200, Error: 0.006381105476818727
Epoch: 43300, Error: 0.006330103487103503
Epoch: 43400, Error: 0.006329162886706991
Epoch: 43500, Error: 0.006341893060409337
Epoch: 43600, Error: 0.006333536944663254
Epoch: 43700, Error: 0.006275765104538063
Epoch: 43800, Error: 0.006285246921935262
Epoch: 43900, Error: 0.006265873220052154
Epoch: 44000, Error: 0.006298280538766742
Epoch: 44100, Error: 0.006253560356127513
Epoch: 44200, Error: 0.006243064125806474
Epoch: 44300, Error: 0.0062983237496848895
Epoch: 44400, Error: 0.006223795323280572
Epoch: 44500, Error: 0.006205142817731619
Epoch: 44600, Error: 0.006205885171867255
Epoch: 44700, Error: 0.006174898687151263
Epoch: 44800, Error: 0.006164233139328024
Epoch: 44900, Error: 0.006177124259077774
Epoch: 45000, Error: 0.00617443836769007
Epoch: 45100, Error: 0.006119488375011302
Epoch: 45200, Error: 0.006146908017776105
Epoch: 45300, Error: 0.006108502096894657
Epoch: 45400, Error: 0.0061798957190609925
Epoch: 45500, Error: 0.006106327735639043
Epoch: 45600, Error: 0.0060615553137584105
Epoch: 45700, Error: 0.006098699748847117
Epoch: 45800, Error: 0.006090037898511206
Epoch: 45900, Error: 0.0060459341651595225
Epoch: 46000, Error: 0.00603708648592232
Epoch: 46100, Error: 0.006003538371785749
Epoch: 46200, Error: 0.006015289015479766
Epoch: 46300, Error: 0.006009515901309631
Epoch: 46400, Error: 0.0059789643960288345
Epoch: 46500, Error: 0.00597185161689412
Epoch: 46600, Error: 0.005981966244756053
Epoch: 46700, Error: 0.005945179431209688
Epoch: 46800, Error: 0.005955603223858483
Epoch: 46900, Error: 0.005942621578599025
Epoch: 47000, Error: 0.005934980755884352
Epoch: 47100, Error: 0.0058847050343040835
Epoch: 47200, Error: 0.005891747471520703
Epoch: 47300, Error: 0.005895175325103933
Epoch: 47400, Error: 0.005861314216412668
Epoch: 47500, Error: 0.0058551208377299515
Epoch: 47600, Error: 0.005858302206192159
Epoch: 47700, Error: 0.0058735369895794596
Epoch: 47800, Error: 0.005806779425374046
Epoch: 47900, Error: 0.005810208675197353
Epoch: 48000, Error: 0.00583978873359553
Epoch: 48100, Error: 0.00578655395337715
Epoch: 48200, Error: 0.00577312662194631
Epoch: 48300, Error: 0.005740891665158434
Epoch: 48400, Error: 0.005738587631596863
Epoch: 48500, Error: 0.005722538204706805
Epoch: 48600, Error: 0.005751507228466819
Epoch: 48700, Error: 0.0057290272836981
Epoch: 48800, Error: 0.005689011247913191
Epoch: 48900, Error: 0.005665449703429087
Epoch: 49000, Error: 0.005675721324652485
Epoch: 49100, Error: 0.0056548827061551924
Epoch: 49200, Error: 0.005653804536384066
Epoch: 49300, Error: 0.005633072608837393
Epoch: 49400, Error: 0.005615645422464453
Epoch: 49500, Error: 0.005603457358496975
Epoch: 49600, Error: 0.005590032351912079
Epoch: 49700, Error: 0.005572304060782959
Epoch: 49800, Error: 0.005565698897497926
Epoch: 49900, Error: 0.005576068773523617
Epoch: 50000, Error: 0.0055208730223543145
Epoch: 50100, Error: 0.005511597710199656
Epoch: 50200, Error: 0.005527059668799695
Epoch: 50300, Error: 0.005507854529613663
Epoch: 50400, Error: 0.0054758447507113625
Epoch: 50500, Error: 0.005449436058739433
Epoch: 50600, Error: 0.005475678827037976
Epoch: 50700, Error: 0.00541321163091401
Epoch: 50800, Error: 0.005434926697884641
Epoch: 50900, Error: 0.00539666573623234
Epoch: 51000, Error: 0.005382985205928956
Epoch: 51100, Error: 0.0053595579566285525
Epoch: 51200, Error: 0.005351985285429587
Epoch: 51300, Error: 0.005324195074626135
Epoch: 51400, Error: 0.005305116963573718
Epoch: 51500, Error: 0.0052972216337202225
Epoch: 51600, Error: 0.005285951228472446
Epoch: 51700, Error: 0.0052490512120996315
Epoch: 51800, Error: 0.005214223421486765
Epoch: 51900, Error: 0.005212363291041903
Epoch: 52000, Error: 0.005333863697373082
Epoch: 52100, Error: 0.005192179448011148
Epoch: 52200, Error: 0.005150151824160803
Epoch: 52300, Error: 0.005172504494219262
Epoch: 52400, Error: 0.005185519597987955
Epoch: 52500, Error: 0.005109519002759285
Epoch: 52600, Error: 0.005097837857016288
Epoch: 52700, Error: 0.005057855775147449
Epoch: 52800, Error: 0.005046118860565424
Epoch: 52900, Error: 0.005027310329777701
Epoch: 53000, Error: 0.005020631780079141
Epoch: 53100, Error: 0.0050003569769748405
Epoch: 53200, Error: 0.004974816058697108
Epoch: 53300, Error: 0.0049576192489585065
Epoch: 53400, Error: 0.004953484895558295
Epoch: 53500, Error: 0.004949473566669936
Epoch: 53600, Error: 0.0048944329228522545
Epoch: 53700, Error: 0.004880509644887196
Epoch: 53800, Error: 0.004855528214340593
Epoch: 53900, Error: 0.004854618427107949
Epoch: 54000, Error: 0.004820912794075956
Epoch: 54100, Error: 0.0048161090743333735
Epoch: 54200, Error: 0.004909033991051022
Epoch: 54300, Error: 0.004762139635061376
Epoch: 54400, Error: 0.004753066558512267
Epoch: 54500, Error: 0.004733640182982306
Epoch: 54600, Error: 0.004711618771451522
Epoch: 54700, Error: 0.004674791080904136
Epoch: 54800, Error: 0.0046492011661519814
Epoch: 54900, Error: 0.004637577879650286
Epoch: 55000, Error: 0.004647992295874378
Epoch: 55100, Error: 0.0046051155751532045
Epoch: 55200, Error: 0.004604316699729666
Epoch: 55300, Error: 0.004563153686066039
Epoch: 55400, Error: 0.004554714956927063
Epoch: 55500, Error: 0.004527843570660071
Epoch: 55600, Error: 0.004500892888724389
Epoch: 55700, Error: 0.004498312743191626
Epoch: 55800, Error: 0.004468732366502149
Epoch: 55900, Error: 0.0044351847984738825
Epoch: 56000, Error: 0.004450402076265485
Epoch: 56100, Error: 0.004397203780029013
Epoch: 56200, Error: 0.004408685504166537
Epoch: 56300, Error: 0.004370420920473101
Epoch: 56400, Error: 0.004334306578545579
Epoch: 56500, Error: 0.004306929323900599
Epoch: 56600, Error: 0.004287684567418362
Epoch: 56700, Error: 0.0042644371927375675
Epoch: 56800, Error: 0.004230435603919589
Epoch: 56900, Error: 0.0042506790527633955
Epoch: 57000, Error: 0.004189059729746347
Epoch: 57100, Error: 0.004171244030285054
Epoch: 57200, Error: 0.004151697876468631
Epoch: 57300, Error: 0.004117233194548792
Epoch: 57400, Error: 0.004109183153000649
Epoch: 57500, Error: 0.004073595276612726
Epoch: 57600, Error: 0.004074585719483415
Epoch: 57700, Error: 0.0040310203751629985
Epoch: 57800, Error: 0.0040214949412565384
Epoch: 57900, Error: 0.003973573244665019
Epoch: 58000, Error: 0.003985285566513509
Epoch: 58100, Error: 0.003943652765694041
Epoch: 58200, Error: 0.003905299336395619
Epoch: 58300, Error: 0.00386284271600588
Epoch: 58400, Error: 0.0038673645821417878
Epoch: 58500, Error: 0.003837877907133768
Epoch: 58600, Error: 0.003809787839344775
Epoch: 58700, Error: 0.0037975425628178146
Epoch: 58800, Error: 0.0037431286202992127
Epoch: 58900, Error: 0.003767582974820071
Epoch: 59000, Error: 0.0036947656383486483
Epoch: 59100, Error: 0.0037464720171170476
Epoch: 59200, Error: 0.0036409109639364166
Epoch: 59300, Error: 0.0036209579759124626
Epoch: 59400, Error: 0.003600506796625573
Epoch: 59500, Error: 0.003598276956799706
Epoch: 59600, Error: 0.0035484541648008877
Epoch: 59700, Error: 0.003525072645432815
Epoch: 59800, Error: 0.0034900709223669875
Epoch: 59900, Error: 0.0034784823304206706
Epoch: 60000, Error: 0.0034513623636596054
Epoch: 60100, Error: 0.003427855405162901
Epoch: 60200, Error: 0.003401819057872721
Epoch: 60300, Error: 0.0033715876003089073
Epoch: 60400, Error: 0.0034021780947243487
Epoch: 60500, Error: 0.0033517936579378817
Epoch: 60600, Error: 0.003431486784618593
Epoch: 60700, Error: 0.00328478796678606
Epoch: 60800, Error: 0.0032783242250970634
Epoch: 60900, Error: 0.0032404149535947145
Epoch: 61000, Error: 0.0032421455239337762
Epoch: 61100, Error: 0.0031921139094460227
Epoch: 61200, Error: 0.0031821413012167662
Epoch: 61300, Error: 0.0031506136911679064
Epoch: 61400, Error: 0.0031468779981326466
Epoch: 61500, Error: 0.0031084695693652654
Epoch: 61600, Error: 0.003094579932793536
Epoch: 61700, Error: 0.003100996773237657
Epoch: 61800, Error: 0.0030697901514155643
Epoch: 61900, Error: 0.003034354028851794
Epoch: 62000, Error: 0.0030061090695805916
Epoch: 62100, Error: 0.003189677646946829
Epoch: 62200, Error: 0.0029652904403383888
Epoch: 62300, Error: 0.002956814517755461
Epoch: 62400, Error: 0.002940225831433166
Epoch: 62500, Error: 0.002943722865036317
Epoch: 62600, Error: 0.002905819557385653
Epoch: 62700, Error: 0.002880767440916609
Epoch: 62800, Error: 0.0028690601220034144
Epoch: 62900, Error: 0.0028336911589097688
Epoch: 63000, Error: 0.0028180887749803853
Epoch: 63100, Error: 0.002810274664367714
Epoch: 63200, Error: 0.0028240219626620867
Epoch: 63300, Error: 0.0027833250142683813
Epoch: 63400, Error: 0.0027607089207135308
Epoch: 63500, Error: 0.0027451721681635496
Epoch: 63600, Error: 0.0027286449708827584
Epoch: 63700, Error: 0.0027154210898550787
Epoch: 63800, Error: 0.002714202336263259
Epoch: 63900, Error: 0.002696691174200171
Epoch: 64000, Error: 0.002684086525949806
Epoch: 64100, Error: 0.0026687459541396897
Epoch: 64200, Error: 0.0026587712834945845
Epoch: 64300, Error: 0.00263918485997536
Epoch: 64400, Error: 0.0026215413868034537
Epoch: 64500, Error: 0.0026066979196630504
Epoch: 64600, Error: 0.0025994705810647757
Epoch: 64700, Error: 0.002623846785093833
Epoch: 64800, Error: 0.002599951548542505
Epoch: 64900, Error: 0.002624634476776315
Epoch: 65000, Error: 0.0025888116804583775
Epoch: 65100, Error: 0.0025889318350688193
Epoch: 65200, Error: 0.0026194634767119393
Epoch: 65300, Error: 0.0025747147302111165
Epoch: 65400, Error: 0.0025646602425339533
Epoch: 65500, Error: 0.0025488975984118973
Epoch: 65600, Error: 0.0025526892862634204
Epoch: 65700, Error: 0.002529785231617049
Epoch: 65800, Error: 0.0025188857472819496
Epoch: 65900, Error: 0.0025193761969164487
Epoch: 66000, Error: 0.002491620497929502
Epoch: 66100, Error: 0.002549691110992352
Epoch: 66200, Error: 0.002462272552826223
Epoch: 66300, Error: 0.0024497362684539527
Epoch: 66400, Error: 0.002441364869777301
Epoch: 66500, Error: 0.002467676612070539
Epoch: 66600, Error: 0.0024068367008379422
Epoch: 66700, Error: 0.0023933254090618816
Epoch: 66800, Error: 0.0023786707285814914
Epoch: 66900, Error: 0.002363369773952544
Epoch: 67000, Error: 0.0023551473737158978
Epoch: 67100, Error: 0.002339837939725979
Epoch: 67200, Error: 0.00234255650807326
Epoch: 67300, Error: 0.002329011956740224
Epoch: 67400, Error: 0.0023355109448282368
Epoch: 67500, Error: 0.0023510594671253583
Epoch: 67600, Error: 0.0023127931284763455
Epoch: 67700, Error: 0.0023099100862342035
Epoch: 67800, Error: 0.002297246587838984
Epoch: 67900, Error: 0.0022826161251271767
Finished
