Input Patterns
0.224 0.624 0.067 0.043 
0.11 0.502 0.051 0.043 
0.196 0.667 0.067 0.043 
0.055 0.584 0.067 0.082 
0.027 0.376 0.067 0.043 
0.306 0.71 0.086 0.043 
0.137 0.416 0.067 0.0 
0.416 0.831 0.035 0.043 
0.306 0.792 0.051 0.125 
0.388 0.749 0.118 0.082 
0.306 0.584 0.118 0.043 
0.082 0.667 0.0 0.043 
0.137 0.584 0.153 0.043 
0.196 0.584 0.102 0.125 
0.251 0.584 0.067 0.043 
0.137 0.459 0.102 0.043 
0.251 0.875 0.086 0.0 
0.165 0.459 0.086 0.043 
0.333 0.624 0.051 0.043 
0.027 0.416 0.051 0.043 
0.196 0.624 0.051 0.082 
0.027 0.502 0.051 0.043 
0.224 0.749 0.153 0.125 
0.224 0.749 0.102 0.043 
0.278 0.71 0.086 0.043 
0.165 0.416 0.067 0.043 
0.082 0.459 0.086 0.043 
0.306 0.792 0.118 0.125 
0.196 0.584 0.086 0.043 
0.165 0.459 0.086 0.0 
0.137 0.584 0.102 0.043 
0.0 0.416 0.016 0.0 
0.388 1.0 0.086 0.125 
0.224 0.624 0.067 0.082 
0.224 0.749 0.086 0.082 
0.224 0.71 0.086 0.125 
0.224 0.541 0.118 0.165 
0.196 0.416 0.102 0.043 
0.251 0.624 0.086 0.043 
0.11 0.502 0.102 0.043 
0.306 0.584 0.086 0.125 
0.333 0.918 0.067 0.043 
0.196 0.502 0.035 0.043 
0.165 0.667 0.067 0.0 
0.224 0.584 0.086 0.043 
0.055 0.125 0.051 0.082 
0.196 0.624 0.102 0.208 
0.137 0.416 0.067 0.082 
0.082 0.502 0.067 0.043 
0.196 0.541 0.067 0.043 
0.749 0.502 0.627 0.541 
0.722 0.459 0.663 0.584 
0.612 0.333 0.612 0.584 
0.557 0.541 0.627 0.624 
0.639 0.376 0.612 0.498 
0.196 0.0 0.424 0.376 
0.471 0.082 0.51 0.376 
0.361 0.376 0.439 0.498 
0.361 0.416 0.592 0.584 
0.529 0.082 0.592 0.584 
0.443 0.502 0.643 0.459 
0.557 0.208 0.663 0.584 
0.584 0.376 0.561 0.498 
0.694 0.333 0.643 0.541 
0.471 0.376 0.592 0.584 
0.333 0.169 0.475 0.416 
0.416 0.29 0.49 0.459 
0.306 0.416 0.592 0.584 
0.667 0.459 0.627 0.584 
0.361 0.416 0.525 0.498 
0.333 0.251 0.576 0.459 
0.416 0.251 0.51 0.459 
0.361 0.29 0.541 0.498 
0.388 0.376 0.541 0.498 
0.224 0.208 0.337 0.416 
0.584 0.502 0.592 0.584 
0.333 0.125 0.51 0.498 
0.388 0.333 0.592 0.498 
0.165 0.169 0.388 0.376 
0.251 0.29 0.49 0.541 
0.443 0.416 0.541 0.584 
0.498 0.376 0.627 0.541 
0.667 0.459 0.576 0.541 
0.416 0.29 0.525 0.376 
0.361 0.208 0.49 0.416 
0.498 0.333 0.51 0.498 
0.498 0.333 0.627 0.459 
0.639 0.416 0.576 0.541 
0.667 0.416 0.678 0.667 
0.388 0.251 0.424 0.376 
0.333 0.169 0.459 0.376 
0.471 0.29 0.694 0.624 
0.471 0.584 0.592 0.624 
0.557 0.125 0.576 0.498 
0.333 0.208 0.51 0.498 
0.498 0.416 0.612 0.541 
0.196 0.125 0.388 0.376 
0.388 0.416 0.541 0.459 
0.529 0.376 0.561 0.498 
0.388 0.333 0.525 0.498 
0.557 0.541 0.847 1.0 
0.776 0.416 0.831 0.831 
0.612 0.416 0.812 0.875 
0.165 0.208 0.592 0.667 
0.667 0.208 0.812 0.71 
0.612 0.502 0.694 0.792 
0.694 0.416 0.761 0.831 
0.416 0.333 0.694 0.957 
0.612 0.416 0.761 0.71 
0.945 0.251 1.0 0.918 
0.722 0.502 0.796 0.918 
0.945 0.333 0.965 0.792 
0.667 0.541 0.796 0.831 
0.529 0.333 0.643 0.71 
0.584 0.333 0.78 0.831 
0.863 0.333 0.863 0.749 
0.584 0.333 0.78 0.875 
0.498 0.251 0.78 0.541 
0.557 0.584 0.78 0.957 
0.471 0.416 0.643 0.71 
0.667 0.459 0.78 0.957 
0.416 0.29 0.694 0.749 
0.667 0.541 0.796 1.0 
0.557 0.208 0.678 0.749 
0.529 0.584 0.745 0.918 
0.416 0.29 0.694 0.749 
0.557 0.376 0.78 0.71 
0.918 0.416 0.949 0.831 
0.835 0.376 0.898 0.71 
0.804 0.667 0.863 1.0 
0.584 0.29 0.729 0.749 
0.388 0.208 0.678 0.792 
0.584 0.502 0.729 0.918 
0.945 0.749 0.965 0.875 
0.471 0.082 0.678 0.584 
0.361 0.333 0.663 0.792 
0.557 0.29 0.663 0.71 
0.804 0.502 0.847 0.71 
0.498 0.416 0.51 0.71 
0.804 0.416 0.812 0.624 
1.0 0.749 0.914 0.792 
0.557 0.333 0.694 0.584 
0.945 0.416 0.863 0.918 
0.584 0.459 0.761 0.71 
0.722 0.459 0.745 0.831 
0.722 0.459 0.694 0.918 
0.694 0.502 0.831 0.918 
0.667 0.416 0.714 0.918 
0.612 0.416 0.714 0.792 
0.443 0.416 0.694 0.71 
Teaching Patterns
1.0 0.0 0.0 
1.0 0.0 0.0 
1.0 0.0 0.0 
1.0 0.0 0.0 
1.0 0.0 0.0 
1.0 0.0 0.0 
1.0 0.0 0.0 
1.0 0.0 0.0 
1.0 0.0 0.0 
1.0 0.0 0.0 
1.0 0.0 0.0 
1.0 0.0 0.0 
1.0 0.0 0.0 
1.0 0.0 0.0 
1.0 0.0 0.0 
1.0 0.0 0.0 
1.0 0.0 0.0 
1.0 0.0 0.0 
1.0 0.0 0.0 
1.0 0.0 0.0 
1.0 0.0 0.0 
1.0 0.0 0.0 
1.0 0.0 0.0 
1.0 0.0 0.0 
1.0 0.0 0.0 
1.0 0.0 0.0 
1.0 0.0 0.0 
1.0 0.0 0.0 
1.0 0.0 0.0 
1.0 0.0 0.0 
1.0 0.0 0.0 
1.0 0.0 0.0 
1.0 0.0 0.0 
1.0 0.0 0.0 
1.0 0.0 0.0 
1.0 0.0 0.0 
1.0 0.0 0.0 
1.0 0.0 0.0 
1.0 0.0 0.0 
1.0 0.0 0.0 
1.0 0.0 0.0 
1.0 0.0 0.0 
1.0 0.0 0.0 
1.0 0.0 0.0 
1.0 0.0 0.0 
1.0 0.0 0.0 
1.0 0.0 0.0 
1.0 0.0 0.0 
1.0 0.0 0.0 
1.0 0.0 0.0 
0.0 1.0 0.0 
0.0 1.0 0.0 
0.0 1.0 0.0 
0.0 1.0 0.0 
0.0 1.0 0.0 
0.0 1.0 0.0 
0.0 1.0 0.0 
0.0 1.0 0.0 
0.0 1.0 0.0 
0.0 1.0 0.0 
0.0 1.0 0.0 
0.0 1.0 0.0 
0.0 1.0 0.0 
0.0 1.0 0.0 
0.0 1.0 0.0 
0.0 1.0 0.0 
0.0 1.0 0.0 
0.0 1.0 0.0 
0.0 1.0 0.0 
0.0 1.0 0.0 
0.0 1.0 0.0 
0.0 1.0 0.0 
0.0 1.0 0.0 
0.0 1.0 0.0 
0.0 1.0 0.0 
0.0 1.0 0.0 
0.0 1.0 0.0 
0.0 1.0 0.0 
0.0 1.0 0.0 
0.0 1.0 0.0 
0.0 1.0 0.0 
0.0 1.0 0.0 
0.0 1.0 0.0 
0.0 1.0 0.0 
0.0 1.0 0.0 
0.0 1.0 0.0 
0.0 1.0 0.0 
0.0 1.0 0.0 
0.0 1.0 0.0 
0.0 1.0 0.0 
0.0 1.0 0.0 
0.0 1.0 0.0 
0.0 1.0 0.0 
0.0 1.0 0.0 
0.0 1.0 0.0 
0.0 1.0 0.0 
0.0 1.0 0.0 
0.0 1.0 0.0 
0.0 1.0 0.0 
0.0 1.0 0.0 
0.0 0.0 1.0 
0.0 0.0 1.0 
0.0 0.0 1.0 
0.0 0.0 1.0 
0.0 0.0 1.0 
0.0 0.0 1.0 
0.0 0.0 1.0 
0.0 0.0 1.0 
0.0 0.0 1.0 
0.0 0.0 1.0 
0.0 0.0 1.0 
0.0 0.0 1.0 
0.0 0.0 1.0 
0.0 0.0 1.0 
0.0 0.0 1.0 
0.0 0.0 1.0 
0.0 0.0 1.0 
0.0 0.0 1.0 
0.0 0.0 1.0 
0.0 0.0 1.0 
0.0 0.0 1.0 
0.0 0.0 1.0 
0.0 0.0 1.0 
0.0 0.0 1.0 
0.0 0.0 1.0 
0.0 0.0 1.0 
0.0 0.0 1.0 
0.0 0.0 1.0 
0.0 0.0 1.0 
0.0 0.0 1.0 
0.0 0.0 1.0 
0.0 0.0 1.0 
0.0 0.0 1.0 
0.0 0.0 1.0 
0.0 0.0 1.0 
0.0 0.0 1.0 
0.0 0.0 1.0 
0.0 0.0 1.0 
0.0 0.0 1.0 
0.0 0.0 1.0 
0.0 0.0 1.0 
0.0 0.0 1.0 
0.0 0.0 1.0 
0.0 0.0 1.0 
0.0 0.0 1.0 
0.0 0.0 1.0 
0.0 0.0 1.0 
0.0 0.0 1.0 
0.0 0.0 1.0 
0.0 0.0 1.0 
Learning : 0.05
Momentum : 0.8999999761581421
Epoch: 100, Error: 0.023463096368178064
Epoch: 200, Error: 0.01681240275228838
Epoch: 300, Error: 0.015178651222430463
Epoch: 400, Error: 0.014268316994100605
Epoch: 500, Error: 0.013598417924050553
Epoch: 600, Error: 0.013365463664608166
Epoch: 700, Error: 0.013009716658880616
Epoch: 800, Error: 0.012808157190906748
Epoch: 900, Error: 0.012682290950553728
Epoch: 1000, Error: 0.012733412914679998
Epoch: 1100, Error: 0.012534546335311514
Epoch: 1200, Error: 0.012663184058994133
Epoch: 1300, Error: 0.01244804838835931
Epoch: 1400, Error: 0.012280114548173949
Epoch: 1500, Error: 0.01238178589996692
Epoch: 1600, Error: 0.012214553415080317
Epoch: 1700, Error: 0.012210994948699965
Epoch: 1800, Error: 0.012172640602000037
Epoch: 1900, Error: 0.012377821981203086
Epoch: 2000, Error: 0.012087059590195768
Epoch: 2100, Error: 0.012128701148525907
Epoch: 2200, Error: 0.012090266066166155
Epoch: 2300, Error: 0.012041615907871454
Epoch: 2400, Error: 0.012045831757855206
Epoch: 2500, Error: 0.012081276718890551
Epoch: 2600, Error: 0.012037781797534054
Epoch: 2700, Error: 0.012034468245521393
Epoch: 2800, Error: 0.012109191059468491
Epoch: 2900, Error: 0.012004453128542546
Epoch: 3000, Error: 0.0120577358218028
Epoch: 3100, Error: 0.011986535297501199
Epoch: 3200, Error: 0.011908181412720941
Epoch: 3300, Error: 0.011931933493268897
Epoch: 3400, Error: 0.011940609450928879
Epoch: 3500, Error: 0.012048416736488052
Epoch: 3600, Error: 0.011970768366778519
Epoch: 3700, Error: 0.011985340944008065
Epoch: 3800, Error: 0.011969299946528188
Epoch: 3900, Error: 0.011968807950650986
Epoch: 4000, Error: 0.012040123839441695
Epoch: 4100, Error: 0.01203485894218156
Epoch: 4200, Error: 0.01195317469086917
Epoch: 4300, Error: 0.011902940402083919
Epoch: 4400, Error: 0.011906882169201266
Epoch: 4500, Error: 0.011996907747605213
Epoch: 4600, Error: 0.011903709792588032
Epoch: 4700, Error: 0.012144021481576117
Epoch: 4800, Error: 0.011905148528433464
Epoch: 4900, Error: 0.01192591086850413
Epoch: 5000, Error: 0.011888253971471427
Epoch: 5100, Error: 0.011873681688670137
Epoch: 5200, Error: 0.011945814643005875
Epoch: 5300, Error: 0.011959049917714829
Epoch: 5400, Error: 0.012115092714668419
Epoch: 5500, Error: 0.01184262748206044
Epoch: 5600, Error: 0.011949696485694307
Epoch: 5700, Error: 0.011908809730299397
Epoch: 5800, Error: 0.012086576503606013
Epoch: 5900, Error: 0.011925283147752602
Epoch: 6000, Error: 0.011921102823544553
Epoch: 6100, Error: 0.011922750578765524
Epoch: 6200, Error: 0.011879069768445319
Epoch: 6300, Error: 0.012265760396538117
Epoch: 6400, Error: 0.011956785442607235
Epoch: 6500, Error: 0.01189007174396315
Epoch: 6600, Error: 0.011903515732445847
Epoch: 6700, Error: 0.012353528289758178
Epoch: 6800, Error: 0.011924811487303788
Epoch: 6900, Error: 0.01191061494791376
Epoch: 7000, Error: 0.011900311822193982
Epoch: 7100, Error: 0.011866808459122186
Epoch: 7200, Error: 0.012077995472781503
Epoch: 7300, Error: 0.011879441685813705
Epoch: 7400, Error: 0.011894363251391168
Epoch: 7500, Error: 0.011923003814916995
Epoch: 7600, Error: 0.011952424597480218
Epoch: 7700, Error: 0.011940815516662115
Epoch: 7800, Error: 0.011888087377176332
Epoch: 7900, Error: 0.01203661165514188
Epoch: 8000, Error: 0.012023354251641357
Epoch: 8100, Error: 0.01260899164224543
Epoch: 8200, Error: 0.011928844385593168
Epoch: 8300, Error: 0.011927028880876095
Epoch: 8400, Error: 0.01188124087606809
Epoch: 8500, Error: 0.011863919092272425
Epoch: 8600, Error: 0.011938984045285027
Epoch: 8700, Error: 0.011848086307570704
Epoch: 8800, Error: 0.011859436690084293
Epoch: 8900, Error: 0.011847020347642873
Epoch: 9000, Error: 0.011842079690839075
Epoch: 9100, Error: 0.011859428459878274
Epoch: 9200, Error: 0.011817714829143828
Epoch: 9300, Error: 0.011867730729644551
Epoch: 9400, Error: 0.011876266362277253
Epoch: 9500, Error: 0.012153785131766383
Epoch: 9600, Error: 0.01188095984483246
Epoch: 9700, Error: 0.011895461194046001
Epoch: 9800, Error: 0.011905467032565595
Epoch: 9900, Error: 0.01180564795337748
Epoch: 10000, Error: 0.011828569121234771
Epoch: 10100, Error: 0.01183320896905276
Epoch: 10200, Error: 0.012152072604405935
Epoch: 10300, Error: 0.011820349033238472
Epoch: 10400, Error: 0.011795380426567744
Epoch: 10500, Error: 0.011924964611558612
Epoch: 10600, Error: 0.011837363517258661
Epoch: 10700, Error: 0.011875759390432042
Epoch: 10800, Error: 0.011851853505983733
Epoch: 10900, Error: 0.011911538763345154
Epoch: 11000, Error: 0.011872959730972478
Epoch: 11100, Error: 0.011884200016967212
Epoch: 11200, Error: 0.011924846910582728
Epoch: 11300, Error: 0.012077023180973761
Epoch: 11400, Error: 0.01196620452715311
Epoch: 11500, Error: 0.011881860248771433
Epoch: 11600, Error: 0.011775359238267535
Epoch: 11700, Error: 0.01198106593854553
Epoch: 11800, Error: 0.012045771340914172
Epoch: 11900, Error: 0.011863534978009403
Epoch: 12000, Error: 0.01190419658124549
Epoch: 12100, Error: 0.012034432049418255
Epoch: 12200, Error: 0.011986925640033152
Epoch: 12300, Error: 0.011959128904387566
Epoch: 12400, Error: 0.011980202633416209
Epoch: 12500, Error: 0.011872204128550418
Epoch: 12600, Error: 0.011942542118416711
Epoch: 12700, Error: 0.011967238875116921
Epoch: 12800, Error: 0.011903802855509545
Epoch: 12900, Error: 0.011852698035794864
Epoch: 13000, Error: 0.011956123690809051
Epoch: 13100, Error: 0.01189492230852046
Epoch: 13200, Error: 0.011851797202589777
Epoch: 13300, Error: 0.011908572583691822
Epoch: 13400, Error: 0.01191850019595523
Epoch: 13500, Error: 0.011922332177362799
Epoch: 13600, Error: 0.012005075392071385
Epoch: 13700, Error: 0.01194334641510469
Epoch: 13800, Error: 0.011875465914084891
Epoch: 13900, Error: 0.011966301388386925
Epoch: 14000, Error: 0.01188356566857687
Epoch: 14100, Error: 0.011907072110096404
Epoch: 14200, Error: 0.011937031734493024
Epoch: 14300, Error: 0.01191836490347609
Epoch: 14400, Error: 0.011945020680809888
Epoch: 14500, Error: 0.011927516561282284
Epoch: 14600, Error: 0.01192263870529306
Epoch: 14700, Error: 0.011898903062175097
Epoch: 14800, Error: 0.011984468893101612
Epoch: 14900, Error: 0.011870243411915143
Epoch: 15000, Error: 0.011831268267200332
Epoch: 15100, Error: 0.011909692683427458
Epoch: 15200, Error: 0.011937670664513613
Epoch: 15300, Error: 0.01184406570497987
Epoch: 15400, Error: 0.011872463483745902
Epoch: 15500, Error: 0.011900517770903481
Epoch: 15600, Error: 0.011911735095747878
Epoch: 15700, Error: 0.01179803264860702
Epoch: 15800, Error: 0.011866638480045155
Epoch: 15900, Error: 0.011834777198023443
Epoch: 16000, Error: 0.011974638788612223
Epoch: 16100, Error: 0.011810270942843504
Epoch: 16200, Error: 0.011736385137807018
Epoch: 16300, Error: 0.011871388250626879
Epoch: 16400, Error: 0.011849847980079094
Epoch: 16500, Error: 0.011925496861545065
Epoch: 16600, Error: 0.011945434159748886
Epoch: 16700, Error: 0.011898656366205282
Epoch: 16800, Error: 0.011809874523242217
Epoch: 16900, Error: 0.011829959329246229
Epoch: 17000, Error: 0.01184418313098075
Epoch: 17100, Error: 0.011861210471392726
Epoch: 17200, Error: 0.011816954350292936
Epoch: 17300, Error: 0.011821781524460596
Epoch: 17400, Error: 0.011825341169595606
Epoch: 17500, Error: 0.01180183188469611
Epoch: 17600, Error: 0.011816430813052278
Epoch: 17700, Error: 0.011878810634739313
Epoch: 17800, Error: 0.01175310282530289
Epoch: 17900, Error: 0.011782235157351302
Epoch: 18000, Error: 0.011846785376642842
Epoch: 18100, Error: 0.011752053418607413
Epoch: 18200, Error: 0.011737236984057871
Epoch: 18300, Error: 0.011643865356932306
Epoch: 18400, Error: 0.011608553150117697
Epoch: 18500, Error: 0.011680129892984089
Epoch: 18600, Error: 0.011577711738139831
Epoch: 18700, Error: 0.011562329833379893
Epoch: 18800, Error: 0.011680433977610644
Epoch: 18900, Error: 0.011596174529691729
Epoch: 19000, Error: 0.011461847238922494
Epoch: 19100, Error: 0.01143940931984086
Epoch: 19200, Error: 0.011462555787837466
Epoch: 19300, Error: 0.011413556863558957
Epoch: 19400, Error: 0.011321902364494244
Epoch: 19500, Error: 0.01122131672834144
Epoch: 19600, Error: 0.011196139733156163
Epoch: 19700, Error: 0.011136143507854999
Epoch: 19800, Error: 0.011054960194358178
Epoch: 19900, Error: 0.011022675508520213
Epoch: 20000, Error: 0.011009088817425003
Epoch: 20100, Error: 0.010960238638179787
Epoch: 20200, Error: 0.010973055499889578
Epoch: 20300, Error: 0.010851269882496559
Epoch: 20400, Error: 0.01080811086277281
Epoch: 20500, Error: 0.01082094616102082
Epoch: 20600, Error: 0.010693963198146857
Epoch: 20700, Error: 0.010619336938862935
Epoch: 20800, Error: 0.010568469327542534
Epoch: 20900, Error: 0.010581304191865279
Epoch: 21000, Error: 0.010513663744397696
Epoch: 21100, Error: 0.010468568122918298
Epoch: 21200, Error: 0.010412896421684623
Epoch: 21300, Error: 0.01036049109211514
Epoch: 21400, Error: 0.010279416879932458
Epoch: 21500, Error: 0.01021027782352364
Epoch: 21600, Error: 0.010173331178048696
Epoch: 21700, Error: 0.010066652385367664
Epoch: 21800, Error: 0.010012317615355476
Epoch: 21900, Error: 0.009965023661350178
Epoch: 22000, Error: 0.009975661159363217
Epoch: 22100, Error: 0.009908993661538636
Epoch: 22200, Error: 0.009863787722225716
Epoch: 22300, Error: 0.009867145827212305
Epoch: 22400, Error: 0.009900195613895683
Epoch: 22500, Error: 0.009877270305455661
Epoch: 22600, Error: 0.009847370783992533
Epoch: 22700, Error: 0.009737161702574411
Epoch: 22800, Error: 0.009666780406562568
Epoch: 22900, Error: 0.009633731644853741
Epoch: 23000, Error: 0.009568644605603154
Epoch: 23100, Error: 0.009482847154489476
Epoch: 23200, Error: 0.009439515665407502
Epoch: 23300, Error: 0.009413463725850751
Epoch: 23400, Error: 0.009350352732852415
Epoch: 23500, Error: 0.009271455669600444
Epoch: 23600, Error: 0.009250957004676338
Epoch: 23700, Error: 0.009228613836469546
Epoch: 23800, Error: 0.009198257607479445
Epoch: 23900, Error: 0.00918814766699146
Epoch: 24000, Error: 0.009179465862968255
Epoch: 24100, Error: 0.009143368664448929
Epoch: 24200, Error: 0.009131308696450456
Epoch: 24300, Error: 0.00911559288170887
Epoch: 24400, Error: 0.009088040063276508
Epoch: 24500, Error: 0.00910910150240048
Epoch: 24600, Error: 0.009135986694896665
Epoch: 24700, Error: 0.009126346481469148
Epoch: 24800, Error: 0.009140839362076391
Epoch: 24900, Error: 0.009242445358225635
Epoch: 25000, Error: 0.009047001731408622
Epoch: 25100, Error: 0.009069593977175678
Epoch: 25200, Error: 0.00906705791207732
Epoch: 25300, Error: 0.009010145828512226
Epoch: 25400, Error: 0.008988347556168232
Epoch: 25500, Error: 0.00901068088128895
Epoch: 25600, Error: 0.008974320693366202
Epoch: 25700, Error: 0.008953163782233944
Epoch: 25800, Error: 0.008911075425341917
Epoch: 25900, Error: 0.008904757689813763
Epoch: 26000, Error: 0.00888028492348939
Epoch: 26100, Error: 0.008913160306711417
Epoch: 26200, Error: 0.008867587160890075
Epoch: 26300, Error: 0.008853226668731385
Epoch: 26400, Error: 0.008825830394511736
Epoch: 26500, Error: 0.0087875017479711
Epoch: 26600, Error: 0.00886229369103274
Epoch: 26700, Error: 0.008835940328645837
Epoch: 26800, Error: 0.008762342472966193
Epoch: 26900, Error: 0.008731433133038567
Epoch: 27000, Error: 0.008705790930854926
Epoch: 27100, Error: 0.008683926447875722
Epoch: 27200, Error: 0.008674953677206236
Epoch: 27300, Error: 0.008627611242935918
Epoch: 27400, Error: 0.008653793512521301
Epoch: 27500, Error: 0.008643551492139967
Epoch: 27600, Error: 0.008679600930081074
Epoch: 27700, Error: 0.008631233130434894
Epoch: 27800, Error: 0.008648083030112455
Epoch: 27900, Error: 0.008584498106164754
Epoch: 28000, Error: 0.008581285136193877
Epoch: 28100, Error: 0.008558921670522072
Epoch: 28200, Error: 0.008562620435191024
Epoch: 28300, Error: 0.008558365955141698
Epoch: 28400, Error: 0.008527228990297361
Epoch: 28500, Error: 0.008523922015125081
Epoch: 28600, Error: 0.008506256861795259
Epoch: 28700, Error: 0.008483274129627804
Epoch: 28800, Error: 0.008475372630180703
Epoch: 28900, Error: 0.00847172280943866
Epoch: 29000, Error: 0.008483612878385817
Epoch: 29100, Error: 0.008424852656806849
Epoch: 29200, Error: 0.008413738452910591
Epoch: 29300, Error: 0.00846001937779878
Epoch: 29400, Error: 0.008376185502193916
Epoch: 29500, Error: 0.00839213659461771
Epoch: 29600, Error: 0.008373056568085496
Epoch: 29700, Error: 0.008352090058911178
Epoch: 29800, Error: 0.008314985231931287
Epoch: 29900, Error: 0.008359087334297638
Epoch: 30000, Error: 0.008288237293826578
Epoch: 30100, Error: 0.008268093359791541
Epoch: 30200, Error: 0.008262684630444017
Epoch: 30300, Error: 0.008263589469206786
Epoch: 30400, Error: 0.008244526279231746
Epoch: 30500, Error: 0.00819684754489508
Epoch: 30600, Error: 0.008183315459646774
Epoch: 30700, Error: 0.008112923245852378
Epoch: 30800, Error: 0.008087619298998643
Epoch: 30900, Error: 0.00806361763425955
Epoch: 31000, Error: 0.007979039367665612
Epoch: 31100, Error: 0.00795279210367472
Epoch: 31200, Error: 0.007989774068675322
Epoch: 31300, Error: 0.007970738685908217
Epoch: 31400, Error: 0.007884470205736129
Epoch: 31500, Error: 0.0078515859663897
Epoch: 31600, Error: 0.007826357999133579
Epoch: 31700, Error: 0.007829344006338354
Epoch: 31800, Error: 0.007807794003875555
Epoch: 31900, Error: 0.00785378053971508
Epoch: 32000, Error: 0.007782098949518028
Epoch: 32100, Error: 0.00774827833882699
Epoch: 32200, Error: 0.007839336574209247
Epoch: 32300, Error: 0.00774784168181236
Epoch: 32400, Error: 0.007733799736084543
Epoch: 32500, Error: 0.007691985215495336
Epoch: 32600, Error: 0.007702716690740094
Epoch: 32700, Error: 0.007651023146100014
Epoch: 32800, Error: 0.007631106422230583
Epoch: 32900, Error: 0.007676370699501692
Epoch: 33000, Error: 0.007587285805369791
Epoch: 33100, Error: 0.007646378718012318
Epoch: 33200, Error: 0.007559025481660897
Epoch: 33300, Error: 0.007576599977139137
Epoch: 33400, Error: 0.007588666641669494
Epoch: 33500, Error: 0.007573019823454636
Epoch: 33600, Error: 0.007707326702668931
Epoch: 33700, Error: 0.007599141636253061
Epoch: 33800, Error: 0.007604520088425735
Epoch: 33900, Error: 0.007535224068232352
Epoch: 34000, Error: 0.007532371427961527
Epoch: 34100, Error: 0.007523672647204956
Epoch: 34200, Error: 0.0075007788165537236
Epoch: 34300, Error: 0.007494174219268355
Epoch: 34400, Error: 0.007536628835032766
Epoch: 34500, Error: 0.007502065549435805
Epoch: 34600, Error: 0.007501702286562845
Epoch: 34700, Error: 0.007487635024203763
Epoch: 34800, Error: 0.007486521826840739
Epoch: 34900, Error: 0.007481706342083461
Epoch: 35000, Error: 0.00751910938751065
Epoch: 35100, Error: 0.007498917974937955
Epoch: 35200, Error: 0.007449705646707061
Epoch: 35300, Error: 0.007447729823493872
Epoch: 35400, Error: 0.00745579251524382
Epoch: 35500, Error: 0.007453393574999548
Epoch: 35600, Error: 0.007430812228438806
Epoch: 35700, Error: 0.007401010095278299
Epoch: 35800, Error: 0.007424081898033018
Epoch: 35900, Error: 0.0074052421856789525
Epoch: 36000, Error: 0.007383596499924485
Epoch: 36100, Error: 0.007390644249214881
Epoch: 36200, Error: 0.007389786746464363
Epoch: 36300, Error: 0.007402250919385194
Epoch: 36400, Error: 0.007383324593629291
Epoch: 36500, Error: 0.0073508642683677485
Epoch: 36600, Error: 0.007335997896825491
Epoch: 36700, Error: 0.007368682526141829
Epoch: 36800, Error: 0.007353139923315834
Epoch: 36900, Error: 0.007355226382187839
Epoch: 37000, Error: 0.007349055337792425
Epoch: 37100, Error: 0.0073321878428808445
Epoch: 37200, Error: 0.007335349549289549
Epoch: 37300, Error: 0.0073327752472668786
Epoch: 37400, Error: 0.007314359865439064
Epoch: 37500, Error: 0.007326538155978526
Epoch: 37600, Error: 0.007295233542693601
Epoch: 37700, Error: 0.007292558326914458
Epoch: 37800, Error: 0.007296800764028608
Epoch: 37900, Error: 0.007171698358588237
Epoch: 38000, Error: 0.007326781992498769
Epoch: 38100, Error: 0.007308313502959066
Epoch: 38200, Error: 0.0071967055573934745
Epoch: 38300, Error: 0.007195394670259835
Epoch: 38400, Error: 0.007304562905987817
Epoch: 38500, Error: 0.007304646521692151
Epoch: 38600, Error: 0.007335151488304527
Epoch: 38700, Error: 0.007296896740842498
Epoch: 38800, Error: 0.0073030866437854185
Epoch: 38900, Error: 0.007137894855975592
Epoch: 39000, Error: 0.007264854176299316
Epoch: 39100, Error: 0.007102385960761946
Epoch: 39200, Error: 0.0072634492481122494
Epoch: 39300, Error: 0.007245903066343328
Epoch: 39400, Error: 0.007248616748675982
Epoch: 39500, Error: 0.007069202138182051
Epoch: 39600, Error: 0.007177777881001457
Epoch: 39700, Error: 0.007069536288499744
Epoch: 39800, Error: 0.007064795778045776
Epoch: 39900, Error: 0.007219215565711905
Epoch: 40000, Error: 0.007231237014070248
Epoch: 40100, Error: 0.007225866176135413
Epoch: 40200, Error: 0.007230336048859312
Epoch: 40300, Error: 0.007227492090172468
Epoch: 40400, Error: 0.00721328140938384
Epoch: 40500, Error: 0.007210703306020529
Epoch: 40600, Error: 0.007233850077530298
Epoch: 40700, Error: 0.007247960213020753
Epoch: 40800, Error: 0.007209074905205343
Epoch: 40900, Error: 0.007181278214795028
Epoch: 41000, Error: 0.0070266828763107395
Epoch: 41100, Error: 0.007147787177675793
Epoch: 41200, Error: 0.007283109291989244
Epoch: 41300, Error: 0.007155978217740205
Epoch: 41400, Error: 0.007038466894378607
Epoch: 41500, Error: 0.007128801895411811
Epoch: 41600, Error: 0.007156078968718522
Epoch: 41700, Error: 0.007116735282124841
Epoch: 41800, Error: 0.0069859707060835
Epoch: 41900, Error: 0.006981983377348373
Epoch: 42000, Error: 0.006994963329868005
Epoch: 42100, Error: 0.007016840903754175
Epoch: 42200, Error: 0.007221790620151672
Epoch: 42300, Error: 0.007056647716458875
Epoch: 42400, Error: 0.007226249035867018
Epoch: 42500, Error: 0.00723027363415544
Epoch: 42600, Error: 0.007189566493291063
Epoch: 42700, Error: 0.007156953220565933
Epoch: 42800, Error: 0.00701085268283093
Epoch: 42900, Error: 0.007204348556109176
Epoch: 43000, Error: 0.007039643870086242
Epoch: 43100, Error: 0.007036846939909552
Epoch: 43200, Error: 0.007170146248577684
Epoch: 43300, Error: 0.0070121482239016595
Epoch: 43400, Error: 0.007069409567296619
Epoch: 43500, Error: 0.006969047833214675
Epoch: 43600, Error: 0.0071538059378509645
Epoch: 43700, Error: 0.006949292937925904
Epoch: 43800, Error: 0.007003414588482774
Epoch: 43900, Error: 0.007187451480231435
Epoch: 44000, Error: 0.006985579774584725
Epoch: 44100, Error: 0.007155453126957191
Epoch: 44200, Error: 0.007117854714951806
Epoch: 44300, Error: 0.007139574580971435
Epoch: 44400, Error: 0.007165402495118812
Epoch: 44500, Error: 0.007141117872464223
Epoch: 44600, Error: 0.006957987042129739
Epoch: 44700, Error: 0.007054417708435499
Epoch: 44800, Error: 0.006932878348219629
Epoch: 44900, Error: 0.0069529942897526035
Epoch: 45000, Error: 0.007090662952696864
Epoch: 45100, Error: 0.007102437325188336
Epoch: 45200, Error: 0.007096813309943211
Epoch: 45300, Error: 0.007119938516243119
Epoch: 45400, Error: 0.007115851909635942
Epoch: 45500, Error: 0.007102868262313085
Epoch: 45600, Error: 0.007070426755045522
Epoch: 45700, Error: 0.007014731238381944
Epoch: 45800, Error: 0.007069700639228062
Epoch: 45900, Error: 0.007095161840437741
Epoch: 46000, Error: 0.007053634817057704
Epoch: 46100, Error: 0.007025527594272179
Epoch: 46200, Error: 0.007064021564273317
Epoch: 46300, Error: 0.0070431268845407005
Epoch: 46400, Error: 0.007031462366899387
Epoch: 46500, Error: 0.007032081327636253
Epoch: 46600, Error: 0.007058297365643492
Epoch: 46700, Error: 0.00699899601313517
Epoch: 46800, Error: 0.006997255062387054
Epoch: 46900, Error: 0.0070174215652427634
Epoch: 47000, Error: 0.007020890141221878
Epoch: 47100, Error: 0.007013913002099759
Epoch: 47200, Error: 0.006844114048737266
Epoch: 47300, Error: 0.007140836949075142
Epoch: 47400, Error: 0.0070332026754147126
Epoch: 47500, Error: 0.007028212260446426
Epoch: 47600, Error: 0.007021140900092003
Epoch: 47700, Error: 0.006968013223070292
Epoch: 47800, Error: 0.006975601103686264
Epoch: 47900, Error: 0.006873681779529704
Epoch: 48000, Error: 0.006725336237583322
Epoch: 48100, Error: 0.006854167683424336
Epoch: 48200, Error: 0.006790917434962332
Epoch: 48300, Error: 0.00677391508614653
Epoch: 48400, Error: 0.006783429187487152
Epoch: 48500, Error: 0.006791813593393629
Epoch: 48600, Error: 0.006786748047240406
Epoch: 48700, Error: 0.0068428396613587645
Epoch: 48800, Error: 0.0066278093090494225
Epoch: 48900, Error: 0.006846052807350344
Epoch: 49000, Error: 0.0068489382123154445
Epoch: 49100, Error: 0.006820425819186735
Epoch: 49200, Error: 0.006776008386184739
Epoch: 49300, Error: 0.006759774660644422
Epoch: 49400, Error: 0.006747954500496559
Epoch: 49500, Error: 0.00673116623425022
Epoch: 49600, Error: 0.006561663813484681
Epoch: 49700, Error: 0.006716610670409775
Epoch: 49800, Error: 0.006564924750193688
Epoch: 49900, Error: 0.006742163811147251
Epoch: 50000, Error: 0.006732030934691259
Epoch: 50100, Error: 0.00673763178065988
Epoch: 50200, Error: 0.006729320629596728
Epoch: 50300, Error: 0.006542572316560177
Epoch: 50400, Error: 0.006715927000488269
Epoch: 50500, Error: 0.006544218164775527
Epoch: 50600, Error: 0.006699652487764988
Epoch: 50700, Error: 0.006708461172774215
Epoch: 50800, Error: 0.006652161152948001
Epoch: 50900, Error: 0.006683373467920462
Epoch: 51000, Error: 0.0066907407111789765
Epoch: 51100, Error: 0.006671564974392057
Epoch: 51200, Error: 0.006685010077956427
Epoch: 51300, Error: 0.006672605464371939
Epoch: 51400, Error: 0.0066731828517562364
Epoch: 51500, Error: 0.0066541517665385285
Epoch: 51600, Error: 0.006507551463303458
Epoch: 51700, Error: 0.00665367006897149
Epoch: 51800, Error: 0.006679517040852729
Epoch: 51900, Error: 0.006612309236285824
Epoch: 52000, Error: 0.006605697736028037
Epoch: 52100, Error: 0.006623292607451434
Epoch: 52200, Error: 0.006715116023277967
Epoch: 52300, Error: 0.0066363980532971835
Epoch: 52400, Error: 0.006622655812192908
Epoch: 52500, Error: 0.006619565294021516
Epoch: 52600, Error: 0.006606947162016762
Epoch: 52700, Error: 0.0066214483969556015
Epoch: 52800, Error: 0.006573566234899809
Epoch: 52900, Error: 0.006582699417520561
Epoch: 53000, Error: 0.006565664784902838
Epoch: 53100, Error: 0.006564364388044978
Epoch: 53200, Error: 0.0065641543997996855
Epoch: 53300, Error: 0.006560049486395488
Epoch: 53400, Error: 0.006374155951325415
Epoch: 53500, Error: 0.00653903327237165
Epoch: 53600, Error: 0.0065338319521017684
Epoch: 53700, Error: 0.006544988428127349
Epoch: 53800, Error: 0.0065212851196786055
Epoch: 53900, Error: 0.006515402247659639
Epoch: 54000, Error: 0.006500555209735902
Epoch: 54100, Error: 0.0064997343814120175
Epoch: 54200, Error: 0.006517387028982695
Epoch: 54300, Error: 0.006539800334502391
Epoch: 54400, Error: 0.00651006475410137
Epoch: 54500, Error: 0.006509318547278788
Epoch: 54600, Error: 0.006481953198989743
Epoch: 54700, Error: 0.006471192249824412
Epoch: 54800, Error: 0.006472339508457528
Epoch: 54900, Error: 0.006505223374186009
Epoch: 55000, Error: 0.006457865087902797
Epoch: 55100, Error: 0.0064544886308950606
Epoch: 55200, Error: 0.006500640007824384
Epoch: 55300, Error: 0.006463080559499716
Epoch: 55400, Error: 0.006446522428876017
Epoch: 55500, Error: 0.006426685496389644
Epoch: 55600, Error: 0.006449085475879888
Epoch: 55700, Error: 0.006438022744892713
Epoch: 55800, Error: 0.0064071673322495075
Epoch: 55900, Error: 0.006419303875443816
Epoch: 56000, Error: 0.006400942444053803
Epoch: 56100, Error: 0.006395615160375799
Epoch: 56200, Error: 0.006396214764341371
Epoch: 56300, Error: 0.0064005427265469315
Epoch: 56400, Error: 0.006413494145502518
Epoch: 56500, Error: 0.006436725294616297
Epoch: 56600, Error: 0.006391202108580673
Epoch: 56700, Error: 0.006391676305561135
Epoch: 56800, Error: 0.006391155975788583
Epoch: 56900, Error: 0.0064470976418070725
Epoch: 57000, Error: 0.006405190567435485
Epoch: 57100, Error: 0.006395121427041478
Epoch: 57200, Error: 0.006369642602015491
Epoch: 57300, Error: 0.006366811194228079
Epoch: 57400, Error: 0.006393236626427678
Epoch: 57500, Error: 0.006388210467600347
Epoch: 57600, Error: 0.0063743682555604106
Finished
Input Patterns
0.224 0.624 0.067 0.043 
0.11 0.502 0.051 0.043 
0.196 0.667 0.067 0.043 
0.055 0.584 0.067 0.082 
0.027 0.376 0.067 0.043 
0.306 0.71 0.086 0.043 
0.137 0.416 0.067 0.0 
0.416 0.831 0.035 0.043 
0.306 0.792 0.051 0.125 
0.388 0.749 0.118 0.082 
0.306 0.584 0.118 0.043 
0.082 0.667 0.0 0.043 
0.137 0.584 0.153 0.043 
0.196 0.584 0.102 0.125 
0.251 0.584 0.067 0.043 
0.137 0.459 0.102 0.043 
0.251 0.875 0.086 0.0 
0.165 0.459 0.086 0.043 
0.333 0.624 0.051 0.043 
0.027 0.416 0.051 0.043 
0.196 0.624 0.051 0.082 
0.027 0.502 0.051 0.043 
0.224 0.749 0.153 0.125 
0.224 0.749 0.102 0.043 
0.278 0.71 0.086 0.043 
0.165 0.416 0.067 0.043 
0.082 0.459 0.086 0.043 
0.306 0.792 0.118 0.125 
0.196 0.584 0.086 0.043 
0.165 0.459 0.086 0.0 
0.137 0.584 0.102 0.043 
0.0 0.416 0.016 0.0 
0.388 1.0 0.086 0.125 
0.224 0.624 0.067 0.082 
0.224 0.749 0.086 0.082 
0.224 0.71 0.086 0.125 
0.224 0.541 0.118 0.165 
0.196 0.416 0.102 0.043 
0.251 0.624 0.086 0.043 
0.11 0.502 0.102 0.043 
0.306 0.584 0.086 0.125 
0.333 0.918 0.067 0.043 
0.196 0.502 0.035 0.043 
0.165 0.667 0.067 0.0 
0.224 0.584 0.086 0.043 
0.055 0.125 0.051 0.082 
0.196 0.624 0.102 0.208 
0.137 0.416 0.067 0.082 
0.082 0.502 0.067 0.043 
0.196 0.541 0.067 0.043 
0.749 0.502 0.627 0.541 
0.722 0.459 0.663 0.584 
0.612 0.333 0.612 0.584 
0.557 0.541 0.627 0.624 
0.639 0.376 0.612 0.498 
0.196 0.0 0.424 0.376 
0.471 0.082 0.51 0.376 
0.361 0.376 0.439 0.498 
0.361 0.416 0.592 0.584 
0.529 0.082 0.592 0.584 
0.443 0.502 0.643 0.459 
0.557 0.208 0.663 0.584 
0.584 0.376 0.561 0.498 
0.694 0.333 0.643 0.541 
0.471 0.376 0.592 0.584 
0.333 0.169 0.475 0.416 
0.416 0.29 0.49 0.459 
0.306 0.416 0.592 0.584 
0.667 0.459 0.627 0.584 
0.361 0.416 0.525 0.498 
0.333 0.251 0.576 0.459 
0.416 0.251 0.51 0.459 
0.361 0.29 0.541 0.498 
0.388 0.376 0.541 0.498 
0.224 0.208 0.337 0.416 
0.584 0.502 0.592 0.584 
0.333 0.125 0.51 0.498 
0.388 0.333 0.592 0.498 
0.165 0.169 0.388 0.376 
0.251 0.29 0.49 0.541 
0.443 0.416 0.541 0.584 
0.498 0.376 0.627 0.541 
0.667 0.459 0.576 0.541 
0.416 0.29 0.525 0.376 
0.361 0.208 0.49 0.416 
0.498 0.333 0.51 0.498 
0.498 0.333 0.627 0.459 
0.639 0.416 0.576 0.541 
0.667 0.416 0.678 0.667 
0.388 0.251 0.424 0.376 
0.333 0.169 0.459 0.376 
0.471 0.29 0.694 0.624 
0.471 0.584 0.592 0.624 
0.557 0.125 0.576 0.498 
0.333 0.208 0.51 0.498 
0.498 0.416 0.612 0.541 
0.196 0.125 0.388 0.376 
0.388 0.416 0.541 0.459 
0.529 0.376 0.561 0.498 
0.388 0.333 0.525 0.498 
0.557 0.541 0.847 1.0 
0.776 0.416 0.831 0.831 
0.612 0.416 0.812 0.875 
0.165 0.208 0.592 0.667 
0.667 0.208 0.812 0.71 
0.612 0.502 0.694 0.792 
0.694 0.416 0.761 0.831 
0.416 0.333 0.694 0.957 
0.612 0.416 0.761 0.71 
0.945 0.251 1.0 0.918 
0.722 0.502 0.796 0.918 
0.945 0.333 0.965 0.792 
0.667 0.541 0.796 0.831 
0.529 0.333 0.643 0.71 
0.584 0.333 0.78 0.831 
0.863 0.333 0.863 0.749 
0.584 0.333 0.78 0.875 
0.498 0.251 0.78 0.541 
0.557 0.584 0.78 0.957 
0.471 0.416 0.643 0.71 
0.667 0.459 0.78 0.957 
0.416 0.29 0.694 0.749 
0.667 0.541 0.796 1.0 
0.557 0.208 0.678 0.749 
0.529 0.584 0.745 0.918 
0.416 0.29 0.694 0.749 
0.557 0.376 0.78 0.71 
0.918 0.416 0.949 0.831 
0.835 0.376 0.898 0.71 
0.804 0.667 0.863 1.0 
0.584 0.29 0.729 0.749 
0.388 0.208 0.678 0.792 
0.584 0.502 0.729 0.918 
0.945 0.749 0.965 0.875 
0.471 0.082 0.678 0.584 
0.361 0.333 0.663 0.792 
0.557 0.29 0.663 0.71 
0.804 0.502 0.847 0.71 
0.498 0.416 0.51 0.71 
0.804 0.416 0.812 0.624 
1.0 0.749 0.914 0.792 
0.557 0.333 0.694 0.584 
0.945 0.416 0.863 0.918 
0.584 0.459 0.761 0.71 
0.722 0.459 0.745 0.831 
0.722 0.459 0.694 0.918 
0.694 0.502 0.831 0.918 
0.667 0.416 0.714 0.918 
0.612 0.416 0.714 0.792 
0.443 0.416 0.694 0.71 
Teaching Patterns
1.0 0.0 0.0 
1.0 0.0 0.0 
1.0 0.0 0.0 
1.0 0.0 0.0 
1.0 0.0 0.0 
1.0 0.0 0.0 
1.0 0.0 0.0 
1.0 0.0 0.0 
1.0 0.0 0.0 
1.0 0.0 0.0 
1.0 0.0 0.0 
1.0 0.0 0.0 
1.0 0.0 0.0 
1.0 0.0 0.0 
1.0 0.0 0.0 
1.0 0.0 0.0 
1.0 0.0 0.0 
1.0 0.0 0.0 
1.0 0.0 0.0 
1.0 0.0 0.0 
1.0 0.0 0.0 
1.0 0.0 0.0 
1.0 0.0 0.0 
1.0 0.0 0.0 
1.0 0.0 0.0 
1.0 0.0 0.0 
1.0 0.0 0.0 
1.0 0.0 0.0 
1.0 0.0 0.0 
1.0 0.0 0.0 
1.0 0.0 0.0 
1.0 0.0 0.0 
1.0 0.0 0.0 
1.0 0.0 0.0 
1.0 0.0 0.0 
1.0 0.0 0.0 
1.0 0.0 0.0 
1.0 0.0 0.0 
1.0 0.0 0.0 
1.0 0.0 0.0 
1.0 0.0 0.0 
1.0 0.0 0.0 
1.0 0.0 0.0 
1.0 0.0 0.0 
1.0 0.0 0.0 
1.0 0.0 0.0 
1.0 0.0 0.0 
1.0 0.0 0.0 
1.0 0.0 0.0 
1.0 0.0 0.0 
0.0 1.0 0.0 
0.0 1.0 0.0 
0.0 1.0 0.0 
0.0 1.0 0.0 
0.0 1.0 0.0 
0.0 1.0 0.0 
0.0 1.0 0.0 
0.0 1.0 0.0 
0.0 1.0 0.0 
0.0 1.0 0.0 
0.0 1.0 0.0 
0.0 1.0 0.0 
0.0 1.0 0.0 
0.0 1.0 0.0 
0.0 1.0 0.0 
0.0 1.0 0.0 
0.0 1.0 0.0 
0.0 1.0 0.0 
0.0 1.0 0.0 
0.0 1.0 0.0 
0.0 1.0 0.0 
0.0 1.0 0.0 
0.0 1.0 0.0 
0.0 1.0 0.0 
0.0 1.0 0.0 
0.0 1.0 0.0 
0.0 1.0 0.0 
0.0 1.0 0.0 
0.0 1.0 0.0 
0.0 1.0 0.0 
0.0 1.0 0.0 
0.0 1.0 0.0 
0.0 1.0 0.0 
0.0 1.0 0.0 
0.0 1.0 0.0 
0.0 1.0 0.0 
0.0 1.0 0.0 
0.0 1.0 0.0 
0.0 1.0 0.0 
0.0 1.0 0.0 
0.0 1.0 0.0 
0.0 1.0 0.0 
0.0 1.0 0.0 
0.0 1.0 0.0 
0.0 1.0 0.0 
0.0 1.0 0.0 
0.0 1.0 0.0 
0.0 1.0 0.0 
0.0 1.0 0.0 
0.0 1.0 0.0 
0.0 0.0 1.0 
0.0 0.0 1.0 
0.0 0.0 1.0 
0.0 0.0 1.0 
0.0 0.0 1.0 
0.0 0.0 1.0 
0.0 0.0 1.0 
0.0 0.0 1.0 
0.0 0.0 1.0 
0.0 0.0 1.0 
0.0 0.0 1.0 
0.0 0.0 1.0 
0.0 0.0 1.0 
0.0 0.0 1.0 
0.0 0.0 1.0 
0.0 0.0 1.0 
0.0 0.0 1.0 
0.0 0.0 1.0 
0.0 0.0 1.0 
0.0 0.0 1.0 
0.0 0.0 1.0 
0.0 0.0 1.0 
0.0 0.0 1.0 
0.0 0.0 1.0 
0.0 0.0 1.0 
0.0 0.0 1.0 
0.0 0.0 1.0 
0.0 0.0 1.0 
0.0 0.0 1.0 
0.0 0.0 1.0 
0.0 0.0 1.0 
0.0 0.0 1.0 
0.0 0.0 1.0 
0.0 0.0 1.0 
0.0 0.0 1.0 
0.0 0.0 1.0 
0.0 0.0 1.0 
0.0 0.0 1.0 
0.0 0.0 1.0 
0.0 0.0 1.0 
0.0 0.0 1.0 
0.0 0.0 1.0 
0.0 0.0 1.0 
0.0 0.0 1.0 
0.0 0.0 1.0 
0.0 0.0 1.0 
0.0 0.0 1.0 
0.0 0.0 1.0 
0.0 0.0 1.0 
0.0 0.0 1.0 
Learning : 0.05
Momentum : 0.8999999761581421
Epoch: 100, Error: 0.02239204989370944
Epoch: 200, Error: 0.017124679662096062
Epoch: 300, Error: 0.015355103326166084
Epoch: 400, Error: 0.014640528008263595
Epoch: 500, Error: 0.013994772469160538
Epoch: 600, Error: 0.013636132900000732
Epoch: 700, Error: 0.013339031041436657
Epoch: 800, Error: 0.013186865907821248
Epoch: 900, Error: 0.014097560822855938
Epoch: 1000, Error: 0.012998999250247167
Epoch: 1100, Error: 0.013098062158325012
Epoch: 1200, Error: 0.013014654567166674
Epoch: 1300, Error: 0.013018037512026303
Epoch: 1400, Error: 0.012731437168750269
Epoch: 1500, Error: 0.01267638788052785
Epoch: 1600, Error: 0.0127097317798294
Epoch: 1700, Error: 0.012616235303526614
Epoch: 1800, Error: 0.012618515955718952
Epoch: 1900, Error: 0.012606324922679095
Epoch: 2000, Error: 0.012440727687132523
Epoch: 2100, Error: 0.012450343862238995
Epoch: 2200, Error: 0.012425153866704348
Epoch: 2300, Error: 0.012375028583716093
Epoch: 2400, Error: 0.012390993884384489
Epoch: 2500, Error: 0.012338064007779492
Epoch: 2600, Error: 0.01228829860977653
Epoch: 2700, Error: 0.012250727688279244
Epoch: 2800, Error: 0.012310146114841342
Epoch: 2900, Error: 0.012256649916090961
Epoch: 3000, Error: 0.012223807859235682
Epoch: 3100, Error: 0.012214953155743715
Epoch: 3200, Error: 0.012226182801566272
Epoch: 3300, Error: 0.012221510824733125
Epoch: 3400, Error: 0.012192071036700138
Epoch: 3500, Error: 0.012215707851128585
Epoch: 3600, Error: 0.012183941429480618
Epoch: 3700, Error: 0.012210404732036889
Epoch: 3800, Error: 0.012152462830742616
Epoch: 3900, Error: 0.01220365588845181
Epoch: 4000, Error: 0.012106500766020562
Epoch: 4100, Error: 0.012078347106296903
Epoch: 4200, Error: 0.012045608275736128
Epoch: 4300, Error: 0.012018804604889799
Epoch: 4400, Error: 0.012059232316008663
Epoch: 4500, Error: 0.012014446088832807
Epoch: 4600, Error: 0.011982556372817517
Epoch: 4700, Error: 0.012013819650222765
Epoch: 4800, Error: 0.012040238382230475
Epoch: 4900, Error: 0.011981116840291751
Epoch: 5000, Error: 0.011981900730696916
Epoch: 5100, Error: 0.012023506985902006
Epoch: 5200, Error: 0.01198815023897675
Epoch: 5300, Error: 0.011967018883412053
Epoch: 5400, Error: 0.011965548902233924
Epoch: 5500, Error: 0.01195696638641213
Epoch: 5600, Error: 0.011973071427672653
Epoch: 5700, Error: 0.011972907598909524
Epoch: 5800, Error: 0.011959848091995393
Epoch: 5900, Error: 0.011945523316998824
Epoch: 6000, Error: 0.012031357524487859
Epoch: 6100, Error: 0.011910734687916397
Epoch: 6200, Error: 0.011912284129474886
Epoch: 6300, Error: 0.011910837989313815
Epoch: 6400, Error: 0.011881750347619832
Epoch: 6500, Error: 0.011875325952109779
Epoch: 6600, Error: 0.011838718394459682
Epoch: 6700, Error: 0.011854035137026186
Epoch: 6800, Error: 0.011916180401884385
Epoch: 6900, Error: 0.011885875453203656
Epoch: 7000, Error: 0.011896752023448703
Epoch: 7100, Error: 0.011900721456712293
Epoch: 7200, Error: 0.011911100481449673
Epoch: 7300, Error: 0.011879644271974249
Epoch: 7400, Error: 0.011888527497365228
Epoch: 7500, Error: 0.01187416474278293
Epoch: 7600, Error: 0.011803519690097023
Epoch: 7700, Error: 0.011781604469760483
Epoch: 7800, Error: 0.011777195182531707
Epoch: 7900, Error: 0.011777816145814069
Epoch: 8000, Error: 0.011756846311205113
Epoch: 8100, Error: 0.011732964222364849
Epoch: 8200, Error: 0.011776486389859682
Epoch: 8300, Error: 0.011693639799415878
Epoch: 8400, Error: 0.011724082958887112
Epoch: 8500, Error: 0.01167012786657021
Epoch: 8600, Error: 0.011616242707531125
Epoch: 8700, Error: 0.011561139257756264
Epoch: 8800, Error: 0.011532779672510561
Epoch: 8900, Error: 0.01145373243765293
Epoch: 9000, Error: 0.011381463285762655
Epoch: 9100, Error: 0.01134088902242534
Epoch: 9200, Error: 0.01130059221337931
Epoch: 9300, Error: 0.01125230095109994
Epoch: 9400, Error: 0.011167173581376486
Epoch: 9500, Error: 0.011108528870098477
Epoch: 9600, Error: 0.011080959102814387
Epoch: 9700, Error: 0.011037937108665592
Epoch: 9800, Error: 0.010960378517639313
Epoch: 9900, Error: 0.010837276408890682
Epoch: 10000, Error: 0.01075003483494319
Epoch: 10100, Error: 0.010711829031488877
Epoch: 10200, Error: 0.010582557506988945
Epoch: 10300, Error: 0.010586877607919013
Epoch: 10400, Error: 0.010403143663473766
Epoch: 10500, Error: 0.01036526063480387
Epoch: 10600, Error: 0.01019193719604909
Epoch: 10700, Error: 0.0100919390454406
Epoch: 10800, Error: 0.010002131803429909
Epoch: 10900, Error: 0.010039310896653192
Epoch: 11000, Error: 0.009693911306590844
Epoch: 11100, Error: 0.00962539300525148
Epoch: 11200, Error: 0.00951244721857454
Epoch: 11300, Error: 0.009375943237489099
Epoch: 11400, Error: 0.009177654680816414
Epoch: 11500, Error: 0.009045932847631529
Epoch: 11600, Error: 0.008916283181538733
Epoch: 11700, Error: 0.0086972236439331
Epoch: 11800, Error: 0.008583318185597582
Epoch: 11900, Error: 0.008414729784496084
Epoch: 12000, Error: 0.008261662690620638
Epoch: 12100, Error: 0.008138522351870275
Epoch: 12200, Error: 0.008028952102206265
Epoch: 12300, Error: 0.007874856830582207
Epoch: 12400, Error: 0.007761309143139875
Epoch: 12500, Error: 0.007624596788448691
Epoch: 12600, Error: 0.007506223687419918
Epoch: 12700, Error: 0.007395254186991944
Epoch: 12800, Error: 0.007278528774828594
Epoch: 12900, Error: 0.007219506624756227
Epoch: 13000, Error: 0.007101872498771898
Epoch: 13100, Error: 0.007069681372510863
Epoch: 13200, Error: 0.006900143496715763
Epoch: 13300, Error: 0.006900217028211449
Epoch: 13400, Error: 0.006742123240784872
Epoch: 13500, Error: 0.006642499530233149
Epoch: 13600, Error: 0.006572611498054886
Epoch: 13700, Error: 0.006510300955072669
Epoch: 13800, Error: 0.006439755121519052
Epoch: 13900, Error: 0.006374258928936037
Epoch: 14000, Error: 0.006310111787072118
Epoch: 14100, Error: 0.006297477092546733
Epoch: 14200, Error: 0.006212685728813373
Epoch: 14300, Error: 0.006156784811989812
Epoch: 14400, Error: 0.006125441385083771
Epoch: 14500, Error: 0.006077349418646189
Epoch: 14600, Error: 0.006030188831089828
Epoch: 14700, Error: 0.00631348160312749
Epoch: 14800, Error: 0.0059695529430836515
Epoch: 14900, Error: 0.005941601610707312
Epoch: 15000, Error: 0.005918500828083716
Epoch: 15100, Error: 0.005910364466276408
Epoch: 15200, Error: 0.005886801461910904
Epoch: 15300, Error: 0.005872706141537653
Epoch: 15400, Error: 0.005850846933236886
Epoch: 15500, Error: 0.0058374157355816645
Epoch: 15600, Error: 0.005814885002685593
Epoch: 15700, Error: 0.005769047134661238
Epoch: 15800, Error: 0.005744263966861601
Epoch: 15900, Error: 0.005707456977513127
Epoch: 16000, Error: 0.00568696120881524
Epoch: 16100, Error: 0.005651384440214485
Epoch: 16200, Error: 0.005628519745404318
Epoch: 16300, Error: 0.005635665805797682
Epoch: 16400, Error: 0.0055921506295636605
Epoch: 16500, Error: 0.005566011808047688
Epoch: 16600, Error: 0.005537087633287691
Epoch: 16700, Error: 0.0055184799831914325
Epoch: 16800, Error: 0.005621547226858234
Epoch: 16900, Error: 0.005456195150178861
Epoch: 17000, Error: 0.005442426579364107
Epoch: 17100, Error: 0.005420491197243156
Epoch: 17200, Error: 0.0054002121385686675
Epoch: 17300, Error: 0.005392525979247832
Epoch: 17400, Error: 0.005346569899836934
Epoch: 17500, Error: 0.005325801563158752
Epoch: 17600, Error: 0.005316646802105593
Epoch: 17700, Error: 0.0052773940279298
Epoch: 17800, Error: 0.0052690345519294446
Epoch: 17900, Error: 0.005298818968434711
Epoch: 18000, Error: 0.005254497286221388
Epoch: 18100, Error: 0.005209974942716242
Epoch: 18200, Error: 0.005197532075517062
Epoch: 18300, Error: 0.005162489058017077
Epoch: 18400, Error: 0.005144745511333193
Epoch: 18500, Error: 0.005135578016106423
Epoch: 18600, Error: 0.0051940721933531825
Epoch: 18700, Error: 0.005152990139740855
Epoch: 18800, Error: 0.005072835325723679
Epoch: 18900, Error: 0.005058138998835224
Epoch: 19000, Error: 0.005033504999214661
Epoch: 19100, Error: 0.005064198501733777
Epoch: 19200, Error: 0.005009527848542837
Epoch: 19300, Error: 0.004963575762094608
Epoch: 19400, Error: 0.004944982165289287
Epoch: 19500, Error: 0.004930176687616624
Epoch: 19600, Error: 0.0048988341024638745
Epoch: 19700, Error: 0.0048982774117338835
Epoch: 19800, Error: 0.0048617526279597575
Epoch: 19900, Error: 0.004856723331950136
Epoch: 20000, Error: 0.0048446867213327
Epoch: 20100, Error: 0.004842470930848976
Epoch: 20200, Error: 0.0047820474197806905
Epoch: 20300, Error: 0.004758241725447624
Epoch: 20400, Error: 0.004734486511179572
Epoch: 20500, Error: 0.00472445080966385
Epoch: 20600, Error: 0.0046987437736436604
Epoch: 20700, Error: 0.004666435112279326
Epoch: 20800, Error: 0.004656578535688102
Epoch: 20900, Error: 0.004623718282468879
Epoch: 21000, Error: 0.004598295016653616
Epoch: 21100, Error: 0.0045823530781103
Epoch: 21200, Error: 0.004544294696188458
Epoch: 21300, Error: 0.004549461840499383
Epoch: 21400, Error: 0.004514218403154338
Epoch: 21500, Error: 0.004518436134033171
Epoch: 21600, Error: 0.004489581041728672
Epoch: 21700, Error: 0.0044693547691160435
Epoch: 21800, Error: 0.0044465681046308245
Epoch: 21900, Error: 0.004426374274769575
Epoch: 22000, Error: 0.004419010746753233
Epoch: 22100, Error: 0.0043731355899521525
Epoch: 22200, Error: 0.004338752101013742
Epoch: 22300, Error: 0.004440133716739893
Epoch: 22400, Error: 0.004287165846264152
Epoch: 22500, Error: 0.0042854211788088264
Epoch: 22600, Error: 0.004315978949064009
Epoch: 22700, Error: 0.004330667474028315
Epoch: 22800, Error: 0.004278526028212163
Epoch: 22900, Error: 0.004215073326198574
Epoch: 23000, Error: 0.0042066196708131194
Epoch: 23100, Error: 0.004298850281850902
Epoch: 23200, Error: 0.0041553926139149735
Epoch: 23300, Error: 0.004216237997902542
Epoch: 23400, Error: 0.004133327852919881
Epoch: 23500, Error: 0.0041052296027150265
Epoch: 23600, Error: 0.004094876156321211
Epoch: 23700, Error: 0.004035756709272413
Epoch: 23800, Error: 0.004027249444804819
Epoch: 23900, Error: 0.004092064695539276
Epoch: 24000, Error: 0.0040346267126562235
Epoch: 24100, Error: 0.0039519562979090294
Epoch: 24200, Error: 0.00393439707593975
Epoch: 24300, Error: 0.003915812931393303
Epoch: 24400, Error: 0.0038802480472230586
Epoch: 24500, Error: 0.0038816729133942093
Epoch: 24600, Error: 0.003841700956630224
Epoch: 24700, Error: 0.003829104829791332
Epoch: 24800, Error: 0.0038062840786796926
Epoch: 24900, Error: 0.0038353779141825353
Epoch: 25000, Error: 0.0037617614890033623
Epoch: 25100, Error: 0.0038166208376272394
Epoch: 25200, Error: 0.003724402861235316
Epoch: 25300, Error: 0.003734386371505103
Epoch: 25400, Error: 0.0037171672983753227
Epoch: 25500, Error: 0.003671579299846946
Epoch: 25600, Error: 0.0036603058458481276
Epoch: 25700, Error: 0.0036522570535764023
Epoch: 25800, Error: 0.0036539635757810956
Epoch: 25900, Error: 0.003637162057126494
Epoch: 26000, Error: 0.0035958422226697955
Epoch: 26100, Error: 0.003666817821496289
Epoch: 26200, Error: 0.00355386039101167
Epoch: 26300, Error: 0.00353775640879062
Epoch: 26400, Error: 0.0035121861144183837
Epoch: 26500, Error: 0.003494722353920763
Epoch: 26600, Error: 0.0035553626132031352
Epoch: 26700, Error: 0.003474369758519713
Epoch: 26800, Error: 0.003465496259707292
Epoch: 26900, Error: 0.0034399629047396434
Epoch: 27000, Error: 0.0034575165288761676
Epoch: 27100, Error: 0.0035202535078943027
Epoch: 27200, Error: 0.003411464762287131
Epoch: 27300, Error: 0.0033701703129155286
Epoch: 27400, Error: 0.0035360401026922374
Epoch: 27500, Error: 0.003332927535070461
Epoch: 27600, Error: 0.0033132629592707748
Epoch: 27700, Error: 0.0032939387590951497
Epoch: 27800, Error: 0.0032799211296964605
Epoch: 27900, Error: 0.003241858408890976
Epoch: 28000, Error: 0.00323703054084973
Epoch: 28100, Error: 0.0032805271790279215
Epoch: 28200, Error: 0.0032067964426441223
Epoch: 28300, Error: 0.0033203366125587118
Epoch: 28400, Error: 0.003164386794759277
Epoch: 28500, Error: 0.003161521350019939
Epoch: 28600, Error: 0.0031715851333894243
Epoch: 28700, Error: 0.0031444516310809058
Epoch: 28800, Error: 0.0031006153743613827
Epoch: 28900, Error: 0.0030763675741255127
Epoch: 29000, Error: 0.0030749007451695443
Epoch: 29100, Error: 0.0030220348671934094
Epoch: 29200, Error: 0.0030464460027743757
Epoch: 29300, Error: 0.0030365189423793002
Epoch: 29400, Error: 0.0029784093276616786
Epoch: 29500, Error: 0.003044707774342678
Epoch: 29600, Error: 0.002936803304690124
Epoch: 29700, Error: 0.0029570056409176653
Epoch: 29800, Error: 0.0029221532966926494
Epoch: 29900, Error: 0.0028959662833244492
Epoch: 30000, Error: 0.002920647830181999
Epoch: 30100, Error: 0.002929580798323387
Epoch: 30200, Error: 0.0032874683423786987
Epoch: 30300, Error: 0.0028721902424245285
Epoch: 30400, Error: 0.002854362045608968
Epoch: 30500, Error: 0.0028070130768503166
Epoch: 30600, Error: 0.002772992019912414
Epoch: 30700, Error: 0.002759150634561428
Epoch: 30800, Error: 0.0027441873160579853
Epoch: 30900, Error: 0.0027498326587122703
Epoch: 31000, Error: 0.002745850787557931
Epoch: 31100, Error: 0.0026995263689842193
Epoch: 31200, Error: 0.002694210117019496
Epoch: 31300, Error: 0.0030257781023427903
Epoch: 31400, Error: 0.0026642992158988025
Epoch: 31500, Error: 0.0026330631812367658
Epoch: 31600, Error: 0.0026222244018274054
Epoch: 31700, Error: 0.0025983820312125137
Epoch: 31800, Error: 0.002590872343323524
Epoch: 31900, Error: 0.0025754231910355705
Epoch: 32000, Error: 0.0026006478842103735
Epoch: 32100, Error: 0.002576216864218634
Epoch: 32200, Error: 0.0025309481285355788
Epoch: 32300, Error: 0.002561448967679848
Epoch: 32400, Error: 0.0025697614132354305
Epoch: 32500, Error: 0.0025113755079542964
Epoch: 32600, Error: 0.00246817306815426
Epoch: 32700, Error: 0.002476374433499218
Epoch: 32800, Error: 0.0024448041632220137
Epoch: 32900, Error: 0.002486749783248726
Epoch: 33000, Error: 0.002454288440224091
Epoch: 33100, Error: 0.0024363925417645363
Epoch: 33200, Error: 0.0024501520345620526
Epoch: 33300, Error: 0.002388734195453594
Epoch: 33400, Error: 0.002391345282164492
Epoch: 33500, Error: 0.0023493026208586247
Epoch: 33600, Error: 0.002342646595969594
Epoch: 33700, Error: 0.0023103163476563375
Epoch: 33800, Error: 0.002308933399512288
Epoch: 33900, Error: 0.002307686861999426
Epoch: 34000, Error: 0.0022941667933932667
Epoch: 34100, Error: 0.0023224166092913976
Epoch: 34200, Error: 0.0022752998735474806
Epoch: 34300, Error: 0.002236453116194632
Epoch: 34400, Error: 0.002229004604839764
Epoch: 34500, Error: 0.0022202195166720795
Epoch: 34600, Error: 0.0022611153046907264
Epoch: 34700, Error: 0.0021826416664136278
Epoch: 34800, Error: 0.002194051127229107
Epoch: 34900, Error: 0.002170977607103711
Epoch: 35000, Error: 0.0021595780093663533
Epoch: 35100, Error: 0.0021433743501094666
Epoch: 35200, Error: 0.0021582822730702674
Epoch: 35300, Error: 0.002149335974691229
Epoch: 35400, Error: 0.002108936792591827
Epoch: 35500, Error: 0.0021154227801083326
Epoch: 35600, Error: 0.002148585670050643
Epoch: 35700, Error: 0.0021050071309006773
Epoch: 35800, Error: 0.0020728693333376754
Epoch: 35900, Error: 0.002058034495669749
Epoch: 36000, Error: 0.002044997800127748
Epoch: 36100, Error: 0.0020306529722956073
Epoch: 36200, Error: 0.002034785774161654
Epoch: 36300, Error: 0.002036332298058946
Epoch: 36400, Error: 0.0019992386505895887
Epoch: 36500, Error: 0.0020396438253881986
Epoch: 36600, Error: 0.0020020382088065166
Epoch: 36700, Error: 0.0019798610534678294
Epoch: 36800, Error: 0.0019673499752700958
Epoch: 36900, Error: 0.0019852904052794257
Epoch: 37000, Error: 0.0019432441722738863
Epoch: 37100, Error: 0.0019433459245873474
Epoch: 37200, Error: 0.001953612260252706
Epoch: 37300, Error: 0.0019231941959428245
Epoch: 37400, Error: 0.0019167282600003846
Epoch: 37500, Error: 0.0019033051418319439
Epoch: 37600, Error: 0.0018906136346292697
Epoch: 37700, Error: 0.001886850637398794
Epoch: 37800, Error: 0.0018801549113207758
Epoch: 37900, Error: 0.001874509798136725
Epoch: 38000, Error: 0.001866773875625556
Epoch: 38100, Error: 0.001866066248662684
Epoch: 38200, Error: 0.0018476690502550752
Epoch: 38300, Error: 0.001849093474127752
Epoch: 38400, Error: 0.0018597012661086569
Epoch: 38500, Error: 0.0018325261589605996
Epoch: 38600, Error: 0.0018315762108995373
Epoch: 38700, Error: 0.0018155436976118086
Epoch: 38800, Error: 0.0018302559407292114
Epoch: 38900, Error: 0.0018093932625539444
Epoch: 39000, Error: 0.0017958758965356601
Epoch: 39100, Error: 0.0017879309749964938
Epoch: 39200, Error: 0.001796054734989359
Epoch: 39300, Error: 0.0017715012415491411
Epoch: 39400, Error: 0.0018450039953205129
Epoch: 39500, Error: 0.0017802348641249256
Epoch: 39600, Error: 0.0017582600922966456
Epoch: 39700, Error: 0.0017865829598057554
Epoch: 39800, Error: 0.0017427056338417805
Epoch: 39900, Error: 0.0017305878271845682
Epoch: 40000, Error: 0.0017183225051920457
Epoch: 40100, Error: 0.001751924301845343
Epoch: 40200, Error: 0.0017175465387148992
Epoch: 40300, Error: 0.0017137615665729126
Epoch: 40400, Error: 0.0017138452111803886
Epoch: 40500, Error: 0.0017136484165222398
Epoch: 40600, Error: 0.0017430876950084036
Epoch: 40700, Error: 0.00169976338617431
Epoch: 40800, Error: 0.0017014030244570195
Epoch: 40900, Error: 0.001685573585865995
Epoch: 41000, Error: 0.0016820541215810203
Epoch: 41100, Error: 0.0016734363029769293
Epoch: 41200, Error: 0.0016720259297775858
Epoch: 41300, Error: 0.001681213233230368
Epoch: 41400, Error: 0.0016675425177296052
Epoch: 41500, Error: 0.0016619333673231922
Epoch: 41600, Error: 0.0016658304154861959
Epoch: 41700, Error: 0.0016529507380562058
Epoch: 41800, Error: 0.0016556075324269661
Epoch: 41900, Error: 0.001652523164869905
Epoch: 42000, Error: 0.0016385252171661187
Epoch: 42100, Error: 0.0016511980551869308
Finished
