Input Patterns
0.224 0.624 0.067 0.043 
0.11 0.502 0.051 0.043 
0.196 0.667 0.067 0.043 
0.055 0.584 0.067 0.082 
0.027 0.376 0.067 0.043 
0.306 0.71 0.086 0.043 
0.137 0.416 0.067 0.0 
0.416 0.831 0.035 0.043 
0.306 0.792 0.051 0.125 
0.388 0.749 0.118 0.082 
0.306 0.584 0.118 0.043 
0.082 0.667 0.0 0.043 
0.137 0.584 0.153 0.043 
0.196 0.584 0.102 0.125 
0.251 0.584 0.067 0.043 
0.137 0.459 0.102 0.043 
0.251 0.875 0.086 0.0 
0.165 0.459 0.086 0.043 
0.333 0.624 0.051 0.043 
0.027 0.416 0.051 0.043 
0.196 0.624 0.051 0.082 
0.027 0.502 0.051 0.043 
0.224 0.749 0.153 0.125 
0.224 0.749 0.102 0.043 
0.278 0.71 0.086 0.043 
0.165 0.416 0.067 0.043 
0.082 0.459 0.086 0.043 
0.306 0.792 0.118 0.125 
0.196 0.584 0.086 0.043 
0.165 0.459 0.086 0.0 
0.137 0.584 0.102 0.043 
0.0 0.416 0.016 0.0 
0.388 1.0 0.086 0.125 
0.224 0.624 0.067 0.082 
0.224 0.749 0.086 0.082 
0.224 0.71 0.086 0.125 
0.224 0.541 0.118 0.165 
0.196 0.416 0.102 0.043 
0.251 0.624 0.086 0.043 
0.11 0.502 0.102 0.043 
0.306 0.584 0.086 0.125 
0.333 0.918 0.067 0.043 
0.196 0.502 0.035 0.043 
0.165 0.667 0.067 0.0 
0.224 0.584 0.086 0.043 
0.055 0.125 0.051 0.082 
0.196 0.624 0.102 0.208 
0.137 0.416 0.067 0.082 
0.082 0.502 0.067 0.043 
0.196 0.541 0.067 0.043 
0.749 0.502 0.627 0.541 
0.722 0.459 0.663 0.584 
0.612 0.333 0.612 0.584 
0.557 0.541 0.627 0.624 
0.639 0.376 0.612 0.498 
0.196 0.0 0.424 0.376 
0.471 0.082 0.51 0.376 
0.361 0.376 0.439 0.498 
0.361 0.416 0.592 0.584 
0.529 0.082 0.592 0.584 
0.443 0.502 0.643 0.459 
0.557 0.208 0.663 0.584 
0.584 0.376 0.561 0.498 
0.694 0.333 0.643 0.541 
0.471 0.376 0.592 0.584 
0.333 0.169 0.475 0.416 
0.416 0.29 0.49 0.459 
0.306 0.416 0.592 0.584 
0.667 0.459 0.627 0.584 
0.361 0.416 0.525 0.498 
0.333 0.251 0.576 0.459 
0.416 0.251 0.51 0.459 
0.361 0.29 0.541 0.498 
0.388 0.376 0.541 0.498 
0.224 0.208 0.337 0.416 
0.584 0.502 0.592 0.584 
0.333 0.125 0.51 0.498 
0.388 0.333 0.592 0.498 
0.165 0.169 0.388 0.376 
0.251 0.29 0.49 0.541 
0.443 0.416 0.541 0.584 
0.498 0.376 0.627 0.541 
0.667 0.459 0.576 0.541 
0.416 0.29 0.525 0.376 
0.361 0.208 0.49 0.416 
0.498 0.333 0.51 0.498 
0.498 0.333 0.627 0.459 
0.639 0.416 0.576 0.541 
0.667 0.416 0.678 0.667 
0.388 0.251 0.424 0.376 
0.333 0.169 0.459 0.376 
0.471 0.29 0.694 0.624 
0.471 0.584 0.592 0.624 
0.557 0.125 0.576 0.498 
0.333 0.208 0.51 0.498 
0.498 0.416 0.612 0.541 
0.196 0.125 0.388 0.376 
0.388 0.416 0.541 0.459 
0.529 0.376 0.561 0.498 
0.388 0.333 0.525 0.498 
0.557 0.541 0.847 1.0 
0.776 0.416 0.831 0.831 
0.612 0.416 0.812 0.875 
0.165 0.208 0.592 0.667 
0.667 0.208 0.812 0.71 
0.612 0.502 0.694 0.792 
0.694 0.416 0.761 0.831 
0.416 0.333 0.694 0.957 
0.612 0.416 0.761 0.71 
0.945 0.251 1.0 0.918 
0.722 0.502 0.796 0.918 
0.945 0.333 0.965 0.792 
0.667 0.541 0.796 0.831 
0.529 0.333 0.643 0.71 
0.584 0.333 0.78 0.831 
0.863 0.333 0.863 0.749 
0.584 0.333 0.78 0.875 
0.498 0.251 0.78 0.541 
0.557 0.584 0.78 0.957 
0.471 0.416 0.643 0.71 
0.667 0.459 0.78 0.957 
0.416 0.29 0.694 0.749 
0.667 0.541 0.796 1.0 
0.557 0.208 0.678 0.749 
0.529 0.584 0.745 0.918 
0.416 0.29 0.694 0.749 
0.557 0.376 0.78 0.71 
0.918 0.416 0.949 0.831 
0.835 0.376 0.898 0.71 
0.804 0.667 0.863 1.0 
0.584 0.29 0.729 0.749 
0.388 0.208 0.678 0.792 
0.584 0.502 0.729 0.918 
0.945 0.749 0.965 0.875 
0.471 0.082 0.678 0.584 
0.361 0.333 0.663 0.792 
0.557 0.29 0.663 0.71 
0.804 0.502 0.847 0.71 
0.498 0.416 0.51 0.71 
0.804 0.416 0.812 0.624 
1.0 0.749 0.914 0.792 
0.557 0.333 0.694 0.584 
0.945 0.416 0.863 0.918 
0.584 0.459 0.761 0.71 
0.722 0.459 0.745 0.831 
0.722 0.459 0.694 0.918 
0.694 0.502 0.831 0.918 
0.667 0.416 0.714 0.918 
0.612 0.416 0.714 0.792 
0.443 0.416 0.694 0.71 
Teaching Patterns
1.0 0.0 0.0 
1.0 0.0 0.0 
1.0 0.0 0.0 
1.0 0.0 0.0 
1.0 0.0 0.0 
1.0 0.0 0.0 
1.0 0.0 0.0 
1.0 0.0 0.0 
1.0 0.0 0.0 
1.0 0.0 0.0 
1.0 0.0 0.0 
1.0 0.0 0.0 
1.0 0.0 0.0 
1.0 0.0 0.0 
1.0 0.0 0.0 
1.0 0.0 0.0 
1.0 0.0 0.0 
1.0 0.0 0.0 
1.0 0.0 0.0 
1.0 0.0 0.0 
1.0 0.0 0.0 
1.0 0.0 0.0 
1.0 0.0 0.0 
1.0 0.0 0.0 
1.0 0.0 0.0 
1.0 0.0 0.0 
1.0 0.0 0.0 
1.0 0.0 0.0 
1.0 0.0 0.0 
1.0 0.0 0.0 
1.0 0.0 0.0 
1.0 0.0 0.0 
1.0 0.0 0.0 
1.0 0.0 0.0 
1.0 0.0 0.0 
1.0 0.0 0.0 
1.0 0.0 0.0 
1.0 0.0 0.0 
1.0 0.0 0.0 
1.0 0.0 0.0 
1.0 0.0 0.0 
1.0 0.0 0.0 
1.0 0.0 0.0 
1.0 0.0 0.0 
1.0 0.0 0.0 
1.0 0.0 0.0 
1.0 0.0 0.0 
1.0 0.0 0.0 
1.0 0.0 0.0 
1.0 0.0 0.0 
0.0 1.0 0.0 
0.0 1.0 0.0 
0.0 1.0 0.0 
0.0 1.0 0.0 
0.0 1.0 0.0 
0.0 1.0 0.0 
0.0 1.0 0.0 
0.0 1.0 0.0 
0.0 1.0 0.0 
0.0 1.0 0.0 
0.0 1.0 0.0 
0.0 1.0 0.0 
0.0 1.0 0.0 
0.0 1.0 0.0 
0.0 1.0 0.0 
0.0 1.0 0.0 
0.0 1.0 0.0 
0.0 1.0 0.0 
0.0 1.0 0.0 
0.0 1.0 0.0 
0.0 1.0 0.0 
0.0 1.0 0.0 
0.0 1.0 0.0 
0.0 1.0 0.0 
0.0 1.0 0.0 
0.0 1.0 0.0 
0.0 1.0 0.0 
0.0 1.0 0.0 
0.0 1.0 0.0 
0.0 1.0 0.0 
0.0 1.0 0.0 
0.0 1.0 0.0 
0.0 1.0 0.0 
0.0 1.0 0.0 
0.0 1.0 0.0 
0.0 1.0 0.0 
0.0 1.0 0.0 
0.0 1.0 0.0 
0.0 1.0 0.0 
0.0 1.0 0.0 
0.0 1.0 0.0 
0.0 1.0 0.0 
0.0 1.0 0.0 
0.0 1.0 0.0 
0.0 1.0 0.0 
0.0 1.0 0.0 
0.0 1.0 0.0 
0.0 1.0 0.0 
0.0 1.0 0.0 
0.0 1.0 0.0 
0.0 0.0 1.0 
0.0 0.0 1.0 
0.0 0.0 1.0 
0.0 0.0 1.0 
0.0 0.0 1.0 
0.0 0.0 1.0 
0.0 0.0 1.0 
0.0 0.0 1.0 
0.0 0.0 1.0 
0.0 0.0 1.0 
0.0 0.0 1.0 
0.0 0.0 1.0 
0.0 0.0 1.0 
0.0 0.0 1.0 
0.0 0.0 1.0 
0.0 0.0 1.0 
0.0 0.0 1.0 
0.0 0.0 1.0 
0.0 0.0 1.0 
0.0 0.0 1.0 
0.0 0.0 1.0 
0.0 0.0 1.0 
0.0 0.0 1.0 
0.0 0.0 1.0 
0.0 0.0 1.0 
0.0 0.0 1.0 
0.0 0.0 1.0 
0.0 0.0 1.0 
0.0 0.0 1.0 
0.0 0.0 1.0 
0.0 0.0 1.0 
0.0 0.0 1.0 
0.0 0.0 1.0 
0.0 0.0 1.0 
0.0 0.0 1.0 
0.0 0.0 1.0 
0.0 0.0 1.0 
0.0 0.0 1.0 
0.0 0.0 1.0 
0.0 0.0 1.0 
0.0 0.0 1.0 
0.0 0.0 1.0 
0.0 0.0 1.0 
0.0 0.0 1.0 
0.0 0.0 1.0 
0.0 0.0 1.0 
0.0 0.0 1.0 
0.0 0.0 1.0 
0.0 0.0 1.0 
0.0 0.0 1.0 
Learning : 0.05
Momentum : 0.8999999761581421
Epoch: 100, Error: 0.023057555156761198
Epoch: 200, Error: 0.017357476297795316
Epoch: 300, Error: 0.015437453877070718
Epoch: 400, Error: 0.01472760266586651
Epoch: 500, Error: 0.013963222832692935
Epoch: 600, Error: 0.014177799231837564
Epoch: 700, Error: 0.013457227868158702
Epoch: 800, Error: 0.013211390674271874
Epoch: 900, Error: 0.013320214712843743
Epoch: 1000, Error: 0.012847807331693871
Epoch: 1100, Error: 0.012950543330885335
Epoch: 1200, Error: 0.012713963382268819
Epoch: 1300, Error: 0.012617715250761819
Epoch: 1400, Error: 0.012559214361242521
Epoch: 1500, Error: 0.012510194770943691
Epoch: 1600, Error: 0.012485598787803457
Epoch: 1700, Error: 0.012450076476659662
Epoch: 1800, Error: 0.012437061191540151
Epoch: 1900, Error: 0.012519227954276053
Epoch: 2000, Error: 0.012431026250511679
Epoch: 2100, Error: 0.012454352620373416
Epoch: 2200, Error: 0.012378132876177325
Epoch: 2300, Error: 0.012387572479656026
Epoch: 2400, Error: 0.01228453713451838
Epoch: 2500, Error: 0.012216508115917919
Epoch: 2600, Error: 0.012240618555251624
Epoch: 2700, Error: 0.012209574208812144
Epoch: 2800, Error: 0.01223038477152847
Epoch: 2900, Error: 0.012299249688988831
Epoch: 3000, Error: 0.012263131751534853
Epoch: 3100, Error: 0.012281993738409987
Epoch: 3200, Error: 0.012275941958610285
Epoch: 3300, Error: 0.01224575204990652
Epoch: 3400, Error: 0.012280119312268297
Epoch: 3500, Error: 0.011973999044821597
Epoch: 3600, Error: 0.012091235396197237
Epoch: 3700, Error: 0.011979457737994512
Epoch: 3800, Error: 0.011977266392797548
Epoch: 3900, Error: 0.012145741354490786
Epoch: 4000, Error: 0.012040918259555637
Epoch: 4100, Error: 0.012031923614129197
Epoch: 4200, Error: 0.011981111317677815
Epoch: 4300, Error: 0.012004624015908419
Epoch: 4400, Error: 0.012004143286793497
Epoch: 4500, Error: 0.012129482740671348
Epoch: 4600, Error: 0.01204661364593566
Epoch: 4700, Error: 0.012042559877689013
Epoch: 4800, Error: 0.012096083493441346
Epoch: 4900, Error: 0.012131260040386073
Epoch: 5000, Error: 0.01211289227595411
Epoch: 5100, Error: 0.012130165734768716
Epoch: 5200, Error: 0.012148608491709649
Epoch: 5300, Error: 0.012099468256003798
Epoch: 5400, Error: 0.012011331473869432
Epoch: 5500, Error: 0.011967068032181947
Epoch: 5600, Error: 0.011996850638636706
Epoch: 5700, Error: 0.011974377121298752
Epoch: 5800, Error: 0.012155841898623673
Epoch: 5900, Error: 0.0119833282182409
Epoch: 6000, Error: 0.011899354189729002
Epoch: 6100, Error: 0.01188920261687707
Epoch: 6200, Error: 0.012267621395383467
Epoch: 6300, Error: 0.01189405778256111
Epoch: 6400, Error: 0.011998739324204468
Epoch: 6500, Error: 0.011940611797665
Epoch: 6600, Error: 0.011898572111221492
Epoch: 6700, Error: 0.0118822996144336
Epoch: 6800, Error: 0.01202396812199258
Epoch: 6900, Error: 0.01198770996109764
Epoch: 7000, Error: 0.01191667301010618
Epoch: 7100, Error: 0.011901837162167911
Epoch: 7200, Error: 0.01187819088295575
Epoch: 7300, Error: 0.011888423336750588
Epoch: 7400, Error: 0.01189571473998469
Epoch: 7500, Error: 0.011888121619153856
Epoch: 7600, Error: 0.011854350733413392
Epoch: 7700, Error: 0.011883829448301199
Epoch: 7800, Error: 0.011906819914070405
Epoch: 7900, Error: 0.011912093288100348
Epoch: 8000, Error: 0.011961283848044834
Epoch: 8100, Error: 0.011907678583479873
Epoch: 8200, Error: 0.011965532444804262
Epoch: 8300, Error: 0.011970217592052997
Epoch: 8400, Error: 0.011984794829865721
Epoch: 8500, Error: 0.01194236917712394
Epoch: 8600, Error: 0.01203462006315229
Epoch: 8700, Error: 0.011969687685195058
Epoch: 8800, Error: 0.011965236736944275
Epoch: 8900, Error: 0.011943413939105422
Epoch: 9000, Error: 0.011924859019614499
Epoch: 9100, Error: 0.011848060518667368
Epoch: 9200, Error: 0.011937423847843156
Epoch: 9300, Error: 0.011928608780936885
Epoch: 9400, Error: 0.01189342287464426
Epoch: 9500, Error: 0.011918480826286547
Epoch: 9600, Error: 0.011824491950504095
Epoch: 9700, Error: 0.011818523964233229
Epoch: 9800, Error: 0.01192121127463974
Epoch: 9900, Error: 0.011916999593024911
Epoch: 10000, Error: 0.011900154800349021
Epoch: 10100, Error: 0.01254144646937961
Epoch: 10200, Error: 0.011856243243618893
Epoch: 10300, Error: 0.011858268745298533
Epoch: 10400, Error: 0.011862876152603213
Epoch: 10500, Error: 0.011884479931040233
Epoch: 10600, Error: 0.011914717077663246
Epoch: 10700, Error: 0.01187332714653718
Epoch: 10800, Error: 0.011846861074869541
Epoch: 10900, Error: 0.011826134731045688
Epoch: 11000, Error: 0.011818945975573454
Epoch: 11100, Error: 0.011818859408528603
Epoch: 11200, Error: 0.011841979166476752
Epoch: 11300, Error: 0.011816265192221355
Epoch: 11400, Error: 0.011910123661669644
Epoch: 11500, Error: 0.011841733933374822
Epoch: 11600, Error: 0.011869842253964832
Epoch: 11700, Error: 0.011822874376527329
Epoch: 11800, Error: 0.011789303892782642
Epoch: 11900, Error: 0.011761787883309588
Epoch: 12000, Error: 0.011794603396888646
Epoch: 12100, Error: 0.011759956962890956
Epoch: 12200, Error: 0.01175493127293841
Epoch: 12300, Error: 0.011765264632416597
Epoch: 12400, Error: 0.011783533287449624
Epoch: 12500, Error: 0.011701701428692885
Epoch: 12600, Error: 0.011612862354256265
Epoch: 12700, Error: 0.01156737667893064
Epoch: 12800, Error: 0.011557923273746204
Epoch: 12900, Error: 0.011644550770379245
Epoch: 13000, Error: 0.011551723566406725
Epoch: 13100, Error: 0.01172968089851169
Epoch: 13200, Error: 0.011412763724123306
Epoch: 13300, Error: 0.011388817856391615
Epoch: 13400, Error: 0.011367070071141515
Epoch: 13500, Error: 0.011496260009726698
Epoch: 13600, Error: 0.011345013181943538
Epoch: 13700, Error: 0.01122006732661571
Epoch: 13800, Error: 0.011251480510928802
Epoch: 13900, Error: 0.01125201656394472
Epoch: 14000, Error: 0.011191626111472813
Epoch: 14100, Error: 0.011155323290184814
Epoch: 14200, Error: 0.01112952997134856
Epoch: 14300, Error: 0.01112764632480611
Epoch: 14400, Error: 0.011258966190742783
Epoch: 14500, Error: 0.011103472133388047
Epoch: 14600, Error: 0.011022744177471963
Epoch: 14700, Error: 0.011003934098448706
Epoch: 14800, Error: 0.010939544523369985
Epoch: 14900, Error: 0.010905871194987055
Epoch: 15000, Error: 0.010856520204480278
Epoch: 15100, Error: 0.010819945273582226
Epoch: 15200, Error: 0.010771189948430687
Epoch: 15300, Error: 0.01076556060366217
Epoch: 15400, Error: 0.010701918006882109
Epoch: 15500, Error: 0.010766515328675797
Epoch: 15600, Error: 0.010654988002356819
Epoch: 15700, Error: 0.010554818719416409
Epoch: 15800, Error: 0.010505802367756951
Epoch: 15900, Error: 0.010531755467264316
Epoch: 16000, Error: 0.010432931741101811
Epoch: 16100, Error: 0.010439299294396506
Epoch: 16200, Error: 0.01036390205387308
Epoch: 16300, Error: 0.010257030076137786
Epoch: 16400, Error: 0.010228232969314719
Epoch: 16500, Error: 0.010134675585583529
Epoch: 16600, Error: 0.010154502190974992
Epoch: 16700, Error: 0.010042957467539214
Epoch: 16800, Error: 0.00997238279554174
Epoch: 16900, Error: 0.009907291231257385
Epoch: 17000, Error: 0.009817947906403848
Epoch: 17100, Error: 0.009871355969508798
Epoch: 17200, Error: 0.009687540886367706
Epoch: 17300, Error: 0.009602253726237566
Epoch: 17400, Error: 0.009553875717781192
Epoch: 17500, Error: 0.009467756297092978
Epoch: 17600, Error: 0.009455924243434553
Epoch: 17700, Error: 0.009324828122542246
Epoch: 17800, Error: 0.009261333175385895
Epoch: 17900, Error: 0.009206870250515338
Epoch: 18000, Error: 0.009131853512575009
Epoch: 18100, Error: 0.00911461410457645
Epoch: 18200, Error: 0.009032494710674044
Epoch: 18300, Error: 0.009036596232416753
Epoch: 18400, Error: 0.008999630480764643
Epoch: 18500, Error: 0.008942899858239749
Epoch: 18600, Error: 0.008946531771238471
Epoch: 18700, Error: 0.008951485635109885
Epoch: 18800, Error: 0.008960478406087831
Epoch: 18900, Error: 0.008895666318907041
Epoch: 19000, Error: 0.008920728254041678
Epoch: 19100, Error: 0.008933729716041443
Epoch: 19200, Error: 0.008907696720858956
Epoch: 19300, Error: 0.008942518620913683
Epoch: 19400, Error: 0.008902100037587927
Epoch: 19500, Error: 0.008883535305819663
Epoch: 19600, Error: 0.008856689168966233
Epoch: 19700, Error: 0.008823803088698668
Epoch: 19800, Error: 0.008865163448101386
Epoch: 19900, Error: 0.008828981077913462
Epoch: 20000, Error: 0.008892443172502368
Epoch: 20100, Error: 0.008821172006199897
Epoch: 20200, Error: 0.008772109065020102
Epoch: 20300, Error: 0.008713830622694018
Epoch: 20400, Error: 0.008728607151356389
Epoch: 20500, Error: 0.008697685426021298
Epoch: 20600, Error: 0.008641361667191065
Epoch: 20700, Error: 0.008723032266271266
Epoch: 20800, Error: 0.008675820157252326
Epoch: 20900, Error: 0.008674934055848182
Epoch: 21000, Error: 0.008666961549074972
Epoch: 21100, Error: 0.00874974807943717
Epoch: 21200, Error: 0.008730653866849365
Epoch: 21300, Error: 0.008674391782155106
Epoch: 21400, Error: 0.008666968672029495
Epoch: 21500, Error: 0.00861375445996935
Epoch: 21600, Error: 0.00863866982600448
Epoch: 21700, Error: 0.008621228829756382
Epoch: 21800, Error: 0.008631785516623915
Epoch: 21900, Error: 0.008569302823993041
Epoch: 22000, Error: 0.008530161039687739
Epoch: 22100, Error: 0.008555761448544327
Epoch: 22200, Error: 0.008605087352202027
Epoch: 22300, Error: 0.008642300621652851
Epoch: 22400, Error: 0.008574593467693112
Epoch: 22500, Error: 0.008513171401587114
Epoch: 22600, Error: 0.0085136669974249
Epoch: 22700, Error: 0.008642955050666925
Epoch: 22800, Error: 0.008545568398158383
Epoch: 22900, Error: 0.008492245572834777
Epoch: 23000, Error: 0.008534053041217475
Epoch: 23100, Error: 0.008499919478945323
Epoch: 23200, Error: 0.008472332566159181
Epoch: 23300, Error: 0.008535960373952748
Epoch: 23400, Error: 0.008525532194676885
Epoch: 23500, Error: 0.008423072041182799
Epoch: 23600, Error: 0.008375475630252763
Epoch: 23700, Error: 0.008382140055655218
Epoch: 23800, Error: 0.008416713846595309
Epoch: 23900, Error: 0.00837048704316694
Epoch: 24000, Error: 0.008427686703402694
Epoch: 24100, Error: 0.008325165607564623
Epoch: 24200, Error: 0.008336684704769486
Epoch: 24300, Error: 0.008245620569812229
Epoch: 24400, Error: 0.008246869963772802
Epoch: 24500, Error: 0.008218512851726123
Epoch: 24600, Error: 0.008290770748328973
Epoch: 24700, Error: 0.008250391056817987
Epoch: 24800, Error: 0.008190737844266152
Epoch: 24900, Error: 0.008157774869429073
Epoch: 25000, Error: 0.008132675607269654
Epoch: 25100, Error: 0.008167202452539496
Epoch: 25200, Error: 0.008074191729872603
Epoch: 25300, Error: 0.00808125576517481
Epoch: 25400, Error: 0.008048342751955201
Epoch: 25500, Error: 0.008040683052494467
Epoch: 25600, Error: 0.007998143022708907
Epoch: 25700, Error: 0.008018734382865987
Epoch: 25800, Error: 0.007962867390963071
Epoch: 25900, Error: 0.007966736854070474
Epoch: 26000, Error: 0.007941622383356117
Epoch: 26100, Error: 0.007974113166067545
Epoch: 26200, Error: 0.007880258381824096
Epoch: 26300, Error: 0.007956801783081854
Epoch: 26400, Error: 0.007891246469483828
Epoch: 26500, Error: 0.007917695020982423
Epoch: 26600, Error: 0.007885628293321257
Epoch: 26700, Error: 0.007904623116929589
Epoch: 26800, Error: 0.007928906358712275
Epoch: 26900, Error: 0.007874134918813069
Epoch: 27000, Error: 0.007887747283186503
Epoch: 27100, Error: 0.007939865775210976
Epoch: 27200, Error: 0.007851272392947526
Epoch: 27300, Error: 0.007871916598869936
Epoch: 27400, Error: 0.0078544467361564
Epoch: 27500, Error: 0.0078401631954965
Epoch: 27600, Error: 0.007870666154239802
Epoch: 27700, Error: 0.007824116998903624
Epoch: 27800, Error: 0.007815999179456988
Epoch: 27900, Error: 0.007812857067931818
Epoch: 28000, Error: 0.007787188950916547
Epoch: 28100, Error: 0.007817306593457828
Epoch: 28200, Error: 0.007791654548408353
Epoch: 28300, Error: 0.007793826360455485
Epoch: 28400, Error: 0.007798341101137793
Epoch: 28500, Error: 0.007758776552340228
Epoch: 28600, Error: 0.0077759347317894745
Epoch: 28700, Error: 0.0077881826866366645
Epoch: 28800, Error: 0.007739992098811644
Epoch: 28900, Error: 0.007749574079945166
Epoch: 29000, Error: 0.007736382301268959
Epoch: 29100, Error: 0.007728218324220098
Epoch: 29200, Error: 0.007732585031355044
Epoch: 29300, Error: 0.007690688191448014
Epoch: 29400, Error: 0.007719734385090034
Epoch: 29500, Error: 0.007696064513227737
Epoch: 29600, Error: 0.007672707628539427
Epoch: 29700, Error: 0.00767059562753247
Epoch: 29800, Error: 0.007737129381658292
Epoch: 29900, Error: 0.007700986014220854
Epoch: 30000, Error: 0.007672516480157239
Epoch: 30100, Error: 0.007678073844753335
Epoch: 30200, Error: 0.007638305546017295
Epoch: 30300, Error: 0.007681215448688749
Epoch: 30400, Error: 0.007644112064465908
Epoch: 30500, Error: 0.007607098451641668
Epoch: 30600, Error: 0.007585365181057853
Epoch: 30700, Error: 0.007621464957190168
Epoch: 30800, Error: 0.007608821955926784
Epoch: 30900, Error: 0.007613861346083954
Epoch: 31000, Error: 0.007566157108638973
Epoch: 31100, Error: 0.0075984259243277365
Epoch: 31200, Error: 0.007648921480470338
Epoch: 31300, Error: 0.007598879917474095
Epoch: 31400, Error: 0.007576852398749319
Epoch: 31500, Error: 0.007567609272306528
Epoch: 31600, Error: 0.007556856207007288
Epoch: 31700, Error: 0.007555503451393906
Epoch: 31800, Error: 0.007585969316471831
Epoch: 31900, Error: 0.007583510775908506
Epoch: 32000, Error: 0.0075846118042029445
Epoch: 32100, Error: 0.007569449762629506
Epoch: 32200, Error: 0.007589795961442727
Epoch: 32300, Error: 0.007639884992530464
Epoch: 32400, Error: 0.007587701926355381
Epoch: 32500, Error: 0.007657311546839133
Epoch: 32600, Error: 0.007597817076437656
Epoch: 32700, Error: 0.007574306243622659
Epoch: 32800, Error: 0.007571659405866434
Epoch: 32900, Error: 0.007625375789740786
Epoch: 33000, Error: 0.007579230376343636
Epoch: 33100, Error: 0.007606501552595401
Epoch: 33200, Error: 0.007548483752465453
Epoch: 33300, Error: 0.007575109295963438
Epoch: 33400, Error: 0.007577874800824096
Epoch: 33500, Error: 0.007539991604269549
Epoch: 33600, Error: 0.007508932861863492
Epoch: 33700, Error: 0.007497908395236975
Epoch: 33800, Error: 0.007478736428814164
Epoch: 33900, Error: 0.00742562139383256
Epoch: 34000, Error: 0.007407506488051111
Epoch: 34100, Error: 0.007393150968591417
Epoch: 34200, Error: 0.007467255253729442
Epoch: 34300, Error: 0.007388413901854517
Epoch: 34400, Error: 0.007421617287588522
Epoch: 34500, Error: 0.007443135074512924
Epoch: 34600, Error: 0.007372757608670331
Epoch: 34700, Error: 0.007362814195386917
Epoch: 34800, Error: 0.007321049034937283
Epoch: 34900, Error: 0.007349744654290371
Epoch: 35000, Error: 0.007324226948249879
Epoch: 35100, Error: 0.007312132152288435
Epoch: 35200, Error: 0.0072948520681543364
Epoch: 35300, Error: 0.007263048639185094
Epoch: 35400, Error: 0.007218810860077647
Epoch: 35500, Error: 0.007148962273896281
Epoch: 35600, Error: 0.00715853692928871
Epoch: 35700, Error: 0.007131257263517889
Epoch: 35800, Error: 0.00703946842648756
Epoch: 35900, Error: 0.0070296218528963965
Epoch: 36000, Error: 0.007028651795721446
Epoch: 36100, Error: 0.006963553364275622
Epoch: 36200, Error: 0.006944578241890634
Epoch: 36300, Error: 0.006943503261937682
Epoch: 36400, Error: 0.006921670590110731
Epoch: 36500, Error: 0.006891424873066588
Epoch: 36600, Error: 0.006876095304681542
Epoch: 36700, Error: 0.006846145071397218
Epoch: 36800, Error: 0.006839860057951969
Epoch: 36900, Error: 0.0068863530535593085
Epoch: 37000, Error: 0.00681342002572608
Epoch: 37100, Error: 0.006844165867040732
Epoch: 37200, Error: 0.0068197300464150805
Epoch: 37300, Error: 0.006771821120635821
Epoch: 37400, Error: 0.006751857260954072
Epoch: 37500, Error: 0.006748018363230928
Epoch: 37600, Error: 0.0066754968881565435
Epoch: 37700, Error: 0.006608139997963677
Epoch: 37800, Error: 0.006584869998719042
Epoch: 37900, Error: 0.00658176091564476
Epoch: 38000, Error: 0.006575587996378331
Epoch: 38100, Error: 0.00656712967697582
Epoch: 38200, Error: 0.006472701903689329
Epoch: 38300, Error: 0.0065148971842128155
Epoch: 38400, Error: 0.006459729194912134
Epoch: 38500, Error: 0.006455602218187997
Epoch: 38600, Error: 0.006416240026482006
Epoch: 38700, Error: 0.00645910960094533
Epoch: 38800, Error: 0.006394065377329691
Epoch: 38900, Error: 0.006379184058206956
Epoch: 39000, Error: 0.006360412709930971
Epoch: 39100, Error: 0.00635894666847125
Epoch: 39200, Error: 0.0063381535285184
Epoch: 39300, Error: 0.006324883051690515
Epoch: 39400, Error: 0.00634682660665041
Epoch: 39500, Error: 0.006292165934686579
Epoch: 39600, Error: 0.006330814677576961
Epoch: 39700, Error: 0.006272176788001427
Epoch: 39800, Error: 0.006271043212581056
Epoch: 39900, Error: 0.006406315143980646
Epoch: 40000, Error: 0.00623143077829598
Epoch: 40100, Error: 0.006217819285891184
Epoch: 40200, Error: 0.006233336671169099
Epoch: 40300, Error: 0.006214218665607761
Epoch: 40400, Error: 0.006265746475616521
Epoch: 40500, Error: 0.006161740886382748
Epoch: 40600, Error: 0.006160155643845867
Epoch: 40700, Error: 0.006166580742321001
Epoch: 40800, Error: 0.006164486958051783
Epoch: 40900, Error: 0.006102905465950426
Epoch: 41000, Error: 0.006139073696976605
Epoch: 41100, Error: 0.006105673550303193
Epoch: 41200, Error: 0.006094296806241881
Epoch: 41300, Error: 0.006068569031906926
Epoch: 41400, Error: 0.0060716552183541295
Epoch: 41500, Error: 0.0060865611414738134
Epoch: 41600, Error: 0.006065941710772387
Epoch: 41700, Error: 0.006148268061733891
Epoch: 41800, Error: 0.006048699942899822
Epoch: 41900, Error: 0.006030944523737225
Epoch: 42000, Error: 0.005995587690599576
Epoch: 42100, Error: 0.005994594300814919
Epoch: 42200, Error: 0.006007223344331837
Epoch: 42300, Error: 0.005980829860663171
Epoch: 42400, Error: 0.005950110245150209
Epoch: 42500, Error: 0.005960625574270377
Epoch: 42600, Error: 0.0059489024592566655
Epoch: 42700, Error: 0.005995572750175083
Epoch: 42800, Error: 0.005917511200293186
Epoch: 42900, Error: 0.005927411095102358
Epoch: 43000, Error: 0.005895861848663427
Epoch: 43100, Error: 0.005893598490678683
Epoch: 43200, Error: 0.005890232178417566
Epoch: 43300, Error: 0.005859951922794806
Epoch: 43400, Error: 0.005859765007410329
Epoch: 43500, Error: 0.005833863114954331
Epoch: 43600, Error: 0.005840484895198411
Epoch: 43700, Error: 0.005819416197235948
Epoch: 43800, Error: 0.005857465721282562
Epoch: 43900, Error: 0.005819374293594457
Epoch: 44000, Error: 0.005790639093174167
Epoch: 44100, Error: 0.005765172013612196
Epoch: 44200, Error: 0.005781020194881371
Epoch: 44300, Error: 0.0057634048392949605
Epoch: 44400, Error: 0.005749496218083052
Epoch: 44500, Error: 0.005722846875906074
Epoch: 44600, Error: 0.005704270523104803
Epoch: 44700, Error: 0.0057038449102581705
Epoch: 44800, Error: 0.005689057924074985
Epoch: 44900, Error: 0.005732486166242889
Epoch: 45000, Error: 0.005740187793953613
Epoch: 45100, Error: 0.005769493314237814
Epoch: 45200, Error: 0.005638493300354756
Epoch: 45300, Error: 0.005648324810034502
Epoch: 45400, Error: 0.005613797961015577
Epoch: 45500, Error: 0.005641605427780067
Epoch: 45600, Error: 0.0056391359443629776
Epoch: 45700, Error: 0.005690554577416182
Epoch: 45800, Error: 0.005590561623242871
Epoch: 45900, Error: 0.005585228379218667
Epoch: 46000, Error: 0.005585271368343642
Epoch: 46100, Error: 0.005551299941077376
Epoch: 46200, Error: 0.005563374722068156
Epoch: 46300, Error: 0.0055502008950143195
Epoch: 46400, Error: 0.005552121084524005
Epoch: 46500, Error: 0.005533793875333472
Epoch: 46600, Error: 0.0055170561205887285
Epoch: 46700, Error: 0.0055145336739715065
Epoch: 46800, Error: 0.005567344727825096
Epoch: 46900, Error: 0.005470165773881127
Epoch: 47000, Error: 0.005485445128704939
Epoch: 47100, Error: 0.005480684062943824
Epoch: 47200, Error: 0.005472903716990086
Epoch: 47300, Error: 0.005516386181945119
Epoch: 47400, Error: 0.005454122259711678
Epoch: 47500, Error: 0.005431955909402925
Epoch: 47600, Error: 0.005453932858999692
Epoch: 47700, Error: 0.0054218953569124964
Epoch: 47800, Error: 0.005416158231968463
Epoch: 47900, Error: 0.005422523784375502
Epoch: 48000, Error: 0.00539752477176189
Epoch: 48100, Error: 0.005387828132969675
Epoch: 48200, Error: 0.005374012889982892
Epoch: 48300, Error: 0.005392073212345693
Epoch: 48400, Error: 0.005344259523489904
Epoch: 48500, Error: 0.005341338021941916
Epoch: 48600, Error: 0.005337934845478801
Epoch: 48700, Error: 0.005331089476818783
Epoch: 48800, Error: 0.005325769585837828
Epoch: 48900, Error: 0.00532751808373481
Epoch: 49000, Error: 0.00533089810740415
Epoch: 49100, Error: 0.005290870176073535
Epoch: 49200, Error: 0.005335734270174909
Epoch: 49300, Error: 0.005270310092679463
Epoch: 49400, Error: 0.005268642869814215
Epoch: 49500, Error: 0.0052761713346873
Epoch: 49600, Error: 0.005279010878167688
Epoch: 49700, Error: 0.005265996229356321
Epoch: 49800, Error: 0.0052368886291312014
Epoch: 49900, Error: 0.005211892503909999
Epoch: 50000, Error: 0.005217138102592509
Epoch: 50100, Error: 0.0052040919804924495
Epoch: 50200, Error: 0.005190807447944133
Epoch: 50300, Error: 0.005207282559048954
Epoch: 50400, Error: 0.005173063006575615
Epoch: 50500, Error: 0.005191638790889185
Epoch: 50600, Error: 0.005158278590373102
Epoch: 50700, Error: 0.005161543152373423
Epoch: 50800, Error: 0.00514178679278739
Epoch: 50900, Error: 0.005152574545072971
Epoch: 51000, Error: 0.0052130000470552796
Epoch: 51100, Error: 0.005282933041826103
Epoch: 51200, Error: 0.005110437418055021
Epoch: 51300, Error: 0.005085300740372639
Epoch: 51400, Error: 0.00509806995617116
Epoch: 51500, Error: 0.00506386604257723
Epoch: 51600, Error: 0.005080708417861844
Epoch: 51700, Error: 0.005062665581473933
Epoch: 51800, Error: 0.0050289428583390324
Epoch: 51900, Error: 0.005073086034289362
Epoch: 52000, Error: 0.0050304034873581895
Epoch: 52100, Error: 0.0050239811927786275
Epoch: 52200, Error: 0.005013714232332595
Epoch: 52300, Error: 0.005000432931572058
Epoch: 52400, Error: 0.005004022931393557
Epoch: 52500, Error: 0.004993880924197548
Epoch: 52600, Error: 0.004971613344753199
Epoch: 52700, Error: 0.005269383109633732
Epoch: 52800, Error: 0.0051477787531954275
Epoch: 52900, Error: 0.004954304660378957
Epoch: 53000, Error: 0.0049630874452476015
Epoch: 53100, Error: 0.00493830508360545
Epoch: 53200, Error: 0.005166461326391044
Epoch: 53300, Error: 0.005172080273579386
Epoch: 53400, Error: 0.005242345868603505
Epoch: 53500, Error: 0.00517243257665764
Epoch: 53600, Error: 0.0051404716606612754
Epoch: 53700, Error: 0.005113313074548942
Epoch: 53800, Error: 0.00509513592727791
Epoch: 53900, Error: 0.005082878726087561
Epoch: 54000, Error: 0.005072993164041662
Epoch: 54100, Error: 0.005083199388475576
Epoch: 54200, Error: 0.00505746136756738
Epoch: 54300, Error: 0.005040809809293892
Epoch: 54400, Error: 0.005072738992774321
Epoch: 54500, Error: 0.0049415561456892495
Epoch: 54600, Error: 0.005065666511980041
Epoch: 54700, Error: 0.005038685832671088
Epoch: 54800, Error: 0.005001950885613517
Epoch: 54900, Error: 0.004992658328187673
Epoch: 55000, Error: 0.004982662789453704
Epoch: 55100, Error: 0.004975851373297586
Epoch: 55200, Error: 0.0049463480508913134
Epoch: 55300, Error: 0.004974365931613388
Epoch: 55400, Error: 0.004809737019092435
Epoch: 55500, Error: 0.0048300440973162535
Epoch: 55600, Error: 0.004906098112879861
Epoch: 55700, Error: 0.004876063846759273
Epoch: 55800, Error: 0.004762382225591162
Epoch: 55900, Error: 0.004768749672031771
Epoch: 56000, Error: 0.004868290237889779
Epoch: 56100, Error: 0.004742629892942192
Epoch: 56200, Error: 0.004737260805556691
Epoch: 56300, Error: 0.004720208965317616
Epoch: 56400, Error: 0.004701931790922639
Epoch: 56500, Error: 0.00481476205385593
Epoch: 56600, Error: 0.004678979472860548
Epoch: 56700, Error: 0.004665133749346392
Epoch: 56800, Error: 0.004669073753004247
Epoch: 56900, Error: 0.004693128325618959
Epoch: 57000, Error: 0.00465804782321466
Epoch: 57100, Error: 0.004636276492846132
Epoch: 57200, Error: 0.004634093237440223
Epoch: 57300, Error: 0.004699871758432893
Epoch: 57400, Error: 0.004594227002973346
Epoch: 57500, Error: 0.004571884711076482
Epoch: 57600, Error: 0.004680287542431014
Epoch: 57700, Error: 0.0045530539248524035
Epoch: 57800, Error: 0.004544561630202493
Epoch: 57900, Error: 0.004531759868158537
Epoch: 58000, Error: 0.00451081959763457
Epoch: 58100, Error: 0.004511440945923968
Epoch: 58200, Error: 0.0045451329848403815
Epoch: 58300, Error: 0.004483039381301419
Epoch: 58400, Error: 0.004489100013898965
Epoch: 58500, Error: 0.004462401191627342
Epoch: 58600, Error: 0.004456040174307588
Epoch: 58700, Error: 0.004435928082372766
Epoch: 58800, Error: 0.004430050996341101
Epoch: 58900, Error: 0.004432487029387024
Epoch: 59000, Error: 0.004416371000097007
Epoch: 59100, Error: 0.004391726982492912
Epoch: 59200, Error: 0.004392346401608394
Epoch: 59300, Error: 0.004378529072619528
Epoch: 59400, Error: 0.004363299531741582
Epoch: 59500, Error: 0.00436170005786626
Epoch: 59600, Error: 0.004350754446742777
Epoch: 59700, Error: 0.004340126631624919
Epoch: 59800, Error: 0.0043283166458353
Epoch: 59900, Error: 0.004311195935265344
Epoch: 60000, Error: 0.00430796322558736
Epoch: 60100, Error: 0.0042955030580666366
Epoch: 60200, Error: 0.004273496272947595
Epoch: 60300, Error: 0.004271997224771578
Epoch: 60400, Error: 0.004217178535768388
Epoch: 60500, Error: 0.004214482497343018
Epoch: 60600, Error: 0.004201764021496891
Epoch: 60700, Error: 0.0041875422376237426
Epoch: 60800, Error: 0.0041943269121090315
Epoch: 60900, Error: 0.004177450222391746
Epoch: 61000, Error: 0.004153521943812404
Epoch: 61100, Error: 0.004168196878900682
Epoch: 61200, Error: 0.0041495469868422855
Epoch: 61300, Error: 0.0042542341830626145
Epoch: 61400, Error: 0.004110713644052375
Epoch: 61500, Error: 0.004087546696527274
Epoch: 61600, Error: 0.004140640547943724
Epoch: 61700, Error: 0.00403942759832596
Epoch: 61800, Error: 0.004030634349113113
Epoch: 61900, Error: 0.004019997779983648
Epoch: 62000, Error: 0.004039900803888953
Epoch: 62100, Error: 0.003991660093259311
Epoch: 62200, Error: 0.003983870182516336
Epoch: 62300, Error: 0.003959860880870325
Epoch: 62400, Error: 0.003937930827974284
Epoch: 62500, Error: 0.003909213483413627
Epoch: 62600, Error: 0.004025372799168363
Epoch: 62700, Error: 0.004024485069053394
Epoch: 62800, Error: 0.0038625006628456577
Epoch: 62900, Error: 0.0038850085594607005
Epoch: 63000, Error: 0.003935687049865566
Epoch: 63100, Error: 0.0037921803272754607
Epoch: 63200, Error: 0.003834402128323626
Epoch: 63300, Error: 0.0037966695569304834
Epoch: 63400, Error: 0.0038695935083761126
Epoch: 63500, Error: 0.0038458314843195446
Epoch: 63600, Error: 0.00381118720994279
Epoch: 63700, Error: 0.0037937961690213094
Epoch: 63800, Error: 0.003801045738685604
Epoch: 63900, Error: 0.0036159800256506283
Epoch: 64000, Error: 0.0037352204064203223
Epoch: 64100, Error: 0.0037591422377096324
Epoch: 64200, Error: 0.0036684290693420637
Epoch: 64300, Error: 0.0038442879409958633
Epoch: 64400, Error: 0.0035020346671286273
Epoch: 64500, Error: 0.0036177521730883762
Epoch: 64600, Error: 0.0035745265455101078
Epoch: 64700, Error: 0.0036122906351321008
Epoch: 64800, Error: 0.003533122934426798
Epoch: 64900, Error: 0.003543358756910752
Epoch: 65000, Error: 0.00348797478835688
Epoch: 65100, Error: 0.0035729282081921705
Epoch: 65200, Error: 0.0034518505366726415
Epoch: 65300, Error: 0.0034882123081179254
Epoch: 65400, Error: 0.003450307464003913
Epoch: 65500, Error: 0.003384544179012143
Epoch: 65600, Error: 0.0033511700636013678
Epoch: 65700, Error: 0.0033424210988156357
Epoch: 65800, Error: 0.003338228104751276
Epoch: 65900, Error: 0.0033155958521926972
Epoch: 66000, Error: 0.0032784578910586178
Epoch: 66100, Error: 0.0032514906826788116
Epoch: 66200, Error: 0.0033118277410755658
Epoch: 66300, Error: 0.003261315460314209
Epoch: 66400, Error: 0.003205722715965831
Epoch: 66500, Error: 0.0031721572713007866
Epoch: 66600, Error: 0.0031960284252720633
Epoch: 66700, Error: 0.003126132106395932
Epoch: 66800, Error: 0.0031174573750429404
Epoch: 66900, Error: 0.0030794563325672528
Epoch: 67000, Error: 0.00303995250909681
Epoch: 67100, Error: 0.0030344679555508467
Epoch: 67200, Error: 0.00311198626645077
Epoch: 67300, Error: 0.003079584927914529
Epoch: 67400, Error: 0.0030049314658621607
Epoch: 67500, Error: 0.002944856080684045
Epoch: 67600, Error: 0.0029512619385443683
Epoch: 67700, Error: 0.003017293434277358
Epoch: 67800, Error: 0.00288042199422274
Epoch: 67900, Error: 0.0028879377521965257
Epoch: 68000, Error: 0.002892108668614861
Epoch: 68100, Error: 0.0028567866639655683
Epoch: 68200, Error: 0.0028399343635568154
Epoch: 68300, Error: 0.0028127035639177816
Epoch: 68400, Error: 0.002757578617041669
Epoch: 68500, Error: 0.0027754310432215722
Epoch: 68600, Error: 0.002747734956591594
Epoch: 68700, Error: 0.0027092832004567166
Epoch: 68800, Error: 0.002720053519269784
Epoch: 68900, Error: 0.0026749121674073647
Epoch: 69000, Error: 0.002683056896305129
Epoch: 69100, Error: 0.0026942414627618215
Epoch: 69200, Error: 0.002747305657620397
Epoch: 69300, Error: 0.00266454500773904
Epoch: 69400, Error: 0.002662320266339465
Epoch: 69500, Error: 0.002601162726872363
Epoch: 69600, Error: 0.0026192311394216167
Epoch: 69700, Error: 0.002581490919359893
Epoch: 69800, Error: 0.0026205975620628343
Epoch: 69900, Error: 0.002558693634320234
Epoch: 70000, Error: 0.002500688436070545
Epoch: 70100, Error: 0.0024787220519883633
Epoch: 70200, Error: 0.00244990591247599
Epoch: 70300, Error: 0.0024357810184301924
Epoch: 70400, Error: 0.002464088275867666
Epoch: 70500, Error: 0.0023873466295594925
Epoch: 70600, Error: 0.0023670230469498652
Epoch: 70700, Error: 0.0024647935989094167
Epoch: 70800, Error: 0.0023497302783158465
Epoch: 70900, Error: 0.002325229468846243
Epoch: 71000, Error: 0.002327270754495301
Epoch: 71100, Error: 0.002283310566008105
Epoch: 71200, Error: 0.002264391953175582
Epoch: 71300, Error: 0.0022650213841183086
Epoch: 71400, Error: 0.0022853528987135316
Epoch: 71500, Error: 0.002227535969425515
Epoch: 71600, Error: 0.0022070745821509787
Epoch: 71700, Error: 0.002208324194579815
Epoch: 71800, Error: 0.002179041606176548
Epoch: 71900, Error: 0.0022388526241922625
Epoch: 72000, Error: 0.002180717837533274
Epoch: 72100, Error: 0.002149590136505961
Epoch: 72200, Error: 0.002331512874207741
Epoch: 72300, Error: 0.002122110221037775
Epoch: 72400, Error: 0.002123677530393734
Epoch: 72500, Error: 0.002103808496577011
Epoch: 72600, Error: 0.002108892380914375
Epoch: 72700, Error: 0.0020542768732074172
Epoch: 72800, Error: 0.0020823346119334665
Epoch: 72900, Error: 0.0020200253265603876
Epoch: 73000, Error: 0.0020339567930159745
Epoch: 73100, Error: 0.002046936303292116
Epoch: 73200, Error: 0.0020427863875052362
Epoch: 73300, Error: 0.0019795998491089215
Epoch: 73400, Error: 0.0019623434210835123
Epoch: 73500, Error: 0.0019723232446789184
Epoch: 73600, Error: 0.0019408956071358383
Epoch: 73700, Error: 0.001925557053919583
Epoch: 73800, Error: 0.0019171387503480184
Epoch: 73900, Error: 0.001950692390112375
Epoch: 74000, Error: 0.0019035854507023994
Epoch: 74100, Error: 0.001868095133671018
Epoch: 74200, Error: 0.0018649049722248457
Epoch: 74300, Error: 0.0018525427863563925
Epoch: 74400, Error: 0.0021012603979968783
Epoch: 74500, Error: 0.0020532550015936435
Epoch: 74600, Error: 0.0018013073586407322
Epoch: 74700, Error: 0.0017942604260952023
Epoch: 74800, Error: 0.0018163284543998815
Epoch: 74900, Error: 0.0018246718015581516
Epoch: 75000, Error: 0.0017922104440931345
Epoch: 75100, Error: 0.001765664066477907
Epoch: 75200, Error: 0.001806023515171268
Epoch: 75300, Error: 0.002047004271193581
Epoch: 75400, Error: 0.0017170015954546302
Epoch: 75500, Error: 0.0016995165687197018
Epoch: 75600, Error: 0.001692453873698478
Epoch: 75700, Error: 0.0017165268241257133
Epoch: 75800, Error: 0.0017223707622509106
Epoch: 75900, Error: 0.0017088492208523877
Epoch: 76000, Error: 0.0017019495105833745
Epoch: 76100, Error: 0.0016538463676091441
Epoch: 76200, Error: 0.0016317201060923223
Epoch: 76300, Error: 0.0016314116884052065
Epoch: 76400, Error: 0.0016375215933896745
Epoch: 76500, Error: 0.0016481400719530418
Epoch: 76600, Error: 0.0015984933015529685
Epoch: 76700, Error: 0.0015916375181821171
Epoch: 76800, Error: 0.0015677001215713261
Epoch: 76900, Error: 0.0015566889986291126
Epoch: 77000, Error: 0.0016169153403621614
Epoch: 77100, Error: 0.0015363451060516383
Epoch: 77200, Error: 0.001557298493015033
Epoch: 77300, Error: 0.0015155493045496543
Epoch: 77400, Error: 0.0015704978896468689
Epoch: 77500, Error: 0.0015057140096016138
Epoch: 77600, Error: 0.0014969409410532533
Epoch: 77700, Error: 0.0014857103012497295
Epoch: 77800, Error: 0.00147523473433644
Epoch: 77900, Error: 0.0015070283237490034
Epoch: 78000, Error: 0.0014770127872238447
Epoch: 78100, Error: 0.0014839757854323552
Epoch: 78200, Error: 0.0014917234974706514
Epoch: 78300, Error: 0.0014345026213342423
Epoch: 78400, Error: 0.001547343921952142
Epoch: 78500, Error: 0.001477294473802805
Epoch: 78600, Error: 0.0014329966636425265
Epoch: 78700, Error: 0.0014112891065267673
Epoch: 78800, Error: 0.0013965741527718057
Epoch: 78900, Error: 0.0014252670365277858
Epoch: 79000, Error: 0.0014157834441028431
Epoch: 79100, Error: 0.0013835449688925437
Epoch: 79200, Error: 0.0013828982912173942
Epoch: 79300, Error: 0.0014124186359895043
Epoch: 79400, Error: 0.0013620729303694319
Epoch: 79500, Error: 0.0013602335089925696
Epoch: 79600, Error: 0.0013811486456799934
Epoch: 79700, Error: 0.0013467745685619742
Epoch: 79800, Error: 0.001386061642740906
Epoch: 79900, Error: 0.001371238853287648
Epoch: 80000, Error: 0.001352387449033882
Epoch: 80100, Error: 0.0013669454857681887
Epoch: 80200, Error: 0.0013502453732303396
Epoch: 80300, Error: 0.0013791526030576446
Epoch: 80400, Error: 0.0013701012175510218
Epoch: 80500, Error: 0.001338931766788221
Epoch: 80600, Error: 0.0013355882281836486
Epoch: 80700, Error: 0.0013311854997828778
Epoch: 80800, Error: 0.0013382673012260838
Epoch: 80900, Error: 0.0013278005687240662
Epoch: 81000, Error: 0.0014229605233021267
Epoch: 81100, Error: 0.0013123141045914507
Epoch: 81200, Error: 0.001324414891361855
Epoch: 81300, Error: 0.00131622993623261
Epoch: 81400, Error: 0.0013083985307698537
Epoch: 81500, Error: 0.0012996627419310707
Epoch: 81600, Error: 0.0013360984040388475
Epoch: 81700, Error: 0.001282889423496769
Epoch: 81800, Error: 0.0012784728462390854
Epoch: 81900, Error: 0.001295558266350596
Epoch: 82000, Error: 0.0012923279854894505
Epoch: 82100, Error: 0.0012652259095503606
Epoch: 82200, Error: 0.0012518627717518149
Epoch: 82300, Error: 0.0012509136774723159
Epoch: 82400, Error: 0.001235426071679607
Epoch: 82500, Error: 0.0012925472043037345
Epoch: 82600, Error: 0.001228086229004803
Finished
Input Patterns
0.224 0.624 0.067 0.043 
0.11 0.502 0.051 0.043 
0.196 0.667 0.067 0.043 
0.055 0.584 0.067 0.082 
0.027 0.376 0.067 0.043 
0.306 0.71 0.086 0.043 
0.137 0.416 0.067 0.0 
0.416 0.831 0.035 0.043 
0.306 0.792 0.051 0.125 
0.388 0.749 0.118 0.082 
0.306 0.584 0.118 0.043 
0.082 0.667 0.0 0.043 
0.137 0.584 0.153 0.043 
0.196 0.584 0.102 0.125 
0.251 0.584 0.067 0.043 
0.137 0.459 0.102 0.043 
0.251 0.875 0.086 0.0 
0.165 0.459 0.086 0.043 
0.333 0.624 0.051 0.043 
0.027 0.416 0.051 0.043 
0.196 0.624 0.051 0.082 
0.027 0.502 0.051 0.043 
0.224 0.749 0.153 0.125 
0.224 0.749 0.102 0.043 
0.278 0.71 0.086 0.043 
0.165 0.416 0.067 0.043 
0.082 0.459 0.086 0.043 
0.306 0.792 0.118 0.125 
0.196 0.584 0.086 0.043 
0.165 0.459 0.086 0.0 
0.137 0.584 0.102 0.043 
0.0 0.416 0.016 0.0 
0.388 1.0 0.086 0.125 
0.224 0.624 0.067 0.082 
0.224 0.749 0.086 0.082 
0.224 0.71 0.086 0.125 
0.224 0.541 0.118 0.165 
0.196 0.416 0.102 0.043 
0.251 0.624 0.086 0.043 
0.11 0.502 0.102 0.043 
0.306 0.584 0.086 0.125 
0.333 0.918 0.067 0.043 
0.196 0.502 0.035 0.043 
0.165 0.667 0.067 0.0 
0.224 0.584 0.086 0.043 
0.055 0.125 0.051 0.082 
0.196 0.624 0.102 0.208 
0.137 0.416 0.067 0.082 
0.082 0.502 0.067 0.043 
0.196 0.541 0.067 0.043 
0.749 0.502 0.627 0.541 
0.722 0.459 0.663 0.584 
0.612 0.333 0.612 0.584 
0.557 0.541 0.627 0.624 
0.639 0.376 0.612 0.498 
0.196 0.0 0.424 0.376 
0.471 0.082 0.51 0.376 
0.361 0.376 0.439 0.498 
0.361 0.416 0.592 0.584 
0.529 0.082 0.592 0.584 
0.443 0.502 0.643 0.459 
0.557 0.208 0.663 0.584 
0.584 0.376 0.561 0.498 
0.694 0.333 0.643 0.541 
0.471 0.376 0.592 0.584 
0.333 0.169 0.475 0.416 
0.416 0.29 0.49 0.459 
0.306 0.416 0.592 0.584 
0.667 0.459 0.627 0.584 
0.361 0.416 0.525 0.498 
0.333 0.251 0.576 0.459 
0.416 0.251 0.51 0.459 
0.361 0.29 0.541 0.498 
0.388 0.376 0.541 0.498 
0.224 0.208 0.337 0.416 
0.584 0.502 0.592 0.584 
0.333 0.125 0.51 0.498 
0.388 0.333 0.592 0.498 
0.165 0.169 0.388 0.376 
0.251 0.29 0.49 0.541 
0.443 0.416 0.541 0.584 
0.498 0.376 0.627 0.541 
0.667 0.459 0.576 0.541 
0.416 0.29 0.525 0.376 
0.361 0.208 0.49 0.416 
0.498 0.333 0.51 0.498 
0.498 0.333 0.627 0.459 
0.639 0.416 0.576 0.541 
0.667 0.416 0.678 0.667 
0.388 0.251 0.424 0.376 
0.333 0.169 0.459 0.376 
0.471 0.29 0.694 0.624 
0.471 0.584 0.592 0.624 
0.557 0.125 0.576 0.498 
0.333 0.208 0.51 0.498 
0.498 0.416 0.612 0.541 
0.196 0.125 0.388 0.376 
0.388 0.416 0.541 0.459 
0.529 0.376 0.561 0.498 
0.388 0.333 0.525 0.498 
0.557 0.541 0.847 1.0 
0.776 0.416 0.831 0.831 
0.612 0.416 0.812 0.875 
0.165 0.208 0.592 0.667 
0.667 0.208 0.812 0.71 
0.612 0.502 0.694 0.792 
0.694 0.416 0.761 0.831 
0.416 0.333 0.694 0.957 
0.612 0.416 0.761 0.71 
0.945 0.251 1.0 0.918 
0.722 0.502 0.796 0.918 
0.945 0.333 0.965 0.792 
0.667 0.541 0.796 0.831 
0.529 0.333 0.643 0.71 
0.584 0.333 0.78 0.831 
0.863 0.333 0.863 0.749 
0.584 0.333 0.78 0.875 
0.498 0.251 0.78 0.541 
0.557 0.584 0.78 0.957 
0.471 0.416 0.643 0.71 
0.667 0.459 0.78 0.957 
0.416 0.29 0.694 0.749 
0.667 0.541 0.796 1.0 
0.557 0.208 0.678 0.749 
0.529 0.584 0.745 0.918 
0.416 0.29 0.694 0.749 
0.557 0.376 0.78 0.71 
0.918 0.416 0.949 0.831 
0.835 0.376 0.898 0.71 
0.804 0.667 0.863 1.0 
0.584 0.29 0.729 0.749 
0.388 0.208 0.678 0.792 
0.584 0.502 0.729 0.918 
0.945 0.749 0.965 0.875 
0.471 0.082 0.678 0.584 
0.361 0.333 0.663 0.792 
0.557 0.29 0.663 0.71 
0.804 0.502 0.847 0.71 
0.498 0.416 0.51 0.71 
0.804 0.416 0.812 0.624 
1.0 0.749 0.914 0.792 
0.557 0.333 0.694 0.584 
0.945 0.416 0.863 0.918 
0.584 0.459 0.761 0.71 
0.722 0.459 0.745 0.831 
0.722 0.459 0.694 0.918 
0.694 0.502 0.831 0.918 
0.667 0.416 0.714 0.918 
0.612 0.416 0.714 0.792 
0.443 0.416 0.694 0.71 
Teaching Patterns
1.0 0.0 0.0 
1.0 0.0 0.0 
1.0 0.0 0.0 
1.0 0.0 0.0 
1.0 0.0 0.0 
1.0 0.0 0.0 
1.0 0.0 0.0 
1.0 0.0 0.0 
1.0 0.0 0.0 
1.0 0.0 0.0 
1.0 0.0 0.0 
1.0 0.0 0.0 
1.0 0.0 0.0 
1.0 0.0 0.0 
1.0 0.0 0.0 
1.0 0.0 0.0 
1.0 0.0 0.0 
1.0 0.0 0.0 
1.0 0.0 0.0 
1.0 0.0 0.0 
1.0 0.0 0.0 
1.0 0.0 0.0 
1.0 0.0 0.0 
1.0 0.0 0.0 
1.0 0.0 0.0 
1.0 0.0 0.0 
1.0 0.0 0.0 
1.0 0.0 0.0 
1.0 0.0 0.0 
1.0 0.0 0.0 
1.0 0.0 0.0 
1.0 0.0 0.0 
1.0 0.0 0.0 
1.0 0.0 0.0 
1.0 0.0 0.0 
1.0 0.0 0.0 
1.0 0.0 0.0 
1.0 0.0 0.0 
1.0 0.0 0.0 
1.0 0.0 0.0 
1.0 0.0 0.0 
1.0 0.0 0.0 
1.0 0.0 0.0 
1.0 0.0 0.0 
1.0 0.0 0.0 
1.0 0.0 0.0 
1.0 0.0 0.0 
1.0 0.0 0.0 
1.0 0.0 0.0 
1.0 0.0 0.0 
0.0 1.0 0.0 
0.0 1.0 0.0 
0.0 1.0 0.0 
0.0 1.0 0.0 
0.0 1.0 0.0 
0.0 1.0 0.0 
0.0 1.0 0.0 
0.0 1.0 0.0 
0.0 1.0 0.0 
0.0 1.0 0.0 
0.0 1.0 0.0 
0.0 1.0 0.0 
0.0 1.0 0.0 
0.0 1.0 0.0 
0.0 1.0 0.0 
0.0 1.0 0.0 
0.0 1.0 0.0 
0.0 1.0 0.0 
0.0 1.0 0.0 
0.0 1.0 0.0 
0.0 1.0 0.0 
0.0 1.0 0.0 
0.0 1.0 0.0 
0.0 1.0 0.0 
0.0 1.0 0.0 
0.0 1.0 0.0 
0.0 1.0 0.0 
0.0 1.0 0.0 
0.0 1.0 0.0 
0.0 1.0 0.0 
0.0 1.0 0.0 
0.0 1.0 0.0 
0.0 1.0 0.0 
0.0 1.0 0.0 
0.0 1.0 0.0 
0.0 1.0 0.0 
0.0 1.0 0.0 
0.0 1.0 0.0 
0.0 1.0 0.0 
0.0 1.0 0.0 
0.0 1.0 0.0 
0.0 1.0 0.0 
0.0 1.0 0.0 
0.0 1.0 0.0 
0.0 1.0 0.0 
0.0 1.0 0.0 
0.0 1.0 0.0 
0.0 1.0 0.0 
0.0 1.0 0.0 
0.0 1.0 0.0 
0.0 0.0 1.0 
0.0 0.0 1.0 
0.0 0.0 1.0 
0.0 0.0 1.0 
0.0 0.0 1.0 
0.0 0.0 1.0 
0.0 0.0 1.0 
0.0 0.0 1.0 
0.0 0.0 1.0 
0.0 0.0 1.0 
0.0 0.0 1.0 
0.0 0.0 1.0 
0.0 0.0 1.0 
0.0 0.0 1.0 
0.0 0.0 1.0 
0.0 0.0 1.0 
0.0 0.0 1.0 
0.0 0.0 1.0 
0.0 0.0 1.0 
0.0 0.0 1.0 
0.0 0.0 1.0 
0.0 0.0 1.0 
0.0 0.0 1.0 
0.0 0.0 1.0 
0.0 0.0 1.0 
0.0 0.0 1.0 
0.0 0.0 1.0 
0.0 0.0 1.0 
0.0 0.0 1.0 
0.0 0.0 1.0 
0.0 0.0 1.0 
0.0 0.0 1.0 
0.0 0.0 1.0 
0.0 0.0 1.0 
0.0 0.0 1.0 
0.0 0.0 1.0 
0.0 0.0 1.0 
0.0 0.0 1.0 
0.0 0.0 1.0 
0.0 0.0 1.0 
0.0 0.0 1.0 
0.0 0.0 1.0 
0.0 0.0 1.0 
0.0 0.0 1.0 
0.0 0.0 1.0 
0.0 0.0 1.0 
0.0 0.0 1.0 
0.0 0.0 1.0 
0.0 0.0 1.0 
0.0 0.0 1.0 
Learning : 0.05
Momentum : 0.8999999761581421
Epoch: 100, Error: 0.02417524872612103
Epoch: 200, Error: 0.018390719619328973
Epoch: 300, Error: 0.015996783533934605
Epoch: 400, Error: 0.015324772639709083
Epoch: 500, Error: 0.014254070763886476
Epoch: 600, Error: 0.013905606501273227
Epoch: 700, Error: 0.013569147047727582
Epoch: 800, Error: 0.013435397985313102
Epoch: 900, Error: 0.013232446435916418
Epoch: 1000, Error: 0.013060997255944546
Epoch: 1100, Error: 0.013023346731441801
Epoch: 1200, Error: 0.012844218233781568
Epoch: 1300, Error: 0.012808804614827992
Epoch: 1400, Error: 0.012642281624845928
Epoch: 1500, Error: 0.012644427744444737
Epoch: 1600, Error: 0.012718133174024971
Epoch: 1700, Error: 0.012440992569653553
Epoch: 1800, Error: 0.01241859373044156
Epoch: 1900, Error: 0.01242268859397154
Epoch: 2000, Error: 0.012334933435869387
Epoch: 2100, Error: 0.012373607255372211
Epoch: 2200, Error: 0.012365836189661547
Epoch: 2300, Error: 0.012386772077967071
Epoch: 2400, Error: 0.012281689865636523
Epoch: 2500, Error: 0.012261721551374307
Epoch: 2600, Error: 0.01226917203499705
Epoch: 2700, Error: 0.01227741353821712
Epoch: 2800, Error: 0.012247247665756677
Epoch: 2900, Error: 0.012198084876601761
Epoch: 3000, Error: 0.012183621766877333
Epoch: 3100, Error: 0.012158182822897674
Epoch: 3200, Error: 0.012162300678122812
Epoch: 3300, Error: 0.012112019637853329
Epoch: 3400, Error: 0.012086896542534888
Epoch: 3500, Error: 0.012127395730861901
Epoch: 3600, Error: 0.012064478791160826
Epoch: 3700, Error: 0.012028025845098366
Epoch: 3800, Error: 0.012036409706333663
Epoch: 3900, Error: 0.012030257997864668
Epoch: 4000, Error: 0.012029906686144374
Epoch: 4100, Error: 0.012041510408942952
Epoch: 4200, Error: 0.012011354101112088
Epoch: 4300, Error: 0.012017886394456685
Epoch: 4400, Error: 0.012014115897486927
Epoch: 4500, Error: 0.012033971899960935
Epoch: 4600, Error: 0.011999888319456156
Epoch: 4700, Error: 0.011994956837415648
Epoch: 4800, Error: 0.012160105447128235
Epoch: 4900, Error: 0.011955620303795496
Epoch: 5000, Error: 0.011970614866681908
Epoch: 5100, Error: 0.011932691185853498
Epoch: 5200, Error: 0.011965747905096354
Epoch: 5300, Error: 0.011929163241206391
Epoch: 5400, Error: 0.011922250781770281
Epoch: 5500, Error: 0.011916474992914268
Epoch: 5600, Error: 0.011991284657933463
Epoch: 5700, Error: 0.011892505736686824
Epoch: 5800, Error: 0.012017840239777007
Epoch: 5900, Error: 0.011877630180069107
Epoch: 6000, Error: 0.012016225681715497
Epoch: 6100, Error: 0.011862494676591976
Epoch: 6200, Error: 0.011987713985015344
Epoch: 6300, Error: 0.01187897520692089
Epoch: 6400, Error: 0.011855604234665843
Epoch: 6500, Error: 0.011872747743391006
Epoch: 6600, Error: 0.011827511401002447
Epoch: 6700, Error: 0.011808946358468781
Epoch: 6800, Error: 0.0118852809289899
Epoch: 6900, Error: 0.01191537408658468
Epoch: 7000, Error: 0.011786991647910796
Epoch: 7100, Error: 0.011817104134706725
Epoch: 7200, Error: 0.011784241121387101
Epoch: 7300, Error: 0.011829309867556592
Epoch: 7400, Error: 0.011794880836985515
Epoch: 7500, Error: 0.011757455816974767
Epoch: 7600, Error: 0.011731849234176146
Epoch: 7700, Error: 0.011756409272141118
Epoch: 7800, Error: 0.01170170026510644
Epoch: 7900, Error: 0.011781065096600606
Epoch: 8000, Error: 0.011688750271373909
Epoch: 8100, Error: 0.011671361151799571
Epoch: 8200, Error: 0.011812318612623253
Epoch: 8300, Error: 0.011668134969925468
Epoch: 8400, Error: 0.01168294832404061
Epoch: 8500, Error: 0.011704525968869674
Epoch: 8600, Error: 0.011636094025376045
Epoch: 8700, Error: 0.0118365859724471
Epoch: 8800, Error: 0.011594039670857339
Epoch: 8900, Error: 0.011594475193671728
Epoch: 9000, Error: 0.011549891750557428
Epoch: 9100, Error: 0.011531960563752112
Epoch: 9200, Error: 0.011526237103294564
Epoch: 9300, Error: 0.01148227670996762
Epoch: 9400, Error: 0.011454880779870197
Epoch: 9500, Error: 0.011417747946041551
Epoch: 9600, Error: 0.011499173752795433
Epoch: 9700, Error: 0.011381818614722974
Epoch: 9800, Error: 0.011364222331810283
Epoch: 9900, Error: 0.011310188059565978
Epoch: 10000, Error: 0.011342747677509805
Epoch: 10100, Error: 0.011274062655120766
Epoch: 10200, Error: 0.011232409884671744
Epoch: 10300, Error: 0.011178228324055897
Epoch: 10400, Error: 0.011166895579745095
Epoch: 10500, Error: 0.011109883956467207
Epoch: 10600, Error: 0.011125902406763585
Epoch: 10700, Error: 0.010997286605241045
Epoch: 10800, Error: 0.01095568825990748
Epoch: 10900, Error: 0.010886906705099009
Epoch: 11000, Error: 0.010807013486127755
Epoch: 11100, Error: 0.010789279876128863
Epoch: 11200, Error: 0.010698297724263027
Epoch: 11300, Error: 0.010649811049138772
Epoch: 11400, Error: 0.010643625796723533
Epoch: 11500, Error: 0.010568702644016794
Epoch: 11600, Error: 0.010506407266877045
Epoch: 11700, Error: 0.010534230466052496
Epoch: 11800, Error: 0.010480800984253654
Epoch: 11900, Error: 0.010315452538493034
Epoch: 12000, Error: 0.010271868405412932
Epoch: 12100, Error: 0.010344992833723962
Epoch: 12200, Error: 0.010208639517129307
Epoch: 12300, Error: 0.010122316897343098
Epoch: 12400, Error: 0.010007713542634059
Epoch: 12500, Error: 0.010039132011226462
Epoch: 12600, Error: 0.009918404216500426
Epoch: 12700, Error: 0.00980896683876525
Epoch: 12800, Error: 0.009755603376544266
Epoch: 12900, Error: 0.009687223532795485
Epoch: 13000, Error: 0.009627224153915778
Epoch: 13100, Error: 0.009504357227317064
Epoch: 13200, Error: 0.00945067102597681
Epoch: 13300, Error: 0.009384902018288427
Epoch: 13400, Error: 0.009269181454729544
Epoch: 13500, Error: 0.009185049924263035
Epoch: 13600, Error: 0.00911534959109094
Epoch: 13700, Error: 0.009004279653128881
Epoch: 13800, Error: 0.00891480146820621
Epoch: 13900, Error: 0.00896540179432682
Epoch: 14000, Error: 0.008748005670072716
Epoch: 14100, Error: 0.008743675220058747
Epoch: 14200, Error: 0.008574406759725407
Epoch: 14300, Error: 0.008500680526392516
Epoch: 14400, Error: 0.008417733438956266
Epoch: 14500, Error: 0.008343901774601767
Epoch: 14600, Error: 0.008285841248395197
Epoch: 14700, Error: 0.00818587738987407
Epoch: 14800, Error: 0.008171901171981464
Epoch: 14900, Error: 0.008089864554377862
Epoch: 15000, Error: 0.00803300608514684
Epoch: 15100, Error: 0.00794106363316376
Epoch: 15200, Error: 0.007915119217101488
Epoch: 15300, Error: 0.007771326326634281
Epoch: 15400, Error: 0.007684843927077479
Epoch: 15500, Error: 0.007604329238429906
Epoch: 15600, Error: 0.0075553344743650285
Epoch: 15700, Error: 0.007470421661763272
Epoch: 15800, Error: 0.00739739280725753
Epoch: 15900, Error: 0.007334760088489385
Epoch: 16000, Error: 0.007272887858632938
Epoch: 16100, Error: 0.007221596219205495
Epoch: 16200, Error: 0.007140001996623344
Epoch: 16300, Error: 0.007081138781027444
Epoch: 16400, Error: 0.007020687729682565
Epoch: 16500, Error: 0.006972540564206113
Epoch: 16600, Error: 0.006900198972278044
Epoch: 16700, Error: 0.006849135473488295
Epoch: 16800, Error: 0.006812133159530258
Epoch: 16900, Error: 0.006741238294378362
Epoch: 17000, Error: 0.006723603681466941
Epoch: 17100, Error: 0.006653140719217058
Epoch: 17200, Error: 0.0066027316200404475
Epoch: 17300, Error: 0.006572888020726896
Epoch: 17400, Error: 0.006516421313740006
Epoch: 17500, Error: 0.006483424895014263
Epoch: 17600, Error: 0.006481714179791194
Epoch: 17700, Error: 0.006380891471029997
Epoch: 17800, Error: 0.006357148111870925
Epoch: 17900, Error: 0.006326145585368391
Epoch: 18000, Error: 0.006363489091107939
Epoch: 18100, Error: 0.0062894157544783535
Epoch: 18200, Error: 0.006321445811949447
Epoch: 18300, Error: 0.006291751136296328
Epoch: 18400, Error: 0.006261859578837994
Epoch: 18500, Error: 0.006233403836090578
Epoch: 18600, Error: 0.006223048351933506
Epoch: 18700, Error: 0.0061753599274816376
Epoch: 18800, Error: 0.006150391243206621
Epoch: 18900, Error: 0.006082570056048761
Epoch: 19000, Error: 0.006095759817657463
Epoch: 19100, Error: 0.006035181158518541
Epoch: 19200, Error: 0.0060460558250239275
Epoch: 19300, Error: 0.005974304732016002
Epoch: 19400, Error: 0.005946776462415444
Epoch: 19500, Error: 0.005971695693602591
Epoch: 19600, Error: 0.00595022027969048
Epoch: 19700, Error: 0.0058984354161672106
Epoch: 19800, Error: 0.0059141067329274094
Epoch: 19900, Error: 0.005893588256400507
Epoch: 20000, Error: 0.005864561713850749
Epoch: 20100, Error: 0.005811255097406912
Epoch: 20200, Error: 0.005850266652973962
Epoch: 20300, Error: 0.005817256155661076
Epoch: 20400, Error: 0.005813272023335793
Epoch: 20500, Error: 0.005855323459582347
Epoch: 20600, Error: 0.005768716083060551
Epoch: 20700, Error: 0.005753975581957435
Epoch: 20800, Error: 0.005753203088534939
Epoch: 20900, Error: 0.005739673477781559
Epoch: 21000, Error: 0.005721520924254114
Epoch: 21100, Error: 0.005675036110187625
Epoch: 21200, Error: 0.00567405730028173
Epoch: 21300, Error: 0.005668696225279656
Epoch: 21400, Error: 0.0056883968380492715
Epoch: 21500, Error: 0.005682100382379701
Epoch: 21600, Error: 0.005696123904965116
Epoch: 21700, Error: 0.005667715066163991
Epoch: 21800, Error: 0.005673684750959592
Epoch: 21900, Error: 0.005696523329542068
Epoch: 22000, Error: 0.005687449451789341
Epoch: 22100, Error: 0.0057214705812489225
Epoch: 22200, Error: 0.005678619712283984
Epoch: 22300, Error: 0.005669414583686206
Epoch: 22400, Error: 0.005680043655037392
Epoch: 22500, Error: 0.0056592203183765
Epoch: 22600, Error: 0.005663333461400277
Epoch: 22700, Error: 0.005673110915695117
Epoch: 22800, Error: 0.00577699411513624
Epoch: 22900, Error: 0.005678591753948974
Epoch: 23000, Error: 0.005688689855785118
Epoch: 23100, Error: 0.005678483696522043
Epoch: 23200, Error: 0.005650564566545713
Epoch: 23300, Error: 0.005653959024898764
Epoch: 23400, Error: 0.005628017982273966
Epoch: 23500, Error: 0.005604087916584886
Epoch: 23600, Error: 0.005566294523702315
Epoch: 23700, Error: 0.0055251232271537965
Epoch: 23800, Error: 0.0054978533846415595
Epoch: 23900, Error: 0.00547629430287667
Epoch: 24000, Error: 0.005413599357494857
Epoch: 24100, Error: 0.005392882454040433
Epoch: 24200, Error: 0.005352469602415005
Epoch: 24300, Error: 0.005341004503031639
Epoch: 24400, Error: 0.005314140830012983
Epoch: 24500, Error: 0.005264405961749743
Epoch: 24600, Error: 0.0052509694359613454
Epoch: 24700, Error: 0.005210358987326768
Epoch: 24800, Error: 0.005146156754185162
Epoch: 24900, Error: 0.005143576511274808
Epoch: 25000, Error: 0.005072587818374596
Epoch: 25100, Error: 0.005037426853828604
Epoch: 25200, Error: 0.004970263203444896
Epoch: 25300, Error: 0.00496096468554923
Epoch: 25400, Error: 0.004931013347612969
Epoch: 25500, Error: 0.0048697382136980985
Epoch: 25600, Error: 0.004847988519631482
Epoch: 25700, Error: 0.004865135057631177
Epoch: 25800, Error: 0.0047983211847427935
Epoch: 25900, Error: 0.004766661270509607
Epoch: 26000, Error: 0.004739384304496067
Epoch: 26100, Error: 0.004709756723728217
Epoch: 26200, Error: 0.004659008830475997
Epoch: 26300, Error: 0.0046356964569930804
Epoch: 26400, Error: 0.004591276522564928
Epoch: 26500, Error: 0.00462415257428566
Epoch: 26600, Error: 0.004551966193483501
Epoch: 26700, Error: 0.004492839420546059
Epoch: 26800, Error: 0.0045201384596098345
Epoch: 26900, Error: 0.004516124672459466
Epoch: 27000, Error: 0.004443651702896514
Epoch: 27100, Error: 0.004562489755248639
Epoch: 27200, Error: 0.004414388461966635
Epoch: 27300, Error: 0.004353104214152457
Epoch: 27400, Error: 0.004315231694893013
Epoch: 27500, Error: 0.004303078371117422
Epoch: 27600, Error: 0.004275131841545551
Epoch: 27700, Error: 0.004263058802603862
Epoch: 27800, Error: 0.004214895572346395
Epoch: 27900, Error: 0.004220306688970931
Epoch: 28000, Error: 0.004222250847271972
Epoch: 28100, Error: 0.004172569878748704
Epoch: 28200, Error: 0.004118216150448379
Epoch: 28300, Error: 0.004118698776417181
Epoch: 28400, Error: 0.00408600207417371
Epoch: 28500, Error: 0.004069503603982413
Epoch: 28600, Error: 0.00404879339728192
Epoch: 28700, Error: 0.004019662965524669
Epoch: 28800, Error: 0.0039675715456309645
Epoch: 28900, Error: 0.003939456522507045
Epoch: 29000, Error: 0.003973637361927931
Epoch: 29100, Error: 0.0038997320296965004
Epoch: 29200, Error: 0.0039737825359565096
Epoch: 29300, Error: 0.0038293797619889675
Epoch: 29400, Error: 0.0037879999492580908
Epoch: 29500, Error: 0.00379229513131291
Epoch: 29600, Error: 0.0037600673687109847
Epoch: 29700, Error: 0.0037685938296825733
Epoch: 29800, Error: 0.003734583042088607
Epoch: 29900, Error: 0.0036689669854242045
Epoch: 30000, Error: 0.0036522546160834544
Epoch: 30100, Error: 0.0036459441009964104
Epoch: 30200, Error: 0.0035822677900591085
Epoch: 30300, Error: 0.0035962900949242484
Epoch: 30400, Error: 0.003575672489265406
Epoch: 30500, Error: 0.003589842589620076
Epoch: 30600, Error: 0.00352672299307672
Epoch: 30700, Error: 0.0034431911424235608
Epoch: 30800, Error: 0.0034101509363550124
Epoch: 30900, Error: 0.00347806409558311
Epoch: 31000, Error: 0.0033586448031394443
Epoch: 31100, Error: 0.0033528568135616672
Epoch: 31200, Error: 0.0032886221964412155
Epoch: 31300, Error: 0.0032488474491263325
Epoch: 31400, Error: 0.0032164863757597963
Epoch: 31500, Error: 0.0031883453519098875
Epoch: 31600, Error: 0.003191653352268287
Epoch: 31700, Error: 0.003146373316259067
Epoch: 31800, Error: 0.00312243516806317
Epoch: 31900, Error: 0.0032254212740951064
Epoch: 32000, Error: 0.0030724952790820094
Epoch: 32100, Error: 0.0030565644459337802
Epoch: 32200, Error: 0.003051629782031017
Epoch: 32300, Error: 0.0029917964445478526
Epoch: 32400, Error: 0.002961354408578463
Epoch: 32500, Error: 0.002994011587380283
Epoch: 32600, Error: 0.002918721115898179
Epoch: 32700, Error: 0.002900368984418179
Epoch: 32800, Error: 0.0029980936617073563
Epoch: 32900, Error: 0.0028393470409809104
Epoch: 33000, Error: 0.0028241284458423994
Epoch: 33100, Error: 0.002825126086412637
Epoch: 33200, Error: 0.0027881522530802693
Epoch: 33300, Error: 0.0027615946316741024
Epoch: 33400, Error: 0.0027267608254486963
Epoch: 33500, Error: 0.0027550933131589525
Epoch: 33600, Error: 0.0027061156832853157
Epoch: 33700, Error: 0.002681079971669644
Epoch: 33800, Error: 0.0027059636659140136
Epoch: 33900, Error: 0.0026547768685554205
Epoch: 34000, Error: 0.00267394681772251
Epoch: 34100, Error: 0.0026285043836109957
Epoch: 34200, Error: 0.002650606156410586
Epoch: 34300, Error: 0.002616154495990545
Epoch: 34400, Error: 0.0026308197538860273
Epoch: 34500, Error: 0.002589554076997436
Epoch: 34600, Error: 0.0026381153309244765
Epoch: 34700, Error: 0.002568059023198429
Epoch: 34800, Error: 0.0025568847588920045
Epoch: 34900, Error: 0.002613344719223235
Epoch: 35000, Error: 0.002607405139257144
Epoch: 35100, Error: 0.0024978292543786263
Epoch: 35200, Error: 0.002508688247372233
Epoch: 35300, Error: 0.0025160620896143185
Epoch: 35400, Error: 0.002547338021681152
Epoch: 35500, Error: 0.002713560702784368
Epoch: 35600, Error: 0.0024594836878071734
Epoch: 35700, Error: 0.0024705460579554517
Epoch: 35800, Error: 0.0024726173981582658
Epoch: 35900, Error: 0.003116075639856186
Epoch: 36000, Error: 0.0024140037390467193
Epoch: 36100, Error: 0.0024258174911596223
Epoch: 36200, Error: 0.0024244631647501935
Epoch: 36300, Error: 0.002433629342537643
Epoch: 36400, Error: 0.0024222579068168696
Epoch: 36500, Error: 0.0023941482206363144
Epoch: 36600, Error: 0.002397380071479881
Epoch: 36700, Error: 0.0024146716194111645
Epoch: 36800, Error: 0.002358173252159439
Epoch: 36900, Error: 0.002352627426332531
Epoch: 37000, Error: 0.0024003517183151814
Epoch: 37100, Error: 0.0023283887632411016
Epoch: 37200, Error: 0.002368355351914706
Epoch: 37300, Error: 0.0023056047538686443
Epoch: 37400, Error: 0.002305080642940022
Epoch: 37500, Error: 0.0023168439416905912
Epoch: 37600, Error: 0.0023770709802828005
Epoch: 37700, Error: 0.002331935620457005
Epoch: 37800, Error: 0.0022911209142773923
Epoch: 37900, Error: 0.002319850878818333
Epoch: 38000, Error: 0.0023466653811655084
Epoch: 38100, Error: 0.002280222135232175
Epoch: 38200, Error: 0.0022659282319227496
Epoch: 38300, Error: 0.00227969954219751
Epoch: 38400, Error: 0.002292787629507893
Epoch: 38500, Error: 0.0022866947863991872
Epoch: 38600, Error: 0.0022758437422486753
Epoch: 38700, Error: 0.0022781623829595376
Epoch: 38800, Error: 0.002244602597045087
Epoch: 38900, Error: 0.0022705434571241414
Epoch: 39000, Error: 0.0022853941323151316
Epoch: 39100, Error: 0.0022581804459520585
Epoch: 39200, Error: 0.002278416264452119
Epoch: 39300, Error: 0.0022428425836249085
Epoch: 39400, Error: 0.002247745040554063
Epoch: 39500, Error: 0.0022159255772616292
Epoch: 39600, Error: 0.0022313605792640924
Epoch: 39700, Error: 0.0022612765562261133
Epoch: 39800, Error: 0.0022631016136942673
Epoch: 39900, Error: 0.002209734434775279
Epoch: 40000, Error: 0.002294002267581835
Epoch: 40100, Error: 0.002253636895689166
Epoch: 40200, Error: 0.0022185358225092597
Epoch: 40300, Error: 0.0022486554292785025
Epoch: 40400, Error: 0.0022223072693441765
Epoch: 40500, Error: 0.0022432090448986737
Epoch: 40600, Error: 0.002248094115434485
Epoch: 40700, Error: 0.0022373579522061396
Epoch: 40800, Error: 0.0022182472606862174
Epoch: 40900, Error: 0.00218012453964181
Epoch: 41000, Error: 0.0021911564059027325
Epoch: 41100, Error: 0.002181102549415902
Epoch: 41200, Error: 0.0021751647944520287
Epoch: 41300, Error: 0.0021513519370208265
Epoch: 41400, Error: 0.002163683740653157
Epoch: 41500, Error: 0.002107001304287446
Epoch: 41600, Error: 0.002078573598951926
Epoch: 41700, Error: 0.0020807114944299925
Epoch: 41800, Error: 0.0021043938003085984
Epoch: 41900, Error: 0.0020674299323461117
Epoch: 42000, Error: 0.0020811986167861354
Epoch: 42100, Error: 0.002048850720321432
Epoch: 42200, Error: 0.002056088159686928
Epoch: 42300, Error: 0.002029097079260205
Epoch: 42400, Error: 0.001990190791118017
Epoch: 42500, Error: 0.0019711727676478973
Epoch: 42600, Error: 0.001969372367094484
Epoch: 42700, Error: 0.0019655060512965257
Epoch: 42800, Error: 0.0019850770783782275
Epoch: 42900, Error: 0.0020089694621958057
Epoch: 43000, Error: 0.0019287378674416801
Epoch: 43100, Error: 0.0019298825058914784
Epoch: 43200, Error: 0.0019334920991598743
Epoch: 43300, Error: 0.0019085176713916426
Epoch: 43400, Error: 0.0019176240634537244
Epoch: 43500, Error: 0.0019329996517713675
Epoch: 43600, Error: 0.0019108260416907416
Epoch: 43700, Error: 0.0019420350520409772
Epoch: 43800, Error: 0.0019325018235085943
Epoch: 43900, Error: 0.001898892181115892
Epoch: 44000, Error: 0.001912770801205328
Epoch: 44100, Error: 0.0019047960538065413
Epoch: 44200, Error: 0.001883225441541104
Epoch: 44300, Error: 0.0018833745142125672
Epoch: 44400, Error: 0.001864956527387501
Epoch: 44500, Error: 0.0018393177353966488
Epoch: 44600, Error: 0.0018370056860119938
Epoch: 44700, Error: 0.0018297911524266766
Epoch: 44800, Error: 0.0018211505207394315
Epoch: 44900, Error: 0.001833355867231027
Epoch: 45000, Error: 0.0018314704829535695
Epoch: 45100, Error: 0.0019298226202300469
Epoch: 45200, Error: 0.0017940338823451065
Epoch: 45300, Error: 0.0018136232574239182
Epoch: 45400, Error: 0.0017914565705898227
Epoch: 45500, Error: 0.0017877069448615356
Epoch: 45600, Error: 0.0017837307768825844
Epoch: 45700, Error: 0.0018013394440646383
Epoch: 45800, Error: 0.0017948933803009237
Epoch: 45900, Error: 0.0017891819562364138
Epoch: 46000, Error: 0.0017887503419371101
Epoch: 46100, Error: 0.0018343030085079396
Epoch: 46200, Error: 0.0018131436824773773
Epoch: 46300, Error: 0.001796436441437365
Epoch: 46400, Error: 0.0018260598016341
Epoch: 46500, Error: 0.0018225348028038366
Epoch: 46600, Error: 0.001805447902494892
Epoch: 46700, Error: 0.001801407647245931
Epoch: 46800, Error: 0.0018470362310733918
Epoch: 46900, Error: 0.0018013985375108902
Epoch: 47000, Error: 0.0017875139310177116
Epoch: 47100, Error: 0.0017750422670889045
Epoch: 47200, Error: 0.0017713203999251948
Epoch: 47300, Error: 0.0017638019364088176
Epoch: 47400, Error: 0.0017468159219938856
Epoch: 47500, Error: 0.0017344534296618347
Epoch: 47600, Error: 0.0017372348473105059
Epoch: 47700, Error: 0.0017328434444411184
Epoch: 47800, Error: 0.0017363319926971964
Epoch: 47900, Error: 0.0017374957352711638
Epoch: 48000, Error: 0.0017398457329316505
Epoch: 48100, Error: 0.0017109511059932583
Epoch: 48200, Error: 0.0017088828220187093
Epoch: 48300, Error: 0.0017043797712335436
Epoch: 48400, Error: 0.0017293995119005633
Finished
