Input Patterns
0.224 0.624 0.067 0.043 
0.11 0.502 0.051 0.043 
0.196 0.667 0.067 0.043 
0.055 0.584 0.067 0.082 
0.027 0.376 0.067 0.043 
0.306 0.71 0.086 0.043 
0.137 0.416 0.067 0.0 
0.416 0.831 0.035 0.043 
0.306 0.792 0.051 0.125 
0.388 0.749 0.118 0.082 
0.306 0.584 0.118 0.043 
0.082 0.667 0.0 0.043 
0.137 0.584 0.153 0.043 
0.196 0.584 0.102 0.125 
0.251 0.584 0.067 0.043 
0.137 0.459 0.102 0.043 
0.251 0.875 0.086 0.0 
0.165 0.459 0.086 0.043 
0.333 0.624 0.051 0.043 
0.027 0.416 0.051 0.043 
0.196 0.624 0.051 0.082 
0.027 0.502 0.051 0.043 
0.224 0.749 0.153 0.125 
0.224 0.749 0.102 0.043 
0.278 0.71 0.086 0.043 
0.165 0.416 0.067 0.043 
0.082 0.459 0.086 0.043 
0.306 0.792 0.118 0.125 
0.196 0.584 0.086 0.043 
0.165 0.459 0.086 0.0 
0.137 0.584 0.102 0.043 
0.0 0.416 0.016 0.0 
0.388 1.0 0.086 0.125 
0.224 0.624 0.067 0.082 
0.224 0.749 0.086 0.082 
0.224 0.71 0.086 0.125 
0.224 0.541 0.118 0.165 
0.196 0.416 0.102 0.043 
0.251 0.624 0.086 0.043 
0.11 0.502 0.102 0.043 
0.306 0.584 0.086 0.125 
0.333 0.918 0.067 0.043 
0.196 0.502 0.035 0.043 
0.165 0.667 0.067 0.0 
0.224 0.584 0.086 0.043 
0.055 0.125 0.051 0.082 
0.196 0.624 0.102 0.208 
0.137 0.416 0.067 0.082 
0.082 0.502 0.067 0.043 
0.196 0.541 0.067 0.043 
0.749 0.502 0.627 0.541 
0.722 0.459 0.663 0.584 
0.612 0.333 0.612 0.584 
0.557 0.541 0.627 0.624 
0.639 0.376 0.612 0.498 
0.196 0.0 0.424 0.376 
0.471 0.082 0.51 0.376 
0.361 0.376 0.439 0.498 
0.361 0.416 0.592 0.584 
0.529 0.082 0.592 0.584 
0.443 0.502 0.643 0.459 
0.557 0.208 0.663 0.584 
0.584 0.376 0.561 0.498 
0.694 0.333 0.643 0.541 
0.471 0.376 0.592 0.584 
0.333 0.169 0.475 0.416 
0.416 0.29 0.49 0.459 
0.306 0.416 0.592 0.584 
0.667 0.459 0.627 0.584 
0.361 0.416 0.525 0.498 
0.333 0.251 0.576 0.459 
0.416 0.251 0.51 0.459 
0.361 0.29 0.541 0.498 
0.388 0.376 0.541 0.498 
0.224 0.208 0.337 0.416 
0.584 0.502 0.592 0.584 
0.333 0.125 0.51 0.498 
0.388 0.333 0.592 0.498 
0.165 0.169 0.388 0.376 
0.251 0.29 0.49 0.541 
0.443 0.416 0.541 0.584 
0.498 0.376 0.627 0.541 
0.667 0.459 0.576 0.541 
0.416 0.29 0.525 0.376 
0.361 0.208 0.49 0.416 
0.498 0.333 0.51 0.498 
0.498 0.333 0.627 0.459 
0.639 0.416 0.576 0.541 
0.667 0.416 0.678 0.667 
0.388 0.251 0.424 0.376 
0.333 0.169 0.459 0.376 
0.471 0.29 0.694 0.624 
0.471 0.584 0.592 0.624 
0.557 0.125 0.576 0.498 
0.333 0.208 0.51 0.498 
0.498 0.416 0.612 0.541 
0.196 0.125 0.388 0.376 
0.388 0.416 0.541 0.459 
0.529 0.376 0.561 0.498 
0.388 0.333 0.525 0.498 
0.557 0.541 0.847 1.0 
0.776 0.416 0.831 0.831 
0.612 0.416 0.812 0.875 
0.165 0.208 0.592 0.667 
0.667 0.208 0.812 0.71 
0.612 0.502 0.694 0.792 
0.694 0.416 0.761 0.831 
0.416 0.333 0.694 0.957 
0.612 0.416 0.761 0.71 
0.945 0.251 1.0 0.918 
0.722 0.502 0.796 0.918 
0.945 0.333 0.965 0.792 
0.667 0.541 0.796 0.831 
0.529 0.333 0.643 0.71 
0.584 0.333 0.78 0.831 
0.863 0.333 0.863 0.749 
0.584 0.333 0.78 0.875 
0.498 0.251 0.78 0.541 
0.557 0.584 0.78 0.957 
0.471 0.416 0.643 0.71 
0.667 0.459 0.78 0.957 
0.416 0.29 0.694 0.749 
0.667 0.541 0.796 1.0 
0.557 0.208 0.678 0.749 
0.529 0.584 0.745 0.918 
0.416 0.29 0.694 0.749 
0.557 0.376 0.78 0.71 
0.918 0.416 0.949 0.831 
0.835 0.376 0.898 0.71 
0.804 0.667 0.863 1.0 
0.584 0.29 0.729 0.749 
0.388 0.208 0.678 0.792 
0.584 0.502 0.729 0.918 
0.945 0.749 0.965 0.875 
0.471 0.082 0.678 0.584 
0.361 0.333 0.663 0.792 
0.557 0.29 0.663 0.71 
0.804 0.502 0.847 0.71 
0.498 0.416 0.51 0.71 
0.804 0.416 0.812 0.624 
1.0 0.749 0.914 0.792 
0.557 0.333 0.694 0.584 
0.945 0.416 0.863 0.918 
0.584 0.459 0.761 0.71 
0.722 0.459 0.745 0.831 
0.722 0.459 0.694 0.918 
0.694 0.502 0.831 0.918 
0.667 0.416 0.714 0.918 
0.612 0.416 0.714 0.792 
0.443 0.416 0.694 0.71 
Teaching Patterns
1.0 0.0 0.0 
1.0 0.0 0.0 
1.0 0.0 0.0 
1.0 0.0 0.0 
1.0 0.0 0.0 
1.0 0.0 0.0 
1.0 0.0 0.0 
1.0 0.0 0.0 
1.0 0.0 0.0 
1.0 0.0 0.0 
1.0 0.0 0.0 
1.0 0.0 0.0 
1.0 0.0 0.0 
1.0 0.0 0.0 
1.0 0.0 0.0 
1.0 0.0 0.0 
1.0 0.0 0.0 
1.0 0.0 0.0 
1.0 0.0 0.0 
1.0 0.0 0.0 
1.0 0.0 0.0 
1.0 0.0 0.0 
1.0 0.0 0.0 
1.0 0.0 0.0 
1.0 0.0 0.0 
1.0 0.0 0.0 
1.0 0.0 0.0 
1.0 0.0 0.0 
1.0 0.0 0.0 
1.0 0.0 0.0 
1.0 0.0 0.0 
1.0 0.0 0.0 
1.0 0.0 0.0 
1.0 0.0 0.0 
1.0 0.0 0.0 
1.0 0.0 0.0 
1.0 0.0 0.0 
1.0 0.0 0.0 
1.0 0.0 0.0 
1.0 0.0 0.0 
1.0 0.0 0.0 
1.0 0.0 0.0 
1.0 0.0 0.0 
1.0 0.0 0.0 
1.0 0.0 0.0 
1.0 0.0 0.0 
1.0 0.0 0.0 
1.0 0.0 0.0 
1.0 0.0 0.0 
1.0 0.0 0.0 
0.0 1.0 0.0 
0.0 1.0 0.0 
0.0 1.0 0.0 
0.0 1.0 0.0 
0.0 1.0 0.0 
0.0 1.0 0.0 
0.0 1.0 0.0 
0.0 1.0 0.0 
0.0 1.0 0.0 
0.0 1.0 0.0 
0.0 1.0 0.0 
0.0 1.0 0.0 
0.0 1.0 0.0 
0.0 1.0 0.0 
0.0 1.0 0.0 
0.0 1.0 0.0 
0.0 1.0 0.0 
0.0 1.0 0.0 
0.0 1.0 0.0 
0.0 1.0 0.0 
0.0 1.0 0.0 
0.0 1.0 0.0 
0.0 1.0 0.0 
0.0 1.0 0.0 
0.0 1.0 0.0 
0.0 1.0 0.0 
0.0 1.0 0.0 
0.0 1.0 0.0 
0.0 1.0 0.0 
0.0 1.0 0.0 
0.0 1.0 0.0 
0.0 1.0 0.0 
0.0 1.0 0.0 
0.0 1.0 0.0 
0.0 1.0 0.0 
0.0 1.0 0.0 
0.0 1.0 0.0 
0.0 1.0 0.0 
0.0 1.0 0.0 
0.0 1.0 0.0 
0.0 1.0 0.0 
0.0 1.0 0.0 
0.0 1.0 0.0 
0.0 1.0 0.0 
0.0 1.0 0.0 
0.0 1.0 0.0 
0.0 1.0 0.0 
0.0 1.0 0.0 
0.0 1.0 0.0 
0.0 1.0 0.0 
0.0 0.0 1.0 
0.0 0.0 1.0 
0.0 0.0 1.0 
0.0 0.0 1.0 
0.0 0.0 1.0 
0.0 0.0 1.0 
0.0 0.0 1.0 
0.0 0.0 1.0 
0.0 0.0 1.0 
0.0 0.0 1.0 
0.0 0.0 1.0 
0.0 0.0 1.0 
0.0 0.0 1.0 
0.0 0.0 1.0 
0.0 0.0 1.0 
0.0 0.0 1.0 
0.0 0.0 1.0 
0.0 0.0 1.0 
0.0 0.0 1.0 
0.0 0.0 1.0 
0.0 0.0 1.0 
0.0 0.0 1.0 
0.0 0.0 1.0 
0.0 0.0 1.0 
0.0 0.0 1.0 
0.0 0.0 1.0 
0.0 0.0 1.0 
0.0 0.0 1.0 
0.0 0.0 1.0 
0.0 0.0 1.0 
0.0 0.0 1.0 
0.0 0.0 1.0 
0.0 0.0 1.0 
0.0 0.0 1.0 
0.0 0.0 1.0 
0.0 0.0 1.0 
0.0 0.0 1.0 
0.0 0.0 1.0 
0.0 0.0 1.0 
0.0 0.0 1.0 
0.0 0.0 1.0 
0.0 0.0 1.0 
0.0 0.0 1.0 
0.0 0.0 1.0 
0.0 0.0 1.0 
0.0 0.0 1.0 
0.0 0.0 1.0 
0.0 0.0 1.0 
0.0 0.0 1.0 
0.0 0.0 1.0 
Learning : 0.05
Momentum : 0.8999999761581421
Epoch: 100, Error: 0.02270878086179339
Epoch: 200, Error: 0.016707145328059118
Epoch: 300, Error: 0.015060283635616008
Epoch: 400, Error: 0.014116227182091799
Epoch: 500, Error: 0.013549516885389924
Epoch: 600, Error: 0.013077076144566439
Epoch: 700, Error: 0.012864067316758574
Epoch: 800, Error: 0.012784550692029209
Epoch: 900, Error: 0.012552081908574653
Epoch: 1000, Error: 0.012450303486480482
Epoch: 1100, Error: 0.012473886213433448
Epoch: 1200, Error: 0.012284707079750915
Epoch: 1300, Error: 0.012277789604686413
Epoch: 1400, Error: 0.012292014663760184
Epoch: 1500, Error: 0.012525340361210557
Epoch: 1600, Error: 0.012143377922106017
Epoch: 1700, Error: 0.012140513264444354
Epoch: 1800, Error: 0.012137545168540364
Epoch: 1900, Error: 0.012216833247839261
Epoch: 2000, Error: 0.012136229634380451
Epoch: 2100, Error: 0.012104241605201937
Epoch: 2200, Error: 0.012187604965253044
Epoch: 2300, Error: 0.012110640469510806
Epoch: 2400, Error: 0.01227234286973149
Epoch: 2500, Error: 0.012064712898557754
Epoch: 2600, Error: 0.01206927256542603
Epoch: 2700, Error: 0.01225380599865286
Epoch: 2800, Error: 0.012055856611559335
Epoch: 2900, Error: 0.012069609384143982
Epoch: 3000, Error: 0.012024503417334657
Epoch: 3100, Error: 0.012055230186727781
Epoch: 3200, Error: 0.012024641481536294
Epoch: 3300, Error: 0.0120508323258467
Epoch: 3400, Error: 0.012005166971779996
Epoch: 3500, Error: 0.012003415371466604
Epoch: 3600, Error: 0.012064526552965409
Epoch: 3700, Error: 0.01199539350203046
Epoch: 3800, Error: 0.012307414621238078
Epoch: 3900, Error: 0.011980455985255045
Epoch: 4000, Error: 0.012273011045130709
Epoch: 4100, Error: 0.011980685887249761
Epoch: 4200, Error: 0.01204469062344969
Epoch: 4300, Error: 0.011994507350591927
Epoch: 4400, Error: 0.012075589323586721
Epoch: 4500, Error: 0.012354683698079903
Epoch: 4600, Error: 0.011984518747650708
Epoch: 4700, Error: 0.011941643025415807
Epoch: 4800, Error: 0.011933159447144168
Epoch: 4900, Error: 0.01193843482130422
Epoch: 5000, Error: 0.01195357360304615
Epoch: 5100, Error: 0.01199228432073075
Epoch: 5200, Error: 0.011939935389127892
Epoch: 5300, Error: 0.011884708973302412
Epoch: 5400, Error: 0.011880892046323177
Epoch: 5500, Error: 0.01198886957066526
Epoch: 5600, Error: 0.011876501227102055
Epoch: 5700, Error: 0.011846364203422733
Epoch: 5800, Error: 0.011833846772742842
Epoch: 5900, Error: 0.011814784954362405
Epoch: 6000, Error: 0.011807874430313508
Epoch: 6100, Error: 0.011779943225209685
Epoch: 6200, Error: 0.012437385253333984
Epoch: 6300, Error: 0.011771210890535795
Epoch: 6400, Error: 0.011909473411232427
Epoch: 6500, Error: 0.011818829322695117
Epoch: 6600, Error: 0.01174964473559575
Epoch: 6700, Error: 0.011753280337954352
Epoch: 6800, Error: 0.011810317176135506
Epoch: 6900, Error: 0.011665614445208755
Epoch: 7000, Error: 0.011651736206085537
Epoch: 7100, Error: 0.011627105206283116
Epoch: 7200, Error: 0.011714339763747863
Epoch: 7300, Error: 0.01163176610472584
Epoch: 7400, Error: 0.01174381371290839
Epoch: 7500, Error: 0.011615187830933744
Epoch: 7600, Error: 0.011576507887551721
Epoch: 7700, Error: 0.011588343250359628
Epoch: 7800, Error: 0.011576899787926672
Epoch: 7900, Error: 0.01159394409863658
Epoch: 8000, Error: 0.01159405530708105
Epoch: 8100, Error: 0.011502795436892732
Epoch: 8200, Error: 0.011496538056904593
Epoch: 8300, Error: 0.01149589018719095
Epoch: 8400, Error: 0.0114752907951265
Epoch: 8500, Error: 0.011451522103539415
Epoch: 8600, Error: 0.011430236954116262
Epoch: 8700, Error: 0.011417803754278455
Epoch: 8800, Error: 0.011405792251603736
Epoch: 8900, Error: 0.011372113672275048
Epoch: 9000, Error: 0.011337137111966765
Epoch: 9100, Error: 0.01133711239109055
Epoch: 9200, Error: 0.011312795192392793
Epoch: 9300, Error: 0.01136849182196266
Epoch: 9400, Error: 0.011319869046467387
Epoch: 9500, Error: 0.011217736947496643
Epoch: 9600, Error: 0.0111912664150996
Epoch: 9700, Error: 0.011126392710649712
Epoch: 9800, Error: 0.01109119787959294
Epoch: 9900, Error: 0.011036046678080379
Epoch: 10000, Error: 0.010997477734053972
Epoch: 10100, Error: 0.010968127136512632
Epoch: 10200, Error: 0.011169537213248655
Epoch: 10300, Error: 0.010919712380018607
Epoch: 10400, Error: 0.010867682121675973
Epoch: 10500, Error: 0.010807901559991711
Epoch: 10600, Error: 0.010925117861769374
Epoch: 10700, Error: 0.010717886340768234
Epoch: 10800, Error: 0.01066562008476976
Epoch: 10900, Error: 0.010684032168056091
Epoch: 11000, Error: 0.010583756925258406
Epoch: 11100, Error: 0.010493892537870475
Epoch: 11200, Error: 0.010421792562087688
Epoch: 11300, Error: 0.010595410949846763
Epoch: 11400, Error: 0.010407329601584433
Epoch: 11500, Error: 0.010319263295576076
Epoch: 11600, Error: 0.010206053029053048
Epoch: 11700, Error: 0.010141504601051345
Epoch: 11800, Error: 0.01006500902144664
Epoch: 11900, Error: 0.010003169705951883
Epoch: 12000, Error: 0.009960133560038428
Epoch: 12100, Error: 0.00982303260364764
Epoch: 12200, Error: 0.009729217400662175
Epoch: 12300, Error: 0.00965635213702502
Epoch: 12400, Error: 0.009546661176596846
Epoch: 12500, Error: 0.009538360685977276
Epoch: 12600, Error: 0.00938568697881205
Epoch: 12700, Error: 0.009428926240628445
Epoch: 12800, Error: 0.009315518381348776
Epoch: 12900, Error: 0.009068863543023933
Epoch: 13000, Error: 0.008965349157821637
Epoch: 13100, Error: 0.008855965954576037
Epoch: 13200, Error: 0.008754923688603795
Epoch: 13300, Error: 0.008650913702069357
Epoch: 13400, Error: 0.008538835250131774
Epoch: 13500, Error: 0.008542580801553805
Epoch: 13600, Error: 0.008322696158534502
Epoch: 13700, Error: 0.008229744202306828
Epoch: 13800, Error: 0.008093022189933593
Epoch: 13900, Error: 0.007999697588533996
Epoch: 14000, Error: 0.007899117414591417
Epoch: 14100, Error: 0.007815580239805317
Epoch: 14200, Error: 0.007730284023622626
Epoch: 14300, Error: 0.007634183120880898
Epoch: 14400, Error: 0.007568491946019067
Epoch: 14500, Error: 0.0075206435598677976
Epoch: 14600, Error: 0.007401912237383803
Epoch: 14700, Error: 0.0073519168597424465
Epoch: 14800, Error: 0.007290347637203622
Epoch: 14900, Error: 0.007229474234918242
Epoch: 15000, Error: 0.007164337683199965
Epoch: 15100, Error: 0.007123223288817582
Epoch: 15200, Error: 0.007014961746390775
Epoch: 15300, Error: 0.006950143337884551
Epoch: 15400, Error: 0.006896747391782726
Epoch: 15500, Error: 0.006836344705228488
Epoch: 15600, Error: 0.006775543575572364
Epoch: 15700, Error: 0.006717251791623458
Epoch: 15800, Error: 0.00666508132518578
Epoch: 15900, Error: 0.00662889491371092
Epoch: 16000, Error: 0.006562775855974149
Epoch: 16100, Error: 0.006533835833208974
Epoch: 16200, Error: 0.006504224675937974
Epoch: 16300, Error: 0.006482792404399823
Epoch: 16400, Error: 0.0064876477610989755
Epoch: 16500, Error: 0.006470001884791935
Epoch: 16600, Error: 0.0064422217818107
Epoch: 16700, Error: 0.006549855780840357
Epoch: 16800, Error: 0.006404416324440151
Epoch: 16900, Error: 0.006396502065965253
Epoch: 17000, Error: 0.0063733626067896555
Epoch: 17100, Error: 0.006347000894653188
Epoch: 17200, Error: 0.006294357587589277
Epoch: 17300, Error: 0.006275574919508798
Epoch: 17400, Error: 0.006242963931679835
Epoch: 17500, Error: 0.006237782509910558
Epoch: 17600, Error: 0.006194457813873372
Epoch: 17700, Error: 0.006181636458402754
Epoch: 17800, Error: 0.006158972228365409
Epoch: 17900, Error: 0.006135224801696587
Epoch: 18000, Error: 0.006106393870229225
Epoch: 18100, Error: 0.006095824587090633
Epoch: 18200, Error: 0.006078068414705046
Epoch: 18300, Error: 0.006030793700763782
Epoch: 18400, Error: 0.0060184352865901534
Epoch: 18500, Error: 0.005993456151164771
Epoch: 18600, Error: 0.005966499632623489
Epoch: 18700, Error: 0.005951373913934312
Epoch: 18800, Error: 0.005914093193263356
Epoch: 18900, Error: 0.006073300219406957
Epoch: 19000, Error: 0.005914077452147626
Epoch: 19100, Error: 0.005885811065947921
Epoch: 19200, Error: 0.0058507072227698825
Epoch: 19300, Error: 0.00583443252889804
Epoch: 19400, Error: 0.005812743363375664
Epoch: 19500, Error: 0.005808127783684371
Epoch: 19600, Error: 0.005789656467714786
Epoch: 19700, Error: 0.005808560441763878
Epoch: 19800, Error: 0.005791557015260471
Epoch: 19900, Error: 0.0057640505021591786
Epoch: 20000, Error: 0.005705942509581885
Epoch: 20100, Error: 0.00568797409110591
Epoch: 20200, Error: 0.0056765322239359615
Epoch: 20300, Error: 0.005664695233234037
Epoch: 20400, Error: 0.005622931192541806
Epoch: 20500, Error: 0.005594918993281331
Epoch: 20600, Error: 0.005610842426078173
Epoch: 20700, Error: 0.00556861906599334
Epoch: 20800, Error: 0.0055769294948735506
Epoch: 20900, Error: 0.005543482424478302
Epoch: 21000, Error: 0.005474305275058504
Epoch: 21100, Error: 0.005495544224081785
Epoch: 21200, Error: 0.0054795731316893605
Epoch: 21300, Error: 0.005437912277779484
Epoch: 21400, Error: 0.005432824008307715
Epoch: 21500, Error: 0.005439914283977654
Epoch: 21600, Error: 0.005409056296858807
Epoch: 21700, Error: 0.005378564205651116
Epoch: 21800, Error: 0.005345911095721864
Epoch: 21900, Error: 0.00535518014590435
Epoch: 22000, Error: 0.0053043096998901945
Epoch: 22100, Error: 0.005299348221186827
Epoch: 22200, Error: 0.005273489275260746
Epoch: 22300, Error: 0.0052489090636145125
Epoch: 22400, Error: 0.005233204450904874
Epoch: 22500, Error: 0.005207150465007856
Epoch: 22600, Error: 0.005190645798378516
Epoch: 22700, Error: 0.0051975495443287055
Epoch: 22800, Error: 0.005155612170194981
Epoch: 22900, Error: 0.005134962858977166
Epoch: 23000, Error: 0.005100443125077123
Epoch: 23100, Error: 0.005083955109290279
Epoch: 23200, Error: 0.005046552231402704
Epoch: 23300, Error: 0.005165442649999782
Epoch: 23400, Error: 0.005025871559499364
Epoch: 23500, Error: 0.0049859066559703544
Epoch: 23600, Error: 0.004956885711841657
Epoch: 23700, Error: 0.005025176104889696
Epoch: 23800, Error: 0.004957023740683679
Epoch: 23900, Error: 0.004946564938189923
Epoch: 24000, Error: 0.004888559557272356
Epoch: 24100, Error: 0.004858171204053513
Epoch: 24200, Error: 0.004840125478292928
Epoch: 24300, Error: 0.004833168244296352
Epoch: 24400, Error: 0.004794408252119573
Epoch: 24500, Error: 0.004748040631252265
Epoch: 24600, Error: 0.004768852656381604
Epoch: 24700, Error: 0.004711189009578938
Epoch: 24800, Error: 0.004695148230663659
Epoch: 24900, Error: 0.004630310588469503
Epoch: 25000, Error: 0.004630274755824792
Epoch: 25100, Error: 0.0045991457514426475
Epoch: 25200, Error: 0.004574975035860693
Epoch: 25300, Error: 0.004896127474685907
Epoch: 25400, Error: 0.004513686425301267
Epoch: 25500, Error: 0.004489296938575545
Epoch: 25600, Error: 0.004534432755941134
Epoch: 25700, Error: 0.004426558708689596
Epoch: 25800, Error: 0.00443787496279114
Epoch: 25900, Error: 0.004384945225271555
Epoch: 26000, Error: 0.004355485051584116
Epoch: 26100, Error: 0.00436284965133849
Epoch: 26200, Error: 0.004316135073368404
Epoch: 26300, Error: 0.004248951890434403
Epoch: 26400, Error: 0.004239490984247482
Epoch: 26500, Error: 0.004232747206535363
Epoch: 26600, Error: 0.004222903260593347
Epoch: 26700, Error: 0.004139395360281633
Epoch: 26800, Error: 0.004104230725208232
Epoch: 26900, Error: 0.004075522785942843
Epoch: 27000, Error: 0.004177687699178481
Epoch: 27100, Error: 0.00405717414696954
Epoch: 27200, Error: 0.00401478024632039
Epoch: 27300, Error: 0.004034259267297056
Epoch: 27400, Error: 0.0039535700396736585
Epoch: 27500, Error: 0.0039670191126086815
Epoch: 27600, Error: 0.003899130929556205
Epoch: 27700, Error: 0.0038699100981321754
Epoch: 27800, Error: 0.0038972122777489013
Epoch: 27900, Error: 0.0038011554480614127
Epoch: 28000, Error: 0.00377441785067773
Epoch: 28100, Error: 0.0037372339387898488
Epoch: 28200, Error: 0.0037078052391377545
Epoch: 28300, Error: 0.0037308483670070772
Epoch: 28400, Error: 0.0036716857794595196
Epoch: 28500, Error: 0.003710268960627168
Epoch: 28600, Error: 0.0036604267480944658
Epoch: 28700, Error: 0.0036181713267894166
Epoch: 28800, Error: 0.0035586132796158756
Epoch: 28900, Error: 0.0035188240494267507
Epoch: 29000, Error: 0.003510232055003847
Epoch: 29100, Error: 0.0036733308708225354
Epoch: 29200, Error: 0.0034304540677944214
Epoch: 29300, Error: 0.0034119554584171505
Epoch: 29400, Error: 0.003381318567567201
Epoch: 29500, Error: 0.0033605362027268664
Epoch: 29600, Error: 0.003318488603661626
Epoch: 29700, Error: 0.0033506620364542414
Epoch: 29800, Error: 0.0033017333241060925
Epoch: 29900, Error: 0.0033059386958362996
Epoch: 30000, Error: 0.00332321725600178
Epoch: 30100, Error: 0.0031864276237316283
Epoch: 30200, Error: 0.0031928450368546063
Epoch: 30300, Error: 0.0031427386689728467
Epoch: 30400, Error: 0.0032045263280354227
Epoch: 30500, Error: 0.0030833319542840146
Epoch: 30600, Error: 0.0031273803356581626
Epoch: 30700, Error: 0.003073698686371532
Epoch: 30800, Error: 0.0030052705744731084
Epoch: 30900, Error: 0.0029918049421112005
Epoch: 31000, Error: 0.0029585326807090237
Epoch: 31100, Error: 0.002937313394259653
Epoch: 31200, Error: 0.0030981474985600018
Epoch: 31300, Error: 0.002884577700387232
Epoch: 31400, Error: 0.0029609143400385904
Epoch: 31500, Error: 0.002901138284842136
Epoch: 31600, Error: 0.002848643699228512
Epoch: 31700, Error: 0.0028100273235337173
Epoch: 31800, Error: 0.002774797461716387
Epoch: 31900, Error: 0.002781078315623315
Epoch: 32000, Error: 0.002721197833912362
Epoch: 32100, Error: 0.0026982882525973515
Epoch: 32200, Error: 0.002674219712787551
Epoch: 32300, Error: 0.0028474700533135723
Epoch: 32400, Error: 0.002630848587538665
Epoch: 32500, Error: 0.0026367690423995263
Epoch: 32600, Error: 0.0025853855770600026
Epoch: 32700, Error: 0.0025909331558309394
Epoch: 32800, Error: 0.0025611866403136164
Epoch: 32900, Error: 0.0025374734500723363
Epoch: 33000, Error: 0.002542472200702083
Epoch: 33100, Error: 0.002506302926614568
Epoch: 33200, Error: 0.002511270620702589
Epoch: 33300, Error: 0.0024831767742964266
Epoch: 33400, Error: 0.0024333497849135357
Epoch: 33500, Error: 0.0024618099861163753
Epoch: 33600, Error: 0.0025836878059284033
Epoch: 33700, Error: 0.0023783957085533685
Epoch: 33800, Error: 0.0023613923466299083
Epoch: 33900, Error: 0.0023644057212737807
Epoch: 34000, Error: 0.0023338739705113113
Epoch: 34100, Error: 0.002878641480782908
Epoch: 34200, Error: 0.002337959104662332
Epoch: 34300, Error: 0.0022999558958721428
Epoch: 34400, Error: 0.002266256534968301
Epoch: 34500, Error: 0.002299116629951858
Epoch: 34600, Error: 0.0022297241643287943
Epoch: 34700, Error: 0.0022242669619987414
Epoch: 34800, Error: 0.0022131060493428426
Epoch: 34900, Error: 0.002221557638576934
Epoch: 35000, Error: 0.0024646701864979707
Epoch: 35100, Error: 0.002171336017469825
Epoch: 35200, Error: 0.002133019707248482
Epoch: 35300, Error: 0.0021704651978395177
Epoch: 35400, Error: 0.002113249768093421
Epoch: 35500, Error: 0.0021280230330047107
Epoch: 35600, Error: 0.002098602182458531
Epoch: 35700, Error: 0.002060450050479929
Epoch: 35800, Error: 0.0020665677104213594
Epoch: 35900, Error: 0.002131046369367417
Epoch: 36000, Error: 0.0020734560385178044
Epoch: 36100, Error: 0.002016467402923814
Epoch: 36200, Error: 0.002052387085016226
Epoch: 36300, Error: 0.002001462235965632
Epoch: 36400, Error: 0.0019847207411113877
Epoch: 36500, Error: 0.002035822364278567
Epoch: 36600, Error: 0.001993144773767032
Epoch: 36700, Error: 0.0019591094687220556
Epoch: 36800, Error: 0.0019712900791640235
Epoch: 36900, Error: 0.0019291814305292731
Epoch: 37000, Error: 0.0019626440642424806
Epoch: 37100, Error: 0.001898475021026304
Epoch: 37200, Error: 0.0019264086516181502
Epoch: 37300, Error: 0.0019389794411388257
Epoch: 37400, Error: 0.0019098945001499695
Epoch: 37500, Error: 0.0019125960625710303
Epoch: 37600, Error: 0.0018811610167332462
Epoch: 37700, Error: 0.0019157190940999225
Epoch: 37800, Error: 0.0020193516435266325
Epoch: 37900, Error: 0.0018756658283010427
Epoch: 38000, Error: 0.0018321930047181165
Epoch: 38100, Error: 0.0018293937613746466
Epoch: 38200, Error: 0.0019696368960897413
Epoch: 38300, Error: 0.0018512897966617026
Epoch: 38400, Error: 0.0018096557469305464
Epoch: 38500, Error: 0.0018193462954858635
Epoch: 38600, Error: 0.0019181741150694307
Epoch: 38700, Error: 0.0017942246741369876
Epoch: 38800, Error: 0.001798627138569884
Epoch: 38900, Error: 0.0018182100997162342
Epoch: 39000, Error: 0.0018122287126677015
Epoch: 39100, Error: 0.0017954708434302382
Epoch: 39200, Error: 0.0017726687963200173
Epoch: 39300, Error: 0.001745241131177299
Epoch: 39400, Error: 0.0019387701359517215
Epoch: 39500, Error: 0.001767351451622643
Epoch: 39600, Error: 0.0017841282684883063
Epoch: 39700, Error: 0.00171560665078928
Epoch: 39800, Error: 0.0017047507196475823
Epoch: 39900, Error: 0.0018050493481738146
Epoch: 40000, Error: 0.0017208078717993564
Epoch: 40100, Error: 0.0020954110208130125
Epoch: 40200, Error: 0.0016848722878294038
Epoch: 40300, Error: 0.0016596459519728295
Epoch: 40400, Error: 0.0016910433104630747
Epoch: 40500, Error: 0.0016716460423171658
Epoch: 40600, Error: 0.0016459817147036861
Epoch: 40700, Error: 0.0016340951568951938
Epoch: 40800, Error: 0.001625600611054726
Epoch: 40900, Error: 0.00163531862773849
Epoch: 41000, Error: 0.001632785552390859
Epoch: 41100, Error: 0.0016083404764413547
Epoch: 41200, Error: 0.0016131666285711332
Epoch: 41300, Error: 0.0015980003570986267
Epoch: 41400, Error: 0.0017397445212371891
Epoch: 41500, Error: 0.001586226915959496
Epoch: 41600, Error: 0.0015882184722711052
Epoch: 41700, Error: 0.0015697477798871824
Epoch: 41800, Error: 0.0015657590956871137
Epoch: 41900, Error: 0.001568837033236247
Epoch: 42000, Error: 0.0015722169502267011
Epoch: 42100, Error: 0.0015549978210076404
Epoch: 42200, Error: 0.0015659546050756112
Epoch: 42300, Error: 0.0015470096666305392
Epoch: 42400, Error: 0.0015295272753094136
Epoch: 42500, Error: 0.0015544117010467577
Epoch: 42600, Error: 0.0015276222557397063
Epoch: 42700, Error: 0.0015077160753459266
Epoch: 42800, Error: 0.0015052415376494847
Epoch: 42900, Error: 0.0015038688443867118
Epoch: 43000, Error: 0.001511226579723547
Epoch: 43100, Error: 0.0014915925738364767
Epoch: 43200, Error: 0.001491108412472056
Epoch: 43300, Error: 0.0015043017283531853
Epoch: 43400, Error: 0.0015824638945262078
Epoch: 43500, Error: 0.0014740321412746583
Epoch: 43600, Error: 0.0014628456093253755
Epoch: 43700, Error: 0.0014842978991306524
Epoch: 43800, Error: 0.0014579787428094875
Epoch: 43900, Error: 0.0014721662792266399
Epoch: 44000, Error: 0.0014675520757737612
Epoch: 44100, Error: 0.0014417721804879462
Epoch: 44200, Error: 0.0014365195903774158
Epoch: 44300, Error: 0.001452348215928157
Epoch: 44400, Error: 0.001436317471142545
Epoch: 44500, Error: 0.0014235422683246826
Epoch: 44600, Error: 0.0014135048093588407
Epoch: 44700, Error: 0.0014363308123496238
Epoch: 44800, Error: 0.0014051131820608212
Epoch: 44900, Error: 0.001399070972698442
Epoch: 45000, Error: 0.0013923332920038154
Epoch: 45100, Error: 0.0013896929882744441
Epoch: 45200, Error: 0.0013900480231595987
Epoch: 45300, Error: 0.0013942332550251045
Epoch: 45400, Error: 0.0013841732453879433
Epoch: 45500, Error: 0.0013729003910030735
Epoch: 45600, Error: 0.001374194857999129
Epoch: 45700, Error: 0.0013719694877523583
Epoch: 45800, Error: 0.0014646927646642495
Epoch: 45900, Error: 0.0013571325316931524
Epoch: 46000, Error: 0.0013581960956358936
Epoch: 46100, Error: 0.001349689751945869
Epoch: 46200, Error: 0.0013505854365179148
Epoch: 46300, Error: 0.0013494791117379657
Epoch: 46400, Error: 0.0013418296395301455
Finished
Input Patterns
0.224 0.624 0.067 0.043 
0.11 0.502 0.051 0.043 
0.196 0.667 0.067 0.043 
0.055 0.584 0.067 0.082 
0.027 0.376 0.067 0.043 
0.306 0.71 0.086 0.043 
0.137 0.416 0.067 0.0 
0.416 0.831 0.035 0.043 
0.306 0.792 0.051 0.125 
0.388 0.749 0.118 0.082 
0.306 0.584 0.118 0.043 
0.082 0.667 0.0 0.043 
0.137 0.584 0.153 0.043 
0.196 0.584 0.102 0.125 
0.251 0.584 0.067 0.043 
0.137 0.459 0.102 0.043 
0.251 0.875 0.086 0.0 
0.165 0.459 0.086 0.043 
0.333 0.624 0.051 0.043 
0.027 0.416 0.051 0.043 
0.196 0.624 0.051 0.082 
0.027 0.502 0.051 0.043 
0.224 0.749 0.153 0.125 
0.224 0.749 0.102 0.043 
0.278 0.71 0.086 0.043 
0.165 0.416 0.067 0.043 
0.082 0.459 0.086 0.043 
0.306 0.792 0.118 0.125 
0.196 0.584 0.086 0.043 
0.165 0.459 0.086 0.0 
0.137 0.584 0.102 0.043 
0.0 0.416 0.016 0.0 
0.388 1.0 0.086 0.125 
0.224 0.624 0.067 0.082 
0.224 0.749 0.086 0.082 
0.224 0.71 0.086 0.125 
0.224 0.541 0.118 0.165 
0.196 0.416 0.102 0.043 
0.251 0.624 0.086 0.043 
0.11 0.502 0.102 0.043 
0.306 0.584 0.086 0.125 
0.333 0.918 0.067 0.043 
0.196 0.502 0.035 0.043 
0.165 0.667 0.067 0.0 
0.224 0.584 0.086 0.043 
0.055 0.125 0.051 0.082 
0.196 0.624 0.102 0.208 
0.137 0.416 0.067 0.082 
0.082 0.502 0.067 0.043 
0.196 0.541 0.067 0.043 
0.749 0.502 0.627 0.541 
0.722 0.459 0.663 0.584 
0.612 0.333 0.612 0.584 
0.557 0.541 0.627 0.624 
0.639 0.376 0.612 0.498 
0.196 0.0 0.424 0.376 
0.471 0.082 0.51 0.376 
0.361 0.376 0.439 0.498 
0.361 0.416 0.592 0.584 
0.529 0.082 0.592 0.584 
0.443 0.502 0.643 0.459 
0.557 0.208 0.663 0.584 
0.584 0.376 0.561 0.498 
0.694 0.333 0.643 0.541 
0.471 0.376 0.592 0.584 
0.333 0.169 0.475 0.416 
0.416 0.29 0.49 0.459 
0.306 0.416 0.592 0.584 
0.667 0.459 0.627 0.584 
0.361 0.416 0.525 0.498 
0.333 0.251 0.576 0.459 
0.416 0.251 0.51 0.459 
0.361 0.29 0.541 0.498 
0.388 0.376 0.541 0.498 
0.224 0.208 0.337 0.416 
0.584 0.502 0.592 0.584 
0.333 0.125 0.51 0.498 
0.388 0.333 0.592 0.498 
0.165 0.169 0.388 0.376 
0.251 0.29 0.49 0.541 
0.443 0.416 0.541 0.584 
0.498 0.376 0.627 0.541 
0.667 0.459 0.576 0.541 
0.416 0.29 0.525 0.376 
0.361 0.208 0.49 0.416 
0.498 0.333 0.51 0.498 
0.498 0.333 0.627 0.459 
0.639 0.416 0.576 0.541 
0.667 0.416 0.678 0.667 
0.388 0.251 0.424 0.376 
0.333 0.169 0.459 0.376 
0.471 0.29 0.694 0.624 
0.471 0.584 0.592 0.624 
0.557 0.125 0.576 0.498 
0.333 0.208 0.51 0.498 
0.498 0.416 0.612 0.541 
0.196 0.125 0.388 0.376 
0.388 0.416 0.541 0.459 
0.529 0.376 0.561 0.498 
0.388 0.333 0.525 0.498 
0.557 0.541 0.847 1.0 
0.776 0.416 0.831 0.831 
0.612 0.416 0.812 0.875 
0.165 0.208 0.592 0.667 
0.667 0.208 0.812 0.71 
0.612 0.502 0.694 0.792 
0.694 0.416 0.761 0.831 
0.416 0.333 0.694 0.957 
0.612 0.416 0.761 0.71 
0.945 0.251 1.0 0.918 
0.722 0.502 0.796 0.918 
0.945 0.333 0.965 0.792 
0.667 0.541 0.796 0.831 
0.529 0.333 0.643 0.71 
0.584 0.333 0.78 0.831 
0.863 0.333 0.863 0.749 
0.584 0.333 0.78 0.875 
0.498 0.251 0.78 0.541 
0.557 0.584 0.78 0.957 
0.471 0.416 0.643 0.71 
0.667 0.459 0.78 0.957 
0.416 0.29 0.694 0.749 
0.667 0.541 0.796 1.0 
0.557 0.208 0.678 0.749 
0.529 0.584 0.745 0.918 
0.416 0.29 0.694 0.749 
0.557 0.376 0.78 0.71 
0.918 0.416 0.949 0.831 
0.835 0.376 0.898 0.71 
0.804 0.667 0.863 1.0 
0.584 0.29 0.729 0.749 
0.388 0.208 0.678 0.792 
0.584 0.502 0.729 0.918 
0.945 0.749 0.965 0.875 
0.471 0.082 0.678 0.584 
0.361 0.333 0.663 0.792 
0.557 0.29 0.663 0.71 
0.804 0.502 0.847 0.71 
0.498 0.416 0.51 0.71 
0.804 0.416 0.812 0.624 
1.0 0.749 0.914 0.792 
0.557 0.333 0.694 0.584 
0.945 0.416 0.863 0.918 
0.584 0.459 0.761 0.71 
0.722 0.459 0.745 0.831 
0.722 0.459 0.694 0.918 
0.694 0.502 0.831 0.918 
0.667 0.416 0.714 0.918 
0.612 0.416 0.714 0.792 
0.443 0.416 0.694 0.71 
Teaching Patterns
1.0 0.0 0.0 
1.0 0.0 0.0 
1.0 0.0 0.0 
1.0 0.0 0.0 
1.0 0.0 0.0 
1.0 0.0 0.0 
1.0 0.0 0.0 
1.0 0.0 0.0 
1.0 0.0 0.0 
1.0 0.0 0.0 
1.0 0.0 0.0 
1.0 0.0 0.0 
1.0 0.0 0.0 
1.0 0.0 0.0 
1.0 0.0 0.0 
1.0 0.0 0.0 
1.0 0.0 0.0 
1.0 0.0 0.0 
1.0 0.0 0.0 
1.0 0.0 0.0 
1.0 0.0 0.0 
1.0 0.0 0.0 
1.0 0.0 0.0 
1.0 0.0 0.0 
1.0 0.0 0.0 
1.0 0.0 0.0 
1.0 0.0 0.0 
1.0 0.0 0.0 
1.0 0.0 0.0 
1.0 0.0 0.0 
1.0 0.0 0.0 
1.0 0.0 0.0 
1.0 0.0 0.0 
1.0 0.0 0.0 
1.0 0.0 0.0 
1.0 0.0 0.0 
1.0 0.0 0.0 
1.0 0.0 0.0 
1.0 0.0 0.0 
1.0 0.0 0.0 
1.0 0.0 0.0 
1.0 0.0 0.0 
1.0 0.0 0.0 
1.0 0.0 0.0 
1.0 0.0 0.0 
1.0 0.0 0.0 
1.0 0.0 0.0 
1.0 0.0 0.0 
1.0 0.0 0.0 
1.0 0.0 0.0 
0.0 1.0 0.0 
0.0 1.0 0.0 
0.0 1.0 0.0 
0.0 1.0 0.0 
0.0 1.0 0.0 
0.0 1.0 0.0 
0.0 1.0 0.0 
0.0 1.0 0.0 
0.0 1.0 0.0 
0.0 1.0 0.0 
0.0 1.0 0.0 
0.0 1.0 0.0 
0.0 1.0 0.0 
0.0 1.0 0.0 
0.0 1.0 0.0 
0.0 1.0 0.0 
0.0 1.0 0.0 
0.0 1.0 0.0 
0.0 1.0 0.0 
0.0 1.0 0.0 
0.0 1.0 0.0 
0.0 1.0 0.0 
0.0 1.0 0.0 
0.0 1.0 0.0 
0.0 1.0 0.0 
0.0 1.0 0.0 
0.0 1.0 0.0 
0.0 1.0 0.0 
0.0 1.0 0.0 
0.0 1.0 0.0 
0.0 1.0 0.0 
0.0 1.0 0.0 
0.0 1.0 0.0 
0.0 1.0 0.0 
0.0 1.0 0.0 
0.0 1.0 0.0 
0.0 1.0 0.0 
0.0 1.0 0.0 
0.0 1.0 0.0 
0.0 1.0 0.0 
0.0 1.0 0.0 
0.0 1.0 0.0 
0.0 1.0 0.0 
0.0 1.0 0.0 
0.0 1.0 0.0 
0.0 1.0 0.0 
0.0 1.0 0.0 
0.0 1.0 0.0 
0.0 1.0 0.0 
0.0 1.0 0.0 
0.0 0.0 1.0 
0.0 0.0 1.0 
0.0 0.0 1.0 
0.0 0.0 1.0 
0.0 0.0 1.0 
0.0 0.0 1.0 
0.0 0.0 1.0 
0.0 0.0 1.0 
0.0 0.0 1.0 
0.0 0.0 1.0 
0.0 0.0 1.0 
0.0 0.0 1.0 
0.0 0.0 1.0 
0.0 0.0 1.0 
0.0 0.0 1.0 
0.0 0.0 1.0 
0.0 0.0 1.0 
0.0 0.0 1.0 
0.0 0.0 1.0 
0.0 0.0 1.0 
0.0 0.0 1.0 
0.0 0.0 1.0 
0.0 0.0 1.0 
0.0 0.0 1.0 
0.0 0.0 1.0 
0.0 0.0 1.0 
0.0 0.0 1.0 
0.0 0.0 1.0 
0.0 0.0 1.0 
0.0 0.0 1.0 
0.0 0.0 1.0 
0.0 0.0 1.0 
0.0 0.0 1.0 
0.0 0.0 1.0 
0.0 0.0 1.0 
0.0 0.0 1.0 
0.0 0.0 1.0 
0.0 0.0 1.0 
0.0 0.0 1.0 
0.0 0.0 1.0 
0.0 0.0 1.0 
0.0 0.0 1.0 
0.0 0.0 1.0 
0.0 0.0 1.0 
0.0 0.0 1.0 
0.0 0.0 1.0 
0.0 0.0 1.0 
0.0 0.0 1.0 
0.0 0.0 1.0 
0.0 0.0 1.0 
Learning : 0.05
Momentum : 0.8999999761581421
Epoch: 100, Error: 0.022825065022337773
Epoch: 200, Error: 0.016685985645325575
Epoch: 300, Error: 0.015011114843048859
Epoch: 400, Error: 0.014154681353361105
Epoch: 500, Error: 0.013627524300539755
Epoch: 600, Error: 0.013331754912445001
Epoch: 700, Error: 0.01345937864292697
Epoch: 800, Error: 0.013050534899558604
Epoch: 900, Error: 0.012793611176226767
Epoch: 1000, Error: 0.012712531181530764
Epoch: 1100, Error: 0.0127106045869666
Epoch: 1200, Error: 0.012556915058476774
Epoch: 1300, Error: 0.012507174081379477
Epoch: 1400, Error: 0.012460212303957635
Epoch: 1500, Error: 0.012495898946900293
Epoch: 1600, Error: 0.012436703055834098
Epoch: 1700, Error: 0.012420336721347439
Epoch: 1800, Error: 0.012409917021279101
Epoch: 1900, Error: 0.012434167860551338
Epoch: 2000, Error: 0.01241495294026191
Epoch: 2100, Error: 0.012394536983287257
Epoch: 2200, Error: 0.012368193563750208
Epoch: 2300, Error: 0.012412337541121492
Epoch: 2400, Error: 0.012367220807771232
Epoch: 2500, Error: 0.012358220875820631
Epoch: 2600, Error: 0.012355115834790365
Epoch: 2700, Error: 0.01238047438910654
Epoch: 2800, Error: 0.012339762728847375
Epoch: 2900, Error: 0.012332486873354243
Epoch: 3000, Error: 0.012370526356194438
Epoch: 3100, Error: 0.012372585680148238
Epoch: 3200, Error: 0.012310239331512152
Epoch: 3300, Error: 0.012405170657441341
Epoch: 3400, Error: 0.01227801711227084
Epoch: 3500, Error: 0.012289039364517064
Epoch: 3600, Error: 0.01238900747855242
Epoch: 3700, Error: 0.012320506307308974
Epoch: 3800, Error: 0.012337884491364123
Epoch: 3900, Error: 0.012371595603814378
Epoch: 4000, Error: 0.012307664737253587
Epoch: 4100, Error: 0.012332199078722227
Epoch: 4200, Error: 0.012440732251352064
Epoch: 4300, Error: 0.012299182000094638
Epoch: 4400, Error: 0.012262520120146279
Epoch: 4500, Error: 0.012382337942367457
Epoch: 4600, Error: 0.012487033086942895
Epoch: 4700, Error: 0.012348626426610146
Epoch: 4800, Error: 0.012393479584878362
Epoch: 4900, Error: 0.01242721018658626
Epoch: 5000, Error: 0.012387136406848957
Epoch: 5100, Error: 0.012399922860609805
Epoch: 5200, Error: 0.012453302116628614
Epoch: 5300, Error: 0.012485793801530998
Epoch: 5400, Error: 0.012444048865023816
Epoch: 5500, Error: 0.012413752369703402
Epoch: 5600, Error: 0.012483136688364121
Epoch: 5700, Error: 0.012489514449937381
Epoch: 5800, Error: 0.01250607195174534
Epoch: 5900, Error: 0.012573782447873215
Epoch: 6000, Error: 0.012427440051247669
Epoch: 6100, Error: 0.012389882144611812
Epoch: 6200, Error: 0.012364694361387896
Epoch: 6300, Error: 0.012359830040783684
Epoch: 6400, Error: 0.012340541633311188
Epoch: 6500, Error: 0.012320103228194679
Epoch: 6600, Error: 0.012252821036129787
Epoch: 6700, Error: 0.012237964287526012
Epoch: 6800, Error: 0.01228703969743956
Epoch: 6900, Error: 0.012165846858827704
Epoch: 7000, Error: 0.012394221082539347
Epoch: 7100, Error: 0.012184689457548756
Epoch: 7200, Error: 0.012231590679377338
Epoch: 7300, Error: 0.01217582188375663
Epoch: 7400, Error: 0.012152592267323716
Epoch: 7500, Error: 0.012059078691949762
Epoch: 7600, Error: 0.01205717056158981
Epoch: 7700, Error: 0.011986725955631272
Epoch: 7800, Error: 0.01210798816677764
Epoch: 7900, Error: 0.01198555053014448
Epoch: 8000, Error: 0.011980797033050822
Epoch: 8100, Error: 0.012104553222199084
Epoch: 8200, Error: 0.011897640540186638
Epoch: 8300, Error: 0.011919265380335324
Epoch: 8400, Error: 0.01180918159443375
Epoch: 8500, Error: 0.011689126252306127
Epoch: 8600, Error: 0.011715313116268842
Epoch: 8700, Error: 0.011642578726169629
Epoch: 8800, Error: 0.011671365004702195
Epoch: 8900, Error: 0.011502840353678198
Epoch: 9000, Error: 0.011406243383067637
Epoch: 9100, Error: 0.011374592514868153
Epoch: 9200, Error: 0.011324274627793767
Epoch: 9300, Error: 0.011303278389967628
Epoch: 9400, Error: 0.011204453542006063
Epoch: 9500, Error: 0.011206921018008973
Epoch: 9600, Error: 0.011190972621163338
Epoch: 9700, Error: 0.011120000242477331
Epoch: 9800, Error: 0.010964725572383465
Epoch: 9900, Error: 0.010913546345393918
Epoch: 10000, Error: 0.010934962504970556
Epoch: 10100, Error: 0.011106423228042131
Epoch: 10200, Error: 0.010627030312784237
Epoch: 10300, Error: 0.010521822647997331
Epoch: 10400, Error: 0.01043489579521005
Epoch: 10500, Error: 0.010416437383457653
Epoch: 10600, Error: 0.010386980688672581
Epoch: 10700, Error: 0.010241825179722625
Epoch: 10800, Error: 0.010101004168837106
Epoch: 10900, Error: 0.0100556210306511
Epoch: 11000, Error: 0.0098817610622823
Epoch: 11100, Error: 0.009760359225663555
Epoch: 11200, Error: 0.009762730936661738
Epoch: 11300, Error: 0.009636835907844915
Epoch: 11400, Error: 0.009458248598062017
Epoch: 11500, Error: 0.00936050454170105
Epoch: 11600, Error: 0.009274024521347698
Epoch: 11700, Error: 0.00915379672607393
Epoch: 11800, Error: 0.009066178384260376
Epoch: 11900, Error: 0.008985577113380088
Epoch: 12000, Error: 0.008848948408333458
Epoch: 12100, Error: 0.008752100343665933
Epoch: 12200, Error: 0.008653492421644749
Epoch: 12300, Error: 0.008554992297332146
Epoch: 12400, Error: 0.00842470046805324
Epoch: 12500, Error: 0.008370900336642768
Epoch: 12600, Error: 0.008234183496446572
Epoch: 12700, Error: 0.008125990541007
Epoch: 12800, Error: 0.008022246550700005
Epoch: 12900, Error: 0.00791337901462446
Epoch: 13000, Error: 0.007809378736504442
Epoch: 13100, Error: 0.007722479799615588
Epoch: 13200, Error: 0.007677434906621682
Epoch: 13300, Error: 0.0075931083575202
Epoch: 13400, Error: 0.0075128306732523825
Epoch: 13500, Error: 0.007483993848432704
Epoch: 13600, Error: 0.007354311726581718
Epoch: 13700, Error: 0.0072987296813375934
Epoch: 13800, Error: 0.007198094136174073
Epoch: 13900, Error: 0.0070772079689001245
Epoch: 14000, Error: 0.007004181728746046
Epoch: 14100, Error: 0.006983785456568044
Epoch: 14200, Error: 0.006867850663893443
Epoch: 14300, Error: 0.00682335960746351
Epoch: 14400, Error: 0.006731147405662891
Epoch: 14500, Error: 0.006661487981153393
Epoch: 14600, Error: 0.006588926084853056
Epoch: 14700, Error: 0.006537954024289757
Epoch: 14800, Error: 0.006499106455529744
Epoch: 14900, Error: 0.006448508901024296
Epoch: 15000, Error: 0.006408105875672569
Epoch: 15100, Error: 0.006407652535684389
Epoch: 15200, Error: 0.006356455552116199
Epoch: 15300, Error: 0.0062780975889279896
Epoch: 15400, Error: 0.006241957381655405
Epoch: 15500, Error: 0.006230041211566839
Epoch: 15600, Error: 0.006185137655318787
Epoch: 15700, Error: 0.00615912524140354
Epoch: 15800, Error: 0.006140102064678101
Epoch: 15900, Error: 0.006154196963497263
Epoch: 16000, Error: 0.006101258177126116
Epoch: 16100, Error: 0.006078929623580121
Epoch: 16200, Error: 0.006030419325123802
Epoch: 16300, Error: 0.006010485686515684
Epoch: 16400, Error: 0.005989928093706528
Epoch: 16500, Error: 0.005976784415728124
Epoch: 16600, Error: 0.005954677418763442
Epoch: 16700, Error: 0.00598039959654762
Epoch: 16800, Error: 0.005893007427187611
Epoch: 16900, Error: 0.005885144567123006
Epoch: 17000, Error: 0.005845677776554177
Epoch: 17100, Error: 0.005833099574003773
Epoch: 17200, Error: 0.005807300588819612
Epoch: 17300, Error: 0.00579254997997209
Epoch: 17400, Error: 0.005779809172862681
Epoch: 17500, Error: 0.0057431142908659525
Epoch: 17600, Error: 0.005719286376836911
Epoch: 17700, Error: 0.0057304969939473835
Epoch: 17800, Error: 0.005676635626682663
Epoch: 17900, Error: 0.0056595079320304895
Epoch: 18000, Error: 0.005631292811387523
Epoch: 18100, Error: 0.005616409416743909
Epoch: 18200, Error: 0.005583235366423293
Epoch: 18300, Error: 0.005565489426363642
Epoch: 18400, Error: 0.005562864101823141
Epoch: 18500, Error: 0.005537187627821212
Epoch: 18600, Error: 0.005514648936385296
Epoch: 18700, Error: 0.005492598937975603
Epoch: 18800, Error: 0.005505426804314426
Epoch: 18900, Error: 0.005470508974178202
Epoch: 19000, Error: 0.005445197730932316
Epoch: 19100, Error: 0.00543404019671637
Epoch: 19200, Error: 0.005426228260611447
Epoch: 19300, Error: 0.005441448326296316
Epoch: 19400, Error: 0.0054543944743376364
Epoch: 19500, Error: 0.005432673799836801
Epoch: 19600, Error: 0.005441660597476841
Epoch: 19700, Error: 0.005442903729089395
Epoch: 19800, Error: 0.005454932000421058
Epoch: 19900, Error: 0.005456484134940033
Epoch: 20000, Error: 0.005435778328241948
Epoch: 20100, Error: 0.005410481070448898
Epoch: 20200, Error: 0.005393798802493108
Epoch: 20300, Error: 0.00537692959045179
Epoch: 20400, Error: 0.005366879085656425
Epoch: 20500, Error: 0.005355070521760138
Epoch: 20600, Error: 0.005334633178502648
Epoch: 20700, Error: 0.005350264630375201
Epoch: 20800, Error: 0.005313232930718784
Epoch: 20900, Error: 0.005337793022314977
Epoch: 21000, Error: 0.0053063622359305175
Epoch: 21100, Error: 0.005309235283388008
Epoch: 21200, Error: 0.005312589925865988
Epoch: 21300, Error: 0.005302020447104148
Epoch: 21400, Error: 0.0052916392814523665
Epoch: 21500, Error: 0.005235560311461212
Epoch: 21600, Error: 0.005237216088927577
Epoch: 21700, Error: 0.0051920812281265214
Epoch: 21800, Error: 0.005161488739178683
Epoch: 21900, Error: 0.0051322899412462614
Epoch: 22000, Error: 0.005125837379181989
Epoch: 22100, Error: 0.005059253017239736
Epoch: 22200, Error: 0.005006241933829214
Epoch: 22300, Error: 0.004970733920173285
Epoch: 22400, Error: 0.004945018623638401
Epoch: 22500, Error: 0.0049489217261753735
Epoch: 22600, Error: 0.0049625264124382685
Epoch: 22700, Error: 0.004862736330868308
Epoch: 22800, Error: 0.00484719516160347
Epoch: 22900, Error: 0.004872983593170557
Epoch: 23000, Error: 0.004859855921921087
Epoch: 23100, Error: 0.00480912028368269
Epoch: 23200, Error: 0.0047434964192485975
Epoch: 23300, Error: 0.004720528362753888
Epoch: 23400, Error: 0.004651013853667126
Epoch: 23500, Error: 0.004637939840749493
Epoch: 23600, Error: 0.004643806850131611
Epoch: 23700, Error: 0.004571354403586325
Epoch: 23800, Error: 0.004704119525414004
Epoch: 23900, Error: 0.004514361816741598
Epoch: 24000, Error: 0.004511715310994256
Epoch: 24100, Error: 0.004455868009866037
Epoch: 24200, Error: 0.004409152822108805
Epoch: 24300, Error: 0.004486895803448301
Epoch: 24400, Error: 0.004377745329929844
Epoch: 24500, Error: 0.004330057250249677
Epoch: 24600, Error: 0.0043132911448772165
Epoch: 24700, Error: 0.004238488503495223
Epoch: 24800, Error: 0.004204691213207765
Epoch: 24900, Error: 0.00416821739431299
Epoch: 25000, Error: 0.004149349966557654
Epoch: 25100, Error: 0.004113577170584285
Epoch: 25200, Error: 0.004056033228643071
Epoch: 25300, Error: 0.00399228552329456
Epoch: 25400, Error: 0.004010750896812004
Epoch: 25500, Error: 0.003956160165862651
Epoch: 25600, Error: 0.003886733528831093
Epoch: 25700, Error: 0.003927562301786322
Epoch: 25800, Error: 0.0038232222366132215
Epoch: 25900, Error: 0.00381155997094184
Epoch: 26000, Error: 0.0037715593648390377
Epoch: 26100, Error: 0.0037506417356135634
Epoch: 26200, Error: 0.0037657746165708846
Epoch: 26300, Error: 0.0037097968435165526
Epoch: 26400, Error: 0.003652530053653259
Epoch: 26500, Error: 0.003635287643994014
Epoch: 26600, Error: 0.0036537608719587914
Epoch: 26700, Error: 0.003567207938648047
Epoch: 26800, Error: 0.003659519510120568
Epoch: 26900, Error: 0.003597728794328417
Epoch: 27000, Error: 0.0034839019620320376
Epoch: 27100, Error: 0.0036280818312975096
Epoch: 27200, Error: 0.0034894188585918376
Epoch: 27300, Error: 0.0033949767890840655
Epoch: 27400, Error: 0.003351284982803863
Epoch: 27500, Error: 0.003381697628170525
Epoch: 27600, Error: 0.0033537321733484865
Epoch: 27700, Error: 0.0033293230536223153
Epoch: 27800, Error: 0.003260078202793844
Epoch: 27900, Error: 0.0032317341635770087
Epoch: 28000, Error: 0.003269295330717911
Epoch: 28100, Error: 0.003176079440247413
Epoch: 28200, Error: 0.0032755462621072893
Epoch: 28300, Error: 0.0031873975170892163
Epoch: 28400, Error: 0.003126404238468987
Epoch: 28500, Error: 0.003107284413530259
Epoch: 28600, Error: 0.003081736749181505
Epoch: 28700, Error: 0.0030702104862593963
Epoch: 28800, Error: 0.0031192030505148042
Epoch: 28900, Error: 0.0029898720548570796
Epoch: 29000, Error: 0.0029658976589065082
Epoch: 29100, Error: 0.0029565544396614727
Epoch: 29200, Error: 0.002925057958309587
Epoch: 29300, Error: 0.0028924772519769294
Epoch: 29400, Error: 0.002958124262054121
Epoch: 29500, Error: 0.0028412966991284345
Epoch: 29600, Error: 0.0028170346870906764
Epoch: 29700, Error: 0.0028215099994250495
Epoch: 29800, Error: 0.002777811647482844
Epoch: 29900, Error: 0.002735526835444008
Epoch: 30000, Error: 0.0027216858120761743
Epoch: 30100, Error: 0.0026969371759216383
Epoch: 30200, Error: 0.0026866123535048466
Epoch: 30300, Error: 0.002776210178384582
Epoch: 30400, Error: 0.0026446948132689296
Epoch: 30500, Error: 0.0026142853031277504
Epoch: 30600, Error: 0.0028060326617391266
Epoch: 30700, Error: 0.0026257366422768
Epoch: 30800, Error: 0.0025499832741359076
Epoch: 30900, Error: 0.002699521833294389
Epoch: 31000, Error: 0.002572268902500376
Epoch: 31100, Error: 0.0025007039255334007
Epoch: 31200, Error: 0.0024570313215683814
Epoch: 31300, Error: 0.0024663411095698228
Epoch: 31400, Error: 0.002433063727246048
Epoch: 31500, Error: 0.0024239166323993225
Epoch: 31600, Error: 0.002380884923275617
Epoch: 31700, Error: 0.00240679766420113
Epoch: 31800, Error: 0.0024279328433085127
Epoch: 31900, Error: 0.0023267405451798903
Epoch: 32000, Error: 0.002359672964450252
Epoch: 32100, Error: 0.00235612225293292
Epoch: 32200, Error: 0.0022801447407030232
Epoch: 32300, Error: 0.0023712225965786984
Epoch: 32400, Error: 0.002240382422828397
Epoch: 32500, Error: 0.002445309885984279
Epoch: 32600, Error: 0.002233615949889656
Epoch: 32700, Error: 0.0021909630695243864
Epoch: 32800, Error: 0.002349576235674904
Epoch: 32900, Error: 0.00218133410196625
Epoch: 33000, Error: 0.002161959853879167
Epoch: 33100, Error: 0.0021221254687310356
Epoch: 33200, Error: 0.0021314219892197574
Epoch: 33300, Error: 0.0021250896960890294
Epoch: 33400, Error: 0.002060536190107965
Epoch: 33500, Error: 0.002083790030714091
Epoch: 33600, Error: 0.00202505367759223
Epoch: 33700, Error: 0.0020914754636585323
Epoch: 33800, Error: 0.0020788780274675032
Epoch: 33900, Error: 0.0019935694893946304
Epoch: 34000, Error: 0.001989984632238824
Epoch: 34100, Error: 0.002565557138871238
Epoch: 34200, Error: 0.0019467620403720834
Epoch: 34300, Error: 0.0019319016664521478
Epoch: 34400, Error: 0.0019914929906293096
Epoch: 34500, Error: 0.0018941747819537875
Epoch: 34600, Error: 0.0018825123431572119
Epoch: 34700, Error: 0.001904758192528734
Epoch: 34800, Error: 0.0018786374278537744
Epoch: 34900, Error: 0.0018392608250340442
Epoch: 35000, Error: 0.0019571051836596034
Epoch: 35100, Error: 0.0018444278266361166
Epoch: 35200, Error: 0.0018012724063300944
Epoch: 35300, Error: 0.0018516268802347211
Epoch: 35400, Error: 0.0018347843453772078
Epoch: 35500, Error: 0.0017534981457896842
Epoch: 35600, Error: 0.001754303756023643
Epoch: 35700, Error: 0.0017588492845169205
Epoch: 35800, Error: 0.0017280395611041315
Epoch: 35900, Error: 0.0018053551035792435
Epoch: 36000, Error: 0.001703911736810049
Epoch: 36100, Error: 0.001707302132960334
Epoch: 36200, Error: 0.0017131749454097922
Epoch: 36300, Error: 0.001649765116720356
Epoch: 36400, Error: 0.0016612789671880256
Epoch: 36500, Error: 0.0016698269803663973
Epoch: 36600, Error: 0.0016312766532367178
Epoch: 36700, Error: 0.0016397156600798364
Epoch: 36800, Error: 0.0016682625046982513
Epoch: 36900, Error: 0.0016374321294546238
Epoch: 37000, Error: 0.0017014508718577398
Epoch: 37100, Error: 0.0015713702322139602
Epoch: 37200, Error: 0.0015781298699760655
Epoch: 37300, Error: 0.0015507575798236776
Epoch: 37400, Error: 0.0015445139938476135
Epoch: 37500, Error: 0.0015794734413003813
Epoch: 37600, Error: 0.0015285671102781406
Epoch: 37700, Error: 0.001506129003347494
Epoch: 37800, Error: 0.001497511304202347
Epoch: 37900, Error: 0.0015157401149367825
Epoch: 38000, Error: 0.0014872684415660397
Epoch: 38100, Error: 0.0014706688477510003
Epoch: 38200, Error: 0.0014913024308545262
Epoch: 38300, Error: 0.0014796000993742605
Epoch: 38400, Error: 0.0014835630260673712
Epoch: 38500, Error: 0.00143602075397582
Epoch: 38600, Error: 0.0014263113653782736
Epoch: 38700, Error: 0.0014249430981491025
Epoch: 38800, Error: 0.0014155783589867212
Epoch: 38900, Error: 0.0014853196595359984
Epoch: 39000, Error: 0.0014357143253065363
Epoch: 39100, Error: 0.0014593667461714193
Epoch: 39200, Error: 0.0013904984994962406
Epoch: 39300, Error: 0.0014343310973497525
Epoch: 39400, Error: 0.0014061387000672905
Epoch: 39500, Error: 0.001408168623204768
Epoch: 39600, Error: 0.0013642127138071948
Epoch: 39700, Error: 0.0013592515277111048
Epoch: 39800, Error: 0.0013742415802201772
Epoch: 39900, Error: 0.0013535224889283045
Epoch: 40000, Error: 0.001381150273222699
Epoch: 40100, Error: 0.0013765772827991397
Epoch: 40200, Error: 0.0013352065936760237
Epoch: 40300, Error: 0.0013307416449040278
Epoch: 40400, Error: 0.0013349866413915972
Epoch: 40500, Error: 0.0013050972256114977
Epoch: 40600, Error: 0.001367279702088134
Epoch: 40700, Error: 0.0013100263414564228
Epoch: 40800, Error: 0.001342176043289398
Epoch: 40900, Error: 0.0013057256686616738
Epoch: 41000, Error: 0.0012838968141764783
Epoch: 41100, Error: 0.0012985988525372055
Epoch: 41200, Error: 0.0013136786907582533
Epoch: 41300, Error: 0.001280775996212766
Epoch: 41400, Error: 0.0012749949417881325
Epoch: 41500, Error: 0.0012495559374373106
Epoch: 41600, Error: 0.0012708819241589646
Epoch: 41700, Error: 0.0012615197400186863
Epoch: 41800, Error: 0.001234564031720023
Epoch: 41900, Error: 0.0012382908640144361
Epoch: 42000, Error: 0.0012257601086773796
Epoch: 42100, Error: 0.0012258996781547478
Epoch: 42200, Error: 0.001229405751470014
Epoch: 42300, Error: 0.0012075710620160403
Epoch: 42400, Error: 0.0012100342199209346
Epoch: 42500, Error: 0.0012137758025265479
Epoch: 42600, Error: 0.0012457924511483371
Epoch: 42700, Error: 0.00119215286990577
Epoch: 42800, Error: 0.0011871310481870751
Epoch: 42900, Error: 0.0012136607241629985
Epoch: 43000, Error: 0.001174089183685377
Epoch: 43100, Error: 0.0011665753481555888
Epoch: 43200, Error: 0.001155815964762562
Epoch: 43300, Error: 0.001198742833949524
Epoch: 43400, Error: 0.00115115086213381
Epoch: 43500, Error: 0.0011420583352620794
Epoch: 43600, Error: 0.001137495726351038
Epoch: 43700, Error: 0.0011427648085311328
Epoch: 43800, Error: 0.0011291292664272804
Epoch: 43900, Error: 0.0011257443502264487
Epoch: 44000, Error: 0.0011489625526715842
Epoch: 44100, Error: 0.0011515484682348594
Epoch: 44200, Error: 0.00112031307740367
Epoch: 44300, Error: 0.0011270868373037847
Epoch: 44400, Error: 0.0011177700907998096
Epoch: 44500, Error: 0.0011106777579491327
Epoch: 44600, Error: 0.0011376852559308913
Epoch: 44700, Error: 0.0010973264484363985
Epoch: 44800, Error: 0.0010886901760109443
Epoch: 44900, Error: 0.0010970441638063857
Epoch: 45000, Error: 0.00107498016014433
Epoch: 45100, Error: 0.0010757531606469175
Epoch: 45200, Error: 0.001071685280287112
Epoch: 45300, Error: 0.0010610897033584653
Epoch: 45400, Error: 0.00106612517990028
Epoch: 45500, Error: 0.001069017658671463
Epoch: 45600, Error: 0.0010550338249921787
Epoch: 45700, Error: 0.0010617919804639937
Epoch: 45800, Error: 0.0010470017907756811
Epoch: 45900, Error: 0.0010453794087365578
Epoch: 46000, Error: 0.0010413473232477309
Epoch: 46100, Error: 0.0010376455085791911
Epoch: 46200, Error: 0.0010483220691975773
Epoch: 46300, Error: 0.001040207698585857
Epoch: 46400, Error: 0.0010250714266822332
Epoch: 46500, Error: 0.001022581841391063
Epoch: 46600, Error: 0.0010190855917094404
Epoch: 46700, Error: 0.001023171013030366
Epoch: 46800, Error: 0.001019047254259674
Epoch: 46900, Error: 0.0010184361802801495
Finished
