Input Patterns
0.224 0.624 0.067 0.043 
0.11 0.502 0.051 0.043 
0.196 0.667 0.067 0.043 
0.055 0.584 0.067 0.082 
0.027 0.376 0.067 0.043 
0.306 0.71 0.086 0.043 
0.137 0.416 0.067 0.0 
0.416 0.831 0.035 0.043 
0.306 0.792 0.051 0.125 
0.388 0.749 0.118 0.082 
0.306 0.584 0.118 0.043 
0.082 0.667 0.0 0.043 
0.137 0.584 0.153 0.043 
0.196 0.584 0.102 0.125 
0.251 0.584 0.067 0.043 
0.137 0.459 0.102 0.043 
0.251 0.875 0.086 0.0 
0.165 0.459 0.086 0.043 
0.333 0.624 0.051 0.043 
0.027 0.416 0.051 0.043 
0.196 0.624 0.051 0.082 
0.027 0.502 0.051 0.043 
0.224 0.749 0.153 0.125 
0.224 0.749 0.102 0.043 
0.278 0.71 0.086 0.043 
0.165 0.416 0.067 0.043 
0.082 0.459 0.086 0.043 
0.306 0.792 0.118 0.125 
0.196 0.584 0.086 0.043 
0.165 0.459 0.086 0.0 
0.137 0.584 0.102 0.043 
0.0 0.416 0.016 0.0 
0.388 1.0 0.086 0.125 
0.224 0.624 0.067 0.082 
0.224 0.749 0.086 0.082 
0.224 0.71 0.086 0.125 
0.224 0.541 0.118 0.165 
0.196 0.416 0.102 0.043 
0.251 0.624 0.086 0.043 
0.11 0.502 0.102 0.043 
0.306 0.584 0.086 0.125 
0.333 0.918 0.067 0.043 
0.196 0.502 0.035 0.043 
0.165 0.667 0.067 0.0 
0.224 0.584 0.086 0.043 
0.055 0.125 0.051 0.082 
0.196 0.624 0.102 0.208 
0.137 0.416 0.067 0.082 
0.082 0.502 0.067 0.043 
0.196 0.541 0.067 0.043 
0.749 0.502 0.627 0.541 
0.722 0.459 0.663 0.584 
0.612 0.333 0.612 0.584 
0.557 0.541 0.627 0.624 
0.639 0.376 0.612 0.498 
0.196 0.0 0.424 0.376 
0.471 0.082 0.51 0.376 
0.361 0.376 0.439 0.498 
0.361 0.416 0.592 0.584 
0.529 0.082 0.592 0.584 
0.443 0.502 0.643 0.459 
0.557 0.208 0.663 0.584 
0.584 0.376 0.561 0.498 
0.694 0.333 0.643 0.541 
0.471 0.376 0.592 0.584 
0.333 0.169 0.475 0.416 
0.416 0.29 0.49 0.459 
0.306 0.416 0.592 0.584 
0.667 0.459 0.627 0.584 
0.361 0.416 0.525 0.498 
0.333 0.251 0.576 0.459 
0.416 0.251 0.51 0.459 
0.361 0.29 0.541 0.498 
0.388 0.376 0.541 0.498 
0.224 0.208 0.337 0.416 
0.584 0.502 0.592 0.584 
0.333 0.125 0.51 0.498 
0.388 0.333 0.592 0.498 
0.165 0.169 0.388 0.376 
0.251 0.29 0.49 0.541 
0.443 0.416 0.541 0.584 
0.498 0.376 0.627 0.541 
0.667 0.459 0.576 0.541 
0.416 0.29 0.525 0.376 
0.361 0.208 0.49 0.416 
0.498 0.333 0.51 0.498 
0.498 0.333 0.627 0.459 
0.639 0.416 0.576 0.541 
0.667 0.416 0.678 0.667 
0.388 0.251 0.424 0.376 
0.333 0.169 0.459 0.376 
0.471 0.29 0.694 0.624 
0.471 0.584 0.592 0.624 
0.557 0.125 0.576 0.498 
0.333 0.208 0.51 0.498 
0.498 0.416 0.612 0.541 
0.196 0.125 0.388 0.376 
0.388 0.416 0.541 0.459 
0.529 0.376 0.561 0.498 
0.388 0.333 0.525 0.498 
0.557 0.541 0.847 1.0 
0.776 0.416 0.831 0.831 
0.612 0.416 0.812 0.875 
0.165 0.208 0.592 0.667 
0.667 0.208 0.812 0.71 
0.612 0.502 0.694 0.792 
0.694 0.416 0.761 0.831 
0.416 0.333 0.694 0.957 
0.612 0.416 0.761 0.71 
0.945 0.251 1.0 0.918 
0.722 0.502 0.796 0.918 
0.945 0.333 0.965 0.792 
0.667 0.541 0.796 0.831 
0.529 0.333 0.643 0.71 
0.584 0.333 0.78 0.831 
0.863 0.333 0.863 0.749 
0.584 0.333 0.78 0.875 
0.498 0.251 0.78 0.541 
0.557 0.584 0.78 0.957 
0.471 0.416 0.643 0.71 
0.667 0.459 0.78 0.957 
0.416 0.29 0.694 0.749 
0.667 0.541 0.796 1.0 
0.557 0.208 0.678 0.749 
0.529 0.584 0.745 0.918 
0.416 0.29 0.694 0.749 
0.557 0.376 0.78 0.71 
0.918 0.416 0.949 0.831 
0.835 0.376 0.898 0.71 
0.804 0.667 0.863 1.0 
0.584 0.29 0.729 0.749 
0.388 0.208 0.678 0.792 
0.584 0.502 0.729 0.918 
0.945 0.749 0.965 0.875 
0.471 0.082 0.678 0.584 
0.361 0.333 0.663 0.792 
0.557 0.29 0.663 0.71 
0.804 0.502 0.847 0.71 
0.498 0.416 0.51 0.71 
0.804 0.416 0.812 0.624 
1.0 0.749 0.914 0.792 
0.557 0.333 0.694 0.584 
0.945 0.416 0.863 0.918 
0.584 0.459 0.761 0.71 
0.722 0.459 0.745 0.831 
0.722 0.459 0.694 0.918 
0.694 0.502 0.831 0.918 
0.667 0.416 0.714 0.918 
0.612 0.416 0.714 0.792 
0.443 0.416 0.694 0.71 
Teaching Patterns
1.0 0.0 0.0 
1.0 0.0 0.0 
1.0 0.0 0.0 
1.0 0.0 0.0 
1.0 0.0 0.0 
1.0 0.0 0.0 
1.0 0.0 0.0 
1.0 0.0 0.0 
1.0 0.0 0.0 
1.0 0.0 0.0 
1.0 0.0 0.0 
1.0 0.0 0.0 
1.0 0.0 0.0 
1.0 0.0 0.0 
1.0 0.0 0.0 
1.0 0.0 0.0 
1.0 0.0 0.0 
1.0 0.0 0.0 
1.0 0.0 0.0 
1.0 0.0 0.0 
1.0 0.0 0.0 
1.0 0.0 0.0 
1.0 0.0 0.0 
1.0 0.0 0.0 
1.0 0.0 0.0 
1.0 0.0 0.0 
1.0 0.0 0.0 
1.0 0.0 0.0 
1.0 0.0 0.0 
1.0 0.0 0.0 
1.0 0.0 0.0 
1.0 0.0 0.0 
1.0 0.0 0.0 
1.0 0.0 0.0 
1.0 0.0 0.0 
1.0 0.0 0.0 
1.0 0.0 0.0 
1.0 0.0 0.0 
1.0 0.0 0.0 
1.0 0.0 0.0 
1.0 0.0 0.0 
1.0 0.0 0.0 
1.0 0.0 0.0 
1.0 0.0 0.0 
1.0 0.0 0.0 
1.0 0.0 0.0 
1.0 0.0 0.0 
1.0 0.0 0.0 
1.0 0.0 0.0 
1.0 0.0 0.0 
0.0 1.0 0.0 
0.0 1.0 0.0 
0.0 1.0 0.0 
0.0 1.0 0.0 
0.0 1.0 0.0 
0.0 1.0 0.0 
0.0 1.0 0.0 
0.0 1.0 0.0 
0.0 1.0 0.0 
0.0 1.0 0.0 
0.0 1.0 0.0 
0.0 1.0 0.0 
0.0 1.0 0.0 
0.0 1.0 0.0 
0.0 1.0 0.0 
0.0 1.0 0.0 
0.0 1.0 0.0 
0.0 1.0 0.0 
0.0 1.0 0.0 
0.0 1.0 0.0 
0.0 1.0 0.0 
0.0 1.0 0.0 
0.0 1.0 0.0 
0.0 1.0 0.0 
0.0 1.0 0.0 
0.0 1.0 0.0 
0.0 1.0 0.0 
0.0 1.0 0.0 
0.0 1.0 0.0 
0.0 1.0 0.0 
0.0 1.0 0.0 
0.0 1.0 0.0 
0.0 1.0 0.0 
0.0 1.0 0.0 
0.0 1.0 0.0 
0.0 1.0 0.0 
0.0 1.0 0.0 
0.0 1.0 0.0 
0.0 1.0 0.0 
0.0 1.0 0.0 
0.0 1.0 0.0 
0.0 1.0 0.0 
0.0 1.0 0.0 
0.0 1.0 0.0 
0.0 1.0 0.0 
0.0 1.0 0.0 
0.0 1.0 0.0 
0.0 1.0 0.0 
0.0 1.0 0.0 
0.0 1.0 0.0 
0.0 0.0 1.0 
0.0 0.0 1.0 
0.0 0.0 1.0 
0.0 0.0 1.0 
0.0 0.0 1.0 
0.0 0.0 1.0 
0.0 0.0 1.0 
0.0 0.0 1.0 
0.0 0.0 1.0 
0.0 0.0 1.0 
0.0 0.0 1.0 
0.0 0.0 1.0 
0.0 0.0 1.0 
0.0 0.0 1.0 
0.0 0.0 1.0 
0.0 0.0 1.0 
0.0 0.0 1.0 
0.0 0.0 1.0 
0.0 0.0 1.0 
0.0 0.0 1.0 
0.0 0.0 1.0 
0.0 0.0 1.0 
0.0 0.0 1.0 
0.0 0.0 1.0 
0.0 0.0 1.0 
0.0 0.0 1.0 
0.0 0.0 1.0 
0.0 0.0 1.0 
0.0 0.0 1.0 
0.0 0.0 1.0 
0.0 0.0 1.0 
0.0 0.0 1.0 
0.0 0.0 1.0 
0.0 0.0 1.0 
0.0 0.0 1.0 
0.0 0.0 1.0 
0.0 0.0 1.0 
0.0 0.0 1.0 
0.0 0.0 1.0 
0.0 0.0 1.0 
0.0 0.0 1.0 
0.0 0.0 1.0 
0.0 0.0 1.0 
0.0 0.0 1.0 
0.0 0.0 1.0 
0.0 0.0 1.0 
0.0 0.0 1.0 
0.0 0.0 1.0 
0.0 0.0 1.0 
0.0 0.0 1.0 
Learning : 0.05
Momentum : 0.8999999761581421
Epoch: 100, Error: 0.02334109323053497
Epoch: 200, Error: 0.01763993666907172
Epoch: 300, Error: 0.015913212077422533
Epoch: 400, Error: 0.015318573432101839
Epoch: 500, Error: 0.014408281233173337
Epoch: 600, Error: 0.014038467383010114
Epoch: 700, Error: 0.01364180792119897
Epoch: 800, Error: 0.014224572551035205
Epoch: 900, Error: 0.013318934994685123
Epoch: 1000, Error: 0.013650398498068253
Epoch: 1100, Error: 0.013129535133184949
Epoch: 1200, Error: 0.013014504880582936
Epoch: 1300, Error: 0.01299824379229013
Epoch: 1400, Error: 0.013142349487763496
Epoch: 1500, Error: 0.012849415900638666
Epoch: 1600, Error: 0.012752252425340064
Epoch: 1700, Error: 0.012856940141376325
Epoch: 1800, Error: 0.012687197675691332
Epoch: 1900, Error: 0.012852662455378621
Epoch: 2000, Error: 0.012598776555802587
Epoch: 2100, Error: 0.01275678855922453
Epoch: 2200, Error: 0.012646332165666508
Epoch: 2300, Error: 0.012657163841955702
Epoch: 2400, Error: 0.012652833917973625
Epoch: 2500, Error: 0.012769795852999396
Epoch: 2600, Error: 0.012663470630322674
Epoch: 2700, Error: 0.012674520435512983
Epoch: 2800, Error: 0.012522345216695069
Epoch: 2900, Error: 0.012546311411487555
Epoch: 3000, Error: 0.012523317329675236
Epoch: 3100, Error: 0.012452471780501859
Epoch: 3200, Error: 0.012462264944086176
Epoch: 3300, Error: 0.012843139408255946
Epoch: 3400, Error: 0.012397781083915267
Epoch: 3500, Error: 0.012518565882655805
Epoch: 3600, Error: 0.012454243143473005
Epoch: 3700, Error: 0.012387393564067073
Epoch: 3800, Error: 0.012330292311075994
Epoch: 3900, Error: 0.012337491466050727
Epoch: 4000, Error: 0.012200328193345171
Epoch: 4100, Error: 0.012222954440952888
Epoch: 4200, Error: 0.012374445549227538
Epoch: 4300, Error: 0.012232167702991152
Epoch: 4400, Error: 0.012245263942966973
Epoch: 4500, Error: 0.012344212361646434
Epoch: 4600, Error: 0.012247531976830523
Epoch: 4700, Error: 0.012219726209482038
Epoch: 4800, Error: 0.012239405070540832
Epoch: 4900, Error: 0.01230287733548945
Epoch: 5000, Error: 0.012225753872667037
Epoch: 5100, Error: 0.01225368614153108
Epoch: 5200, Error: 0.012209569949823204
Epoch: 5300, Error: 0.01240848515569332
Epoch: 5400, Error: 0.012274951821170789
Epoch: 5500, Error: 0.012258853819100936
Epoch: 5600, Error: 0.012231510876176724
Epoch: 5700, Error: 0.012315362166851107
Epoch: 5800, Error: 0.012248247430764659
Epoch: 5900, Error: 0.012190571806579356
Epoch: 6000, Error: 0.012196800613476423
Epoch: 6100, Error: 0.01214306463759332
Epoch: 6200, Error: 0.012145580846746462
Epoch: 6300, Error: 0.012177435812541909
Epoch: 6400, Error: 0.012207157668747132
Epoch: 6500, Error: 0.012259856916582379
Epoch: 6600, Error: 0.012219565471099338
Epoch: 6700, Error: 0.012208468949866986
Epoch: 6800, Error: 0.012180956000753506
Epoch: 6900, Error: 0.012135264313375546
Epoch: 7000, Error: 0.012134924966184443
Epoch: 7100, Error: 0.012145604039676227
Epoch: 7200, Error: 0.012103632140620636
Epoch: 7300, Error: 0.012123660490618327
Epoch: 7400, Error: 0.012162095735887597
Epoch: 7500, Error: 0.012058637126320312
Epoch: 7600, Error: 0.012086555526355925
Epoch: 7700, Error: 0.012177178667569486
Epoch: 7800, Error: 0.01214200804290472
Epoch: 7900, Error: 0.012251344030404138
Epoch: 8000, Error: 0.01210811639578605
Epoch: 8100, Error: 0.01211279278474011
Epoch: 8200, Error: 0.01206423672177537
Epoch: 8300, Error: 0.012052631908419141
Epoch: 8400, Error: 0.011972335111247978
Epoch: 8500, Error: 0.011939484758225464
Epoch: 8600, Error: 0.011937792617505112
Epoch: 8700, Error: 0.011994669975118222
Epoch: 8800, Error: 0.011927046311090966
Epoch: 8900, Error: 0.011894519758043384
Epoch: 9000, Error: 0.01193218332512682
Epoch: 9100, Error: 0.011976580921501903
Epoch: 9200, Error: 0.011944397260218422
Epoch: 9300, Error: 0.011810559782446488
Epoch: 9400, Error: 0.011802574753884349
Epoch: 9500, Error: 0.011775384918222873
Epoch: 9600, Error: 0.01174588741817047
Epoch: 9700, Error: 0.011776226804098285
Epoch: 9800, Error: 0.011765243075094868
Epoch: 9900, Error: 0.011766879077347395
Epoch: 10000, Error: 0.011751281361759375
Epoch: 10100, Error: 0.011727111685234843
Epoch: 10200, Error: 0.011721193131729276
Epoch: 10300, Error: 0.011703581762594615
Epoch: 10400, Error: 0.01172537280872041
Epoch: 10500, Error: 0.011729134125678109
Epoch: 10600, Error: 0.011622451922902222
Epoch: 10700, Error: 0.011656906497372495
Epoch: 10800, Error: 0.011671112569773358
Epoch: 10900, Error: 0.011576451225418718
Epoch: 11000, Error: 0.011836679713296355
Epoch: 11100, Error: 0.011563572601388683
Epoch: 11200, Error: 0.011556742730521676
Epoch: 11300, Error: 0.011554811537813679
Epoch: 11400, Error: 0.011511824573144182
Epoch: 11500, Error: 0.011462907961356333
Epoch: 11600, Error: 0.011489711255661464
Epoch: 11700, Error: 0.011535459001015715
Epoch: 11800, Error: 0.011372380831284891
Epoch: 11900, Error: 0.01133622944548604
Epoch: 12000, Error: 0.011297996920427836
Epoch: 12100, Error: 0.011267154854517758
Epoch: 12200, Error: 0.01124249173547496
Epoch: 12300, Error: 0.011286518034088014
Epoch: 12400, Error: 0.011165111538933318
Epoch: 12500, Error: 0.011147103443500919
Epoch: 12600, Error: 0.011061951425881955
Epoch: 12700, Error: 0.011046171518695221
Epoch: 12800, Error: 0.011017617719429364
Epoch: 12900, Error: 0.010979342340156068
Epoch: 13000, Error: 0.010938690925650833
Epoch: 13100, Error: 0.010824414283722526
Epoch: 13200, Error: 0.010784274718312998
Epoch: 13300, Error: 0.010730730121410221
Epoch: 13400, Error: 0.010680963619931224
Epoch: 13500, Error: 0.01069980020716564
Epoch: 13600, Error: 0.010672651158325141
Epoch: 13700, Error: 0.01053067398481602
Epoch: 13800, Error: 0.01051096054216572
Epoch: 13900, Error: 0.010416221373537721
Epoch: 14000, Error: 0.010333003598644181
Epoch: 14100, Error: 0.010254217324974642
Epoch: 14200, Error: 0.010202344715569895
Epoch: 14300, Error: 0.010134761686700319
Epoch: 14400, Error: 0.01010430194231938
Epoch: 14500, Error: 0.010061908581306784
Epoch: 14600, Error: 0.009982045634612273
Epoch: 14700, Error: 0.00992324337345936
Epoch: 14800, Error: 0.009833864433191036
Epoch: 14900, Error: 0.009777344833368971
Epoch: 15000, Error: 0.009673605428349698
Epoch: 15100, Error: 0.00962216395006432
Epoch: 15200, Error: 0.009506514560492913
Epoch: 15300, Error: 0.009449891745148962
Epoch: 15400, Error: 0.009294870424066997
Epoch: 15500, Error: 0.009219423664530659
Epoch: 15600, Error: 0.009124076627645687
Epoch: 15700, Error: 0.009024083732891722
Epoch: 15800, Error: 0.008967513563241306
Epoch: 15900, Error: 0.008859068378405596
Epoch: 16000, Error: 0.008812710984984342
Epoch: 16100, Error: 0.008829618131829144
Epoch: 16200, Error: 0.008626910856707696
Epoch: 16300, Error: 0.008536901165571632
Epoch: 16400, Error: 0.008451885718974197
Epoch: 16500, Error: 0.008342590920931517
Epoch: 16600, Error: 0.008259052783355657
Epoch: 16700, Error: 0.00816372282745581
Epoch: 16800, Error: 0.008109845269655299
Epoch: 16900, Error: 0.0079895149693758
Epoch: 17000, Error: 0.007927433767468368
Epoch: 17100, Error: 0.007819862567494732
Epoch: 17200, Error: 0.007735868023811666
Epoch: 17300, Error: 0.007676956586540076
Epoch: 17400, Error: 0.0075790666371089496
Epoch: 17500, Error: 0.0075488506557049315
Epoch: 17600, Error: 0.007445533686014698
Epoch: 17700, Error: 0.007335146482835644
Epoch: 17800, Error: 0.0072775526856374345
Epoch: 17900, Error: 0.0073859863661254336
Epoch: 18000, Error: 0.00715065988609661
Epoch: 18100, Error: 0.007057657799682202
Epoch: 18200, Error: 0.007018731652965227
Epoch: 18300, Error: 0.006961280680341687
Epoch: 18400, Error: 0.006892835015428207
Epoch: 18500, Error: 0.006830574530692016
Epoch: 18600, Error: 0.006904979129242751
Epoch: 18700, Error: 0.006740910430763372
Epoch: 18800, Error: 0.006679316353397302
Epoch: 18900, Error: 0.006627440273317719
Epoch: 19000, Error: 0.0065634624907915965
Epoch: 19100, Error: 0.0065251276910515965
Epoch: 19200, Error: 0.006493395857658917
Epoch: 19300, Error: 0.006448744114117231
Epoch: 19400, Error: 0.00646764062105858
Epoch: 19500, Error: 0.006370804468272744
Epoch: 19600, Error: 0.0063645479750662455
Epoch: 19700, Error: 0.006306099061902574
Epoch: 19800, Error: 0.006272954302528124
Epoch: 19900, Error: 0.006249454089377526
Epoch: 20000, Error: 0.006208335336274569
Epoch: 20100, Error: 0.006177508991470196
Epoch: 20200, Error: 0.00613652638244071
Epoch: 20300, Error: 0.006109025036066087
Epoch: 20400, Error: 0.006086063998988601
Epoch: 20500, Error: 0.006053689286878643
Epoch: 20600, Error: 0.006024010714144563
Epoch: 20700, Error: 0.006031442092671658
Epoch: 20800, Error: 0.005970918611794162
Epoch: 20900, Error: 0.00595897147629908
Epoch: 21000, Error: 0.005927287709380787
Epoch: 21100, Error: 0.005909553498324003
Epoch: 21200, Error: 0.005884177578287497
Epoch: 21300, Error: 0.005857055352287516
Epoch: 21400, Error: 0.005841838091764101
Epoch: 21500, Error: 0.0058134246966707005
Epoch: 21600, Error: 0.0058040850818514905
Epoch: 21700, Error: 0.005794853446433075
Epoch: 21800, Error: 0.005764351084542518
Epoch: 21900, Error: 0.005749384956932344
Epoch: 22000, Error: 0.005726721510939837
Epoch: 22100, Error: 0.0057144944101603585
Epoch: 22200, Error: 0.005688398397145031
Epoch: 22300, Error: 0.0056808101707908
Epoch: 22400, Error: 0.00567646686692961
Epoch: 22500, Error: 0.005626026946334253
Epoch: 22600, Error: 0.005599234482956477
Epoch: 22700, Error: 0.00550757380391018
Epoch: 22800, Error: 0.00548899611404483
Epoch: 22900, Error: 0.005464073127821037
Epoch: 23000, Error: 0.005456841947601562
Epoch: 23100, Error: 0.005441271799524702
Epoch: 23200, Error: 0.005478281154995971
Epoch: 23300, Error: 0.005418150512030287
Epoch: 23400, Error: 0.005407040501525734
Epoch: 23500, Error: 0.0053523032939496945
Epoch: 23600, Error: 0.005404846649673994
Epoch: 23700, Error: 0.0053444170408960415
Epoch: 23800, Error: 0.005337595263461821
Epoch: 23900, Error: 0.005325561538177063
Epoch: 24000, Error: 0.005324368588273383
Epoch: 24100, Error: 0.005332681485576609
Epoch: 24200, Error: 0.00541911546809787
Epoch: 24300, Error: 0.00536918548479369
Epoch: 24400, Error: 0.0053864965202407725
Epoch: 24500, Error: 0.005370563369419341
Epoch: 24600, Error: 0.005333320389267916
Epoch: 24700, Error: 0.0053160332984080235
Epoch: 24800, Error: 0.00533897337744486
Epoch: 24900, Error: 0.005353140241743148
Epoch: 25000, Error: 0.005354962845871042
Epoch: 25100, Error: 0.005463986363074576
Epoch: 25200, Error: 0.005434772702631718
Epoch: 25300, Error: 0.005409438058453897
Epoch: 25400, Error: 0.005434608891447369
Epoch: 25500, Error: 0.0054083937806039244
Epoch: 25600, Error: 0.005354950609308541
Epoch: 25700, Error: 0.005407900864131799
Epoch: 25800, Error: 0.005349294400245265
Epoch: 25900, Error: 0.00527973212456292
Epoch: 26000, Error: 0.005165044414176071
Epoch: 26100, Error: 0.005267750590219554
Epoch: 26200, Error: 0.005194430819078486
Epoch: 26300, Error: 0.005138026440948771
Epoch: 26400, Error: 0.005065298887465462
Epoch: 26500, Error: 0.004996264604322377
Epoch: 26600, Error: 0.004995272909357728
Epoch: 26700, Error: 0.004929513306347729
Epoch: 26800, Error: 0.004853275649110521
Epoch: 26900, Error: 0.004819358732458349
Epoch: 27000, Error: 0.004792912439758866
Epoch: 27100, Error: 0.004755747320469141
Epoch: 27200, Error: 0.004719136043747567
Epoch: 27300, Error: 0.004697968594603618
Epoch: 27400, Error: 0.0047547756189177046
Epoch: 27500, Error: 0.004629922692711683
Epoch: 27600, Error: 0.004637777610149122
Epoch: 27700, Error: 0.004725281218786954
Epoch: 27800, Error: 0.004582043974640603
Epoch: 27900, Error: 0.0045482623988120545
Epoch: 28000, Error: 0.004583255990183985
Epoch: 28100, Error: 0.004502254778829289
Epoch: 28200, Error: 0.0045145073030076616
Epoch: 28300, Error: 0.004541087876456696
Epoch: 28400, Error: 0.004417769335064779
Epoch: 28500, Error: 0.004385720205992009
Epoch: 28600, Error: 0.004374305406007568
Epoch: 28700, Error: 0.0043284425177731395
Epoch: 28800, Error: 0.004331746506340129
Epoch: 28900, Error: 0.004277853932369602
Epoch: 29000, Error: 0.0042507724191304915
Epoch: 29100, Error: 0.0042256852840899875
Epoch: 29200, Error: 0.004218922128468919
Epoch: 29300, Error: 0.004193668916131132
Epoch: 29400, Error: 0.0041699925607416805
Epoch: 29500, Error: 0.0041508489846362765
Epoch: 29600, Error: 0.004131649959035902
Epoch: 29700, Error: 0.0041076307457421505
Epoch: 29800, Error: 0.004106184723821558
Epoch: 29900, Error: 0.004044635618007225
Epoch: 30000, Error: 0.004027926169552236
Epoch: 30100, Error: 0.004012675127089205
Epoch: 30200, Error: 0.003993371410631229
Epoch: 30300, Error: 0.003982141980567902
Epoch: 30400, Error: 0.003960314674759372
Epoch: 30500, Error: 0.0039721580014666505
Epoch: 30600, Error: 0.003923927117180594
Epoch: 30700, Error: 0.003896910085922687
Epoch: 30800, Error: 0.0038922770242776216
Epoch: 30900, Error: 0.0038812606796782834
Epoch: 31000, Error: 0.0038816732401867693
Epoch: 31100, Error: 0.0038373744177106826
Epoch: 31200, Error: 0.0038007156644999777
Epoch: 31300, Error: 0.0037895749016944743
Epoch: 31400, Error: 0.003768182284460639
Epoch: 31500, Error: 0.0037562260028596813
Epoch: 31600, Error: 0.0037270713430866023
Epoch: 31700, Error: 0.0037491356289135257
Epoch: 31800, Error: 0.0037392633819113928
Epoch: 31900, Error: 0.003681841712430915
Epoch: 32000, Error: 0.003687431229199997
Epoch: 32100, Error: 0.0036406523681293494
Epoch: 32200, Error: 0.0036893173633162
Epoch: 32300, Error: 0.003592674846943198
Epoch: 32400, Error: 0.0035733612240742263
Epoch: 32500, Error: 0.003559748741434579
Epoch: 32600, Error: 0.003572843844181734
Epoch: 32700, Error: 0.0035429623917129296
Epoch: 32800, Error: 0.003501479531948925
Epoch: 32900, Error: 0.003522826473219907
Epoch: 33000, Error: 0.0034576246686340985
Epoch: 33100, Error: 0.0034446292416725486
Epoch: 33200, Error: 0.0034103708817286174
Epoch: 33300, Error: 0.003434159928307201
Epoch: 33400, Error: 0.003386087105235194
Epoch: 33500, Error: 0.00339426102027215
Epoch: 33600, Error: 0.0033317355096948273
Epoch: 33700, Error: 0.003308280391501467
Epoch: 33800, Error: 0.003283028348176911
Epoch: 33900, Error: 0.003269663049290878
Epoch: 34000, Error: 0.003236088110633978
Epoch: 34100, Error: 0.003222723956198409
Epoch: 34200, Error: 0.003197993126845131
Epoch: 34300, Error: 0.003246004132713988
Epoch: 34400, Error: 0.0032325336360495135
Epoch: 34500, Error: 0.003163698224506385
Epoch: 34600, Error: 0.003170439616272717
Epoch: 34700, Error: 0.0031893690555668203
Epoch: 34800, Error: 0.0031898074360819494
Epoch: 34900, Error: 0.003084382787044339
Epoch: 35000, Error: 0.003104391695735173
Epoch: 35100, Error: 0.0030938642049228755
Epoch: 35200, Error: 0.0033224287708856636
Epoch: 35300, Error: 0.003055308360890934
Epoch: 35400, Error: 0.003014623186944867
Epoch: 35500, Error: 0.00298097264734863
Epoch: 35600, Error: 0.003050636031284426
Epoch: 35700, Error: 0.002990413616095737
Epoch: 35800, Error: 0.0029793608637284016
Epoch: 35900, Error: 0.0029455703995871795
Epoch: 36000, Error: 0.0029320637217100463
Epoch: 36100, Error: 0.002917916279858361
Epoch: 36200, Error: 0.002909183280494865
Epoch: 36300, Error: 0.0029183665736221857
Epoch: 36400, Error: 0.002872906269816134
Epoch: 36500, Error: 0.0029560122117390127
Epoch: 36600, Error: 0.002850978466551365
Epoch: 36700, Error: 0.0028377474911058112
Epoch: 36800, Error: 0.00285545469284864
Epoch: 36900, Error: 0.0028354341356960585
Epoch: 37000, Error: 0.002829422273342437
Epoch: 37100, Error: 0.002828343272651156
Epoch: 37200, Error: 0.0028040247597470734
Epoch: 37300, Error: 0.0028160404822808777
Epoch: 37400, Error: 0.002814962731667963
Epoch: 37500, Error: 0.0028010870300526386
Epoch: 37600, Error: 0.0027810686799841096
Epoch: 37700, Error: 0.0029118757843091337
Epoch: 37800, Error: 0.0027594463923387045
Epoch: 37900, Error: 0.002748617752390443
Epoch: 38000, Error: 0.0028001441791284526
Epoch: 38100, Error: 0.0027594474614103135
Epoch: 38200, Error: 0.00292448571157883
Epoch: 38300, Error: 0.0028009745408689073
Epoch: 38400, Error: 0.0027284596450116616
Epoch: 38500, Error: 0.002727038926268111
Epoch: 38600, Error: 0.00273089863561737
Epoch: 38700, Error: 0.002719354405101851
Epoch: 38800, Error: 0.002784779028066245
Epoch: 38900, Error: 0.0027404810800616885
Epoch: 39000, Error: 0.0027197313447869403
Epoch: 39100, Error: 0.002694305141877436
Epoch: 39200, Error: 0.0026694701054211295
Epoch: 39300, Error: 0.002641317827673838
Epoch: 39400, Error: 0.002686916982063793
Epoch: 39500, Error: 0.0026473477890367396
Epoch: 39600, Error: 0.0026055867792677966
Epoch: 39700, Error: 0.0025872439942152777
Epoch: 39800, Error: 0.00257780369808808
Epoch: 39900, Error: 0.0026079531825791073
Epoch: 40000, Error: 0.0025671370141429548
Epoch: 40100, Error: 0.0026399025796398066
Epoch: 40200, Error: 0.002533302350973155
Epoch: 40300, Error: 0.0025125260178260837
Epoch: 40400, Error: 0.002510072240311099
Epoch: 40500, Error: 0.0025185301528599115
Epoch: 40600, Error: 0.0024742910755548835
Epoch: 40700, Error: 0.0024703545027513784
Epoch: 40800, Error: 0.002458204252951977
Epoch: 40900, Error: 0.002438673227135764
Epoch: 41000, Error: 0.002428795770274651
Epoch: 41100, Error: 0.0023978458427070244
Epoch: 41200, Error: 0.0024115372918232895
Epoch: 41300, Error: 0.002506062473428733
Epoch: 41400, Error: 0.0023674820316970185
Epoch: 41500, Error: 0.0023847073838813653
Epoch: 41600, Error: 0.0023691005507092337
Epoch: 41700, Error: 0.0023543782545014575
Epoch: 41800, Error: 0.0023104954488869477
Epoch: 41900, Error: 0.0023024936432117712
Epoch: 42000, Error: 0.0023559060023406703
Epoch: 42100, Error: 0.0026689644507466633
Epoch: 42200, Error: 0.0022802014984783714
Epoch: 42300, Error: 0.002249218767055587
Epoch: 42400, Error: 0.002258386763559298
Epoch: 42500, Error: 0.002247738226221114
Epoch: 42600, Error: 0.002258590009029645
Epoch: 42700, Error: 0.002205517856408115
Epoch: 42800, Error: 0.0021957229262837457
Epoch: 42900, Error: 0.002170293321276727
Epoch: 43000, Error: 0.0021721765916895494
Epoch: 43100, Error: 0.0021818549960985305
Epoch: 43200, Error: 0.002178437911097025
Epoch: 43300, Error: 0.002153282078619715
Epoch: 43400, Error: 0.0021314795998689053
Epoch: 43500, Error: 0.0021308914373116988
Epoch: 43600, Error: 0.0021401988556453075
Epoch: 43700, Error: 0.0021297403963456965
Epoch: 43800, Error: 0.0021005217862274605
Epoch: 43900, Error: 0.002073653268520843
Epoch: 44000, Error: 0.002088108563696209
Epoch: 44100, Error: 0.0021022682323573964
Epoch: 44200, Error: 0.0020745536706396725
Epoch: 44300, Error: 0.0020131071138129526
Epoch: 44400, Error: 0.002061524341914873
Epoch: 44500, Error: 0.002010008214976336
Epoch: 44600, Error: 0.0020063659437423776
Epoch: 44700, Error: 0.0020333383833764755
Epoch: 44800, Error: 0.0019835033131930385
Epoch: 44900, Error: 0.002021270894111712
Epoch: 45000, Error: 0.0019901244302228858
Epoch: 45100, Error: 0.001963107786734042
Epoch: 45200, Error: 0.0019439287709845496
Epoch: 45300, Error: 0.001962086588909608
Epoch: 45400, Error: 0.0019197993113465274
Epoch: 45500, Error: 0.0019198466698329543
Epoch: 45600, Error: 0.0019356976430683851
Epoch: 45700, Error: 0.0019245674672288759
Epoch: 45800, Error: 0.001893972948151482
Epoch: 45900, Error: 0.0018805237225780396
Epoch: 46000, Error: 0.0018745056068642531
Epoch: 46100, Error: 0.0018565990619568715
Epoch: 46200, Error: 0.0018488353306760396
Epoch: 46300, Error: 0.001848266904964191
Epoch: 46400, Error: 0.0018489366496060263
Epoch: 46500, Error: 0.0018297934121368415
Epoch: 46600, Error: 0.001860396638160065
Epoch: 46700, Error: 0.0018150095992608773
Epoch: 46800, Error: 0.0017985851998739795
Epoch: 46900, Error: 0.0018179733013776562
Epoch: 47000, Error: 0.0017835298017891182
Epoch: 47100, Error: 0.001804330960321171
Epoch: 47200, Error: 0.0017727590327063292
Epoch: 47300, Error: 0.00176187596573486
Epoch: 47400, Error: 0.0017458928713345173
Epoch: 47500, Error: 0.001773656448149738
Epoch: 47600, Error: 0.001740466537977064
Epoch: 47700, Error: 0.0017272116988821858
Epoch: 47800, Error: 0.0017323495006245815
Epoch: 47900, Error: 0.0017141981520367453
Epoch: 48000, Error: 0.0017111036946828905
Epoch: 48100, Error: 0.0017010136185544524
Epoch: 48200, Error: 0.0017093424299137127
Epoch: 48300, Error: 0.0016877873768862965
Epoch: 48400, Error: 0.0016873815598288917
Epoch: 48500, Error: 0.0016682091861752585
Epoch: 48600, Error: 0.0016987102681040496
Epoch: 48700, Error: 0.001678813536422868
Epoch: 48800, Error: 0.0016643014968740356
Epoch: 48900, Error: 0.00164996362371286
Epoch: 49000, Error: 0.001693782805321701
Epoch: 49100, Error: 0.0016347602383729018
Epoch: 49200, Error: 0.001635890523907173
Epoch: 49300, Error: 0.0016278359379746385
Epoch: 49400, Error: 0.0016238646513285786
Epoch: 49500, Error: 0.0016327447776422882
Epoch: 49600, Error: 0.0016145325232415453
Epoch: 49700, Error: 0.0015936767469835636
Epoch: 49800, Error: 0.0016466035726402017
Epoch: 49900, Error: 0.0015883450208594378
Epoch: 50000, Error: 0.0015728171968343778
Epoch: 50100, Error: 0.0015631965657623987
Epoch: 50200, Error: 0.0015644928582144407
Epoch: 50300, Error: 0.0015497789949328103
Epoch: 50400, Error: 0.0015417719879221336
Epoch: 50500, Error: 0.0015803223847678097
Epoch: 50600, Error: 0.0015277905777729616
Epoch: 50700, Error: 0.001520256436250833
Epoch: 50800, Error: 0.0015124443836062036
Epoch: 50900, Error: 0.001520048900188457
Epoch: 51000, Error: 0.001497608866736679
Epoch: 51100, Error: 0.0014951864758280934
Epoch: 51200, Error: 0.0015065455755026394
Epoch: 51300, Error: 0.0014960396896852438
Epoch: 51400, Error: 0.00149492608354701
Epoch: 51500, Error: 0.0014884550363106635
Epoch: 51600, Error: 0.001497567552614625
Epoch: 51700, Error: 0.0014818097848509585
Epoch: 51800, Error: 0.0014833205583093022
Finished
Input Patterns
0.224 0.624 0.067 0.043 
0.11 0.502 0.051 0.043 
0.196 0.667 0.067 0.043 
0.055 0.584 0.067 0.082 
0.027 0.376 0.067 0.043 
0.306 0.71 0.086 0.043 
0.137 0.416 0.067 0.0 
0.416 0.831 0.035 0.043 
0.306 0.792 0.051 0.125 
0.388 0.749 0.118 0.082 
0.306 0.584 0.118 0.043 
0.082 0.667 0.0 0.043 
0.137 0.584 0.153 0.043 
0.196 0.584 0.102 0.125 
0.251 0.584 0.067 0.043 
0.137 0.459 0.102 0.043 
0.251 0.875 0.086 0.0 
0.165 0.459 0.086 0.043 
0.333 0.624 0.051 0.043 
0.027 0.416 0.051 0.043 
0.196 0.624 0.051 0.082 
0.027 0.502 0.051 0.043 
0.224 0.749 0.153 0.125 
0.224 0.749 0.102 0.043 
0.278 0.71 0.086 0.043 
0.165 0.416 0.067 0.043 
0.082 0.459 0.086 0.043 
0.306 0.792 0.118 0.125 
0.196 0.584 0.086 0.043 
0.165 0.459 0.086 0.0 
0.137 0.584 0.102 0.043 
0.0 0.416 0.016 0.0 
0.388 1.0 0.086 0.125 
0.224 0.624 0.067 0.082 
0.224 0.749 0.086 0.082 
0.224 0.71 0.086 0.125 
0.224 0.541 0.118 0.165 
0.196 0.416 0.102 0.043 
0.251 0.624 0.086 0.043 
0.11 0.502 0.102 0.043 
0.306 0.584 0.086 0.125 
0.333 0.918 0.067 0.043 
0.196 0.502 0.035 0.043 
0.165 0.667 0.067 0.0 
0.224 0.584 0.086 0.043 
0.055 0.125 0.051 0.082 
0.196 0.624 0.102 0.208 
0.137 0.416 0.067 0.082 
0.082 0.502 0.067 0.043 
0.196 0.541 0.067 0.043 
0.749 0.502 0.627 0.541 
0.722 0.459 0.663 0.584 
0.612 0.333 0.612 0.584 
0.557 0.541 0.627 0.624 
0.639 0.376 0.612 0.498 
0.196 0.0 0.424 0.376 
0.471 0.082 0.51 0.376 
0.361 0.376 0.439 0.498 
0.361 0.416 0.592 0.584 
0.529 0.082 0.592 0.584 
0.443 0.502 0.643 0.459 
0.557 0.208 0.663 0.584 
0.584 0.376 0.561 0.498 
0.694 0.333 0.643 0.541 
0.471 0.376 0.592 0.584 
0.333 0.169 0.475 0.416 
0.416 0.29 0.49 0.459 
0.306 0.416 0.592 0.584 
0.667 0.459 0.627 0.584 
0.361 0.416 0.525 0.498 
0.333 0.251 0.576 0.459 
0.416 0.251 0.51 0.459 
0.361 0.29 0.541 0.498 
0.388 0.376 0.541 0.498 
0.224 0.208 0.337 0.416 
0.584 0.502 0.592 0.584 
0.333 0.125 0.51 0.498 
0.388 0.333 0.592 0.498 
0.165 0.169 0.388 0.376 
0.251 0.29 0.49 0.541 
0.443 0.416 0.541 0.584 
0.498 0.376 0.627 0.541 
0.667 0.459 0.576 0.541 
0.416 0.29 0.525 0.376 
0.361 0.208 0.49 0.416 
0.498 0.333 0.51 0.498 
0.498 0.333 0.627 0.459 
0.639 0.416 0.576 0.541 
0.667 0.416 0.678 0.667 
0.388 0.251 0.424 0.376 
0.333 0.169 0.459 0.376 
0.471 0.29 0.694 0.624 
0.471 0.584 0.592 0.624 
0.557 0.125 0.576 0.498 
0.333 0.208 0.51 0.498 
0.498 0.416 0.612 0.541 
0.196 0.125 0.388 0.376 
0.388 0.416 0.541 0.459 
0.529 0.376 0.561 0.498 
0.388 0.333 0.525 0.498 
0.557 0.541 0.847 1.0 
0.776 0.416 0.831 0.831 
0.612 0.416 0.812 0.875 
0.165 0.208 0.592 0.667 
0.667 0.208 0.812 0.71 
0.612 0.502 0.694 0.792 
0.694 0.416 0.761 0.831 
0.416 0.333 0.694 0.957 
0.612 0.416 0.761 0.71 
0.945 0.251 1.0 0.918 
0.722 0.502 0.796 0.918 
0.945 0.333 0.965 0.792 
0.667 0.541 0.796 0.831 
0.529 0.333 0.643 0.71 
0.584 0.333 0.78 0.831 
0.863 0.333 0.863 0.749 
0.584 0.333 0.78 0.875 
0.498 0.251 0.78 0.541 
0.557 0.584 0.78 0.957 
0.471 0.416 0.643 0.71 
0.667 0.459 0.78 0.957 
0.416 0.29 0.694 0.749 
0.667 0.541 0.796 1.0 
0.557 0.208 0.678 0.749 
0.529 0.584 0.745 0.918 
0.416 0.29 0.694 0.749 
0.557 0.376 0.78 0.71 
0.918 0.416 0.949 0.831 
0.835 0.376 0.898 0.71 
0.804 0.667 0.863 1.0 
0.584 0.29 0.729 0.749 
0.388 0.208 0.678 0.792 
0.584 0.502 0.729 0.918 
0.945 0.749 0.965 0.875 
0.471 0.082 0.678 0.584 
0.361 0.333 0.663 0.792 
0.557 0.29 0.663 0.71 
0.804 0.502 0.847 0.71 
0.498 0.416 0.51 0.71 
0.804 0.416 0.812 0.624 
1.0 0.749 0.914 0.792 
0.557 0.333 0.694 0.584 
0.945 0.416 0.863 0.918 
0.584 0.459 0.761 0.71 
0.722 0.459 0.745 0.831 
0.722 0.459 0.694 0.918 
0.694 0.502 0.831 0.918 
0.667 0.416 0.714 0.918 
0.612 0.416 0.714 0.792 
0.443 0.416 0.694 0.71 
Teaching Patterns
1.0 0.0 0.0 
1.0 0.0 0.0 
1.0 0.0 0.0 
1.0 0.0 0.0 
1.0 0.0 0.0 
1.0 0.0 0.0 
1.0 0.0 0.0 
1.0 0.0 0.0 
1.0 0.0 0.0 
1.0 0.0 0.0 
1.0 0.0 0.0 
1.0 0.0 0.0 
1.0 0.0 0.0 
1.0 0.0 0.0 
1.0 0.0 0.0 
1.0 0.0 0.0 
1.0 0.0 0.0 
1.0 0.0 0.0 
1.0 0.0 0.0 
1.0 0.0 0.0 
1.0 0.0 0.0 
1.0 0.0 0.0 
1.0 0.0 0.0 
1.0 0.0 0.0 
1.0 0.0 0.0 
1.0 0.0 0.0 
1.0 0.0 0.0 
1.0 0.0 0.0 
1.0 0.0 0.0 
1.0 0.0 0.0 
1.0 0.0 0.0 
1.0 0.0 0.0 
1.0 0.0 0.0 
1.0 0.0 0.0 
1.0 0.0 0.0 
1.0 0.0 0.0 
1.0 0.0 0.0 
1.0 0.0 0.0 
1.0 0.0 0.0 
1.0 0.0 0.0 
1.0 0.0 0.0 
1.0 0.0 0.0 
1.0 0.0 0.0 
1.0 0.0 0.0 
1.0 0.0 0.0 
1.0 0.0 0.0 
1.0 0.0 0.0 
1.0 0.0 0.0 
1.0 0.0 0.0 
1.0 0.0 0.0 
0.0 1.0 0.0 
0.0 1.0 0.0 
0.0 1.0 0.0 
0.0 1.0 0.0 
0.0 1.0 0.0 
0.0 1.0 0.0 
0.0 1.0 0.0 
0.0 1.0 0.0 
0.0 1.0 0.0 
0.0 1.0 0.0 
0.0 1.0 0.0 
0.0 1.0 0.0 
0.0 1.0 0.0 
0.0 1.0 0.0 
0.0 1.0 0.0 
0.0 1.0 0.0 
0.0 1.0 0.0 
0.0 1.0 0.0 
0.0 1.0 0.0 
0.0 1.0 0.0 
0.0 1.0 0.0 
0.0 1.0 0.0 
0.0 1.0 0.0 
0.0 1.0 0.0 
0.0 1.0 0.0 
0.0 1.0 0.0 
0.0 1.0 0.0 
0.0 1.0 0.0 
0.0 1.0 0.0 
0.0 1.0 0.0 
0.0 1.0 0.0 
0.0 1.0 0.0 
0.0 1.0 0.0 
0.0 1.0 0.0 
0.0 1.0 0.0 
0.0 1.0 0.0 
0.0 1.0 0.0 
0.0 1.0 0.0 
0.0 1.0 0.0 
0.0 1.0 0.0 
0.0 1.0 0.0 
0.0 1.0 0.0 
0.0 1.0 0.0 
0.0 1.0 0.0 
0.0 1.0 0.0 
0.0 1.0 0.0 
0.0 1.0 0.0 
0.0 1.0 0.0 
0.0 1.0 0.0 
0.0 1.0 0.0 
0.0 0.0 1.0 
0.0 0.0 1.0 
0.0 0.0 1.0 
0.0 0.0 1.0 
0.0 0.0 1.0 
0.0 0.0 1.0 
0.0 0.0 1.0 
0.0 0.0 1.0 
0.0 0.0 1.0 
0.0 0.0 1.0 
0.0 0.0 1.0 
0.0 0.0 1.0 
0.0 0.0 1.0 
0.0 0.0 1.0 
0.0 0.0 1.0 
0.0 0.0 1.0 
0.0 0.0 1.0 
0.0 0.0 1.0 
0.0 0.0 1.0 
0.0 0.0 1.0 
0.0 0.0 1.0 
0.0 0.0 1.0 
0.0 0.0 1.0 
0.0 0.0 1.0 
0.0 0.0 1.0 
0.0 0.0 1.0 
0.0 0.0 1.0 
0.0 0.0 1.0 
0.0 0.0 1.0 
0.0 0.0 1.0 
0.0 0.0 1.0 
0.0 0.0 1.0 
0.0 0.0 1.0 
0.0 0.0 1.0 
0.0 0.0 1.0 
0.0 0.0 1.0 
0.0 0.0 1.0 
0.0 0.0 1.0 
0.0 0.0 1.0 
0.0 0.0 1.0 
0.0 0.0 1.0 
0.0 0.0 1.0 
0.0 0.0 1.0 
0.0 0.0 1.0 
0.0 0.0 1.0 
0.0 0.0 1.0 
0.0 0.0 1.0 
0.0 0.0 1.0 
0.0 0.0 1.0 
0.0 0.0 1.0 
Learning : 0.05
Momentum : 0.8999999761581421
Epoch: 100, Error: 0.02247667029263639
Epoch: 200, Error: 0.017033023370638896
Epoch: 300, Error: 0.015047884766234297
Epoch: 400, Error: 0.014130655848611671
Epoch: 500, Error: 0.01364788497786477
Epoch: 600, Error: 0.013119325353357776
Epoch: 700, Error: 0.012955814084217065
Epoch: 800, Error: 0.012910733945173499
Epoch: 900, Error: 0.012577266699557619
Epoch: 1000, Error: 0.012499229164022036
Epoch: 1100, Error: 0.012344853526811785
Epoch: 1200, Error: 0.012276135531179698
Epoch: 1300, Error: 0.012268863105190736
Epoch: 1400, Error: 0.012149306234762743
Epoch: 1500, Error: 0.012201822691131507
Epoch: 1600, Error: 0.01207893238260342
Epoch: 1700, Error: 0.012073709193864884
Epoch: 1800, Error: 0.012149634454310571
Epoch: 1900, Error: 0.012366838107650983
Epoch: 2000, Error: 0.01206182930613843
Epoch: 2100, Error: 0.012020945510800147
Epoch: 2200, Error: 0.01209878533654293
Epoch: 2300, Error: 0.011966000660665584
Epoch: 2400, Error: 0.012066012903189156
Epoch: 2500, Error: 0.01204468622889597
Epoch: 2600, Error: 0.011942919947225166
Epoch: 2700, Error: 0.012034044616047635
Epoch: 2800, Error: 0.01196724019367687
Epoch: 2900, Error: 0.012002891785966613
Epoch: 3000, Error: 0.011947549374921138
Epoch: 3100, Error: 0.011886502727237893
Epoch: 3200, Error: 0.0119302322182025
Epoch: 3300, Error: 0.012005336212230263
Epoch: 3400, Error: 0.011913526317425597
Epoch: 3500, Error: 0.011861245018055208
Epoch: 3600, Error: 0.011860757246244826
Epoch: 3700, Error: 0.011804102627155005
Epoch: 3800, Error: 0.011830682018226318
Epoch: 3900, Error: 0.011942630360337705
Epoch: 4000, Error: 0.011810600263741658
Epoch: 4100, Error: 0.011844562028154544
Epoch: 4200, Error: 0.011916955346181887
Epoch: 4300, Error: 0.011828868053431649
Epoch: 4400, Error: 0.011792821156189319
Epoch: 4500, Error: 0.011832640266029397
Epoch: 4600, Error: 0.011722200979042046
Epoch: 4700, Error: 0.011770650798545742
Epoch: 4800, Error: 0.011732167140999594
Epoch: 4900, Error: 0.011735401318021983
Epoch: 5000, Error: 0.01172750385939754
Epoch: 5100, Error: 0.011728798003781543
Epoch: 5200, Error: 0.0117098305639758
Epoch: 5300, Error: 0.011852310266272889
Epoch: 5400, Error: 0.011880008959834569
Epoch: 5500, Error: 0.011757265918591525
Epoch: 5600, Error: 0.011707568087593568
Epoch: 5700, Error: 0.011734714520714342
Epoch: 5800, Error: 0.01167827780772679
Epoch: 5900, Error: 0.0116685902893883
Epoch: 6000, Error: 0.011675135463390135
Epoch: 6100, Error: 0.011702116565091345
Epoch: 6200, Error: 0.011748965649697348
Epoch: 6300, Error: 0.01183535351685626
Epoch: 6400, Error: 0.011641706067443773
Epoch: 6500, Error: 0.011763781654751804
Epoch: 6600, Error: 0.011644479868333743
Epoch: 6700, Error: 0.011613002594907397
Epoch: 6800, Error: 0.011614118110721642
Epoch: 6900, Error: 0.011550756432983767
Epoch: 7000, Error: 0.011566039761186305
Epoch: 7100, Error: 0.011575116628215315
Epoch: 7200, Error: 0.011601570541317852
Epoch: 7300, Error: 0.011607528822454005
Epoch: 7400, Error: 0.011533013501854752
Epoch: 7500, Error: 0.011542882203990268
Epoch: 7600, Error: 0.011497811237824273
Epoch: 7700, Error: 0.011519112074787166
Epoch: 7800, Error: 0.011530820100602798
Epoch: 7900, Error: 0.011490433391910313
Epoch: 8000, Error: 0.011440886520375925
Epoch: 8100, Error: 0.01151831025385091
Epoch: 8200, Error: 0.011462466473738997
Epoch: 8300, Error: 0.011381264694478564
Epoch: 8400, Error: 0.011409332529267667
Epoch: 8500, Error: 0.011341113043655938
Epoch: 8600, Error: 0.01137134113897583
Epoch: 8700, Error: 0.011343708777481358
Epoch: 8800, Error: 0.011318701020843609
Epoch: 8900, Error: 0.011317268785042495
Epoch: 9000, Error: 0.011265641705272222
Epoch: 9100, Error: 0.011215464155006747
Epoch: 9200, Error: 0.011167859312036383
Epoch: 9300, Error: 0.011133269165784691
Epoch: 9400, Error: 0.011475418329217953
Epoch: 9500, Error: 0.011097662282351149
Epoch: 9600, Error: 0.01104701586441188
Epoch: 9700, Error: 0.011008429290164719
Epoch: 9800, Error: 0.011046576551679888
Epoch: 9900, Error: 0.011021836696300795
Epoch: 10000, Error: 0.010890757214692567
Epoch: 10100, Error: 0.010843206819241627
Epoch: 10200, Error: 0.01082420920765427
Epoch: 10300, Error: 0.011396799116889133
Epoch: 10400, Error: 0.010708965575828625
Epoch: 10500, Error: 0.01065645008458448
Epoch: 10600, Error: 0.010627707082819394
Epoch: 10700, Error: 0.01058128890442704
Epoch: 10800, Error: 0.010484413158123632
Epoch: 10900, Error: 0.010404057487314126
Epoch: 11000, Error: 0.01044307022256242
Epoch: 11100, Error: 0.010327841254294895
Epoch: 11200, Error: 0.010274840751605802
Epoch: 11300, Error: 0.01015781713617838
Epoch: 11400, Error: 0.010244776652317034
Epoch: 11500, Error: 0.010005525660009833
Epoch: 11600, Error: 0.00995275716181383
Epoch: 11700, Error: 0.009896253199121446
Epoch: 11800, Error: 0.009824609532415386
Epoch: 11900, Error: 0.009746636597719125
Epoch: 12000, Error: 0.009650685295466198
Epoch: 12100, Error: 0.009591806371321248
Epoch: 12200, Error: 0.009553333884546733
Epoch: 12300, Error: 0.009484644339288835
Epoch: 12400, Error: 0.009383993963409656
Epoch: 12500, Error: 0.009303884369353806
Epoch: 12600, Error: 0.009269217953327663
Epoch: 12700, Error: 0.009174541435452882
Epoch: 12800, Error: 0.009072497119560827
Epoch: 12900, Error: 0.009030376408593962
Epoch: 13000, Error: 0.009058006798421713
Epoch: 13100, Error: 0.0088579879376252
Epoch: 13200, Error: 0.00881895818729976
Epoch: 13300, Error: 0.00878674800913656
Epoch: 13400, Error: 0.008647382276743706
Epoch: 13500, Error: 0.008577692752550081
Epoch: 13600, Error: 0.008561249539789074
Epoch: 13700, Error: 0.008536412028389293
Epoch: 13800, Error: 0.008394345144252458
Epoch: 13900, Error: 0.008335288894645547
Epoch: 14000, Error: 0.008263108032968158
Epoch: 14100, Error: 0.00839268741795666
Epoch: 14200, Error: 0.00814813714715127
Epoch: 14300, Error: 0.008091021152417121
Epoch: 14400, Error: 0.008016053429613895
Epoch: 14500, Error: 0.007934744955143201
Epoch: 14600, Error: 0.007935390827367196
Epoch: 14700, Error: 0.007826645010422156
Epoch: 14800, Error: 0.007777934491973797
Epoch: 14900, Error: 0.007789283679822909
Epoch: 15000, Error: 0.007719816686914144
Epoch: 15100, Error: 0.0077776811051461225
Epoch: 15200, Error: 0.007646147848483791
Epoch: 15300, Error: 0.00757105141555285
Epoch: 15400, Error: 0.007509161518832232
Epoch: 15500, Error: 0.007478645352319119
Epoch: 15600, Error: 0.007422527944604678
Epoch: 15700, Error: 0.00738938081694208
Epoch: 15800, Error: 0.007366233621389106
Epoch: 15900, Error: 0.007367037532769333
Epoch: 16000, Error: 0.00730327881809723
Epoch: 16100, Error: 0.007252250522653788
Epoch: 16200, Error: 0.007194736104624062
Epoch: 16300, Error: 0.007163364014063255
Epoch: 16400, Error: 0.007131793710298099
Epoch: 16500, Error: 0.007130214619469239
Epoch: 16600, Error: 0.0070557991847398005
Epoch: 16700, Error: 0.006999399337210681
Epoch: 16800, Error: 0.00698553672441837
Epoch: 16900, Error: 0.006953947087769812
Epoch: 17000, Error: 0.00690920297567505
Epoch: 17100, Error: 0.0068648097376353065
Epoch: 17200, Error: 0.006915314078649683
Epoch: 17300, Error: 0.006822983767573226
Epoch: 17400, Error: 0.006786827431718296
Epoch: 17500, Error: 0.0067331459135878055
Epoch: 17600, Error: 0.006686730174592571
Epoch: 17700, Error: 0.006661017523213621
Epoch: 17800, Error: 0.006628795790006265
Epoch: 17900, Error: 0.006617808766931663
Epoch: 18000, Error: 0.006570608237209869
Epoch: 18100, Error: 0.0065573930725617135
Epoch: 18200, Error: 0.006511352275266928
Epoch: 18300, Error: 0.0064949125896278685
Epoch: 18400, Error: 0.006486825206309064
Epoch: 18500, Error: 0.006509469406855024
Epoch: 18600, Error: 0.0064356763952179066
Epoch: 18700, Error: 0.006577717347185047
Epoch: 18800, Error: 0.006340360857745903
Epoch: 18900, Error: 0.0063143572322840605
Epoch: 19000, Error: 0.006299116453184192
Epoch: 19100, Error: 0.0062637635535252815
Epoch: 19200, Error: 0.006250314928917896
Epoch: 19300, Error: 0.006206207162368405
Epoch: 19400, Error: 0.006204358407148665
Epoch: 19500, Error: 0.0061678410175011154
Epoch: 19600, Error: 0.006145380513144443
Epoch: 19700, Error: 0.006125338052659993
Epoch: 19800, Error: 0.0061064412897444
Epoch: 19900, Error: 0.006098497407164185
Epoch: 20000, Error: 0.006058922668682007
Epoch: 20100, Error: 0.006055667605319559
Epoch: 20200, Error: 0.00608688002363009
Epoch: 20300, Error: 0.006014940454901263
Epoch: 20400, Error: 0.005991714279815264
Epoch: 20500, Error: 0.005968023829887115
Epoch: 20600, Error: 0.005970389420071887
Epoch: 20700, Error: 0.005933877797028405
Epoch: 20800, Error: 0.005923020207952879
Epoch: 20900, Error: 0.005893873704985932
Epoch: 21000, Error: 0.005893018639065859
Epoch: 21100, Error: 0.005847736777663807
Epoch: 21200, Error: 0.005828482385993432
Epoch: 21300, Error: 0.005817326768792769
Epoch: 21400, Error: 0.00581103210637206
Epoch: 21500, Error: 0.005789856807217856
Epoch: 21600, Error: 0.005778731147173827
Epoch: 21700, Error: 0.0057675777150753
Epoch: 21800, Error: 0.0057569955444432925
Epoch: 21900, Error: 0.0057556365491060685
Epoch: 22000, Error: 0.005795662450298073
Epoch: 22100, Error: 0.005752578060109879
Epoch: 22200, Error: 0.00572523274841957
Epoch: 22300, Error: 0.00572415362501067
Epoch: 22400, Error: 0.005715509265295082
Epoch: 22500, Error: 0.005708895900164367
Epoch: 22600, Error: 0.005708780715393076
Epoch: 22700, Error: 0.005703479206104548
Epoch: 22800, Error: 0.005697512906085782
Epoch: 22900, Error: 0.005738857081764141
Epoch: 23000, Error: 0.005693336726873643
Epoch: 23100, Error: 0.005685464286800093
Epoch: 23200, Error: 0.005680653454091898
Epoch: 23300, Error: 0.005677818979114054
Finished
