Input Patterns
0.224 0.624 0.067 0.043 
0.11 0.502 0.051 0.043 
0.196 0.667 0.067 0.043 
0.055 0.584 0.067 0.082 
0.027 0.376 0.067 0.043 
0.306 0.71 0.086 0.043 
0.137 0.416 0.067 0.0 
0.416 0.831 0.035 0.043 
0.306 0.792 0.051 0.125 
0.388 0.749 0.118 0.082 
0.306 0.584 0.118 0.043 
0.082 0.667 0.0 0.043 
0.137 0.584 0.153 0.043 
0.196 0.584 0.102 0.125 
0.251 0.584 0.067 0.043 
0.137 0.459 0.102 0.043 
0.251 0.875 0.086 0.0 
0.165 0.459 0.086 0.043 
0.333 0.624 0.051 0.043 
0.027 0.416 0.051 0.043 
0.196 0.624 0.051 0.082 
0.027 0.502 0.051 0.043 
0.224 0.749 0.153 0.125 
0.224 0.749 0.102 0.043 
0.278 0.71 0.086 0.043 
0.165 0.416 0.067 0.043 
0.082 0.459 0.086 0.043 
0.306 0.792 0.118 0.125 
0.196 0.584 0.086 0.043 
0.165 0.459 0.086 0.0 
0.137 0.584 0.102 0.043 
0.0 0.416 0.016 0.0 
0.388 1.0 0.086 0.125 
0.224 0.624 0.067 0.082 
0.224 0.749 0.086 0.082 
0.224 0.71 0.086 0.125 
0.224 0.541 0.118 0.165 
0.196 0.416 0.102 0.043 
0.251 0.624 0.086 0.043 
0.11 0.502 0.102 0.043 
0.306 0.584 0.086 0.125 
0.333 0.918 0.067 0.043 
0.196 0.502 0.035 0.043 
0.165 0.667 0.067 0.0 
0.224 0.584 0.086 0.043 
0.055 0.125 0.051 0.082 
0.196 0.624 0.102 0.208 
0.137 0.416 0.067 0.082 
0.082 0.502 0.067 0.043 
0.196 0.541 0.067 0.043 
0.749 0.502 0.627 0.541 
0.722 0.459 0.663 0.584 
0.612 0.333 0.612 0.584 
0.557 0.541 0.627 0.624 
0.639 0.376 0.612 0.498 
0.196 0.0 0.424 0.376 
0.471 0.082 0.51 0.376 
0.361 0.376 0.439 0.498 
0.361 0.416 0.592 0.584 
0.529 0.082 0.592 0.584 
0.443 0.502 0.643 0.459 
0.557 0.208 0.663 0.584 
0.584 0.376 0.561 0.498 
0.694 0.333 0.643 0.541 
0.471 0.376 0.592 0.584 
0.333 0.169 0.475 0.416 
0.416 0.29 0.49 0.459 
0.306 0.416 0.592 0.584 
0.667 0.459 0.627 0.584 
0.361 0.416 0.525 0.498 
0.333 0.251 0.576 0.459 
0.416 0.251 0.51 0.459 
0.361 0.29 0.541 0.498 
0.388 0.376 0.541 0.498 
0.224 0.208 0.337 0.416 
0.584 0.502 0.592 0.584 
0.333 0.125 0.51 0.498 
0.388 0.333 0.592 0.498 
0.165 0.169 0.388 0.376 
0.251 0.29 0.49 0.541 
0.443 0.416 0.541 0.584 
0.498 0.376 0.627 0.541 
0.667 0.459 0.576 0.541 
0.416 0.29 0.525 0.376 
0.361 0.208 0.49 0.416 
0.498 0.333 0.51 0.498 
0.498 0.333 0.627 0.459 
0.639 0.416 0.576 0.541 
0.667 0.416 0.678 0.667 
0.388 0.251 0.424 0.376 
0.333 0.169 0.459 0.376 
0.471 0.29 0.694 0.624 
0.471 0.584 0.592 0.624 
0.557 0.125 0.576 0.498 
0.333 0.208 0.51 0.498 
0.498 0.416 0.612 0.541 
0.196 0.125 0.388 0.376 
0.388 0.416 0.541 0.459 
0.529 0.376 0.561 0.498 
0.388 0.333 0.525 0.498 
0.557 0.541 0.847 1.0 
0.776 0.416 0.831 0.831 
0.612 0.416 0.812 0.875 
0.165 0.208 0.592 0.667 
0.667 0.208 0.812 0.71 
0.612 0.502 0.694 0.792 
0.694 0.416 0.761 0.831 
0.416 0.333 0.694 0.957 
0.612 0.416 0.761 0.71 
0.945 0.251 1.0 0.918 
0.722 0.502 0.796 0.918 
0.945 0.333 0.965 0.792 
0.667 0.541 0.796 0.831 
0.529 0.333 0.643 0.71 
0.584 0.333 0.78 0.831 
0.863 0.333 0.863 0.749 
0.584 0.333 0.78 0.875 
0.498 0.251 0.78 0.541 
0.557 0.584 0.78 0.957 
0.471 0.416 0.643 0.71 
0.667 0.459 0.78 0.957 
0.416 0.29 0.694 0.749 
0.667 0.541 0.796 1.0 
0.557 0.208 0.678 0.749 
0.529 0.584 0.745 0.918 
0.416 0.29 0.694 0.749 
0.557 0.376 0.78 0.71 
0.918 0.416 0.949 0.831 
0.835 0.376 0.898 0.71 
0.804 0.667 0.863 1.0 
0.584 0.29 0.729 0.749 
0.388 0.208 0.678 0.792 
0.584 0.502 0.729 0.918 
0.945 0.749 0.965 0.875 
0.471 0.082 0.678 0.584 
0.361 0.333 0.663 0.792 
0.557 0.29 0.663 0.71 
0.804 0.502 0.847 0.71 
0.498 0.416 0.51 0.71 
0.804 0.416 0.812 0.624 
1.0 0.749 0.914 0.792 
0.557 0.333 0.694 0.584 
0.945 0.416 0.863 0.918 
0.584 0.459 0.761 0.71 
0.722 0.459 0.745 0.831 
0.722 0.459 0.694 0.918 
0.694 0.502 0.831 0.918 
0.667 0.416 0.714 0.918 
0.612 0.416 0.714 0.792 
0.443 0.416 0.694 0.71 
Teaching Patterns
1.0 0.0 0.0 
1.0 0.0 0.0 
1.0 0.0 0.0 
1.0 0.0 0.0 
1.0 0.0 0.0 
1.0 0.0 0.0 
1.0 0.0 0.0 
1.0 0.0 0.0 
1.0 0.0 0.0 
1.0 0.0 0.0 
1.0 0.0 0.0 
1.0 0.0 0.0 
1.0 0.0 0.0 
1.0 0.0 0.0 
1.0 0.0 0.0 
1.0 0.0 0.0 
1.0 0.0 0.0 
1.0 0.0 0.0 
1.0 0.0 0.0 
1.0 0.0 0.0 
1.0 0.0 0.0 
1.0 0.0 0.0 
1.0 0.0 0.0 
1.0 0.0 0.0 
1.0 0.0 0.0 
1.0 0.0 0.0 
1.0 0.0 0.0 
1.0 0.0 0.0 
1.0 0.0 0.0 
1.0 0.0 0.0 
1.0 0.0 0.0 
1.0 0.0 0.0 
1.0 0.0 0.0 
1.0 0.0 0.0 
1.0 0.0 0.0 
1.0 0.0 0.0 
1.0 0.0 0.0 
1.0 0.0 0.0 
1.0 0.0 0.0 
1.0 0.0 0.0 
1.0 0.0 0.0 
1.0 0.0 0.0 
1.0 0.0 0.0 
1.0 0.0 0.0 
1.0 0.0 0.0 
1.0 0.0 0.0 
1.0 0.0 0.0 
1.0 0.0 0.0 
1.0 0.0 0.0 
1.0 0.0 0.0 
0.0 1.0 0.0 
0.0 1.0 0.0 
0.0 1.0 0.0 
0.0 1.0 0.0 
0.0 1.0 0.0 
0.0 1.0 0.0 
0.0 1.0 0.0 
0.0 1.0 0.0 
0.0 1.0 0.0 
0.0 1.0 0.0 
0.0 1.0 0.0 
0.0 1.0 0.0 
0.0 1.0 0.0 
0.0 1.0 0.0 
0.0 1.0 0.0 
0.0 1.0 0.0 
0.0 1.0 0.0 
0.0 1.0 0.0 
0.0 1.0 0.0 
0.0 1.0 0.0 
0.0 1.0 0.0 
0.0 1.0 0.0 
0.0 1.0 0.0 
0.0 1.0 0.0 
0.0 1.0 0.0 
0.0 1.0 0.0 
0.0 1.0 0.0 
0.0 1.0 0.0 
0.0 1.0 0.0 
0.0 1.0 0.0 
0.0 1.0 0.0 
0.0 1.0 0.0 
0.0 1.0 0.0 
0.0 1.0 0.0 
0.0 1.0 0.0 
0.0 1.0 0.0 
0.0 1.0 0.0 
0.0 1.0 0.0 
0.0 1.0 0.0 
0.0 1.0 0.0 
0.0 1.0 0.0 
0.0 1.0 0.0 
0.0 1.0 0.0 
0.0 1.0 0.0 
0.0 1.0 0.0 
0.0 1.0 0.0 
0.0 1.0 0.0 
0.0 1.0 0.0 
0.0 1.0 0.0 
0.0 1.0 0.0 
0.0 0.0 1.0 
0.0 0.0 1.0 
0.0 0.0 1.0 
0.0 0.0 1.0 
0.0 0.0 1.0 
0.0 0.0 1.0 
0.0 0.0 1.0 
0.0 0.0 1.0 
0.0 0.0 1.0 
0.0 0.0 1.0 
0.0 0.0 1.0 
0.0 0.0 1.0 
0.0 0.0 1.0 
0.0 0.0 1.0 
0.0 0.0 1.0 
0.0 0.0 1.0 
0.0 0.0 1.0 
0.0 0.0 1.0 
0.0 0.0 1.0 
0.0 0.0 1.0 
0.0 0.0 1.0 
0.0 0.0 1.0 
0.0 0.0 1.0 
0.0 0.0 1.0 
0.0 0.0 1.0 
0.0 0.0 1.0 
0.0 0.0 1.0 
0.0 0.0 1.0 
0.0 0.0 1.0 
0.0 0.0 1.0 
0.0 0.0 1.0 
0.0 0.0 1.0 
0.0 0.0 1.0 
0.0 0.0 1.0 
0.0 0.0 1.0 
0.0 0.0 1.0 
0.0 0.0 1.0 
0.0 0.0 1.0 
0.0 0.0 1.0 
0.0 0.0 1.0 
0.0 0.0 1.0 
0.0 0.0 1.0 
0.0 0.0 1.0 
0.0 0.0 1.0 
0.0 0.0 1.0 
0.0 0.0 1.0 
0.0 0.0 1.0 
0.0 0.0 1.0 
0.0 0.0 1.0 
0.0 0.0 1.0 
Learning : 0.05
Momentum : 0.8999999761581421
Epoch: 100, Error: 0.023087331985936224
Epoch: 200, Error: 0.01697112479726257
Epoch: 300, Error: 0.015076397103323041
Epoch: 400, Error: 0.014334830034060587
Epoch: 500, Error: 0.013844084688227558
Epoch: 600, Error: 0.013397465049232496
Epoch: 700, Error: 0.013201565358472497
Epoch: 800, Error: 0.012871272330951497
Epoch: 900, Error: 0.01298275369094995
Epoch: 1000, Error: 0.012752557594345394
Epoch: 1100, Error: 0.012612456320545773
Epoch: 1200, Error: 0.012637754826936383
Epoch: 1300, Error: 0.01254456090992423
Epoch: 1400, Error: 0.012543791078019718
Epoch: 1500, Error: 0.012423321183385431
Epoch: 1600, Error: 0.012425429873228597
Epoch: 1700, Error: 0.012440082349713798
Epoch: 1800, Error: 0.012571739108465464
Epoch: 1900, Error: 0.01245448359100645
Epoch: 2000, Error: 0.01237693391125453
Epoch: 2100, Error: 0.012287199903717379
Epoch: 2200, Error: 0.012287058469083368
Epoch: 2300, Error: 0.012435731907066266
Epoch: 2400, Error: 0.012334970227229253
Epoch: 2500, Error: 0.01218813834487685
Epoch: 2600, Error: 0.012176051836568863
Epoch: 2700, Error: 0.012554569853321538
Epoch: 2800, Error: 0.01227572451710395
Epoch: 2900, Error: 0.012295503680200695
Epoch: 3000, Error: 0.012183183223152401
Epoch: 3100, Error: 0.012249434474820919
Epoch: 3200, Error: 0.012153059891924512
Epoch: 3300, Error: 0.012270916203783018
Epoch: 3400, Error: 0.012123963905531044
Epoch: 3500, Error: 0.012088424309615726
Epoch: 3600, Error: 0.01211916287263254
Epoch: 3700, Error: 0.012106506071779351
Epoch: 3800, Error: 0.012216028415654976
Epoch: 3900, Error: 0.01196697499464363
Epoch: 4000, Error: 0.012020687638427561
Epoch: 4100, Error: 0.011986302767582176
Epoch: 4200, Error: 0.012011355666023163
Epoch: 4300, Error: 0.012038958959346258
Epoch: 4400, Error: 0.011942888985194114
Epoch: 4500, Error: 0.012079865949771703
Epoch: 4600, Error: 0.012050930735441312
Epoch: 4700, Error: 0.011960680441510841
Epoch: 4800, Error: 0.011910589647524622
Epoch: 4900, Error: 0.011956622347624384
Epoch: 5000, Error: 0.012069161330984348
Epoch: 5100, Error: 0.011961689253397308
Epoch: 5200, Error: 0.012166641927329282
Epoch: 5300, Error: 0.011959658510369908
Epoch: 5400, Error: 0.0120313107390867
Epoch: 5500, Error: 0.012115123427549846
Epoch: 5600, Error: 0.011953691342248537
Epoch: 5700, Error: 0.01203488348575823
Epoch: 5800, Error: 0.012037809594498468
Epoch: 5900, Error: 0.012047688068410353
Epoch: 6000, Error: 0.01196993602256105
Epoch: 6100, Error: 0.01200512829571415
Epoch: 6200, Error: 0.012000232587889846
Epoch: 6300, Error: 0.011979293565203754
Epoch: 6400, Error: 0.012066799842749987
Epoch: 6500, Error: 0.01201592574528987
Epoch: 6600, Error: 0.01200517242747592
Epoch: 6700, Error: 0.011928114418225031
Epoch: 6800, Error: 0.012022948702769366
Epoch: 6900, Error: 0.011920651796846215
Epoch: 7000, Error: 0.012031408958946228
Epoch: 7100, Error: 0.011977025797823997
Epoch: 7200, Error: 0.01221089956789514
Epoch: 7300, Error: 0.012079456077262707
Epoch: 7400, Error: 0.0120915290692206
Epoch: 7500, Error: 0.011906951322013156
Epoch: 7600, Error: 0.012045859112138709
Epoch: 7700, Error: 0.011994404470014422
Epoch: 7800, Error: 0.01199916935805442
Epoch: 7900, Error: 0.012128711967668142
Epoch: 8000, Error: 0.011992482625739516
Epoch: 8100, Error: 0.012013469687072896
Epoch: 8200, Error: 0.011957024120898153
Epoch: 8300, Error: 0.011984161402881086
Epoch: 8400, Error: 0.011993353734976054
Epoch: 8500, Error: 0.012007576481504195
Epoch: 8600, Error: 0.012113380836849302
Epoch: 8700, Error: 0.011978002776916916
Epoch: 8800, Error: 0.01191736080185151
Epoch: 8900, Error: 0.011909058971474696
Epoch: 9000, Error: 0.011925167604178883
Epoch: 9100, Error: 0.011887626006603137
Epoch: 9200, Error: 0.011915549101078199
Epoch: 9300, Error: 0.011927208002521018
Epoch: 9400, Error: 0.011864936277171504
Epoch: 9500, Error: 0.01192956372389888
Epoch: 9600, Error: 0.011943934905719577
Epoch: 9700, Error: 0.01192001285675053
Epoch: 9800, Error: 0.011975145834427556
Epoch: 9900, Error: 0.011951254011904828
Epoch: 10000, Error: 0.012013738841098971
Epoch: 10100, Error: 0.012038035485355538
Epoch: 10200, Error: 0.012037785022255238
Epoch: 10300, Error: 0.012049783142461162
Epoch: 10400, Error: 0.011982960465851497
Epoch: 10500, Error: 0.011999157113021975
Epoch: 10600, Error: 0.012018072467452477
Epoch: 10700, Error: 0.01194397276928676
Epoch: 10800, Error: 0.011879215204380738
Epoch: 10900, Error: 0.011904856754298107
Epoch: 11000, Error: 0.011874766882385196
Epoch: 11100, Error: 0.01188028475991772
Epoch: 11200, Error: 0.011914539538212534
Epoch: 11300, Error: 0.012062207915904337
Epoch: 11400, Error: 0.011860077615917177
Epoch: 11500, Error: 0.01193008458478732
Epoch: 11600, Error: 0.011857017205745514
Epoch: 11700, Error: 0.011909818939203247
Epoch: 11800, Error: 0.011923254493602235
Epoch: 11900, Error: 0.011908845500025094
Epoch: 12000, Error: 0.011956351242871227
Epoch: 12100, Error: 0.011971301358835788
Epoch: 12200, Error: 0.011960855029701198
Epoch: 12300, Error: 0.011858680587872072
Epoch: 12400, Error: 0.011919937631479924
Epoch: 12500, Error: 0.011879555050971097
Epoch: 12600, Error: 0.011861529195485937
Epoch: 12700, Error: 0.011940733194111569
Epoch: 12800, Error: 0.011862592684099584
Epoch: 12900, Error: 0.011817792914158607
Epoch: 13000, Error: 0.011825262232166083
Epoch: 13100, Error: 0.011876051249722745
Epoch: 13200, Error: 0.011983204414968926
Epoch: 13300, Error: 0.011810237958278156
Epoch: 13400, Error: 0.011826685088404882
Epoch: 13500, Error: 0.011805095388893285
Epoch: 13600, Error: 0.011901788878160395
Epoch: 13700, Error: 0.011749246960666043
Epoch: 13800, Error: 0.01177686508909401
Epoch: 13900, Error: 0.011804362384561121
Epoch: 14000, Error: 0.01179384406641957
Epoch: 14100, Error: 0.011775366827342666
Epoch: 14200, Error: 0.011663641522399478
Epoch: 14300, Error: 0.011793218039475745
Epoch: 14400, Error: 0.011724523191729574
Epoch: 14500, Error: 0.011640024309679801
Epoch: 14600, Error: 0.011689554517078038
Epoch: 14700, Error: 0.011600741737242449
Epoch: 14800, Error: 0.011755392022427091
Epoch: 14900, Error: 0.011561604731000279
Epoch: 15000, Error: 0.011668116467583506
Epoch: 15100, Error: 0.011535018963902664
Epoch: 15200, Error: 0.011565476967030057
Epoch: 15300, Error: 0.01148768315882527
Epoch: 15400, Error: 0.011485147107538158
Epoch: 15500, Error: 0.01149046702325954
Epoch: 15600, Error: 0.011456677396741305
Epoch: 15700, Error: 0.011419496916908176
Epoch: 15800, Error: 0.011330367195020301
Epoch: 15900, Error: 0.01143985079057467
Epoch: 16000, Error: 0.011269123266475698
Epoch: 16100, Error: 0.01127100492107812
Epoch: 16200, Error: 0.011162236126779364
Epoch: 16300, Error: 0.011276444013086112
Epoch: 16400, Error: 0.011129451724615068
Epoch: 16500, Error: 0.01108326809721229
Epoch: 16600, Error: 0.011147219849009214
Epoch: 16700, Error: 0.011156471810200658
Epoch: 16800, Error: 0.011136902152127738
Epoch: 16900, Error: 0.011040574929722914
Epoch: 17000, Error: 0.011134957054722254
Epoch: 17100, Error: 0.011049941534792879
Epoch: 17200, Error: 0.010874373791616281
Epoch: 17300, Error: 0.010901492921901748
Epoch: 17400, Error: 0.010779838166247911
Epoch: 17500, Error: 0.010680101930229174
Epoch: 17600, Error: 0.010579021852216175
Epoch: 17700, Error: 0.010611119348837681
Epoch: 17800, Error: 0.010520199032015728
Epoch: 17900, Error: 0.010516576556333259
Epoch: 18000, Error: 0.010451972723981014
Epoch: 18100, Error: 0.01037413560968695
Epoch: 18200, Error: 0.010272798382548156
Epoch: 18300, Error: 0.010193084499733291
Epoch: 18400, Error: 0.01004630339044795
Epoch: 18500, Error: 0.0100861847094979
Epoch: 18600, Error: 0.010008511895842478
Epoch: 18700, Error: 0.009893136884892613
Epoch: 18800, Error: 0.009899056740832787
Epoch: 18900, Error: 0.009755704581503124
Epoch: 19000, Error: 0.009701882012801817
Epoch: 19100, Error: 0.009618115221186696
Epoch: 19200, Error: 0.009521977320131353
Epoch: 19300, Error: 0.00942281063903876
Epoch: 19400, Error: 0.009294325830613731
Epoch: 19500, Error: 0.009204336256658898
Epoch: 19600, Error: 0.009120919326311726
Epoch: 19700, Error: 0.009133589444187086
Epoch: 19800, Error: 0.009028500846670314
Epoch: 19900, Error: 0.008928169692042872
Epoch: 20000, Error: 0.00906595642718975
Epoch: 20100, Error: 0.008785159882663651
Epoch: 20200, Error: 0.00870794706528606
Epoch: 20300, Error: 0.008643884536086065
Epoch: 20400, Error: 0.008654137712554869
Epoch: 20500, Error: 0.008525510345352623
Epoch: 20600, Error: 0.008422440432101328
Epoch: 20700, Error: 0.00839689335309264
Epoch: 20800, Error: 0.008266707521208304
Epoch: 20900, Error: 0.008254304152024775
Epoch: 21000, Error: 0.00809664273670859
Epoch: 21100, Error: 0.008020032894428335
Epoch: 21200, Error: 0.007920724993077338
Epoch: 21300, Error: 0.00786612975922081
Epoch: 21400, Error: 0.007673304577950195
Epoch: 21500, Error: 0.007603923923833304
Epoch: 21600, Error: 0.007503110819005319
Epoch: 21700, Error: 0.0074185924317616515
Epoch: 21800, Error: 0.007289161261640811
Epoch: 21900, Error: 0.007198483228856668
Epoch: 22000, Error: 0.007123768577217229
Epoch: 22100, Error: 0.007016486992688173
Epoch: 22200, Error: 0.006942251502242318
Epoch: 22300, Error: 0.006865151401898876
Epoch: 22400, Error: 0.006804504297040824
Epoch: 22500, Error: 0.00676877774189989
Epoch: 22600, Error: 0.006709062049313784
Epoch: 22700, Error: 0.006639779074876557
Epoch: 22800, Error: 0.0065654361219056115
Epoch: 22900, Error: 0.00667816144544705
Epoch: 23000, Error: 0.00644449435614344
Epoch: 23100, Error: 0.006397935061878433
Epoch: 23200, Error: 0.0063358302642424185
Epoch: 23300, Error: 0.0063579664014812185
Epoch: 23400, Error: 0.00624717250422019
Epoch: 23500, Error: 0.006193417463931841
Epoch: 23600, Error: 0.0061362387669159114
Epoch: 23700, Error: 0.006106862036031124
Epoch: 23800, Error: 0.00607292070164115
Epoch: 23900, Error: 0.0060109725551899355
Epoch: 24000, Error: 0.005983401856740308
Epoch: 24100, Error: 0.005954227808892632
Epoch: 24200, Error: 0.0058923004733456305
Epoch: 24300, Error: 0.005845172116460456
Epoch: 24400, Error: 0.005809444292596026
Epoch: 24500, Error: 0.0057839257539153205
Epoch: 24600, Error: 0.005761949444328069
Epoch: 24700, Error: 0.0057277122086311985
Epoch: 24800, Error: 0.005690930794920071
Epoch: 24900, Error: 0.005654370359718684
Epoch: 25000, Error: 0.005635785610401227
Epoch: 25100, Error: 0.005609258992298796
Epoch: 25200, Error: 0.005565815340437463
Epoch: 25300, Error: 0.005555248496946726
Epoch: 25400, Error: 0.005506567897319749
Epoch: 25500, Error: 0.00550585695713605
Epoch: 25600, Error: 0.005474025631786648
Epoch: 25700, Error: 0.00546553727268559
Epoch: 25800, Error: 0.005485820148556572
Epoch: 25900, Error: 0.005410893650644591
Epoch: 26000, Error: 0.00540675733607265
Epoch: 26100, Error: 0.005386287180912886
Epoch: 26200, Error: 0.005361760317094454
Epoch: 26300, Error: 0.005350301312035178
Epoch: 26400, Error: 0.00534649326364225
Epoch: 26500, Error: 0.005321289030139786
Epoch: 26600, Error: 0.005337887612150469
Epoch: 26700, Error: 0.005317111362300732
Epoch: 26800, Error: 0.005309118333651869
Epoch: 26900, Error: 0.00528281547174522
Epoch: 27000, Error: 0.00526182497419794
Epoch: 27100, Error: 0.0052040432173678704
Epoch: 27200, Error: 0.005256525104378513
Epoch: 27300, Error: 0.00523716916242607
Epoch: 27400, Error: 0.005240175609414954
Epoch: 27500, Error: 0.005257380037046676
Epoch: 27600, Error: 0.005267001477104793
Epoch: 27700, Error: 0.005239751766623425
Epoch: 27800, Error: 0.005182089251384197
Epoch: 27900, Error: 0.0051842134215979154
Epoch: 28000, Error: 0.0052370900195300866
Epoch: 28100, Error: 0.005177974826921069
Epoch: 28200, Error: 0.005152385293615168
Epoch: 28300, Error: 0.005240945722773942
Epoch: 28400, Error: 0.0050662229668640485
Epoch: 28500, Error: 0.005038281712201967
Epoch: 28600, Error: 0.0049765883003195215
Epoch: 28700, Error: 0.004953666321853619
Epoch: 28800, Error: 0.004942960128102672
Epoch: 28900, Error: 0.004903114638901318
Epoch: 29000, Error: 0.004887759429368862
Epoch: 29100, Error: 0.004851370173389066
Epoch: 29200, Error: 0.004869799039483988
Epoch: 29300, Error: 0.004973653090234912
Epoch: 29400, Error: 0.004833375088380243
Epoch: 29500, Error: 0.004783083001999774
Epoch: 29600, Error: 0.004808426220895248
Epoch: 29700, Error: 0.004715204447090091
Epoch: 29800, Error: 0.004694382670308896
Epoch: 29900, Error: 0.004606567750304335
Epoch: 30000, Error: 0.0045460445839268235
Epoch: 30100, Error: 0.004570685543054734
Epoch: 30200, Error: 0.00448477710648746
Epoch: 30300, Error: 0.004439184453688366
Epoch: 30400, Error: 0.004436886362402072
Epoch: 30500, Error: 0.004407048237334125
Epoch: 30600, Error: 0.00431379182534709
Epoch: 30700, Error: 0.0042933536053694835
Epoch: 30800, Error: 0.004244814260960511
Epoch: 30900, Error: 0.004212526844980813
Epoch: 31000, Error: 0.004186843815656239
Epoch: 31100, Error: 0.004145887208658785
Epoch: 31200, Error: 0.004116995864310102
Epoch: 31300, Error: 0.004087466350253319
Epoch: 31400, Error: 0.004066982395881862
Epoch: 31500, Error: 0.004033550476544983
Epoch: 31600, Error: 0.003970953044271687
Epoch: 31700, Error: 0.003942715056524019
Epoch: 31800, Error: 0.0039252750780360375
Epoch: 31900, Error: 0.003883190433175635
Epoch: 32000, Error: 0.0038486133929300876
Epoch: 32100, Error: 0.003881780076744696
Epoch: 32200, Error: 0.0037855360642869507
Epoch: 32300, Error: 0.0038355905188523207
Epoch: 32400, Error: 0.003767482167999627
Epoch: 32500, Error: 0.0036844818849188954
Epoch: 32600, Error: 0.003656660957991196
Epoch: 32700, Error: 0.0036255776843145313
Epoch: 32800, Error: 0.00363015726067386
Epoch: 32900, Error: 0.003567973872724177
Epoch: 33000, Error: 0.0035424961751151897
Epoch: 33100, Error: 0.0035102350969321416
Epoch: 33200, Error: 0.0034871934977327573
Epoch: 33300, Error: 0.0034733958570346522
Epoch: 33400, Error: 0.003446297941920501
Epoch: 33500, Error: 0.0034089978870790075
Epoch: 33600, Error: 0.003512680086678188
Epoch: 33700, Error: 0.0033486226957394395
Epoch: 33800, Error: 0.0033272123455271893
Epoch: 33900, Error: 0.0032930370556883536
Epoch: 34000, Error: 0.0032980446565707686
Epoch: 34100, Error: 0.003261436051006634
Epoch: 34200, Error: 0.0032353367799706476
Epoch: 34300, Error: 0.0032517496208960797
Epoch: 34400, Error: 0.0031759352869347927
Epoch: 34500, Error: 0.003144698701168413
Epoch: 34600, Error: 0.0031078940247162437
Epoch: 34700, Error: 0.0030680953796204252
Epoch: 34800, Error: 0.0031246431871807304
Epoch: 34900, Error: 0.003009036730673722
Epoch: 35000, Error: 0.0030685859679392743
Epoch: 35100, Error: 0.002972318791843769
Epoch: 35200, Error: 0.0029553350414054224
Epoch: 35300, Error: 0.0029094932313291763
Epoch: 35400, Error: 0.0029836993602230253
Epoch: 35500, Error: 0.0029388050678703925
Epoch: 35600, Error: 0.0028254789359458744
Epoch: 35700, Error: 0.0028481750613975334
Epoch: 35800, Error: 0.0027847087487091744
Epoch: 35900, Error: 0.0027573726302181096
Epoch: 36000, Error: 0.002737918575902664
Epoch: 36100, Error: 0.002759888403372036
Epoch: 36200, Error: 0.0027405481001244515
Epoch: 36300, Error: 0.0027192947128828857
Epoch: 36400, Error: 0.002684001170488162
Epoch: 36500, Error: 0.002620532976299413
Epoch: 36600, Error: 0.0029209275329968283
Epoch: 36700, Error: 0.0026198138342996297
Epoch: 36800, Error: 0.002629934618875457
Epoch: 36900, Error: 0.0027084507848947033
Epoch: 37000, Error: 0.002526321846774381
Epoch: 37100, Error: 0.0025667461173601073
Epoch: 37200, Error: 0.002512173136785074
Epoch: 37300, Error: 0.0024772966584472272
Epoch: 37400, Error: 0.0024541444552450705
Epoch: 37500, Error: 0.0024214570592856303
Epoch: 37600, Error: 0.0024147015364234183
Epoch: 37700, Error: 0.0023818075975042814
Epoch: 37800, Error: 0.002394559433612693
Epoch: 37900, Error: 0.0025168126503212008
Epoch: 38000, Error: 0.0023329685264471714
Epoch: 38100, Error: 0.0023334588049905122
Epoch: 38200, Error: 0.0022870172018932557
Epoch: 38300, Error: 0.0022660393689428703
Epoch: 38400, Error: 0.002262294534346304
Epoch: 38500, Error: 0.002267614675202248
Epoch: 38600, Error: 0.0022383188082497237
Epoch: 38700, Error: 0.002219354265632139
Epoch: 38800, Error: 0.0021833889754642763
Epoch: 38900, Error: 0.0022191410109043672
Epoch: 39000, Error: 0.0023474110103541917
Epoch: 39100, Error: 0.002174541942766747
Epoch: 39200, Error: 0.0021116130133108954
Epoch: 39300, Error: 0.0021772498411722985
Epoch: 39400, Error: 0.0020907612318114784
Epoch: 39500, Error: 0.002086126202553002
Epoch: 39600, Error: 0.0020470869986696843
Epoch: 39700, Error: 0.0020357036701272465
Epoch: 39800, Error: 0.0020144511766315397
Epoch: 39900, Error: 0.0020602381987359247
Epoch: 40000, Error: 0.0020146219570704466
Epoch: 40100, Error: 0.001958778111296667
Epoch: 40200, Error: 0.0019416037694391039
Epoch: 40300, Error: 0.001967794778772352
Epoch: 40400, Error: 0.0020237652620878244
Epoch: 40500, Error: 0.001898504868716784
Epoch: 40600, Error: 0.001877688637076835
Epoch: 40700, Error: 0.0018830381515101838
Epoch: 40800, Error: 0.0023742319841126404
Epoch: 40900, Error: 0.0018587672140230804
Epoch: 41000, Error: 0.0018496477201707282
Epoch: 41100, Error: 0.001859882836322679
Epoch: 41200, Error: 0.0018323181699144047
Epoch: 41300, Error: 0.0017874997390336616
Epoch: 41400, Error: 0.0017892201704055074
Epoch: 41500, Error: 0.0017625269918946967
Epoch: 41600, Error: 0.0017927330272449564
Epoch: 41700, Error: 0.0017734587612346939
Epoch: 41800, Error: 0.001799185818588594
Epoch: 41900, Error: 0.001725041228738187
Epoch: 42000, Error: 0.0018995194006756538
Epoch: 42100, Error: 0.0017150952404565779
Epoch: 42200, Error: 0.0016839187581748254
Epoch: 42300, Error: 0.0016747099866983581
Epoch: 42400, Error: 0.0016705681927010872
Epoch: 42500, Error: 0.0016738611946645124
Epoch: 42600, Error: 0.0016897472092189864
Epoch: 42700, Error: 0.0016358310867713656
Epoch: 42800, Error: 0.0016824024474746588
Epoch: 42900, Error: 0.0016081047590681887
Epoch: 43000, Error: 0.0016478832108474508
Epoch: 43100, Error: 0.001571700346074041
Epoch: 43200, Error: 0.0015782167424672146
Epoch: 43300, Error: 0.0015774578551751449
Epoch: 43400, Error: 0.0015835029515164768
Epoch: 43500, Error: 0.0016010985349851
Epoch: 43600, Error: 0.0015532577849697521
Epoch: 43700, Error: 0.0015655904761275891
Epoch: 43800, Error: 0.0015733242132554058
Epoch: 43900, Error: 0.001538432243792135
Epoch: 44000, Error: 0.0015234671669174331
Epoch: 44100, Error: 0.0015393133274872871
Epoch: 44200, Error: 0.00148313658006297
Epoch: 44300, Error: 0.0014855642735999864
Epoch: 44400, Error: 0.0014974964743071856
Epoch: 44500, Error: 0.0015292758742955583
Epoch: 44600, Error: 0.0014603799727218336
Epoch: 44700, Error: 0.0014691015018324983
Epoch: 44800, Error: 0.00147197458534503
Epoch: 44900, Error: 0.0014564394995901673
Epoch: 45000, Error: 0.0014656266890262603
Epoch: 45100, Error: 0.0014846021274114948
Epoch: 45200, Error: 0.0014082195631205335
Epoch: 45300, Error: 0.0014242383609006193
Epoch: 45400, Error: 0.001397692471232323
Epoch: 45500, Error: 0.00138904297514449
Epoch: 45600, Error: 0.0014135665547266617
Epoch: 45700, Error: 0.00145923388477248
Epoch: 45800, Error: 0.0014731212183117786
Epoch: 45900, Error: 0.0014114760913471185
Epoch: 46000, Error: 0.0013766495726784019
Epoch: 46100, Error: 0.0013392838647567464
Epoch: 46200, Error: 0.0013457876040901845
Epoch: 46300, Error: 0.0014686421608397786
Epoch: 46400, Error: 0.0013363064113070824
Epoch: 46500, Error: 0.0013281378624402402
Epoch: 46600, Error: 0.0013058855034878787
Epoch: 46700, Error: 0.0013033125683546188
Epoch: 46800, Error: 0.0012636466351660803
Epoch: 46900, Error: 0.0012886617467650788
Epoch: 47000, Error: 0.0012780352983070833
Epoch: 47100, Error: 0.0012639288424301592
Epoch: 47200, Error: 0.0015780452621915594
Epoch: 47300, Error: 0.0012363575847308364
Epoch: 47400, Error: 0.0012504669022584244
Epoch: 47500, Error: 0.001239460153191687
Epoch: 47600, Error: 0.001235128664284243
Epoch: 47700, Error: 0.001248017128777508
Epoch: 47800, Error: 0.001223163411226071
Epoch: 47900, Error: 0.001205009348595813
Epoch: 48000, Error: 0.0011911061685342772
Epoch: 48100, Error: 0.001228196601402423
Epoch: 48200, Error: 0.0011990952904637892
Epoch: 48300, Error: 0.0011884412586970615
Epoch: 48400, Error: 0.0012052704038947482
Epoch: 48500, Error: 0.001177567864459881
Epoch: 48600, Error: 0.0011858956596887266
Epoch: 48700, Error: 0.0011642938377452144
Epoch: 48800, Error: 0.0011699277774797265
Epoch: 48900, Error: 0.0011711324589460468
Epoch: 49000, Error: 0.0011451687132769096
Epoch: 49100, Error: 0.0012968043439628987
Epoch: 49200, Error: 0.0011334961788593025
Epoch: 49300, Error: 0.0011253746020733874
Epoch: 49400, Error: 0.0011340454393990564
Epoch: 49500, Error: 0.0011009965101275165
Epoch: 49600, Error: 0.0011076729591831477
Epoch: 49700, Error: 0.0011043779559428612
Epoch: 49800, Error: 0.001097155829788281
Epoch: 49900, Error: 0.0011014365807158963
Epoch: 50000, Error: 0.001088281508613627
Epoch: 50100, Error: 0.0010823621946176828
Epoch: 50200, Error: 0.0010739386886958286
Epoch: 50300, Error: 0.0010793864940263427
Epoch: 50400, Error: 0.0010906362027726876
Epoch: 50500, Error: 0.00107100293299073
Epoch: 50600, Error: 0.0010684078289137143
Epoch: 50700, Error: 0.0010652143026789115
Epoch: 50800, Error: 0.0010694341766556983
Epoch: 50900, Error: 0.0010546047266741009
Epoch: 51000, Error: 0.0010404727283656922
Epoch: 51100, Error: 0.0010355766833949449
Epoch: 51200, Error: 0.0010371108179948949
Epoch: 51300, Error: 0.0010340996828029695
Epoch: 51400, Error: 0.0010350788820181602
Epoch: 51500, Error: 0.0010380014018550445
Epoch: 51600, Error: 0.0010380066799175341
Epoch: 51700, Error: 0.0010279451135529894
Epoch: 51800, Error: 0.0010454965030689703
Epoch: 51900, Error: 0.0010152370336310578
Epoch: 52000, Error: 0.0010181156120444798
Epoch: 52100, Error: 0.0010167289008908183
Epoch: 52200, Error: 0.0010122108329195093
Epoch: 52300, Error: 0.0010264666583670783
Epoch: 52400, Error: 0.0010058182304360076
Epoch: 52500, Error: 0.0010144406678258692
Epoch: 52600, Error: 0.0010008727020019675
Epoch: 52700, Error: 0.001016144258662107
Epoch: 52800, Error: 0.0010123027844650724
Epoch: 52900, Error: 0.0010022672246893457
Epoch: 53000, Error: 0.0010079046027410916
Epoch: 53100, Error: 0.0010089449249805669
Epoch: 53200, Error: 0.0010025134379145796
Finished
Input Patterns
0.224 0.624 0.067 0.043 
0.11 0.502 0.051 0.043 
0.196 0.667 0.067 0.043 
0.055 0.584 0.067 0.082 
0.027 0.376 0.067 0.043 
0.306 0.71 0.086 0.043 
0.137 0.416 0.067 0.0 
0.416 0.831 0.035 0.043 
0.306 0.792 0.051 0.125 
0.388 0.749 0.118 0.082 
0.306 0.584 0.118 0.043 
0.082 0.667 0.0 0.043 
0.137 0.584 0.153 0.043 
0.196 0.584 0.102 0.125 
0.251 0.584 0.067 0.043 
0.137 0.459 0.102 0.043 
0.251 0.875 0.086 0.0 
0.165 0.459 0.086 0.043 
0.333 0.624 0.051 0.043 
0.027 0.416 0.051 0.043 
0.196 0.624 0.051 0.082 
0.027 0.502 0.051 0.043 
0.224 0.749 0.153 0.125 
0.224 0.749 0.102 0.043 
0.278 0.71 0.086 0.043 
0.165 0.416 0.067 0.043 
0.082 0.459 0.086 0.043 
0.306 0.792 0.118 0.125 
0.196 0.584 0.086 0.043 
0.165 0.459 0.086 0.0 
0.137 0.584 0.102 0.043 
0.0 0.416 0.016 0.0 
0.388 1.0 0.086 0.125 
0.224 0.624 0.067 0.082 
0.224 0.749 0.086 0.082 
0.224 0.71 0.086 0.125 
0.224 0.541 0.118 0.165 
0.196 0.416 0.102 0.043 
0.251 0.624 0.086 0.043 
0.11 0.502 0.102 0.043 
0.306 0.584 0.086 0.125 
0.333 0.918 0.067 0.043 
0.196 0.502 0.035 0.043 
0.165 0.667 0.067 0.0 
0.224 0.584 0.086 0.043 
0.055 0.125 0.051 0.082 
0.196 0.624 0.102 0.208 
0.137 0.416 0.067 0.082 
0.082 0.502 0.067 0.043 
0.196 0.541 0.067 0.043 
0.749 0.502 0.627 0.541 
0.722 0.459 0.663 0.584 
0.612 0.333 0.612 0.584 
0.557 0.541 0.627 0.624 
0.639 0.376 0.612 0.498 
0.196 0.0 0.424 0.376 
0.471 0.082 0.51 0.376 
0.361 0.376 0.439 0.498 
0.361 0.416 0.592 0.584 
0.529 0.082 0.592 0.584 
0.443 0.502 0.643 0.459 
0.557 0.208 0.663 0.584 
0.584 0.376 0.561 0.498 
0.694 0.333 0.643 0.541 
0.471 0.376 0.592 0.584 
0.333 0.169 0.475 0.416 
0.416 0.29 0.49 0.459 
0.306 0.416 0.592 0.584 
0.667 0.459 0.627 0.584 
0.361 0.416 0.525 0.498 
0.333 0.251 0.576 0.459 
0.416 0.251 0.51 0.459 
0.361 0.29 0.541 0.498 
0.388 0.376 0.541 0.498 
0.224 0.208 0.337 0.416 
0.584 0.502 0.592 0.584 
0.333 0.125 0.51 0.498 
0.388 0.333 0.592 0.498 
0.165 0.169 0.388 0.376 
0.251 0.29 0.49 0.541 
0.443 0.416 0.541 0.584 
0.498 0.376 0.627 0.541 
0.667 0.459 0.576 0.541 
0.416 0.29 0.525 0.376 
0.361 0.208 0.49 0.416 
0.498 0.333 0.51 0.498 
0.498 0.333 0.627 0.459 
0.639 0.416 0.576 0.541 
0.667 0.416 0.678 0.667 
0.388 0.251 0.424 0.376 
0.333 0.169 0.459 0.376 
0.471 0.29 0.694 0.624 
0.471 0.584 0.592 0.624 
0.557 0.125 0.576 0.498 
0.333 0.208 0.51 0.498 
0.498 0.416 0.612 0.541 
0.196 0.125 0.388 0.376 
0.388 0.416 0.541 0.459 
0.529 0.376 0.561 0.498 
0.388 0.333 0.525 0.498 
0.557 0.541 0.847 1.0 
0.776 0.416 0.831 0.831 
0.612 0.416 0.812 0.875 
0.165 0.208 0.592 0.667 
0.667 0.208 0.812 0.71 
0.612 0.502 0.694 0.792 
0.694 0.416 0.761 0.831 
0.416 0.333 0.694 0.957 
0.612 0.416 0.761 0.71 
0.945 0.251 1.0 0.918 
0.722 0.502 0.796 0.918 
0.945 0.333 0.965 0.792 
0.667 0.541 0.796 0.831 
0.529 0.333 0.643 0.71 
0.584 0.333 0.78 0.831 
0.863 0.333 0.863 0.749 
0.584 0.333 0.78 0.875 
0.498 0.251 0.78 0.541 
0.557 0.584 0.78 0.957 
0.471 0.416 0.643 0.71 
0.667 0.459 0.78 0.957 
0.416 0.29 0.694 0.749 
0.667 0.541 0.796 1.0 
0.557 0.208 0.678 0.749 
0.529 0.584 0.745 0.918 
0.416 0.29 0.694 0.749 
0.557 0.376 0.78 0.71 
0.918 0.416 0.949 0.831 
0.835 0.376 0.898 0.71 
0.804 0.667 0.863 1.0 
0.584 0.29 0.729 0.749 
0.388 0.208 0.678 0.792 
0.584 0.502 0.729 0.918 
0.945 0.749 0.965 0.875 
0.471 0.082 0.678 0.584 
0.361 0.333 0.663 0.792 
0.557 0.29 0.663 0.71 
0.804 0.502 0.847 0.71 
0.498 0.416 0.51 0.71 
0.804 0.416 0.812 0.624 
1.0 0.749 0.914 0.792 
0.557 0.333 0.694 0.584 
0.945 0.416 0.863 0.918 
0.584 0.459 0.761 0.71 
0.722 0.459 0.745 0.831 
0.722 0.459 0.694 0.918 
0.694 0.502 0.831 0.918 
0.667 0.416 0.714 0.918 
0.612 0.416 0.714 0.792 
0.443 0.416 0.694 0.71 
Teaching Patterns
1.0 0.0 0.0 
1.0 0.0 0.0 
1.0 0.0 0.0 
1.0 0.0 0.0 
1.0 0.0 0.0 
1.0 0.0 0.0 
1.0 0.0 0.0 
1.0 0.0 0.0 
1.0 0.0 0.0 
1.0 0.0 0.0 
1.0 0.0 0.0 
1.0 0.0 0.0 
1.0 0.0 0.0 
1.0 0.0 0.0 
1.0 0.0 0.0 
1.0 0.0 0.0 
1.0 0.0 0.0 
1.0 0.0 0.0 
1.0 0.0 0.0 
1.0 0.0 0.0 
1.0 0.0 0.0 
1.0 0.0 0.0 
1.0 0.0 0.0 
1.0 0.0 0.0 
1.0 0.0 0.0 
1.0 0.0 0.0 
1.0 0.0 0.0 
1.0 0.0 0.0 
1.0 0.0 0.0 
1.0 0.0 0.0 
1.0 0.0 0.0 
1.0 0.0 0.0 
1.0 0.0 0.0 
1.0 0.0 0.0 
1.0 0.0 0.0 
1.0 0.0 0.0 
1.0 0.0 0.0 
1.0 0.0 0.0 
1.0 0.0 0.0 
1.0 0.0 0.0 
1.0 0.0 0.0 
1.0 0.0 0.0 
1.0 0.0 0.0 
1.0 0.0 0.0 
1.0 0.0 0.0 
1.0 0.0 0.0 
1.0 0.0 0.0 
1.0 0.0 0.0 
1.0 0.0 0.0 
1.0 0.0 0.0 
0.0 1.0 0.0 
0.0 1.0 0.0 
0.0 1.0 0.0 
0.0 1.0 0.0 
0.0 1.0 0.0 
0.0 1.0 0.0 
0.0 1.0 0.0 
0.0 1.0 0.0 
0.0 1.0 0.0 
0.0 1.0 0.0 
0.0 1.0 0.0 
0.0 1.0 0.0 
0.0 1.0 0.0 
0.0 1.0 0.0 
0.0 1.0 0.0 
0.0 1.0 0.0 
0.0 1.0 0.0 
0.0 1.0 0.0 
0.0 1.0 0.0 
0.0 1.0 0.0 
0.0 1.0 0.0 
0.0 1.0 0.0 
0.0 1.0 0.0 
0.0 1.0 0.0 
0.0 1.0 0.0 
0.0 1.0 0.0 
0.0 1.0 0.0 
0.0 1.0 0.0 
0.0 1.0 0.0 
0.0 1.0 0.0 
0.0 1.0 0.0 
0.0 1.0 0.0 
0.0 1.0 0.0 
0.0 1.0 0.0 
0.0 1.0 0.0 
0.0 1.0 0.0 
0.0 1.0 0.0 
0.0 1.0 0.0 
0.0 1.0 0.0 
0.0 1.0 0.0 
0.0 1.0 0.0 
0.0 1.0 0.0 
0.0 1.0 0.0 
0.0 1.0 0.0 
0.0 1.0 0.0 
0.0 1.0 0.0 
0.0 1.0 0.0 
0.0 1.0 0.0 
0.0 1.0 0.0 
0.0 1.0 0.0 
0.0 0.0 1.0 
0.0 0.0 1.0 
0.0 0.0 1.0 
0.0 0.0 1.0 
0.0 0.0 1.0 
0.0 0.0 1.0 
0.0 0.0 1.0 
0.0 0.0 1.0 
0.0 0.0 1.0 
0.0 0.0 1.0 
0.0 0.0 1.0 
0.0 0.0 1.0 
0.0 0.0 1.0 
0.0 0.0 1.0 
0.0 0.0 1.0 
0.0 0.0 1.0 
0.0 0.0 1.0 
0.0 0.0 1.0 
0.0 0.0 1.0 
0.0 0.0 1.0 
0.0 0.0 1.0 
0.0 0.0 1.0 
0.0 0.0 1.0 
0.0 0.0 1.0 
0.0 0.0 1.0 
0.0 0.0 1.0 
0.0 0.0 1.0 
0.0 0.0 1.0 
0.0 0.0 1.0 
0.0 0.0 1.0 
0.0 0.0 1.0 
0.0 0.0 1.0 
0.0 0.0 1.0 
0.0 0.0 1.0 
0.0 0.0 1.0 
0.0 0.0 1.0 
0.0 0.0 1.0 
0.0 0.0 1.0 
0.0 0.0 1.0 
0.0 0.0 1.0 
0.0 0.0 1.0 
0.0 0.0 1.0 
0.0 0.0 1.0 
0.0 0.0 1.0 
0.0 0.0 1.0 
0.0 0.0 1.0 
0.0 0.0 1.0 
0.0 0.0 1.0 
0.0 0.0 1.0 
0.0 0.0 1.0 
Learning : 0.05
Momentum : 0.8999999761581421
Epoch: 100, Error: 0.02241951768824335
Epoch: 200, Error: 0.016782574463946483
Epoch: 300, Error: 0.015099461190972148
Epoch: 400, Error: 0.01436812600211855
Epoch: 500, Error: 0.013710929953995058
Epoch: 600, Error: 0.013418644868148269
Epoch: 700, Error: 0.013308907997413673
Epoch: 800, Error: 0.012883077213095305
Epoch: 900, Error: 0.012614190954413048
Epoch: 1000, Error: 0.01245405573775665
Epoch: 1100, Error: 0.012404630511765737
Epoch: 1200, Error: 0.0124144196595781
Epoch: 1300, Error: 0.012353885949004764
Epoch: 1400, Error: 0.012233007044899992
Epoch: 1500, Error: 0.012182234174404014
Epoch: 1600, Error: 0.012284358764212598
Epoch: 1700, Error: 0.01214700089533223
Epoch: 1800, Error: 0.0120483159682889
Epoch: 1900, Error: 0.012038225064832988
Epoch: 2000, Error: 0.012260299186972665
Epoch: 2100, Error: 0.012016383450812905
Epoch: 2200, Error: 0.012021721282426035
Epoch: 2300, Error: 0.011996658418685247
Epoch: 2400, Error: 0.011975931691616154
Epoch: 2500, Error: 0.011950279491326902
Epoch: 2600, Error: 0.01192491333374674
Epoch: 2700, Error: 0.01202658870591077
Epoch: 2800, Error: 0.011906080051656403
Epoch: 2900, Error: 0.01189752881035586
Epoch: 3000, Error: 0.011873462123383987
Epoch: 3100, Error: 0.011880633103055994
Epoch: 3200, Error: 0.01186727479206318
Epoch: 3300, Error: 0.011831758372048695
Epoch: 3400, Error: 0.011833364215177366
Epoch: 3500, Error: 0.011788868942429209
Epoch: 3600, Error: 0.011799996527931086
Epoch: 3700, Error: 0.011815494916738653
Epoch: 3800, Error: 0.01179744310350784
Epoch: 3900, Error: 0.011761417148295065
Epoch: 4000, Error: 0.01176773169530834
Epoch: 4100, Error: 0.011822796143906172
Epoch: 4200, Error: 0.011818387927406367
Epoch: 4300, Error: 0.01176450283457292
Epoch: 4400, Error: 0.011923067218598222
Epoch: 4500, Error: 0.011812472894755144
Epoch: 4600, Error: 0.011798277455139717
Epoch: 4700, Error: 0.011799614434462875
Epoch: 4800, Error: 0.01175652081816467
Epoch: 4900, Error: 0.011726052703178488
Epoch: 5000, Error: 0.011819631745217461
Epoch: 5100, Error: 0.011682897287433458
Epoch: 5200, Error: 0.011732780868467838
Epoch: 5300, Error: 0.011685791147904127
Epoch: 5400, Error: 0.01167517049187609
Epoch: 5500, Error: 0.011623741393175046
Epoch: 5600, Error: 0.011614199216819374
Epoch: 5700, Error: 0.011584217693620336
Epoch: 5800, Error: 0.011583551055679974
Epoch: 5900, Error: 0.011555236844256071
Epoch: 6000, Error: 0.01162822857481679
Epoch: 6100, Error: 0.011603413116452752
Epoch: 6200, Error: 0.011559421563776586
Epoch: 6300, Error: 0.01150614149255244
Epoch: 6400, Error: 0.011572266217284789
Epoch: 6500, Error: 0.011532756628988972
Epoch: 6600, Error: 0.01148588489131211
Epoch: 6700, Error: 0.011494146231635586
Epoch: 6800, Error: 0.011430125486017293
Epoch: 6900, Error: 0.01148945011568406
Epoch: 7000, Error: 0.011457865079142303
Epoch: 7100, Error: 0.011389713331148247
Epoch: 7200, Error: 0.0113671760425449
Epoch: 7300, Error: 0.011439313569828028
Epoch: 7400, Error: 0.011294132012320412
Epoch: 7500, Error: 0.011299386875608244
Epoch: 7600, Error: 0.01129325557401932
Epoch: 7700, Error: 0.011233236945033245
Epoch: 7800, Error: 0.01118286381131855
Epoch: 7900, Error: 0.011174775628668676
Epoch: 8000, Error: 0.011141216957733983
Epoch: 8100, Error: 0.011122531713089105
Epoch: 8200, Error: 0.011087915093003095
Epoch: 8300, Error: 0.01099554375185039
Epoch: 8400, Error: 0.010980521686856712
Epoch: 8500, Error: 0.01092277955029047
Epoch: 8600, Error: 0.010860223653738149
Epoch: 8700, Error: 0.010818558719366081
Epoch: 8800, Error: 0.010729154586144748
Epoch: 8900, Error: 0.01068899617679413
Epoch: 9000, Error: 0.010640349794876748
Epoch: 9100, Error: 0.010566596319847073
Epoch: 9200, Error: 0.010484785547370815
Epoch: 9300, Error: 0.010394409159792214
Epoch: 9400, Error: 0.010334825407967433
Epoch: 9500, Error: 0.01025512760288631
Epoch: 9600, Error: 0.01012012122126154
Epoch: 9700, Error: 0.010061042291212947
Epoch: 9800, Error: 0.009880470027231868
Epoch: 9900, Error: 0.009764060679633856
Epoch: 10000, Error: 0.009673753859144103
Epoch: 10100, Error: 0.009568603176754993
Epoch: 10200, Error: 0.00939875345468762
Epoch: 10300, Error: 0.009306087332745468
Epoch: 10400, Error: 0.00915702526848526
Epoch: 10500, Error: 0.009063954299343197
Epoch: 10600, Error: 0.00908372754636758
Epoch: 10700, Error: 0.00879872692319001
Epoch: 10800, Error: 0.00863501225471558
Epoch: 10900, Error: 0.008582765708428624
Epoch: 11000, Error: 0.00838922092974532
Epoch: 11100, Error: 0.008317098073653122
Epoch: 11200, Error: 0.008172155820727226
Epoch: 11300, Error: 0.00807040565196498
Epoch: 11400, Error: 0.008001810053990014
Epoch: 11500, Error: 0.007862576664637327
Epoch: 11600, Error: 0.007782573605900496
Epoch: 11700, Error: 0.0077162430734522384
Epoch: 11800, Error: 0.007607937313167143
Epoch: 11900, Error: 0.007550492392054456
Epoch: 12000, Error: 0.007440762915549657
Epoch: 12100, Error: 0.007346301541951975
Epoch: 12200, Error: 0.007288257192097865
Epoch: 12300, Error: 0.00718891689314812
Epoch: 12400, Error: 0.007220326201383605
Epoch: 12500, Error: 0.007073106332725245
Epoch: 12600, Error: 0.007016620308091661
Epoch: 12700, Error: 0.006966374583548101
Epoch: 12800, Error: 0.006931928301557014
Epoch: 12900, Error: 0.0068602687804788
Epoch: 13000, Error: 0.006838343436764195
Epoch: 13100, Error: 0.006794923804032948
Epoch: 13200, Error: 0.006725546035888992
Epoch: 13300, Error: 0.0066911044321452924
Epoch: 13400, Error: 0.006642746295148783
Epoch: 13500, Error: 0.006611628117339763
Epoch: 13600, Error: 0.006614173247761688
Epoch: 13700, Error: 0.006543572604475463
Epoch: 13800, Error: 0.006507225439496163
Epoch: 13900, Error: 0.006469429888506521
Epoch: 14000, Error: 0.006461430139037203
Epoch: 14100, Error: 0.006411098877963954
Epoch: 14200, Error: 0.006386239456369994
Epoch: 14300, Error: 0.006365221385735524
Epoch: 14400, Error: 0.006347145509014758
Epoch: 14500, Error: 0.0063155044936363675
Epoch: 14600, Error: 0.006292669736335266
Epoch: 14700, Error: 0.006260281021020703
Epoch: 14800, Error: 0.006244590431500293
Epoch: 14900, Error: 0.006209233060518007
Epoch: 15000, Error: 0.006207283021887546
Epoch: 15100, Error: 0.0061660235398502015
Epoch: 15200, Error: 0.00614027879153155
Epoch: 15300, Error: 0.006118391580838287
Epoch: 15400, Error: 0.006109616002385037
Epoch: 15500, Error: 0.006083828855830929
Epoch: 15600, Error: 0.006055447081529564
Epoch: 15700, Error: 0.006031601344125734
Epoch: 15800, Error: 0.006026658540762509
Epoch: 15900, Error: 0.006042355970913818
Epoch: 16000, Error: 0.00600013168647765
Epoch: 16100, Error: 0.005971059750174927
Epoch: 16200, Error: 0.005971114400091077
Epoch: 16300, Error: 0.005954495885670204
Epoch: 16400, Error: 0.005924633830352677
Epoch: 16500, Error: 0.005917324878585261
Epoch: 16600, Error: 0.005909614413930398
Epoch: 16700, Error: 0.005893988541560915
Epoch: 16800, Error: 0.005878860411839585
Epoch: 16900, Error: 0.005868167537437915
Epoch: 17000, Error: 0.005850855421395196
Epoch: 17100, Error: 0.005846234758667927
Epoch: 17200, Error: 0.005831817660947535
Epoch: 17300, Error: 0.005813979297469532
Epoch: 17400, Error: 0.00582922509092179
Epoch: 17500, Error: 0.005838586976163648
Epoch: 17600, Error: 0.005811358825855243
Epoch: 17700, Error: 0.0058292576228909454
Epoch: 17800, Error: 0.00579700153163386
Epoch: 17900, Error: 0.005771548871031521
Epoch: 18000, Error: 0.0057844811943459275
Epoch: 18100, Error: 0.005784904603698912
Epoch: 18200, Error: 0.005768561471072462
Epoch: 18300, Error: 0.00577743253754093
Epoch: 18400, Error: 0.0057561861652207875
Epoch: 18500, Error: 0.005748905839415543
Epoch: 18600, Error: 0.005754405275773741
Epoch: 18700, Error: 0.005733487248304694
Epoch: 18800, Error: 0.005764909899525103
Epoch: 18900, Error: 0.005747362740387622
Epoch: 19000, Error: 0.005740233104635908
Epoch: 19100, Error: 0.005756668128122926
Epoch: 19200, Error: 0.005739804415755086
Epoch: 19300, Error: 0.005732471512060477
Epoch: 19400, Error: 0.00572339067863763
Epoch: 19500, Error: 0.005777192080989312
Epoch: 19600, Error: 0.005754610100571426
Finished
