Input Patterns
0.224 0.624 0.067 0.043 
0.11 0.502 0.051 0.043 
0.196 0.667 0.067 0.043 
0.055 0.584 0.067 0.082 
0.027 0.376 0.067 0.043 
0.306 0.71 0.086 0.043 
0.137 0.416 0.067 0.0 
0.416 0.831 0.035 0.043 
0.306 0.792 0.051 0.125 
0.388 0.749 0.118 0.082 
0.306 0.584 0.118 0.043 
0.082 0.667 0.0 0.043 
0.137 0.584 0.153 0.043 
0.196 0.584 0.102 0.125 
0.251 0.584 0.067 0.043 
0.137 0.459 0.102 0.043 
0.251 0.875 0.086 0.0 
0.165 0.459 0.086 0.043 
0.333 0.624 0.051 0.043 
0.027 0.416 0.051 0.043 
0.196 0.624 0.051 0.082 
0.027 0.502 0.051 0.043 
0.224 0.749 0.153 0.125 
0.224 0.749 0.102 0.043 
0.278 0.71 0.086 0.043 
0.165 0.416 0.067 0.043 
0.082 0.459 0.086 0.043 
0.306 0.792 0.118 0.125 
0.196 0.584 0.086 0.043 
0.165 0.459 0.086 0.0 
0.137 0.584 0.102 0.043 
0.0 0.416 0.016 0.0 
0.388 1.0 0.086 0.125 
0.224 0.624 0.067 0.082 
0.224 0.749 0.086 0.082 
0.224 0.71 0.086 0.125 
0.224 0.541 0.118 0.165 
0.196 0.416 0.102 0.043 
0.251 0.624 0.086 0.043 
0.11 0.502 0.102 0.043 
0.306 0.584 0.086 0.125 
0.333 0.918 0.067 0.043 
0.196 0.502 0.035 0.043 
0.165 0.667 0.067 0.0 
0.224 0.584 0.086 0.043 
0.055 0.125 0.051 0.082 
0.196 0.624 0.102 0.208 
0.137 0.416 0.067 0.082 
0.082 0.502 0.067 0.043 
0.196 0.541 0.067 0.043 
0.749 0.502 0.627 0.541 
0.722 0.459 0.663 0.584 
0.612 0.333 0.612 0.584 
0.557 0.541 0.627 0.624 
0.639 0.376 0.612 0.498 
0.196 0.0 0.424 0.376 
0.471 0.082 0.51 0.376 
0.361 0.376 0.439 0.498 
0.361 0.416 0.592 0.584 
0.529 0.082 0.592 0.584 
0.443 0.502 0.643 0.459 
0.557 0.208 0.663 0.584 
0.584 0.376 0.561 0.498 
0.694 0.333 0.643 0.541 
0.471 0.376 0.592 0.584 
0.333 0.169 0.475 0.416 
0.416 0.29 0.49 0.459 
0.306 0.416 0.592 0.584 
0.667 0.459 0.627 0.584 
0.361 0.416 0.525 0.498 
0.333 0.251 0.576 0.459 
0.416 0.251 0.51 0.459 
0.361 0.29 0.541 0.498 
0.388 0.376 0.541 0.498 
0.224 0.208 0.337 0.416 
0.584 0.502 0.592 0.584 
0.333 0.125 0.51 0.498 
0.388 0.333 0.592 0.498 
0.165 0.169 0.388 0.376 
0.251 0.29 0.49 0.541 
0.443 0.416 0.541 0.584 
0.498 0.376 0.627 0.541 
0.667 0.459 0.576 0.541 
0.416 0.29 0.525 0.376 
0.361 0.208 0.49 0.416 
0.498 0.333 0.51 0.498 
0.498 0.333 0.627 0.459 
0.639 0.416 0.576 0.541 
0.667 0.416 0.678 0.667 
0.388 0.251 0.424 0.376 
0.333 0.169 0.459 0.376 
0.471 0.29 0.694 0.624 
0.471 0.584 0.592 0.624 
0.557 0.125 0.576 0.498 
0.333 0.208 0.51 0.498 
0.498 0.416 0.612 0.541 
0.196 0.125 0.388 0.376 
0.388 0.416 0.541 0.459 
0.529 0.376 0.561 0.498 
0.388 0.333 0.525 0.498 
0.557 0.541 0.847 1.0 
0.776 0.416 0.831 0.831 
0.612 0.416 0.812 0.875 
0.165 0.208 0.592 0.667 
0.667 0.208 0.812 0.71 
0.612 0.502 0.694 0.792 
0.694 0.416 0.761 0.831 
0.416 0.333 0.694 0.957 
0.612 0.416 0.761 0.71 
0.945 0.251 1.0 0.918 
0.722 0.502 0.796 0.918 
0.945 0.333 0.965 0.792 
0.667 0.541 0.796 0.831 
0.529 0.333 0.643 0.71 
0.584 0.333 0.78 0.831 
0.863 0.333 0.863 0.749 
0.584 0.333 0.78 0.875 
0.498 0.251 0.78 0.541 
0.557 0.584 0.78 0.957 
0.471 0.416 0.643 0.71 
0.667 0.459 0.78 0.957 
0.416 0.29 0.694 0.749 
0.667 0.541 0.796 1.0 
0.557 0.208 0.678 0.749 
0.529 0.584 0.745 0.918 
0.416 0.29 0.694 0.749 
0.557 0.376 0.78 0.71 
0.918 0.416 0.949 0.831 
0.835 0.376 0.898 0.71 
0.804 0.667 0.863 1.0 
0.584 0.29 0.729 0.749 
0.388 0.208 0.678 0.792 
0.584 0.502 0.729 0.918 
0.945 0.749 0.965 0.875 
0.471 0.082 0.678 0.584 
0.361 0.333 0.663 0.792 
0.557 0.29 0.663 0.71 
0.804 0.502 0.847 0.71 
0.498 0.416 0.51 0.71 
0.804 0.416 0.812 0.624 
1.0 0.749 0.914 0.792 
0.557 0.333 0.694 0.584 
0.945 0.416 0.863 0.918 
0.584 0.459 0.761 0.71 
0.722 0.459 0.745 0.831 
0.722 0.459 0.694 0.918 
0.694 0.502 0.831 0.918 
0.667 0.416 0.714 0.918 
0.612 0.416 0.714 0.792 
0.443 0.416 0.694 0.71 
Teaching Patterns
1.0 0.0 0.0 
1.0 0.0 0.0 
1.0 0.0 0.0 
1.0 0.0 0.0 
1.0 0.0 0.0 
1.0 0.0 0.0 
1.0 0.0 0.0 
1.0 0.0 0.0 
1.0 0.0 0.0 
1.0 0.0 0.0 
1.0 0.0 0.0 
1.0 0.0 0.0 
1.0 0.0 0.0 
1.0 0.0 0.0 
1.0 0.0 0.0 
1.0 0.0 0.0 
1.0 0.0 0.0 
1.0 0.0 0.0 
1.0 0.0 0.0 
1.0 0.0 0.0 
1.0 0.0 0.0 
1.0 0.0 0.0 
1.0 0.0 0.0 
1.0 0.0 0.0 
1.0 0.0 0.0 
1.0 0.0 0.0 
1.0 0.0 0.0 
1.0 0.0 0.0 
1.0 0.0 0.0 
1.0 0.0 0.0 
1.0 0.0 0.0 
1.0 0.0 0.0 
1.0 0.0 0.0 
1.0 0.0 0.0 
1.0 0.0 0.0 
1.0 0.0 0.0 
1.0 0.0 0.0 
1.0 0.0 0.0 
1.0 0.0 0.0 
1.0 0.0 0.0 
1.0 0.0 0.0 
1.0 0.0 0.0 
1.0 0.0 0.0 
1.0 0.0 0.0 
1.0 0.0 0.0 
1.0 0.0 0.0 
1.0 0.0 0.0 
1.0 0.0 0.0 
1.0 0.0 0.0 
1.0 0.0 0.0 
0.0 1.0 0.0 
0.0 1.0 0.0 
0.0 1.0 0.0 
0.0 1.0 0.0 
0.0 1.0 0.0 
0.0 1.0 0.0 
0.0 1.0 0.0 
0.0 1.0 0.0 
0.0 1.0 0.0 
0.0 1.0 0.0 
0.0 1.0 0.0 
0.0 1.0 0.0 
0.0 1.0 0.0 
0.0 1.0 0.0 
0.0 1.0 0.0 
0.0 1.0 0.0 
0.0 1.0 0.0 
0.0 1.0 0.0 
0.0 1.0 0.0 
0.0 1.0 0.0 
0.0 1.0 0.0 
0.0 1.0 0.0 
0.0 1.0 0.0 
0.0 1.0 0.0 
0.0 1.0 0.0 
0.0 1.0 0.0 
0.0 1.0 0.0 
0.0 1.0 0.0 
0.0 1.0 0.0 
0.0 1.0 0.0 
0.0 1.0 0.0 
0.0 1.0 0.0 
0.0 1.0 0.0 
0.0 1.0 0.0 
0.0 1.0 0.0 
0.0 1.0 0.0 
0.0 1.0 0.0 
0.0 1.0 0.0 
0.0 1.0 0.0 
0.0 1.0 0.0 
0.0 1.0 0.0 
0.0 1.0 0.0 
0.0 1.0 0.0 
0.0 1.0 0.0 
0.0 1.0 0.0 
0.0 1.0 0.0 
0.0 1.0 0.0 
0.0 1.0 0.0 
0.0 1.0 0.0 
0.0 1.0 0.0 
0.0 0.0 1.0 
0.0 0.0 1.0 
0.0 0.0 1.0 
0.0 0.0 1.0 
0.0 0.0 1.0 
0.0 0.0 1.0 
0.0 0.0 1.0 
0.0 0.0 1.0 
0.0 0.0 1.0 
0.0 0.0 1.0 
0.0 0.0 1.0 
0.0 0.0 1.0 
0.0 0.0 1.0 
0.0 0.0 1.0 
0.0 0.0 1.0 
0.0 0.0 1.0 
0.0 0.0 1.0 
0.0 0.0 1.0 
0.0 0.0 1.0 
0.0 0.0 1.0 
0.0 0.0 1.0 
0.0 0.0 1.0 
0.0 0.0 1.0 
0.0 0.0 1.0 
0.0 0.0 1.0 
0.0 0.0 1.0 
0.0 0.0 1.0 
0.0 0.0 1.0 
0.0 0.0 1.0 
0.0 0.0 1.0 
0.0 0.0 1.0 
0.0 0.0 1.0 
0.0 0.0 1.0 
0.0 0.0 1.0 
0.0 0.0 1.0 
0.0 0.0 1.0 
0.0 0.0 1.0 
0.0 0.0 1.0 
0.0 0.0 1.0 
0.0 0.0 1.0 
0.0 0.0 1.0 
0.0 0.0 1.0 
0.0 0.0 1.0 
0.0 0.0 1.0 
0.0 0.0 1.0 
0.0 0.0 1.0 
0.0 0.0 1.0 
0.0 0.0 1.0 
0.0 0.0 1.0 
0.0 0.0 1.0 
Learning : 0.05
Momentum : 0.8999999761581421
Epoch: 100, Error: 0.021897385599655098
Epoch: 200, Error: 0.016982554309640747
Epoch: 300, Error: 0.015213772355431553
Epoch: 400, Error: 0.014415516540504988
Epoch: 500, Error: 0.01401988189537649
Epoch: 600, Error: 0.013720648851993037
Epoch: 700, Error: 0.013339900622531556
Epoch: 800, Error: 0.013125845035238075
Epoch: 900, Error: 0.013254729796595418
Epoch: 1000, Error: 0.012811928303068104
Epoch: 1100, Error: 0.012707193882124764
Epoch: 1200, Error: 0.012690837030950924
Epoch: 1300, Error: 0.012651237129519648
Epoch: 1400, Error: 0.012628420547291136
Epoch: 1500, Error: 0.012429468442803142
Epoch: 1600, Error: 0.012384865168332985
Epoch: 1700, Error: 0.01245311430278607
Epoch: 1800, Error: 0.012365679954040051
Epoch: 1900, Error: 0.0124469651166699
Epoch: 2000, Error: 0.012590298450138981
Epoch: 2100, Error: 0.012331569642003097
Epoch: 2200, Error: 0.01250692963402615
Epoch: 2300, Error: 0.012128240129982672
Epoch: 2400, Error: 0.012330572792413385
Epoch: 2500, Error: 0.012217054185513311
Epoch: 2600, Error: 0.012201459749619102
Epoch: 2700, Error: 0.01213706945201311
Epoch: 2800, Error: 0.012202317739757386
Epoch: 2900, Error: 0.01231205373677403
Epoch: 3000, Error: 0.012308768600714105
Epoch: 3100, Error: 0.012093443005361627
Epoch: 3200, Error: 0.01209234686814073
Epoch: 3300, Error: 0.012064014328375908
Epoch: 3400, Error: 0.012136827783963997
Epoch: 3500, Error: 0.012208049337853792
Epoch: 3600, Error: 0.012240618590427951
Epoch: 3700, Error: 0.012287334618019202
Epoch: 3800, Error: 0.012284320557787973
Epoch: 3900, Error: 0.012188778663107766
Epoch: 4000, Error: 0.012215843788627492
Epoch: 4100, Error: 0.012287210824344516
Epoch: 4200, Error: 0.012142056107309215
Epoch: 4300, Error: 0.012129273404770099
Epoch: 4400, Error: 0.012082400121820778
Epoch: 4500, Error: 0.012227287784822065
Epoch: 4600, Error: 0.012177939788242985
Epoch: 4700, Error: 0.012213301522700953
Epoch: 4800, Error: 0.012312437902762272
Epoch: 4900, Error: 0.012213407148597763
Epoch: 5000, Error: 0.012171941758227289
Epoch: 5100, Error: 0.01213579159473924
Epoch: 5200, Error: 0.012185906560802515
Epoch: 5300, Error: 0.01216277108906662
Epoch: 5400, Error: 0.012145878130593079
Epoch: 5500, Error: 0.012146578417549103
Epoch: 5600, Error: 0.012167426012986014
Epoch: 5700, Error: 0.01213776238547026
Epoch: 5800, Error: 0.012265346204900166
Epoch: 5900, Error: 0.012262424722408093
Epoch: 6000, Error: 0.012122976319507123
Epoch: 6100, Error: 0.012096913632606097
Epoch: 6200, Error: 0.012647748394031374
Epoch: 6300, Error: 0.012208529376303944
Epoch: 6400, Error: 0.01216802062165189
Epoch: 6500, Error: 0.012179292613525296
Epoch: 6600, Error: 0.012092108175053065
Epoch: 6700, Error: 0.012056688097802502
Epoch: 6800, Error: 0.012103700405319258
Epoch: 6900, Error: 0.01218250701529273
Epoch: 7000, Error: 0.012193858291461072
Epoch: 7100, Error: 0.012123543637471864
Epoch: 7200, Error: 0.012478054312304827
Epoch: 7300, Error: 0.012122182419788952
Epoch: 7400, Error: 0.012394610616665686
Epoch: 7500, Error: 0.012139710329917891
Epoch: 7600, Error: 0.012181627505113249
Epoch: 7700, Error: 0.0121009880078458
Epoch: 7800, Error: 0.012073475323069297
Epoch: 7900, Error: 0.012199128864107374
Epoch: 8000, Error: 0.0121139060451044
Epoch: 8100, Error: 0.012261934410676264
Epoch: 8200, Error: 0.01217574590010034
Epoch: 8300, Error: 0.012130266296259823
Epoch: 8400, Error: 0.012152200480761129
Epoch: 8500, Error: 0.01211253048117245
Epoch: 8600, Error: 0.012067543063506388
Epoch: 8700, Error: 0.012235144315605283
Epoch: 8800, Error: 0.012158836795864174
Epoch: 8900, Error: 0.01210125381065658
Epoch: 9000, Error: 0.012128453307286527
Epoch: 9100, Error: 0.012128218135427292
Epoch: 9200, Error: 0.012145602691177735
Epoch: 9300, Error: 0.012096240306665557
Epoch: 9400, Error: 0.012055587241472617
Epoch: 9500, Error: 0.012034553273187868
Epoch: 9600, Error: 0.012036407376256256
Epoch: 9700, Error: 0.012146540728822607
Epoch: 9800, Error: 0.01214032189431576
Epoch: 9900, Error: 0.012109695779075846
Epoch: 10000, Error: 0.012247168120892082
Epoch: 10100, Error: 0.012024192166532848
Epoch: 10200, Error: 0.012062919533991051
Epoch: 10300, Error: 0.012050403829173831
Epoch: 10400, Error: 0.01200371183430046
Epoch: 10500, Error: 0.01212751101278068
Epoch: 10600, Error: 0.012049108175028288
Epoch: 10700, Error: 0.012067562736220424
Epoch: 10800, Error: 0.012114596239853375
Epoch: 10900, Error: 0.01204940914782906
Epoch: 11000, Error: 0.012015648126264865
Epoch: 11100, Error: 0.01200389410025902
Epoch: 11200, Error: 0.012058278761589358
Epoch: 11300, Error: 0.012004187905840652
Epoch: 11400, Error: 0.011992614826982608
Epoch: 11500, Error: 0.012141218207758566
Epoch: 11600, Error: 0.012089326873175769
Epoch: 11700, Error: 0.012011968078489144
Epoch: 11800, Error: 0.011971153136729182
Epoch: 11900, Error: 0.011956196530263136
Epoch: 12000, Error: 0.011957788992669634
Epoch: 12100, Error: 0.011903684234606022
Epoch: 12200, Error: 0.011903825573171427
Epoch: 12300, Error: 0.011996323765256407
Epoch: 12400, Error: 0.011966071239300574
Epoch: 12500, Error: 0.01185707666095192
Epoch: 12600, Error: 0.01196779499669752
Epoch: 12700, Error: 0.011913865714913712
Epoch: 12800, Error: 0.011886036975294709
Epoch: 12900, Error: 0.01186671110515598
Epoch: 13000, Error: 0.011896878978409388
Epoch: 13100, Error: 0.011916705714469277
Epoch: 13200, Error: 0.011854528495925935
Epoch: 13300, Error: 0.011868331310294078
Epoch: 13400, Error: 0.011883212539886265
Epoch: 13500, Error: 0.01185313799143395
Epoch: 13600, Error: 0.011765080684557137
Epoch: 13700, Error: 0.011829203303513969
Epoch: 13800, Error: 0.011816121452988144
Epoch: 13900, Error: 0.011709625498481188
Epoch: 14000, Error: 0.011780759729023418
Epoch: 14100, Error: 0.011802273519771658
Epoch: 14200, Error: 0.01182276030752409
Epoch: 14300, Error: 0.011802054181183906
Epoch: 14400, Error: 0.011809278340013435
Epoch: 14500, Error: 0.011729592166125057
Epoch: 14600, Error: 0.011730425653467763
Epoch: 14700, Error: 0.011739370216725487
Epoch: 14800, Error: 0.011720258382503134
Epoch: 14900, Error: 0.011698062770699675
Epoch: 15000, Error: 0.011715850934670025
Epoch: 15100, Error: 0.011682697348096988
Epoch: 15200, Error: 0.011683570014644352
Epoch: 15300, Error: 0.01180922838061169
Epoch: 15400, Error: 0.011728019084685341
Epoch: 15500, Error: 0.011728392226017542
Epoch: 15600, Error: 0.01165353443356859
Epoch: 15700, Error: 0.01169044222919909
Epoch: 15800, Error: 0.011670002427369939
Epoch: 15900, Error: 0.01162716670753908
Epoch: 16000, Error: 0.011676662356500311
Epoch: 16100, Error: 0.01169081035061606
Epoch: 16200, Error: 0.01158330006460398
Epoch: 16300, Error: 0.01165558955248272
Epoch: 16400, Error: 0.0116282072407866
Epoch: 16500, Error: 0.011552716117526205
Epoch: 16600, Error: 0.011629136148673693
Epoch: 16700, Error: 0.011656092274196221
Epoch: 16800, Error: 0.011585146288235653
Epoch: 16900, Error: 0.01161961460585717
Epoch: 17000, Error: 0.011590687482833616
Epoch: 17100, Error: 0.011556001227005931
Epoch: 17200, Error: 0.011559703603559743
Epoch: 17300, Error: 0.011559362810280579
Epoch: 17400, Error: 0.011518741710577585
Epoch: 17500, Error: 0.011587524730981087
Epoch: 17600, Error: 0.011597648489061743
Epoch: 17700, Error: 0.011689517457652546
Epoch: 17800, Error: 0.011631237622234664
Epoch: 17900, Error: 0.011548344274897962
Epoch: 18000, Error: 0.01148641778716254
Epoch: 18100, Error: 0.011479296337963393
Epoch: 18200, Error: 0.011373794640987013
Epoch: 18300, Error: 0.011388207061718213
Epoch: 18400, Error: 0.011414928986207468
Epoch: 18500, Error: 0.011354573301435158
Epoch: 18600, Error: 0.01140868498971574
Epoch: 18700, Error: 0.01135307008253654
Epoch: 18800, Error: 0.01138204195107541
Epoch: 18900, Error: 0.011325624962062481
Epoch: 19000, Error: 0.011345864927946507
Epoch: 19100, Error: 0.011304333141817122
Epoch: 19200, Error: 0.011310431482332236
Epoch: 19300, Error: 0.011235363753177833
Epoch: 19400, Error: 0.011146706146779962
Epoch: 19500, Error: 0.011109565569687216
Epoch: 19600, Error: 0.011083709037958557
Epoch: 19700, Error: 0.011079721557425346
Epoch: 19800, Error: 0.011100061812779727
Epoch: 19900, Error: 0.011059100690150328
Epoch: 20000, Error: 0.010957761354998485
Epoch: 20100, Error: 0.011071531581886956
Epoch: 20200, Error: 0.010948470921362835
Epoch: 20300, Error: 0.0109140498415147
Epoch: 20400, Error: 0.010898458421940224
Epoch: 20500, Error: 0.010875407204815514
Epoch: 20600, Error: 0.010812446865447503
Epoch: 20700, Error: 0.010784178140140543
Epoch: 20800, Error: 0.010783837931426832
Epoch: 20900, Error: 0.010797103791469892
Epoch: 21000, Error: 0.010769933209535551
Epoch: 21100, Error: 0.010734682889657557
Epoch: 21200, Error: 0.010702350653439214
Epoch: 21300, Error: 0.010830520453840031
Epoch: 21400, Error: 0.010641015690314863
Epoch: 21500, Error: 0.010579688760953315
Epoch: 21600, Error: 0.010569055938921943
Epoch: 21700, Error: 0.01052265323739275
Epoch: 21800, Error: 0.01051286787319398
Epoch: 21900, Error: 0.010459417542017945
Epoch: 22000, Error: 0.010420297089202894
Epoch: 22100, Error: 0.0104217091288648
Epoch: 22200, Error: 0.010352871770412924
Epoch: 22300, Error: 0.010319146724934
Epoch: 22400, Error: 0.010284402226367699
Epoch: 22500, Error: 0.010526614002957149
Epoch: 22600, Error: 0.010303472917476563
Epoch: 22700, Error: 0.010283973717757093
Epoch: 22800, Error: 0.010228263436763583
Epoch: 22900, Error: 0.010269110490060037
Epoch: 23000, Error: 0.010144639337776925
Epoch: 23100, Error: 0.010129227100371004
Epoch: 23200, Error: 0.010073351372435205
Epoch: 23300, Error: 0.009993975391723354
Epoch: 23400, Error: 0.009947544766053898
Epoch: 23500, Error: 0.00991531260175272
Epoch: 23600, Error: 0.009855085576878024
Epoch: 23700, Error: 0.009862447456543985
Epoch: 23800, Error: 0.009776371510264678
Epoch: 23900, Error: 0.009754880131892168
Epoch: 24000, Error: 0.00968463848281715
Epoch: 24100, Error: 0.00964596578753147
Epoch: 24200, Error: 0.009581035709201047
Epoch: 24300, Error: 0.009543933651850828
Epoch: 24400, Error: 0.009530705298494254
Epoch: 24500, Error: 0.009474071575623126
Epoch: 24600, Error: 0.009542922703364253
Epoch: 24700, Error: 0.009459616984253426
Epoch: 24800, Error: 0.00941298535663502
Epoch: 24900, Error: 0.009315289279043994
Epoch: 25000, Error: 0.009289992717729408
Epoch: 25100, Error: 0.009246392305925558
Epoch: 25200, Error: 0.009235451906672916
Epoch: 25300, Error: 0.009193115346924567
Epoch: 25400, Error: 0.009197591100767842
Epoch: 25500, Error: 0.00917348931275575
Epoch: 25600, Error: 0.009170885743874854
Epoch: 25700, Error: 0.009172214334962967
Epoch: 25800, Error: 0.009219633016894616
Epoch: 25900, Error: 0.009337165900973216
Epoch: 26000, Error: 0.009369763526816021
Epoch: 26100, Error: 0.009487557224641053
Epoch: 26200, Error: 0.009464583234132993
Epoch: 26300, Error: 0.009545361309461996
Epoch: 26400, Error: 0.009391263811491857
Epoch: 26500, Error: 0.009357235085994557
Epoch: 26600, Error: 0.009338616011420334
Epoch: 26700, Error: 0.009304514328763409
Epoch: 26800, Error: 0.009280757050640022
Epoch: 26900, Error: 0.009278512029934516
Epoch: 27000, Error: 0.009246827657669853
Epoch: 27100, Error: 0.009202318521930633
Epoch: 27200, Error: 0.009159949059638264
Epoch: 27300, Error: 0.009091309649272197
Epoch: 27400, Error: 0.00912773056039434
Epoch: 27500, Error: 0.009077830312802359
Epoch: 27600, Error: 0.008997034075624088
Epoch: 27700, Error: 0.008903683125977769
Epoch: 27800, Error: 0.0088648016249092
Epoch: 27900, Error: 0.008855882777863488
Epoch: 28000, Error: 0.008793097279604782
Epoch: 28100, Error: 0.008741551611382726
Epoch: 28200, Error: 0.008705542907924439
Epoch: 28300, Error: 0.008638799846308783
Epoch: 28400, Error: 0.00864052619760903
Epoch: 28500, Error: 0.008579807932197167
Epoch: 28600, Error: 0.008556158878280441
Epoch: 28700, Error: 0.008535600354845017
Epoch: 28800, Error: 0.008523011805514444
Epoch: 28900, Error: 0.008516688866568986
Epoch: 29000, Error: 0.008506657642619871
Epoch: 29100, Error: 0.008480138596921732
Epoch: 29200, Error: 0.008559273670092137
Epoch: 29300, Error: 0.008509727317820275
Epoch: 29400, Error: 0.008542468182413084
Epoch: 29500, Error: 0.008534276116927189
Epoch: 29600, Error: 0.008622393174064828
Epoch: 29700, Error: 0.008679802465370656
Epoch: 29800, Error: 0.008669137911991255
Epoch: 29900, Error: 0.008696589228831795
Epoch: 30000, Error: 0.008714909724869348
Epoch: 30100, Error: 0.008730474041019344
Epoch: 30200, Error: 0.008728019770849957
Epoch: 30300, Error: 0.008728659678603746
Epoch: 30400, Error: 0.008744913742402907
Epoch: 30500, Error: 0.008732067873165286
Epoch: 30600, Error: 0.008723237681678736
Epoch: 30700, Error: 0.00874408112280126
Epoch: 30800, Error: 0.00875851244270911
Epoch: 30900, Error: 0.008718935334439919
Epoch: 31000, Error: 0.008729622563993225
Epoch: 31100, Error: 0.008741805992375222
Epoch: 31200, Error: 0.00865882257574804
Epoch: 31300, Error: 0.008668923592093402
Epoch: 31400, Error: 0.008653192398983748
Epoch: 31500, Error: 0.008628979782783907
Epoch: 31600, Error: 0.008598267972898409
Epoch: 31700, Error: 0.008527584633979679
Epoch: 31800, Error: 0.00845793772089087
Epoch: 31900, Error: 0.008638443508749366
Epoch: 32000, Error: 0.008562203549855502
Epoch: 32100, Error: 0.008498866729132377
Epoch: 32200, Error: 0.008504209433247976
Epoch: 32300, Error: 0.008509898017997472
Epoch: 32400, Error: 0.008455479314709568
Epoch: 32500, Error: 0.00845444591497644
Epoch: 32600, Error: 0.00841575498588141
Epoch: 32700, Error: 0.00841014715353001
Epoch: 32800, Error: 0.008379271649781956
Epoch: 32900, Error: 0.00840808861731889
Epoch: 33000, Error: 0.008457304168727491
Epoch: 33100, Error: 0.008400513404270367
Epoch: 33200, Error: 0.008390858231534562
Epoch: 33300, Error: 0.008394904244910408
Epoch: 33400, Error: 0.00834392199496156
Epoch: 33500, Error: 0.008348572350179361
Epoch: 33600, Error: 0.00834897801843635
Epoch: 33700, Error: 0.008313050993548402
Epoch: 33800, Error: 0.008272635585492231
Epoch: 33900, Error: 0.00824456325133213
Epoch: 34000, Error: 0.008239330241336412
Epoch: 34100, Error: 0.008177253079740581
Epoch: 34200, Error: 0.008227585831166848
Epoch: 34300, Error: 0.008210776848100638
Epoch: 34400, Error: 0.008258456618925051
Epoch: 34500, Error: 0.008272450714197086
Epoch: 34600, Error: 0.008198271087221836
Epoch: 34700, Error: 0.008201774573427113
Epoch: 34800, Error: 0.00819768773814222
Epoch: 34900, Error: 0.008225951415241664
Epoch: 35000, Error: 0.008222098549400291
Epoch: 35100, Error: 0.00817688441321543
Epoch: 35200, Error: 0.00821420469991573
Epoch: 35300, Error: 0.008172935712612168
Epoch: 35400, Error: 0.008191509393187173
Epoch: 35500, Error: 0.00821723215931222
Epoch: 35600, Error: 0.008234023228852744
Epoch: 35700, Error: 0.008109138915457715
Epoch: 35800, Error: 0.008093627340810252
Epoch: 35900, Error: 0.008076448264108258
Epoch: 36000, Error: 0.008061488084249321
Epoch: 36100, Error: 0.008080765390496918
Epoch: 36200, Error: 0.008078453355683187
Epoch: 36300, Error: 0.008134722734257275
Epoch: 36400, Error: 0.008116820959167048
Epoch: 36500, Error: 0.008129079639023346
Epoch: 36600, Error: 0.008123155547285803
Epoch: 36700, Error: 0.008080804790312384
Epoch: 36800, Error: 0.00809246257847662
Epoch: 36900, Error: 0.008060119015445408
Epoch: 37000, Error: 0.008104541689810488
Epoch: 37100, Error: 0.008098270409994031
Epoch: 37200, Error: 0.00801782623661348
Epoch: 37300, Error: 0.007963508153496475
Epoch: 37400, Error: 0.008047269384499381
Epoch: 37500, Error: 0.008063415893853185
Epoch: 37600, Error: 0.007997019891728583
Epoch: 37700, Error: 0.007990201706589498
Epoch: 37800, Error: 0.00799403077615013
Epoch: 37900, Error: 0.008024444474096894
Epoch: 38000, Error: 0.007982905657830846
Epoch: 38100, Error: 0.008012529007604052
Epoch: 38200, Error: 0.007999954711705497
Epoch: 38300, Error: 0.007957064550314058
Epoch: 38400, Error: 0.007913624391993118
Epoch: 38500, Error: 0.00799156957643241
Epoch: 38600, Error: 0.007987139414275533
Epoch: 38700, Error: 0.00797323108209886
Epoch: 38800, Error: 0.00794569688963773
Epoch: 38900, Error: 0.008002311222490338
Epoch: 39000, Error: 0.008063620032361014
Epoch: 39100, Error: 0.007966915919072722
Epoch: 39200, Error: 0.007893152575878663
Epoch: 39300, Error: 0.007907550679840268
Epoch: 39400, Error: 0.007883671508489534
Epoch: 39500, Error: 0.00792860023717911
Epoch: 39600, Error: 0.007856151906786072
Epoch: 39700, Error: 0.007854921568196104
Epoch: 39800, Error: 0.007922694288986946
Epoch: 39900, Error: 0.007947923005739817
Epoch: 40000, Error: 0.00784040934965585
Epoch: 40100, Error: 0.007846530539830542
Epoch: 40200, Error: 0.007869551524225065
Epoch: 40300, Error: 0.007807717142145968
Epoch: 40400, Error: 0.007767333734512
Epoch: 40500, Error: 0.00786078843257028
Epoch: 40600, Error: 0.007815634136946647
Epoch: 40700, Error: 0.007802366276040392
Epoch: 40800, Error: 0.007751804136579064
Epoch: 40900, Error: 0.007794404671096926
Epoch: 41000, Error: 0.007764749040643864
Epoch: 41100, Error: 0.0077697745830515004
Epoch: 41200, Error: 0.007737370446960705
Epoch: 41300, Error: 0.0077443508739837115
Epoch: 41400, Error: 0.007714573916670772
Epoch: 41500, Error: 0.00770884968553272
Epoch: 41600, Error: 0.007683622909225436
Epoch: 41700, Error: 0.007700157286878566
Epoch: 41800, Error: 0.007694559344456926
Epoch: 41900, Error: 0.007678716153927426
Epoch: 42000, Error: 0.007637001833788032
Epoch: 42100, Error: 0.00769017940870504
Epoch: 42200, Error: 0.007661862496735915
Epoch: 42300, Error: 0.007631755700132631
Epoch: 42400, Error: 0.007596977113045685
Epoch: 42500, Error: 0.0076161135917717625
Epoch: 42600, Error: 0.0075811264742355515
Epoch: 42700, Error: 0.0075939052396782345
Epoch: 42800, Error: 0.0076258958585319545
Epoch: 42900, Error: 0.00759728622527053
Epoch: 43000, Error: 0.007595560638276267
Epoch: 43100, Error: 0.007555797212361205
Epoch: 43200, Error: 0.007668327015585656
Epoch: 43300, Error: 0.007574147166500707
Epoch: 43400, Error: 0.007538321619648664
Epoch: 43500, Error: 0.007558223956408946
Epoch: 43600, Error: 0.00752214487240222
Epoch: 43700, Error: 0.007519991340494646
Epoch: 43800, Error: 0.00747833223848182
Epoch: 43900, Error: 0.007469152871489825
Epoch: 44000, Error: 0.007451373358425734
Epoch: 44100, Error: 0.007458030218056421
Epoch: 44200, Error: 0.0074448165841426595
Epoch: 44300, Error: 0.007423487792743997
Epoch: 44400, Error: 0.007429398861561206
Epoch: 44500, Error: 0.007439075981091737
Epoch: 44600, Error: 0.007426751609862174
Epoch: 44700, Error: 0.007422083386951307
Finished
Input Patterns
0.224 0.624 0.067 0.043 
0.11 0.502 0.051 0.043 
0.196 0.667 0.067 0.043 
0.055 0.584 0.067 0.082 
0.027 0.376 0.067 0.043 
0.306 0.71 0.086 0.043 
0.137 0.416 0.067 0.0 
0.416 0.831 0.035 0.043 
0.306 0.792 0.051 0.125 
0.388 0.749 0.118 0.082 
0.306 0.584 0.118 0.043 
0.082 0.667 0.0 0.043 
0.137 0.584 0.153 0.043 
0.196 0.584 0.102 0.125 
0.251 0.584 0.067 0.043 
0.137 0.459 0.102 0.043 
0.251 0.875 0.086 0.0 
0.165 0.459 0.086 0.043 
0.333 0.624 0.051 0.043 
0.027 0.416 0.051 0.043 
0.196 0.624 0.051 0.082 
0.027 0.502 0.051 0.043 
0.224 0.749 0.153 0.125 
0.224 0.749 0.102 0.043 
0.278 0.71 0.086 0.043 
0.165 0.416 0.067 0.043 
0.082 0.459 0.086 0.043 
0.306 0.792 0.118 0.125 
0.196 0.584 0.086 0.043 
0.165 0.459 0.086 0.0 
0.137 0.584 0.102 0.043 
0.0 0.416 0.016 0.0 
0.388 1.0 0.086 0.125 
0.224 0.624 0.067 0.082 
0.224 0.749 0.086 0.082 
0.224 0.71 0.086 0.125 
0.224 0.541 0.118 0.165 
0.196 0.416 0.102 0.043 
0.251 0.624 0.086 0.043 
0.11 0.502 0.102 0.043 
0.306 0.584 0.086 0.125 
0.333 0.918 0.067 0.043 
0.196 0.502 0.035 0.043 
0.165 0.667 0.067 0.0 
0.224 0.584 0.086 0.043 
0.055 0.125 0.051 0.082 
0.196 0.624 0.102 0.208 
0.137 0.416 0.067 0.082 
0.082 0.502 0.067 0.043 
0.196 0.541 0.067 0.043 
0.749 0.502 0.627 0.541 
0.722 0.459 0.663 0.584 
0.612 0.333 0.612 0.584 
0.557 0.541 0.627 0.624 
0.639 0.376 0.612 0.498 
0.196 0.0 0.424 0.376 
0.471 0.082 0.51 0.376 
0.361 0.376 0.439 0.498 
0.361 0.416 0.592 0.584 
0.529 0.082 0.592 0.584 
0.443 0.502 0.643 0.459 
0.557 0.208 0.663 0.584 
0.584 0.376 0.561 0.498 
0.694 0.333 0.643 0.541 
0.471 0.376 0.592 0.584 
0.333 0.169 0.475 0.416 
0.416 0.29 0.49 0.459 
0.306 0.416 0.592 0.584 
0.667 0.459 0.627 0.584 
0.361 0.416 0.525 0.498 
0.333 0.251 0.576 0.459 
0.416 0.251 0.51 0.459 
0.361 0.29 0.541 0.498 
0.388 0.376 0.541 0.498 
0.224 0.208 0.337 0.416 
0.584 0.502 0.592 0.584 
0.333 0.125 0.51 0.498 
0.388 0.333 0.592 0.498 
0.165 0.169 0.388 0.376 
0.251 0.29 0.49 0.541 
0.443 0.416 0.541 0.584 
0.498 0.376 0.627 0.541 
0.667 0.459 0.576 0.541 
0.416 0.29 0.525 0.376 
0.361 0.208 0.49 0.416 
0.498 0.333 0.51 0.498 
0.498 0.333 0.627 0.459 
0.639 0.416 0.576 0.541 
0.667 0.416 0.678 0.667 
0.388 0.251 0.424 0.376 
0.333 0.169 0.459 0.376 
0.471 0.29 0.694 0.624 
0.471 0.584 0.592 0.624 
0.557 0.125 0.576 0.498 
0.333 0.208 0.51 0.498 
0.498 0.416 0.612 0.541 
0.196 0.125 0.388 0.376 
0.388 0.416 0.541 0.459 
0.529 0.376 0.561 0.498 
0.388 0.333 0.525 0.498 
0.557 0.541 0.847 1.0 
0.776 0.416 0.831 0.831 
0.612 0.416 0.812 0.875 
0.165 0.208 0.592 0.667 
0.667 0.208 0.812 0.71 
0.612 0.502 0.694 0.792 
0.694 0.416 0.761 0.831 
0.416 0.333 0.694 0.957 
0.612 0.416 0.761 0.71 
0.945 0.251 1.0 0.918 
0.722 0.502 0.796 0.918 
0.945 0.333 0.965 0.792 
0.667 0.541 0.796 0.831 
0.529 0.333 0.643 0.71 
0.584 0.333 0.78 0.831 
0.863 0.333 0.863 0.749 
0.584 0.333 0.78 0.875 
0.498 0.251 0.78 0.541 
0.557 0.584 0.78 0.957 
0.471 0.416 0.643 0.71 
0.667 0.459 0.78 0.957 
0.416 0.29 0.694 0.749 
0.667 0.541 0.796 1.0 
0.557 0.208 0.678 0.749 
0.529 0.584 0.745 0.918 
0.416 0.29 0.694 0.749 
0.557 0.376 0.78 0.71 
0.918 0.416 0.949 0.831 
0.835 0.376 0.898 0.71 
0.804 0.667 0.863 1.0 
0.584 0.29 0.729 0.749 
0.388 0.208 0.678 0.792 
0.584 0.502 0.729 0.918 
0.945 0.749 0.965 0.875 
0.471 0.082 0.678 0.584 
0.361 0.333 0.663 0.792 
0.557 0.29 0.663 0.71 
0.804 0.502 0.847 0.71 
0.498 0.416 0.51 0.71 
0.804 0.416 0.812 0.624 
1.0 0.749 0.914 0.792 
0.557 0.333 0.694 0.584 
0.945 0.416 0.863 0.918 
0.584 0.459 0.761 0.71 
0.722 0.459 0.745 0.831 
0.722 0.459 0.694 0.918 
0.694 0.502 0.831 0.918 
0.667 0.416 0.714 0.918 
0.612 0.416 0.714 0.792 
0.443 0.416 0.694 0.71 
Teaching Patterns
1.0 0.0 0.0 
1.0 0.0 0.0 
1.0 0.0 0.0 
1.0 0.0 0.0 
1.0 0.0 0.0 
1.0 0.0 0.0 
1.0 0.0 0.0 
1.0 0.0 0.0 
1.0 0.0 0.0 
1.0 0.0 0.0 
1.0 0.0 0.0 
1.0 0.0 0.0 
1.0 0.0 0.0 
1.0 0.0 0.0 
1.0 0.0 0.0 
1.0 0.0 0.0 
1.0 0.0 0.0 
1.0 0.0 0.0 
1.0 0.0 0.0 
1.0 0.0 0.0 
1.0 0.0 0.0 
1.0 0.0 0.0 
1.0 0.0 0.0 
1.0 0.0 0.0 
1.0 0.0 0.0 
1.0 0.0 0.0 
1.0 0.0 0.0 
1.0 0.0 0.0 
1.0 0.0 0.0 
1.0 0.0 0.0 
1.0 0.0 0.0 
1.0 0.0 0.0 
1.0 0.0 0.0 
1.0 0.0 0.0 
1.0 0.0 0.0 
1.0 0.0 0.0 
1.0 0.0 0.0 
1.0 0.0 0.0 
1.0 0.0 0.0 
1.0 0.0 0.0 
1.0 0.0 0.0 
1.0 0.0 0.0 
1.0 0.0 0.0 
1.0 0.0 0.0 
1.0 0.0 0.0 
1.0 0.0 0.0 
1.0 0.0 0.0 
1.0 0.0 0.0 
1.0 0.0 0.0 
1.0 0.0 0.0 
0.0 1.0 0.0 
0.0 1.0 0.0 
0.0 1.0 0.0 
0.0 1.0 0.0 
0.0 1.0 0.0 
0.0 1.0 0.0 
0.0 1.0 0.0 
0.0 1.0 0.0 
0.0 1.0 0.0 
0.0 1.0 0.0 
0.0 1.0 0.0 
0.0 1.0 0.0 
0.0 1.0 0.0 
0.0 1.0 0.0 
0.0 1.0 0.0 
0.0 1.0 0.0 
0.0 1.0 0.0 
0.0 1.0 0.0 
0.0 1.0 0.0 
0.0 1.0 0.0 
0.0 1.0 0.0 
0.0 1.0 0.0 
0.0 1.0 0.0 
0.0 1.0 0.0 
0.0 1.0 0.0 
0.0 1.0 0.0 
0.0 1.0 0.0 
0.0 1.0 0.0 
0.0 1.0 0.0 
0.0 1.0 0.0 
0.0 1.0 0.0 
0.0 1.0 0.0 
0.0 1.0 0.0 
0.0 1.0 0.0 
0.0 1.0 0.0 
0.0 1.0 0.0 
0.0 1.0 0.0 
0.0 1.0 0.0 
0.0 1.0 0.0 
0.0 1.0 0.0 
0.0 1.0 0.0 
0.0 1.0 0.0 
0.0 1.0 0.0 
0.0 1.0 0.0 
0.0 1.0 0.0 
0.0 1.0 0.0 
0.0 1.0 0.0 
0.0 1.0 0.0 
0.0 1.0 0.0 
0.0 1.0 0.0 
0.0 0.0 1.0 
0.0 0.0 1.0 
0.0 0.0 1.0 
0.0 0.0 1.0 
0.0 0.0 1.0 
0.0 0.0 1.0 
0.0 0.0 1.0 
0.0 0.0 1.0 
0.0 0.0 1.0 
0.0 0.0 1.0 
0.0 0.0 1.0 
0.0 0.0 1.0 
0.0 0.0 1.0 
0.0 0.0 1.0 
0.0 0.0 1.0 
0.0 0.0 1.0 
0.0 0.0 1.0 
0.0 0.0 1.0 
0.0 0.0 1.0 
0.0 0.0 1.0 
0.0 0.0 1.0 
0.0 0.0 1.0 
0.0 0.0 1.0 
0.0 0.0 1.0 
0.0 0.0 1.0 
0.0 0.0 1.0 
0.0 0.0 1.0 
0.0 0.0 1.0 
0.0 0.0 1.0 
0.0 0.0 1.0 
0.0 0.0 1.0 
0.0 0.0 1.0 
0.0 0.0 1.0 
0.0 0.0 1.0 
0.0 0.0 1.0 
0.0 0.0 1.0 
0.0 0.0 1.0 
0.0 0.0 1.0 
0.0 0.0 1.0 
0.0 0.0 1.0 
0.0 0.0 1.0 
0.0 0.0 1.0 
0.0 0.0 1.0 
0.0 0.0 1.0 
0.0 0.0 1.0 
0.0 0.0 1.0 
0.0 0.0 1.0 
0.0 0.0 1.0 
0.0 0.0 1.0 
0.0 0.0 1.0 
Learning : 0.05
Momentum : 0.8999999761581421
Epoch: 100, Error: 0.022036817282861193
Epoch: 200, Error: 0.017008432145673952
Epoch: 300, Error: 0.015258941903543094
Epoch: 400, Error: 0.014712698833857623
Epoch: 500, Error: 0.013901993109436666
Epoch: 600, Error: 0.013599672648371022
Epoch: 700, Error: 0.013125874502421475
Epoch: 800, Error: 0.013058620848973015
Epoch: 900, Error: 0.012918994205133013
Epoch: 1000, Error: 0.01316990393517854
Epoch: 1100, Error: 0.012621569448037504
Epoch: 1200, Error: 0.012490141282138458
Epoch: 1300, Error: 0.012462245871743636
Epoch: 1400, Error: 0.012404234904514172
Epoch: 1500, Error: 0.012397987379058631
Epoch: 1600, Error: 0.012311791733233126
Epoch: 1700, Error: 0.01230791379153379
Epoch: 1800, Error: 0.012218491330105413
Epoch: 1900, Error: 0.012440326090148359
Epoch: 2000, Error: 0.01222822073648239
Epoch: 2100, Error: 0.012300424625003666
Epoch: 2200, Error: 0.012243649241773581
Epoch: 2300, Error: 0.012170530028504573
Epoch: 2400, Error: 0.012089026622698602
Epoch: 2500, Error: 0.01213217941075989
Epoch: 2600, Error: 0.012172859966495586
Epoch: 2700, Error: 0.012116294245149942
Epoch: 2800, Error: 0.01201515673826978
Epoch: 2900, Error: 0.012035874683882609
Epoch: 3000, Error: 0.01201643079793827
Epoch: 3100, Error: 0.012009678314118885
Epoch: 3200, Error: 0.012022708934888793
Epoch: 3300, Error: 0.01200846784243569
Epoch: 3400, Error: 0.012002544632471145
Epoch: 3500, Error: 0.011996056632270992
Epoch: 3600, Error: 0.012199283805668865
Epoch: 3700, Error: 0.012025732723372401
Epoch: 3800, Error: 0.01200006419972107
Epoch: 3900, Error: 0.011974555034151346
Epoch: 4000, Error: 0.012009828888995173
Epoch: 4100, Error: 0.012234109071357895
Epoch: 4200, Error: 0.011991527119787642
Epoch: 4300, Error: 0.0119332315654031
Epoch: 4400, Error: 0.012002335836001897
Epoch: 4500, Error: 0.012163961225136133
Epoch: 4600, Error: 0.011902529448981394
Epoch: 4700, Error: 0.011893915501555857
Epoch: 4800, Error: 0.011888209859286986
Epoch: 4900, Error: 0.011895347957104509
Epoch: 5000, Error: 0.012087925083292286
Epoch: 5100, Error: 0.011846737463547953
Epoch: 5200, Error: 0.011832197418335985
Epoch: 5300, Error: 0.01182871406304183
Epoch: 5400, Error: 0.012165062301367052
Epoch: 5500, Error: 0.011946713016526998
Epoch: 5600, Error: 0.011782962601500696
Epoch: 5700, Error: 0.012394325360297125
Epoch: 5800, Error: 0.011742878228967872
Epoch: 5900, Error: 0.011710026732523048
Epoch: 6000, Error: 0.011688880019401845
Epoch: 6100, Error: 0.011697477931708191
Epoch: 6200, Error: 0.011654604441245655
Epoch: 6300, Error: 0.011623237631727547
Epoch: 6400, Error: 0.011610711087168074
Epoch: 6500, Error: 0.011670290287498651
Epoch: 6600, Error: 0.011709547684842721
Epoch: 6700, Error: 0.011967394346793404
Epoch: 6800, Error: 0.011543064637759016
Epoch: 6900, Error: 0.011476003669956342
Epoch: 7000, Error: 0.011433495049087668
Epoch: 7100, Error: 0.01139651301446622
Epoch: 7200, Error: 0.01138273256862774
Epoch: 7300, Error: 0.011466434448494356
Epoch: 7400, Error: 0.01135736119819213
Epoch: 7500, Error: 0.011218788434910025
Epoch: 7600, Error: 0.011265032902276234
Epoch: 7700, Error: 0.011205144056280847
Epoch: 7800, Error: 0.011443398557780414
Epoch: 7900, Error: 0.011037745514254155
Epoch: 8000, Error: 0.010922072577418803
Epoch: 8100, Error: 0.010896571905376268
Epoch: 8200, Error: 0.010830087337107214
Epoch: 8300, Error: 0.010729093288701794
Epoch: 8400, Error: 0.010654372394465043
Epoch: 8500, Error: 0.010522139928751548
Epoch: 8600, Error: 0.010540449927243203
Epoch: 8700, Error: 0.010313535739835504
Epoch: 8800, Error: 0.010253749719751085
Epoch: 8900, Error: 0.010285068836372972
Epoch: 9000, Error: 0.009992979907738416
Epoch: 9100, Error: 0.009853924710383028
Epoch: 9200, Error: 0.009737422752535387
Epoch: 9300, Error: 0.009607196063287955
Epoch: 9400, Error: 0.00971632160894613
Epoch: 9500, Error: 0.009360297978095693
Epoch: 9600, Error: 0.009239041240613362
Epoch: 9700, Error: 0.009103928995843015
Epoch: 9800, Error: 0.008978270164950402
Epoch: 9900, Error: 0.008861877838654273
Epoch: 10000, Error: 0.00874931932789999
Epoch: 10100, Error: 0.008624261337864751
Epoch: 10200, Error: 0.008555850646927134
Epoch: 10300, Error: 0.008496180925083582
Epoch: 10400, Error: 0.008341055888749251
Epoch: 10500, Error: 0.008172169292919767
Epoch: 10600, Error: 0.008104936048067704
Epoch: 10700, Error: 0.00801729267147516
Epoch: 10800, Error: 0.007945231954422996
Epoch: 10900, Error: 0.007869351731124886
Epoch: 11000, Error: 0.007782865291796042
Epoch: 11100, Error: 0.007709867062294924
Epoch: 11200, Error: 0.007626715756124636
Epoch: 11300, Error: 0.008015405844315544
Epoch: 11400, Error: 0.0075028435776762475
Epoch: 11500, Error: 0.007417381929719687
Epoch: 11600, Error: 0.007367779135519141
Epoch: 11700, Error: 0.007335166473300113
Epoch: 11800, Error: 0.007261758184833013
Epoch: 11900, Error: 0.007193565141136386
Epoch: 12000, Error: 0.007135688351267276
Epoch: 12100, Error: 0.007094443574708418
Epoch: 12200, Error: 0.007047732352335653
Epoch: 12300, Error: 0.00698333680967892
Epoch: 12400, Error: 0.006919714096627309
Epoch: 12500, Error: 0.006854672357373437
Epoch: 12600, Error: 0.006803239832799135
Epoch: 12700, Error: 0.006856851725960172
Epoch: 12800, Error: 0.006711754507396171
Epoch: 12900, Error: 0.006676293035756977
Epoch: 13000, Error: 0.006648089653632551
Epoch: 13100, Error: 0.0066079701867274455
Epoch: 13200, Error: 0.006559462611434396
Epoch: 13300, Error: 0.0065280070492220905
Epoch: 13400, Error: 0.0065314602260269205
Epoch: 13500, Error: 0.0064791054579196195
Epoch: 13600, Error: 0.006487284562792857
Epoch: 13700, Error: 0.006468034515192027
Epoch: 13800, Error: 0.0064400680137475545
Epoch: 13900, Error: 0.006434221444105934
Epoch: 14000, Error: 0.006397741440100142
Epoch: 14100, Error: 0.006371905803696226
Epoch: 14200, Error: 0.006362401331631249
Epoch: 14300, Error: 0.006340964669427522
Epoch: 14400, Error: 0.006322603625141632
Epoch: 14500, Error: 0.0062977695559323895
Epoch: 14600, Error: 0.0062803085595835315
Epoch: 14700, Error: 0.006279618803135768
Epoch: 14800, Error: 0.006229018925304477
Epoch: 14900, Error: 0.006194613174060703
Epoch: 15000, Error: 0.0062167948520207034
Epoch: 15100, Error: 0.006220430519154001
Epoch: 15200, Error: 0.0061615955896664664
Epoch: 15300, Error: 0.006138887541385271
Epoch: 15400, Error: 0.006145962434081423
Epoch: 15500, Error: 0.006178891738764224
Epoch: 15600, Error: 0.006080149521544505
Epoch: 15700, Error: 0.006054451209933362
Epoch: 15800, Error: 0.006052684435537584
Epoch: 15900, Error: 0.006071896507775008
Epoch: 16000, Error: 0.006025117992630367
Epoch: 16100, Error: 0.006003467984229044
Epoch: 16200, Error: 0.005998465674922594
Epoch: 16300, Error: 0.005974735432698018
Epoch: 16400, Error: 0.0059589888934561035
Epoch: 16500, Error: 0.005953471785620197
Epoch: 16600, Error: 0.00597973469362527
Epoch: 16700, Error: 0.005948639056262153
Epoch: 16800, Error: 0.0059272906930717024
Epoch: 16900, Error: 0.005998432942488656
Epoch: 17000, Error: 0.005940089053599844
Epoch: 17100, Error: 0.005961001313566119
Epoch: 17200, Error: 0.005914963632553264
Epoch: 17300, Error: 0.005931219336579761
Epoch: 17400, Error: 0.0059016676439328525
Epoch: 17500, Error: 0.00589522246397792
Epoch: 17600, Error: 0.005893496241653793
Epoch: 17700, Error: 0.005863782679443671
Epoch: 17800, Error: 0.005858415324796077
Epoch: 17900, Error: 0.005868475648146376
Epoch: 18000, Error: 0.005817596172053404
Epoch: 18100, Error: 0.0058121377701749735
Epoch: 18200, Error: 0.00581544969958368
Epoch: 18300, Error: 0.005880637349650764
Epoch: 18400, Error: 0.005879649469832644
Epoch: 18500, Error: 0.005846874747157781
Epoch: 18600, Error: 0.005819475896644777
Epoch: 18700, Error: 0.005836366129757146
Epoch: 18800, Error: 0.005825637408850388
Epoch: 18900, Error: 0.005834539463449898
Epoch: 19000, Error: 0.005826220254644986
Epoch: 19100, Error: 0.005794409834499139
Epoch: 19200, Error: 0.005760321519038133
Epoch: 19300, Error: 0.00580771183924313
Epoch: 19400, Error: 0.005781282257095214
Epoch: 19500, Error: 0.00577780176672041
Epoch: 19600, Error: 0.005785159339514436
Epoch: 19700, Error: 0.005737639428062287
Epoch: 19800, Error: 0.0057023357107822605
Epoch: 19900, Error: 0.005724885378419911
Epoch: 20000, Error: 0.005731630470606156
Epoch: 20100, Error: 0.00574854570344658
Epoch: 20200, Error: 0.0057174570052277406
Finished
