Input Patterns
0.224 0.624 0.067 0.043 
0.11 0.502 0.051 0.043 
0.196 0.667 0.067 0.043 
0.055 0.584 0.067 0.082 
0.027 0.376 0.067 0.043 
0.306 0.71 0.086 0.043 
0.137 0.416 0.067 0.0 
0.416 0.831 0.035 0.043 
0.306 0.792 0.051 0.125 
0.388 0.749 0.118 0.082 
0.306 0.584 0.118 0.043 
0.082 0.667 0.0 0.043 
0.137 0.584 0.153 0.043 
0.196 0.584 0.102 0.125 
0.251 0.584 0.067 0.043 
0.137 0.459 0.102 0.043 
0.251 0.875 0.086 0.0 
0.165 0.459 0.086 0.043 
0.333 0.624 0.051 0.043 
0.027 0.416 0.051 0.043 
0.196 0.624 0.051 0.082 
0.027 0.502 0.051 0.043 
0.224 0.749 0.153 0.125 
0.224 0.749 0.102 0.043 
0.278 0.71 0.086 0.043 
0.165 0.416 0.067 0.043 
0.082 0.459 0.086 0.043 
0.306 0.792 0.118 0.125 
0.196 0.584 0.086 0.043 
0.165 0.459 0.086 0.0 
0.137 0.584 0.102 0.043 
0.0 0.416 0.016 0.0 
0.388 1.0 0.086 0.125 
0.224 0.624 0.067 0.082 
0.224 0.749 0.086 0.082 
0.224 0.71 0.086 0.125 
0.224 0.541 0.118 0.165 
0.196 0.416 0.102 0.043 
0.251 0.624 0.086 0.043 
0.11 0.502 0.102 0.043 
0.306 0.584 0.086 0.125 
0.333 0.918 0.067 0.043 
0.196 0.502 0.035 0.043 
0.165 0.667 0.067 0.0 
0.224 0.584 0.086 0.043 
0.055 0.125 0.051 0.082 
0.196 0.624 0.102 0.208 
0.137 0.416 0.067 0.082 
0.082 0.502 0.067 0.043 
0.196 0.541 0.067 0.043 
0.749 0.502 0.627 0.541 
0.722 0.459 0.663 0.584 
0.612 0.333 0.612 0.584 
0.557 0.541 0.627 0.624 
0.639 0.376 0.612 0.498 
0.196 0.0 0.424 0.376 
0.471 0.082 0.51 0.376 
0.361 0.376 0.439 0.498 
0.361 0.416 0.592 0.584 
0.529 0.082 0.592 0.584 
0.443 0.502 0.643 0.459 
0.557 0.208 0.663 0.584 
0.584 0.376 0.561 0.498 
0.694 0.333 0.643 0.541 
0.471 0.376 0.592 0.584 
0.333 0.169 0.475 0.416 
0.416 0.29 0.49 0.459 
0.306 0.416 0.592 0.584 
0.667 0.459 0.627 0.584 
0.361 0.416 0.525 0.498 
0.333 0.251 0.576 0.459 
0.416 0.251 0.51 0.459 
0.361 0.29 0.541 0.498 
0.388 0.376 0.541 0.498 
0.224 0.208 0.337 0.416 
0.584 0.502 0.592 0.584 
0.333 0.125 0.51 0.498 
0.388 0.333 0.592 0.498 
0.165 0.169 0.388 0.376 
0.251 0.29 0.49 0.541 
0.443 0.416 0.541 0.584 
0.498 0.376 0.627 0.541 
0.667 0.459 0.576 0.541 
0.416 0.29 0.525 0.376 
0.361 0.208 0.49 0.416 
0.498 0.333 0.51 0.498 
0.498 0.333 0.627 0.459 
0.639 0.416 0.576 0.541 
0.667 0.416 0.678 0.667 
0.388 0.251 0.424 0.376 
0.333 0.169 0.459 0.376 
0.471 0.29 0.694 0.624 
0.471 0.584 0.592 0.624 
0.557 0.125 0.576 0.498 
0.333 0.208 0.51 0.498 
0.498 0.416 0.612 0.541 
0.196 0.125 0.388 0.376 
0.388 0.416 0.541 0.459 
0.529 0.376 0.561 0.498 
0.388 0.333 0.525 0.498 
0.557 0.541 0.847 1.0 
0.776 0.416 0.831 0.831 
0.612 0.416 0.812 0.875 
0.165 0.208 0.592 0.667 
0.667 0.208 0.812 0.71 
0.612 0.502 0.694 0.792 
0.694 0.416 0.761 0.831 
0.416 0.333 0.694 0.957 
0.612 0.416 0.761 0.71 
0.945 0.251 1.0 0.918 
0.722 0.502 0.796 0.918 
0.945 0.333 0.965 0.792 
0.667 0.541 0.796 0.831 
0.529 0.333 0.643 0.71 
0.584 0.333 0.78 0.831 
0.863 0.333 0.863 0.749 
0.584 0.333 0.78 0.875 
0.498 0.251 0.78 0.541 
0.557 0.584 0.78 0.957 
0.471 0.416 0.643 0.71 
0.667 0.459 0.78 0.957 
0.416 0.29 0.694 0.749 
0.667 0.541 0.796 1.0 
0.557 0.208 0.678 0.749 
0.529 0.584 0.745 0.918 
0.416 0.29 0.694 0.749 
0.557 0.376 0.78 0.71 
0.918 0.416 0.949 0.831 
0.835 0.376 0.898 0.71 
0.804 0.667 0.863 1.0 
0.584 0.29 0.729 0.749 
0.388 0.208 0.678 0.792 
0.584 0.502 0.729 0.918 
0.945 0.749 0.965 0.875 
0.471 0.082 0.678 0.584 
0.361 0.333 0.663 0.792 
0.557 0.29 0.663 0.71 
0.804 0.502 0.847 0.71 
0.498 0.416 0.51 0.71 
0.804 0.416 0.812 0.624 
1.0 0.749 0.914 0.792 
0.557 0.333 0.694 0.584 
0.945 0.416 0.863 0.918 
0.584 0.459 0.761 0.71 
0.722 0.459 0.745 0.831 
0.722 0.459 0.694 0.918 
0.694 0.502 0.831 0.918 
0.667 0.416 0.714 0.918 
0.612 0.416 0.714 0.792 
0.443 0.416 0.694 0.71 
Teaching Patterns
1.0 0.0 0.0 
1.0 0.0 0.0 
1.0 0.0 0.0 
1.0 0.0 0.0 
1.0 0.0 0.0 
1.0 0.0 0.0 
1.0 0.0 0.0 
1.0 0.0 0.0 
1.0 0.0 0.0 
1.0 0.0 0.0 
1.0 0.0 0.0 
1.0 0.0 0.0 
1.0 0.0 0.0 
1.0 0.0 0.0 
1.0 0.0 0.0 
1.0 0.0 0.0 
1.0 0.0 0.0 
1.0 0.0 0.0 
1.0 0.0 0.0 
1.0 0.0 0.0 
1.0 0.0 0.0 
1.0 0.0 0.0 
1.0 0.0 0.0 
1.0 0.0 0.0 
1.0 0.0 0.0 
1.0 0.0 0.0 
1.0 0.0 0.0 
1.0 0.0 0.0 
1.0 0.0 0.0 
1.0 0.0 0.0 
1.0 0.0 0.0 
1.0 0.0 0.0 
1.0 0.0 0.0 
1.0 0.0 0.0 
1.0 0.0 0.0 
1.0 0.0 0.0 
1.0 0.0 0.0 
1.0 0.0 0.0 
1.0 0.0 0.0 
1.0 0.0 0.0 
1.0 0.0 0.0 
1.0 0.0 0.0 
1.0 0.0 0.0 
1.0 0.0 0.0 
1.0 0.0 0.0 
1.0 0.0 0.0 
1.0 0.0 0.0 
1.0 0.0 0.0 
1.0 0.0 0.0 
1.0 0.0 0.0 
0.0 1.0 0.0 
0.0 1.0 0.0 
0.0 1.0 0.0 
0.0 1.0 0.0 
0.0 1.0 0.0 
0.0 1.0 0.0 
0.0 1.0 0.0 
0.0 1.0 0.0 
0.0 1.0 0.0 
0.0 1.0 0.0 
0.0 1.0 0.0 
0.0 1.0 0.0 
0.0 1.0 0.0 
0.0 1.0 0.0 
0.0 1.0 0.0 
0.0 1.0 0.0 
0.0 1.0 0.0 
0.0 1.0 0.0 
0.0 1.0 0.0 
0.0 1.0 0.0 
0.0 1.0 0.0 
0.0 1.0 0.0 
0.0 1.0 0.0 
0.0 1.0 0.0 
0.0 1.0 0.0 
0.0 1.0 0.0 
0.0 1.0 0.0 
0.0 1.0 0.0 
0.0 1.0 0.0 
0.0 1.0 0.0 
0.0 1.0 0.0 
0.0 1.0 0.0 
0.0 1.0 0.0 
0.0 1.0 0.0 
0.0 1.0 0.0 
0.0 1.0 0.0 
0.0 1.0 0.0 
0.0 1.0 0.0 
0.0 1.0 0.0 
0.0 1.0 0.0 
0.0 1.0 0.0 
0.0 1.0 0.0 
0.0 1.0 0.0 
0.0 1.0 0.0 
0.0 1.0 0.0 
0.0 1.0 0.0 
0.0 1.0 0.0 
0.0 1.0 0.0 
0.0 1.0 0.0 
0.0 1.0 0.0 
0.0 0.0 1.0 
0.0 0.0 1.0 
0.0 0.0 1.0 
0.0 0.0 1.0 
0.0 0.0 1.0 
0.0 0.0 1.0 
0.0 0.0 1.0 
0.0 0.0 1.0 
0.0 0.0 1.0 
0.0 0.0 1.0 
0.0 0.0 1.0 
0.0 0.0 1.0 
0.0 0.0 1.0 
0.0 0.0 1.0 
0.0 0.0 1.0 
0.0 0.0 1.0 
0.0 0.0 1.0 
0.0 0.0 1.0 
0.0 0.0 1.0 
0.0 0.0 1.0 
0.0 0.0 1.0 
0.0 0.0 1.0 
0.0 0.0 1.0 
0.0 0.0 1.0 
0.0 0.0 1.0 
0.0 0.0 1.0 
0.0 0.0 1.0 
0.0 0.0 1.0 
0.0 0.0 1.0 
0.0 0.0 1.0 
0.0 0.0 1.0 
0.0 0.0 1.0 
0.0 0.0 1.0 
0.0 0.0 1.0 
0.0 0.0 1.0 
0.0 0.0 1.0 
0.0 0.0 1.0 
0.0 0.0 1.0 
0.0 0.0 1.0 
0.0 0.0 1.0 
0.0 0.0 1.0 
0.0 0.0 1.0 
0.0 0.0 1.0 
0.0 0.0 1.0 
0.0 0.0 1.0 
0.0 0.0 1.0 
0.0 0.0 1.0 
0.0 0.0 1.0 
0.0 0.0 1.0 
0.0 0.0 1.0 
Learning : 0.05
Momentum : 0.8999999761581421
Epoch: 100, Error: 0.02240805386373391
Epoch: 200, Error: 0.017319200954145846
Epoch: 300, Error: 0.015345969322079009
Epoch: 400, Error: 0.014380648260697713
Epoch: 500, Error: 0.013831704852821205
Epoch: 600, Error: 0.013506817063050817
Epoch: 700, Error: 0.013245848010191633
Epoch: 800, Error: 0.013024769666185843
Epoch: 900, Error: 0.013255344295172089
Epoch: 1000, Error: 0.013014904214901896
Epoch: 1100, Error: 0.01271205703385795
Epoch: 1200, Error: 0.012717167314369338
Epoch: 1300, Error: 0.012416090434669519
Epoch: 1400, Error: 0.012369932319296364
Epoch: 1500, Error: 0.012312170899765319
Epoch: 1600, Error: 0.012354397110675059
Epoch: 1700, Error: 0.012282130273053315
Epoch: 1800, Error: 0.012252479723554834
Epoch: 1900, Error: 0.012322132424414578
Epoch: 2000, Error: 0.012238594474582833
Epoch: 2100, Error: 0.012180272866081128
Epoch: 2200, Error: 0.012279780882508346
Epoch: 2300, Error: 0.012156125383327773
Epoch: 2400, Error: 0.01215648712205354
Epoch: 2500, Error: 0.012228718288419043
Epoch: 2600, Error: 0.012039271387054667
Epoch: 2700, Error: 0.012025470087096335
Epoch: 2800, Error: 0.01233801827024625
Epoch: 2900, Error: 0.012044477378596883
Epoch: 3000, Error: 0.012049715224846571
Epoch: 3100, Error: 0.0121710213014801
Epoch: 3200, Error: 0.012034535106671166
Epoch: 3300, Error: 0.012134577030615481
Epoch: 3400, Error: 0.011995843352609246
Epoch: 3500, Error: 0.012032441417165094
Epoch: 3600, Error: 0.011992791446677026
Epoch: 3700, Error: 0.01196823795548589
Epoch: 3800, Error: 0.011982306145426513
Epoch: 3900, Error: 0.011919533689238468
Epoch: 4000, Error: 0.011904212756402039
Epoch: 4100, Error: 0.011909514443555628
Epoch: 4200, Error: 0.011988632890932677
Epoch: 4300, Error: 0.011856260153565494
Epoch: 4400, Error: 0.01184366448076142
Epoch: 4500, Error: 0.011852411691899522
Epoch: 4600, Error: 0.011791209518521898
Epoch: 4700, Error: 0.01187765432359918
Epoch: 4800, Error: 0.01192289946700381
Epoch: 4900, Error: 0.011762955682389754
Epoch: 5000, Error: 0.011732562648855931
Epoch: 5100, Error: 0.011697720463483685
Epoch: 5200, Error: 0.01173090814472148
Epoch: 5300, Error: 0.011697918547233574
Epoch: 5400, Error: 0.011826111309157741
Epoch: 5500, Error: 0.011613805447756429
Epoch: 5600, Error: 0.011595033004996914
Epoch: 5700, Error: 0.011564214375701723
Epoch: 5800, Error: 0.01182590548750626
Epoch: 5900, Error: 0.011523850358963287
Epoch: 6000, Error: 0.011496681596885132
Epoch: 6100, Error: 0.011480929138964972
Epoch: 6200, Error: 0.011529750074548636
Epoch: 6300, Error: 0.011429700935776636
Epoch: 6400, Error: 0.0114152842475474
Epoch: 6500, Error: 0.011393129635129633
Epoch: 6600, Error: 0.011318171591380979
Epoch: 6700, Error: 0.01137572799530648
Epoch: 6800, Error: 0.011274558205152526
Epoch: 6900, Error: 0.011233913281495204
Epoch: 7000, Error: 0.011295017505283254
Epoch: 7100, Error: 0.011197816540009137
Epoch: 7200, Error: 0.011338919178485703
Epoch: 7300, Error: 0.011073168631651772
Epoch: 7400, Error: 0.011168015545439787
Epoch: 7500, Error: 0.011041166884998746
Epoch: 7600, Error: 0.010980239306409846
Epoch: 7700, Error: 0.010886070734327341
Epoch: 7800, Error: 0.010833522791686125
Epoch: 7900, Error: 0.01076048283585121
Epoch: 8000, Error: 0.010699307101111227
Epoch: 8100, Error: 0.010918302708448123
Epoch: 8200, Error: 0.01057160888309129
Epoch: 8300, Error: 0.010619757181034627
Epoch: 8400, Error: 0.010440162557215665
Epoch: 8500, Error: 0.010345683528485144
Epoch: 8600, Error: 0.010281944677245377
Epoch: 8700, Error: 0.010225567931898405
Epoch: 8800, Error: 0.010091901924212152
Epoch: 8900, Error: 0.009987673336818626
Epoch: 9000, Error: 0.009966244506060401
Epoch: 9100, Error: 0.009766945468553417
Epoch: 9200, Error: 0.009665732260822292
Epoch: 9300, Error: 0.009680274952254578
Epoch: 9400, Error: 0.009446375820048567
Epoch: 9500, Error: 0.009389674789501545
Epoch: 9600, Error: 0.009214445035290236
Epoch: 9700, Error: 0.009120872615479109
Epoch: 9800, Error: 0.008968666514998544
Epoch: 9900, Error: 0.008853325030447461
Epoch: 10000, Error: 0.008755551724773327
Epoch: 10100, Error: 0.008651200761029711
Epoch: 10200, Error: 0.008571438706072163
Epoch: 10300, Error: 0.00843221622094289
Epoch: 10400, Error: 0.008317815854056793
Epoch: 10500, Error: 0.008235255880820802
Epoch: 10600, Error: 0.008127359206849502
Epoch: 10700, Error: 0.008033820812359507
Epoch: 10800, Error: 0.007969467540724142
Epoch: 10900, Error: 0.007889862379386398
Epoch: 11000, Error: 0.007792680485493994
Epoch: 11100, Error: 0.007716135818780013
Epoch: 11200, Error: 0.007641744489957218
Epoch: 11300, Error: 0.007599053825680404
Epoch: 11400, Error: 0.007508216833997829
Epoch: 11500, Error: 0.00744858403826562
Epoch: 11600, Error: 0.007383546937892336
Epoch: 11700, Error: 0.007350519087972462
Epoch: 11800, Error: 0.007287052149551324
Epoch: 11900, Error: 0.007175313706818613
Epoch: 12000, Error: 0.007128853098735538
Epoch: 12100, Error: 0.007068260800253444
Epoch: 12200, Error: 0.007074580788838489
Epoch: 12300, Error: 0.006986941663932152
Epoch: 12400, Error: 0.007001892123586696
Epoch: 12500, Error: 0.006954279163432808
Epoch: 12600, Error: 0.0068977101776858145
Epoch: 12700, Error: 0.00683164616270834
Epoch: 12800, Error: 0.0068657091464308356
Epoch: 12900, Error: 0.0067587587392764804
Epoch: 13000, Error: 0.006732615849132651
Epoch: 13100, Error: 0.006792492389215467
Epoch: 13200, Error: 0.006714863659392013
Epoch: 13300, Error: 0.006685176159630499
Epoch: 13400, Error: 0.006715584493450663
Epoch: 13500, Error: 0.006695816829741872
Epoch: 13600, Error: 0.00659581189080348
Epoch: 13700, Error: 0.006568618594973601
Epoch: 13800, Error: 0.006580398728803655
Epoch: 13900, Error: 0.0065405684280684965
Epoch: 14000, Error: 0.006520776387590205
Epoch: 14100, Error: 0.006490792786460158
Epoch: 14200, Error: 0.006416839239884651
Epoch: 14300, Error: 0.006466722161989799
Epoch: 14400, Error: 0.006403324168627529
Epoch: 14500, Error: 0.006451937700857313
Epoch: 14600, Error: 0.006446603987823802
Epoch: 14700, Error: 0.0063710882338756
Epoch: 14800, Error: 0.006379779581361155
Epoch: 14900, Error: 0.006314241007482791
Epoch: 15000, Error: 0.006309203155938737
Epoch: 15100, Error: 0.006409623043083667
Epoch: 15200, Error: 0.0063669395422617766
Epoch: 15300, Error: 0.0062672963966745624
Epoch: 15400, Error: 0.006267127339622272
Epoch: 15500, Error: 0.006270152284873662
Epoch: 15600, Error: 0.006325487160491633
Epoch: 15700, Error: 0.00622968588381506
Epoch: 15800, Error: 0.006219177514076103
Epoch: 15900, Error: 0.006160667844551111
Epoch: 16000, Error: 0.006127093651349096
Epoch: 16100, Error: 0.006120397957338319
Epoch: 16200, Error: 0.006101088782551687
Epoch: 16300, Error: 0.006056776221681648
Epoch: 16400, Error: 0.006028455536912174
Epoch: 16500, Error: 0.006013267523335955
Epoch: 16600, Error: 0.0059601158777664205
Epoch: 16700, Error: 0.006005644908406251
Epoch: 16800, Error: 0.005951923184639828
Epoch: 16900, Error: 0.005924886545867599
Epoch: 17000, Error: 0.005903733809538064
Epoch: 17100, Error: 0.005849226860937818
Epoch: 17200, Error: 0.005847994035981905
Epoch: 17300, Error: 0.005875340582341652
Epoch: 17400, Error: 0.005822471426126211
Epoch: 17500, Error: 0.005784264466090008
Epoch: 17600, Error: 0.005880820889144143
Epoch: 17700, Error: 0.005731089420332039
Epoch: 17800, Error: 0.005706710652009646
Epoch: 17900, Error: 0.0057253089891764015
Epoch: 18000, Error: 0.005653243396313077
Epoch: 18100, Error: 0.005646265568197873
Epoch: 18200, Error: 0.005638991416856283
Epoch: 18300, Error: 0.0057253027788901865
Epoch: 18400, Error: 0.005627016871430336
Epoch: 18500, Error: 0.005642004405413691
Epoch: 18600, Error: 0.00559508377253271
Epoch: 18700, Error: 0.0055898415601659665
Epoch: 18800, Error: 0.005578129476817379
Epoch: 18900, Error: 0.005565072627792996
Epoch: 19000, Error: 0.005543437226279716
Epoch: 19100, Error: 0.005536650371029492
Epoch: 19200, Error: 0.0055231333195695015
Epoch: 19300, Error: 0.005507585703530492
Epoch: 19400, Error: 0.005531610790854561
Epoch: 19500, Error: 0.005517254876916482
Finished
Input Patterns
0.224 0.624 0.067 0.043 
0.11 0.502 0.051 0.043 
0.196 0.667 0.067 0.043 
0.055 0.584 0.067 0.082 
0.027 0.376 0.067 0.043 
0.306 0.71 0.086 0.043 
0.137 0.416 0.067 0.0 
0.416 0.831 0.035 0.043 
0.306 0.792 0.051 0.125 
0.388 0.749 0.118 0.082 
0.306 0.584 0.118 0.043 
0.082 0.667 0.0 0.043 
0.137 0.584 0.153 0.043 
0.196 0.584 0.102 0.125 
0.251 0.584 0.067 0.043 
0.137 0.459 0.102 0.043 
0.251 0.875 0.086 0.0 
0.165 0.459 0.086 0.043 
0.333 0.624 0.051 0.043 
0.027 0.416 0.051 0.043 
0.196 0.624 0.051 0.082 
0.027 0.502 0.051 0.043 
0.224 0.749 0.153 0.125 
0.224 0.749 0.102 0.043 
0.278 0.71 0.086 0.043 
0.165 0.416 0.067 0.043 
0.082 0.459 0.086 0.043 
0.306 0.792 0.118 0.125 
0.196 0.584 0.086 0.043 
0.165 0.459 0.086 0.0 
0.137 0.584 0.102 0.043 
0.0 0.416 0.016 0.0 
0.388 1.0 0.086 0.125 
0.224 0.624 0.067 0.082 
0.224 0.749 0.086 0.082 
0.224 0.71 0.086 0.125 
0.224 0.541 0.118 0.165 
0.196 0.416 0.102 0.043 
0.251 0.624 0.086 0.043 
0.11 0.502 0.102 0.043 
0.306 0.584 0.086 0.125 
0.333 0.918 0.067 0.043 
0.196 0.502 0.035 0.043 
0.165 0.667 0.067 0.0 
0.224 0.584 0.086 0.043 
0.055 0.125 0.051 0.082 
0.196 0.624 0.102 0.208 
0.137 0.416 0.067 0.082 
0.082 0.502 0.067 0.043 
0.196 0.541 0.067 0.043 
0.749 0.502 0.627 0.541 
0.722 0.459 0.663 0.584 
0.612 0.333 0.612 0.584 
0.557 0.541 0.627 0.624 
0.639 0.376 0.612 0.498 
0.196 0.0 0.424 0.376 
0.471 0.082 0.51 0.376 
0.361 0.376 0.439 0.498 
0.361 0.416 0.592 0.584 
0.529 0.082 0.592 0.584 
0.443 0.502 0.643 0.459 
0.557 0.208 0.663 0.584 
0.584 0.376 0.561 0.498 
0.694 0.333 0.643 0.541 
0.471 0.376 0.592 0.584 
0.333 0.169 0.475 0.416 
0.416 0.29 0.49 0.459 
0.306 0.416 0.592 0.584 
0.667 0.459 0.627 0.584 
0.361 0.416 0.525 0.498 
0.333 0.251 0.576 0.459 
0.416 0.251 0.51 0.459 
0.361 0.29 0.541 0.498 
0.388 0.376 0.541 0.498 
0.224 0.208 0.337 0.416 
0.584 0.502 0.592 0.584 
0.333 0.125 0.51 0.498 
0.388 0.333 0.592 0.498 
0.165 0.169 0.388 0.376 
0.251 0.29 0.49 0.541 
0.443 0.416 0.541 0.584 
0.498 0.376 0.627 0.541 
0.667 0.459 0.576 0.541 
0.416 0.29 0.525 0.376 
0.361 0.208 0.49 0.416 
0.498 0.333 0.51 0.498 
0.498 0.333 0.627 0.459 
0.639 0.416 0.576 0.541 
0.667 0.416 0.678 0.667 
0.388 0.251 0.424 0.376 
0.333 0.169 0.459 0.376 
0.471 0.29 0.694 0.624 
0.471 0.584 0.592 0.624 
0.557 0.125 0.576 0.498 
0.333 0.208 0.51 0.498 
0.498 0.416 0.612 0.541 
0.196 0.125 0.388 0.376 
0.388 0.416 0.541 0.459 
0.529 0.376 0.561 0.498 
0.388 0.333 0.525 0.498 
0.557 0.541 0.847 1.0 
0.776 0.416 0.831 0.831 
0.612 0.416 0.812 0.875 
0.165 0.208 0.592 0.667 
0.667 0.208 0.812 0.71 
0.612 0.502 0.694 0.792 
0.694 0.416 0.761 0.831 
0.416 0.333 0.694 0.957 
0.612 0.416 0.761 0.71 
0.945 0.251 1.0 0.918 
0.722 0.502 0.796 0.918 
0.945 0.333 0.965 0.792 
0.667 0.541 0.796 0.831 
0.529 0.333 0.643 0.71 
0.584 0.333 0.78 0.831 
0.863 0.333 0.863 0.749 
0.584 0.333 0.78 0.875 
0.498 0.251 0.78 0.541 
0.557 0.584 0.78 0.957 
0.471 0.416 0.643 0.71 
0.667 0.459 0.78 0.957 
0.416 0.29 0.694 0.749 
0.667 0.541 0.796 1.0 
0.557 0.208 0.678 0.749 
0.529 0.584 0.745 0.918 
0.416 0.29 0.694 0.749 
0.557 0.376 0.78 0.71 
0.918 0.416 0.949 0.831 
0.835 0.376 0.898 0.71 
0.804 0.667 0.863 1.0 
0.584 0.29 0.729 0.749 
0.388 0.208 0.678 0.792 
0.584 0.502 0.729 0.918 
0.945 0.749 0.965 0.875 
0.471 0.082 0.678 0.584 
0.361 0.333 0.663 0.792 
0.557 0.29 0.663 0.71 
0.804 0.502 0.847 0.71 
0.498 0.416 0.51 0.71 
0.804 0.416 0.812 0.624 
1.0 0.749 0.914 0.792 
0.557 0.333 0.694 0.584 
0.945 0.416 0.863 0.918 
0.584 0.459 0.761 0.71 
0.722 0.459 0.745 0.831 
0.722 0.459 0.694 0.918 
0.694 0.502 0.831 0.918 
0.667 0.416 0.714 0.918 
0.612 0.416 0.714 0.792 
0.443 0.416 0.694 0.71 
Teaching Patterns
1.0 0.0 0.0 
1.0 0.0 0.0 
1.0 0.0 0.0 
1.0 0.0 0.0 
1.0 0.0 0.0 
1.0 0.0 0.0 
1.0 0.0 0.0 
1.0 0.0 0.0 
1.0 0.0 0.0 
1.0 0.0 0.0 
1.0 0.0 0.0 
1.0 0.0 0.0 
1.0 0.0 0.0 
1.0 0.0 0.0 
1.0 0.0 0.0 
1.0 0.0 0.0 
1.0 0.0 0.0 
1.0 0.0 0.0 
1.0 0.0 0.0 
1.0 0.0 0.0 
1.0 0.0 0.0 
1.0 0.0 0.0 
1.0 0.0 0.0 
1.0 0.0 0.0 
1.0 0.0 0.0 
1.0 0.0 0.0 
1.0 0.0 0.0 
1.0 0.0 0.0 
1.0 0.0 0.0 
1.0 0.0 0.0 
1.0 0.0 0.0 
1.0 0.0 0.0 
1.0 0.0 0.0 
1.0 0.0 0.0 
1.0 0.0 0.0 
1.0 0.0 0.0 
1.0 0.0 0.0 
1.0 0.0 0.0 
1.0 0.0 0.0 
1.0 0.0 0.0 
1.0 0.0 0.0 
1.0 0.0 0.0 
1.0 0.0 0.0 
1.0 0.0 0.0 
1.0 0.0 0.0 
1.0 0.0 0.0 
1.0 0.0 0.0 
1.0 0.0 0.0 
1.0 0.0 0.0 
1.0 0.0 0.0 
0.0 1.0 0.0 
0.0 1.0 0.0 
0.0 1.0 0.0 
0.0 1.0 0.0 
0.0 1.0 0.0 
0.0 1.0 0.0 
0.0 1.0 0.0 
0.0 1.0 0.0 
0.0 1.0 0.0 
0.0 1.0 0.0 
0.0 1.0 0.0 
0.0 1.0 0.0 
0.0 1.0 0.0 
0.0 1.0 0.0 
0.0 1.0 0.0 
0.0 1.0 0.0 
0.0 1.0 0.0 
0.0 1.0 0.0 
0.0 1.0 0.0 
0.0 1.0 0.0 
0.0 1.0 0.0 
0.0 1.0 0.0 
0.0 1.0 0.0 
0.0 1.0 0.0 
0.0 1.0 0.0 
0.0 1.0 0.0 
0.0 1.0 0.0 
0.0 1.0 0.0 
0.0 1.0 0.0 
0.0 1.0 0.0 
0.0 1.0 0.0 
0.0 1.0 0.0 
0.0 1.0 0.0 
0.0 1.0 0.0 
0.0 1.0 0.0 
0.0 1.0 0.0 
0.0 1.0 0.0 
0.0 1.0 0.0 
0.0 1.0 0.0 
0.0 1.0 0.0 
0.0 1.0 0.0 
0.0 1.0 0.0 
0.0 1.0 0.0 
0.0 1.0 0.0 
0.0 1.0 0.0 
0.0 1.0 0.0 
0.0 1.0 0.0 
0.0 1.0 0.0 
0.0 1.0 0.0 
0.0 1.0 0.0 
0.0 0.0 1.0 
0.0 0.0 1.0 
0.0 0.0 1.0 
0.0 0.0 1.0 
0.0 0.0 1.0 
0.0 0.0 1.0 
0.0 0.0 1.0 
0.0 0.0 1.0 
0.0 0.0 1.0 
0.0 0.0 1.0 
0.0 0.0 1.0 
0.0 0.0 1.0 
0.0 0.0 1.0 
0.0 0.0 1.0 
0.0 0.0 1.0 
0.0 0.0 1.0 
0.0 0.0 1.0 
0.0 0.0 1.0 
0.0 0.0 1.0 
0.0 0.0 1.0 
0.0 0.0 1.0 
0.0 0.0 1.0 
0.0 0.0 1.0 
0.0 0.0 1.0 
0.0 0.0 1.0 
0.0 0.0 1.0 
0.0 0.0 1.0 
0.0 0.0 1.0 
0.0 0.0 1.0 
0.0 0.0 1.0 
0.0 0.0 1.0 
0.0 0.0 1.0 
0.0 0.0 1.0 
0.0 0.0 1.0 
0.0 0.0 1.0 
0.0 0.0 1.0 
0.0 0.0 1.0 
0.0 0.0 1.0 
0.0 0.0 1.0 
0.0 0.0 1.0 
0.0 0.0 1.0 
0.0 0.0 1.0 
0.0 0.0 1.0 
0.0 0.0 1.0 
0.0 0.0 1.0 
0.0 0.0 1.0 
0.0 0.0 1.0 
0.0 0.0 1.0 
0.0 0.0 1.0 
0.0 0.0 1.0 
Learning : 0.05
Momentum : 0.8999999761581421
Epoch: 100, Error: 0.022837801848167857
Epoch: 200, Error: 0.017162613396137602
Epoch: 300, Error: 0.015295068118896691
Epoch: 400, Error: 0.014612370606938214
Epoch: 500, Error: 0.013814895409877072
Epoch: 600, Error: 0.013440684444515672
Epoch: 700, Error: 0.01319791917116999
Epoch: 800, Error: 0.013027745662487327
Epoch: 900, Error: 0.01289879604447938
Epoch: 1000, Error: 0.012682438844809601
Epoch: 1100, Error: 0.01286889517819239
Epoch: 1200, Error: 0.012570193699747765
Epoch: 1300, Error: 0.012516500856245078
Epoch: 1400, Error: 0.01250639998263168
Epoch: 1500, Error: 0.012388503630963018
Epoch: 1600, Error: 0.012441897387291212
Epoch: 1700, Error: 0.012343409550853304
Epoch: 1800, Error: 0.012337101553175972
Epoch: 1900, Error: 0.012463275990622394
Epoch: 2000, Error: 0.012230854828935659
Epoch: 2100, Error: 0.012244045966667153
Epoch: 2200, Error: 0.012390518605123047
Epoch: 2300, Error: 0.012562989214740404
Epoch: 2400, Error: 0.012141954381061928
Epoch: 2500, Error: 0.012156515561424979
Epoch: 2600, Error: 0.01225867264020277
Epoch: 2700, Error: 0.012337438532775665
Epoch: 2800, Error: 0.012207313979718365
Epoch: 2900, Error: 0.012237265309227113
Epoch: 3000, Error: 0.012256845378917565
Epoch: 3100, Error: 0.012182851522119462
Epoch: 3200, Error: 0.012202741241570296
Epoch: 3300, Error: 0.012124765043161135
Epoch: 3400, Error: 0.012042561612314883
Epoch: 3500, Error: 0.012132687779409807
Epoch: 3600, Error: 0.012116179786144033
Epoch: 3700, Error: 0.012104857117075712
Epoch: 3800, Error: 0.012011185159726722
Epoch: 3900, Error: 0.012070369871275506
Epoch: 4000, Error: 0.012080217275036513
Epoch: 4100, Error: 0.012020708160705716
Epoch: 4200, Error: 0.012033296469645459
Epoch: 4300, Error: 0.01214867567521181
Epoch: 4400, Error: 0.011945351874756371
Epoch: 4500, Error: 0.01189770172470884
Epoch: 4600, Error: 0.012007156467540664
Epoch: 4700, Error: 0.011985616447624123
Epoch: 4800, Error: 0.01198207997233386
Epoch: 4900, Error: 0.011968475839240874
Epoch: 5000, Error: 0.012111300505125898
Epoch: 5100, Error: 0.011934289456620624
Epoch: 5200, Error: 0.012059739511373247
Epoch: 5300, Error: 0.011963179071751732
Epoch: 5400, Error: 0.011860261435649588
Epoch: 5500, Error: 0.011954212531560975
Epoch: 5600, Error: 0.011882066767900445
Epoch: 5700, Error: 0.012049197122556728
Epoch: 5800, Error: 0.011848781666455975
Epoch: 5900, Error: 0.011799912218462343
Epoch: 6000, Error: 0.011768855249681569
Epoch: 6100, Error: 0.011851196876816534
Epoch: 6200, Error: 0.011780182251852116
Epoch: 6300, Error: 0.011701802703234869
Epoch: 6400, Error: 0.011724613878264586
Epoch: 6500, Error: 0.011645433911209561
Epoch: 6600, Error: 0.01167258291216446
Epoch: 6700, Error: 0.011733361068272408
Epoch: 6800, Error: 0.01165677949014475
Epoch: 6900, Error: 0.011610112169241116
Epoch: 7000, Error: 0.011582730567989533
Epoch: 7100, Error: 0.011669935964316185
Epoch: 7200, Error: 0.011527873982917814
Epoch: 7300, Error: 0.011593523490259959
Epoch: 7400, Error: 0.011445348356950543
Epoch: 7500, Error: 0.01144890307616543
Epoch: 7600, Error: 0.011353478902812854
Epoch: 7700, Error: 0.011456313054363461
Epoch: 7800, Error: 0.011298498233545737
Epoch: 7900, Error: 0.011247641254785841
Epoch: 8000, Error: 0.011223544185417978
Epoch: 8100, Error: 0.011243723149279608
Epoch: 8200, Error: 0.011203662833983845
Epoch: 8300, Error: 0.011299629055430466
Epoch: 8400, Error: 0.011285850357443374
Epoch: 8500, Error: 0.011147988336287442
Epoch: 8600, Error: 0.011136774857807388
Epoch: 8700, Error: 0.011110563042569393
Epoch: 8800, Error: 0.011060749688705048
Epoch: 8900, Error: 0.011075127952042902
Epoch: 9000, Error: 0.010905728409547557
Epoch: 9100, Error: 0.010916558467882401
Epoch: 9200, Error: 0.01085301042970329
Epoch: 9300, Error: 0.010898720204327462
Epoch: 9400, Error: 0.010790239599407206
Epoch: 9500, Error: 0.010774661876448776
Epoch: 9600, Error: 0.010742393157899904
Epoch: 9700, Error: 0.010863585676671528
Epoch: 9800, Error: 0.010629002430676576
Epoch: 9900, Error: 0.010684005146344926
Epoch: 10000, Error: 0.010520753770970257
Epoch: 10100, Error: 0.010416261995518851
Epoch: 10200, Error: 0.010388554374128436
Epoch: 10300, Error: 0.010352428551360272
Epoch: 10400, Error: 0.010339812905303848
Epoch: 10500, Error: 0.010274683762168927
Epoch: 10600, Error: 0.01011273125226822
Epoch: 10700, Error: 0.010087976992375795
Epoch: 10800, Error: 0.00995681872370817
Epoch: 10900, Error: 0.009930554131880636
Epoch: 11000, Error: 0.009819718918569037
Epoch: 11100, Error: 0.009773670229102084
Epoch: 11200, Error: 0.00963598557759926
Epoch: 11300, Error: 0.009529318467059988
Epoch: 11400, Error: 0.009385340257182767
Epoch: 11500, Error: 0.00926348046137795
Epoch: 11600, Error: 0.00913571534948821
Epoch: 11700, Error: 0.00904880490282137
Epoch: 11800, Error: 0.008971175569774042
Epoch: 11900, Error: 0.008891755991101861
Epoch: 12000, Error: 0.008771328553965976
Epoch: 12100, Error: 0.008648487875213582
Epoch: 12200, Error: 0.008535399707305755
Epoch: 12300, Error: 0.008459847683115706
Epoch: 12400, Error: 0.008339304027057534
Epoch: 12500, Error: 0.008245927252598012
Epoch: 12600, Error: 0.008134916975123358
Epoch: 12700, Error: 0.008122956375881901
Epoch: 12800, Error: 0.007936856288879537
Epoch: 12900, Error: 0.007832674631591527
Epoch: 13000, Error: 0.007731040774443059
Epoch: 13100, Error: 0.00768716446748786
Epoch: 13200, Error: 0.007541273599167585
Epoch: 13300, Error: 0.007587894968062717
Epoch: 13400, Error: 0.007353331831526801
Epoch: 13500, Error: 0.00730155090858676
Epoch: 13600, Error: 0.007236949632384433
Epoch: 13700, Error: 0.00709950739842008
Epoch: 13800, Error: 0.007006076161463024
Epoch: 13900, Error: 0.0070038400012347275
Epoch: 14000, Error: 0.006834586064670339
Epoch: 14100, Error: 0.006750428042543159
Epoch: 14200, Error: 0.006683297091180205
Epoch: 14300, Error: 0.006672848375673015
Epoch: 14400, Error: 0.006589421188851055
Epoch: 14500, Error: 0.006452091781915089
Epoch: 14600, Error: 0.006380869942819706
Epoch: 14700, Error: 0.006344159176136115
Epoch: 14800, Error: 0.006247476865913893
Epoch: 14900, Error: 0.006187165224632777
Epoch: 15000, Error: 0.006145838939670814
Epoch: 15100, Error: 0.006123606204020865
Epoch: 15200, Error: 0.006038930034186182
Epoch: 15300, Error: 0.005999541993400045
Epoch: 15400, Error: 0.005979062204940074
Epoch: 15500, Error: 0.005901354343788285
Epoch: 15600, Error: 0.00588630876641361
Epoch: 15700, Error: 0.005859678710672618
Epoch: 15800, Error: 0.005805977349640177
Epoch: 15900, Error: 0.005767947389728617
Epoch: 16000, Error: 0.005744319383441445
Epoch: 16100, Error: 0.005756204970368207
Epoch: 16200, Error: 0.005693251597677187
Epoch: 16300, Error: 0.0056762508552861855
Epoch: 16400, Error: 0.005655763428651003
Epoch: 16500, Error: 0.005670698023839598
Epoch: 16600, Error: 0.005612918781107144
Epoch: 16700, Error: 0.005599303331876037
Epoch: 16800, Error: 0.00562210663387033
Epoch: 16900, Error: 0.005571842764171983
Epoch: 17000, Error: 0.005518638149793888
Epoch: 17100, Error: 0.005503627500873627
Epoch: 17200, Error: 0.0056084003767309
Epoch: 17300, Error: 0.005453546617556095
Epoch: 17400, Error: 0.0054370046873341744
Epoch: 17500, Error: 0.005440566976222196
Epoch: 17600, Error: 0.005416371985455562
Epoch: 17700, Error: 0.005378171979787771
Epoch: 17800, Error: 0.005345981508208916
Epoch: 17900, Error: 0.0054342934904936585
Epoch: 18000, Error: 0.005302079282502784
Epoch: 18100, Error: 0.005310983203922156
Epoch: 18200, Error: 0.00529184783067883
Epoch: 18300, Error: 0.0052543261035276215
Epoch: 18400, Error: 0.005228806930438524
Epoch: 18500, Error: 0.0052275455340988755
Epoch: 18600, Error: 0.005210090231070394
Epoch: 18700, Error: 0.005153952995630593
Epoch: 18800, Error: 0.005156224064948639
Epoch: 18900, Error: 0.00511114968494154
Epoch: 19000, Error: 0.00511022647735213
Epoch: 19100, Error: 0.00509993712393083
Epoch: 19200, Error: 0.005073243094053052
Epoch: 19300, Error: 0.005058375386768028
Epoch: 19400, Error: 0.005032903616350848
Epoch: 19500, Error: 0.005037052767948765
Epoch: 19600, Error: 0.005024068127495199
Epoch: 19700, Error: 0.004996814498011172
Epoch: 19800, Error: 0.005006500149331186
Epoch: 19900, Error: 0.004982735411083386
Epoch: 20000, Error: 0.005019062120835132
Epoch: 20100, Error: 0.004972818338811505
Epoch: 20200, Error: 0.0049257306972405835
Epoch: 20300, Error: 0.004909372664741611
Epoch: 20400, Error: 0.004946797225111884
Epoch: 20500, Error: 0.004899120130122024
Epoch: 20600, Error: 0.004883993533004152
Epoch: 20700, Error: 0.004867570231804966
Epoch: 20800, Error: 0.004861939179723657
Epoch: 20900, Error: 0.004808926901196595
Epoch: 21000, Error: 0.0048781472348957185
Epoch: 21100, Error: 0.004786117331855961
Epoch: 21200, Error: 0.004745258384149855
Epoch: 21300, Error: 0.004720791143235975
Epoch: 21400, Error: 0.004715732605683332
Epoch: 21500, Error: 0.004672417642549311
Epoch: 21600, Error: 0.004650955703804215
Epoch: 21700, Error: 0.004640600180071961
Epoch: 21800, Error: 0.004622782811527526
Epoch: 21900, Error: 0.004623654937228534
Epoch: 22000, Error: 0.0045912241729662
Epoch: 22100, Error: 0.004569902447558663
Epoch: 22200, Error: 0.0046138016638367155
Epoch: 22300, Error: 0.004538492138535583
Epoch: 22400, Error: 0.00454554435942397
Epoch: 22500, Error: 0.004476579821594147
Epoch: 22600, Error: 0.004443497420730355
Epoch: 22700, Error: 0.0045306956819105865
Epoch: 22800, Error: 0.0044214767849758835
Epoch: 22900, Error: 0.004393336353749245
Epoch: 23000, Error: 0.0043534052734832025
Epoch: 23100, Error: 0.0043554007633377035
Epoch: 23200, Error: 0.004376748450111785
Epoch: 23300, Error: 0.004297594710003322
Epoch: 23400, Error: 0.004419893292337361
Epoch: 23500, Error: 0.0042643139532085855
Epoch: 23600, Error: 0.004214346205634175
Epoch: 23700, Error: 0.004200373067052757
Epoch: 23800, Error: 0.004202911203671052
Epoch: 23900, Error: 0.004186493814256447
Epoch: 24000, Error: 0.004180650040919887
Epoch: 24100, Error: 0.004145598203058103
Epoch: 24200, Error: 0.0041251756788718555
Epoch: 24300, Error: 0.004118620958693185
Epoch: 24400, Error: 0.004118992473720472
Epoch: 24500, Error: 0.004077784351438996
Epoch: 24600, Error: 0.004101904485593176
Epoch: 24700, Error: 0.004050096569399796
Epoch: 24800, Error: 0.004068938592597778
Epoch: 24900, Error: 0.004020069206672701
Epoch: 25000, Error: 0.004033365997992791
Epoch: 25100, Error: 0.003982609217452174
Epoch: 25200, Error: 0.003974545394403167
Epoch: 25300, Error: 0.003976400597805195
Epoch: 25400, Error: 0.003958329199197164
Epoch: 25500, Error: 0.0040012874990454665
Epoch: 25600, Error: 0.003964046705569211
Epoch: 25700, Error: 0.003923215984305774
Epoch: 25800, Error: 0.003914719414605183
Epoch: 25900, Error: 0.003873545765613081
Epoch: 26000, Error: 0.0038485885950552273
Epoch: 26100, Error: 0.003832937369046947
Epoch: 26200, Error: 0.003825993993628617
Epoch: 26300, Error: 0.0038261456563451956
Epoch: 26400, Error: 0.00378509282722157
Epoch: 26500, Error: 0.003792482757631906
Epoch: 26600, Error: 0.003763737460977005
Epoch: 26700, Error: 0.003756103236253261
Epoch: 26800, Error: 0.0037788889956876267
Epoch: 26900, Error: 0.0037654967104189677
Epoch: 27000, Error: 0.0037386537899944984
Epoch: 27100, Error: 0.003684748393609537
Epoch: 27200, Error: 0.0036703279307726817
Epoch: 27300, Error: 0.0036766670144622753
Epoch: 27400, Error: 0.0036420810225522306
Epoch: 27500, Error: 0.0036836730330219174
Epoch: 27600, Error: 0.003641454055163756
Epoch: 27700, Error: 0.0036620780632763395
Epoch: 27800, Error: 0.003583661255352464
Epoch: 27900, Error: 0.003567634084226728
Epoch: 28000, Error: 0.003565969589240111
Epoch: 28100, Error: 0.0035698981423646333
Epoch: 28200, Error: 0.0035407515028721536
Epoch: 28300, Error: 0.0035080188767190362
Epoch: 28400, Error: 0.0034607702047724015
Epoch: 28500, Error: 0.0034505609914496304
Epoch: 28600, Error: 0.003482882577136213
Epoch: 28700, Error: 0.003450778582054712
Epoch: 28800, Error: 0.003437979598722886
Epoch: 28900, Error: 0.003474585027922467
Epoch: 29000, Error: 0.0033734951325153344
Epoch: 29100, Error: 0.0033853012934082632
Epoch: 29200, Error: 0.0033345901186441567
Epoch: 29300, Error: 0.0033405276501723845
Epoch: 29400, Error: 0.0033141514148689573
Epoch: 29500, Error: 0.0035427953156494433
Epoch: 29600, Error: 0.0033003516122112795
Epoch: 29700, Error: 0.0033225580304572064
Epoch: 29800, Error: 0.00338032164038723
Epoch: 29900, Error: 0.0033676200701393344
Epoch: 30000, Error: 0.0032424395199516422
Epoch: 30100, Error: 0.003212883365566677
Epoch: 30200, Error: 0.0032164849198381127
Epoch: 30300, Error: 0.0031349108702695395
Epoch: 30400, Error: 0.0031850172584675183
Epoch: 30500, Error: 0.003148462384593554
Epoch: 30600, Error: 0.0031487651392894923
Epoch: 30700, Error: 0.0031399262127819005
Epoch: 30800, Error: 0.0031579210686572376
Epoch: 30900, Error: 0.003227302102833237
Epoch: 31000, Error: 0.0031142352915305353
Epoch: 31100, Error: 0.0030728975909850424
Epoch: 31200, Error: 0.0031133941147931206
Epoch: 31300, Error: 0.0030517311519388268
Epoch: 31400, Error: 0.0031312623071745953
Epoch: 31500, Error: 0.003098372150127132
Epoch: 31600, Error: 0.0030451136023551266
Epoch: 31700, Error: 0.0030123891182024117
Epoch: 31800, Error: 0.00302780797546559
Epoch: 31900, Error: 0.002970059666560345
Epoch: 32000, Error: 0.0029589665330261397
Epoch: 32100, Error: 0.0029465634792850645
Epoch: 32200, Error: 0.0030783324814944476
Epoch: 32300, Error: 0.002959632193991377
Epoch: 32400, Error: 0.002925729902835902
Epoch: 32500, Error: 0.002946027307966111
Epoch: 32600, Error: 0.002995650858704755
Epoch: 32700, Error: 0.0029416453255833516
Epoch: 32800, Error: 0.00292287608528317
Epoch: 32900, Error: 0.0028917721528332416
Epoch: 33000, Error: 0.0030553303553998287
Epoch: 33100, Error: 0.0029446398927129454
Epoch: 33200, Error: 0.0028941452313012176
Epoch: 33300, Error: 0.002804201969435525
Epoch: 33400, Error: 0.0028291556177015803
Epoch: 33500, Error: 0.0028112749171637585
Epoch: 33600, Error: 0.002762228348671196
Epoch: 33700, Error: 0.002733695497178756
Epoch: 33800, Error: 0.002769660369841568
Epoch: 33900, Error: 0.00268583788780472
Epoch: 34000, Error: 0.002678659080729659
Epoch: 34100, Error: 0.0026603159520410483
Epoch: 34200, Error: 0.002626233852632239
Epoch: 34300, Error: 0.0026094452763745007
Epoch: 34400, Error: 0.0026072473070293638
Epoch: 34500, Error: 0.002646452780575347
Epoch: 34600, Error: 0.0026170483242284144
Epoch: 34700, Error: 0.0025401710698142164
Epoch: 34800, Error: 0.0025158875332627656
Epoch: 34900, Error: 0.002558665462465504
Epoch: 35000, Error: 0.00246646822748409
Epoch: 35100, Error: 0.0024557462212767083
Epoch: 35200, Error: 0.00244956649728887
Epoch: 35300, Error: 0.002434309165519023
Epoch: 35400, Error: 0.00241334959188039
Epoch: 35500, Error: 0.0023940213836181365
Epoch: 35600, Error: 0.002368567675455007
Epoch: 35700, Error: 0.0023334637122019134
Epoch: 35800, Error: 0.0023319554546430516
Epoch: 35900, Error: 0.0023314208056935647
Epoch: 36000, Error: 0.002374563434966281
Epoch: 36100, Error: 0.0022518985653895577
Epoch: 36200, Error: 0.0022389152980752417
Epoch: 36300, Error: 0.002210397194922856
Epoch: 36400, Error: 0.002207158898388923
Epoch: 36500, Error: 0.002160916223846328
Epoch: 36600, Error: 0.002142262192935161
Epoch: 36700, Error: 0.0021416472178941415
Epoch: 36800, Error: 0.002105720268777763
Epoch: 36900, Error: 0.0021007797059007212
Epoch: 37000, Error: 0.002105642006426415
Epoch: 37100, Error: 0.0020741475405741715
Epoch: 37200, Error: 0.002372093031015549
Epoch: 37300, Error: 0.0020672418252766418
Epoch: 37400, Error: 0.0020130379381093307
Epoch: 37500, Error: 0.0020184411378786214
Epoch: 37600, Error: 0.001993116657483965
Epoch: 37700, Error: 0.0019618838751822407
Epoch: 37800, Error: 0.0019488214946744736
Epoch: 37900, Error: 0.0019431779064041901
Epoch: 38000, Error: 0.0019402756477280966
Epoch: 38100, Error: 0.0019053730045155795
Epoch: 38200, Error: 0.0019036740359336772
Epoch: 38300, Error: 0.0018857827336358234
Epoch: 38400, Error: 0.0018577642358235257
Epoch: 38500, Error: 0.00183794912993326
Epoch: 38600, Error: 0.001869815945610921
Epoch: 38700, Error: 0.0018216915787615405
Epoch: 38800, Error: 0.0018039978037085584
Epoch: 38900, Error: 0.0018458715870097312
Epoch: 39000, Error: 0.0018553875868508856
Epoch: 39100, Error: 0.0017926646802316217
Epoch: 39200, Error: 0.0017534173913994193
Epoch: 39300, Error: 0.001753423300363067
Epoch: 39400, Error: 0.0017315973133763963
Epoch: 39500, Error: 0.0017047155851458982
Epoch: 39600, Error: 0.0016899227979755816
Epoch: 39700, Error: 0.001681513302661408
Epoch: 39800, Error: 0.0016768516027162886
Epoch: 39900, Error: 0.0016761188932641429
Epoch: 40000, Error: 0.0016592978133569893
Epoch: 40100, Error: 0.0016427801882082033
Epoch: 40200, Error: 0.001623468898697894
Epoch: 40300, Error: 0.001619260276510485
Epoch: 40400, Error: 0.0015993030127209298
Epoch: 40500, Error: 0.001582513293448132
Epoch: 40600, Error: 0.0015929210853648783
Epoch: 40700, Error: 0.0015507856915159867
Epoch: 40800, Error: 0.001544490709861369
Epoch: 40900, Error: 0.0015249814747532531
Epoch: 41000, Error: 0.0015299760155544236
Epoch: 41100, Error: 0.0015183533755282026
Epoch: 41200, Error: 0.0015031332108251195
Epoch: 41300, Error: 0.0014910304719032237
Epoch: 41400, Error: 0.0014809633501896833
Epoch: 41500, Error: 0.0014758062683101257
Epoch: 41600, Error: 0.0014682202285053604
Epoch: 41700, Error: 0.0014436475663478637
Epoch: 41800, Error: 0.001435097864401054
Epoch: 41900, Error: 0.0014254101232883483
Epoch: 42000, Error: 0.0014157666989840201
Epoch: 42100, Error: 0.001393458490101387
Epoch: 42200, Error: 0.0013942490089960927
Epoch: 42300, Error: 0.0013916658936027086
Epoch: 42400, Error: 0.0013967950273567097
Epoch: 42500, Error: 0.0013431064632813017
Epoch: 42600, Error: 0.0013562564047010753
Epoch: 42700, Error: 0.0013330174238283992
Epoch: 42800, Error: 0.0013590967521945455
Epoch: 42900, Error: 0.0013412959900330292
Epoch: 43000, Error: 0.00132080265882862
Epoch: 43100, Error: 0.0013216732362215935
Epoch: 43200, Error: 0.001304606444375226
Epoch: 43300, Error: 0.0012899333667925692
Epoch: 43400, Error: 0.0012792280919888658
Epoch: 43500, Error: 0.0012707385193630957
Epoch: 43600, Error: 0.0012707252520839287
Epoch: 43700, Error: 0.0012535807246993724
Epoch: 43800, Error: 0.0012425242098917427
Epoch: 43900, Error: 0.0012380289386572931
Epoch: 44000, Error: 0.001220214100741633
Epoch: 44100, Error: 0.0012057110131513046
Epoch: 44200, Error: 0.0011999897967641241
Epoch: 44300, Error: 0.0011909550225560532
Epoch: 44400, Error: 0.0011701773462066368
Epoch: 44500, Error: 0.001160852101866429
Epoch: 44600, Error: 0.0011485237338295267
Epoch: 44700, Error: 0.0011529322880416439
Epoch: 44800, Error: 0.0011357936399176707
Epoch: 44900, Error: 0.0011308908656362904
Epoch: 45000, Error: 0.0011217825255567613
Epoch: 45100, Error: 0.0011152348170938254
Epoch: 45200, Error: 0.00111457909413564
Epoch: 45300, Error: 0.00110041960820899
Epoch: 45400, Error: 0.0010935981990769436
Epoch: 45500, Error: 0.0010896591210773888
Epoch: 45600, Error: 0.0010881823752346784
Epoch: 45700, Error: 0.001078613900943811
Finished
