Input Patterns
0.224 0.624 0.067 0.043 
0.11 0.502 0.051 0.043 
0.196 0.667 0.067 0.043 
0.055 0.584 0.067 0.082 
0.027 0.376 0.067 0.043 
0.306 0.71 0.086 0.043 
0.137 0.416 0.067 0.0 
0.416 0.831 0.035 0.043 
0.306 0.792 0.051 0.125 
0.388 0.749 0.118 0.082 
0.306 0.584 0.118 0.043 
0.082 0.667 0.0 0.043 
0.137 0.584 0.153 0.043 
0.196 0.584 0.102 0.125 
0.251 0.584 0.067 0.043 
0.137 0.459 0.102 0.043 
0.251 0.875 0.086 0.0 
0.165 0.459 0.086 0.043 
0.333 0.624 0.051 0.043 
0.027 0.416 0.051 0.043 
0.196 0.624 0.051 0.082 
0.027 0.502 0.051 0.043 
0.224 0.749 0.153 0.125 
0.224 0.749 0.102 0.043 
0.278 0.71 0.086 0.043 
0.165 0.416 0.067 0.043 
0.082 0.459 0.086 0.043 
0.306 0.792 0.118 0.125 
0.196 0.584 0.086 0.043 
0.165 0.459 0.086 0.0 
0.137 0.584 0.102 0.043 
0.0 0.416 0.016 0.0 
0.388 1.0 0.086 0.125 
0.224 0.624 0.067 0.082 
0.224 0.749 0.086 0.082 
0.224 0.71 0.086 0.125 
0.224 0.541 0.118 0.165 
0.196 0.416 0.102 0.043 
0.251 0.624 0.086 0.043 
0.11 0.502 0.102 0.043 
0.306 0.584 0.086 0.125 
0.333 0.918 0.067 0.043 
0.196 0.502 0.035 0.043 
0.165 0.667 0.067 0.0 
0.224 0.584 0.086 0.043 
0.055 0.125 0.051 0.082 
0.196 0.624 0.102 0.208 
0.137 0.416 0.067 0.082 
0.082 0.502 0.067 0.043 
0.196 0.541 0.067 0.043 
0.749 0.502 0.627 0.541 
0.722 0.459 0.663 0.584 
0.612 0.333 0.612 0.584 
0.557 0.541 0.627 0.624 
0.639 0.376 0.612 0.498 
0.196 0.0 0.424 0.376 
0.471 0.082 0.51 0.376 
0.361 0.376 0.439 0.498 
0.361 0.416 0.592 0.584 
0.529 0.082 0.592 0.584 
0.443 0.502 0.643 0.459 
0.557 0.208 0.663 0.584 
0.584 0.376 0.561 0.498 
0.694 0.333 0.643 0.541 
0.471 0.376 0.592 0.584 
0.333 0.169 0.475 0.416 
0.416 0.29 0.49 0.459 
0.306 0.416 0.592 0.584 
0.667 0.459 0.627 0.584 
0.361 0.416 0.525 0.498 
0.333 0.251 0.576 0.459 
0.416 0.251 0.51 0.459 
0.361 0.29 0.541 0.498 
0.388 0.376 0.541 0.498 
0.224 0.208 0.337 0.416 
0.584 0.502 0.592 0.584 
0.333 0.125 0.51 0.498 
0.388 0.333 0.592 0.498 
0.165 0.169 0.388 0.376 
0.251 0.29 0.49 0.541 
0.443 0.416 0.541 0.584 
0.498 0.376 0.627 0.541 
0.667 0.459 0.576 0.541 
0.416 0.29 0.525 0.376 
0.361 0.208 0.49 0.416 
0.498 0.333 0.51 0.498 
0.498 0.333 0.627 0.459 
0.639 0.416 0.576 0.541 
0.667 0.416 0.678 0.667 
0.388 0.251 0.424 0.376 
0.333 0.169 0.459 0.376 
0.471 0.29 0.694 0.624 
0.471 0.584 0.592 0.624 
0.557 0.125 0.576 0.498 
0.333 0.208 0.51 0.498 
0.498 0.416 0.612 0.541 
0.196 0.125 0.388 0.376 
0.388 0.416 0.541 0.459 
0.529 0.376 0.561 0.498 
0.388 0.333 0.525 0.498 
0.557 0.541 0.847 1.0 
0.776 0.416 0.831 0.831 
0.612 0.416 0.812 0.875 
0.165 0.208 0.592 0.667 
0.667 0.208 0.812 0.71 
0.612 0.502 0.694 0.792 
0.694 0.416 0.761 0.831 
0.416 0.333 0.694 0.957 
0.612 0.416 0.761 0.71 
0.945 0.251 1.0 0.918 
0.722 0.502 0.796 0.918 
0.945 0.333 0.965 0.792 
0.667 0.541 0.796 0.831 
0.529 0.333 0.643 0.71 
0.584 0.333 0.78 0.831 
0.863 0.333 0.863 0.749 
0.584 0.333 0.78 0.875 
0.498 0.251 0.78 0.541 
0.557 0.584 0.78 0.957 
0.471 0.416 0.643 0.71 
0.667 0.459 0.78 0.957 
0.416 0.29 0.694 0.749 
0.667 0.541 0.796 1.0 
0.557 0.208 0.678 0.749 
0.529 0.584 0.745 0.918 
0.416 0.29 0.694 0.749 
0.557 0.376 0.78 0.71 
0.918 0.416 0.949 0.831 
0.835 0.376 0.898 0.71 
0.804 0.667 0.863 1.0 
0.584 0.29 0.729 0.749 
0.388 0.208 0.678 0.792 
0.584 0.502 0.729 0.918 
0.945 0.749 0.965 0.875 
0.471 0.082 0.678 0.584 
0.361 0.333 0.663 0.792 
0.557 0.29 0.663 0.71 
0.804 0.502 0.847 0.71 
0.498 0.416 0.51 0.71 
0.804 0.416 0.812 0.624 
1.0 0.749 0.914 0.792 
0.557 0.333 0.694 0.584 
0.945 0.416 0.863 0.918 
0.584 0.459 0.761 0.71 
0.722 0.459 0.745 0.831 
0.722 0.459 0.694 0.918 
0.694 0.502 0.831 0.918 
0.667 0.416 0.714 0.918 
0.612 0.416 0.714 0.792 
0.443 0.416 0.694 0.71 
Teaching Patterns
1.0 0.0 0.0 
1.0 0.0 0.0 
1.0 0.0 0.0 
1.0 0.0 0.0 
1.0 0.0 0.0 
1.0 0.0 0.0 
1.0 0.0 0.0 
1.0 0.0 0.0 
1.0 0.0 0.0 
1.0 0.0 0.0 
1.0 0.0 0.0 
1.0 0.0 0.0 
1.0 0.0 0.0 
1.0 0.0 0.0 
1.0 0.0 0.0 
1.0 0.0 0.0 
1.0 0.0 0.0 
1.0 0.0 0.0 
1.0 0.0 0.0 
1.0 0.0 0.0 
1.0 0.0 0.0 
1.0 0.0 0.0 
1.0 0.0 0.0 
1.0 0.0 0.0 
1.0 0.0 0.0 
1.0 0.0 0.0 
1.0 0.0 0.0 
1.0 0.0 0.0 
1.0 0.0 0.0 
1.0 0.0 0.0 
1.0 0.0 0.0 
1.0 0.0 0.0 
1.0 0.0 0.0 
1.0 0.0 0.0 
1.0 0.0 0.0 
1.0 0.0 0.0 
1.0 0.0 0.0 
1.0 0.0 0.0 
1.0 0.0 0.0 
1.0 0.0 0.0 
1.0 0.0 0.0 
1.0 0.0 0.0 
1.0 0.0 0.0 
1.0 0.0 0.0 
1.0 0.0 0.0 
1.0 0.0 0.0 
1.0 0.0 0.0 
1.0 0.0 0.0 
1.0 0.0 0.0 
1.0 0.0 0.0 
0.0 1.0 0.0 
0.0 1.0 0.0 
0.0 1.0 0.0 
0.0 1.0 0.0 
0.0 1.0 0.0 
0.0 1.0 0.0 
0.0 1.0 0.0 
0.0 1.0 0.0 
0.0 1.0 0.0 
0.0 1.0 0.0 
0.0 1.0 0.0 
0.0 1.0 0.0 
0.0 1.0 0.0 
0.0 1.0 0.0 
0.0 1.0 0.0 
0.0 1.0 0.0 
0.0 1.0 0.0 
0.0 1.0 0.0 
0.0 1.0 0.0 
0.0 1.0 0.0 
0.0 1.0 0.0 
0.0 1.0 0.0 
0.0 1.0 0.0 
0.0 1.0 0.0 
0.0 1.0 0.0 
0.0 1.0 0.0 
0.0 1.0 0.0 
0.0 1.0 0.0 
0.0 1.0 0.0 
0.0 1.0 0.0 
0.0 1.0 0.0 
0.0 1.0 0.0 
0.0 1.0 0.0 
0.0 1.0 0.0 
0.0 1.0 0.0 
0.0 1.0 0.0 
0.0 1.0 0.0 
0.0 1.0 0.0 
0.0 1.0 0.0 
0.0 1.0 0.0 
0.0 1.0 0.0 
0.0 1.0 0.0 
0.0 1.0 0.0 
0.0 1.0 0.0 
0.0 1.0 0.0 
0.0 1.0 0.0 
0.0 1.0 0.0 
0.0 1.0 0.0 
0.0 1.0 0.0 
0.0 1.0 0.0 
0.0 0.0 1.0 
0.0 0.0 1.0 
0.0 0.0 1.0 
0.0 0.0 1.0 
0.0 0.0 1.0 
0.0 0.0 1.0 
0.0 0.0 1.0 
0.0 0.0 1.0 
0.0 0.0 1.0 
0.0 0.0 1.0 
0.0 0.0 1.0 
0.0 0.0 1.0 
0.0 0.0 1.0 
0.0 0.0 1.0 
0.0 0.0 1.0 
0.0 0.0 1.0 
0.0 0.0 1.0 
0.0 0.0 1.0 
0.0 0.0 1.0 
0.0 0.0 1.0 
0.0 0.0 1.0 
0.0 0.0 1.0 
0.0 0.0 1.0 
0.0 0.0 1.0 
0.0 0.0 1.0 
0.0 0.0 1.0 
0.0 0.0 1.0 
0.0 0.0 1.0 
0.0 0.0 1.0 
0.0 0.0 1.0 
0.0 0.0 1.0 
0.0 0.0 1.0 
0.0 0.0 1.0 
0.0 0.0 1.0 
0.0 0.0 1.0 
0.0 0.0 1.0 
0.0 0.0 1.0 
0.0 0.0 1.0 
0.0 0.0 1.0 
0.0 0.0 1.0 
0.0 0.0 1.0 
0.0 0.0 1.0 
0.0 0.0 1.0 
0.0 0.0 1.0 
0.0 0.0 1.0 
0.0 0.0 1.0 
0.0 0.0 1.0 
0.0 0.0 1.0 
0.0 0.0 1.0 
0.0 0.0 1.0 
Learning : 0.05
Momentum : 0.8999999761581421
Epoch: 100, Error: 0.022177031029261197
Epoch: 200, Error: 0.01779675731985808
Epoch: 300, Error: 0.016899596255915573
Epoch: 400, Error: 0.014794468951452528
Epoch: 500, Error: 0.014219545736188223
Epoch: 600, Error: 0.013953374186513325
Epoch: 700, Error: 0.013666592189466977
Epoch: 800, Error: 0.01394796760718853
Epoch: 900, Error: 0.01330440799597906
Epoch: 1000, Error: 0.013170673775148387
Epoch: 1100, Error: 0.013108812186966917
Epoch: 1200, Error: 0.012824939872505386
Epoch: 1300, Error: 0.012905037146442987
Epoch: 1400, Error: 0.012771500544439566
Epoch: 1500, Error: 0.012717958820017018
Epoch: 1600, Error: 0.012671112089244579
Epoch: 1700, Error: 0.012586106174816218
Epoch: 1800, Error: 0.012422864851422308
Epoch: 1900, Error: 0.012415217864690563
Epoch: 2000, Error: 0.012307243668828502
Epoch: 2100, Error: 0.012273856190319695
Epoch: 2200, Error: 0.012250417673181599
Epoch: 2300, Error: 0.012308429559454806
Epoch: 2400, Error: 0.012340843365560244
Epoch: 2500, Error: 0.01214860015784777
Epoch: 2600, Error: 0.012064112563083842
Epoch: 2700, Error: 0.012051261533291845
Epoch: 2800, Error: 0.01204466544459736
Epoch: 2900, Error: 0.012593459214337391
Epoch: 3000, Error: 0.01203711456568633
Epoch: 3100, Error: 0.012190957921837463
Epoch: 3200, Error: 0.012008373409585714
Epoch: 3300, Error: 0.012009680468611282
Epoch: 3400, Error: 0.012047688584250179
Epoch: 3500, Error: 0.011952269657191358
Epoch: 3600, Error: 0.012010821247809979
Epoch: 3700, Error: 0.012027165505458643
Epoch: 3800, Error: 0.011933250610949173
Epoch: 3900, Error: 0.011901482990070052
Epoch: 4000, Error: 0.011920553738338491
Epoch: 4100, Error: 0.011893075529886886
Epoch: 4200, Error: 0.011892501918176701
Epoch: 4300, Error: 0.011895971508482366
Epoch: 4400, Error: 0.011896213120511508
Epoch: 4500, Error: 0.01194156170571588
Epoch: 4600, Error: 0.011893816235880298
Epoch: 4700, Error: 0.011906930522100682
Epoch: 4800, Error: 0.011917945672550789
Epoch: 4900, Error: 0.011834115931918082
Epoch: 5000, Error: 0.011855420304136766
Epoch: 5100, Error: 0.011857048647539732
Epoch: 5200, Error: 0.011826592401614771
Epoch: 5300, Error: 0.011825352072285134
Epoch: 5400, Error: 0.011879190746596912
Epoch: 5500, Error: 0.011847554849605502
Epoch: 5600, Error: 0.011813779540431009
Epoch: 5700, Error: 0.011814613715548592
Epoch: 5800, Error: 0.011806850308011197
Epoch: 5900, Error: 0.011749877719596352
Epoch: 6000, Error: 0.01175789182013698
Epoch: 6100, Error: 0.011735271266917346
Epoch: 6200, Error: 0.011715520693740385
Epoch: 6300, Error: 0.011705920348211931
Epoch: 6400, Error: 0.011737108814152318
Epoch: 6500, Error: 0.011700199248591855
Epoch: 6600, Error: 0.011688958058366658
Epoch: 6700, Error: 0.011672426625515374
Epoch: 6800, Error: 0.011664810438231978
Epoch: 6900, Error: 0.011744441317993713
Epoch: 7000, Error: 0.011739626823480195
Epoch: 7100, Error: 0.011630177740134822
Epoch: 7200, Error: 0.011645099835543711
Epoch: 7300, Error: 0.011677207317115107
Epoch: 7400, Error: 0.011577356009694057
Epoch: 7500, Error: 0.011646557067392233
Epoch: 7600, Error: 0.011572187180262917
Epoch: 7700, Error: 0.01156030282671965
Epoch: 7800, Error: 0.011553329893560272
Epoch: 7900, Error: 0.011553836221170151
Epoch: 8000, Error: 0.011504352857243487
Epoch: 8100, Error: 0.011480799543577662
Epoch: 8200, Error: 0.01156078797837744
Epoch: 8300, Error: 0.011482209023160052
Epoch: 8400, Error: 0.011437792496023032
Epoch: 8500, Error: 0.011455468080871601
Epoch: 8600, Error: 0.011393388412058959
Epoch: 8700, Error: 0.01136594120691011
Epoch: 8800, Error: 0.011354920818087191
Epoch: 8900, Error: 0.01132675788552229
Epoch: 9000, Error: 0.011309760258860714
Epoch: 9100, Error: 0.01131224779730475
Epoch: 9200, Error: 0.011253617873990249
Epoch: 9300, Error: 0.011231466702824593
Epoch: 9400, Error: 0.011171136143012194
Epoch: 9500, Error: 0.011197475961489132
Epoch: 9600, Error: 0.011117974942506612
Epoch: 9700, Error: 0.01110054341743316
Epoch: 9800, Error: 0.011032684673443784
Epoch: 9900, Error: 0.011019184503510637
Epoch: 10000, Error: 0.010959586270244806
Epoch: 10100, Error: 0.010981351280100317
Epoch: 10200, Error: 0.010864126945597304
Epoch: 10300, Error: 0.010810315497245131
Epoch: 10400, Error: 0.010785724319135916
Epoch: 10500, Error: 0.01071146778011648
Epoch: 10600, Error: 0.010637983535762228
Epoch: 10700, Error: 0.010754121390262184
Epoch: 10800, Error: 0.010560695883531911
Epoch: 10900, Error: 0.010454183680476304
Epoch: 11000, Error: 0.010404077354279747
Epoch: 11100, Error: 0.010320196975864419
Epoch: 11200, Error: 0.010243044502991721
Epoch: 11300, Error: 0.010167861502026176
Epoch: 11400, Error: 0.010088095981926356
Epoch: 11500, Error: 0.010000201652943587
Epoch: 11600, Error: 0.009907014244555068
Epoch: 11700, Error: 0.00980187939415536
Epoch: 11800, Error: 0.009764170001007261
Epoch: 11900, Error: 0.009644430317995837
Epoch: 12000, Error: 0.009525919774923685
Epoch: 12100, Error: 0.00952715743179153
Epoch: 12200, Error: 0.009390192310777796
Epoch: 12300, Error: 0.009276569333754118
Epoch: 12400, Error: 0.009113662163105213
Epoch: 12500, Error: 0.009049183834141585
Epoch: 12600, Error: 0.008892517901985886
Epoch: 12700, Error: 0.008765335413303085
Epoch: 12800, Error: 0.008662614782200241
Epoch: 12900, Error: 0.008560157181121917
Epoch: 13000, Error: 0.008433644463108266
Epoch: 13100, Error: 0.00830908205734823
Epoch: 13200, Error: 0.008185363986720111
Epoch: 13300, Error: 0.008160102792865909
Epoch: 13400, Error: 0.007966566444569263
Epoch: 13500, Error: 0.007868963305681528
Epoch: 13600, Error: 0.007769461438963052
Epoch: 13700, Error: 0.007676026572132562
Epoch: 13800, Error: 0.007583400513442318
Epoch: 13900, Error: 0.007497041614876511
Epoch: 14000, Error: 0.007415066894059036
Epoch: 14100, Error: 0.0073128071975140105
Epoch: 14200, Error: 0.007236896100965097
Epoch: 14300, Error: 0.007156958749333676
Epoch: 14400, Error: 0.007074936880266733
Epoch: 14500, Error: 0.006993990746498218
Epoch: 14600, Error: 0.006915034286411526
Epoch: 14700, Error: 0.006889471837528997
Epoch: 14800, Error: 0.00677248126356212
Epoch: 14900, Error: 0.00671958257567319
Epoch: 15000, Error: 0.0066191165855313755
Epoch: 15100, Error: 0.006571023389208045
Epoch: 15200, Error: 0.006542388895731177
Epoch: 15300, Error: 0.006477137237801248
Epoch: 15400, Error: 0.0064581696438433
Epoch: 15500, Error: 0.0066533274192887345
Epoch: 15600, Error: 0.006325220401659031
Epoch: 15700, Error: 0.006288590894167321
Epoch: 15800, Error: 0.006234598759115067
Epoch: 15900, Error: 0.006208166365140012
Epoch: 16000, Error: 0.006167297186914137
Epoch: 16100, Error: 0.006130159251346724
Epoch: 16200, Error: 0.006086330932817818
Epoch: 16300, Error: 0.0060726791724516685
Epoch: 16400, Error: 0.006086693539365345
Epoch: 16500, Error: 0.006047646055331328
Epoch: 16600, Error: 0.006023827977989985
Epoch: 16700, Error: 0.005987087017802742
Epoch: 16800, Error: 0.0059829547793742105
Epoch: 16900, Error: 0.0059411548566519
Epoch: 17000, Error: 0.005925745612941427
Epoch: 17100, Error: 0.0058828333779753885
Epoch: 17200, Error: 0.005870910388024433
Epoch: 17300, Error: 0.005848365842282792
Epoch: 17400, Error: 0.005824557650858366
Epoch: 17500, Error: 0.005839793842224601
Epoch: 17600, Error: 0.00580243045535044
Epoch: 17700, Error: 0.00579012989524717
Epoch: 17800, Error: 0.005770995533890484
Epoch: 17900, Error: 0.0057465186777579886
Epoch: 18000, Error: 0.0057382927288235665
Epoch: 18100, Error: 0.005721746735808663
Epoch: 18200, Error: 0.005687760653231172
Epoch: 18300, Error: 0.005681164947564517
Epoch: 18400, Error: 0.00570561276012106
Epoch: 18500, Error: 0.00566440155286666
Epoch: 18600, Error: 0.005651081736399779
Epoch: 18700, Error: 0.00564175091125487
Epoch: 18800, Error: 0.005650504609823756
Epoch: 18900, Error: 0.005612922231929081
Epoch: 19000, Error: 0.00558312962778924
Epoch: 19100, Error: 0.00556505916408059
Epoch: 19200, Error: 0.005569865327121292
Epoch: 19300, Error: 0.0055666894277425355
Epoch: 19400, Error: 0.005592124313032413
Epoch: 19500, Error: 0.005560875151666505
Epoch: 19600, Error: 0.005534288121333799
Epoch: 19700, Error: 0.005511583576914277
Epoch: 19800, Error: 0.0054978725559660145
Epoch: 19900, Error: 0.00549780675604995
Epoch: 20000, Error: 0.005475988895361207
Epoch: 20100, Error: 0.005476995931052942
Epoch: 20200, Error: 0.005465776511814456
Epoch: 20300, Error: 0.005442593717807402
Epoch: 20400, Error: 0.005461726925492937
Epoch: 20500, Error: 0.00542634950828432
Epoch: 20600, Error: 0.005414939843190743
Epoch: 20700, Error: 0.005399473830914718
Epoch: 20800, Error: 0.005401675313925524
Epoch: 20900, Error: 0.005414216109261311
Epoch: 21000, Error: 0.005430669655254815
Epoch: 21100, Error: 0.005349049891852192
Epoch: 21200, Error: 0.0053728131129577115
Epoch: 21300, Error: 0.005332235015684863
Epoch: 21400, Error: 0.005305441922272325
Epoch: 21500, Error: 0.005304983642667597
Epoch: 21600, Error: 0.005297667872414811
Epoch: 21700, Error: 0.005285591731204169
Epoch: 21800, Error: 0.005266106534631892
Epoch: 21900, Error: 0.005259866020568921
Epoch: 22000, Error: 0.00525579030811229
Epoch: 22100, Error: 0.005237901497573831
Epoch: 22200, Error: 0.005225589450821562
Epoch: 22300, Error: 0.0052066554086018365
Epoch: 22400, Error: 0.005198388612906785
Epoch: 22500, Error: 0.00517509118148021
Epoch: 22600, Error: 0.005162029933472518
Epoch: 22700, Error: 0.005135779567542609
Epoch: 22800, Error: 0.005121473334584901
Epoch: 22900, Error: 0.005105589420664313
Epoch: 23000, Error: 0.005092572421448642
Epoch: 23100, Error: 0.005055728811902703
Epoch: 23200, Error: 0.005062236275543781
Epoch: 23300, Error: 0.005031413414649631
Epoch: 23400, Error: 0.004986042049062691
Epoch: 23500, Error: 0.0049911314285240585
Epoch: 23600, Error: 0.004969767991473531
Epoch: 23700, Error: 0.004927387016454272
Epoch: 23800, Error: 0.004900023341015964
Epoch: 23900, Error: 0.004885324802761148
Epoch: 24000, Error: 0.004848674067947965
Epoch: 24100, Error: 0.004826086443718991
Epoch: 24200, Error: 0.004792381248400441
Epoch: 24300, Error: 0.004787289923486346
Epoch: 24400, Error: 0.004835304131305678
Epoch: 24500, Error: 0.0047511824533663215
Epoch: 24600, Error: 0.004747331705322841
Epoch: 24700, Error: 0.004732848099657741
Epoch: 24800, Error: 0.004736169891747257
Epoch: 24900, Error: 0.004728957957920627
Epoch: 25000, Error: 0.00469827536716087
Epoch: 25100, Error: 0.004692418470758426
Epoch: 25200, Error: 0.004665649390289427
Epoch: 25300, Error: 0.00467455970789442
Epoch: 25400, Error: 0.004826374368007293
Epoch: 25500, Error: 0.0047240517469758474
Epoch: 25600, Error: 0.004645739945561656
Epoch: 25700, Error: 0.0046241478914065
Epoch: 25800, Error: 0.00458540922332422
Epoch: 25900, Error: 0.004558140271352941
Epoch: 26000, Error: 0.004600616077306012
Epoch: 26100, Error: 0.00450895247872729
Epoch: 26200, Error: 0.004488330385752902
Epoch: 26300, Error: 0.004487427425684044
Epoch: 26400, Error: 0.004457986032273451
Epoch: 26500, Error: 0.0044930238464919465
Epoch: 26600, Error: 0.004406442532011073
Epoch: 26700, Error: 0.004387021771290549
Epoch: 26800, Error: 0.0044216488661653385
Epoch: 26900, Error: 0.004326996996731128
Epoch: 27000, Error: 0.0043004473953956466
Epoch: 27100, Error: 0.0042455990144583235
Epoch: 27200, Error: 0.0042462051197168105
Epoch: 27300, Error: 0.004207445154027462
Epoch: 27400, Error: 0.004197565447341354
Epoch: 27500, Error: 0.004153112768148528
Epoch: 27600, Error: 0.004140535662377873
Epoch: 27700, Error: 0.004133573636277043
Epoch: 27800, Error: 0.004095503196732011
Epoch: 27900, Error: 0.004091615244384602
Epoch: 28000, Error: 0.004036761004921458
Epoch: 28100, Error: 0.004009950770631371
Epoch: 28200, Error: 0.0040012557875367775
Epoch: 28300, Error: 0.00400824863224499
Epoch: 28400, Error: 0.003981111637249492
Epoch: 28500, Error: 0.0039596808102415285
Epoch: 28600, Error: 0.003932099446196391
Epoch: 28700, Error: 0.0038918525274327085
Epoch: 28800, Error: 0.0038755994577504556
Epoch: 28900, Error: 0.0038639587743073372
Epoch: 29000, Error: 0.0038460152668511874
Epoch: 29100, Error: 0.003806044510277924
Epoch: 29200, Error: 0.0038104608737877157
Epoch: 29300, Error: 0.003753564446252226
Epoch: 29400, Error: 0.003727802193102564
Epoch: 29500, Error: 0.0038031776192866728
Epoch: 29600, Error: 0.0037236480820195617
Epoch: 29700, Error: 0.003697575518440083
Epoch: 29800, Error: 0.0037216931415157387
Epoch: 29900, Error: 0.0036693091509672443
Epoch: 30000, Error: 0.0036149073539218785
Epoch: 30100, Error: 0.0036148379697468563
Epoch: 30200, Error: 0.0036005763718068625
Epoch: 30300, Error: 0.0035701904540455646
Epoch: 30400, Error: 0.0035946077038817395
Epoch: 30500, Error: 0.0034833583755494676
Epoch: 30600, Error: 0.003647150247766664
Epoch: 30700, Error: 0.003494037701658445
Epoch: 30800, Error: 0.00347794241248956
Epoch: 30900, Error: 0.003478086247277609
Epoch: 31000, Error: 0.0034866798187396892
Epoch: 31100, Error: 0.003468355123195463
Epoch: 31200, Error: 0.0034920359648399567
Epoch: 31300, Error: 0.0034375163009953435
Epoch: 31400, Error: 0.0034652096266984066
Epoch: 31500, Error: 0.003436954298673829
Epoch: 31600, Error: 0.0034854329062960652
Epoch: 31700, Error: 0.003473884059182598
Epoch: 31800, Error: 0.003487216320978862
Epoch: 31900, Error: 0.0033800232812295386
Epoch: 32000, Error: 0.0034165202296902158
Epoch: 32100, Error: 0.0034560318777293597
Epoch: 32200, Error: 0.003394302501147955
Epoch: 32300, Error: 0.00337484606135895
Epoch: 32400, Error: 0.0033934206497043605
Epoch: 32500, Error: 0.0034133595934299904
Epoch: 32600, Error: 0.0034145793632599747
Epoch: 32700, Error: 0.0034629421454650984
Epoch: 32800, Error: 0.003453932324810253
Epoch: 32900, Error: 0.0034645319676752133
Epoch: 33000, Error: 0.003489576381841049
Epoch: 33100, Error: 0.0035084906365215923
Epoch: 33200, Error: 0.003434329554197604
Epoch: 33300, Error: 0.003526212534428018
Epoch: 33400, Error: 0.0034619925205969723
Epoch: 33500, Error: 0.003410545044681467
Epoch: 33600, Error: 0.0034095323630487736
Epoch: 33700, Error: 0.003418450435795017
Epoch: 33800, Error: 0.0034893251430136926
Epoch: 33900, Error: 0.0034353858188132507
Epoch: 34000, Error: 0.003416550466407166
Epoch: 34100, Error: 0.0033981658986324756
Epoch: 34200, Error: 0.0033159653027333273
Epoch: 34300, Error: 0.003266328556952843
Epoch: 34400, Error: 0.0033384632529848486
Epoch: 34500, Error: 0.003273177479725439
Epoch: 34600, Error: 0.0032109941363251022
Epoch: 34700, Error: 0.0031618436772597115
Epoch: 34800, Error: 0.0031837851670919806
Epoch: 34900, Error: 0.0030878478130709273
Epoch: 35000, Error: 0.0030874265709141375
Epoch: 35100, Error: 0.003133695479400165
Epoch: 35200, Error: 0.003058802529994579
Epoch: 35300, Error: 0.0030434554068704826
Epoch: 35400, Error: 0.0032527091579729415
Epoch: 35500, Error: 0.0030687316912802816
Epoch: 35600, Error: 0.0030468707047301325
Epoch: 35700, Error: 0.0031348540399521265
Epoch: 35800, Error: 0.0030443469374757844
Epoch: 35900, Error: 0.002950295215948075
Epoch: 36000, Error: 0.0032113728824290193
Epoch: 36100, Error: 0.0029352451833291344
Epoch: 36200, Error: 0.0029157603933658797
Epoch: 36300, Error: 0.002895360063804216
Epoch: 36400, Error: 0.0028983671060900853
Epoch: 36500, Error: 0.002841599594657935
Epoch: 36600, Error: 0.0028305677847202727
Epoch: 36700, Error: 0.0029105696657545877
Epoch: 36800, Error: 0.002826554936098559
Epoch: 36900, Error: 0.0028065228558268505
Epoch: 37000, Error: 0.002826216096783655
Epoch: 37100, Error: 0.002775405611821676
Epoch: 37200, Error: 0.0027550953003888214
Epoch: 37300, Error: 0.0027858402118877217
Epoch: 37400, Error: 0.0027636068670035896
Epoch: 37500, Error: 0.00273857116684718
Epoch: 37600, Error: 0.0026923196509357683
Epoch: 37700, Error: 0.0026932212746256638
Epoch: 37800, Error: 0.002691625621996518
Epoch: 37900, Error: 0.0026871885711846305
Epoch: 38000, Error: 0.002617440570457756
Epoch: 38100, Error: 0.002616455695365491
Epoch: 38200, Error: 0.0026032778863891853
Epoch: 38300, Error: 0.0025780746066730136
Epoch: 38400, Error: 0.00257060477636676
Epoch: 38500, Error: 0.0025792942376645623
Epoch: 38600, Error: 0.0025721519389320115
Epoch: 38700, Error: 0.002518287861131456
Epoch: 38800, Error: 0.0025191788031611218
Epoch: 38900, Error: 0.0024861958737811764
Epoch: 39000, Error: 0.0024725697961316176
Epoch: 39100, Error: 0.002486082060848365
Epoch: 39200, Error: 0.002437670749883007
Epoch: 39300, Error: 0.0024416690476297184
Epoch: 39400, Error: 0.0024177427726422567
Epoch: 39500, Error: 0.002392341646381067
Epoch: 39600, Error: 0.0023718378106268004
Epoch: 39700, Error: 0.0023974678457459836
Epoch: 39800, Error: 0.002453734505115616
Epoch: 39900, Error: 0.002360272616935147
Epoch: 40000, Error: 0.002345028472925794
Epoch: 40100, Error: 0.0023140946753200304
Epoch: 40200, Error: 0.0023092543238284785
Epoch: 40300, Error: 0.002314416231081252
Epoch: 40400, Error: 0.002273136435521798
Epoch: 40500, Error: 0.002268011760794691
Epoch: 40600, Error: 0.002259009273736719
Epoch: 40700, Error: 0.0022652369605450856
Epoch: 40800, Error: 0.0023378335583810546
Epoch: 40900, Error: 0.002243650190345699
Epoch: 41000, Error: 0.0022104611330699877
Epoch: 41100, Error: 0.0022140788149671888
Epoch: 41200, Error: 0.0022475883215834326
Epoch: 41300, Error: 0.0022105958393033747
Epoch: 41400, Error: 0.002194639126860457
Epoch: 41500, Error: 0.002166135543978638
Epoch: 41600, Error: 0.0021504497214477167
Epoch: 41700, Error: 0.0021323355118858726
Epoch: 41800, Error: 0.002166845552655058
Epoch: 41900, Error: 0.0021382135207297743
Epoch: 42000, Error: 0.0021575031267638237
Epoch: 42100, Error: 0.002100699597191882
Epoch: 42200, Error: 0.0020977258961946514
Epoch: 42300, Error: 0.0020817175857154513
Epoch: 42400, Error: 0.0020791078005709183
Epoch: 42500, Error: 0.00206716222097754
Epoch: 42600, Error: 0.002068708745448429
Epoch: 42700, Error: 0.0020516265108602954
Epoch: 42800, Error: 0.0020724453106962864
Epoch: 42900, Error: 0.002042090274589635
Epoch: 43000, Error: 0.0020521536575531384
Epoch: 43100, Error: 0.00202754455066653
Epoch: 43200, Error: 0.002032581793080932
Epoch: 43300, Error: 0.00200999644777923
Epoch: 43400, Error: 0.0020250724726700725
Epoch: 43500, Error: 0.0020125022474277326
Epoch: 43600, Error: 0.0019981084502073173
Epoch: 43700, Error: 0.0019877339520652042
Epoch: 43800, Error: 0.0019911793219043517
Epoch: 43900, Error: 0.0019772726562714395
Epoch: 44000, Error: 0.001964395696705659
Epoch: 44100, Error: 0.001960874402439724
Epoch: 44200, Error: 0.0019679152812131615
Epoch: 44300, Error: 0.001955022812847849
Epoch: 44400, Error: 0.0019609060940779916
Epoch: 44500, Error: 0.0019299467434058183
Epoch: 44600, Error: 0.0019470749221011643
Epoch: 44700, Error: 0.0019157281154903126
Epoch: 44800, Error: 0.0019223427916545378
Epoch: 44900, Error: 0.0019210802727167094
Epoch: 45000, Error: 0.001894987249955714
Epoch: 45100, Error: 0.0018982979321214826
Epoch: 45200, Error: 0.0018894829162370468
Epoch: 45300, Error: 0.0018807959471916678
Epoch: 45400, Error: 0.0018722213991640732
Epoch: 45500, Error: 0.001865026155463011
Epoch: 45600, Error: 0.0018602719187045084
Epoch: 45700, Error: 0.0018513923379044302
Epoch: 45800, Error: 0.0018379967328593886
Epoch: 45900, Error: 0.0018418765364618186
Epoch: 46000, Error: 0.0018304553914278126
Epoch: 46100, Error: 0.0018495653071249956
Epoch: 46200, Error: 0.0018416715628691018
Epoch: 46300, Error: 0.0018140832230295323
Epoch: 46400, Error: 0.0018141822910780116
Epoch: 46500, Error: 0.0018033463473283485
Epoch: 46600, Error: 0.0018045594596190811
Epoch: 46700, Error: 0.001782606458634986
Epoch: 46800, Error: 0.001766137140300394
Epoch: 46900, Error: 0.001768260507699625
Epoch: 47000, Error: 0.0017400411413556662
Epoch: 47100, Error: 0.001727251403897765
Epoch: 47200, Error: 0.0017214596806969025
Epoch: 47300, Error: 0.0017060575771463266
Epoch: 47400, Error: 0.0017240739382920782
Epoch: 47500, Error: 0.0017119270803056899
Epoch: 47600, Error: 0.0016863056064126514
Epoch: 47700, Error: 0.0016714756585298445
Epoch: 47800, Error: 0.0016646319107305927
Epoch: 47900, Error: 0.001660252339597673
Epoch: 48000, Error: 0.001651647333782884
Epoch: 48100, Error: 0.0016464380178570286
Epoch: 48200, Error: 0.0016460936795662771
Epoch: 48300, Error: 0.0016444822214303375
Epoch: 48400, Error: 0.0016402242596272063
Epoch: 48500, Error: 0.0016296109172854597
Epoch: 48600, Error: 0.0016314750325021072
Epoch: 48700, Error: 0.0016488273744814082
Epoch: 48800, Error: 0.001609481796233546
Epoch: 48900, Error: 0.0015986676802886837
Epoch: 49000, Error: 0.0015855414043480659
Epoch: 49100, Error: 0.001587204379041524
Epoch: 49200, Error: 0.0015759870628722532
Epoch: 49300, Error: 0.0015653551411590842
Epoch: 49400, Error: 0.0015623442446950305
Epoch: 49500, Error: 0.0015504331972214468
Epoch: 49600, Error: 0.0015522294179110012
Epoch: 49700, Error: 0.001546461391981843
Epoch: 49800, Error: 0.0015366479158026337
Epoch: 49900, Error: 0.001535449171356681
Epoch: 50000, Error: 0.0015272617860432377
Epoch: 50100, Error: 0.001529646744060318
Epoch: 50200, Error: 0.0015281322316180593
Finished
Input Patterns
0.224 0.624 0.067 0.043 
0.11 0.502 0.051 0.043 
0.196 0.667 0.067 0.043 
0.055 0.584 0.067 0.082 
0.027 0.376 0.067 0.043 
0.306 0.71 0.086 0.043 
0.137 0.416 0.067 0.0 
0.416 0.831 0.035 0.043 
0.306 0.792 0.051 0.125 
0.388 0.749 0.118 0.082 
0.306 0.584 0.118 0.043 
0.082 0.667 0.0 0.043 
0.137 0.584 0.153 0.043 
0.196 0.584 0.102 0.125 
0.251 0.584 0.067 0.043 
0.137 0.459 0.102 0.043 
0.251 0.875 0.086 0.0 
0.165 0.459 0.086 0.043 
0.333 0.624 0.051 0.043 
0.027 0.416 0.051 0.043 
0.196 0.624 0.051 0.082 
0.027 0.502 0.051 0.043 
0.224 0.749 0.153 0.125 
0.224 0.749 0.102 0.043 
0.278 0.71 0.086 0.043 
0.165 0.416 0.067 0.043 
0.082 0.459 0.086 0.043 
0.306 0.792 0.118 0.125 
0.196 0.584 0.086 0.043 
0.165 0.459 0.086 0.0 
0.137 0.584 0.102 0.043 
0.0 0.416 0.016 0.0 
0.388 1.0 0.086 0.125 
0.224 0.624 0.067 0.082 
0.224 0.749 0.086 0.082 
0.224 0.71 0.086 0.125 
0.224 0.541 0.118 0.165 
0.196 0.416 0.102 0.043 
0.251 0.624 0.086 0.043 
0.11 0.502 0.102 0.043 
0.306 0.584 0.086 0.125 
0.333 0.918 0.067 0.043 
0.196 0.502 0.035 0.043 
0.165 0.667 0.067 0.0 
0.224 0.584 0.086 0.043 
0.055 0.125 0.051 0.082 
0.196 0.624 0.102 0.208 
0.137 0.416 0.067 0.082 
0.082 0.502 0.067 0.043 
0.196 0.541 0.067 0.043 
0.749 0.502 0.627 0.541 
0.722 0.459 0.663 0.584 
0.612 0.333 0.612 0.584 
0.557 0.541 0.627 0.624 
0.639 0.376 0.612 0.498 
0.196 0.0 0.424 0.376 
0.471 0.082 0.51 0.376 
0.361 0.376 0.439 0.498 
0.361 0.416 0.592 0.584 
0.529 0.082 0.592 0.584 
0.443 0.502 0.643 0.459 
0.557 0.208 0.663 0.584 
0.584 0.376 0.561 0.498 
0.694 0.333 0.643 0.541 
0.471 0.376 0.592 0.584 
0.333 0.169 0.475 0.416 
0.416 0.29 0.49 0.459 
0.306 0.416 0.592 0.584 
0.667 0.459 0.627 0.584 
0.361 0.416 0.525 0.498 
0.333 0.251 0.576 0.459 
0.416 0.251 0.51 0.459 
0.361 0.29 0.541 0.498 
0.388 0.376 0.541 0.498 
0.224 0.208 0.337 0.416 
0.584 0.502 0.592 0.584 
0.333 0.125 0.51 0.498 
0.388 0.333 0.592 0.498 
0.165 0.169 0.388 0.376 
0.251 0.29 0.49 0.541 
0.443 0.416 0.541 0.584 
0.498 0.376 0.627 0.541 
0.667 0.459 0.576 0.541 
0.416 0.29 0.525 0.376 
0.361 0.208 0.49 0.416 
0.498 0.333 0.51 0.498 
0.498 0.333 0.627 0.459 
0.639 0.416 0.576 0.541 
0.667 0.416 0.678 0.667 
0.388 0.251 0.424 0.376 
0.333 0.169 0.459 0.376 
0.471 0.29 0.694 0.624 
0.471 0.584 0.592 0.624 
0.557 0.125 0.576 0.498 
0.333 0.208 0.51 0.498 
0.498 0.416 0.612 0.541 
0.196 0.125 0.388 0.376 
0.388 0.416 0.541 0.459 
0.529 0.376 0.561 0.498 
0.388 0.333 0.525 0.498 
0.557 0.541 0.847 1.0 
0.776 0.416 0.831 0.831 
0.612 0.416 0.812 0.875 
0.165 0.208 0.592 0.667 
0.667 0.208 0.812 0.71 
0.612 0.502 0.694 0.792 
0.694 0.416 0.761 0.831 
0.416 0.333 0.694 0.957 
0.612 0.416 0.761 0.71 
0.945 0.251 1.0 0.918 
0.722 0.502 0.796 0.918 
0.945 0.333 0.965 0.792 
0.667 0.541 0.796 0.831 
0.529 0.333 0.643 0.71 
0.584 0.333 0.78 0.831 
0.863 0.333 0.863 0.749 
0.584 0.333 0.78 0.875 
0.498 0.251 0.78 0.541 
0.557 0.584 0.78 0.957 
0.471 0.416 0.643 0.71 
0.667 0.459 0.78 0.957 
0.416 0.29 0.694 0.749 
0.667 0.541 0.796 1.0 
0.557 0.208 0.678 0.749 
0.529 0.584 0.745 0.918 
0.416 0.29 0.694 0.749 
0.557 0.376 0.78 0.71 
0.918 0.416 0.949 0.831 
0.835 0.376 0.898 0.71 
0.804 0.667 0.863 1.0 
0.584 0.29 0.729 0.749 
0.388 0.208 0.678 0.792 
0.584 0.502 0.729 0.918 
0.945 0.749 0.965 0.875 
0.471 0.082 0.678 0.584 
0.361 0.333 0.663 0.792 
0.557 0.29 0.663 0.71 
0.804 0.502 0.847 0.71 
0.498 0.416 0.51 0.71 
0.804 0.416 0.812 0.624 
1.0 0.749 0.914 0.792 
0.557 0.333 0.694 0.584 
0.945 0.416 0.863 0.918 
0.584 0.459 0.761 0.71 
0.722 0.459 0.745 0.831 
0.722 0.459 0.694 0.918 
0.694 0.502 0.831 0.918 
0.667 0.416 0.714 0.918 
0.612 0.416 0.714 0.792 
0.443 0.416 0.694 0.71 
Teaching Patterns
1.0 0.0 0.0 
1.0 0.0 0.0 
1.0 0.0 0.0 
1.0 0.0 0.0 
1.0 0.0 0.0 
1.0 0.0 0.0 
1.0 0.0 0.0 
1.0 0.0 0.0 
1.0 0.0 0.0 
1.0 0.0 0.0 
1.0 0.0 0.0 
1.0 0.0 0.0 
1.0 0.0 0.0 
1.0 0.0 0.0 
1.0 0.0 0.0 
1.0 0.0 0.0 
1.0 0.0 0.0 
1.0 0.0 0.0 
1.0 0.0 0.0 
1.0 0.0 0.0 
1.0 0.0 0.0 
1.0 0.0 0.0 
1.0 0.0 0.0 
1.0 0.0 0.0 
1.0 0.0 0.0 
1.0 0.0 0.0 
1.0 0.0 0.0 
1.0 0.0 0.0 
1.0 0.0 0.0 
1.0 0.0 0.0 
1.0 0.0 0.0 
1.0 0.0 0.0 
1.0 0.0 0.0 
1.0 0.0 0.0 
1.0 0.0 0.0 
1.0 0.0 0.0 
1.0 0.0 0.0 
1.0 0.0 0.0 
1.0 0.0 0.0 
1.0 0.0 0.0 
1.0 0.0 0.0 
1.0 0.0 0.0 
1.0 0.0 0.0 
1.0 0.0 0.0 
1.0 0.0 0.0 
1.0 0.0 0.0 
1.0 0.0 0.0 
1.0 0.0 0.0 
1.0 0.0 0.0 
1.0 0.0 0.0 
0.0 1.0 0.0 
0.0 1.0 0.0 
0.0 1.0 0.0 
0.0 1.0 0.0 
0.0 1.0 0.0 
0.0 1.0 0.0 
0.0 1.0 0.0 
0.0 1.0 0.0 
0.0 1.0 0.0 
0.0 1.0 0.0 
0.0 1.0 0.0 
0.0 1.0 0.0 
0.0 1.0 0.0 
0.0 1.0 0.0 
0.0 1.0 0.0 
0.0 1.0 0.0 
0.0 1.0 0.0 
0.0 1.0 0.0 
0.0 1.0 0.0 
0.0 1.0 0.0 
0.0 1.0 0.0 
0.0 1.0 0.0 
0.0 1.0 0.0 
0.0 1.0 0.0 
0.0 1.0 0.0 
0.0 1.0 0.0 
0.0 1.0 0.0 
0.0 1.0 0.0 
0.0 1.0 0.0 
0.0 1.0 0.0 
0.0 1.0 0.0 
0.0 1.0 0.0 
0.0 1.0 0.0 
0.0 1.0 0.0 
0.0 1.0 0.0 
0.0 1.0 0.0 
0.0 1.0 0.0 
0.0 1.0 0.0 
0.0 1.0 0.0 
0.0 1.0 0.0 
0.0 1.0 0.0 
0.0 1.0 0.0 
0.0 1.0 0.0 
0.0 1.0 0.0 
0.0 1.0 0.0 
0.0 1.0 0.0 
0.0 1.0 0.0 
0.0 1.0 0.0 
0.0 1.0 0.0 
0.0 1.0 0.0 
0.0 0.0 1.0 
0.0 0.0 1.0 
0.0 0.0 1.0 
0.0 0.0 1.0 
0.0 0.0 1.0 
0.0 0.0 1.0 
0.0 0.0 1.0 
0.0 0.0 1.0 
0.0 0.0 1.0 
0.0 0.0 1.0 
0.0 0.0 1.0 
0.0 0.0 1.0 
0.0 0.0 1.0 
0.0 0.0 1.0 
0.0 0.0 1.0 
0.0 0.0 1.0 
0.0 0.0 1.0 
0.0 0.0 1.0 
0.0 0.0 1.0 
0.0 0.0 1.0 
0.0 0.0 1.0 
0.0 0.0 1.0 
0.0 0.0 1.0 
0.0 0.0 1.0 
0.0 0.0 1.0 
0.0 0.0 1.0 
0.0 0.0 1.0 
0.0 0.0 1.0 
0.0 0.0 1.0 
0.0 0.0 1.0 
0.0 0.0 1.0 
0.0 0.0 1.0 
0.0 0.0 1.0 
0.0 0.0 1.0 
0.0 0.0 1.0 
0.0 0.0 1.0 
0.0 0.0 1.0 
0.0 0.0 1.0 
0.0 0.0 1.0 
0.0 0.0 1.0 
0.0 0.0 1.0 
0.0 0.0 1.0 
0.0 0.0 1.0 
0.0 0.0 1.0 
0.0 0.0 1.0 
0.0 0.0 1.0 
0.0 0.0 1.0 
0.0 0.0 1.0 
0.0 0.0 1.0 
0.0 0.0 1.0 
Learning : 0.05
Momentum : 0.8999999761581421
Epoch: 100, Error: 0.02339487171997905
Epoch: 200, Error: 0.017781951793559996
Epoch: 300, Error: 0.015590459797131402
Epoch: 400, Error: 0.01568346881890545
Epoch: 500, Error: 0.014311860441778701
Epoch: 600, Error: 0.013623681561066974
Epoch: 700, Error: 0.013590359766047055
Epoch: 800, Error: 0.013574595185073899
Epoch: 900, Error: 0.013084648940560965
Epoch: 1000, Error: 0.013077872070245796
Epoch: 1100, Error: 0.01294410502000336
Epoch: 1200, Error: 0.012787251514524114
Epoch: 1300, Error: 0.013266535319721367
Epoch: 1400, Error: 0.012734594331918168
Epoch: 1500, Error: 0.012711561054144617
Epoch: 1600, Error: 0.012580702961423482
Epoch: 1700, Error: 0.012631574541571999
Epoch: 1800, Error: 0.012506468437563223
Epoch: 1900, Error: 0.012902438378333958
Epoch: 2000, Error: 0.012365711418386079
Epoch: 2100, Error: 0.012631128636598328
Epoch: 2200, Error: 0.012264692288876462
Epoch: 2300, Error: 0.012320940007377185
Epoch: 2400, Error: 0.012272580803941528
Epoch: 2500, Error: 0.012298665310264545
Epoch: 2600, Error: 0.012255640360226933
Epoch: 2700, Error: 0.01223879071888622
Epoch: 2800, Error: 0.012123423818510564
Epoch: 2900, Error: 0.012095890172755766
Epoch: 3000, Error: 0.01214523871684778
Epoch: 3100, Error: 0.012050004299297446
Epoch: 3200, Error: 0.012005902162488655
Epoch: 3300, Error: 0.011988634588491594
Epoch: 3400, Error: 0.011946380533040122
Epoch: 3500, Error: 0.011924074068423083
Epoch: 3600, Error: 0.012079671163832179
Epoch: 3700, Error: 0.011929751141777868
Epoch: 3800, Error: 0.011925034657489078
Epoch: 3900, Error: 0.012110598147680056
Epoch: 4000, Error: 0.012024092964799454
Epoch: 4100, Error: 0.011909747328395967
Epoch: 4200, Error: 0.01195558034787466
Epoch: 4300, Error: 0.011931571618288022
Epoch: 4400, Error: 0.011888795438110895
Epoch: 4500, Error: 0.01193953255095246
Epoch: 4600, Error: 0.01189772086305814
Epoch: 4700, Error: 0.011966137771781809
Epoch: 4800, Error: 0.011848908087904966
Epoch: 4900, Error: 0.01187141765647653
Epoch: 5000, Error: 0.011830462949006079
Epoch: 5100, Error: 0.011808540833325085
Epoch: 5200, Error: 0.01181285313717548
Epoch: 5300, Error: 0.011814613463204263
Epoch: 5400, Error: 0.011792879629406963
Epoch: 5500, Error: 0.011781157896656836
Epoch: 5600, Error: 0.01178134492217857
Epoch: 5700, Error: 0.01175986602478246
Epoch: 5800, Error: 0.011827930066525114
Epoch: 5900, Error: 0.01175301790386832
Epoch: 6000, Error: 0.011751803991910274
Epoch: 6100, Error: 0.011872398787625846
Epoch: 6200, Error: 0.011792298353103378
Epoch: 6300, Error: 0.011705113062821699
Epoch: 6400, Error: 0.01167252030250585
Epoch: 6500, Error: 0.011644481027427841
Epoch: 6600, Error: 0.011648985220606574
Epoch: 6700, Error: 0.011604330613359928
Epoch: 6800, Error: 0.011605816307894638
Epoch: 6900, Error: 0.011602408448076383
Epoch: 7000, Error: 0.011547880280949786
Epoch: 7100, Error: 0.011519017323200598
Epoch: 7200, Error: 0.011534890618586235
Epoch: 7300, Error: 0.01158076549326772
Epoch: 7400, Error: 0.011532686079853319
Epoch: 7500, Error: 0.011430904988999312
Epoch: 7600, Error: 0.011389136260977607
Epoch: 7700, Error: 0.011394786682876815
Epoch: 7800, Error: 0.01139241733496173
Epoch: 7900, Error: 0.01127912455967218
Epoch: 8000, Error: 0.011243895386740532
Epoch: 8100, Error: 0.011204844018394857
Epoch: 8200, Error: 0.011376137934730012
Epoch: 8300, Error: 0.01114599197581209
Epoch: 8400, Error: 0.011144525952563612
Epoch: 8500, Error: 0.011044701036796247
Epoch: 8600, Error: 0.011086067715861105
Epoch: 8700, Error: 0.010978011570964325
Epoch: 8800, Error: 0.010890062456604123
Epoch: 8900, Error: 0.010846637733776048
Epoch: 9000, Error: 0.010767623186554687
Epoch: 9100, Error: 0.01071547481216635
Epoch: 9200, Error: 0.010659602529922006
Epoch: 9300, Error: 0.010570872781749655
Epoch: 9400, Error: 0.010505993605008928
Epoch: 9500, Error: 0.010466178764768677
Epoch: 9600, Error: 0.010357564450265488
Epoch: 9700, Error: 0.010268272238823302
Epoch: 9800, Error: 0.010190680062938334
Epoch: 9900, Error: 0.010165439891166705
Epoch: 10000, Error: 0.010063484372515683
Epoch: 10100, Error: 0.009932735451316562
Epoch: 10200, Error: 0.009844213458923617
Epoch: 10300, Error: 0.009736271266458457
Epoch: 10400, Error: 0.009632570549590073
Epoch: 10500, Error: 0.009529929338031314
Epoch: 10600, Error: 0.009418367226325523
Epoch: 10700, Error: 0.00939103678427791
Epoch: 10800, Error: 0.009265382466660302
Epoch: 10900, Error: 0.00909382067519311
Epoch: 11000, Error: 0.009046689484031168
Epoch: 11100, Error: 0.008884539014569844
Epoch: 11200, Error: 0.008802277311264912
Epoch: 11300, Error: 0.008666500278088511
Epoch: 11400, Error: 0.008566157901471349
Epoch: 11500, Error: 0.008474023660035841
Epoch: 11600, Error: 0.00837159915888382
Epoch: 11700, Error: 0.008276759454178991
Epoch: 11800, Error: 0.008191874651066248
Epoch: 11900, Error: 0.008090778508372651
Epoch: 12000, Error: 0.00799667515056283
Epoch: 12100, Error: 0.007961767210569601
Epoch: 12200, Error: 0.007827678866650594
Epoch: 12300, Error: 0.007749765513909162
Epoch: 12400, Error: 0.00767563958566785
Epoch: 12500, Error: 0.00764937159193962
Epoch: 12600, Error: 0.007552681697594355
Epoch: 12700, Error: 0.007473882043623369
Epoch: 12800, Error: 0.007372846794966866
Epoch: 12900, Error: 0.007303669613074492
Epoch: 13000, Error: 0.007245842774909585
Epoch: 13100, Error: 0.007237100248488574
Epoch: 13200, Error: 0.0071576571496876394
Epoch: 13300, Error: 0.00707084254851315
Epoch: 13400, Error: 0.006985331221608712
Epoch: 13500, Error: 0.0069417496502198
Epoch: 13600, Error: 0.006874100563010697
Epoch: 13700, Error: 0.006831385757402229
Epoch: 13800, Error: 0.006776512054898539
Epoch: 13900, Error: 0.006720720330639717
Epoch: 14000, Error: 0.006719956300342189
Epoch: 14100, Error: 0.006795031161237181
Epoch: 14200, Error: 0.006677514433872347
Epoch: 14300, Error: 0.006597566445659096
Epoch: 14400, Error: 0.006571443871452493
Epoch: 14500, Error: 0.00653405399368711
Epoch: 14600, Error: 0.00651333498519758
Epoch: 14700, Error: 0.006466437430061453
Epoch: 14800, Error: 0.006468627452564268
Epoch: 14900, Error: 0.006433019981390374
Epoch: 15000, Error: 0.006409181792329087
Epoch: 15100, Error: 0.006379249184623216
Epoch: 15200, Error: 0.0063801677893674386
Epoch: 15300, Error: 0.006357290463527579
Epoch: 15400, Error: 0.006356020180584211
Epoch: 15500, Error: 0.006372453171632408
Epoch: 15600, Error: 0.006355595433847057
Epoch: 15700, Error: 0.006326150271536566
Epoch: 15800, Error: 0.006319126717045868
Epoch: 15900, Error: 0.006246433504249411
Epoch: 16000, Error: 0.006268007088300305
Epoch: 16100, Error: 0.006308243401149208
Epoch: 16200, Error: 0.006287304411220678
Epoch: 16300, Error: 0.006260489191869668
Epoch: 16400, Error: 0.006205643217376298
Epoch: 16500, Error: 0.006202771029475212
Epoch: 16600, Error: 0.006164536982352125
Epoch: 16700, Error: 0.006154307881624569
Epoch: 16800, Error: 0.0061738910208684935
Epoch: 16900, Error: 0.006163086373452826
Epoch: 17000, Error: 0.0062145811461158445
Epoch: 17100, Error: 0.006101845730726755
Epoch: 17200, Error: 0.00607628314861501
Epoch: 17300, Error: 0.006075091837015986
Epoch: 17400, Error: 0.006094484650120832
Epoch: 17500, Error: 0.006056420313900527
Epoch: 17600, Error: 0.006113489653829081
Epoch: 17700, Error: 0.0060155879993359675
Epoch: 17800, Error: 0.006041293658728673
Epoch: 17900, Error: 0.0060388990554132585
Epoch: 18000, Error: 0.0059841269869873905
Epoch: 18100, Error: 0.005988918982139048
Epoch: 18200, Error: 0.006010481990142774
Epoch: 18300, Error: 0.0059841797062664265
Epoch: 18400, Error: 0.005956780946768829
Epoch: 18500, Error: 0.005953727354871642
Epoch: 18600, Error: 0.005929300525884963
Epoch: 18700, Error: 0.005942375536846159
Epoch: 18800, Error: 0.005955931297114908
Epoch: 18900, Error: 0.0059401354107853485
Epoch: 19000, Error: 0.005945024278983064
Epoch: 19100, Error: 0.005935811140839096
Epoch: 19200, Error: 0.005972124696643643
Finished
