Input Patterns
0.224 0.624 0.067 0.043 
0.11 0.502 0.051 0.043 
0.196 0.667 0.067 0.043 
0.055 0.584 0.067 0.082 
0.027 0.376 0.067 0.043 
0.306 0.71 0.086 0.043 
0.137 0.416 0.067 0.0 
0.416 0.831 0.035 0.043 
0.306 0.792 0.051 0.125 
0.388 0.749 0.118 0.082 
0.306 0.584 0.118 0.043 
0.082 0.667 0.0 0.043 
0.137 0.584 0.153 0.043 
0.196 0.584 0.102 0.125 
0.251 0.584 0.067 0.043 
0.137 0.459 0.102 0.043 
0.251 0.875 0.086 0.0 
0.165 0.459 0.086 0.043 
0.333 0.624 0.051 0.043 
0.027 0.416 0.051 0.043 
0.196 0.624 0.051 0.082 
0.027 0.502 0.051 0.043 
0.224 0.749 0.153 0.125 
0.224 0.749 0.102 0.043 
0.278 0.71 0.086 0.043 
0.165 0.416 0.067 0.043 
0.082 0.459 0.086 0.043 
0.306 0.792 0.118 0.125 
0.196 0.584 0.086 0.043 
0.165 0.459 0.086 0.0 
0.137 0.584 0.102 0.043 
0.0 0.416 0.016 0.0 
0.388 1.0 0.086 0.125 
0.224 0.624 0.067 0.082 
0.224 0.749 0.086 0.082 
0.224 0.71 0.086 0.125 
0.224 0.541 0.118 0.165 
0.196 0.416 0.102 0.043 
0.251 0.624 0.086 0.043 
0.11 0.502 0.102 0.043 
0.306 0.584 0.086 0.125 
0.333 0.918 0.067 0.043 
0.196 0.502 0.035 0.043 
0.165 0.667 0.067 0.0 
0.224 0.584 0.086 0.043 
0.055 0.125 0.051 0.082 
0.196 0.624 0.102 0.208 
0.137 0.416 0.067 0.082 
0.082 0.502 0.067 0.043 
0.196 0.541 0.067 0.043 
0.749 0.502 0.627 0.541 
0.722 0.459 0.663 0.584 
0.612 0.333 0.612 0.584 
0.557 0.541 0.627 0.624 
0.639 0.376 0.612 0.498 
0.196 0.0 0.424 0.376 
0.471 0.082 0.51 0.376 
0.361 0.376 0.439 0.498 
0.361 0.416 0.592 0.584 
0.529 0.082 0.592 0.584 
0.443 0.502 0.643 0.459 
0.557 0.208 0.663 0.584 
0.584 0.376 0.561 0.498 
0.694 0.333 0.643 0.541 
0.471 0.376 0.592 0.584 
0.333 0.169 0.475 0.416 
0.416 0.29 0.49 0.459 
0.306 0.416 0.592 0.584 
0.667 0.459 0.627 0.584 
0.361 0.416 0.525 0.498 
0.333 0.251 0.576 0.459 
0.416 0.251 0.51 0.459 
0.361 0.29 0.541 0.498 
0.388 0.376 0.541 0.498 
0.224 0.208 0.337 0.416 
0.584 0.502 0.592 0.584 
0.333 0.125 0.51 0.498 
0.388 0.333 0.592 0.498 
0.165 0.169 0.388 0.376 
0.251 0.29 0.49 0.541 
0.443 0.416 0.541 0.584 
0.498 0.376 0.627 0.541 
0.667 0.459 0.576 0.541 
0.416 0.29 0.525 0.376 
0.361 0.208 0.49 0.416 
0.498 0.333 0.51 0.498 
0.498 0.333 0.627 0.459 
0.639 0.416 0.576 0.541 
0.667 0.416 0.678 0.667 
0.388 0.251 0.424 0.376 
0.333 0.169 0.459 0.376 
0.471 0.29 0.694 0.624 
0.471 0.584 0.592 0.624 
0.557 0.125 0.576 0.498 
0.333 0.208 0.51 0.498 
0.498 0.416 0.612 0.541 
0.196 0.125 0.388 0.376 
0.388 0.416 0.541 0.459 
0.529 0.376 0.561 0.498 
0.388 0.333 0.525 0.498 
0.557 0.541 0.847 1.0 
0.776 0.416 0.831 0.831 
0.612 0.416 0.812 0.875 
0.165 0.208 0.592 0.667 
0.667 0.208 0.812 0.71 
0.612 0.502 0.694 0.792 
0.694 0.416 0.761 0.831 
0.416 0.333 0.694 0.957 
0.612 0.416 0.761 0.71 
0.945 0.251 1.0 0.918 
0.722 0.502 0.796 0.918 
0.945 0.333 0.965 0.792 
0.667 0.541 0.796 0.831 
0.529 0.333 0.643 0.71 
0.584 0.333 0.78 0.831 
0.863 0.333 0.863 0.749 
0.584 0.333 0.78 0.875 
0.498 0.251 0.78 0.541 
0.557 0.584 0.78 0.957 
0.471 0.416 0.643 0.71 
0.667 0.459 0.78 0.957 
0.416 0.29 0.694 0.749 
0.667 0.541 0.796 1.0 
0.557 0.208 0.678 0.749 
0.529 0.584 0.745 0.918 
0.416 0.29 0.694 0.749 
0.557 0.376 0.78 0.71 
0.918 0.416 0.949 0.831 
0.835 0.376 0.898 0.71 
0.804 0.667 0.863 1.0 
0.584 0.29 0.729 0.749 
0.388 0.208 0.678 0.792 
0.584 0.502 0.729 0.918 
0.945 0.749 0.965 0.875 
0.471 0.082 0.678 0.584 
0.361 0.333 0.663 0.792 
0.557 0.29 0.663 0.71 
0.804 0.502 0.847 0.71 
0.498 0.416 0.51 0.71 
0.804 0.416 0.812 0.624 
1.0 0.749 0.914 0.792 
0.557 0.333 0.694 0.584 
0.945 0.416 0.863 0.918 
0.584 0.459 0.761 0.71 
0.722 0.459 0.745 0.831 
0.722 0.459 0.694 0.918 
0.694 0.502 0.831 0.918 
0.667 0.416 0.714 0.918 
0.612 0.416 0.714 0.792 
0.443 0.416 0.694 0.71 
Teaching Patterns
1.0 0.0 0.0 
1.0 0.0 0.0 
1.0 0.0 0.0 
1.0 0.0 0.0 
1.0 0.0 0.0 
1.0 0.0 0.0 
1.0 0.0 0.0 
1.0 0.0 0.0 
1.0 0.0 0.0 
1.0 0.0 0.0 
1.0 0.0 0.0 
1.0 0.0 0.0 
1.0 0.0 0.0 
1.0 0.0 0.0 
1.0 0.0 0.0 
1.0 0.0 0.0 
1.0 0.0 0.0 
1.0 0.0 0.0 
1.0 0.0 0.0 
1.0 0.0 0.0 
1.0 0.0 0.0 
1.0 0.0 0.0 
1.0 0.0 0.0 
1.0 0.0 0.0 
1.0 0.0 0.0 
1.0 0.0 0.0 
1.0 0.0 0.0 
1.0 0.0 0.0 
1.0 0.0 0.0 
1.0 0.0 0.0 
1.0 0.0 0.0 
1.0 0.0 0.0 
1.0 0.0 0.0 
1.0 0.0 0.0 
1.0 0.0 0.0 
1.0 0.0 0.0 
1.0 0.0 0.0 
1.0 0.0 0.0 
1.0 0.0 0.0 
1.0 0.0 0.0 
1.0 0.0 0.0 
1.0 0.0 0.0 
1.0 0.0 0.0 
1.0 0.0 0.0 
1.0 0.0 0.0 
1.0 0.0 0.0 
1.0 0.0 0.0 
1.0 0.0 0.0 
1.0 0.0 0.0 
1.0 0.0 0.0 
0.0 1.0 0.0 
0.0 1.0 0.0 
0.0 1.0 0.0 
0.0 1.0 0.0 
0.0 1.0 0.0 
0.0 1.0 0.0 
0.0 1.0 0.0 
0.0 1.0 0.0 
0.0 1.0 0.0 
0.0 1.0 0.0 
0.0 1.0 0.0 
0.0 1.0 0.0 
0.0 1.0 0.0 
0.0 1.0 0.0 
0.0 1.0 0.0 
0.0 1.0 0.0 
0.0 1.0 0.0 
0.0 1.0 0.0 
0.0 1.0 0.0 
0.0 1.0 0.0 
0.0 1.0 0.0 
0.0 1.0 0.0 
0.0 1.0 0.0 
0.0 1.0 0.0 
0.0 1.0 0.0 
0.0 1.0 0.0 
0.0 1.0 0.0 
0.0 1.0 0.0 
0.0 1.0 0.0 
0.0 1.0 0.0 
0.0 1.0 0.0 
0.0 1.0 0.0 
0.0 1.0 0.0 
0.0 1.0 0.0 
0.0 1.0 0.0 
0.0 1.0 0.0 
0.0 1.0 0.0 
0.0 1.0 0.0 
0.0 1.0 0.0 
0.0 1.0 0.0 
0.0 1.0 0.0 
0.0 1.0 0.0 
0.0 1.0 0.0 
0.0 1.0 0.0 
0.0 1.0 0.0 
0.0 1.0 0.0 
0.0 1.0 0.0 
0.0 1.0 0.0 
0.0 1.0 0.0 
0.0 1.0 0.0 
0.0 0.0 1.0 
0.0 0.0 1.0 
0.0 0.0 1.0 
0.0 0.0 1.0 
0.0 0.0 1.0 
0.0 0.0 1.0 
0.0 0.0 1.0 
0.0 0.0 1.0 
0.0 0.0 1.0 
0.0 0.0 1.0 
0.0 0.0 1.0 
0.0 0.0 1.0 
0.0 0.0 1.0 
0.0 0.0 1.0 
0.0 0.0 1.0 
0.0 0.0 1.0 
0.0 0.0 1.0 
0.0 0.0 1.0 
0.0 0.0 1.0 
0.0 0.0 1.0 
0.0 0.0 1.0 
0.0 0.0 1.0 
0.0 0.0 1.0 
0.0 0.0 1.0 
0.0 0.0 1.0 
0.0 0.0 1.0 
0.0 0.0 1.0 
0.0 0.0 1.0 
0.0 0.0 1.0 
0.0 0.0 1.0 
0.0 0.0 1.0 
0.0 0.0 1.0 
0.0 0.0 1.0 
0.0 0.0 1.0 
0.0 0.0 1.0 
0.0 0.0 1.0 
0.0 0.0 1.0 
0.0 0.0 1.0 
0.0 0.0 1.0 
0.0 0.0 1.0 
0.0 0.0 1.0 
0.0 0.0 1.0 
0.0 0.0 1.0 
0.0 0.0 1.0 
0.0 0.0 1.0 
0.0 0.0 1.0 
0.0 0.0 1.0 
0.0 0.0 1.0 
0.0 0.0 1.0 
0.0 0.0 1.0 
Learning : 0.05
Momentum : 0.8999999761581421
Epoch: 100, Error: 0.022695026507463172
Epoch: 200, Error: 0.01751519937291167
Epoch: 300, Error: 0.015243204229293383
Epoch: 400, Error: 0.014336177207096791
Epoch: 500, Error: 0.014065303835142057
Epoch: 600, Error: 0.013774824522855155
Epoch: 700, Error: 0.013428409737414819
Epoch: 800, Error: 0.013378526697350115
Epoch: 900, Error: 0.013151077832537716
Epoch: 1000, Error: 0.013022695543126198
Epoch: 1100, Error: 0.012881347945143043
Epoch: 1200, Error: 0.012742669283215298
Epoch: 1300, Error: 0.01271218138623118
Epoch: 1400, Error: 0.012769260765999402
Epoch: 1500, Error: 0.012608896317603435
Epoch: 1600, Error: 0.012665549626221713
Epoch: 1700, Error: 0.012629441124282721
Epoch: 1800, Error: 0.012523312992565526
Epoch: 1900, Error: 0.01251569988520196
Epoch: 2000, Error: 0.012540829680008688
Epoch: 2100, Error: 0.012509900653474786
Epoch: 2200, Error: 0.01262225700120086
Epoch: 2300, Error: 0.0123822469690553
Epoch: 2400, Error: 0.01249710272828004
Epoch: 2500, Error: 0.01233733729790646
Epoch: 2600, Error: 0.012254980463466063
Epoch: 2700, Error: 0.012233046873391436
Epoch: 2800, Error: 0.01217279823350906
Epoch: 2900, Error: 0.012147696179791369
Epoch: 3000, Error: 0.01214904430489433
Epoch: 3100, Error: 0.012204173306848809
Epoch: 3200, Error: 0.012268318434143059
Epoch: 3300, Error: 0.011981400077954923
Epoch: 3400, Error: 0.011919335183609853
Epoch: 3500, Error: 0.011876499561245615
Epoch: 3600, Error: 0.01192705690038682
Epoch: 3700, Error: 0.011903203903195611
Epoch: 3800, Error: 0.011991720474487511
Epoch: 3900, Error: 0.011981440079681289
Epoch: 4000, Error: 0.011917022934296898
Epoch: 4100, Error: 0.012004651378606379
Epoch: 4200, Error: 0.011943356829828283
Epoch: 4300, Error: 0.011899554640804007
Epoch: 4400, Error: 0.011900966187593025
Epoch: 4500, Error: 0.011920777490170795
Epoch: 4600, Error: 0.011822103583320361
Epoch: 4700, Error: 0.011828775670504634
Epoch: 4800, Error: 0.011808659925316907
Epoch: 4900, Error: 0.011763940654207009
Epoch: 5000, Error: 0.011839760418412707
Epoch: 5100, Error: 0.011991130126619612
Epoch: 5200, Error: 0.011746277032709019
Epoch: 5300, Error: 0.011723428935538361
Epoch: 5400, Error: 0.01168476670111479
Epoch: 5500, Error: 0.0116997947057005
Epoch: 5600, Error: 0.011678747656664448
Epoch: 5700, Error: 0.011750165303295933
Epoch: 5800, Error: 0.011699843400440418
Epoch: 5900, Error: 0.011737298503341835
Epoch: 6000, Error: 0.011739678154557141
Epoch: 6100, Error: 0.01167166825514366
Epoch: 6200, Error: 0.01178050378330978
Epoch: 6300, Error: 0.011613641442263982
Epoch: 6400, Error: 0.011601233414024107
Epoch: 6500, Error: 0.011633522872012426
Epoch: 6600, Error: 0.011744121591138001
Epoch: 6700, Error: 0.011643856614940435
Epoch: 6800, Error: 0.011628218945275558
Epoch: 6900, Error: 0.011598568736361723
Epoch: 7000, Error: 0.011551399742234816
Epoch: 7100, Error: 0.011528889990742398
Epoch: 7200, Error: 0.011522948132577399
Epoch: 7300, Error: 0.011480140467813756
Epoch: 7400, Error: 0.011457969461070971
Epoch: 7500, Error: 0.011438795923082173
Epoch: 7600, Error: 0.011407486205184895
Epoch: 7700, Error: 0.011383965165999814
Epoch: 7800, Error: 0.011360827155860337
Epoch: 7900, Error: 0.011343359009908538
Epoch: 8000, Error: 0.011315545342145161
Epoch: 8100, Error: 0.011311811443888882
Epoch: 8200, Error: 0.011282513450323417
Epoch: 8300, Error: 0.011292092395450752
Epoch: 8400, Error: 0.011249724391704042
Epoch: 8500, Error: 0.01124876388526385
Epoch: 8600, Error: 0.01118566646987568
Epoch: 8700, Error: 0.011189913478012879
Epoch: 8800, Error: 0.011144660307114322
Epoch: 8900, Error: 0.011113238598122728
Epoch: 9000, Error: 0.011150402628433767
Epoch: 9100, Error: 0.011101055339216757
Epoch: 9200, Error: 0.011034048912530393
Epoch: 9300, Error: 0.011350995690075682
Epoch: 9400, Error: 0.011004181915426832
Epoch: 9500, Error: 0.010940571317369053
Epoch: 9600, Error: 0.011102934147673108
Epoch: 9700, Error: 0.01089000532823528
Epoch: 9800, Error: 0.01097810625723817
Epoch: 9900, Error: 0.010822252590273532
Epoch: 10000, Error: 0.010775185135396118
Epoch: 10100, Error: 0.010744097076944027
Epoch: 10200, Error: 0.010723752219840404
Epoch: 10300, Error: 0.010894416687653067
Epoch: 10400, Error: 0.010639775869564261
Epoch: 10500, Error: 0.010594152415083326
Epoch: 10600, Error: 0.010548096550706324
Epoch: 10700, Error: 0.010502536456678967
Epoch: 10800, Error: 0.01043344337987953
Epoch: 10900, Error: 0.010461700459284155
Epoch: 11000, Error: 0.01035826355606118
Epoch: 11100, Error: 0.010299448414367559
Epoch: 11200, Error: 0.01132275301280084
Epoch: 11300, Error: 0.01019841560614468
Epoch: 11400, Error: 0.010165257772635423
Epoch: 11500, Error: 0.010073404731200981
Epoch: 11600, Error: 0.010015801820103669
Epoch: 11700, Error: 0.00994865210262143
Epoch: 11800, Error: 0.009941736248811676
Epoch: 11900, Error: 0.009809167098668343
Epoch: 12000, Error: 0.009810789753994749
Epoch: 12100, Error: 0.00974284270987962
Epoch: 12200, Error: 0.009641019483617319
Epoch: 12300, Error: 0.009533095557498237
Epoch: 12400, Error: 0.009476929903112375
Epoch: 12500, Error: 0.00941563857322753
Epoch: 12600, Error: 0.009324577709848375
Epoch: 12700, Error: 0.009264573672751575
Epoch: 12800, Error: 0.009157679056639766
Epoch: 12900, Error: 0.009305499243412663
Epoch: 13000, Error: 0.00903797803441876
Epoch: 13100, Error: 0.008940822278073671
Epoch: 13200, Error: 0.008872393063176741
Epoch: 13300, Error: 0.00879106597962906
Epoch: 13400, Error: 0.008822476718194246
Epoch: 13500, Error: 0.008596647810494086
Epoch: 13600, Error: 0.008546642511378209
Epoch: 13700, Error: 0.0084557440912133
Epoch: 13800, Error: 0.008351933585648981
Epoch: 13900, Error: 0.008254190488221149
Epoch: 14000, Error: 0.008158242084156775
Epoch: 14100, Error: 0.00809170834805085
Epoch: 14200, Error: 0.00799191863915253
Epoch: 14300, Error: 0.007964400486477802
Epoch: 14400, Error: 0.007842423471730878
Epoch: 14500, Error: 0.007741863832995137
Epoch: 14600, Error: 0.007716714427135902
Epoch: 14700, Error: 0.007614599707051675
Epoch: 14800, Error: 0.007595216734250766
Epoch: 14900, Error: 0.007504035789969271
Epoch: 15000, Error: 0.0074365789812369755
Epoch: 15100, Error: 0.007370891080438053
Epoch: 15200, Error: 0.007344836101533549
Epoch: 15300, Error: 0.0072393181189139705
Epoch: 15400, Error: 0.00715222712258269
Epoch: 15500, Error: 0.007087542988758939
Epoch: 15600, Error: 0.007023192516258677
Epoch: 15700, Error: 0.006968003151753072
Epoch: 15800, Error: 0.006949692819951632
Epoch: 15900, Error: 0.006856279055803765
Epoch: 16000, Error: 0.00679965855699509
Epoch: 16100, Error: 0.0067255691517068734
Epoch: 16200, Error: 0.006663363800421953
Epoch: 16300, Error: 0.006615972531529662
Epoch: 16400, Error: 0.006590815041580575
Epoch: 16500, Error: 0.006532242385458824
Epoch: 16600, Error: 0.0064875770402005135
Epoch: 16700, Error: 0.006441971870304617
Epoch: 16800, Error: 0.006413016112835382
Epoch: 16900, Error: 0.006387579257638734
Epoch: 17000, Error: 0.00636277157870532
Epoch: 17100, Error: 0.006295728894725994
Epoch: 17200, Error: 0.006282667203872363
Epoch: 17300, Error: 0.006233213390135684
Epoch: 17400, Error: 0.006206522468100153
Epoch: 17500, Error: 0.006194974470889442
Epoch: 17600, Error: 0.0061743959340497465
Epoch: 17700, Error: 0.006142476053791433
Epoch: 17800, Error: 0.006136115520422259
Epoch: 17900, Error: 0.0061069697928980956
Epoch: 18000, Error: 0.006086685113636367
Epoch: 18100, Error: 0.00606583029434827
Epoch: 18200, Error: 0.006051460577956137
Epoch: 18300, Error: 0.006034635696494428
Epoch: 18400, Error: 0.0060321484367667644
Epoch: 18500, Error: 0.0060162614342802985
Epoch: 18600, Error: 0.006049701645171294
Epoch: 18700, Error: 0.00599942585766759
Epoch: 18800, Error: 0.005964860465292828
Epoch: 18900, Error: 0.005970344677642287
Epoch: 19000, Error: 0.005940091095171039
Epoch: 19100, Error: 0.0059317060737873
Epoch: 19200, Error: 0.005924420324896866
Epoch: 19300, Error: 0.005925045192661076
Epoch: 19400, Error: 0.00601678596953596
Epoch: 19500, Error: 0.0058671538608802655
Epoch: 19600, Error: 0.005887439885085845
Epoch: 19700, Error: 0.005858939041158402
Epoch: 19800, Error: 0.005842455264017466
Epoch: 19900, Error: 0.005822038042316046
Epoch: 20000, Error: 0.005851808130873512
Epoch: 20100, Error: 0.005825543286388476
Epoch: 20200, Error: 0.00580243392319861
Epoch: 20300, Error: 0.005811013250119896
Epoch: 20400, Error: 0.0057724282730250735
Epoch: 20500, Error: 0.005768920637963514
Epoch: 20600, Error: 0.005763554216120295
Epoch: 20700, Error: 0.005776156586664145
Epoch: 20800, Error: 0.005731882239173504
Epoch: 20900, Error: 0.005737419372463068
Epoch: 21000, Error: 0.005737864178229359
Epoch: 21100, Error: 0.005719389872509357
Epoch: 21200, Error: 0.005730707618352685
Epoch: 21300, Error: 0.005675912656819278
Epoch: 21400, Error: 0.005650634256526319
Epoch: 21500, Error: 0.005626119512903827
Epoch: 21600, Error: 0.005600054063724911
Epoch: 21700, Error: 0.00556403044116218
Epoch: 21800, Error: 0.0055711138127137825
Epoch: 21900, Error: 0.00552575261513982
Epoch: 22000, Error: 0.005515261001426131
Epoch: 22100, Error: 0.005525983762956987
Epoch: 22200, Error: 0.005480715885556987
Epoch: 22300, Error: 0.005449649193238489
Epoch: 22400, Error: 0.005444256851720659
Epoch: 22500, Error: 0.005406525813763694
Epoch: 22600, Error: 0.005383005781248892
Epoch: 22700, Error: 0.005373504670814162
Epoch: 22800, Error: 0.005340102389467744
Epoch: 22900, Error: 0.005349323501005535
Epoch: 23000, Error: 0.005302181633904565
Epoch: 23100, Error: 0.005296400516103833
Epoch: 23200, Error: 0.005257712288546949
Epoch: 23300, Error: 0.005242717957521091
Epoch: 23400, Error: 0.005208372096549185
Epoch: 23500, Error: 0.005207606123916702
Epoch: 23600, Error: 0.0051838902112031114
Epoch: 23700, Error: 0.005186657465969124
Epoch: 23800, Error: 0.005184505418284052
Epoch: 23900, Error: 0.005137808361167169
Epoch: 24000, Error: 0.005116412349073728
Epoch: 24100, Error: 0.005127527004952521
Epoch: 24200, Error: 0.005071724142636993
Epoch: 24300, Error: 0.0050557581485014096
Epoch: 24400, Error: 0.005021305489023439
Epoch: 24500, Error: 0.005090536990895927
Epoch: 24600, Error: 0.004971584290351344
Epoch: 24700, Error: 0.0049590044486886725
Epoch: 24800, Error: 0.0049629680933057415
Epoch: 24900, Error: 0.004918968230016948
Epoch: 25000, Error: 0.00487940722130093
Epoch: 25100, Error: 0.004831304178835556
Epoch: 25200, Error: 0.0048322332308918725
Epoch: 25300, Error: 0.004794194769903447
Epoch: 25400, Error: 0.004906755845415032
Epoch: 25500, Error: 0.004808318785484213
Epoch: 25600, Error: 0.004709330581225392
Epoch: 25700, Error: 0.004732806934057334
Epoch: 25800, Error: 0.004658741162459679
Epoch: 25900, Error: 0.0046400132823671255
Epoch: 26000, Error: 0.0046167460323375525
Epoch: 26100, Error: 0.0045890981799406845
Epoch: 26200, Error: 0.004582997038600838
Epoch: 26300, Error: 0.00452378141008147
Epoch: 26400, Error: 0.004516033550812408
Epoch: 26500, Error: 0.004473138153851842
Epoch: 26600, Error: 0.004508183505336466
Epoch: 26700, Error: 0.004420821007166701
Epoch: 26800, Error: 0.0044014566085189225
Epoch: 26900, Error: 0.004470805891830083
Epoch: 27000, Error: 0.004336899124143806
Epoch: 27100, Error: 0.004323126888065425
Epoch: 27200, Error: 0.004295248531414855
Epoch: 27300, Error: 0.004265554576745832
Epoch: 27400, Error: 0.004233133590050664
Epoch: 27500, Error: 0.004260108613661046
Epoch: 27600, Error: 0.004191609816481391
Epoch: 27700, Error: 0.004162836632363307
Epoch: 27800, Error: 0.0041255919114967805
Epoch: 27900, Error: 0.004097516060901201
Epoch: 28000, Error: 0.004077160102967724
Epoch: 28100, Error: 0.004047886994528788
Epoch: 28200, Error: 0.004096483670460268
Epoch: 28300, Error: 0.004159958878042763
Epoch: 28400, Error: 0.00397264524657289
Epoch: 28500, Error: 0.003944578645736125
Epoch: 28600, Error: 0.003970995330239202
Epoch: 28700, Error: 0.003903286870873672
Epoch: 28800, Error: 0.0038832897339252984
Epoch: 28900, Error: 0.00389912763143757
Epoch: 29000, Error: 0.003964940937563071
Epoch: 29100, Error: 0.003921213786717087
Epoch: 29200, Error: 0.0037707355828220713
Epoch: 29300, Error: 0.004021206696543196
Epoch: 29400, Error: 0.0037355326227224636
Epoch: 29500, Error: 0.0037319821082673673
Epoch: 29600, Error: 0.003918568769699507
Epoch: 29700, Error: 0.003657924702266402
Epoch: 29800, Error: 0.0037319108599862044
Epoch: 29900, Error: 0.003652061999802344
Epoch: 30000, Error: 0.003609528813572137
Epoch: 30100, Error: 0.0036130201636722964
Epoch: 30200, Error: 0.003552969973671831
Epoch: 30300, Error: 0.003559819897759305
Epoch: 30400, Error: 0.003561225328763118
Epoch: 30500, Error: 0.0034927175388911364
Epoch: 30600, Error: 0.0034490523630154027
Epoch: 30700, Error: 0.003428151160613393
Epoch: 30800, Error: 0.003424865937838904
Epoch: 30900, Error: 0.003459842947809477
Epoch: 31000, Error: 0.0033648100512623843
Epoch: 31100, Error: 0.00333779640421988
Epoch: 31200, Error: 0.003305784635155687
Epoch: 31300, Error: 0.003305514274144025
Epoch: 31400, Error: 0.003282635867180908
Epoch: 31500, Error: 0.003288520818921166
Epoch: 31600, Error: 0.0032499183150363387
Epoch: 31700, Error: 0.003254908178877167
Epoch: 31800, Error: 0.0033266026092850743
Epoch: 31900, Error: 0.0032000769899863672
Epoch: 32000, Error: 0.0031465046255516166
Epoch: 32100, Error: 0.003164517323625777
Epoch: 32200, Error: 0.0030715478719586502
Epoch: 32300, Error: 0.0030759087155381
Epoch: 32400, Error: 0.0031678102744437642
Epoch: 32500, Error: 0.0030067665488019593
Epoch: 32600, Error: 0.0029736612123001673
Epoch: 32700, Error: 0.0029984364203579773
Epoch: 32800, Error: 0.00294711745087119
Epoch: 32900, Error: 0.0029638718052627114
Epoch: 33000, Error: 0.002886306879993453
Epoch: 33100, Error: 0.0029138726031040594
Epoch: 33200, Error: 0.0028471124558175254
Epoch: 33300, Error: 0.002823046962750875
Epoch: 33400, Error: 0.002807135354304998
Epoch: 33500, Error: 0.0028041288301448647
Epoch: 33600, Error: 0.0027596972159832263
Epoch: 33700, Error: 0.002743417405123094
Epoch: 33800, Error: 0.002721566705250558
Epoch: 33900, Error: 0.0027047115365641428
Epoch: 34000, Error: 0.0026742433077582713
Epoch: 34100, Error: 0.002664141930666566
Epoch: 34200, Error: 0.0026307610273168455
Epoch: 34300, Error: 0.00275559676312703
Epoch: 34400, Error: 0.0025965893725092416
Epoch: 34500, Error: 0.002567920447521565
Epoch: 34600, Error: 0.0025936475582997672
Epoch: 34700, Error: 0.002565969051178066
Epoch: 34800, Error: 0.002626583267023267
Epoch: 34900, Error: 0.0025163881744725753
Epoch: 35000, Error: 0.0025247741217058195
Epoch: 35100, Error: 0.002505222675657535
Epoch: 35200, Error: 0.0024700054244238727
Epoch: 35300, Error: 0.0025016642279071717
Epoch: 35400, Error: 0.002532825692039322
Epoch: 35500, Error: 0.0024532407145307538
Epoch: 35600, Error: 0.00239966180355446
Epoch: 35700, Error: 0.00247289517714607
Epoch: 35800, Error: 0.0024062781192249567
Epoch: 35900, Error: 0.0023764804930805094
Epoch: 36000, Error: 0.0023369528913641945
Epoch: 36100, Error: 0.002334428065678025
Epoch: 36200, Error: 0.0023409773162176074
Epoch: 36300, Error: 0.002278115994887186
Epoch: 36400, Error: 0.0023912458452885876
Epoch: 36500, Error: 0.0023149081470098293
Epoch: 36600, Error: 0.002394106022312235
Epoch: 36700, Error: 0.0022630413710917146
Epoch: 36800, Error: 0.0022103929591344197
Epoch: 36900, Error: 0.0022338895809313414
Epoch: 37000, Error: 0.0021790751138517717
Epoch: 37100, Error: 0.0021918329115763594
Epoch: 37200, Error: 0.0021565679273834897
Epoch: 37300, Error: 0.002144912079310103
Epoch: 37400, Error: 0.002143730901886294
Epoch: 37500, Error: 0.002103997918317797
Epoch: 37600, Error: 0.0021185744450764603
Epoch: 37700, Error: 0.0020843984390359572
Epoch: 37800, Error: 0.002070061094474985
Epoch: 37900, Error: 0.0020974573399096946
Epoch: 38000, Error: 0.0020879619403743137
Epoch: 38100, Error: 0.002074742211058686
Epoch: 38200, Error: 0.0020696674849598256
Epoch: 38300, Error: 0.002032565844500622
Epoch: 38400, Error: 0.0020003885703688633
Epoch: 38500, Error: 0.0019955446627644867
Epoch: 38600, Error: 0.002016106121638288
Epoch: 38700, Error: 0.001965662198377681
Epoch: 38800, Error: 0.0020644092429838528
Epoch: 38900, Error: 0.002070031580659486
Epoch: 39000, Error: 0.001924921037058205
Epoch: 39100, Error: 0.0019328025165402263
Epoch: 39200, Error: 0.0019455183572536759
Epoch: 39300, Error: 0.0019492592976715544
Epoch: 39400, Error: 0.0018866404046080604
Epoch: 39500, Error: 0.0019631400162536694
Epoch: 39600, Error: 0.0018787946596764897
Epoch: 39700, Error: 0.0018614412280766322
Epoch: 39800, Error: 0.0018328555417317055
Epoch: 39900, Error: 0.0018336492430034064
Epoch: 40000, Error: 0.001846806828809828
Epoch: 40100, Error: 0.0018432854441525225
Epoch: 40200, Error: 0.0018092753464341023
Epoch: 40300, Error: 0.0017979087614026616
Epoch: 40400, Error: 0.001809029637860094
Epoch: 40500, Error: 0.001777035270035382
Epoch: 40600, Error: 0.0017605546886174704
Epoch: 40700, Error: 0.0017500522544031938
Epoch: 40800, Error: 0.0017409115535935496
Epoch: 40900, Error: 0.0017335801694385936
Epoch: 41000, Error: 0.0017497449273550338
Epoch: 41100, Error: 0.0017131216704691663
Epoch: 41200, Error: 0.0017353714464095166
Epoch: 41300, Error: 0.0016902123053170743
Epoch: 41400, Error: 0.001796094692403857
Epoch: 41500, Error: 0.0016870593354166678
Epoch: 41600, Error: 0.0016910769682449505
Epoch: 41700, Error: 0.0016728153729634607
Epoch: 41800, Error: 0.0016502831119625644
Epoch: 41900, Error: 0.0016557403790567428
Epoch: 42000, Error: 0.001691925753907849
Epoch: 42100, Error: 0.0016457925801333022
Epoch: 42200, Error: 0.0017098697609368707
Epoch: 42300, Error: 0.001608549135639407
Epoch: 42400, Error: 0.001944535004020822
Epoch: 42500, Error: 0.0016168727736383642
Epoch: 42600, Error: 0.0016000796158243881
Epoch: 42700, Error: 0.0015882844095880006
Epoch: 42800, Error: 0.0015814779723888497
Epoch: 42900, Error: 0.001608076854758687
Epoch: 43000, Error: 0.001564798487310144
Epoch: 43100, Error: 0.0015729291817887065
Epoch: 43200, Error: 0.001571492119905908
Epoch: 43300, Error: 0.001574188860774561
Epoch: 43400, Error: 0.0015354294451364273
Epoch: 43500, Error: 0.0015619969548402162
Epoch: 43600, Error: 0.0015622789725815115
Epoch: 43700, Error: 0.0015321165131648138
Epoch: 43800, Error: 0.0015133065319905751
Epoch: 43900, Error: 0.0015068534943939091
Epoch: 44000, Error: 0.0015246620660867836
Epoch: 44100, Error: 0.0014954319732464459
Epoch: 44200, Error: 0.0015033370921449525
Epoch: 44300, Error: 0.0014891476364011552
Epoch: 44400, Error: 0.001491413388385105
Epoch: 44500, Error: 0.0016895254691348068
Epoch: 44600, Error: 0.0014592898034073792
Epoch: 44700, Error: 0.0014511271435007917
Epoch: 44800, Error: 0.0014740549289817204
Epoch: 44900, Error: 0.001453400649768525
Epoch: 45000, Error: 0.0014427491716021792
Epoch: 45100, Error: 0.0014285193449832165
Epoch: 45200, Error: 0.0014641177061962946
Epoch: 45300, Error: 0.0014421414687298454
Epoch: 45400, Error: 0.0014323599086938253
Epoch: 45500, Error: 0.0014145135019697156
Epoch: 45600, Error: 0.0014118799054017633
Epoch: 45700, Error: 0.0013833370178340293
Epoch: 45800, Error: 0.0013986842391119966
Epoch: 45900, Error: 0.0013940627265051626
Epoch: 46000, Error: 0.0014988614768555039
Epoch: 46100, Error: 0.0013800166707116568
Epoch: 46200, Error: 0.0013822691566241247
Epoch: 46300, Error: 0.0013465917787882746
Epoch: 46400, Error: 0.0013404825687837118
Epoch: 46500, Error: 0.001329550588601418
Epoch: 46600, Error: 0.0013334155087362022
Epoch: 46700, Error: 0.0013235836081384436
Epoch: 46800, Error: 0.0013083939734026793
Epoch: 46900, Error: 0.00133541003822634
Epoch: 47000, Error: 0.00129602754438235
Epoch: 47100, Error: 0.0012999950551625802
Epoch: 47200, Error: 0.0012938313360941235
Epoch: 47300, Error: 0.001292567094436601
Epoch: 47400, Error: 0.001299109148027253
Epoch: 47500, Error: 0.0012811520591406887
Epoch: 47600, Error: 0.0012949593346941526
Epoch: 47700, Error: 0.001273161001609026
Epoch: 47800, Error: 0.0012684359728803018
Epoch: 47900, Error: 0.0012610317262479439
Epoch: 48000, Error: 0.0012550236260565827
Epoch: 48100, Error: 0.001266630282132637
Epoch: 48200, Error: 0.0012460474991917584
Epoch: 48300, Error: 0.0012450813006902395
Epoch: 48400, Error: 0.0012432717947300975
Finished
Input Patterns
0.224 0.624 0.067 0.043 
0.11 0.502 0.051 0.043 
0.196 0.667 0.067 0.043 
0.055 0.584 0.067 0.082 
0.027 0.376 0.067 0.043 
0.306 0.71 0.086 0.043 
0.137 0.416 0.067 0.0 
0.416 0.831 0.035 0.043 
0.306 0.792 0.051 0.125 
0.388 0.749 0.118 0.082 
0.306 0.584 0.118 0.043 
0.082 0.667 0.0 0.043 
0.137 0.584 0.153 0.043 
0.196 0.584 0.102 0.125 
0.251 0.584 0.067 0.043 
0.137 0.459 0.102 0.043 
0.251 0.875 0.086 0.0 
0.165 0.459 0.086 0.043 
0.333 0.624 0.051 0.043 
0.027 0.416 0.051 0.043 
0.196 0.624 0.051 0.082 
0.027 0.502 0.051 0.043 
0.224 0.749 0.153 0.125 
0.224 0.749 0.102 0.043 
0.278 0.71 0.086 0.043 
0.165 0.416 0.067 0.043 
0.082 0.459 0.086 0.043 
0.306 0.792 0.118 0.125 
0.196 0.584 0.086 0.043 
0.165 0.459 0.086 0.0 
0.137 0.584 0.102 0.043 
0.0 0.416 0.016 0.0 
0.388 1.0 0.086 0.125 
0.224 0.624 0.067 0.082 
0.224 0.749 0.086 0.082 
0.224 0.71 0.086 0.125 
0.224 0.541 0.118 0.165 
0.196 0.416 0.102 0.043 
0.251 0.624 0.086 0.043 
0.11 0.502 0.102 0.043 
0.306 0.584 0.086 0.125 
0.333 0.918 0.067 0.043 
0.196 0.502 0.035 0.043 
0.165 0.667 0.067 0.0 
0.224 0.584 0.086 0.043 
0.055 0.125 0.051 0.082 
0.196 0.624 0.102 0.208 
0.137 0.416 0.067 0.082 
0.082 0.502 0.067 0.043 
0.196 0.541 0.067 0.043 
0.749 0.502 0.627 0.541 
0.722 0.459 0.663 0.584 
0.612 0.333 0.612 0.584 
0.557 0.541 0.627 0.624 
0.639 0.376 0.612 0.498 
0.196 0.0 0.424 0.376 
0.471 0.082 0.51 0.376 
0.361 0.376 0.439 0.498 
0.361 0.416 0.592 0.584 
0.529 0.082 0.592 0.584 
0.443 0.502 0.643 0.459 
0.557 0.208 0.663 0.584 
0.584 0.376 0.561 0.498 
0.694 0.333 0.643 0.541 
0.471 0.376 0.592 0.584 
0.333 0.169 0.475 0.416 
0.416 0.29 0.49 0.459 
0.306 0.416 0.592 0.584 
0.667 0.459 0.627 0.584 
0.361 0.416 0.525 0.498 
0.333 0.251 0.576 0.459 
0.416 0.251 0.51 0.459 
0.361 0.29 0.541 0.498 
0.388 0.376 0.541 0.498 
0.224 0.208 0.337 0.416 
0.584 0.502 0.592 0.584 
0.333 0.125 0.51 0.498 
0.388 0.333 0.592 0.498 
0.165 0.169 0.388 0.376 
0.251 0.29 0.49 0.541 
0.443 0.416 0.541 0.584 
0.498 0.376 0.627 0.541 
0.667 0.459 0.576 0.541 
0.416 0.29 0.525 0.376 
0.361 0.208 0.49 0.416 
0.498 0.333 0.51 0.498 
0.498 0.333 0.627 0.459 
0.639 0.416 0.576 0.541 
0.667 0.416 0.678 0.667 
0.388 0.251 0.424 0.376 
0.333 0.169 0.459 0.376 
0.471 0.29 0.694 0.624 
0.471 0.584 0.592 0.624 
0.557 0.125 0.576 0.498 
0.333 0.208 0.51 0.498 
0.498 0.416 0.612 0.541 
0.196 0.125 0.388 0.376 
0.388 0.416 0.541 0.459 
0.529 0.376 0.561 0.498 
0.388 0.333 0.525 0.498 
0.557 0.541 0.847 1.0 
0.776 0.416 0.831 0.831 
0.612 0.416 0.812 0.875 
0.165 0.208 0.592 0.667 
0.667 0.208 0.812 0.71 
0.612 0.502 0.694 0.792 
0.694 0.416 0.761 0.831 
0.416 0.333 0.694 0.957 
0.612 0.416 0.761 0.71 
0.945 0.251 1.0 0.918 
0.722 0.502 0.796 0.918 
0.945 0.333 0.965 0.792 
0.667 0.541 0.796 0.831 
0.529 0.333 0.643 0.71 
0.584 0.333 0.78 0.831 
0.863 0.333 0.863 0.749 
0.584 0.333 0.78 0.875 
0.498 0.251 0.78 0.541 
0.557 0.584 0.78 0.957 
0.471 0.416 0.643 0.71 
0.667 0.459 0.78 0.957 
0.416 0.29 0.694 0.749 
0.667 0.541 0.796 1.0 
0.557 0.208 0.678 0.749 
0.529 0.584 0.745 0.918 
0.416 0.29 0.694 0.749 
0.557 0.376 0.78 0.71 
0.918 0.416 0.949 0.831 
0.835 0.376 0.898 0.71 
0.804 0.667 0.863 1.0 
0.584 0.29 0.729 0.749 
0.388 0.208 0.678 0.792 
0.584 0.502 0.729 0.918 
0.945 0.749 0.965 0.875 
0.471 0.082 0.678 0.584 
0.361 0.333 0.663 0.792 
0.557 0.29 0.663 0.71 
0.804 0.502 0.847 0.71 
0.498 0.416 0.51 0.71 
0.804 0.416 0.812 0.624 
1.0 0.749 0.914 0.792 
0.557 0.333 0.694 0.584 
0.945 0.416 0.863 0.918 
0.584 0.459 0.761 0.71 
0.722 0.459 0.745 0.831 
0.722 0.459 0.694 0.918 
0.694 0.502 0.831 0.918 
0.667 0.416 0.714 0.918 
0.612 0.416 0.714 0.792 
0.443 0.416 0.694 0.71 
Teaching Patterns
1.0 0.0 0.0 
1.0 0.0 0.0 
1.0 0.0 0.0 
1.0 0.0 0.0 
1.0 0.0 0.0 
1.0 0.0 0.0 
1.0 0.0 0.0 
1.0 0.0 0.0 
1.0 0.0 0.0 
1.0 0.0 0.0 
1.0 0.0 0.0 
1.0 0.0 0.0 
1.0 0.0 0.0 
1.0 0.0 0.0 
1.0 0.0 0.0 
1.0 0.0 0.0 
1.0 0.0 0.0 
1.0 0.0 0.0 
1.0 0.0 0.0 
1.0 0.0 0.0 
1.0 0.0 0.0 
1.0 0.0 0.0 
1.0 0.0 0.0 
1.0 0.0 0.0 
1.0 0.0 0.0 
1.0 0.0 0.0 
1.0 0.0 0.0 
1.0 0.0 0.0 
1.0 0.0 0.0 
1.0 0.0 0.0 
1.0 0.0 0.0 
1.0 0.0 0.0 
1.0 0.0 0.0 
1.0 0.0 0.0 
1.0 0.0 0.0 
1.0 0.0 0.0 
1.0 0.0 0.0 
1.0 0.0 0.0 
1.0 0.0 0.0 
1.0 0.0 0.0 
1.0 0.0 0.0 
1.0 0.0 0.0 
1.0 0.0 0.0 
1.0 0.0 0.0 
1.0 0.0 0.0 
1.0 0.0 0.0 
1.0 0.0 0.0 
1.0 0.0 0.0 
1.0 0.0 0.0 
1.0 0.0 0.0 
0.0 1.0 0.0 
0.0 1.0 0.0 
0.0 1.0 0.0 
0.0 1.0 0.0 
0.0 1.0 0.0 
0.0 1.0 0.0 
0.0 1.0 0.0 
0.0 1.0 0.0 
0.0 1.0 0.0 
0.0 1.0 0.0 
0.0 1.0 0.0 
0.0 1.0 0.0 
0.0 1.0 0.0 
0.0 1.0 0.0 
0.0 1.0 0.0 
0.0 1.0 0.0 
0.0 1.0 0.0 
0.0 1.0 0.0 
0.0 1.0 0.0 
0.0 1.0 0.0 
0.0 1.0 0.0 
0.0 1.0 0.0 
0.0 1.0 0.0 
0.0 1.0 0.0 
0.0 1.0 0.0 
0.0 1.0 0.0 
0.0 1.0 0.0 
0.0 1.0 0.0 
0.0 1.0 0.0 
0.0 1.0 0.0 
0.0 1.0 0.0 
0.0 1.0 0.0 
0.0 1.0 0.0 
0.0 1.0 0.0 
0.0 1.0 0.0 
0.0 1.0 0.0 
0.0 1.0 0.0 
0.0 1.0 0.0 
0.0 1.0 0.0 
0.0 1.0 0.0 
0.0 1.0 0.0 
0.0 1.0 0.0 
0.0 1.0 0.0 
0.0 1.0 0.0 
0.0 1.0 0.0 
0.0 1.0 0.0 
0.0 1.0 0.0 
0.0 1.0 0.0 
0.0 1.0 0.0 
0.0 1.0 0.0 
0.0 0.0 1.0 
0.0 0.0 1.0 
0.0 0.0 1.0 
0.0 0.0 1.0 
0.0 0.0 1.0 
0.0 0.0 1.0 
0.0 0.0 1.0 
0.0 0.0 1.0 
0.0 0.0 1.0 
0.0 0.0 1.0 
0.0 0.0 1.0 
0.0 0.0 1.0 
0.0 0.0 1.0 
0.0 0.0 1.0 
0.0 0.0 1.0 
0.0 0.0 1.0 
0.0 0.0 1.0 
0.0 0.0 1.0 
0.0 0.0 1.0 
0.0 0.0 1.0 
0.0 0.0 1.0 
0.0 0.0 1.0 
0.0 0.0 1.0 
0.0 0.0 1.0 
0.0 0.0 1.0 
0.0 0.0 1.0 
0.0 0.0 1.0 
0.0 0.0 1.0 
0.0 0.0 1.0 
0.0 0.0 1.0 
0.0 0.0 1.0 
0.0 0.0 1.0 
0.0 0.0 1.0 
0.0 0.0 1.0 
0.0 0.0 1.0 
0.0 0.0 1.0 
0.0 0.0 1.0 
0.0 0.0 1.0 
0.0 0.0 1.0 
0.0 0.0 1.0 
0.0 0.0 1.0 
0.0 0.0 1.0 
0.0 0.0 1.0 
0.0 0.0 1.0 
0.0 0.0 1.0 
0.0 0.0 1.0 
0.0 0.0 1.0 
0.0 0.0 1.0 
0.0 0.0 1.0 
0.0 0.0 1.0 
Learning : 0.05
Momentum : 0.8999999761581421
Epoch: 100, Error: 0.021780346385214238
Epoch: 200, Error: 0.016305124792169008
Epoch: 300, Error: 0.014642430317485172
Epoch: 400, Error: 0.013755993864010168
Epoch: 500, Error: 0.0132812098621651
Epoch: 600, Error: 0.012890046031692299
Epoch: 700, Error: 0.012639419958961512
Epoch: 800, Error: 0.01246925469113193
Epoch: 900, Error: 0.01230471505539105
Epoch: 1000, Error: 0.012262333242933148
Epoch: 1100, Error: 0.012129097802611469
Epoch: 1200, Error: 0.012253167995111105
Epoch: 1300, Error: 0.012064402826436896
Epoch: 1400, Error: 0.012139914067839475
Epoch: 1500, Error: 0.012128928251627407
Epoch: 1600, Error: 0.012145892470543262
Epoch: 1700, Error: 0.012067479535645296
Epoch: 1800, Error: 0.012043536107791655
Epoch: 1900, Error: 0.012040749638344455
Epoch: 2000, Error: 0.012091781695034024
Epoch: 2100, Error: 0.012085832515695255
Epoch: 2200, Error: 0.012102690021345716
Epoch: 2300, Error: 0.012152374259706432
Epoch: 2400, Error: 0.012395804475935399
Epoch: 2500, Error: 0.012127147886832236
Epoch: 2600, Error: 0.012383375564626197
Epoch: 2700, Error: 0.012136994941374405
Epoch: 2800, Error: 0.012189742430084386
Epoch: 2900, Error: 0.012434263629384499
Epoch: 3000, Error: 0.012158533464226576
Epoch: 3100, Error: 0.012161584123018999
Epoch: 3200, Error: 0.012198988076545838
Epoch: 3300, Error: 0.012144024721245447
Epoch: 3400, Error: 0.012089100007687413
Epoch: 3500, Error: 0.01205937746569962
Epoch: 3600, Error: 0.012039055647797154
Epoch: 3700, Error: 0.012145356016892844
Epoch: 3800, Error: 0.012067479051294497
Epoch: 3900, Error: 0.012064169907316
Epoch: 4000, Error: 0.012055568629184348
Epoch: 4100, Error: 0.012033222388604797
Epoch: 4200, Error: 0.012011167405806267
Epoch: 4300, Error: 0.012015208207663027
Epoch: 4400, Error: 0.012239933434228136
Epoch: 4500, Error: 0.012005010070123483
Epoch: 4600, Error: 0.012073416741323274
Epoch: 4700, Error: 0.012000399891317421
Epoch: 4800, Error: 0.012019236907620334
Epoch: 4900, Error: 0.012062129232950698
Epoch: 5000, Error: 0.012000086437943548
Epoch: 5100, Error: 0.011992044864131971
Epoch: 5200, Error: 0.01200870143003607
Epoch: 5300, Error: 0.012013295711184514
Epoch: 5400, Error: 0.012021749069277622
Epoch: 5500, Error: 0.011957882408926456
Epoch: 5600, Error: 0.011961047709236335
Epoch: 5700, Error: 0.012007630150090268
Epoch: 5800, Error: 0.0119812281370487
Epoch: 5900, Error: 0.012018043677036606
Epoch: 6000, Error: 0.011941831233634922
Epoch: 6100, Error: 0.011972783290294081
Epoch: 6200, Error: 0.012077552064542491
Epoch: 6300, Error: 0.011942458235969773
Epoch: 6400, Error: 0.011928567057196889
Epoch: 6500, Error: 0.011904983303730689
Epoch: 6600, Error: 0.012023150269047274
Epoch: 6700, Error: 0.011916514681930487
Epoch: 6800, Error: 0.01190782005608129
Epoch: 6900, Error: 0.011882035399002296
Epoch: 7000, Error: 0.011901172640248146
Epoch: 7100, Error: 0.011898448963838348
Epoch: 7200, Error: 0.011887936216521301
Epoch: 7300, Error: 0.011875766442018414
Epoch: 7400, Error: 0.011909400441566437
Epoch: 7500, Error: 0.011893160487444848
Epoch: 7600, Error: 0.011854822139836298
Epoch: 7700, Error: 0.011868581248883951
Epoch: 7800, Error: 0.011856035188847378
Epoch: 7900, Error: 0.011855939418524086
Epoch: 8000, Error: 0.01187969925217808
Epoch: 8100, Error: 0.011865568063067423
Epoch: 8200, Error: 0.011799000532939764
Epoch: 8300, Error: 0.011773679537647781
Epoch: 8400, Error: 0.011864468762012324
Epoch: 8500, Error: 0.011761781683645233
Epoch: 8600, Error: 0.011787853557234934
Epoch: 8700, Error: 0.011713708331150804
Epoch: 8800, Error: 0.011704933867219864
Epoch: 8900, Error: 0.011666096710293195
Epoch: 9000, Error: 0.011697469922125007
Epoch: 9100, Error: 0.011657343302900245
Epoch: 9200, Error: 0.011601920111134527
Epoch: 9300, Error: 0.011616891944742061
Epoch: 9400, Error: 0.011562925524421416
Epoch: 9500, Error: 0.011494629278484294
Epoch: 9600, Error: 0.011449368282718274
Epoch: 9700, Error: 0.011413897065341568
Epoch: 9800, Error: 0.011536388143037389
Epoch: 9900, Error: 0.011353437805652112
Epoch: 10000, Error: 0.011294999162548686
Epoch: 10100, Error: 0.011299885252342243
Epoch: 10200, Error: 0.01119132861760553
Epoch: 10300, Error: 0.011147457975950317
Epoch: 10400, Error: 0.011094003021320608
Epoch: 10500, Error: 0.010994267085206328
Epoch: 10600, Error: 0.010900333349375176
Epoch: 10700, Error: 0.010822616117754988
Epoch: 10800, Error: 0.010721804359094962
Epoch: 10900, Error: 0.010692983979764712
Epoch: 11000, Error: 0.010555338201151846
Epoch: 11100, Error: 0.010553822434292093
Epoch: 11200, Error: 0.010362378151510549
Epoch: 11300, Error: 0.010288157934414972
Epoch: 11400, Error: 0.010211642353892617
Epoch: 11500, Error: 0.010040582113601914
Epoch: 11600, Error: 0.009998824501708848
Epoch: 11700, Error: 0.009782446373261288
Epoch: 11800, Error: 0.009686351059540473
Epoch: 11900, Error: 0.009563049255434863
Epoch: 12000, Error: 0.009427363577774942
Epoch: 12100, Error: 0.009305022424534756
Epoch: 12200, Error: 0.009239464672822493
Epoch: 12300, Error: 0.00907893352219547
Epoch: 12400, Error: 0.008956099404134141
Epoch: 12500, Error: 0.008899906252087645
Epoch: 12600, Error: 0.00875743449567564
Epoch: 12700, Error: 0.00867668648165893
Epoch: 12800, Error: 0.008600462183096985
Epoch: 12900, Error: 0.008464327717778906
Epoch: 13000, Error: 0.008399888095209732
Epoch: 13100, Error: 0.00841996336555422
Epoch: 13200, Error: 0.008318913986019175
Epoch: 13300, Error: 0.008186252747001436
Epoch: 13400, Error: 0.008049938443309396
Epoch: 13500, Error: 0.007980064502408582
Epoch: 13600, Error: 0.007939150051751864
Epoch: 13700, Error: 0.007872979201089543
Epoch: 13800, Error: 0.007769028598754728
Epoch: 13900, Error: 0.0077366231011467045
Epoch: 14000, Error: 0.007696061874850517
Epoch: 14100, Error: 0.0075885636987113045
Epoch: 14200, Error: 0.00760314160881005
Epoch: 14300, Error: 0.007487430602277772
Epoch: 14400, Error: 0.007415688677285702
Epoch: 14500, Error: 0.007313108605042324
Epoch: 14600, Error: 0.00723581256030672
Epoch: 14700, Error: 0.007202419065728131
Epoch: 14800, Error: 0.007134367986983761
Epoch: 14900, Error: 0.007096792877160028
Epoch: 15000, Error: 0.00705177997501455
Epoch: 15100, Error: 0.007000797143026947
Epoch: 15200, Error: 0.006975906042138338
Epoch: 15300, Error: 0.006922998607542466
Epoch: 15400, Error: 0.006884146027816549
Epoch: 15500, Error: 0.00685884728058646
Epoch: 15600, Error: 0.00684714304636062
Epoch: 15700, Error: 0.006819981748305032
Epoch: 15800, Error: 0.006789911204577741
Epoch: 15900, Error: 0.00677330601248344
Epoch: 16000, Error: 0.006771523153481823
Epoch: 16100, Error: 0.006757493611693345
Epoch: 16200, Error: 0.006753322216751683
Epoch: 16300, Error: 0.006711030346772798
Epoch: 16400, Error: 0.006742265715620154
Epoch: 16500, Error: 0.00666794283448876
Epoch: 16600, Error: 0.006648329034125482
Epoch: 16700, Error: 0.0067181748886649805
Epoch: 16800, Error: 0.00661690322587586
Epoch: 16900, Error: 0.006608401091766949
Epoch: 17000, Error: 0.006548380979904853
Epoch: 17100, Error: 0.00656920609641608
Epoch: 17200, Error: 0.006499744382239409
Epoch: 17300, Error: 0.00647401609336931
Epoch: 17400, Error: 0.006700808377301174
Epoch: 17500, Error: 0.006420589921981614
Epoch: 17600, Error: 0.006400985802239064
Epoch: 17700, Error: 0.006385516373733092
Epoch: 17800, Error: 0.0064945368575079375
Epoch: 17900, Error: 0.006320812255567907
Epoch: 18000, Error: 0.0063008068718443415
Epoch: 18100, Error: 0.006294370797476163
Epoch: 18200, Error: 0.006237947003612448
Epoch: 18300, Error: 0.006218973137288867
Epoch: 18400, Error: 0.006176873365576364
Epoch: 18500, Error: 0.006155275212799896
Epoch: 18600, Error: 0.0061280208903242706
Epoch: 18700, Error: 0.006139511117448044
Epoch: 18800, Error: 0.00610725216183867
Epoch: 18900, Error: 0.0061000585372084455
Epoch: 19000, Error: 0.00607786203732048
Epoch: 19100, Error: 0.006076909440867877
Epoch: 19200, Error: 0.006047239118698562
Epoch: 19300, Error: 0.006025765897948544
Epoch: 19400, Error: 0.00600506328117919
Epoch: 19500, Error: 0.005994464670941733
Epoch: 19600, Error: 0.005993740879115805
Epoch: 19700, Error: 0.0059883678611318365
Epoch: 19800, Error: 0.005965365114495028
Epoch: 19900, Error: 0.005980968958122776
Epoch: 20000, Error: 0.005956632432632412
Epoch: 20100, Error: 0.0059300196749660725
Epoch: 20200, Error: 0.005934198656855501
Epoch: 20300, Error: 0.0059128128000321585
Epoch: 20400, Error: 0.005915193882848901
Epoch: 20500, Error: 0.005876346729333053
Epoch: 20600, Error: 0.005974737269536518
Epoch: 20700, Error: 0.005867549345160778
Epoch: 20800, Error: 0.0058512774260120375
Epoch: 20900, Error: 0.005857929112839727
Epoch: 21000, Error: 0.005826960577552476
Epoch: 21100, Error: 0.005822891058866103
Epoch: 21200, Error: 0.005812882456275348
Epoch: 21300, Error: 0.005798863708599444
Epoch: 21400, Error: 0.005781217484716128
Epoch: 21500, Error: 0.005791058111616705
Epoch: 21600, Error: 0.005779687660582718
Epoch: 21700, Error: 0.005767050828195329
Epoch: 21800, Error: 0.0057668351275446525
Epoch: 21900, Error: 0.0057509148538818266
Epoch: 22000, Error: 0.005727215807931912
Epoch: 22100, Error: 0.005725665968263465
Epoch: 22200, Error: 0.005729540350268953
Epoch: 22300, Error: 0.005721452043806811
Epoch: 22400, Error: 0.005671918966765685
Epoch: 22500, Error: 0.005675356200954713
Epoch: 22600, Error: 0.005673560644252777
Epoch: 22700, Error: 0.005652744833674907
Epoch: 22800, Error: 0.005650761709282134
Epoch: 22900, Error: 0.005626008037461488
Epoch: 23000, Error: 0.005626218602427413
Epoch: 23100, Error: 0.005610597568244035
Epoch: 23200, Error: 0.005636672924387722
Epoch: 23300, Error: 0.005617180524184465
Epoch: 23400, Error: 0.005600277817905953
Epoch: 23500, Error: 0.005624207426611672
Epoch: 23600, Error: 0.005606481779310504
Epoch: 23700, Error: 0.005598152240896166
Epoch: 23800, Error: 0.0055866797405705
Epoch: 23900, Error: 0.005575962237415992
Epoch: 24000, Error: 0.0055802868880634885
Epoch: 24100, Error: 0.0055829539540535635
Epoch: 24200, Error: 0.005566499757314684
Epoch: 24300, Error: 0.005566807914698889
Epoch: 24400, Error: 0.005551084330669374
Epoch: 24500, Error: 0.005542865038041515
Epoch: 24600, Error: 0.005550451388439102
Epoch: 24700, Error: 0.005534113264874449
Epoch: 24800, Error: 0.005537685874539244
Epoch: 24900, Error: 0.005528772811382663
Epoch: 25000, Error: 0.005518673884199524
Epoch: 25100, Error: 0.0055156019694839855
Epoch: 25200, Error: 0.00551364456313594
Epoch: 25300, Error: 0.005525176636284414
Epoch: 25400, Error: 0.005497286908971332
Finished
