Input Patterns
0.224 0.624 0.067 0.043 
0.11 0.502 0.051 0.043 
0.196 0.667 0.067 0.043 
0.055 0.584 0.067 0.082 
0.027 0.376 0.067 0.043 
0.306 0.71 0.086 0.043 
0.137 0.416 0.067 0.0 
0.416 0.831 0.035 0.043 
0.306 0.792 0.051 0.125 
0.388 0.749 0.118 0.082 
0.306 0.584 0.118 0.043 
0.082 0.667 0.0 0.043 
0.137 0.584 0.153 0.043 
0.196 0.584 0.102 0.125 
0.251 0.584 0.067 0.043 
0.137 0.459 0.102 0.043 
0.251 0.875 0.086 0.0 
0.165 0.459 0.086 0.043 
0.333 0.624 0.051 0.043 
0.027 0.416 0.051 0.043 
0.196 0.624 0.051 0.082 
0.027 0.502 0.051 0.043 
0.224 0.749 0.153 0.125 
0.224 0.749 0.102 0.043 
0.278 0.71 0.086 0.043 
0.165 0.416 0.067 0.043 
0.082 0.459 0.086 0.043 
0.306 0.792 0.118 0.125 
0.196 0.584 0.086 0.043 
0.165 0.459 0.086 0.0 
0.137 0.584 0.102 0.043 
0.0 0.416 0.016 0.0 
0.388 1.0 0.086 0.125 
0.224 0.624 0.067 0.082 
0.224 0.749 0.086 0.082 
0.224 0.71 0.086 0.125 
0.224 0.541 0.118 0.165 
0.196 0.416 0.102 0.043 
0.251 0.624 0.086 0.043 
0.11 0.502 0.102 0.043 
0.306 0.584 0.086 0.125 
0.333 0.918 0.067 0.043 
0.196 0.502 0.035 0.043 
0.165 0.667 0.067 0.0 
0.224 0.584 0.086 0.043 
0.055 0.125 0.051 0.082 
0.196 0.624 0.102 0.208 
0.137 0.416 0.067 0.082 
0.082 0.502 0.067 0.043 
0.196 0.541 0.067 0.043 
0.749 0.502 0.627 0.541 
0.722 0.459 0.663 0.584 
0.612 0.333 0.612 0.584 
0.557 0.541 0.627 0.624 
0.639 0.376 0.612 0.498 
0.196 0.0 0.424 0.376 
0.471 0.082 0.51 0.376 
0.361 0.376 0.439 0.498 
0.361 0.416 0.592 0.584 
0.529 0.082 0.592 0.584 
0.443 0.502 0.643 0.459 
0.557 0.208 0.663 0.584 
0.584 0.376 0.561 0.498 
0.694 0.333 0.643 0.541 
0.471 0.376 0.592 0.584 
0.333 0.169 0.475 0.416 
0.416 0.29 0.49 0.459 
0.306 0.416 0.592 0.584 
0.667 0.459 0.627 0.584 
0.361 0.416 0.525 0.498 
0.333 0.251 0.576 0.459 
0.416 0.251 0.51 0.459 
0.361 0.29 0.541 0.498 
0.388 0.376 0.541 0.498 
0.224 0.208 0.337 0.416 
0.584 0.502 0.592 0.584 
0.333 0.125 0.51 0.498 
0.388 0.333 0.592 0.498 
0.165 0.169 0.388 0.376 
0.251 0.29 0.49 0.541 
0.443 0.416 0.541 0.584 
0.498 0.376 0.627 0.541 
0.667 0.459 0.576 0.541 
0.416 0.29 0.525 0.376 
0.361 0.208 0.49 0.416 
0.498 0.333 0.51 0.498 
0.498 0.333 0.627 0.459 
0.639 0.416 0.576 0.541 
0.667 0.416 0.678 0.667 
0.388 0.251 0.424 0.376 
0.333 0.169 0.459 0.376 
0.471 0.29 0.694 0.624 
0.471 0.584 0.592 0.624 
0.557 0.125 0.576 0.498 
0.333 0.208 0.51 0.498 
0.498 0.416 0.612 0.541 
0.196 0.125 0.388 0.376 
0.388 0.416 0.541 0.459 
0.529 0.376 0.561 0.498 
0.388 0.333 0.525 0.498 
0.557 0.541 0.847 1.0 
0.776 0.416 0.831 0.831 
0.612 0.416 0.812 0.875 
0.165 0.208 0.592 0.667 
0.667 0.208 0.812 0.71 
0.612 0.502 0.694 0.792 
0.694 0.416 0.761 0.831 
0.416 0.333 0.694 0.957 
0.612 0.416 0.761 0.71 
0.945 0.251 1.0 0.918 
0.722 0.502 0.796 0.918 
0.945 0.333 0.965 0.792 
0.667 0.541 0.796 0.831 
0.529 0.333 0.643 0.71 
0.584 0.333 0.78 0.831 
0.863 0.333 0.863 0.749 
0.584 0.333 0.78 0.875 
0.498 0.251 0.78 0.541 
0.557 0.584 0.78 0.957 
0.471 0.416 0.643 0.71 
0.667 0.459 0.78 0.957 
0.416 0.29 0.694 0.749 
0.667 0.541 0.796 1.0 
0.557 0.208 0.678 0.749 
0.529 0.584 0.745 0.918 
0.416 0.29 0.694 0.749 
0.557 0.376 0.78 0.71 
0.918 0.416 0.949 0.831 
0.835 0.376 0.898 0.71 
0.804 0.667 0.863 1.0 
0.584 0.29 0.729 0.749 
0.388 0.208 0.678 0.792 
0.584 0.502 0.729 0.918 
0.945 0.749 0.965 0.875 
0.471 0.082 0.678 0.584 
0.361 0.333 0.663 0.792 
0.557 0.29 0.663 0.71 
0.804 0.502 0.847 0.71 
0.498 0.416 0.51 0.71 
0.804 0.416 0.812 0.624 
1.0 0.749 0.914 0.792 
0.557 0.333 0.694 0.584 
0.945 0.416 0.863 0.918 
0.584 0.459 0.761 0.71 
0.722 0.459 0.745 0.831 
0.722 0.459 0.694 0.918 
0.694 0.502 0.831 0.918 
0.667 0.416 0.714 0.918 
0.612 0.416 0.714 0.792 
0.443 0.416 0.694 0.71 
Teaching Patterns
1.0 0.0 0.0 
1.0 0.0 0.0 
1.0 0.0 0.0 
1.0 0.0 0.0 
1.0 0.0 0.0 
1.0 0.0 0.0 
1.0 0.0 0.0 
1.0 0.0 0.0 
1.0 0.0 0.0 
1.0 0.0 0.0 
1.0 0.0 0.0 
1.0 0.0 0.0 
1.0 0.0 0.0 
1.0 0.0 0.0 
1.0 0.0 0.0 
1.0 0.0 0.0 
1.0 0.0 0.0 
1.0 0.0 0.0 
1.0 0.0 0.0 
1.0 0.0 0.0 
1.0 0.0 0.0 
1.0 0.0 0.0 
1.0 0.0 0.0 
1.0 0.0 0.0 
1.0 0.0 0.0 
1.0 0.0 0.0 
1.0 0.0 0.0 
1.0 0.0 0.0 
1.0 0.0 0.0 
1.0 0.0 0.0 
1.0 0.0 0.0 
1.0 0.0 0.0 
1.0 0.0 0.0 
1.0 0.0 0.0 
1.0 0.0 0.0 
1.0 0.0 0.0 
1.0 0.0 0.0 
1.0 0.0 0.0 
1.0 0.0 0.0 
1.0 0.0 0.0 
1.0 0.0 0.0 
1.0 0.0 0.0 
1.0 0.0 0.0 
1.0 0.0 0.0 
1.0 0.0 0.0 
1.0 0.0 0.0 
1.0 0.0 0.0 
1.0 0.0 0.0 
1.0 0.0 0.0 
1.0 0.0 0.0 
0.0 1.0 0.0 
0.0 1.0 0.0 
0.0 1.0 0.0 
0.0 1.0 0.0 
0.0 1.0 0.0 
0.0 1.0 0.0 
0.0 1.0 0.0 
0.0 1.0 0.0 
0.0 1.0 0.0 
0.0 1.0 0.0 
0.0 1.0 0.0 
0.0 1.0 0.0 
0.0 1.0 0.0 
0.0 1.0 0.0 
0.0 1.0 0.0 
0.0 1.0 0.0 
0.0 1.0 0.0 
0.0 1.0 0.0 
0.0 1.0 0.0 
0.0 1.0 0.0 
0.0 1.0 0.0 
0.0 1.0 0.0 
0.0 1.0 0.0 
0.0 1.0 0.0 
0.0 1.0 0.0 
0.0 1.0 0.0 
0.0 1.0 0.0 
0.0 1.0 0.0 
0.0 1.0 0.0 
0.0 1.0 0.0 
0.0 1.0 0.0 
0.0 1.0 0.0 
0.0 1.0 0.0 
0.0 1.0 0.0 
0.0 1.0 0.0 
0.0 1.0 0.0 
0.0 1.0 0.0 
0.0 1.0 0.0 
0.0 1.0 0.0 
0.0 1.0 0.0 
0.0 1.0 0.0 
0.0 1.0 0.0 
0.0 1.0 0.0 
0.0 1.0 0.0 
0.0 1.0 0.0 
0.0 1.0 0.0 
0.0 1.0 0.0 
0.0 1.0 0.0 
0.0 1.0 0.0 
0.0 1.0 0.0 
0.0 0.0 1.0 
0.0 0.0 1.0 
0.0 0.0 1.0 
0.0 0.0 1.0 
0.0 0.0 1.0 
0.0 0.0 1.0 
0.0 0.0 1.0 
0.0 0.0 1.0 
0.0 0.0 1.0 
0.0 0.0 1.0 
0.0 0.0 1.0 
0.0 0.0 1.0 
0.0 0.0 1.0 
0.0 0.0 1.0 
0.0 0.0 1.0 
0.0 0.0 1.0 
0.0 0.0 1.0 
0.0 0.0 1.0 
0.0 0.0 1.0 
0.0 0.0 1.0 
0.0 0.0 1.0 
0.0 0.0 1.0 
0.0 0.0 1.0 
0.0 0.0 1.0 
0.0 0.0 1.0 
0.0 0.0 1.0 
0.0 0.0 1.0 
0.0 0.0 1.0 
0.0 0.0 1.0 
0.0 0.0 1.0 
0.0 0.0 1.0 
0.0 0.0 1.0 
0.0 0.0 1.0 
0.0 0.0 1.0 
0.0 0.0 1.0 
0.0 0.0 1.0 
0.0 0.0 1.0 
0.0 0.0 1.0 
0.0 0.0 1.0 
0.0 0.0 1.0 
0.0 0.0 1.0 
0.0 0.0 1.0 
0.0 0.0 1.0 
0.0 0.0 1.0 
0.0 0.0 1.0 
0.0 0.0 1.0 
0.0 0.0 1.0 
0.0 0.0 1.0 
0.0 0.0 1.0 
0.0 0.0 1.0 
Learning : 0.05
Momentum : 0.8999999761581421
Epoch: 100, Error: 0.02368725549238422
Epoch: 200, Error: 0.018260137674015738
Epoch: 300, Error: 0.01565979445767092
Epoch: 400, Error: 0.014661306722880208
Epoch: 500, Error: 0.0144544658463866
Epoch: 600, Error: 0.014235427055475371
Epoch: 700, Error: 0.013448085834584293
Epoch: 800, Error: 0.013265908406957514
Epoch: 900, Error: 0.013033129571901936
Epoch: 1000, Error: 0.012977165303973298
Epoch: 1100, Error: 0.012828816730117994
Epoch: 1200, Error: 0.012816043728459242
Epoch: 1300, Error: 0.012831423733749936
Epoch: 1400, Error: 0.01270104554956247
Epoch: 1500, Error: 0.01269028419332396
Epoch: 1600, Error: 0.012578858354639458
Epoch: 1700, Error: 0.012463358064166676
Epoch: 1800, Error: 0.01247881977710399
Epoch: 1900, Error: 0.012419876827886166
Epoch: 2000, Error: 0.012436618828701208
Epoch: 2100, Error: 0.012315544935847847
Epoch: 2200, Error: 0.012384531723248398
Epoch: 2300, Error: 0.012337796785683601
Epoch: 2400, Error: 0.01249205866234303
Epoch: 2500, Error: 0.01258219274041904
Epoch: 2600, Error: 0.01228282736447263
Epoch: 2700, Error: 0.012183129488308301
Epoch: 2800, Error: 0.01252868788191954
Epoch: 2900, Error: 0.012224532272726457
Epoch: 3000, Error: 0.012301949275021963
Epoch: 3100, Error: 0.012255806907542143
Epoch: 3200, Error: 0.01208482664719436
Epoch: 3300, Error: 0.012082556821571987
Epoch: 3400, Error: 0.012163837066485023
Epoch: 3500, Error: 0.01213454129208455
Epoch: 3600, Error: 0.012172262953844165
Epoch: 3700, Error: 0.012069509483628529
Epoch: 3800, Error: 0.012121561385170648
Epoch: 3900, Error: 0.012077783224806503
Epoch: 4000, Error: 0.012108545677113851
Epoch: 4100, Error: 0.012136777617847129
Epoch: 4200, Error: 0.011970955291372714
Epoch: 4300, Error: 0.011960648925578245
Epoch: 4400, Error: 0.012153215615634703
Epoch: 4500, Error: 0.012138512805498705
Epoch: 4600, Error: 0.012127130571006568
Epoch: 4700, Error: 0.012044587870920748
Epoch: 4800, Error: 0.012010991859501314
Epoch: 4900, Error: 0.0120321547626488
Epoch: 5000, Error: 0.012065701265784013
Epoch: 5100, Error: 0.012085348394193923
Epoch: 5200, Error: 0.012004162721488723
Epoch: 5300, Error: 0.011974648517704647
Epoch: 5400, Error: 0.011977356278832825
Epoch: 5500, Error: 0.012103516231689173
Epoch: 5600, Error: 0.011926062734171463
Epoch: 5700, Error: 0.01187909438262917
Epoch: 5800, Error: 0.011816738862800909
Epoch: 5900, Error: 0.011889943703949232
Epoch: 6000, Error: 0.011806293514767098
Epoch: 6100, Error: 0.011789194117716614
Epoch: 6200, Error: 0.01181315856833957
Epoch: 6300, Error: 0.011827245303362093
Epoch: 6400, Error: 0.011853391396320351
Epoch: 6500, Error: 0.01183802225960964
Epoch: 6600, Error: 0.011930226086147947
Epoch: 6700, Error: 0.011828642911187865
Epoch: 6800, Error: 0.011850607783740825
Epoch: 6900, Error: 0.011777420035600105
Epoch: 7000, Error: 0.011811736905598917
Epoch: 7100, Error: 0.011817990508932178
Epoch: 7200, Error: 0.011982583750988205
Epoch: 7300, Error: 0.011809131900741955
Epoch: 7400, Error: 0.011818086478861933
Epoch: 7500, Error: 0.011788732970578308
Epoch: 7600, Error: 0.011770057928429445
Epoch: 7700, Error: 0.01179366446116926
Epoch: 7800, Error: 0.011833427935804133
Epoch: 7900, Error: 0.011738303368095056
Epoch: 8000, Error: 0.011833686032844138
Epoch: 8100, Error: 0.011814952289995882
Epoch: 8200, Error: 0.011713225609125338
Epoch: 8300, Error: 0.011782614686295607
Epoch: 8400, Error: 0.011723396609534937
Epoch: 8500, Error: 0.011947814066963715
Epoch: 8600, Error: 0.011751318124965292
Epoch: 8700, Error: 0.011826975592643483
Epoch: 8800, Error: 0.011702698427907828
Epoch: 8900, Error: 0.011696684324905926
Epoch: 9000, Error: 0.011816689347755828
Epoch: 9100, Error: 0.01170003849428457
Epoch: 9200, Error: 0.011701956550196605
Epoch: 9300, Error: 0.011705040313494725
Epoch: 9400, Error: 0.011708858974778137
Epoch: 9500, Error: 0.011716797672430338
Epoch: 9600, Error: 0.01167595967116397
Epoch: 9700, Error: 0.01164708983938364
Epoch: 9800, Error: 0.011642251763212564
Epoch: 9900, Error: 0.011629764363235845
Epoch: 10000, Error: 0.01161866460217576
Epoch: 10100, Error: 0.012165682608180501
Epoch: 10200, Error: 0.011587844393743857
Epoch: 10300, Error: 0.011565286499948875
Epoch: 10400, Error: 0.011530311280784704
Epoch: 10500, Error: 0.011511824180542248
Epoch: 10600, Error: 0.011557820132618662
Epoch: 10700, Error: 0.011489141003359462
Epoch: 10800, Error: 0.011506882484679078
Epoch: 10900, Error: 0.011497912159032474
Epoch: 11000, Error: 0.011453464289986212
Epoch: 11100, Error: 0.0114437733940459
Epoch: 11200, Error: 0.011433017455055783
Epoch: 11300, Error: 0.011409252007277553
Epoch: 11400, Error: 0.011481299535573192
Epoch: 11500, Error: 0.011408624493867934
Epoch: 11600, Error: 0.011350945537153968
Epoch: 11700, Error: 0.011384205324279664
Epoch: 11800, Error: 0.011386754058415544
Epoch: 11900, Error: 0.011320722114718568
Epoch: 12000, Error: 0.011281211856032938
Epoch: 12100, Error: 0.011271616047769543
Epoch: 12200, Error: 0.011241260946885889
Epoch: 12300, Error: 0.011328520287601417
Epoch: 12400, Error: 0.01121707131293939
Epoch: 12500, Error: 0.011172870727333972
Epoch: 12600, Error: 0.011139181193293131
Epoch: 12700, Error: 0.01111793791555718
Epoch: 12800, Error: 0.011096570692148349
Epoch: 12900, Error: 0.011066551487095923
Epoch: 13000, Error: 0.011069946090762317
Epoch: 13100, Error: 0.011026208410735858
Epoch: 13200, Error: 0.010979762969602899
Epoch: 13300, Error: 0.010958653496456769
Epoch: 13400, Error: 0.01093972668897084
Epoch: 13500, Error: 0.010885213674504006
Epoch: 13600, Error: 0.010858041521136497
Epoch: 13700, Error: 0.010829848065790713
Epoch: 13800, Error: 0.010786537503046931
Epoch: 13900, Error: 0.010740250981128725
Epoch: 14000, Error: 0.010765356405546158
Epoch: 14100, Error: 0.010694999227735017
Epoch: 14200, Error: 0.010592294819087586
Epoch: 14300, Error: 0.010544685811470866
Epoch: 14400, Error: 0.010629510322877742
Epoch: 14500, Error: 0.010436990904201162
Epoch: 14600, Error: 0.010396911657591858
Epoch: 14700, Error: 0.010343384636765356
Epoch: 14800, Error: 0.010313808982798574
Epoch: 14900, Error: 0.010229455650913802
Epoch: 15000, Error: 0.010186022628879498
Epoch: 15100, Error: 0.010169566297975297
Epoch: 15200, Error: 0.010097629334607864
Epoch: 15300, Error: 0.010043970539961892
Epoch: 15400, Error: 0.009968517085720923
Epoch: 15500, Error: 0.009944514095841225
Epoch: 15600, Error: 0.009920853860216275
Epoch: 15700, Error: 0.009860449836362788
Epoch: 15800, Error: 0.009788863614437556
Epoch: 15900, Error: 0.009740859230905178
Epoch: 16000, Error: 0.009681635852243133
Epoch: 16100, Error: 0.00961675897320433
Epoch: 16200, Error: 0.009539992108548688
Epoch: 16300, Error: 0.00951366565439966
Epoch: 16400, Error: 0.009469721742183934
Epoch: 16500, Error: 0.009375426221367111
Epoch: 16600, Error: 0.009530963708571927
Epoch: 16700, Error: 0.009275644986473047
Epoch: 16800, Error: 0.009203045733127944
Epoch: 16900, Error: 0.009113152106576535
Epoch: 17000, Error: 0.009067732419198973
Epoch: 17100, Error: 0.008999728411995492
Epoch: 17200, Error: 0.008947846155746045
Epoch: 17300, Error: 0.008863298695910954
Epoch: 17400, Error: 0.008846905792418704
Epoch: 17500, Error: 0.008789604681969468
Epoch: 17600, Error: 0.008755615130472036
Epoch: 17700, Error: 0.008704642465436393
Epoch: 17800, Error: 0.008651853814502699
Epoch: 17900, Error: 0.008625967077781089
Epoch: 18000, Error: 0.00859575402566728
Epoch: 18100, Error: 0.008599567915073448
Epoch: 18200, Error: 0.00859252387447263
Epoch: 18300, Error: 0.008554013869074638
Epoch: 18400, Error: 0.00856923995500654
Epoch: 18500, Error: 0.00861967646786003
Epoch: 18600, Error: 0.00867556019402202
Epoch: 18700, Error: 0.008651314377072583
Epoch: 18800, Error: 0.008623038697939633
Epoch: 18900, Error: 0.00854262049783791
Epoch: 19000, Error: 0.008558232852119617
Epoch: 19100, Error: 0.008537905116252822
Epoch: 19200, Error: 0.008542691890840523
Epoch: 19300, Error: 0.008525702050753614
Epoch: 19400, Error: 0.008513102512494214
Epoch: 19500, Error: 0.008521755090513899
Epoch: 19600, Error: 0.008507139574746603
Epoch: 19700, Error: 0.00851959685137026
Epoch: 19800, Error: 0.008536708144114943
Epoch: 19900, Error: 0.008541374283114175
Epoch: 20000, Error: 0.008472703232756439
Epoch: 20100, Error: 0.008438176086220292
Epoch: 20200, Error: 0.008438978164279966
Epoch: 20300, Error: 0.008401929517561869
Epoch: 20400, Error: 0.008415368481897893
Epoch: 20500, Error: 0.0083754089640853
Epoch: 20600, Error: 0.008391238899918356
Epoch: 20700, Error: 0.008389991993956713
Epoch: 20800, Error: 0.008354979921984314
Epoch: 20900, Error: 0.008336105196243223
Epoch: 21000, Error: 0.008309950191806768
Epoch: 21100, Error: 0.008305517982919695
Epoch: 21200, Error: 0.008286153904984567
Epoch: 21300, Error: 0.008303735921983661
Epoch: 21400, Error: 0.00827548664067036
Epoch: 21500, Error: 0.008221792324476427
Epoch: 21600, Error: 0.00826864581716001
Epoch: 21700, Error: 0.008250904133509743
Epoch: 21800, Error: 0.008213123878611372
Epoch: 21900, Error: 0.00827112290582265
Epoch: 22000, Error: 0.008216921518765685
Epoch: 22100, Error: 0.00820979945579882
Epoch: 22200, Error: 0.008248831432722733
Epoch: 22300, Error: 0.008203348576884477
Epoch: 22400, Error: 0.008212473078628855
Epoch: 22500, Error: 0.00821335461312047
Epoch: 22600, Error: 0.008212134552500043
Epoch: 22700, Error: 0.0081732320342308
Epoch: 22800, Error: 0.008183847641747219
Epoch: 22900, Error: 0.008186314192620267
Epoch: 23000, Error: 0.008157811590089692
Epoch: 23100, Error: 0.008128546361719056
Epoch: 23200, Error: 0.008120902287870812
Epoch: 23300, Error: 0.008072793891296576
Epoch: 23400, Error: 0.008065606351302438
Epoch: 23500, Error: 0.008099860190946584
Epoch: 23600, Error: 0.00798076777312113
Epoch: 23700, Error: 0.007909073159804884
Epoch: 23800, Error: 0.007880264222757621
Epoch: 23900, Error: 0.007745346774646201
Epoch: 24000, Error: 0.007746780226816798
Epoch: 24100, Error: 0.0076322700240890875
Epoch: 24200, Error: 0.00758940517261969
Epoch: 24300, Error: 0.007541889342651828
Epoch: 24400, Error: 0.007484864447498235
Epoch: 24500, Error: 0.007460175721018037
Epoch: 24600, Error: 0.00741248529039777
Epoch: 24700, Error: 0.007443452686859157
Epoch: 24800, Error: 0.007372203970825661
Epoch: 24900, Error: 0.007351917697707777
Epoch: 25000, Error: 0.00736366444419343
Epoch: 25100, Error: 0.007281580896988939
Epoch: 25200, Error: 0.007295036121391333
Epoch: 25300, Error: 0.007262091801650536
Epoch: 25400, Error: 0.0072507006715446095
Epoch: 25500, Error: 0.007199643146599388
Epoch: 25600, Error: 0.0071952699111423645
Epoch: 25700, Error: 0.0071782295415898836
Epoch: 25800, Error: 0.0071340094546954134
Epoch: 25900, Error: 0.0071382017576866914
Epoch: 26000, Error: 0.007158733586292594
Epoch: 26100, Error: 0.007111543532061898
Epoch: 26200, Error: 0.007124870576127808
Epoch: 26300, Error: 0.007086478404884518
Epoch: 26400, Error: 0.007066456878304884
Epoch: 26500, Error: 0.007065134174932757
Epoch: 26600, Error: 0.007054071489821675
Epoch: 26700, Error: 0.007005021365979539
Epoch: 26800, Error: 0.0069949136317077765
Epoch: 26900, Error: 0.0070181742884270005
Epoch: 27000, Error: 0.006996076676660401
Epoch: 27100, Error: 0.006972448144970165
Epoch: 27200, Error: 0.006951871493303901
Epoch: 27300, Error: 0.007050993151069129
Epoch: 27400, Error: 0.006961605044244822
Epoch: 27500, Error: 0.006938018505732336
Epoch: 27600, Error: 0.006935045602728791
Epoch: 27700, Error: 0.006964622691854495
Epoch: 27800, Error: 0.006888594846190689
Epoch: 27900, Error: 0.00686965197394754
Epoch: 28000, Error: 0.006834470562187518
Epoch: 28100, Error: 0.006790361637838837
Epoch: 28200, Error: 0.0067737754401601446
Epoch: 28300, Error: 0.0068180782066611404
Epoch: 28400, Error: 0.006743403123946276
Epoch: 28500, Error: 0.006839122706077204
Epoch: 28600, Error: 0.006745946461532598
Epoch: 28700, Error: 0.006746354340509966
Epoch: 28800, Error: 0.0066815667101634
Epoch: 28900, Error: 0.00666901150547027
Epoch: 29000, Error: 0.006672390689012387
Epoch: 29100, Error: 0.006641792395820307
Epoch: 29200, Error: 0.0065970568395707675
Epoch: 29300, Error: 0.0066005731457147
Epoch: 29400, Error: 0.006618768379269444
Epoch: 29500, Error: 0.006598115768664169
Epoch: 29600, Error: 0.00658085467666375
Epoch: 29700, Error: 0.006577256562331893
Epoch: 29800, Error: 0.006538035129898885
Epoch: 29900, Error: 0.00654017625216698
Epoch: 30000, Error: 0.006518084472917978
Epoch: 30100, Error: 0.006492450625572106
Epoch: 30200, Error: 0.006499310185547791
Epoch: 30300, Error: 0.0064604327928989985
Epoch: 30400, Error: 0.006434623017871213
Epoch: 30500, Error: 0.0064373282841104365
Epoch: 30600, Error: 0.006410591643480393
Epoch: 30700, Error: 0.0064552352175544
Epoch: 30800, Error: 0.006386354378334269
Epoch: 30900, Error: 0.006412952060378623
Epoch: 31000, Error: 0.006357705783521954
Epoch: 31100, Error: 0.006328243784716283
Epoch: 31200, Error: 0.006325796752837563
Epoch: 31300, Error: 0.006320275930232184
Epoch: 31400, Error: 0.006272267364912653
Epoch: 31500, Error: 0.0062734137709120254
Epoch: 31600, Error: 0.006277317208693038
Epoch: 31700, Error: 0.00624507763750553
Epoch: 31800, Error: 0.006230780369513188
Epoch: 31900, Error: 0.006223657045822434
Epoch: 32000, Error: 0.0062513347549886696
Epoch: 32100, Error: 0.0062319782314512765
Epoch: 32200, Error: 0.006242507306382494
Epoch: 32300, Error: 0.006242875058826984
Epoch: 32400, Error: 0.006220011629510309
Epoch: 32500, Error: 0.00621359935704447
Epoch: 32600, Error: 0.006180872536459488
Epoch: 32700, Error: 0.006423394348400791
Epoch: 32800, Error: 0.006180992699576453
Epoch: 32900, Error: 0.0061425063732147706
Epoch: 33000, Error: 0.006181811827040945
Epoch: 33100, Error: 0.006163169933232883
Epoch: 33200, Error: 0.006154471008677822
Epoch: 33300, Error: 0.006156646387422563
Epoch: 33400, Error: 0.006144082914784408
Epoch: 33500, Error: 0.006125495257622017
Epoch: 33600, Error: 0.006125327448191826
Epoch: 33700, Error: 0.006140461687965387
Epoch: 33800, Error: 0.006148566972402785
Epoch: 33900, Error: 0.006121371678271075
Epoch: 34000, Error: 0.006137723051550641
Epoch: 34100, Error: 0.006114802517153308
Epoch: 34200, Error: 0.006133631748304021
Epoch: 34300, Error: 0.006127502051239957
Epoch: 34400, Error: 0.006160092692747236
Epoch: 34500, Error: 0.006130975654792299
Epoch: 34600, Error: 0.006119848802406096
Epoch: 34700, Error: 0.0061031329370305675
Epoch: 34800, Error: 0.0060919862821782
Epoch: 34900, Error: 0.006089279766915416
Epoch: 35000, Error: 0.006086796574115605
Epoch: 35100, Error: 0.006081059989466172
Epoch: 35200, Error: 0.006074156886716206
Epoch: 35300, Error: 0.006059345940223314
Epoch: 35400, Error: 0.0060142754739075715
Epoch: 35500, Error: 0.006045624096771439
Epoch: 35600, Error: 0.005983533762313731
Epoch: 35700, Error: 0.005951087920199877
Epoch: 35800, Error: 0.005934278724049478
Epoch: 35900, Error: 0.005914237926519967
Epoch: 36000, Error: 0.005894298067218994
Epoch: 36100, Error: 0.005888376816855592
Epoch: 36200, Error: 0.005869549678414095
Epoch: 36300, Error: 0.005916644243831171
Epoch: 36400, Error: 0.005824218089703499
Epoch: 36500, Error: 0.005815884905359598
Epoch: 36600, Error: 0.005814516510267842
Epoch: 36700, Error: 0.0057491122234190044
Epoch: 36800, Error: 0.005870876423912024
Epoch: 36900, Error: 0.00586271393428662
Epoch: 37000, Error: 0.005815052273860276
Epoch: 37100, Error: 0.005812235798429787
Epoch: 37200, Error: 0.005814149678865066
Epoch: 37300, Error: 0.0058417351691008685
Epoch: 37400, Error: 0.005883084924521348
Epoch: 37500, Error: 0.005874880591680501
Epoch: 37600, Error: 0.005891004702243419
Epoch: 37700, Error: 0.005889235612252888
Epoch: 37800, Error: 0.0059538131661427685
Epoch: 37900, Error: 0.005809264925456159
Epoch: 38000, Error: 0.0058507404520125785
Epoch: 38100, Error: 0.005870270081201361
Epoch: 38200, Error: 0.005890132961130816
Epoch: 38300, Error: 0.005908660671286763
Epoch: 38400, Error: 0.005944378719839663
Epoch: 38500, Error: 0.005937375152675713
Epoch: 38600, Error: 0.005925898026188712
Epoch: 38700, Error: 0.005881180099989967
Epoch: 38800, Error: 0.00586259894931776
Epoch: 38900, Error: 0.005867367615453621
Epoch: 39000, Error: 0.0058200275943016315
Epoch: 39100, Error: 0.005827599786643005
Epoch: 39200, Error: 0.005727775973543809
Epoch: 39300, Error: 0.005673196713212631
Epoch: 39400, Error: 0.005602272279632871
Epoch: 39500, Error: 0.005549385004961671
Epoch: 39600, Error: 0.005518805576365787
Epoch: 39700, Error: 0.005489190408132267
Epoch: 39800, Error: 0.005525482808111964
Epoch: 39900, Error: 0.005550975282107399
Epoch: 40000, Error: 0.005524939223225898
Epoch: 40100, Error: 0.005513753008763323
Epoch: 40200, Error: 0.0055170608399522795
Epoch: 40300, Error: 0.005538919321545213
Epoch: 40400, Error: 0.0055061095245669805
Epoch: 40500, Error: 0.00546597230254543
Epoch: 40600, Error: 0.0054763279819806925
Epoch: 40700, Error: 0.005464671438936351
Epoch: 40800, Error: 0.0054810573701843425
Epoch: 40900, Error: 0.005413326997842529
Epoch: 41000, Error: 0.005382687288689788
Epoch: 41100, Error: 0.005337964606043118
Epoch: 41200, Error: 0.005335423270743456
Epoch: 41300, Error: 0.005290280844567419
Epoch: 41400, Error: 0.005238143487053399
Epoch: 41500, Error: 0.005164162152460096
Epoch: 41600, Error: 0.005158506124903843
Epoch: 41700, Error: 0.005034220650248467
Epoch: 41800, Error: 0.005024189938824409
Epoch: 41900, Error: 0.0049877735238443716
Epoch: 42000, Error: 0.004918014109039634
Epoch: 42100, Error: 0.004933183327084597
Epoch: 42200, Error: 0.00492452031777657
Epoch: 42300, Error: 0.004834361190792555
Epoch: 42400, Error: 0.004774945379579051
Epoch: 42500, Error: 0.004729247529080279
Epoch: 42600, Error: 0.004727994478976734
Epoch: 42700, Error: 0.004692280090602733
Epoch: 42800, Error: 0.004669639367159341
Epoch: 42900, Error: 0.004671829368062547
Epoch: 43000, Error: 0.004642546039296737
Epoch: 43100, Error: 0.0046129512833184795
Epoch: 43200, Error: 0.004625843151389156
Epoch: 43300, Error: 0.004538367329216583
Epoch: 43400, Error: 0.004532370637955643
Epoch: 43500, Error: 0.004490914621493309
Epoch: 43600, Error: 0.004457264835671832
Epoch: 43700, Error: 0.004398859674532834
Epoch: 43800, Error: 0.0043657441777932016
Epoch: 43900, Error: 0.0042823431315383974
Epoch: 44000, Error: 0.004247989027335846
Epoch: 44100, Error: 0.004260120223422952
Epoch: 44200, Error: 0.004207048398784642
Epoch: 44300, Error: 0.004190043530104244
Epoch: 44400, Error: 0.004199530296723618
Epoch: 44500, Error: 0.0041732873385068635
Epoch: 44600, Error: 0.004106542945999344
Epoch: 44700, Error: 0.004070216003567292
Epoch: 44800, Error: 0.004081637723780526
Epoch: 44900, Error: 0.004011441223037688
Epoch: 45000, Error: 0.00392008876754552
Epoch: 45100, Error: 0.0038861491029549516
Epoch: 45200, Error: 0.0038904768481767896
Epoch: 45300, Error: 0.003820012756060649
Epoch: 45400, Error: 0.0038544156459313383
Epoch: 45500, Error: 0.0036956489201545027
Epoch: 45600, Error: 0.003639441969384719
Epoch: 45700, Error: 0.003614609419188283
Epoch: 45800, Error: 0.0035964084350855086
Epoch: 45900, Error: 0.003562803518548376
Epoch: 46000, Error: 0.0035245438101683293
Epoch: 46100, Error: 0.003610937548321629
Epoch: 46200, Error: 0.0034382808446822553
Epoch: 46300, Error: 0.003391752148641652
Epoch: 46400, Error: 0.0034554976896000776
Epoch: 46500, Error: 0.0033493188745431692
Epoch: 46600, Error: 0.003294844257460047
Epoch: 46700, Error: 0.003263028472972533
Epoch: 46800, Error: 0.003243005876255582
Epoch: 46900, Error: 0.0031709763679327965
Epoch: 47000, Error: 0.0031321825968167252
Epoch: 47100, Error: 0.0031156375327124207
Epoch: 47200, Error: 0.00306573100267134
Epoch: 47300, Error: 0.003034002235306415
Epoch: 47400, Error: 0.0030211711718979043
Epoch: 47500, Error: 0.0029735465017353014
Epoch: 47600, Error: 0.0029437762479956934
Epoch: 47700, Error: 0.0029756963900945104
Epoch: 47800, Error: 0.00289649907152999
Epoch: 47900, Error: 0.002959407123495366
Epoch: 48000, Error: 0.0028342141934517887
Epoch: 48100, Error: 0.0028013300572584322
Epoch: 48200, Error: 0.0028033125838606747
Epoch: 48300, Error: 0.002776247608390753
Epoch: 48400, Error: 0.0027729609287184286
Epoch: 48500, Error: 0.002749793631284299
Epoch: 48600, Error: 0.0026781921386740057
Epoch: 48700, Error: 0.002674774795987076
Epoch: 48800, Error: 0.0026452902026485
Epoch: 48900, Error: 0.0026768159991464803
Epoch: 49000, Error: 0.002681474902781825
Epoch: 49100, Error: 0.002598451846225202
Epoch: 49200, Error: 0.0026380150145849067
Epoch: 49300, Error: 0.0025807991523388797
Epoch: 49400, Error: 0.002534423433807129
Epoch: 49500, Error: 0.002524228423830357
Epoch: 49600, Error: 0.0025500630914675436
Epoch: 49700, Error: 0.002510008371592811
Epoch: 49800, Error: 0.002530206815476516
Epoch: 49900, Error: 0.002464953822281035
Epoch: 50000, Error: 0.002423410882000391
Epoch: 50100, Error: 0.002442433566223163
Epoch: 50200, Error: 0.0024208048777275416
Epoch: 50300, Error: 0.0023854113808165047
Epoch: 50400, Error: 0.002391455072877759
Epoch: 50500, Error: 0.0023837155877620294
Epoch: 50600, Error: 0.002364587259204757
Epoch: 50700, Error: 0.0023833357728389546
Epoch: 50800, Error: 0.0023232647875203252
Epoch: 50900, Error: 0.002267793196339791
Epoch: 51000, Error: 0.0022777364030461362
Epoch: 51100, Error: 0.0022395710043630946
Epoch: 51200, Error: 0.0022020560669121403
Epoch: 51300, Error: 0.0021738347220444823
Epoch: 51400, Error: 0.00216705511615696
Epoch: 51500, Error: 0.00215372037559844
Epoch: 51600, Error: 0.0021266103408331054
Epoch: 51700, Error: 0.002114733648446362
Epoch: 51800, Error: 0.0022055360471780246
Epoch: 51900, Error: 0.002059757987838515
Epoch: 52000, Error: 0.0020476506515021238
Epoch: 52100, Error: 0.0020367377477998353
Epoch: 52200, Error: 0.0020212024754661536
Epoch: 52300, Error: 0.0020150477231530716
Epoch: 52400, Error: 0.002033360639740505
Epoch: 52500, Error: 0.0019999018931077094
Epoch: 52600, Error: 0.00197785104233747
Epoch: 52700, Error: 0.0019345773697382026
Epoch: 52800, Error: 0.0019708868005317037
Epoch: 52900, Error: 0.0019015209056746788
Epoch: 53000, Error: 0.0019069645614842102
Epoch: 53100, Error: 0.0018903181516259887
Epoch: 53200, Error: 0.0018859873032404085
Epoch: 53300, Error: 0.0018489875048906324
Epoch: 53400, Error: 0.001856225265988305
Epoch: 53500, Error: 0.0018181845397263956
Epoch: 53600, Error: 0.0018299571293161228
Epoch: 53700, Error: 0.0018455490065583627
Epoch: 53800, Error: 0.0017908976286516623
Epoch: 53900, Error: 0.0017695322504095868
Epoch: 54000, Error: 0.001752900022705523
Epoch: 54100, Error: 0.0017495205279980757
Epoch: 54200, Error: 0.0017216823520297421
Epoch: 54300, Error: 0.0017087454219094512
Epoch: 54400, Error: 0.0016988871776141203
Epoch: 54500, Error: 0.0016833235857453015
Epoch: 54600, Error: 0.0016924220668643399
Epoch: 54700, Error: 0.0016842321429268847
Epoch: 54800, Error: 0.0016535735345313328
Epoch: 54900, Error: 0.0016405402505503496
Epoch: 55000, Error: 0.0016364504852496285
Epoch: 55100, Error: 0.0016165633347695048
Epoch: 55200, Error: 0.0016277645330997426
Epoch: 55300, Error: 0.0015979514304194265
Epoch: 55400, Error: 0.0016345685119019849
Epoch: 55500, Error: 0.0015753648942820552
Epoch: 55600, Error: 0.0016014250969965838
Epoch: 55700, Error: 0.001560193804312605
Epoch: 55800, Error: 0.001546886633074961
Epoch: 55900, Error: 0.0015598910354987637
Epoch: 56000, Error: 0.001563879891837422
Epoch: 56100, Error: 0.0015322512117643744
Epoch: 56200, Error: 0.001514737548824714
Epoch: 56300, Error: 0.0015091770064824062
Epoch: 56400, Error: 0.0014991957613778278
Epoch: 56500, Error: 0.0014943038309249332
Epoch: 56600, Error: 0.0014864778367494136
Epoch: 56700, Error: 0.0014831308244834085
Epoch: 56800, Error: 0.0014733641052028278
Epoch: 56900, Error: 0.0014621977005900646
Epoch: 57000, Error: 0.0014464894932898521
Epoch: 57100, Error: 0.0014529949422820768
Epoch: 57200, Error: 0.0014289530344258731
Epoch: 57300, Error: 0.0014465833089262617
Epoch: 57400, Error: 0.0014212504808851435
Epoch: 57500, Error: 0.0014290763845261052
Epoch: 57600, Error: 0.0014279196111391475
Epoch: 57700, Error: 0.0014004872581168909
Epoch: 57800, Error: 0.001391065072288976
Epoch: 57900, Error: 0.0013997698082719528
Epoch: 58000, Error: 0.0013725324253624563
Epoch: 58100, Error: 0.0014045780774342813
Epoch: 58200, Error: 0.0013503470050247465
Epoch: 58300, Error: 0.001339523796788972
Epoch: 58400, Error: 0.0013325627943972895
Epoch: 58500, Error: 0.0013207853460851897
Epoch: 58600, Error: 0.0013138414445240216
Epoch: 58700, Error: 0.0013231504206572934
Epoch: 58800, Error: 0.001281006139539105
Epoch: 58900, Error: 0.0012714726274770788
Epoch: 59000, Error: 0.0013001824262265582
Epoch: 59100, Error: 0.001258342428934252
Epoch: 59200, Error: 0.001256732463007952
Epoch: 59300, Error: 0.0012488122400356643
Epoch: 59400, Error: 0.001240978291396552
Epoch: 59500, Error: 0.0012555309221664347
Epoch: 59600, Error: 0.0012570497460807552
Epoch: 59700, Error: 0.0012392344923086633
Epoch: 59800, Error: 0.0012252625037699342
Epoch: 59900, Error: 0.0012240798414647049
Epoch: 60000, Error: 0.0012484071326841772
Epoch: 60100, Error: 0.0012149705825443562
Epoch: 60200, Error: 0.0012104580142685264
Epoch: 60300, Error: 0.001326528608749193
Epoch: 60400, Error: 0.0012093107395100174
Epoch: 60500, Error: 0.0012087371373114002
Epoch: 60600, Error: 0.0012264730799753664
Epoch: 60700, Error: 0.0012207619093369507
Epoch: 60800, Error: 0.001229773893253614
Epoch: 60900, Error: 0.0012500725147202858
Epoch: 61000, Error: 0.0012462839964738647
Epoch: 61100, Error: 0.001251943951535965
Epoch: 61200, Error: 0.001253148090669956
Epoch: 61300, Error: 0.0012696235204591108
Epoch: 61400, Error: 0.0012870103829640954
Epoch: 61500, Error: 0.001284574210829348
Epoch: 61600, Error: 0.0014000255969872687
Epoch: 61700, Error: 0.001297907698056655
Epoch: 61800, Error: 0.0013016182663403157
Epoch: 61900, Error: 0.0013183309066697616
Epoch: 62000, Error: 0.0013218209844417395
Epoch: 62100, Error: 0.0013392178136917914
Epoch: 62200, Error: 0.0013434030709169199
Epoch: 62300, Error: 0.0013513416129398187
Epoch: 62400, Error: 0.0013555110008777113
Epoch: 62500, Error: 0.001368737273009763
Epoch: 62600, Error: 0.001382124848816067
Epoch: 62700, Error: 0.0013993737912402354
Epoch: 62800, Error: 0.001415793588716355
Epoch: 62900, Error: 0.0014268641031949306
Epoch: 63000, Error: 0.0014549933757260966
Epoch: 63100, Error: 0.0014633452129170165
Epoch: 63200, Error: 0.0014771247739865708
Epoch: 63300, Error: 0.0015041450212918551
Epoch: 63400, Error: 0.001518832560552723
Epoch: 63500, Error: 0.0015328383064823871
Epoch: 63600, Error: 0.0015542295506295427
Epoch: 63700, Error: 0.001571600044574356
Epoch: 63800, Error: 0.0016045957771185025
Epoch: 63900, Error: 0.0016304452077709887
Epoch: 64000, Error: 0.001615293977566443
Epoch: 64100, Error: 0.001612024813970079
Epoch: 64200, Error: 0.0016050552278692536
Epoch: 64300, Error: 0.0016040466579996682
Epoch: 64400, Error: 0.0015985471577024265
Epoch: 64500, Error: 0.0016067199226366318
Epoch: 64600, Error: 0.001588447054270199
Epoch: 64700, Error: 0.0015814666800718763
Epoch: 64800, Error: 0.0015840823337693543
Epoch: 64900, Error: 0.0015857399403256854
Epoch: 65000, Error: 0.0015843630610200094
Epoch: 65100, Error: 0.001588129396871254
Epoch: 65200, Error: 0.0015792219402260622
Finished
Input Patterns
0.224 0.624 0.067 0.043 
0.11 0.502 0.051 0.043 
0.196 0.667 0.067 0.043 
0.055 0.584 0.067 0.082 
0.027 0.376 0.067 0.043 
0.306 0.71 0.086 0.043 
0.137 0.416 0.067 0.0 
0.416 0.831 0.035 0.043 
0.306 0.792 0.051 0.125 
0.388 0.749 0.118 0.082 
0.306 0.584 0.118 0.043 
0.082 0.667 0.0 0.043 
0.137 0.584 0.153 0.043 
0.196 0.584 0.102 0.125 
0.251 0.584 0.067 0.043 
0.137 0.459 0.102 0.043 
0.251 0.875 0.086 0.0 
0.165 0.459 0.086 0.043 
0.333 0.624 0.051 0.043 
0.027 0.416 0.051 0.043 
0.196 0.624 0.051 0.082 
0.027 0.502 0.051 0.043 
0.224 0.749 0.153 0.125 
0.224 0.749 0.102 0.043 
0.278 0.71 0.086 0.043 
0.165 0.416 0.067 0.043 
0.082 0.459 0.086 0.043 
0.306 0.792 0.118 0.125 
0.196 0.584 0.086 0.043 
0.165 0.459 0.086 0.0 
0.137 0.584 0.102 0.043 
0.0 0.416 0.016 0.0 
0.388 1.0 0.086 0.125 
0.224 0.624 0.067 0.082 
0.224 0.749 0.086 0.082 
0.224 0.71 0.086 0.125 
0.224 0.541 0.118 0.165 
0.196 0.416 0.102 0.043 
0.251 0.624 0.086 0.043 
0.11 0.502 0.102 0.043 
0.306 0.584 0.086 0.125 
0.333 0.918 0.067 0.043 
0.196 0.502 0.035 0.043 
0.165 0.667 0.067 0.0 
0.224 0.584 0.086 0.043 
0.055 0.125 0.051 0.082 
0.196 0.624 0.102 0.208 
0.137 0.416 0.067 0.082 
0.082 0.502 0.067 0.043 
0.196 0.541 0.067 0.043 
0.749 0.502 0.627 0.541 
0.722 0.459 0.663 0.584 
0.612 0.333 0.612 0.584 
0.557 0.541 0.627 0.624 
0.639 0.376 0.612 0.498 
0.196 0.0 0.424 0.376 
0.471 0.082 0.51 0.376 
0.361 0.376 0.439 0.498 
0.361 0.416 0.592 0.584 
0.529 0.082 0.592 0.584 
0.443 0.502 0.643 0.459 
0.557 0.208 0.663 0.584 
0.584 0.376 0.561 0.498 
0.694 0.333 0.643 0.541 
0.471 0.376 0.592 0.584 
0.333 0.169 0.475 0.416 
0.416 0.29 0.49 0.459 
0.306 0.416 0.592 0.584 
0.667 0.459 0.627 0.584 
0.361 0.416 0.525 0.498 
0.333 0.251 0.576 0.459 
0.416 0.251 0.51 0.459 
0.361 0.29 0.541 0.498 
0.388 0.376 0.541 0.498 
0.224 0.208 0.337 0.416 
0.584 0.502 0.592 0.584 
0.333 0.125 0.51 0.498 
0.388 0.333 0.592 0.498 
0.165 0.169 0.388 0.376 
0.251 0.29 0.49 0.541 
0.443 0.416 0.541 0.584 
0.498 0.376 0.627 0.541 
0.667 0.459 0.576 0.541 
0.416 0.29 0.525 0.376 
0.361 0.208 0.49 0.416 
0.498 0.333 0.51 0.498 
0.498 0.333 0.627 0.459 
0.639 0.416 0.576 0.541 
0.667 0.416 0.678 0.667 
0.388 0.251 0.424 0.376 
0.333 0.169 0.459 0.376 
0.471 0.29 0.694 0.624 
0.471 0.584 0.592 0.624 
0.557 0.125 0.576 0.498 
0.333 0.208 0.51 0.498 
0.498 0.416 0.612 0.541 
0.196 0.125 0.388 0.376 
0.388 0.416 0.541 0.459 
0.529 0.376 0.561 0.498 
0.388 0.333 0.525 0.498 
0.557 0.541 0.847 1.0 
0.776 0.416 0.831 0.831 
0.612 0.416 0.812 0.875 
0.165 0.208 0.592 0.667 
0.667 0.208 0.812 0.71 
0.612 0.502 0.694 0.792 
0.694 0.416 0.761 0.831 
0.416 0.333 0.694 0.957 
0.612 0.416 0.761 0.71 
0.945 0.251 1.0 0.918 
0.722 0.502 0.796 0.918 
0.945 0.333 0.965 0.792 
0.667 0.541 0.796 0.831 
0.529 0.333 0.643 0.71 
0.584 0.333 0.78 0.831 
0.863 0.333 0.863 0.749 
0.584 0.333 0.78 0.875 
0.498 0.251 0.78 0.541 
0.557 0.584 0.78 0.957 
0.471 0.416 0.643 0.71 
0.667 0.459 0.78 0.957 
0.416 0.29 0.694 0.749 
0.667 0.541 0.796 1.0 
0.557 0.208 0.678 0.749 
0.529 0.584 0.745 0.918 
0.416 0.29 0.694 0.749 
0.557 0.376 0.78 0.71 
0.918 0.416 0.949 0.831 
0.835 0.376 0.898 0.71 
0.804 0.667 0.863 1.0 
0.584 0.29 0.729 0.749 
0.388 0.208 0.678 0.792 
0.584 0.502 0.729 0.918 
0.945 0.749 0.965 0.875 
0.471 0.082 0.678 0.584 
0.361 0.333 0.663 0.792 
0.557 0.29 0.663 0.71 
0.804 0.502 0.847 0.71 
0.498 0.416 0.51 0.71 
0.804 0.416 0.812 0.624 
1.0 0.749 0.914 0.792 
0.557 0.333 0.694 0.584 
0.945 0.416 0.863 0.918 
0.584 0.459 0.761 0.71 
0.722 0.459 0.745 0.831 
0.722 0.459 0.694 0.918 
0.694 0.502 0.831 0.918 
0.667 0.416 0.714 0.918 
0.612 0.416 0.714 0.792 
0.443 0.416 0.694 0.71 
Teaching Patterns
1.0 0.0 0.0 
1.0 0.0 0.0 
1.0 0.0 0.0 
1.0 0.0 0.0 
1.0 0.0 0.0 
1.0 0.0 0.0 
1.0 0.0 0.0 
1.0 0.0 0.0 
1.0 0.0 0.0 
1.0 0.0 0.0 
1.0 0.0 0.0 
1.0 0.0 0.0 
1.0 0.0 0.0 
1.0 0.0 0.0 
1.0 0.0 0.0 
1.0 0.0 0.0 
1.0 0.0 0.0 
1.0 0.0 0.0 
1.0 0.0 0.0 
1.0 0.0 0.0 
1.0 0.0 0.0 
1.0 0.0 0.0 
1.0 0.0 0.0 
1.0 0.0 0.0 
1.0 0.0 0.0 
1.0 0.0 0.0 
1.0 0.0 0.0 
1.0 0.0 0.0 
1.0 0.0 0.0 
1.0 0.0 0.0 
1.0 0.0 0.0 
1.0 0.0 0.0 
1.0 0.0 0.0 
1.0 0.0 0.0 
1.0 0.0 0.0 
1.0 0.0 0.0 
1.0 0.0 0.0 
1.0 0.0 0.0 
1.0 0.0 0.0 
1.0 0.0 0.0 
1.0 0.0 0.0 
1.0 0.0 0.0 
1.0 0.0 0.0 
1.0 0.0 0.0 
1.0 0.0 0.0 
1.0 0.0 0.0 
1.0 0.0 0.0 
1.0 0.0 0.0 
1.0 0.0 0.0 
1.0 0.0 0.0 
0.0 1.0 0.0 
0.0 1.0 0.0 
0.0 1.0 0.0 
0.0 1.0 0.0 
0.0 1.0 0.0 
0.0 1.0 0.0 
0.0 1.0 0.0 
0.0 1.0 0.0 
0.0 1.0 0.0 
0.0 1.0 0.0 
0.0 1.0 0.0 
0.0 1.0 0.0 
0.0 1.0 0.0 
0.0 1.0 0.0 
0.0 1.0 0.0 
0.0 1.0 0.0 
0.0 1.0 0.0 
0.0 1.0 0.0 
0.0 1.0 0.0 
0.0 1.0 0.0 
0.0 1.0 0.0 
0.0 1.0 0.0 
0.0 1.0 0.0 
0.0 1.0 0.0 
0.0 1.0 0.0 
0.0 1.0 0.0 
0.0 1.0 0.0 
0.0 1.0 0.0 
0.0 1.0 0.0 
0.0 1.0 0.0 
0.0 1.0 0.0 
0.0 1.0 0.0 
0.0 1.0 0.0 
0.0 1.0 0.0 
0.0 1.0 0.0 
0.0 1.0 0.0 
0.0 1.0 0.0 
0.0 1.0 0.0 
0.0 1.0 0.0 
0.0 1.0 0.0 
0.0 1.0 0.0 
0.0 1.0 0.0 
0.0 1.0 0.0 
0.0 1.0 0.0 
0.0 1.0 0.0 
0.0 1.0 0.0 
0.0 1.0 0.0 
0.0 1.0 0.0 
0.0 1.0 0.0 
0.0 1.0 0.0 
0.0 0.0 1.0 
0.0 0.0 1.0 
0.0 0.0 1.0 
0.0 0.0 1.0 
0.0 0.0 1.0 
0.0 0.0 1.0 
0.0 0.0 1.0 
0.0 0.0 1.0 
0.0 0.0 1.0 
0.0 0.0 1.0 
0.0 0.0 1.0 
0.0 0.0 1.0 
0.0 0.0 1.0 
0.0 0.0 1.0 
0.0 0.0 1.0 
0.0 0.0 1.0 
0.0 0.0 1.0 
0.0 0.0 1.0 
0.0 0.0 1.0 
0.0 0.0 1.0 
0.0 0.0 1.0 
0.0 0.0 1.0 
0.0 0.0 1.0 
0.0 0.0 1.0 
0.0 0.0 1.0 
0.0 0.0 1.0 
0.0 0.0 1.0 
0.0 0.0 1.0 
0.0 0.0 1.0 
0.0 0.0 1.0 
0.0 0.0 1.0 
0.0 0.0 1.0 
0.0 0.0 1.0 
0.0 0.0 1.0 
0.0 0.0 1.0 
0.0 0.0 1.0 
0.0 0.0 1.0 
0.0 0.0 1.0 
0.0 0.0 1.0 
0.0 0.0 1.0 
0.0 0.0 1.0 
0.0 0.0 1.0 
0.0 0.0 1.0 
0.0 0.0 1.0 
0.0 0.0 1.0 
0.0 0.0 1.0 
0.0 0.0 1.0 
0.0 0.0 1.0 
0.0 0.0 1.0 
0.0 0.0 1.0 
Learning : 0.05
Momentum : 0.8999999761581421
Epoch: 100, Error: 0.023068513532084688
Epoch: 200, Error: 0.0187043088866766
Epoch: 300, Error: 0.015978245781572163
Epoch: 400, Error: 0.014920057968483847
Epoch: 500, Error: 0.013988471771562998
Epoch: 600, Error: 0.01361902985138377
Epoch: 700, Error: 0.013291233113922853
Epoch: 800, Error: 0.013115463756198051
Epoch: 900, Error: 0.013186358020191713
Epoch: 1000, Error: 0.01289879468256525
Epoch: 1100, Error: 0.012643703927875527
Epoch: 1200, Error: 0.01261855163219671
Epoch: 1300, Error: 0.012720285296279178
Epoch: 1400, Error: 0.012662085640252308
Epoch: 1500, Error: 0.012448006532720083
Epoch: 1600, Error: 0.012610842992775744
Epoch: 1700, Error: 0.012317448815189896
Epoch: 1800, Error: 0.012202579211783386
Epoch: 1900, Error: 0.012297892679417013
Epoch: 2000, Error: 0.012214158398331955
Epoch: 2100, Error: 0.012161213057521093
Epoch: 2200, Error: 0.012164088421400251
Epoch: 2300, Error: 0.012346780722730068
Epoch: 2400, Error: 0.012079443406084592
Epoch: 2500, Error: 0.012001104430775917
Epoch: 2600, Error: 0.012015271503184455
Epoch: 2700, Error: 0.01206338706991462
Epoch: 2800, Error: 0.012199905034089038
Epoch: 2900, Error: 0.012213668741041241
Epoch: 3000, Error: 0.011984483385902996
Epoch: 3100, Error: 0.011953266303415956
Epoch: 3200, Error: 0.011949619664580729
Epoch: 3300, Error: 0.011928197536792003
Epoch: 3400, Error: 0.011898716997875071
Epoch: 3500, Error: 0.011939464098219374
Epoch: 3600, Error: 0.01189607302538515
Epoch: 3700, Error: 0.011871504433824316
Epoch: 3800, Error: 0.011832485605908953
Epoch: 3900, Error: 0.011862514063085404
Epoch: 4000, Error: 0.011794341855297683
Epoch: 4100, Error: 0.011790661121517096
Epoch: 4200, Error: 0.011798698560258742
Epoch: 4300, Error: 0.01176009137632068
Epoch: 4400, Error: 0.011888218952851528
Epoch: 4500, Error: 0.011711422509365561
Epoch: 4600, Error: 0.011673716646172453
Epoch: 4700, Error: 0.011674077540895278
Epoch: 4800, Error: 0.011885228759531876
Epoch: 4900, Error: 0.011725770441854346
Epoch: 5000, Error: 0.011653885947116147
Epoch: 5100, Error: 0.011696237997909791
Epoch: 5200, Error: 0.01165679712809808
Epoch: 5300, Error: 0.011607433338152002
Epoch: 5400, Error: 0.01164907695591132
Epoch: 5500, Error: 0.011822348923351387
Epoch: 5600, Error: 0.011641601480821502
Epoch: 5700, Error: 0.011570395733094992
Epoch: 5800, Error: 0.011587511731589013
Epoch: 5900, Error: 0.011557229929927394
Epoch: 6000, Error: 0.011613279580245432
Epoch: 6100, Error: 0.011674015004296323
Epoch: 6200, Error: 0.011422824907826437
Epoch: 6300, Error: 0.01136359375100656
Epoch: 6400, Error: 0.011359693175247567
Epoch: 6500, Error: 0.011392202547575666
Epoch: 6600, Error: 0.011354557605483767
Epoch: 6700, Error: 0.011302666285392686
Epoch: 6800, Error: 0.01142754042243077
Epoch: 6900, Error: 0.011202989688035557
Epoch: 7000, Error: 0.011164273424202648
Epoch: 7100, Error: 0.011322627898406884
Epoch: 7200, Error: 0.011103780234701995
Epoch: 7300, Error: 0.011092066739322441
Epoch: 7400, Error: 0.011042030109573471
Epoch: 7500, Error: 0.011059948228884987
Epoch: 7600, Error: 0.010884162000200785
Epoch: 7700, Error: 0.010880566641391483
Epoch: 7800, Error: 0.01076667266590288
Epoch: 7900, Error: 0.010747382942891941
Epoch: 8000, Error: 0.010673002216464176
Epoch: 8100, Error: 0.01060640586014936
Epoch: 8200, Error: 0.010590488953927129
Epoch: 8300, Error: 0.010536130021037668
Epoch: 8400, Error: 0.010586636428118327
Epoch: 8500, Error: 0.010361530732471369
Epoch: 8600, Error: 0.010299036862683148
Epoch: 8700, Error: 0.010228060409919798
Epoch: 8800, Error: 0.010151890093959238
Epoch: 8900, Error: 0.010169770246718206
Epoch: 9000, Error: 0.009984947472965862
Epoch: 9100, Error: 0.009962983172631739
Epoch: 9200, Error: 0.009774090267059202
Epoch: 9300, Error: 0.009725644921333822
Epoch: 9400, Error: 0.009623092449838347
Epoch: 9500, Error: 0.009534678744248798
Epoch: 9600, Error: 0.009388077973094123
Epoch: 9700, Error: 0.009291536648631239
Epoch: 9800, Error: 0.009307466483276685
Epoch: 9900, Error: 0.009105835429369574
Epoch: 10000, Error: 0.00902773694165184
Epoch: 10100, Error: 0.008923012828165398
Epoch: 10200, Error: 0.008911502300956829
Epoch: 10300, Error: 0.008733634628604062
Epoch: 10400, Error: 0.008637704007644386
Epoch: 10500, Error: 0.008671384320340949
Epoch: 10600, Error: 0.008437335711683697
Epoch: 10700, Error: 0.008353908618587544
Epoch: 10800, Error: 0.008280173063562766
Epoch: 10900, Error: 0.008187315896662588
Epoch: 11000, Error: 0.008117504408894055
Epoch: 11100, Error: 0.007985146587133247
Epoch: 11200, Error: 0.007913526074515146
Epoch: 11300, Error: 0.007827053322686277
Epoch: 11400, Error: 0.007725537793136565
Epoch: 11500, Error: 0.007653097773206652
Epoch: 11600, Error: 0.007884698565700092
Epoch: 11700, Error: 0.007698681891077796
Epoch: 11800, Error: 0.007446842941923328
Epoch: 11900, Error: 0.007399767031816488
Epoch: 12000, Error: 0.007382497867731858
Epoch: 12100, Error: 0.007329611467904484
Epoch: 12200, Error: 0.007284858777355788
Epoch: 12300, Error: 0.007203130944053382
Epoch: 12400, Error: 0.00714873349140783
Epoch: 12500, Error: 0.007101666300872791
Epoch: 12600, Error: 0.007055390233556189
Epoch: 12700, Error: 0.007009031943422687
Epoch: 12800, Error: 0.006961881152570031
Epoch: 12900, Error: 0.0069070150319248385
Epoch: 13000, Error: 0.0068768032033591255
Epoch: 13100, Error: 0.0067814654931303885
Epoch: 13200, Error: 0.006733554416725399
Epoch: 13300, Error: 0.006720677295454063
Epoch: 13400, Error: 0.006669141998666546
Epoch: 13500, Error: 0.006683941558803051
Epoch: 13600, Error: 0.006594074111364423
Epoch: 13700, Error: 0.006579918421039095
Epoch: 13800, Error: 0.006586142147463887
Epoch: 13900, Error: 0.006536911142026658
Epoch: 14000, Error: 0.0065063666179748314
Epoch: 14100, Error: 0.006457839043990187
Epoch: 14200, Error: 0.00641271799793767
Epoch: 14300, Error: 0.006377072792631864
Epoch: 14400, Error: 0.006348587505991664
Epoch: 14500, Error: 0.00632364427290913
Epoch: 14600, Error: 0.006298752513924049
Epoch: 14700, Error: 0.006357766253438017
Epoch: 14800, Error: 0.006266714224453032
Epoch: 14900, Error: 0.006248681021810662
Epoch: 15000, Error: 0.0062108576650093195
Epoch: 15100, Error: 0.00621199780082353
Epoch: 15200, Error: 0.0061644928603527835
Epoch: 15300, Error: 0.006291696550496834
Epoch: 15400, Error: 0.006137313680148777
Epoch: 15500, Error: 0.006115350266308561
Epoch: 15600, Error: 0.006109891650325578
Epoch: 15700, Error: 0.006064914185292585
Epoch: 15800, Error: 0.006055658748860625
Epoch: 15900, Error: 0.006015934332233737
Epoch: 16000, Error: 0.006023021756202026
Epoch: 16100, Error: 0.006000203538445961
Epoch: 16200, Error: 0.006003616983992513
Epoch: 16300, Error: 0.005989439781374091
Epoch: 16400, Error: 0.005985660371347926
Epoch: 16500, Error: 0.0059522373979385805
Epoch: 16600, Error: 0.005973704644221416
Epoch: 16700, Error: 0.00595113510748261
Epoch: 16800, Error: 0.005916752576003213
Epoch: 16900, Error: 0.005917892478981034
Epoch: 17000, Error: 0.005858352788985614
Epoch: 17100, Error: 0.005835789517448036
Epoch: 17200, Error: 0.005842104377578459
Epoch: 17300, Error: 0.005815661686339109
Epoch: 17400, Error: 0.005819113682213406
Epoch: 17500, Error: 0.005785300854972893
Epoch: 17600, Error: 0.005778202177144172
Epoch: 17700, Error: 0.00575968238015435
Epoch: 17800, Error: 0.005735999059142186
Epoch: 17900, Error: 0.00574696482824685
Epoch: 18000, Error: 0.0057366746875733236
Epoch: 18100, Error: 0.0057345140709654276
Epoch: 18200, Error: 0.005712989099171941
Epoch: 18300, Error: 0.005781499606892902
Epoch: 18400, Error: 0.0056760415343953576
Epoch: 18500, Error: 0.005664607430999299
Epoch: 18600, Error: 0.005642244200679407
Epoch: 18700, Error: 0.00562873341300886
Epoch: 18800, Error: 0.005618260251688912
Epoch: 18900, Error: 0.005609978732696775
Epoch: 19000, Error: 0.005594065483104184
Epoch: 19100, Error: 0.005565914770957641
Epoch: 19200, Error: 0.005582953619345007
Epoch: 19300, Error: 0.005546105102910731
Epoch: 19400, Error: 0.005527847119225302
Epoch: 19500, Error: 0.005505550449330795
Epoch: 19600, Error: 0.005525670948107361
Epoch: 19700, Error: 0.005605276959198291
Epoch: 19800, Error: 0.005509428097706229
Epoch: 19900, Error: 0.005494889304862371
Epoch: 20000, Error: 0.005493925556205392
Epoch: 20100, Error: 0.005486772451185871
Epoch: 20200, Error: 0.005547816039649735
Epoch: 20300, Error: 0.005474817292580008
Finished
