Input Patterns
0.224 0.624 0.067 0.043 
0.11 0.502 0.051 0.043 
0.196 0.667 0.067 0.043 
0.055 0.584 0.067 0.082 
0.027 0.376 0.067 0.043 
0.306 0.71 0.086 0.043 
0.137 0.416 0.067 0.0 
0.416 0.831 0.035 0.043 
0.306 0.792 0.051 0.125 
0.388 0.749 0.118 0.082 
0.306 0.584 0.118 0.043 
0.082 0.667 0.0 0.043 
0.137 0.584 0.153 0.043 
0.196 0.584 0.102 0.125 
0.251 0.584 0.067 0.043 
0.137 0.459 0.102 0.043 
0.251 0.875 0.086 0.0 
0.165 0.459 0.086 0.043 
0.333 0.624 0.051 0.043 
0.027 0.416 0.051 0.043 
0.196 0.624 0.051 0.082 
0.027 0.502 0.051 0.043 
0.224 0.749 0.153 0.125 
0.224 0.749 0.102 0.043 
0.278 0.71 0.086 0.043 
0.165 0.416 0.067 0.043 
0.082 0.459 0.086 0.043 
0.306 0.792 0.118 0.125 
0.196 0.584 0.086 0.043 
0.165 0.459 0.086 0.0 
0.137 0.584 0.102 0.043 
0.0 0.416 0.016 0.0 
0.388 1.0 0.086 0.125 
0.224 0.624 0.067 0.082 
0.224 0.749 0.086 0.082 
0.224 0.71 0.086 0.125 
0.224 0.541 0.118 0.165 
0.196 0.416 0.102 0.043 
0.251 0.624 0.086 0.043 
0.11 0.502 0.102 0.043 
0.306 0.584 0.086 0.125 
0.333 0.918 0.067 0.043 
0.196 0.502 0.035 0.043 
0.165 0.667 0.067 0.0 
0.224 0.584 0.086 0.043 
0.055 0.125 0.051 0.082 
0.196 0.624 0.102 0.208 
0.137 0.416 0.067 0.082 
0.082 0.502 0.067 0.043 
0.196 0.541 0.067 0.043 
0.749 0.502 0.627 0.541 
0.722 0.459 0.663 0.584 
0.612 0.333 0.612 0.584 
0.557 0.541 0.627 0.624 
0.639 0.376 0.612 0.498 
0.196 0.0 0.424 0.376 
0.471 0.082 0.51 0.376 
0.361 0.376 0.439 0.498 
0.361 0.416 0.592 0.584 
0.529 0.082 0.592 0.584 
0.443 0.502 0.643 0.459 
0.557 0.208 0.663 0.584 
0.584 0.376 0.561 0.498 
0.694 0.333 0.643 0.541 
0.471 0.376 0.592 0.584 
0.333 0.169 0.475 0.416 
0.416 0.29 0.49 0.459 
0.306 0.416 0.592 0.584 
0.667 0.459 0.627 0.584 
0.361 0.416 0.525 0.498 
0.333 0.251 0.576 0.459 
0.416 0.251 0.51 0.459 
0.361 0.29 0.541 0.498 
0.388 0.376 0.541 0.498 
0.224 0.208 0.337 0.416 
0.584 0.502 0.592 0.584 
0.333 0.125 0.51 0.498 
0.388 0.333 0.592 0.498 
0.165 0.169 0.388 0.376 
0.251 0.29 0.49 0.541 
0.443 0.416 0.541 0.584 
0.498 0.376 0.627 0.541 
0.667 0.459 0.576 0.541 
0.416 0.29 0.525 0.376 
0.361 0.208 0.49 0.416 
0.498 0.333 0.51 0.498 
0.498 0.333 0.627 0.459 
0.639 0.416 0.576 0.541 
0.667 0.416 0.678 0.667 
0.388 0.251 0.424 0.376 
0.333 0.169 0.459 0.376 
0.471 0.29 0.694 0.624 
0.471 0.584 0.592 0.624 
0.557 0.125 0.576 0.498 
0.333 0.208 0.51 0.498 
0.498 0.416 0.612 0.541 
0.196 0.125 0.388 0.376 
0.388 0.416 0.541 0.459 
0.529 0.376 0.561 0.498 
0.388 0.333 0.525 0.498 
0.557 0.541 0.847 1.0 
0.776 0.416 0.831 0.831 
0.612 0.416 0.812 0.875 
0.165 0.208 0.592 0.667 
0.667 0.208 0.812 0.71 
0.612 0.502 0.694 0.792 
0.694 0.416 0.761 0.831 
0.416 0.333 0.694 0.957 
0.612 0.416 0.761 0.71 
0.945 0.251 1.0 0.918 
0.722 0.502 0.796 0.918 
0.945 0.333 0.965 0.792 
0.667 0.541 0.796 0.831 
0.529 0.333 0.643 0.71 
0.584 0.333 0.78 0.831 
0.863 0.333 0.863 0.749 
0.584 0.333 0.78 0.875 
0.498 0.251 0.78 0.541 
0.557 0.584 0.78 0.957 
0.471 0.416 0.643 0.71 
0.667 0.459 0.78 0.957 
0.416 0.29 0.694 0.749 
0.667 0.541 0.796 1.0 
0.557 0.208 0.678 0.749 
0.529 0.584 0.745 0.918 
0.416 0.29 0.694 0.749 
0.557 0.376 0.78 0.71 
0.918 0.416 0.949 0.831 
0.835 0.376 0.898 0.71 
0.804 0.667 0.863 1.0 
0.584 0.29 0.729 0.749 
0.388 0.208 0.678 0.792 
0.584 0.502 0.729 0.918 
0.945 0.749 0.965 0.875 
0.471 0.082 0.678 0.584 
0.361 0.333 0.663 0.792 
0.557 0.29 0.663 0.71 
0.804 0.502 0.847 0.71 
0.498 0.416 0.51 0.71 
0.804 0.416 0.812 0.624 
1.0 0.749 0.914 0.792 
0.557 0.333 0.694 0.584 
0.945 0.416 0.863 0.918 
0.584 0.459 0.761 0.71 
0.722 0.459 0.745 0.831 
0.722 0.459 0.694 0.918 
0.694 0.502 0.831 0.918 
0.667 0.416 0.714 0.918 
0.612 0.416 0.714 0.792 
0.443 0.416 0.694 0.71 
Teaching Patterns
1.0 0.0 0.0 
1.0 0.0 0.0 
1.0 0.0 0.0 
1.0 0.0 0.0 
1.0 0.0 0.0 
1.0 0.0 0.0 
1.0 0.0 0.0 
1.0 0.0 0.0 
1.0 0.0 0.0 
1.0 0.0 0.0 
1.0 0.0 0.0 
1.0 0.0 0.0 
1.0 0.0 0.0 
1.0 0.0 0.0 
1.0 0.0 0.0 
1.0 0.0 0.0 
1.0 0.0 0.0 
1.0 0.0 0.0 
1.0 0.0 0.0 
1.0 0.0 0.0 
1.0 0.0 0.0 
1.0 0.0 0.0 
1.0 0.0 0.0 
1.0 0.0 0.0 
1.0 0.0 0.0 
1.0 0.0 0.0 
1.0 0.0 0.0 
1.0 0.0 0.0 
1.0 0.0 0.0 
1.0 0.0 0.0 
1.0 0.0 0.0 
1.0 0.0 0.0 
1.0 0.0 0.0 
1.0 0.0 0.0 
1.0 0.0 0.0 
1.0 0.0 0.0 
1.0 0.0 0.0 
1.0 0.0 0.0 
1.0 0.0 0.0 
1.0 0.0 0.0 
1.0 0.0 0.0 
1.0 0.0 0.0 
1.0 0.0 0.0 
1.0 0.0 0.0 
1.0 0.0 0.0 
1.0 0.0 0.0 
1.0 0.0 0.0 
1.0 0.0 0.0 
1.0 0.0 0.0 
1.0 0.0 0.0 
0.0 1.0 0.0 
0.0 1.0 0.0 
0.0 1.0 0.0 
0.0 1.0 0.0 
0.0 1.0 0.0 
0.0 1.0 0.0 
0.0 1.0 0.0 
0.0 1.0 0.0 
0.0 1.0 0.0 
0.0 1.0 0.0 
0.0 1.0 0.0 
0.0 1.0 0.0 
0.0 1.0 0.0 
0.0 1.0 0.0 
0.0 1.0 0.0 
0.0 1.0 0.0 
0.0 1.0 0.0 
0.0 1.0 0.0 
0.0 1.0 0.0 
0.0 1.0 0.0 
0.0 1.0 0.0 
0.0 1.0 0.0 
0.0 1.0 0.0 
0.0 1.0 0.0 
0.0 1.0 0.0 
0.0 1.0 0.0 
0.0 1.0 0.0 
0.0 1.0 0.0 
0.0 1.0 0.0 
0.0 1.0 0.0 
0.0 1.0 0.0 
0.0 1.0 0.0 
0.0 1.0 0.0 
0.0 1.0 0.0 
0.0 1.0 0.0 
0.0 1.0 0.0 
0.0 1.0 0.0 
0.0 1.0 0.0 
0.0 1.0 0.0 
0.0 1.0 0.0 
0.0 1.0 0.0 
0.0 1.0 0.0 
0.0 1.0 0.0 
0.0 1.0 0.0 
0.0 1.0 0.0 
0.0 1.0 0.0 
0.0 1.0 0.0 
0.0 1.0 0.0 
0.0 1.0 0.0 
0.0 1.0 0.0 
0.0 0.0 1.0 
0.0 0.0 1.0 
0.0 0.0 1.0 
0.0 0.0 1.0 
0.0 0.0 1.0 
0.0 0.0 1.0 
0.0 0.0 1.0 
0.0 0.0 1.0 
0.0 0.0 1.0 
0.0 0.0 1.0 
0.0 0.0 1.0 
0.0 0.0 1.0 
0.0 0.0 1.0 
0.0 0.0 1.0 
0.0 0.0 1.0 
0.0 0.0 1.0 
0.0 0.0 1.0 
0.0 0.0 1.0 
0.0 0.0 1.0 
0.0 0.0 1.0 
0.0 0.0 1.0 
0.0 0.0 1.0 
0.0 0.0 1.0 
0.0 0.0 1.0 
0.0 0.0 1.0 
0.0 0.0 1.0 
0.0 0.0 1.0 
0.0 0.0 1.0 
0.0 0.0 1.0 
0.0 0.0 1.0 
0.0 0.0 1.0 
0.0 0.0 1.0 
0.0 0.0 1.0 
0.0 0.0 1.0 
0.0 0.0 1.0 
0.0 0.0 1.0 
0.0 0.0 1.0 
0.0 0.0 1.0 
0.0 0.0 1.0 
0.0 0.0 1.0 
0.0 0.0 1.0 
0.0 0.0 1.0 
0.0 0.0 1.0 
0.0 0.0 1.0 
0.0 0.0 1.0 
0.0 0.0 1.0 
0.0 0.0 1.0 
0.0 0.0 1.0 
0.0 0.0 1.0 
0.0 0.0 1.0 
Learning : 0.699999988079071
Momentum : 0.9
Epoch: 100, Error: 0.015977271957928006
Epoch: 200, Error: 0.014770487713529828
Epoch: 300, Error: 0.011856014401063734
Epoch: 400, Error: 0.012461881028256886
Epoch: 500, Error: 0.012858103912222614
Epoch: 600, Error: 0.012537310219744717
Epoch: 700, Error: 0.011973770580989284
Epoch: 800, Error: 0.011922300096749678
Epoch: 900, Error: 0.011847156615199292
Epoch: 1000, Error: 0.013702495313209925
Epoch: 1100, Error: 0.011952836618277769
Epoch: 1200, Error: 0.011846794430786836
Epoch: 1300, Error: 0.01256708584929274
Epoch: 1400, Error: 0.012343704732264206
Epoch: 1500, Error: 0.014501262558789509
Epoch: 1600, Error: 0.011689782409323874
Epoch: 1700, Error: 0.011654651250004595
Epoch: 1800, Error: 0.011584843360675544
Epoch: 1900, Error: 0.01185922664768227
Epoch: 2000, Error: 0.013270665640177268
Epoch: 2100, Error: 0.011536535008817999
Epoch: 2200, Error: 0.010939409659439969
Epoch: 2300, Error: 0.0107100914119641
Epoch: 2400, Error: 0.010855666004464514
Epoch: 2500, Error: 0.010171655990704931
Epoch: 2600, Error: 0.011279351139093367
Epoch: 2700, Error: 0.010039389189961225
Epoch: 2800, Error: 0.009932915502186182
Epoch: 2900, Error: 0.009675585929123397
Epoch: 3000, Error: 0.009158388057149658
Epoch: 3100, Error: 0.007469423815543983
Epoch: 3200, Error: 0.00645885182838585
Epoch: 3300, Error: 0.00570194675296153
Epoch: 3400, Error: 0.00543037357914596
Epoch: 3500, Error: 0.0054247051349341
Epoch: 3600, Error: 0.005313175301699069
Epoch: 3700, Error: 0.005315449575274328
Epoch: 3800, Error: 0.005293132749553015
Epoch: 3900, Error: 0.005292128589916236
Epoch: 4000, Error: 0.005368382388107229
Epoch: 4100, Error: 0.005336872182513423
Epoch: 4200, Error: 0.0053104822622102405
Epoch: 4300, Error: 0.005295918429673096
Epoch: 4400, Error: 0.005298395094641628
Epoch: 4500, Error: 0.005276126093216243
Epoch: 4600, Error: 0.005278540235643536
Epoch: 4700, Error: 0.0052718307264411745
Epoch: 4800, Error: 0.00518640356849341
Epoch: 4900, Error: 0.005076403569032045
Epoch: 5000, Error: 0.005044209777180781
Epoch: 5100, Error: 0.005084846498913932
Epoch: 5200, Error: 0.0052094866975903485
Epoch: 5300, Error: 0.005334765558643098
Epoch: 5400, Error: 0.005526629941289414
Epoch: 5500, Error: 0.005132618397618432
Epoch: 5600, Error: 0.005157704965034491
Epoch: 5700, Error: 0.004987366283542597
Epoch: 5800, Error: 0.005205669252836666
Epoch: 5900, Error: 0.005362545914481857
Epoch: 6000, Error: 0.005298210950938461
Epoch: 6100, Error: 0.004745060645625895
Epoch: 6200, Error: 0.0048392267039845
Epoch: 6300, Error: 0.004404203215008089
Epoch: 6400, Error: 0.004790561993575194
Epoch: 6500, Error: 0.0042884347065567695
Epoch: 6600, Error: 0.0041327839241896815
Epoch: 6700, Error: 0.008120104086505556
Epoch: 6800, Error: 0.004621988100497138
Epoch: 6900, Error: 0.009841728743686419
Epoch: 7000, Error: 0.004808603622766042
Epoch: 7100, Error: 0.0033049188588497804
Epoch: 7200, Error: 0.009760197522086645
Epoch: 7300, Error: 0.0032062722308724054
Epoch: 7400, Error: 0.003915152609601672
Epoch: 7500, Error: 0.0028710150665786373
Epoch: 7600, Error: 0.00477205904009883
Epoch: 7700, Error: 0.008016307780730389
Epoch: 7800, Error: 0.007574878046031771
Epoch: 7900, Error: 0.007607045456769373
Epoch: 8000, Error: 0.003061670552168168
Epoch: 8100, Error: 0.001945121379044758
Epoch: 8200, Error: 0.003772898670278442
Epoch: 8300, Error: 0.006497057925208264
Epoch: 8400, Error: 0.004753934275294261
Epoch: 8500, Error: 0.004668869624297558
Epoch: 8600, Error: 0.006447879868588221
Epoch: 8700, Error: 0.003400424499941588
Epoch: 8800, Error: 0.002057767253362309
Epoch: 8900, Error: 0.005314551661007015
Epoch: 9000, Error: 0.0016664252310970718
Epoch: 9100, Error: 0.0012101724624142586
Epoch: 9200, Error: 0.0012293930987497433
Epoch: 9300, Error: 0.0013233697736400626
Epoch: 9400, Error: 0.0012608633789327208
Epoch: 9500, Error: 0.0011408022988924518
Epoch: 9600, Error: 0.0011466572309165863
Epoch: 9700, Error: 0.0011050297775597117
Epoch: 9800, Error: 0.0012172923184288291
Epoch: 9900, Error: 0.0012080986651804369
Epoch: 10000, Error: 0.001103384608174506
Epoch: 10100, Error: 0.0010651832789098838
Epoch: 10200, Error: 0.0010631560633877085
Epoch: 10300, Error: 0.001046728778773771
Epoch: 10400, Error: 0.0010525089866057174
Epoch: 10500, Error: 0.0010675197511563078
Epoch: 10600, Error: 0.0010517909818385496
Epoch: 10700, Error: 0.0010576680532358152
Epoch: 10800, Error: 0.0010399181927209084
Epoch: 10900, Error: 0.0010222395979851385
Epoch: 11000, Error: 0.0010285129809336354
Epoch: 11100, Error: 0.0010474651792210363
Epoch: 11200, Error: 0.0010101168606638435
Epoch: 11300, Error: 9.962357243241007E-4
Finished
