Input Patterns
0.224 0.624 0.067 0.043 
0.11 0.502 0.051 0.043 
0.196 0.667 0.067 0.043 
0.055 0.584 0.067 0.082 
0.027 0.376 0.067 0.043 
0.306 0.71 0.086 0.043 
0.137 0.416 0.067 0.0 
0.416 0.831 0.035 0.043 
0.306 0.792 0.051 0.125 
0.388 0.749 0.118 0.082 
0.306 0.584 0.118 0.043 
0.082 0.667 0.0 0.043 
0.137 0.584 0.153 0.043 
0.196 0.584 0.102 0.125 
0.251 0.584 0.067 0.043 
0.137 0.459 0.102 0.043 
0.251 0.875 0.086 0.0 
0.165 0.459 0.086 0.043 
0.333 0.624 0.051 0.043 
0.027 0.416 0.051 0.043 
0.196 0.624 0.051 0.082 
0.027 0.502 0.051 0.043 
0.224 0.749 0.153 0.125 
0.224 0.749 0.102 0.043 
0.278 0.71 0.086 0.043 
0.165 0.416 0.067 0.043 
0.082 0.459 0.086 0.043 
0.306 0.792 0.118 0.125 
0.196 0.584 0.086 0.043 
0.165 0.459 0.086 0.0 
0.137 0.584 0.102 0.043 
0.0 0.416 0.016 0.0 
0.388 1.0 0.086 0.125 
0.224 0.624 0.067 0.082 
0.224 0.749 0.086 0.082 
0.224 0.71 0.086 0.125 
0.224 0.541 0.118 0.165 
0.196 0.416 0.102 0.043 
0.251 0.624 0.086 0.043 
0.11 0.502 0.102 0.043 
0.306 0.584 0.086 0.125 
0.333 0.918 0.067 0.043 
0.196 0.502 0.035 0.043 
0.165 0.667 0.067 0.0 
0.224 0.584 0.086 0.043 
0.055 0.125 0.051 0.082 
0.196 0.624 0.102 0.208 
0.137 0.416 0.067 0.082 
0.082 0.502 0.067 0.043 
0.196 0.541 0.067 0.043 
0.749 0.502 0.627 0.541 
0.722 0.459 0.663 0.584 
0.612 0.333 0.612 0.584 
0.557 0.541 0.627 0.624 
0.639 0.376 0.612 0.498 
0.196 0.0 0.424 0.376 
0.471 0.082 0.51 0.376 
0.361 0.376 0.439 0.498 
0.361 0.416 0.592 0.584 
0.529 0.082 0.592 0.584 
0.443 0.502 0.643 0.459 
0.557 0.208 0.663 0.584 
0.584 0.376 0.561 0.498 
0.694 0.333 0.643 0.541 
0.471 0.376 0.592 0.584 
0.333 0.169 0.475 0.416 
0.416 0.29 0.49 0.459 
0.306 0.416 0.592 0.584 
0.667 0.459 0.627 0.584 
0.361 0.416 0.525 0.498 
0.333 0.251 0.576 0.459 
0.416 0.251 0.51 0.459 
0.361 0.29 0.541 0.498 
0.388 0.376 0.541 0.498 
0.224 0.208 0.337 0.416 
0.584 0.502 0.592 0.584 
0.333 0.125 0.51 0.498 
0.388 0.333 0.592 0.498 
0.165 0.169 0.388 0.376 
0.251 0.29 0.49 0.541 
0.443 0.416 0.541 0.584 
0.498 0.376 0.627 0.541 
0.667 0.459 0.576 0.541 
0.416 0.29 0.525 0.376 
0.361 0.208 0.49 0.416 
0.498 0.333 0.51 0.498 
0.498 0.333 0.627 0.459 
0.639 0.416 0.576 0.541 
0.667 0.416 0.678 0.667 
0.388 0.251 0.424 0.376 
0.333 0.169 0.459 0.376 
0.471 0.29 0.694 0.624 
0.471 0.584 0.592 0.624 
0.557 0.125 0.576 0.498 
0.333 0.208 0.51 0.498 
0.498 0.416 0.612 0.541 
0.196 0.125 0.388 0.376 
0.388 0.416 0.541 0.459 
0.529 0.376 0.561 0.498 
0.388 0.333 0.525 0.498 
0.557 0.541 0.847 1.0 
0.776 0.416 0.831 0.831 
0.612 0.416 0.812 0.875 
0.165 0.208 0.592 0.667 
0.667 0.208 0.812 0.71 
0.612 0.502 0.694 0.792 
0.694 0.416 0.761 0.831 
0.416 0.333 0.694 0.957 
0.612 0.416 0.761 0.71 
0.945 0.251 1.0 0.918 
0.722 0.502 0.796 0.918 
0.945 0.333 0.965 0.792 
0.667 0.541 0.796 0.831 
0.529 0.333 0.643 0.71 
0.584 0.333 0.78 0.831 
0.863 0.333 0.863 0.749 
0.584 0.333 0.78 0.875 
0.498 0.251 0.78 0.541 
0.557 0.584 0.78 0.957 
0.471 0.416 0.643 0.71 
0.667 0.459 0.78 0.957 
0.416 0.29 0.694 0.749 
0.667 0.541 0.796 1.0 
0.557 0.208 0.678 0.749 
0.529 0.584 0.745 0.918 
0.416 0.29 0.694 0.749 
0.557 0.376 0.78 0.71 
0.918 0.416 0.949 0.831 
0.835 0.376 0.898 0.71 
0.804 0.667 0.863 1.0 
0.584 0.29 0.729 0.749 
0.388 0.208 0.678 0.792 
0.584 0.502 0.729 0.918 
0.945 0.749 0.965 0.875 
0.471 0.082 0.678 0.584 
0.361 0.333 0.663 0.792 
0.557 0.29 0.663 0.71 
0.804 0.502 0.847 0.71 
0.498 0.416 0.51 0.71 
0.804 0.416 0.812 0.624 
1.0 0.749 0.914 0.792 
0.557 0.333 0.694 0.584 
0.945 0.416 0.863 0.918 
0.584 0.459 0.761 0.71 
0.722 0.459 0.745 0.831 
0.722 0.459 0.694 0.918 
0.694 0.502 0.831 0.918 
0.667 0.416 0.714 0.918 
0.612 0.416 0.714 0.792 
0.443 0.416 0.694 0.71 
Teaching Patterns
1.0 0.0 0.0 
1.0 0.0 0.0 
1.0 0.0 0.0 
1.0 0.0 0.0 
1.0 0.0 0.0 
1.0 0.0 0.0 
1.0 0.0 0.0 
1.0 0.0 0.0 
1.0 0.0 0.0 
1.0 0.0 0.0 
1.0 0.0 0.0 
1.0 0.0 0.0 
1.0 0.0 0.0 
1.0 0.0 0.0 
1.0 0.0 0.0 
1.0 0.0 0.0 
1.0 0.0 0.0 
1.0 0.0 0.0 
1.0 0.0 0.0 
1.0 0.0 0.0 
1.0 0.0 0.0 
1.0 0.0 0.0 
1.0 0.0 0.0 
1.0 0.0 0.0 
1.0 0.0 0.0 
1.0 0.0 0.0 
1.0 0.0 0.0 
1.0 0.0 0.0 
1.0 0.0 0.0 
1.0 0.0 0.0 
1.0 0.0 0.0 
1.0 0.0 0.0 
1.0 0.0 0.0 
1.0 0.0 0.0 
1.0 0.0 0.0 
1.0 0.0 0.0 
1.0 0.0 0.0 
1.0 0.0 0.0 
1.0 0.0 0.0 
1.0 0.0 0.0 
1.0 0.0 0.0 
1.0 0.0 0.0 
1.0 0.0 0.0 
1.0 0.0 0.0 
1.0 0.0 0.0 
1.0 0.0 0.0 
1.0 0.0 0.0 
1.0 0.0 0.0 
1.0 0.0 0.0 
1.0 0.0 0.0 
0.0 1.0 0.0 
0.0 1.0 0.0 
0.0 1.0 0.0 
0.0 1.0 0.0 
0.0 1.0 0.0 
0.0 1.0 0.0 
0.0 1.0 0.0 
0.0 1.0 0.0 
0.0 1.0 0.0 
0.0 1.0 0.0 
0.0 1.0 0.0 
0.0 1.0 0.0 
0.0 1.0 0.0 
0.0 1.0 0.0 
0.0 1.0 0.0 
0.0 1.0 0.0 
0.0 1.0 0.0 
0.0 1.0 0.0 
0.0 1.0 0.0 
0.0 1.0 0.0 
0.0 1.0 0.0 
0.0 1.0 0.0 
0.0 1.0 0.0 
0.0 1.0 0.0 
0.0 1.0 0.0 
0.0 1.0 0.0 
0.0 1.0 0.0 
0.0 1.0 0.0 
0.0 1.0 0.0 
0.0 1.0 0.0 
0.0 1.0 0.0 
0.0 1.0 0.0 
0.0 1.0 0.0 
0.0 1.0 0.0 
0.0 1.0 0.0 
0.0 1.0 0.0 
0.0 1.0 0.0 
0.0 1.0 0.0 
0.0 1.0 0.0 
0.0 1.0 0.0 
0.0 1.0 0.0 
0.0 1.0 0.0 
0.0 1.0 0.0 
0.0 1.0 0.0 
0.0 1.0 0.0 
0.0 1.0 0.0 
0.0 1.0 0.0 
0.0 1.0 0.0 
0.0 1.0 0.0 
0.0 1.0 0.0 
0.0 0.0 1.0 
0.0 0.0 1.0 
0.0 0.0 1.0 
0.0 0.0 1.0 
0.0 0.0 1.0 
0.0 0.0 1.0 
0.0 0.0 1.0 
0.0 0.0 1.0 
0.0 0.0 1.0 
0.0 0.0 1.0 
0.0 0.0 1.0 
0.0 0.0 1.0 
0.0 0.0 1.0 
0.0 0.0 1.0 
0.0 0.0 1.0 
0.0 0.0 1.0 
0.0 0.0 1.0 
0.0 0.0 1.0 
0.0 0.0 1.0 
0.0 0.0 1.0 
0.0 0.0 1.0 
0.0 0.0 1.0 
0.0 0.0 1.0 
0.0 0.0 1.0 
0.0 0.0 1.0 
0.0 0.0 1.0 
0.0 0.0 1.0 
0.0 0.0 1.0 
0.0 0.0 1.0 
0.0 0.0 1.0 
0.0 0.0 1.0 
0.0 0.0 1.0 
0.0 0.0 1.0 
0.0 0.0 1.0 
0.0 0.0 1.0 
0.0 0.0 1.0 
0.0 0.0 1.0 
0.0 0.0 1.0 
0.0 0.0 1.0 
0.0 0.0 1.0 
0.0 0.0 1.0 
0.0 0.0 1.0 
0.0 0.0 1.0 
0.0 0.0 1.0 
0.0 0.0 1.0 
0.0 0.0 1.0 
0.0 0.0 1.0 
0.0 0.0 1.0 
0.0 0.0 1.0 
0.0 0.0 1.0 
Learning : 0.699999988079071
Momentum : 0.9
Epoch: 100, Error: 0.012513535807663035
Epoch: 200, Error: 0.017383989581339108
Epoch: 300, Error: 0.012052997698182742
Epoch: 400, Error: 0.012899328424684662
Epoch: 500, Error: 0.012290163005874977
Epoch: 600, Error: 0.013813070160015756
Epoch: 700, Error: 0.012252660625337098
Epoch: 800, Error: 0.014081841052454764
Epoch: 900, Error: 0.012958301496584213
Epoch: 1000, Error: 0.012365858230832681
Epoch: 1100, Error: 0.013971543862705233
Epoch: 1200, Error: 0.012077470955629797
Epoch: 1300, Error: 0.012387635592150911
Epoch: 1400, Error: 0.012560499684060918
Epoch: 1500, Error: 0.012258049637531063
Epoch: 1600, Error: 0.011910007808341968
Epoch: 1700, Error: 0.011855371844344889
Epoch: 1800, Error: 0.011803354262740906
Epoch: 1900, Error: 0.01203414046116975
Epoch: 2000, Error: 0.01163228220306565
Epoch: 2100, Error: 0.011919332025047875
Epoch: 2200, Error: 0.011433609473487021
Epoch: 2300, Error: 0.01180333998022816
Epoch: 2400, Error: 0.012491745960247663
Epoch: 2500, Error: 0.010021150776736619
Epoch: 2600, Error: 0.01037754846997775
Epoch: 2700, Error: 0.008025257001067985
Epoch: 2800, Error: 0.007738329963678932
Epoch: 2900, Error: 0.007521176862599453
Epoch: 3000, Error: 0.0074147988397075685
Epoch: 3100, Error: 0.0073076545555058586
Epoch: 3200, Error: 0.0075338362251667745
Epoch: 3300, Error: 0.006851807417384183
Epoch: 3400, Error: 0.006792108656788426
Epoch: 3500, Error: 0.006847616266471409
Epoch: 3600, Error: 0.007052673460745866
Epoch: 3700, Error: 0.006627836494714627
Epoch: 3800, Error: 0.00654475082839307
Epoch: 3900, Error: 0.006132012011463755
Epoch: 4000, Error: 0.006587760801894425
Epoch: 4100, Error: 0.0062791309733872085
Epoch: 4200, Error: 0.006543929433941248
Epoch: 4300, Error: 0.005641029468388309
Epoch: 4400, Error: 0.005654065527130724
Epoch: 4500, Error: 0.005643345870041745
Epoch: 4600, Error: 0.006270489266850382
Epoch: 4700, Error: 0.005657096814524471
Epoch: 4800, Error: 0.005603909214248773
Epoch: 4900, Error: 0.005661857139465148
Epoch: 5000, Error: 0.0057333076189000996
Epoch: 5100, Error: 0.005428834701747766
Epoch: 5200, Error: 0.0054833187962292146
Epoch: 5300, Error: 0.005411570768831807
Epoch: 5400, Error: 0.005411184905527341
Epoch: 5500, Error: 0.005398354395936703
Epoch: 5600, Error: 0.00540661312808864
Epoch: 5700, Error: 0.00536260905007967
Epoch: 5800, Error: 0.005248633234028194
Epoch: 5900, Error: 0.005456592529766482
Epoch: 6000, Error: 0.005273432948878805
Epoch: 6100, Error: 0.0053266574690148125
Epoch: 6200, Error: 0.0054210655518507084
Epoch: 6300, Error: 0.005342205670558079
Epoch: 6400, Error: 0.0052977627029552245
Epoch: 6500, Error: 0.0052667492825725845
Epoch: 6600, Error: 0.0054908825333032305
Epoch: 6700, Error: 0.005469846239208228
Epoch: 6800, Error: 0.005585782305129423
Epoch: 6900, Error: 0.005390874213331
Epoch: 7000, Error: 0.005371200723329508
Epoch: 7100, Error: 0.005369150126567107
Epoch: 7200, Error: 0.005257494308279614
Epoch: 7300, Error: 0.005334976469968446
Epoch: 7400, Error: 0.005368944000162968
Epoch: 7500, Error: 0.005314204320539582
Epoch: 7600, Error: 0.0053592624327592495
Epoch: 7700, Error: 0.005393094752417308
Epoch: 7800, Error: 0.005388497057692638
Epoch: 7900, Error: 0.005281792173241123
Epoch: 8000, Error: 0.00526794339601922
Epoch: 8100, Error: 0.005730022361796076
Epoch: 8200, Error: 0.005292455336032732
Epoch: 8300, Error: 0.005387295607069135
Epoch: 8400, Error: 0.0054684286114559544
Epoch: 8500, Error: 0.00533804150966513
Epoch: 8600, Error: 0.00518633591491153
Epoch: 8700, Error: 0.005357707272587352
Epoch: 8800, Error: 0.005546620786017456
Epoch: 8900, Error: 0.005319663644800577
Epoch: 9000, Error: 0.005297811827186689
Epoch: 9100, Error: 0.0052904287229606954
Epoch: 9200, Error: 0.005268430693960689
Epoch: 9300, Error: 0.005268293929503265
Epoch: 9400, Error: 0.0052347657552464085
Epoch: 9500, Error: 0.005594285082886104
Epoch: 9600, Error: 0.005411961203761091
Epoch: 9700, Error: 0.005248442258303313
Epoch: 9800, Error: 0.00526365896006169
Epoch: 9900, Error: 0.005229727675807087
Epoch: 10000, Error: 0.005175066941704058
Epoch: 10100, Error: 0.005214712660043605
Epoch: 10200, Error: 0.005183818360053387
Epoch: 10300, Error: 0.005138570973807815
Epoch: 10400, Error: 0.005111643521231178
Epoch: 10500, Error: 0.005516962314711232
Epoch: 10600, Error: 0.0050620860272190165
Epoch: 10700, Error: 0.005062949450597856
Epoch: 10800, Error: 0.005041556789944269
Epoch: 10900, Error: 0.005237640330196793
Epoch: 11000, Error: 0.0050788722962707734
Epoch: 11100, Error: 0.004967649047548617
Epoch: 11200, Error: 0.004947973968445267
Epoch: 11300, Error: 0.004967410081196142
Epoch: 11400, Error: 0.005001335170946087
Epoch: 11500, Error: 0.004771933450809463
Epoch: 11600, Error: 0.004628471385158804
Epoch: 11700, Error: 0.004413230666190999
Epoch: 11800, Error: 0.004623504667283227
Epoch: 11900, Error: 0.005134481579063077
Epoch: 12000, Error: 0.003956637577720879
Epoch: 12100, Error: 0.0032350391507787886
Epoch: 12200, Error: 0.0028110881034661478
Epoch: 12300, Error: 0.005175694395607503
Epoch: 12400, Error: 0.002383689078649529
Epoch: 12500, Error: 0.0021217453898548814
Epoch: 12600, Error: 0.0024262405916997353
Epoch: 12700, Error: 0.002088722126035972
Epoch: 12800, Error: 0.0019192070128556463
Epoch: 12900, Error: 0.0015485624687786104
Epoch: 13000, Error: 0.0013800733907140092
Epoch: 13100, Error: 0.0014260859278175642
Epoch: 13200, Error: 0.0013605368038008931
Epoch: 13300, Error: 0.0014645960754065058
Epoch: 13400, Error: 0.0012221852646929741
Epoch: 13500, Error: 0.00121079005906055
Epoch: 13600, Error: 0.0012005031164106035
Epoch: 13700, Error: 0.001188513164721052
Epoch: 13800, Error: 0.0012187443615274656
Epoch: 13900, Error: 0.0011614401142620518
Epoch: 14000, Error: 0.001161434696337667
Epoch: 14100, Error: 0.0011464467566176847
Epoch: 14200, Error: 0.001170546140048767
Epoch: 14300, Error: 0.0011684088947677795
Epoch: 14400, Error: 0.0011748791470063392
Epoch: 14500, Error: 0.0011306756035565561
Epoch: 14600, Error: 0.0011430350229530459
Epoch: 14700, Error: 0.0011533464580930383
Epoch: 14800, Error: 0.0011198648394343301
Epoch: 14900, Error: 0.0011061128233036096
Finished
