Input Patterns
0.224 0.624 0.067 0.043 
0.11 0.502 0.051 0.043 
0.196 0.667 0.067 0.043 
0.055 0.584 0.067 0.082 
0.027 0.376 0.067 0.043 
0.306 0.71 0.086 0.043 
0.137 0.416 0.067 0.0 
0.416 0.831 0.035 0.043 
0.306 0.792 0.051 0.125 
0.388 0.749 0.118 0.082 
0.306 0.584 0.118 0.043 
0.082 0.667 0.0 0.043 
0.137 0.584 0.153 0.043 
0.196 0.584 0.102 0.125 
0.251 0.584 0.067 0.043 
0.137 0.459 0.102 0.043 
0.251 0.875 0.086 0.0 
0.165 0.459 0.086 0.043 
0.333 0.624 0.051 0.043 
0.027 0.416 0.051 0.043 
0.196 0.624 0.051 0.082 
0.027 0.502 0.051 0.043 
0.224 0.749 0.153 0.125 
0.224 0.749 0.102 0.043 
0.278 0.71 0.086 0.043 
0.165 0.416 0.067 0.043 
0.082 0.459 0.086 0.043 
0.306 0.792 0.118 0.125 
0.196 0.584 0.086 0.043 
0.165 0.459 0.086 0.0 
0.137 0.584 0.102 0.043 
0.0 0.416 0.016 0.0 
0.388 1.0 0.086 0.125 
0.224 0.624 0.067 0.082 
0.224 0.749 0.086 0.082 
0.224 0.71 0.086 0.125 
0.224 0.541 0.118 0.165 
0.196 0.416 0.102 0.043 
0.251 0.624 0.086 0.043 
0.11 0.502 0.102 0.043 
0.306 0.584 0.086 0.125 
0.333 0.918 0.067 0.043 
0.196 0.502 0.035 0.043 
0.165 0.667 0.067 0.0 
0.224 0.584 0.086 0.043 
0.055 0.125 0.051 0.082 
0.196 0.624 0.102 0.208 
0.137 0.416 0.067 0.082 
0.082 0.502 0.067 0.043 
0.196 0.541 0.067 0.043 
0.749 0.502 0.627 0.541 
0.722 0.459 0.663 0.584 
0.612 0.333 0.612 0.584 
0.557 0.541 0.627 0.624 
0.639 0.376 0.612 0.498 
0.196 0.0 0.424 0.376 
0.471 0.082 0.51 0.376 
0.361 0.376 0.439 0.498 
0.361 0.416 0.592 0.584 
0.529 0.082 0.592 0.584 
0.443 0.502 0.643 0.459 
0.557 0.208 0.663 0.584 
0.584 0.376 0.561 0.498 
0.694 0.333 0.643 0.541 
0.471 0.376 0.592 0.584 
0.333 0.169 0.475 0.416 
0.416 0.29 0.49 0.459 
0.306 0.416 0.592 0.584 
0.667 0.459 0.627 0.584 
0.361 0.416 0.525 0.498 
0.333 0.251 0.576 0.459 
0.416 0.251 0.51 0.459 
0.361 0.29 0.541 0.498 
0.388 0.376 0.541 0.498 
0.224 0.208 0.337 0.416 
0.584 0.502 0.592 0.584 
0.333 0.125 0.51 0.498 
0.388 0.333 0.592 0.498 
0.165 0.169 0.388 0.376 
0.251 0.29 0.49 0.541 
0.443 0.416 0.541 0.584 
0.498 0.376 0.627 0.541 
0.667 0.459 0.576 0.541 
0.416 0.29 0.525 0.376 
0.361 0.208 0.49 0.416 
0.498 0.333 0.51 0.498 
0.498 0.333 0.627 0.459 
0.639 0.416 0.576 0.541 
0.667 0.416 0.678 0.667 
0.388 0.251 0.424 0.376 
0.333 0.169 0.459 0.376 
0.471 0.29 0.694 0.624 
0.471 0.584 0.592 0.624 
0.557 0.125 0.576 0.498 
0.333 0.208 0.51 0.498 
0.498 0.416 0.612 0.541 
0.196 0.125 0.388 0.376 
0.388 0.416 0.541 0.459 
0.529 0.376 0.561 0.498 
0.388 0.333 0.525 0.498 
0.557 0.541 0.847 1.0 
0.776 0.416 0.831 0.831 
0.612 0.416 0.812 0.875 
0.165 0.208 0.592 0.667 
0.667 0.208 0.812 0.71 
0.612 0.502 0.694 0.792 
0.694 0.416 0.761 0.831 
0.416 0.333 0.694 0.957 
0.612 0.416 0.761 0.71 
0.945 0.251 1.0 0.918 
0.722 0.502 0.796 0.918 
0.945 0.333 0.965 0.792 
0.667 0.541 0.796 0.831 
0.529 0.333 0.643 0.71 
0.584 0.333 0.78 0.831 
0.863 0.333 0.863 0.749 
0.584 0.333 0.78 0.875 
0.498 0.251 0.78 0.541 
0.557 0.584 0.78 0.957 
0.471 0.416 0.643 0.71 
0.667 0.459 0.78 0.957 
0.416 0.29 0.694 0.749 
0.667 0.541 0.796 1.0 
0.557 0.208 0.678 0.749 
0.529 0.584 0.745 0.918 
0.416 0.29 0.694 0.749 
0.557 0.376 0.78 0.71 
0.918 0.416 0.949 0.831 
0.835 0.376 0.898 0.71 
0.804 0.667 0.863 1.0 
0.584 0.29 0.729 0.749 
0.388 0.208 0.678 0.792 
0.584 0.502 0.729 0.918 
0.945 0.749 0.965 0.875 
0.471 0.082 0.678 0.584 
0.361 0.333 0.663 0.792 
0.557 0.29 0.663 0.71 
0.804 0.502 0.847 0.71 
0.498 0.416 0.51 0.71 
0.804 0.416 0.812 0.624 
1.0 0.749 0.914 0.792 
0.557 0.333 0.694 0.584 
0.945 0.416 0.863 0.918 
0.584 0.459 0.761 0.71 
0.722 0.459 0.745 0.831 
0.722 0.459 0.694 0.918 
0.694 0.502 0.831 0.918 
0.667 0.416 0.714 0.918 
0.612 0.416 0.714 0.792 
0.443 0.416 0.694 0.71 
Teaching Patterns
1.0 0.0 0.0 
1.0 0.0 0.0 
1.0 0.0 0.0 
1.0 0.0 0.0 
1.0 0.0 0.0 
1.0 0.0 0.0 
1.0 0.0 0.0 
1.0 0.0 0.0 
1.0 0.0 0.0 
1.0 0.0 0.0 
1.0 0.0 0.0 
1.0 0.0 0.0 
1.0 0.0 0.0 
1.0 0.0 0.0 
1.0 0.0 0.0 
1.0 0.0 0.0 
1.0 0.0 0.0 
1.0 0.0 0.0 
1.0 0.0 0.0 
1.0 0.0 0.0 
1.0 0.0 0.0 
1.0 0.0 0.0 
1.0 0.0 0.0 
1.0 0.0 0.0 
1.0 0.0 0.0 
1.0 0.0 0.0 
1.0 0.0 0.0 
1.0 0.0 0.0 
1.0 0.0 0.0 
1.0 0.0 0.0 
1.0 0.0 0.0 
1.0 0.0 0.0 
1.0 0.0 0.0 
1.0 0.0 0.0 
1.0 0.0 0.0 
1.0 0.0 0.0 
1.0 0.0 0.0 
1.0 0.0 0.0 
1.0 0.0 0.0 
1.0 0.0 0.0 
1.0 0.0 0.0 
1.0 0.0 0.0 
1.0 0.0 0.0 
1.0 0.0 0.0 
1.0 0.0 0.0 
1.0 0.0 0.0 
1.0 0.0 0.0 
1.0 0.0 0.0 
1.0 0.0 0.0 
1.0 0.0 0.0 
0.0 1.0 0.0 
0.0 1.0 0.0 
0.0 1.0 0.0 
0.0 1.0 0.0 
0.0 1.0 0.0 
0.0 1.0 0.0 
0.0 1.0 0.0 
0.0 1.0 0.0 
0.0 1.0 0.0 
0.0 1.0 0.0 
0.0 1.0 0.0 
0.0 1.0 0.0 
0.0 1.0 0.0 
0.0 1.0 0.0 
0.0 1.0 0.0 
0.0 1.0 0.0 
0.0 1.0 0.0 
0.0 1.0 0.0 
0.0 1.0 0.0 
0.0 1.0 0.0 
0.0 1.0 0.0 
0.0 1.0 0.0 
0.0 1.0 0.0 
0.0 1.0 0.0 
0.0 1.0 0.0 
0.0 1.0 0.0 
0.0 1.0 0.0 
0.0 1.0 0.0 
0.0 1.0 0.0 
0.0 1.0 0.0 
0.0 1.0 0.0 
0.0 1.0 0.0 
0.0 1.0 0.0 
0.0 1.0 0.0 
0.0 1.0 0.0 
0.0 1.0 0.0 
0.0 1.0 0.0 
0.0 1.0 0.0 
0.0 1.0 0.0 
0.0 1.0 0.0 
0.0 1.0 0.0 
0.0 1.0 0.0 
0.0 1.0 0.0 
0.0 1.0 0.0 
0.0 1.0 0.0 
0.0 1.0 0.0 
0.0 1.0 0.0 
0.0 1.0 0.0 
0.0 1.0 0.0 
0.0 1.0 0.0 
0.0 0.0 1.0 
0.0 0.0 1.0 
0.0 0.0 1.0 
0.0 0.0 1.0 
0.0 0.0 1.0 
0.0 0.0 1.0 
0.0 0.0 1.0 
0.0 0.0 1.0 
0.0 0.0 1.0 
0.0 0.0 1.0 
0.0 0.0 1.0 
0.0 0.0 1.0 
0.0 0.0 1.0 
0.0 0.0 1.0 
0.0 0.0 1.0 
0.0 0.0 1.0 
0.0 0.0 1.0 
0.0 0.0 1.0 
0.0 0.0 1.0 
0.0 0.0 1.0 
0.0 0.0 1.0 
0.0 0.0 1.0 
0.0 0.0 1.0 
0.0 0.0 1.0 
0.0 0.0 1.0 
0.0 0.0 1.0 
0.0 0.0 1.0 
0.0 0.0 1.0 
0.0 0.0 1.0 
0.0 0.0 1.0 
0.0 0.0 1.0 
0.0 0.0 1.0 
0.0 0.0 1.0 
0.0 0.0 1.0 
0.0 0.0 1.0 
0.0 0.0 1.0 
0.0 0.0 1.0 
0.0 0.0 1.0 
0.0 0.0 1.0 
0.0 0.0 1.0 
0.0 0.0 1.0 
0.0 0.0 1.0 
0.0 0.0 1.0 
0.0 0.0 1.0 
0.0 0.0 1.0 
0.0 0.0 1.0 
0.0 0.0 1.0 
0.0 0.0 1.0 
0.0 0.0 1.0 
0.0 0.0 1.0 
Learning : 0.699999988079071
Momentum : 0.9
Epoch: 100, Error: 0.012456081764195227
Epoch: 200, Error: 0.01844928287334837
Epoch: 300, Error: 0.012011730379753545
Epoch: 400, Error: 0.013249284389359522
Epoch: 500, Error: 0.01180395113914158
Epoch: 600, Error: 0.01322471339981479
Epoch: 700, Error: 0.012019143964738797
Epoch: 800, Error: 0.011709573691686372
Epoch: 900, Error: 0.011518471083332756
Epoch: 1000, Error: 0.012315253405252408
Epoch: 1100, Error: 0.011654792970801789
Epoch: 1200, Error: 0.011406089077390675
Epoch: 1300, Error: 0.011593153583217745
Epoch: 1400, Error: 0.011401183944666264
Epoch: 1500, Error: 0.011919004738481967
Epoch: 1600, Error: 0.01184648037264671
Epoch: 1700, Error: 0.01146304544081863
Epoch: 1800, Error: 0.010518206951219139
Epoch: 1900, Error: 0.011651025020264294
Epoch: 2000, Error: 0.012688124865806965
Epoch: 2100, Error: 0.009949872288339894
Epoch: 2200, Error: 0.009879881724382686
Epoch: 2300, Error: 0.009389660097429349
Epoch: 2400, Error: 0.008713961643143446
Epoch: 2500, Error: 0.008839876008985906
Epoch: 2600, Error: 0.007264524725214002
Epoch: 2700, Error: 0.007879872584721375
Epoch: 2800, Error: 0.005986973906548183
Epoch: 2900, Error: 0.00624644312653984
Epoch: 3000, Error: 0.006037222693221839
Epoch: 3100, Error: 0.005224598272952477
Epoch: 3200, Error: 0.005252213269216435
Epoch: 3300, Error: 0.005315342323884947
Epoch: 3400, Error: 0.005136488901511324
Epoch: 3500, Error: 0.005135445592658992
Epoch: 3600, Error: 0.0051740670615395366
Epoch: 3700, Error: 0.005053330022353649
Epoch: 3800, Error: 0.005124841441873979
Epoch: 3900, Error: 0.005084201314159172
Epoch: 4000, Error: 0.005068475667601512
Epoch: 4100, Error: 0.005062460358188593
Epoch: 4200, Error: 0.005075598639914793
Epoch: 4300, Error: 0.005089943225718565
Epoch: 4400, Error: 0.005072725159217889
Epoch: 4500, Error: 0.0050045427549321436
Epoch: 4600, Error: 0.005037522539887055
Epoch: 4700, Error: 0.005018092974413451
Epoch: 4800, Error: 0.004950352213208895
Epoch: 4900, Error: 0.0049153233662416786
Epoch: 5000, Error: 0.0048913037702026105
Epoch: 5100, Error: 0.004870035605460474
Epoch: 5200, Error: 0.004887214113366142
Epoch: 5300, Error: 0.004805420211553378
Epoch: 5400, Error: 0.0048599559961085064
Epoch: 5500, Error: 0.00483685142978865
Epoch: 5600, Error: 0.004823780743750054
Epoch: 5700, Error: 0.004722271269401916
Epoch: 5800, Error: 0.004679657082766306
Epoch: 5900, Error: 0.004651956352792954
Epoch: 6000, Error: 0.004725829368194533
Epoch: 6100, Error: 0.004778930374120047
Epoch: 6200, Error: 0.004658752027377562
Epoch: 6300, Error: 0.004504590569871673
Epoch: 6400, Error: 0.004443797544885991
Epoch: 6500, Error: 0.00442076330640425
Epoch: 6600, Error: 0.004359637590982186
Epoch: 6700, Error: 0.004224156760067701
Epoch: 6800, Error: 0.0044304520185436775
Epoch: 6900, Error: 0.004168924321460115
Epoch: 7000, Error: 0.004390880207552422
Epoch: 7100, Error: 0.003968148277937286
Epoch: 7200, Error: 0.00374822635251175
Epoch: 7300, Error: 0.0038571780060694958
Epoch: 7400, Error: 0.00448503643677716
Epoch: 7500, Error: 0.0043719663973565415
Epoch: 7600, Error: 0.0044520035348241714
Epoch: 7700, Error: 0.003945978962642651
Epoch: 7800, Error: 0.003519814941413764
Epoch: 7900, Error: 0.005065880676015422
Epoch: 8000, Error: 0.002976430025396597
Epoch: 8100, Error: 0.003782405259637148
Epoch: 8200, Error: 0.002417103680062175
Epoch: 8300, Error: 0.00233281654158867
Epoch: 8400, Error: 0.003983437822384288
Epoch: 8500, Error: 0.00578481091384669
Epoch: 8600, Error: 0.0038024622512644966
Epoch: 8700, Error: 0.0026751704681715212
Epoch: 8800, Error: 0.0030229131386738228
Epoch: 8900, Error: 0.003818949930098788
Epoch: 9000, Error: 0.0026202315595433346
Epoch: 9100, Error: 0.0033489466847343983
Epoch: 9200, Error: 0.0024699154589500503
Epoch: 9300, Error: 0.0013804335073397238
Epoch: 9400, Error: 0.0027694894657034944
Epoch: 9500, Error: 0.0014994206630961368
Epoch: 9600, Error: 0.0039382949967578925
Epoch: 9700, Error: 0.0021552587693793876
Epoch: 9800, Error: 0.002031254630434749
Epoch: 9900, Error: 0.0023199818758327024
Epoch: 10000, Error: 0.0024303813753879253
Epoch: 10100, Error: 0.0014217805708963748
Epoch: 10200, Error: 0.0012827986307311918
Epoch: 10300, Error: 0.0011989653238080858
Epoch: 10400, Error: 0.004856515882538099
Epoch: 10500, Error: 0.0011475967747910571
Epoch: 10600, Error: 0.0012340805122244948
Epoch: 10700, Error: 0.0012047564029539222
Epoch: 10800, Error: 0.001214762187966045
Epoch: 10900, Error: 0.0011979557052499716
Epoch: 11000, Error: 0.0011623418377916604
Epoch: 11100, Error: 0.001148274237604394
Epoch: 11200, Error: 0.0011132713778760491
Epoch: 11300, Error: 0.0011179064731409423
Epoch: 11400, Error: 0.0011360748225730075
Epoch: 11500, Error: 0.0011140123344272892
Epoch: 11600, Error: 0.0010999838942667192
Epoch: 11700, Error: 0.0010808778263181422
Epoch: 11800, Error: 0.0010524644198495775
Epoch: 11900, Error: 0.001030528372063856
Epoch: 12000, Error: 0.0010303535765202238
Epoch: 12100, Error: 0.0010216949073191947
Epoch: 12200, Error: 0.0010073816851876628
Epoch: 12300, Error: 9.981607046704206E-4
Epoch: 12400, Error: 9.916238336233354E-4
Epoch: 12500, Error: 9.751954700981258E-4
Epoch: 12600, Error: 9.60907219104459E-4
Epoch: 12700, Error: 9.604737207596173E-4
Epoch: 12800, Error: 9.443278371184211E-4
Epoch: 12900, Error: 9.525267833461849E-4
Epoch: 13000, Error: 9.611782660158971E-4
Epoch: 13100, Error: 9.252582903998371E-4
Epoch: 13200, Error: 9.266281448479817E-4
Epoch: 13300, Error: 9.723884161192842E-4
Epoch: 13400, Error: 9.183702260959924E-4
Epoch: 13500, Error: 9.151916208588517E-4
Epoch: 13600, Error: 9.238197086230056E-4
Epoch: 13700, Error: 9.175918778112175E-4
Epoch: 13800, Error: 9.168220726996047E-4
Finished
