Input Patterns
0.224 0.624 0.067 0.043 
0.11 0.502 0.051 0.043 
0.196 0.667 0.067 0.043 
0.055 0.584 0.067 0.082 
0.027 0.376 0.067 0.043 
0.306 0.71 0.086 0.043 
0.137 0.416 0.067 0.0 
0.416 0.831 0.035 0.043 
0.306 0.792 0.051 0.125 
0.388 0.749 0.118 0.082 
0.306 0.584 0.118 0.043 
0.082 0.667 0.0 0.043 
0.137 0.584 0.153 0.043 
0.196 0.584 0.102 0.125 
0.251 0.584 0.067 0.043 
0.137 0.459 0.102 0.043 
0.251 0.875 0.086 0.0 
0.165 0.459 0.086 0.043 
0.333 0.624 0.051 0.043 
0.027 0.416 0.051 0.043 
0.196 0.624 0.051 0.082 
0.027 0.502 0.051 0.043 
0.224 0.749 0.153 0.125 
0.224 0.749 0.102 0.043 
0.278 0.71 0.086 0.043 
0.165 0.416 0.067 0.043 
0.082 0.459 0.086 0.043 
0.306 0.792 0.118 0.125 
0.196 0.584 0.086 0.043 
0.165 0.459 0.086 0.0 
0.137 0.584 0.102 0.043 
0.0 0.416 0.016 0.0 
0.388 1.0 0.086 0.125 
0.224 0.624 0.067 0.082 
0.224 0.749 0.086 0.082 
0.224 0.71 0.086 0.125 
0.224 0.541 0.118 0.165 
0.196 0.416 0.102 0.043 
0.251 0.624 0.086 0.043 
0.11 0.502 0.102 0.043 
0.306 0.584 0.086 0.125 
0.333 0.918 0.067 0.043 
0.196 0.502 0.035 0.043 
0.165 0.667 0.067 0.0 
0.224 0.584 0.086 0.043 
0.055 0.125 0.051 0.082 
0.196 0.624 0.102 0.208 
0.137 0.416 0.067 0.082 
0.082 0.502 0.067 0.043 
0.196 0.541 0.067 0.043 
0.749 0.502 0.627 0.541 
0.722 0.459 0.663 0.584 
0.612 0.333 0.612 0.584 
0.557 0.541 0.627 0.624 
0.639 0.376 0.612 0.498 
0.196 0.0 0.424 0.376 
0.471 0.082 0.51 0.376 
0.361 0.376 0.439 0.498 
0.361 0.416 0.592 0.584 
0.529 0.082 0.592 0.584 
0.443 0.502 0.643 0.459 
0.557 0.208 0.663 0.584 
0.584 0.376 0.561 0.498 
0.694 0.333 0.643 0.541 
0.471 0.376 0.592 0.584 
0.333 0.169 0.475 0.416 
0.416 0.29 0.49 0.459 
0.306 0.416 0.592 0.584 
0.667 0.459 0.627 0.584 
0.361 0.416 0.525 0.498 
0.333 0.251 0.576 0.459 
0.416 0.251 0.51 0.459 
0.361 0.29 0.541 0.498 
0.388 0.376 0.541 0.498 
0.224 0.208 0.337 0.416 
0.584 0.502 0.592 0.584 
0.333 0.125 0.51 0.498 
0.388 0.333 0.592 0.498 
0.165 0.169 0.388 0.376 
0.251 0.29 0.49 0.541 
0.443 0.416 0.541 0.584 
0.498 0.376 0.627 0.541 
0.667 0.459 0.576 0.541 
0.416 0.29 0.525 0.376 
0.361 0.208 0.49 0.416 
0.498 0.333 0.51 0.498 
0.498 0.333 0.627 0.459 
0.639 0.416 0.576 0.541 
0.667 0.416 0.678 0.667 
0.388 0.251 0.424 0.376 
0.333 0.169 0.459 0.376 
0.471 0.29 0.694 0.624 
0.471 0.584 0.592 0.624 
0.557 0.125 0.576 0.498 
0.333 0.208 0.51 0.498 
0.498 0.416 0.612 0.541 
0.196 0.125 0.388 0.376 
0.388 0.416 0.541 0.459 
0.529 0.376 0.561 0.498 
0.388 0.333 0.525 0.498 
0.557 0.541 0.847 1.0 
0.776 0.416 0.831 0.831 
0.612 0.416 0.812 0.875 
0.165 0.208 0.592 0.667 
0.667 0.208 0.812 0.71 
0.612 0.502 0.694 0.792 
0.694 0.416 0.761 0.831 
0.416 0.333 0.694 0.957 
0.612 0.416 0.761 0.71 
0.945 0.251 1.0 0.918 
0.722 0.502 0.796 0.918 
0.945 0.333 0.965 0.792 
0.667 0.541 0.796 0.831 
0.529 0.333 0.643 0.71 
0.584 0.333 0.78 0.831 
0.863 0.333 0.863 0.749 
0.584 0.333 0.78 0.875 
0.498 0.251 0.78 0.541 
0.557 0.584 0.78 0.957 
0.471 0.416 0.643 0.71 
0.667 0.459 0.78 0.957 
0.416 0.29 0.694 0.749 
0.667 0.541 0.796 1.0 
0.557 0.208 0.678 0.749 
0.529 0.584 0.745 0.918 
0.416 0.29 0.694 0.749 
0.557 0.376 0.78 0.71 
0.918 0.416 0.949 0.831 
0.835 0.376 0.898 0.71 
0.804 0.667 0.863 1.0 
0.584 0.29 0.729 0.749 
0.388 0.208 0.678 0.792 
0.584 0.502 0.729 0.918 
0.945 0.749 0.965 0.875 
0.471 0.082 0.678 0.584 
0.361 0.333 0.663 0.792 
0.557 0.29 0.663 0.71 
0.804 0.502 0.847 0.71 
0.498 0.416 0.51 0.71 
0.804 0.416 0.812 0.624 
1.0 0.749 0.914 0.792 
0.557 0.333 0.694 0.584 
0.945 0.416 0.863 0.918 
0.584 0.459 0.761 0.71 
0.722 0.459 0.745 0.831 
0.722 0.459 0.694 0.918 
0.694 0.502 0.831 0.918 
0.667 0.416 0.714 0.918 
0.612 0.416 0.714 0.792 
0.443 0.416 0.694 0.71 
Teaching Patterns
1.0 0.0 0.0 
1.0 0.0 0.0 
1.0 0.0 0.0 
1.0 0.0 0.0 
1.0 0.0 0.0 
1.0 0.0 0.0 
1.0 0.0 0.0 
1.0 0.0 0.0 
1.0 0.0 0.0 
1.0 0.0 0.0 
1.0 0.0 0.0 
1.0 0.0 0.0 
1.0 0.0 0.0 
1.0 0.0 0.0 
1.0 0.0 0.0 
1.0 0.0 0.0 
1.0 0.0 0.0 
1.0 0.0 0.0 
1.0 0.0 0.0 
1.0 0.0 0.0 
1.0 0.0 0.0 
1.0 0.0 0.0 
1.0 0.0 0.0 
1.0 0.0 0.0 
1.0 0.0 0.0 
1.0 0.0 0.0 
1.0 0.0 0.0 
1.0 0.0 0.0 
1.0 0.0 0.0 
1.0 0.0 0.0 
1.0 0.0 0.0 
1.0 0.0 0.0 
1.0 0.0 0.0 
1.0 0.0 0.0 
1.0 0.0 0.0 
1.0 0.0 0.0 
1.0 0.0 0.0 
1.0 0.0 0.0 
1.0 0.0 0.0 
1.0 0.0 0.0 
1.0 0.0 0.0 
1.0 0.0 0.0 
1.0 0.0 0.0 
1.0 0.0 0.0 
1.0 0.0 0.0 
1.0 0.0 0.0 
1.0 0.0 0.0 
1.0 0.0 0.0 
1.0 0.0 0.0 
1.0 0.0 0.0 
0.0 1.0 0.0 
0.0 1.0 0.0 
0.0 1.0 0.0 
0.0 1.0 0.0 
0.0 1.0 0.0 
0.0 1.0 0.0 
0.0 1.0 0.0 
0.0 1.0 0.0 
0.0 1.0 0.0 
0.0 1.0 0.0 
0.0 1.0 0.0 
0.0 1.0 0.0 
0.0 1.0 0.0 
0.0 1.0 0.0 
0.0 1.0 0.0 
0.0 1.0 0.0 
0.0 1.0 0.0 
0.0 1.0 0.0 
0.0 1.0 0.0 
0.0 1.0 0.0 
0.0 1.0 0.0 
0.0 1.0 0.0 
0.0 1.0 0.0 
0.0 1.0 0.0 
0.0 1.0 0.0 
0.0 1.0 0.0 
0.0 1.0 0.0 
0.0 1.0 0.0 
0.0 1.0 0.0 
0.0 1.0 0.0 
0.0 1.0 0.0 
0.0 1.0 0.0 
0.0 1.0 0.0 
0.0 1.0 0.0 
0.0 1.0 0.0 
0.0 1.0 0.0 
0.0 1.0 0.0 
0.0 1.0 0.0 
0.0 1.0 0.0 
0.0 1.0 0.0 
0.0 1.0 0.0 
0.0 1.0 0.0 
0.0 1.0 0.0 
0.0 1.0 0.0 
0.0 1.0 0.0 
0.0 1.0 0.0 
0.0 1.0 0.0 
0.0 1.0 0.0 
0.0 1.0 0.0 
0.0 1.0 0.0 
0.0 0.0 1.0 
0.0 0.0 1.0 
0.0 0.0 1.0 
0.0 0.0 1.0 
0.0 0.0 1.0 
0.0 0.0 1.0 
0.0 0.0 1.0 
0.0 0.0 1.0 
0.0 0.0 1.0 
0.0 0.0 1.0 
0.0 0.0 1.0 
0.0 0.0 1.0 
0.0 0.0 1.0 
0.0 0.0 1.0 
0.0 0.0 1.0 
0.0 0.0 1.0 
0.0 0.0 1.0 
0.0 0.0 1.0 
0.0 0.0 1.0 
0.0 0.0 1.0 
0.0 0.0 1.0 
0.0 0.0 1.0 
0.0 0.0 1.0 
0.0 0.0 1.0 
0.0 0.0 1.0 
0.0 0.0 1.0 
0.0 0.0 1.0 
0.0 0.0 1.0 
0.0 0.0 1.0 
0.0 0.0 1.0 
0.0 0.0 1.0 
0.0 0.0 1.0 
0.0 0.0 1.0 
0.0 0.0 1.0 
0.0 0.0 1.0 
0.0 0.0 1.0 
0.0 0.0 1.0 
0.0 0.0 1.0 
0.0 0.0 1.0 
0.0 0.0 1.0 
0.0 0.0 1.0 
0.0 0.0 1.0 
0.0 0.0 1.0 
0.0 0.0 1.0 
0.0 0.0 1.0 
0.0 0.0 1.0 
0.0 0.0 1.0 
0.0 0.0 1.0 
0.0 0.0 1.0 
0.0 0.0 1.0 
Learning : 0.699999988079071
Momentum : 0.9
Epoch: 100, Error: 0.015692576247841546
Epoch: 200, Error: 0.047748330945476175
Epoch: 300, Error: 0.017731290700595776
Epoch: 400, Error: 0.01217978111408779
Epoch: 500, Error: 0.01192408355257098
Epoch: 600, Error: 0.016057118192507054
Epoch: 700, Error: 0.011887423150699294
Epoch: 800, Error: 0.01206040853846614
Epoch: 900, Error: 0.012011069236267111
Epoch: 1000, Error: 0.011852888653621094
Epoch: 1100, Error: 0.01179278287847993
Epoch: 1200, Error: 0.01219142613980719
Epoch: 1300, Error: 0.014534292185779105
Epoch: 1400, Error: 0.012252012948784363
Epoch: 1500, Error: 0.01163451011566319
Epoch: 1600, Error: 0.012830181632596763
Epoch: 1700, Error: 0.012038124598253173
Epoch: 1800, Error: 0.01250469029295896
Epoch: 1900, Error: 0.012084557224913061
Epoch: 2000, Error: 0.011989279969844134
Epoch: 2100, Error: 0.012642761676635875
Epoch: 2200, Error: 0.011601693255050324
Epoch: 2300, Error: 0.011515028262678173
Epoch: 2400, Error: 0.01287480876799867
Epoch: 2500, Error: 0.011238936648968072
Epoch: 2600, Error: 0.013954015861942524
Epoch: 2700, Error: 0.01215527961808095
Epoch: 2800, Error: 0.012612705971190642
Epoch: 2900, Error: 0.0110295298868454
Epoch: 3000, Error: 0.011289763905290668
Epoch: 3100, Error: 0.011298817058839452
Epoch: 3200, Error: 0.011010300677910484
Epoch: 3300, Error: 0.010963808326737018
Epoch: 3400, Error: 0.010840637208832247
Epoch: 3500, Error: 0.010643046530145302
Epoch: 3600, Error: 0.011656804462109807
Epoch: 3700, Error: 0.011366391245981261
Epoch: 3800, Error: 0.010857648723984231
Epoch: 3900, Error: 0.01096721673229047
Epoch: 4000, Error: 0.010977721485110142
Epoch: 4100, Error: 0.01108807306476164
Epoch: 4200, Error: 0.011618514569995467
Epoch: 4300, Error: 0.010749617726138552
Epoch: 4400, Error: 0.011506042169718565
Epoch: 4500, Error: 0.010700513405047466
Epoch: 4600, Error: 0.010629545707659565
Epoch: 4700, Error: 0.010540830804406836
Epoch: 4800, Error: 0.011742656684676382
Epoch: 4900, Error: 0.010457720200173978
Epoch: 5000, Error: 0.0103668184785043
Epoch: 5100, Error: 0.01035939856680093
Epoch: 5200, Error: 0.010507619147786933
Epoch: 5300, Error: 0.010658917891091196
Epoch: 5400, Error: 0.010600385943543742
Epoch: 5500, Error: 0.010413998415880674
Epoch: 5600, Error: 0.010283919416722274
Epoch: 5700, Error: 0.010307106842434624
Epoch: 5800, Error: 0.010222440502005657
Epoch: 5900, Error: 0.010134168545390808
Epoch: 6000, Error: 0.010153395104335921
Epoch: 6100, Error: 0.010239739832366545
Epoch: 6200, Error: 0.010129190282619847
Epoch: 6300, Error: 0.010184271208850145
Epoch: 6400, Error: 0.010033618398748414
Epoch: 6500, Error: 0.01001260884061787
Epoch: 6600, Error: 0.009997301142006774
Epoch: 6700, Error: 0.009877077397294426
Epoch: 6800, Error: 0.009871865058942303
Epoch: 6900, Error: 0.01008448693860843
Epoch: 7000, Error: 0.009995952620421725
Epoch: 7100, Error: 0.009744553401463765
Epoch: 7200, Error: 0.009724579780721965
Epoch: 7300, Error: 0.010005418648070571
Epoch: 7400, Error: 0.009541126959186593
Epoch: 7500, Error: 0.009683863501575605
Epoch: 7600, Error: 0.009602595128614862
Epoch: 7700, Error: 0.00952095747172527
Epoch: 7800, Error: 0.009690591428264523
Epoch: 7900, Error: 0.009356756073276299
Epoch: 8000, Error: 0.009384034587843886
Epoch: 8100, Error: 0.009259226624278765
Epoch: 8200, Error: 0.009445089558245877
Epoch: 8300, Error: 0.009154831808132369
Epoch: 8400, Error: 0.009048651066751668
Epoch: 8500, Error: 0.008902610315520526
Epoch: 8600, Error: 0.008813355153974856
Epoch: 8700, Error: 0.008801449441934645
Epoch: 8800, Error: 0.008424849483661212
Epoch: 8900, Error: 0.008547399890366186
Epoch: 9000, Error: 0.008236279291396836
Epoch: 9100, Error: 0.007917578869349944
Epoch: 9200, Error: 0.008129139981158712
Epoch: 9300, Error: 0.007236683169072179
Epoch: 9400, Error: 0.007053621743486444
Epoch: 9500, Error: 0.0067648313838229845
Epoch: 9600, Error: 0.006323522997910868
Epoch: 9700, Error: 0.006200209667490723
Epoch: 9800, Error: 0.006144810136446486
Epoch: 9900, Error: 0.005880080233414076
Epoch: 10000, Error: 0.005870513552719121
Epoch: 10100, Error: 0.005807425386946223
Epoch: 10200, Error: 0.005764834206192726
Epoch: 10300, Error: 0.005443168964695728
Epoch: 10400, Error: 0.005280572554545997
Epoch: 10500, Error: 0.005197536902681937
Epoch: 10600, Error: 0.00514190870555178
Epoch: 10700, Error: 0.005098151411972263
Epoch: 10800, Error: 0.005084927402912259
Epoch: 10900, Error: 0.005052464963991156
Epoch: 11000, Error: 0.005014893597498451
Epoch: 11100, Error: 0.004983882198661509
Epoch: 11200, Error: 0.004978432140733417
Epoch: 11300, Error: 0.0049760998272621836
Epoch: 11400, Error: 0.004953673678426947
Epoch: 11500, Error: 0.0049426568425297735
Epoch: 11600, Error: 0.004926015744826439
Epoch: 11700, Error: 0.004913445814025866
Epoch: 11800, Error: 0.004920794221226766
Epoch: 11900, Error: 0.004917328374198795
Epoch: 12000, Error: 0.004901760312805875
Epoch: 12100, Error: 0.004897148606703304
Epoch: 12200, Error: 0.004895819182014652
Epoch: 12300, Error: 0.0049136145733362216
Epoch: 12400, Error: 0.0049005533930662854
Finished
