Input Patterns
0.224 0.624 0.067 0.043 
0.11 0.502 0.051 0.043 
0.196 0.667 0.067 0.043 
0.055 0.584 0.067 0.082 
0.027 0.376 0.067 0.043 
0.306 0.71 0.086 0.043 
0.137 0.416 0.067 0.0 
0.416 0.831 0.035 0.043 
0.306 0.792 0.051 0.125 
0.388 0.749 0.118 0.082 
0.306 0.584 0.118 0.043 
0.082 0.667 0.0 0.043 
0.137 0.584 0.153 0.043 
0.196 0.584 0.102 0.125 
0.251 0.584 0.067 0.043 
0.137 0.459 0.102 0.043 
0.251 0.875 0.086 0.0 
0.165 0.459 0.086 0.043 
0.333 0.624 0.051 0.043 
0.027 0.416 0.051 0.043 
0.196 0.624 0.051 0.082 
0.027 0.502 0.051 0.043 
0.224 0.749 0.153 0.125 
0.224 0.749 0.102 0.043 
0.278 0.71 0.086 0.043 
0.165 0.416 0.067 0.043 
0.082 0.459 0.086 0.043 
0.306 0.792 0.118 0.125 
0.196 0.584 0.086 0.043 
0.165 0.459 0.086 0.0 
0.137 0.584 0.102 0.043 
0.0 0.416 0.016 0.0 
0.388 1.0 0.086 0.125 
0.224 0.624 0.067 0.082 
0.224 0.749 0.086 0.082 
0.224 0.71 0.086 0.125 
0.224 0.541 0.118 0.165 
0.196 0.416 0.102 0.043 
0.251 0.624 0.086 0.043 
0.11 0.502 0.102 0.043 
0.306 0.584 0.086 0.125 
0.333 0.918 0.067 0.043 
0.196 0.502 0.035 0.043 
0.165 0.667 0.067 0.0 
0.224 0.584 0.086 0.043 
0.055 0.125 0.051 0.082 
0.196 0.624 0.102 0.208 
0.137 0.416 0.067 0.082 
0.082 0.502 0.067 0.043 
0.196 0.541 0.067 0.043 
0.749 0.502 0.627 0.541 
0.722 0.459 0.663 0.584 
0.612 0.333 0.612 0.584 
0.557 0.541 0.627 0.624 
0.639 0.376 0.612 0.498 
0.196 0.0 0.424 0.376 
0.471 0.082 0.51 0.376 
0.361 0.376 0.439 0.498 
0.361 0.416 0.592 0.584 
0.529 0.082 0.592 0.584 
0.443 0.502 0.643 0.459 
0.557 0.208 0.663 0.584 
0.584 0.376 0.561 0.498 
0.694 0.333 0.643 0.541 
0.471 0.376 0.592 0.584 
0.333 0.169 0.475 0.416 
0.416 0.29 0.49 0.459 
0.306 0.416 0.592 0.584 
0.667 0.459 0.627 0.584 
0.361 0.416 0.525 0.498 
0.333 0.251 0.576 0.459 
0.416 0.251 0.51 0.459 
0.361 0.29 0.541 0.498 
0.388 0.376 0.541 0.498 
0.224 0.208 0.337 0.416 
0.584 0.502 0.592 0.584 
0.333 0.125 0.51 0.498 
0.388 0.333 0.592 0.498 
0.165 0.169 0.388 0.376 
0.251 0.29 0.49 0.541 
0.443 0.416 0.541 0.584 
0.498 0.376 0.627 0.541 
0.667 0.459 0.576 0.541 
0.416 0.29 0.525 0.376 
0.361 0.208 0.49 0.416 
0.498 0.333 0.51 0.498 
0.498 0.333 0.627 0.459 
0.639 0.416 0.576 0.541 
0.667 0.416 0.678 0.667 
0.388 0.251 0.424 0.376 
0.333 0.169 0.459 0.376 
0.471 0.29 0.694 0.624 
0.471 0.584 0.592 0.624 
0.557 0.125 0.576 0.498 
0.333 0.208 0.51 0.498 
0.498 0.416 0.612 0.541 
0.196 0.125 0.388 0.376 
0.388 0.416 0.541 0.459 
0.529 0.376 0.561 0.498 
0.388 0.333 0.525 0.498 
0.557 0.541 0.847 1.0 
0.776 0.416 0.831 0.831 
0.612 0.416 0.812 0.875 
0.165 0.208 0.592 0.667 
0.667 0.208 0.812 0.71 
0.612 0.502 0.694 0.792 
0.694 0.416 0.761 0.831 
0.416 0.333 0.694 0.957 
0.612 0.416 0.761 0.71 
0.945 0.251 1.0 0.918 
0.722 0.502 0.796 0.918 
0.945 0.333 0.965 0.792 
0.667 0.541 0.796 0.831 
0.529 0.333 0.643 0.71 
0.584 0.333 0.78 0.831 
0.863 0.333 0.863 0.749 
0.584 0.333 0.78 0.875 
0.498 0.251 0.78 0.541 
0.557 0.584 0.78 0.957 
0.471 0.416 0.643 0.71 
0.667 0.459 0.78 0.957 
0.416 0.29 0.694 0.749 
0.667 0.541 0.796 1.0 
0.557 0.208 0.678 0.749 
0.529 0.584 0.745 0.918 
0.416 0.29 0.694 0.749 
0.557 0.376 0.78 0.71 
0.918 0.416 0.949 0.831 
0.835 0.376 0.898 0.71 
0.804 0.667 0.863 1.0 
0.584 0.29 0.729 0.749 
0.388 0.208 0.678 0.792 
0.584 0.502 0.729 0.918 
0.945 0.749 0.965 0.875 
0.471 0.082 0.678 0.584 
0.361 0.333 0.663 0.792 
0.557 0.29 0.663 0.71 
0.804 0.502 0.847 0.71 
0.498 0.416 0.51 0.71 
0.804 0.416 0.812 0.624 
1.0 0.749 0.914 0.792 
0.557 0.333 0.694 0.584 
0.945 0.416 0.863 0.918 
0.584 0.459 0.761 0.71 
0.722 0.459 0.745 0.831 
0.722 0.459 0.694 0.918 
0.694 0.502 0.831 0.918 
0.667 0.416 0.714 0.918 
0.612 0.416 0.714 0.792 
0.443 0.416 0.694 0.71 
Teaching Patterns
1.0 0.0 0.0 
1.0 0.0 0.0 
1.0 0.0 0.0 
1.0 0.0 0.0 
1.0 0.0 0.0 
1.0 0.0 0.0 
1.0 0.0 0.0 
1.0 0.0 0.0 
1.0 0.0 0.0 
1.0 0.0 0.0 
1.0 0.0 0.0 
1.0 0.0 0.0 
1.0 0.0 0.0 
1.0 0.0 0.0 
1.0 0.0 0.0 
1.0 0.0 0.0 
1.0 0.0 0.0 
1.0 0.0 0.0 
1.0 0.0 0.0 
1.0 0.0 0.0 
1.0 0.0 0.0 
1.0 0.0 0.0 
1.0 0.0 0.0 
1.0 0.0 0.0 
1.0 0.0 0.0 
1.0 0.0 0.0 
1.0 0.0 0.0 
1.0 0.0 0.0 
1.0 0.0 0.0 
1.0 0.0 0.0 
1.0 0.0 0.0 
1.0 0.0 0.0 
1.0 0.0 0.0 
1.0 0.0 0.0 
1.0 0.0 0.0 
1.0 0.0 0.0 
1.0 0.0 0.0 
1.0 0.0 0.0 
1.0 0.0 0.0 
1.0 0.0 0.0 
1.0 0.0 0.0 
1.0 0.0 0.0 
1.0 0.0 0.0 
1.0 0.0 0.0 
1.0 0.0 0.0 
1.0 0.0 0.0 
1.0 0.0 0.0 
1.0 0.0 0.0 
1.0 0.0 0.0 
1.0 0.0 0.0 
0.0 1.0 0.0 
0.0 1.0 0.0 
0.0 1.0 0.0 
0.0 1.0 0.0 
0.0 1.0 0.0 
0.0 1.0 0.0 
0.0 1.0 0.0 
0.0 1.0 0.0 
0.0 1.0 0.0 
0.0 1.0 0.0 
0.0 1.0 0.0 
0.0 1.0 0.0 
0.0 1.0 0.0 
0.0 1.0 0.0 
0.0 1.0 0.0 
0.0 1.0 0.0 
0.0 1.0 0.0 
0.0 1.0 0.0 
0.0 1.0 0.0 
0.0 1.0 0.0 
0.0 1.0 0.0 
0.0 1.0 0.0 
0.0 1.0 0.0 
0.0 1.0 0.0 
0.0 1.0 0.0 
0.0 1.0 0.0 
0.0 1.0 0.0 
0.0 1.0 0.0 
0.0 1.0 0.0 
0.0 1.0 0.0 
0.0 1.0 0.0 
0.0 1.0 0.0 
0.0 1.0 0.0 
0.0 1.0 0.0 
0.0 1.0 0.0 
0.0 1.0 0.0 
0.0 1.0 0.0 
0.0 1.0 0.0 
0.0 1.0 0.0 
0.0 1.0 0.0 
0.0 1.0 0.0 
0.0 1.0 0.0 
0.0 1.0 0.0 
0.0 1.0 0.0 
0.0 1.0 0.0 
0.0 1.0 0.0 
0.0 1.0 0.0 
0.0 1.0 0.0 
0.0 1.0 0.0 
0.0 1.0 0.0 
0.0 0.0 1.0 
0.0 0.0 1.0 
0.0 0.0 1.0 
0.0 0.0 1.0 
0.0 0.0 1.0 
0.0 0.0 1.0 
0.0 0.0 1.0 
0.0 0.0 1.0 
0.0 0.0 1.0 
0.0 0.0 1.0 
0.0 0.0 1.0 
0.0 0.0 1.0 
0.0 0.0 1.0 
0.0 0.0 1.0 
0.0 0.0 1.0 
0.0 0.0 1.0 
0.0 0.0 1.0 
0.0 0.0 1.0 
0.0 0.0 1.0 
0.0 0.0 1.0 
0.0 0.0 1.0 
0.0 0.0 1.0 
0.0 0.0 1.0 
0.0 0.0 1.0 
0.0 0.0 1.0 
0.0 0.0 1.0 
0.0 0.0 1.0 
0.0 0.0 1.0 
0.0 0.0 1.0 
0.0 0.0 1.0 
0.0 0.0 1.0 
0.0 0.0 1.0 
0.0 0.0 1.0 
0.0 0.0 1.0 
0.0 0.0 1.0 
0.0 0.0 1.0 
0.0 0.0 1.0 
0.0 0.0 1.0 
0.0 0.0 1.0 
0.0 0.0 1.0 
0.0 0.0 1.0 
0.0 0.0 1.0 
0.0 0.0 1.0 
0.0 0.0 1.0 
0.0 0.0 1.0 
0.0 0.0 1.0 
0.0 0.0 1.0 
0.0 0.0 1.0 
0.0 0.0 1.0 
0.0 0.0 1.0 
Learning : 0.699999988079071
Momentum : 0.9
Epoch: 100, Error: 0.021299640965008075
Epoch: 200, Error: 0.01459000063273618
Epoch: 300, Error: 0.013930426176155053
Epoch: 400, Error: 0.012246808636107184
Epoch: 500, Error: 0.015981548241323352
Epoch: 600, Error: 0.013370516630129359
Epoch: 700, Error: 0.012532299734944062
Epoch: 800, Error: 0.01459233274894995
Epoch: 900, Error: 0.013002981890230983
Epoch: 1000, Error: 0.012240806102731724
Epoch: 1100, Error: 0.015515178332866753
Epoch: 1200, Error: 0.012120637130194971
Epoch: 1300, Error: 0.012861560556585043
Epoch: 1400, Error: 0.01207679787597278
Epoch: 1500, Error: 0.012570582953071355
Epoch: 1600, Error: 0.012081072116363435
Epoch: 1700, Error: 0.011950042800366484
Epoch: 1800, Error: 0.012846543024792689
Epoch: 1900, Error: 0.012121401344915426
Epoch: 2000, Error: 0.012996602509668302
Epoch: 2100, Error: 0.013378546004868916
Epoch: 2200, Error: 0.012499855071480671
Epoch: 2300, Error: 0.012395614327020707
Epoch: 2400, Error: 0.012065928222492597
Epoch: 2500, Error: 0.012095929708448626
Epoch: 2600, Error: 0.012391536505034608
Epoch: 2700, Error: 0.012416177816286011
Epoch: 2800, Error: 0.011895498522516002
Epoch: 2900, Error: 0.011160131324976136
Epoch: 3000, Error: 0.009956921980472362
Epoch: 3100, Error: 0.008960231196724395
Epoch: 3200, Error: 0.00810919422276218
Epoch: 3300, Error: 0.007621841139158473
Epoch: 3400, Error: 0.007966718328191116
Epoch: 3500, Error: 0.007196278550320224
Epoch: 3600, Error: 0.007129905275522532
Epoch: 3700, Error: 0.006878674901694992
Epoch: 3800, Error: 0.006751032539471551
Epoch: 3900, Error: 0.0064487937418860495
Epoch: 4000, Error: 0.006663828566075516
Epoch: 4100, Error: 0.006226171962563309
Epoch: 4200, Error: 0.00612292390551692
Epoch: 4300, Error: 0.006012562749648976
Epoch: 4400, Error: 0.008400761067896648
Epoch: 4500, Error: 0.0057267746302755995
Epoch: 4600, Error: 0.005730807887987166
Epoch: 4700, Error: 0.005868764375644221
Epoch: 4800, Error: 0.005723748814363633
Epoch: 4900, Error: 0.005623695710517303
Epoch: 5000, Error: 0.005519243955156421
Epoch: 5100, Error: 0.0054714267555699405
Epoch: 5200, Error: 0.005888298540686278
Epoch: 5300, Error: 0.00546024878256648
Epoch: 5400, Error: 0.005588254836195701
Epoch: 5500, Error: 0.005423066938259199
Epoch: 5600, Error: 0.005318238337935467
Epoch: 5700, Error: 0.005431262575217014
Epoch: 5800, Error: 0.0053070995565032775
Epoch: 5900, Error: 0.00531124029765559
Epoch: 6000, Error: 0.00531614435129408
Epoch: 6100, Error: 0.005332964927580418
Epoch: 6200, Error: 0.005284696062170733
Epoch: 6300, Error: 0.005226061673067668
Epoch: 6400, Error: 0.0051301427548218785
Epoch: 6500, Error: 0.005229897210500864
Epoch: 6600, Error: 0.0051166600185794065
Epoch: 6700, Error: 0.005183778300642556
Epoch: 6800, Error: 0.005051409367731555
Epoch: 6900, Error: 0.005146753076464119
Epoch: 7000, Error: 0.005097807660233341
Epoch: 7100, Error: 0.005128425551292413
Epoch: 7200, Error: 0.005058876926150763
Epoch: 7300, Error: 0.0050166523047469325
Epoch: 7400, Error: 0.005034808964730901
Epoch: 7500, Error: 0.0051255982681483675
Epoch: 7600, Error: 0.0050048950938351745
Epoch: 7700, Error: 0.00506409038193698
Epoch: 7800, Error: 0.005008772712525954
Epoch: 7900, Error: 0.00502755068485076
Epoch: 8000, Error: 0.005027420403394463
Epoch: 8100, Error: 0.005022327785402168
Epoch: 8200, Error: 0.0050970761769427555
Epoch: 8300, Error: 0.004987682524174695
Epoch: 8400, Error: 0.005017427445958057
Epoch: 8500, Error: 0.005025376155642799
Epoch: 8600, Error: 0.0050189761971203796
Epoch: 8700, Error: 0.0050338332993392
Epoch: 8800, Error: 0.004984084739871748
Epoch: 8900, Error: 0.004994724474201125
Epoch: 9000, Error: 0.004936094193524132
Epoch: 9100, Error: 0.004944283694571333
Epoch: 9200, Error: 0.00498035630454753
Epoch: 9300, Error: 0.004962524402916744
Epoch: 9400, Error: 0.004937228891421529
Epoch: 9500, Error: 0.004974673130089518
Epoch: 9600, Error: 0.0049331319587716
Epoch: 9700, Error: 0.0049300326714141725
Epoch: 9800, Error: 0.004875904659462816
Epoch: 9900, Error: 0.004994156621035778
Epoch: 10000, Error: 0.004887835480167111
Epoch: 10100, Error: 0.004925212043805785
Epoch: 10200, Error: 0.004920815205193325
Epoch: 10300, Error: 0.004832969425716497
Epoch: 10400, Error: 0.00501637651162204
Epoch: 10500, Error: 0.004810152745183283
Epoch: 10600, Error: 0.004790292536840876
Epoch: 10700, Error: 0.004948637062511239
Epoch: 10800, Error: 0.004906474663450825
Epoch: 10900, Error: 0.004934738416759553
Epoch: 11000, Error: 0.004855748258648272
Epoch: 11100, Error: 0.004786089907629623
Epoch: 11200, Error: 0.004823559692411855
Epoch: 11300, Error: 0.004862223315595489
Epoch: 11400, Error: 0.0049498078953278376
Epoch: 11500, Error: 0.004940562485485028
Epoch: 11600, Error: 0.0048358873400214525
Epoch: 11700, Error: 0.004912252695521045
Epoch: 11800, Error: 0.004836462438782443
Epoch: 11900, Error: 0.004828342747621582
Epoch: 12000, Error: 0.0049283218354514765
Epoch: 12100, Error: 0.0048347030503813
Epoch: 12200, Error: 0.004756373909884634
Epoch: 12300, Error: 0.004790128929402737
Epoch: 12400, Error: 0.005020441508331169
Epoch: 12500, Error: 0.004910404615755257
Epoch: 12600, Error: 0.004867664343308335
Epoch: 12700, Error: 0.004867586880408393
Epoch: 12800, Error: 0.004842709597375454
Epoch: 12900, Error: 0.004836229951853313
Epoch: 13000, Error: 0.004857467997971571
Epoch: 13100, Error: 0.0048119473406161226
Epoch: 13200, Error: 0.0048699110875049245
Epoch: 13300, Error: 0.004757517808335629
Epoch: 13400, Error: 0.0048757648884259494
Epoch: 13500, Error: 0.004834812895584171
Epoch: 13600, Error: 0.004863680563677785
Epoch: 13700, Error: 0.004682359196322955
Epoch: 13800, Error: 0.004763930682627074
Epoch: 13900, Error: 0.004744454630826553
Epoch: 14000, Error: 0.004773731907258867
Epoch: 14100, Error: 0.0047233366930913906
Epoch: 14200, Error: 0.00471858340777624
Epoch: 14300, Error: 0.004692659532737383
Epoch: 14400, Error: 0.004637415496498326
Epoch: 14500, Error: 0.004664106609436967
Epoch: 14600, Error: 0.004685242983725776
Epoch: 14700, Error: 0.004530987257606607
Epoch: 14800, Error: 0.004479046604288888
Epoch: 14900, Error: 0.004480674393697104
Epoch: 15000, Error: 0.004627033522965532
Epoch: 15100, Error: 0.00446166376154712
Epoch: 15200, Error: 0.004270079999741519
Epoch: 15300, Error: 0.0043322401227552255
Epoch: 15400, Error: 0.004431378628921565
Epoch: 15500, Error: 0.004360208420335814
Epoch: 15600, Error: 0.004238072258501167
Epoch: 15700, Error: 0.0041324602454687505
Epoch: 15800, Error: 0.004246165226945568
Epoch: 15900, Error: 0.003826372761908729
Epoch: 16000, Error: 0.003657996484545964
Epoch: 16100, Error: 0.004353729837171197
Epoch: 16200, Error: 0.003191641428739312
Epoch: 16300, Error: 0.0026580792161266524
Epoch: 16400, Error: 0.0026371129236061257
Epoch: 16500, Error: 0.0023364934676853295
Epoch: 16600, Error: 0.0015952190597351887
Epoch: 16700, Error: 0.0022253498064898386
Epoch: 16800, Error: 0.0016542010890290952
Epoch: 16900, Error: 0.002543539773146355
Epoch: 17000, Error: 0.0011605582932123209
Epoch: 17100, Error: 0.0010462855781279315
Epoch: 17200, Error: 8.863275966430066E-4
Epoch: 17300, Error: 8.30341625985282E-4
Epoch: 17400, Error: 7.446771766675419E-4
Epoch: 17500, Error: 7.605734091919471E-4
Epoch: 17600, Error: 8.85220043753873E-4
Epoch: 17700, Error: 6.798969216866359E-4
Epoch: 17800, Error: 7.334040166194462E-4
Epoch: 17900, Error: 7.321239504231462E-4
Epoch: 18000, Error: 6.640467626892043E-4
Epoch: 18100, Error: 5.980950689459307E-4
Epoch: 18200, Error: 5.823542202871558E-4
Epoch: 18300, Error: 5.915048984574505E-4
Epoch: 18400, Error: 5.646955969862807E-4
Epoch: 18500, Error: 6.139328641267106E-4
Epoch: 18600, Error: 5.60356820418643E-4
Epoch: 18700, Error: 5.904983219070816E-4
Epoch: 18800, Error: 5.720564123045059E-4
Epoch: 18900, Error: 5.808083146517911E-4
Epoch: 19000, Error: 5.777671657263907E-4
Epoch: 19100, Error: 6.08144479455507E-4
Epoch: 19200, Error: 5.886159828709701E-4
Epoch: 19300, Error: 5.883987606128784E-4
Epoch: 19400, Error: 5.952723442976879E-4
Epoch: 19500, Error: 6.044653975421445E-4
Epoch: 19600, Error: 6.241869664568686E-4
Epoch: 19700, Error: 6.131530846918775E-4
Epoch: 19800, Error: 6.29353672186992E-4
Epoch: 19900, Error: 6.337736639324469E-4
Epoch: 20000, Error: 6.32103114091386E-4
Epoch: 20100, Error: 6.520381716564139E-4
Epoch: 20200, Error: 6.597945057967943E-4
Epoch: 20300, Error: 6.586597681256723E-4
Epoch: 20400, Error: 6.757254030098957E-4
Epoch: 20500, Error: 6.741966935409807E-4
Finished
