Input Patterns
0.224 0.624 0.067 0.043 
0.11 0.502 0.051 0.043 
0.196 0.667 0.067 0.043 
0.055 0.584 0.067 0.082 
0.027 0.376 0.067 0.043 
0.306 0.71 0.086 0.043 
0.137 0.416 0.067 0.0 
0.416 0.831 0.035 0.043 
0.306 0.792 0.051 0.125 
0.388 0.749 0.118 0.082 
0.306 0.584 0.118 0.043 
0.082 0.667 0.0 0.043 
0.137 0.584 0.153 0.043 
0.196 0.584 0.102 0.125 
0.251 0.584 0.067 0.043 
0.137 0.459 0.102 0.043 
0.251 0.875 0.086 0.0 
0.165 0.459 0.086 0.043 
0.333 0.624 0.051 0.043 
0.027 0.416 0.051 0.043 
0.196 0.624 0.051 0.082 
0.027 0.502 0.051 0.043 
0.224 0.749 0.153 0.125 
0.224 0.749 0.102 0.043 
0.278 0.71 0.086 0.043 
0.165 0.416 0.067 0.043 
0.082 0.459 0.086 0.043 
0.306 0.792 0.118 0.125 
0.196 0.584 0.086 0.043 
0.165 0.459 0.086 0.0 
0.137 0.584 0.102 0.043 
0.0 0.416 0.016 0.0 
0.388 1.0 0.086 0.125 
0.224 0.624 0.067 0.082 
0.224 0.749 0.086 0.082 
0.224 0.71 0.086 0.125 
0.224 0.541 0.118 0.165 
0.196 0.416 0.102 0.043 
0.251 0.624 0.086 0.043 
0.11 0.502 0.102 0.043 
0.306 0.584 0.086 0.125 
0.333 0.918 0.067 0.043 
0.196 0.502 0.035 0.043 
0.165 0.667 0.067 0.0 
0.224 0.584 0.086 0.043 
0.055 0.125 0.051 0.082 
0.196 0.624 0.102 0.208 
0.137 0.416 0.067 0.082 
0.082 0.502 0.067 0.043 
0.196 0.541 0.067 0.043 
0.749 0.502 0.627 0.541 
0.722 0.459 0.663 0.584 
0.612 0.333 0.612 0.584 
0.557 0.541 0.627 0.624 
0.639 0.376 0.612 0.498 
0.196 0.0 0.424 0.376 
0.471 0.082 0.51 0.376 
0.361 0.376 0.439 0.498 
0.361 0.416 0.592 0.584 
0.529 0.082 0.592 0.584 
0.443 0.502 0.643 0.459 
0.557 0.208 0.663 0.584 
0.584 0.376 0.561 0.498 
0.694 0.333 0.643 0.541 
0.471 0.376 0.592 0.584 
0.333 0.169 0.475 0.416 
0.416 0.29 0.49 0.459 
0.306 0.416 0.592 0.584 
0.667 0.459 0.627 0.584 
0.361 0.416 0.525 0.498 
0.333 0.251 0.576 0.459 
0.416 0.251 0.51 0.459 
0.361 0.29 0.541 0.498 
0.388 0.376 0.541 0.498 
0.224 0.208 0.337 0.416 
0.584 0.502 0.592 0.584 
0.333 0.125 0.51 0.498 
0.388 0.333 0.592 0.498 
0.165 0.169 0.388 0.376 
0.251 0.29 0.49 0.541 
0.443 0.416 0.541 0.584 
0.498 0.376 0.627 0.541 
0.667 0.459 0.576 0.541 
0.416 0.29 0.525 0.376 
0.361 0.208 0.49 0.416 
0.498 0.333 0.51 0.498 
0.498 0.333 0.627 0.459 
0.639 0.416 0.576 0.541 
0.667 0.416 0.678 0.667 
0.388 0.251 0.424 0.376 
0.333 0.169 0.459 0.376 
0.471 0.29 0.694 0.624 
0.471 0.584 0.592 0.624 
0.557 0.125 0.576 0.498 
0.333 0.208 0.51 0.498 
0.498 0.416 0.612 0.541 
0.196 0.125 0.388 0.376 
0.388 0.416 0.541 0.459 
0.529 0.376 0.561 0.498 
0.388 0.333 0.525 0.498 
0.557 0.541 0.847 1.0 
0.776 0.416 0.831 0.831 
0.612 0.416 0.812 0.875 
0.165 0.208 0.592 0.667 
0.667 0.208 0.812 0.71 
0.612 0.502 0.694 0.792 
0.694 0.416 0.761 0.831 
0.416 0.333 0.694 0.957 
0.612 0.416 0.761 0.71 
0.945 0.251 1.0 0.918 
0.722 0.502 0.796 0.918 
0.945 0.333 0.965 0.792 
0.667 0.541 0.796 0.831 
0.529 0.333 0.643 0.71 
0.584 0.333 0.78 0.831 
0.863 0.333 0.863 0.749 
0.584 0.333 0.78 0.875 
0.498 0.251 0.78 0.541 
0.557 0.584 0.78 0.957 
0.471 0.416 0.643 0.71 
0.667 0.459 0.78 0.957 
0.416 0.29 0.694 0.749 
0.667 0.541 0.796 1.0 
0.557 0.208 0.678 0.749 
0.529 0.584 0.745 0.918 
0.416 0.29 0.694 0.749 
0.557 0.376 0.78 0.71 
0.918 0.416 0.949 0.831 
0.835 0.376 0.898 0.71 
0.804 0.667 0.863 1.0 
0.584 0.29 0.729 0.749 
0.388 0.208 0.678 0.792 
0.584 0.502 0.729 0.918 
0.945 0.749 0.965 0.875 
0.471 0.082 0.678 0.584 
0.361 0.333 0.663 0.792 
0.557 0.29 0.663 0.71 
0.804 0.502 0.847 0.71 
0.498 0.416 0.51 0.71 
0.804 0.416 0.812 0.624 
1.0 0.749 0.914 0.792 
0.557 0.333 0.694 0.584 
0.945 0.416 0.863 0.918 
0.584 0.459 0.761 0.71 
0.722 0.459 0.745 0.831 
0.722 0.459 0.694 0.918 
0.694 0.502 0.831 0.918 
0.667 0.416 0.714 0.918 
0.612 0.416 0.714 0.792 
0.443 0.416 0.694 0.71 
Teaching Patterns
1.0 0.0 0.0 
1.0 0.0 0.0 
1.0 0.0 0.0 
1.0 0.0 0.0 
1.0 0.0 0.0 
1.0 0.0 0.0 
1.0 0.0 0.0 
1.0 0.0 0.0 
1.0 0.0 0.0 
1.0 0.0 0.0 
1.0 0.0 0.0 
1.0 0.0 0.0 
1.0 0.0 0.0 
1.0 0.0 0.0 
1.0 0.0 0.0 
1.0 0.0 0.0 
1.0 0.0 0.0 
1.0 0.0 0.0 
1.0 0.0 0.0 
1.0 0.0 0.0 
1.0 0.0 0.0 
1.0 0.0 0.0 
1.0 0.0 0.0 
1.0 0.0 0.0 
1.0 0.0 0.0 
1.0 0.0 0.0 
1.0 0.0 0.0 
1.0 0.0 0.0 
1.0 0.0 0.0 
1.0 0.0 0.0 
1.0 0.0 0.0 
1.0 0.0 0.0 
1.0 0.0 0.0 
1.0 0.0 0.0 
1.0 0.0 0.0 
1.0 0.0 0.0 
1.0 0.0 0.0 
1.0 0.0 0.0 
1.0 0.0 0.0 
1.0 0.0 0.0 
1.0 0.0 0.0 
1.0 0.0 0.0 
1.0 0.0 0.0 
1.0 0.0 0.0 
1.0 0.0 0.0 
1.0 0.0 0.0 
1.0 0.0 0.0 
1.0 0.0 0.0 
1.0 0.0 0.0 
1.0 0.0 0.0 
0.0 1.0 0.0 
0.0 1.0 0.0 
0.0 1.0 0.0 
0.0 1.0 0.0 
0.0 1.0 0.0 
0.0 1.0 0.0 
0.0 1.0 0.0 
0.0 1.0 0.0 
0.0 1.0 0.0 
0.0 1.0 0.0 
0.0 1.0 0.0 
0.0 1.0 0.0 
0.0 1.0 0.0 
0.0 1.0 0.0 
0.0 1.0 0.0 
0.0 1.0 0.0 
0.0 1.0 0.0 
0.0 1.0 0.0 
0.0 1.0 0.0 
0.0 1.0 0.0 
0.0 1.0 0.0 
0.0 1.0 0.0 
0.0 1.0 0.0 
0.0 1.0 0.0 
0.0 1.0 0.0 
0.0 1.0 0.0 
0.0 1.0 0.0 
0.0 1.0 0.0 
0.0 1.0 0.0 
0.0 1.0 0.0 
0.0 1.0 0.0 
0.0 1.0 0.0 
0.0 1.0 0.0 
0.0 1.0 0.0 
0.0 1.0 0.0 
0.0 1.0 0.0 
0.0 1.0 0.0 
0.0 1.0 0.0 
0.0 1.0 0.0 
0.0 1.0 0.0 
0.0 1.0 0.0 
0.0 1.0 0.0 
0.0 1.0 0.0 
0.0 1.0 0.0 
0.0 1.0 0.0 
0.0 1.0 0.0 
0.0 1.0 0.0 
0.0 1.0 0.0 
0.0 1.0 0.0 
0.0 1.0 0.0 
0.0 0.0 1.0 
0.0 0.0 1.0 
0.0 0.0 1.0 
0.0 0.0 1.0 
0.0 0.0 1.0 
0.0 0.0 1.0 
0.0 0.0 1.0 
0.0 0.0 1.0 
0.0 0.0 1.0 
0.0 0.0 1.0 
0.0 0.0 1.0 
0.0 0.0 1.0 
0.0 0.0 1.0 
0.0 0.0 1.0 
0.0 0.0 1.0 
0.0 0.0 1.0 
0.0 0.0 1.0 
0.0 0.0 1.0 
0.0 0.0 1.0 
0.0 0.0 1.0 
0.0 0.0 1.0 
0.0 0.0 1.0 
0.0 0.0 1.0 
0.0 0.0 1.0 
0.0 0.0 1.0 
0.0 0.0 1.0 
0.0 0.0 1.0 
0.0 0.0 1.0 
0.0 0.0 1.0 
0.0 0.0 1.0 
0.0 0.0 1.0 
0.0 0.0 1.0 
0.0 0.0 1.0 
0.0 0.0 1.0 
0.0 0.0 1.0 
0.0 0.0 1.0 
0.0 0.0 1.0 
0.0 0.0 1.0 
0.0 0.0 1.0 
0.0 0.0 1.0 
0.0 0.0 1.0 
0.0 0.0 1.0 
0.0 0.0 1.0 
0.0 0.0 1.0 
0.0 0.0 1.0 
0.0 0.0 1.0 
0.0 0.0 1.0 
0.0 0.0 1.0 
0.0 0.0 1.0 
0.0 0.0 1.0 
Learning : 0.699999988079071
Momentum : 0.9
Epoch: 100, Error: 0.013896920275707467
Epoch: 200, Error: 0.013390081222823043
Epoch: 300, Error: 0.012023154077874104
Epoch: 400, Error: 0.016054207209761376
Epoch: 500, Error: 0.011970363129188654
Epoch: 600, Error: 0.012187662004251006
Epoch: 700, Error: 0.019081465517695458
Epoch: 800, Error: 0.01225469407786486
Epoch: 900, Error: 0.012670440449551405
Epoch: 1000, Error: 0.012495287534415658
Epoch: 1100, Error: 0.013074909037799929
Epoch: 1200, Error: 0.012895756804809519
Epoch: 1300, Error: 0.012158812690321506
Epoch: 1400, Error: 0.01215355111582159
Epoch: 1500, Error: 0.012503640170698277
Epoch: 1600, Error: 0.012175186853087269
Epoch: 1700, Error: 0.01255501525899363
Epoch: 1800, Error: 0.012448806266664685
Epoch: 1900, Error: 0.014033482361370222
Epoch: 2000, Error: 0.012438283410063377
Epoch: 2100, Error: 0.012177882564272251
Epoch: 2200, Error: 0.012713266839734363
Epoch: 2300, Error: 0.013502013382966908
Epoch: 2400, Error: 0.01248591007146261
Epoch: 2500, Error: 0.012256270883812068
Epoch: 2600, Error: 0.012131308469235425
Epoch: 2700, Error: 0.012472281673169503
Epoch: 2800, Error: 0.012191776808162313
Epoch: 2900, Error: 0.012130241723546323
Epoch: 3000, Error: 0.012034040093433984
Epoch: 3100, Error: 0.012030072240231319
Epoch: 3200, Error: 0.01220323501738589
Epoch: 3300, Error: 0.012692663842463647
Epoch: 3400, Error: 0.012049986455973981
Epoch: 3500, Error: 0.011980791013508177
Epoch: 3600, Error: 0.011921006054533435
Epoch: 3700, Error: 0.011968571972210882
Epoch: 3800, Error: 0.01179211289344324
Epoch: 3900, Error: 0.011765086667709534
Epoch: 4000, Error: 0.011520428805730577
Epoch: 4100, Error: 0.011444952636279006
Epoch: 4200, Error: 0.011561407794976728
Epoch: 4300, Error: 0.011513217645328436
Epoch: 4400, Error: 0.011709538745017383
Epoch: 4500, Error: 0.01150012231134913
Epoch: 4600, Error: 0.011248608478312175
Epoch: 4700, Error: 0.011761361139560026
Epoch: 4800, Error: 0.011559766870832398
Epoch: 4900, Error: 0.01107213447468251
Epoch: 5000, Error: 0.010931478510680223
Epoch: 5100, Error: 0.010838781296833407
Epoch: 5200, Error: 0.010964389760374643
Epoch: 5300, Error: 0.010693366371570066
Epoch: 5400, Error: 0.01071866678792067
Epoch: 5500, Error: 0.011031492823903784
Epoch: 5600, Error: 0.010468084722409808
Epoch: 5700, Error: 0.010279328185120304
Epoch: 5800, Error: 0.010602813584980037
Epoch: 5900, Error: 0.010642042578106263
Epoch: 6000, Error: 0.010098431626008994
Epoch: 6100, Error: 0.010405473178946821
Epoch: 6200, Error: 0.010147499190130875
Epoch: 6300, Error: 0.009830634030442504
Epoch: 6400, Error: 0.009568650391375435
Epoch: 6500, Error: 0.009496048188964629
Epoch: 6600, Error: 0.00945529709247137
Epoch: 6700, Error: 0.009450804354079675
Epoch: 6800, Error: 0.009503635794133524
Epoch: 6900, Error: 0.009525493853375552
Epoch: 7000, Error: 0.009396109307785132
Epoch: 7100, Error: 0.00948141999930723
Epoch: 7200, Error: 0.009410314583032119
Epoch: 7300, Error: 0.009345044971944412
Epoch: 7400, Error: 0.009360384977583507
Epoch: 7500, Error: 0.00939296908783548
Epoch: 7600, Error: 0.009344711608293447
Epoch: 7700, Error: 0.009322696105728367
Epoch: 7800, Error: 0.009323249730644613
Epoch: 7900, Error: 0.009322554469456104
Epoch: 8000, Error: 0.009345169596810214
Epoch: 8100, Error: 0.009321536821174991
Epoch: 8200, Error: 0.009313357031802237
Epoch: 8300, Error: 0.009325781918786176
Epoch: 8400, Error: 0.00928920336407981
Epoch: 8500, Error: 0.009281321886298282
Epoch: 8600, Error: 0.009303596935165132
Epoch: 8700, Error: 0.009258226498747475
Epoch: 8800, Error: 0.009295646959931094
Epoch: 8900, Error: 0.009281884201272161
Epoch: 9000, Error: 0.009273472580615868
Epoch: 9100, Error: 0.009282078130380022
Epoch: 9200, Error: 0.009233944494044358
Epoch: 9300, Error: 0.009261287861519672
Epoch: 9400, Error: 0.00926538859733918
Epoch: 9500, Error: 0.009263464132993256
Finished
