Input Patterns
0.224 0.624 0.067 0.043 
0.11 0.502 0.051 0.043 
0.196 0.667 0.067 0.043 
0.055 0.584 0.067 0.082 
0.027 0.376 0.067 0.043 
0.306 0.71 0.086 0.043 
0.137 0.416 0.067 0.0 
0.416 0.831 0.035 0.043 
0.306 0.792 0.051 0.125 
0.388 0.749 0.118 0.082 
0.306 0.584 0.118 0.043 
0.082 0.667 0.0 0.043 
0.137 0.584 0.153 0.043 
0.196 0.584 0.102 0.125 
0.251 0.584 0.067 0.043 
0.137 0.459 0.102 0.043 
0.251 0.875 0.086 0.0 
0.165 0.459 0.086 0.043 
0.333 0.624 0.051 0.043 
0.027 0.416 0.051 0.043 
0.196 0.624 0.051 0.082 
0.027 0.502 0.051 0.043 
0.224 0.749 0.153 0.125 
0.224 0.749 0.102 0.043 
0.278 0.71 0.086 0.043 
0.165 0.416 0.067 0.043 
0.082 0.459 0.086 0.043 
0.306 0.792 0.118 0.125 
0.196 0.584 0.086 0.043 
0.165 0.459 0.086 0.0 
0.137 0.584 0.102 0.043 
0.0 0.416 0.016 0.0 
0.388 1.0 0.086 0.125 
0.224 0.624 0.067 0.082 
0.224 0.749 0.086 0.082 
0.224 0.71 0.086 0.125 
0.224 0.541 0.118 0.165 
0.196 0.416 0.102 0.043 
0.251 0.624 0.086 0.043 
0.11 0.502 0.102 0.043 
0.306 0.584 0.086 0.125 
0.333 0.918 0.067 0.043 
0.196 0.502 0.035 0.043 
0.165 0.667 0.067 0.0 
0.224 0.584 0.086 0.043 
0.055 0.125 0.051 0.082 
0.196 0.624 0.102 0.208 
0.137 0.416 0.067 0.082 
0.082 0.502 0.067 0.043 
0.196 0.541 0.067 0.043 
0.749 0.502 0.627 0.541 
0.722 0.459 0.663 0.584 
0.612 0.333 0.612 0.584 
0.557 0.541 0.627 0.624 
0.639 0.376 0.612 0.498 
0.196 0.0 0.424 0.376 
0.471 0.082 0.51 0.376 
0.361 0.376 0.439 0.498 
0.361 0.416 0.592 0.584 
0.529 0.082 0.592 0.584 
0.443 0.502 0.643 0.459 
0.557 0.208 0.663 0.584 
0.584 0.376 0.561 0.498 
0.694 0.333 0.643 0.541 
0.471 0.376 0.592 0.584 
0.333 0.169 0.475 0.416 
0.416 0.29 0.49 0.459 
0.306 0.416 0.592 0.584 
0.667 0.459 0.627 0.584 
0.361 0.416 0.525 0.498 
0.333 0.251 0.576 0.459 
0.416 0.251 0.51 0.459 
0.361 0.29 0.541 0.498 
0.388 0.376 0.541 0.498 
0.224 0.208 0.337 0.416 
0.584 0.502 0.592 0.584 
0.333 0.125 0.51 0.498 
0.388 0.333 0.592 0.498 
0.165 0.169 0.388 0.376 
0.251 0.29 0.49 0.541 
0.443 0.416 0.541 0.584 
0.498 0.376 0.627 0.541 
0.667 0.459 0.576 0.541 
0.416 0.29 0.525 0.376 
0.361 0.208 0.49 0.416 
0.498 0.333 0.51 0.498 
0.498 0.333 0.627 0.459 
0.639 0.416 0.576 0.541 
0.667 0.416 0.678 0.667 
0.388 0.251 0.424 0.376 
0.333 0.169 0.459 0.376 
0.471 0.29 0.694 0.624 
0.471 0.584 0.592 0.624 
0.557 0.125 0.576 0.498 
0.333 0.208 0.51 0.498 
0.498 0.416 0.612 0.541 
0.196 0.125 0.388 0.376 
0.388 0.416 0.541 0.459 
0.529 0.376 0.561 0.498 
0.388 0.333 0.525 0.498 
0.557 0.541 0.847 1.0 
0.776 0.416 0.831 0.831 
0.612 0.416 0.812 0.875 
0.165 0.208 0.592 0.667 
0.667 0.208 0.812 0.71 
0.612 0.502 0.694 0.792 
0.694 0.416 0.761 0.831 
0.416 0.333 0.694 0.957 
0.612 0.416 0.761 0.71 
0.945 0.251 1.0 0.918 
0.722 0.502 0.796 0.918 
0.945 0.333 0.965 0.792 
0.667 0.541 0.796 0.831 
0.529 0.333 0.643 0.71 
0.584 0.333 0.78 0.831 
0.863 0.333 0.863 0.749 
0.584 0.333 0.78 0.875 
0.498 0.251 0.78 0.541 
0.557 0.584 0.78 0.957 
0.471 0.416 0.643 0.71 
0.667 0.459 0.78 0.957 
0.416 0.29 0.694 0.749 
0.667 0.541 0.796 1.0 
0.557 0.208 0.678 0.749 
0.529 0.584 0.745 0.918 
0.416 0.29 0.694 0.749 
0.557 0.376 0.78 0.71 
0.918 0.416 0.949 0.831 
0.835 0.376 0.898 0.71 
0.804 0.667 0.863 1.0 
0.584 0.29 0.729 0.749 
0.388 0.208 0.678 0.792 
0.584 0.502 0.729 0.918 
0.945 0.749 0.965 0.875 
0.471 0.082 0.678 0.584 
0.361 0.333 0.663 0.792 
0.557 0.29 0.663 0.71 
0.804 0.502 0.847 0.71 
0.498 0.416 0.51 0.71 
0.804 0.416 0.812 0.624 
1.0 0.749 0.914 0.792 
0.557 0.333 0.694 0.584 
0.945 0.416 0.863 0.918 
0.584 0.459 0.761 0.71 
0.722 0.459 0.745 0.831 
0.722 0.459 0.694 0.918 
0.694 0.502 0.831 0.918 
0.667 0.416 0.714 0.918 
0.612 0.416 0.714 0.792 
0.443 0.416 0.694 0.71 
Teaching Patterns
1.0 0.0 0.0 
1.0 0.0 0.0 
1.0 0.0 0.0 
1.0 0.0 0.0 
1.0 0.0 0.0 
1.0 0.0 0.0 
1.0 0.0 0.0 
1.0 0.0 0.0 
1.0 0.0 0.0 
1.0 0.0 0.0 
1.0 0.0 0.0 
1.0 0.0 0.0 
1.0 0.0 0.0 
1.0 0.0 0.0 
1.0 0.0 0.0 
1.0 0.0 0.0 
1.0 0.0 0.0 
1.0 0.0 0.0 
1.0 0.0 0.0 
1.0 0.0 0.0 
1.0 0.0 0.0 
1.0 0.0 0.0 
1.0 0.0 0.0 
1.0 0.0 0.0 
1.0 0.0 0.0 
1.0 0.0 0.0 
1.0 0.0 0.0 
1.0 0.0 0.0 
1.0 0.0 0.0 
1.0 0.0 0.0 
1.0 0.0 0.0 
1.0 0.0 0.0 
1.0 0.0 0.0 
1.0 0.0 0.0 
1.0 0.0 0.0 
1.0 0.0 0.0 
1.0 0.0 0.0 
1.0 0.0 0.0 
1.0 0.0 0.0 
1.0 0.0 0.0 
1.0 0.0 0.0 
1.0 0.0 0.0 
1.0 0.0 0.0 
1.0 0.0 0.0 
1.0 0.0 0.0 
1.0 0.0 0.0 
1.0 0.0 0.0 
1.0 0.0 0.0 
1.0 0.0 0.0 
1.0 0.0 0.0 
0.0 1.0 0.0 
0.0 1.0 0.0 
0.0 1.0 0.0 
0.0 1.0 0.0 
0.0 1.0 0.0 
0.0 1.0 0.0 
0.0 1.0 0.0 
0.0 1.0 0.0 
0.0 1.0 0.0 
0.0 1.0 0.0 
0.0 1.0 0.0 
0.0 1.0 0.0 
0.0 1.0 0.0 
0.0 1.0 0.0 
0.0 1.0 0.0 
0.0 1.0 0.0 
0.0 1.0 0.0 
0.0 1.0 0.0 
0.0 1.0 0.0 
0.0 1.0 0.0 
0.0 1.0 0.0 
0.0 1.0 0.0 
0.0 1.0 0.0 
0.0 1.0 0.0 
0.0 1.0 0.0 
0.0 1.0 0.0 
0.0 1.0 0.0 
0.0 1.0 0.0 
0.0 1.0 0.0 
0.0 1.0 0.0 
0.0 1.0 0.0 
0.0 1.0 0.0 
0.0 1.0 0.0 
0.0 1.0 0.0 
0.0 1.0 0.0 
0.0 1.0 0.0 
0.0 1.0 0.0 
0.0 1.0 0.0 
0.0 1.0 0.0 
0.0 1.0 0.0 
0.0 1.0 0.0 
0.0 1.0 0.0 
0.0 1.0 0.0 
0.0 1.0 0.0 
0.0 1.0 0.0 
0.0 1.0 0.0 
0.0 1.0 0.0 
0.0 1.0 0.0 
0.0 1.0 0.0 
0.0 1.0 0.0 
0.0 0.0 1.0 
0.0 0.0 1.0 
0.0 0.0 1.0 
0.0 0.0 1.0 
0.0 0.0 1.0 
0.0 0.0 1.0 
0.0 0.0 1.0 
0.0 0.0 1.0 
0.0 0.0 1.0 
0.0 0.0 1.0 
0.0 0.0 1.0 
0.0 0.0 1.0 
0.0 0.0 1.0 
0.0 0.0 1.0 
0.0 0.0 1.0 
0.0 0.0 1.0 
0.0 0.0 1.0 
0.0 0.0 1.0 
0.0 0.0 1.0 
0.0 0.0 1.0 
0.0 0.0 1.0 
0.0 0.0 1.0 
0.0 0.0 1.0 
0.0 0.0 1.0 
0.0 0.0 1.0 
0.0 0.0 1.0 
0.0 0.0 1.0 
0.0 0.0 1.0 
0.0 0.0 1.0 
0.0 0.0 1.0 
0.0 0.0 1.0 
0.0 0.0 1.0 
0.0 0.0 1.0 
0.0 0.0 1.0 
0.0 0.0 1.0 
0.0 0.0 1.0 
0.0 0.0 1.0 
0.0 0.0 1.0 
0.0 0.0 1.0 
0.0 0.0 1.0 
0.0 0.0 1.0 
0.0 0.0 1.0 
0.0 0.0 1.0 
0.0 0.0 1.0 
0.0 0.0 1.0 
0.0 0.0 1.0 
0.0 0.0 1.0 
0.0 0.0 1.0 
0.0 0.0 1.0 
0.0 0.0 1.0 
Learning : 0.699999988079071
Momentum : 0.9
Epoch: 100, Error: 0.014060365595611928
Epoch: 200, Error: 0.013209892424230247
Epoch: 300, Error: 0.012175664666229396
Epoch: 400, Error: 0.012315682285267283
Epoch: 500, Error: 0.012474076306273943
Epoch: 600, Error: 0.013190367354881154
Epoch: 700, Error: 0.012829795821206774
Epoch: 800, Error: 0.012556662332732853
Epoch: 900, Error: 0.013486229399175608
Epoch: 1000, Error: 0.012591303353890542
Epoch: 1100, Error: 0.012509552216534638
Epoch: 1200, Error: 0.012453025763131384
Epoch: 1300, Error: 0.015495658479414339
Epoch: 1400, Error: 0.013718911245911269
Epoch: 1500, Error: 0.013462994310043936
Epoch: 1600, Error: 0.014705387009718083
Epoch: 1700, Error: 0.012755469225292864
Epoch: 1800, Error: 0.0125371534148313
Epoch: 1900, Error: 0.012711716358491987
Epoch: 2000, Error: 0.012238981045648275
Epoch: 2100, Error: 0.012153878677382771
Epoch: 2200, Error: 0.012234301960339044
Epoch: 2300, Error: 0.012578232016471352
Epoch: 2400, Error: 0.012176815335948197
Epoch: 2500, Error: 0.012157283729203784
Epoch: 2600, Error: 0.0134637809405114
Epoch: 2700, Error: 0.013649816915071453
Epoch: 2800, Error: 0.012885528816669538
Epoch: 2900, Error: 0.012474458921869519
Epoch: 3000, Error: 0.01192259365484756
Epoch: 3100, Error: 0.01182417565947173
Epoch: 3200, Error: 0.011741086323765712
Epoch: 3300, Error: 0.011768769679192952
Epoch: 3400, Error: 0.01187891794110528
Epoch: 3500, Error: 0.012044172203998487
Epoch: 3600, Error: 0.011655541017503412
Epoch: 3700, Error: 0.011729019580998836
Epoch: 3800, Error: 0.012330580536478286
Epoch: 3900, Error: 0.011694690010089723
Epoch: 4000, Error: 0.011773208907103672
Epoch: 4100, Error: 0.011532622980553174
Epoch: 4200, Error: 0.01134002563552715
Epoch: 4300, Error: 0.011300785010045495
Epoch: 4400, Error: 0.012137988456764103
Epoch: 4500, Error: 0.011554883935386749
Epoch: 4600, Error: 0.012018192596521876
Epoch: 4700, Error: 0.011121152184964804
Epoch: 4800, Error: 0.010978704676400974
Epoch: 4900, Error: 0.010737369152098327
Epoch: 5000, Error: 0.010626025979014965
Epoch: 5100, Error: 0.010777184795171226
Epoch: 5200, Error: 0.010506341532180271
Epoch: 5300, Error: 0.010989157132781988
Epoch: 5400, Error: 0.010250880769122023
Epoch: 5500, Error: 0.010158877934590322
Epoch: 5600, Error: 0.010070221595835427
Epoch: 5700, Error: 0.009927421272246696
Epoch: 5800, Error: 0.010023067436119052
Epoch: 5900, Error: 0.010150630420370493
Epoch: 6000, Error: 0.009689099683883621
Epoch: 6100, Error: 0.009634108423960284
Epoch: 6200, Error: 0.009625402023058813
Epoch: 6300, Error: 0.009715296928058536
Epoch: 6400, Error: 0.009539316309448794
Epoch: 6500, Error: 0.009584663745792735
Epoch: 6600, Error: 0.009567708398772853
Epoch: 6700, Error: 0.009559450830523406
Epoch: 6800, Error: 0.009520794257561553
Epoch: 6900, Error: 0.00961270448591612
Epoch: 7000, Error: 0.009500501515505601
Epoch: 7100, Error: 0.009512194218290084
Epoch: 7200, Error: 0.009483909769751414
Epoch: 7300, Error: 0.00948031674794144
Epoch: 7400, Error: 0.009468731781380043
Epoch: 7500, Error: 0.009567826307520323
Epoch: 7600, Error: 0.009498065446710464
Epoch: 7700, Error: 0.009496848236934242
Epoch: 7800, Error: 0.009533601285566776
Epoch: 7900, Error: 0.009456231026956932
Epoch: 8000, Error: 0.009478263203669113
Epoch: 8100, Error: 0.009487123910245959
Epoch: 8200, Error: 0.00949155555556033
Epoch: 8300, Error: 0.009504146244894313
Epoch: 8400, Error: 0.00945398666756761
Epoch: 8500, Error: 0.009486858281985814
Epoch: 8600, Error: 0.00946391728427853
Epoch: 8700, Error: 0.009472392864418044
Epoch: 8800, Error: 0.00947985246894218
Epoch: 8900, Error: 0.009490004478439684
Epoch: 9000, Error: 0.009476869907851777
Epoch: 9100, Error: 0.009473365174048563
Epoch: 9200, Error: 0.009449950616534177
Epoch: 9300, Error: 0.009440417628541094
Epoch: 9400, Error: 0.009449336379009845
Epoch: 9500, Error: 0.009476764117658007
Epoch: 9600, Error: 0.009463164772010249
Epoch: 9700, Error: 0.009495387794691466
Epoch: 9800, Error: 0.009443006066034617
Epoch: 9900, Error: 0.009457757798901035
Epoch: 10000, Error: 0.009455467480527977
Epoch: 10100, Error: 0.009505988738905983
Epoch: 10200, Error: 0.009476781194421179
Finished
