Input Patterns
0.224 0.624 0.067 0.043 
0.11 0.502 0.051 0.043 
0.196 0.667 0.067 0.043 
0.055 0.584 0.067 0.082 
0.027 0.376 0.067 0.043 
0.306 0.71 0.086 0.043 
0.137 0.416 0.067 0.0 
0.416 0.831 0.035 0.043 
0.306 0.792 0.051 0.125 
0.388 0.749 0.118 0.082 
0.306 0.584 0.118 0.043 
0.082 0.667 0.0 0.043 
0.137 0.584 0.153 0.043 
0.196 0.584 0.102 0.125 
0.251 0.584 0.067 0.043 
0.137 0.459 0.102 0.043 
0.251 0.875 0.086 0.0 
0.165 0.459 0.086 0.043 
0.333 0.624 0.051 0.043 
0.027 0.416 0.051 0.043 
0.196 0.624 0.051 0.082 
0.027 0.502 0.051 0.043 
0.224 0.749 0.153 0.125 
0.224 0.749 0.102 0.043 
0.278 0.71 0.086 0.043 
0.165 0.416 0.067 0.043 
0.082 0.459 0.086 0.043 
0.306 0.792 0.118 0.125 
0.196 0.584 0.086 0.043 
0.165 0.459 0.086 0.0 
0.137 0.584 0.102 0.043 
0.0 0.416 0.016 0.0 
0.388 1.0 0.086 0.125 
0.224 0.624 0.067 0.082 
0.224 0.749 0.086 0.082 
0.224 0.71 0.086 0.125 
0.224 0.541 0.118 0.165 
0.196 0.416 0.102 0.043 
0.251 0.624 0.086 0.043 
0.11 0.502 0.102 0.043 
0.306 0.584 0.086 0.125 
0.333 0.918 0.067 0.043 
0.196 0.502 0.035 0.043 
0.165 0.667 0.067 0.0 
0.224 0.584 0.086 0.043 
0.055 0.125 0.051 0.082 
0.196 0.624 0.102 0.208 
0.137 0.416 0.067 0.082 
0.082 0.502 0.067 0.043 
0.196 0.541 0.067 0.043 
0.749 0.502 0.627 0.541 
0.722 0.459 0.663 0.584 
0.612 0.333 0.612 0.584 
0.557 0.541 0.627 0.624 
0.639 0.376 0.612 0.498 
0.196 0.0 0.424 0.376 
0.471 0.082 0.51 0.376 
0.361 0.376 0.439 0.498 
0.361 0.416 0.592 0.584 
0.529 0.082 0.592 0.584 
0.443 0.502 0.643 0.459 
0.557 0.208 0.663 0.584 
0.584 0.376 0.561 0.498 
0.694 0.333 0.643 0.541 
0.471 0.376 0.592 0.584 
0.333 0.169 0.475 0.416 
0.416 0.29 0.49 0.459 
0.306 0.416 0.592 0.584 
0.667 0.459 0.627 0.584 
0.361 0.416 0.525 0.498 
0.333 0.251 0.576 0.459 
0.416 0.251 0.51 0.459 
0.361 0.29 0.541 0.498 
0.388 0.376 0.541 0.498 
0.224 0.208 0.337 0.416 
0.584 0.502 0.592 0.584 
0.333 0.125 0.51 0.498 
0.388 0.333 0.592 0.498 
0.165 0.169 0.388 0.376 
0.251 0.29 0.49 0.541 
0.443 0.416 0.541 0.584 
0.498 0.376 0.627 0.541 
0.667 0.459 0.576 0.541 
0.416 0.29 0.525 0.376 
0.361 0.208 0.49 0.416 
0.498 0.333 0.51 0.498 
0.498 0.333 0.627 0.459 
0.639 0.416 0.576 0.541 
0.667 0.416 0.678 0.667 
0.388 0.251 0.424 0.376 
0.333 0.169 0.459 0.376 
0.471 0.29 0.694 0.624 
0.471 0.584 0.592 0.624 
0.557 0.125 0.576 0.498 
0.333 0.208 0.51 0.498 
0.498 0.416 0.612 0.541 
0.196 0.125 0.388 0.376 
0.388 0.416 0.541 0.459 
0.529 0.376 0.561 0.498 
0.388 0.333 0.525 0.498 
0.557 0.541 0.847 1.0 
0.776 0.416 0.831 0.831 
0.612 0.416 0.812 0.875 
0.165 0.208 0.592 0.667 
0.667 0.208 0.812 0.71 
0.612 0.502 0.694 0.792 
0.694 0.416 0.761 0.831 
0.416 0.333 0.694 0.957 
0.612 0.416 0.761 0.71 
0.945 0.251 1.0 0.918 
0.722 0.502 0.796 0.918 
0.945 0.333 0.965 0.792 
0.667 0.541 0.796 0.831 
0.529 0.333 0.643 0.71 
0.584 0.333 0.78 0.831 
0.863 0.333 0.863 0.749 
0.584 0.333 0.78 0.875 
0.498 0.251 0.78 0.541 
0.557 0.584 0.78 0.957 
0.471 0.416 0.643 0.71 
0.667 0.459 0.78 0.957 
0.416 0.29 0.694 0.749 
0.667 0.541 0.796 1.0 
0.557 0.208 0.678 0.749 
0.529 0.584 0.745 0.918 
0.416 0.29 0.694 0.749 
0.557 0.376 0.78 0.71 
0.918 0.416 0.949 0.831 
0.835 0.376 0.898 0.71 
0.804 0.667 0.863 1.0 
0.584 0.29 0.729 0.749 
0.388 0.208 0.678 0.792 
0.584 0.502 0.729 0.918 
0.945 0.749 0.965 0.875 
0.471 0.082 0.678 0.584 
0.361 0.333 0.663 0.792 
0.557 0.29 0.663 0.71 
0.804 0.502 0.847 0.71 
0.498 0.416 0.51 0.71 
0.804 0.416 0.812 0.624 
1.0 0.749 0.914 0.792 
0.557 0.333 0.694 0.584 
0.945 0.416 0.863 0.918 
0.584 0.459 0.761 0.71 
0.722 0.459 0.745 0.831 
0.722 0.459 0.694 0.918 
0.694 0.502 0.831 0.918 
0.667 0.416 0.714 0.918 
0.612 0.416 0.714 0.792 
0.443 0.416 0.694 0.71 
Teaching Patterns
1.0 0.0 0.0 
1.0 0.0 0.0 
1.0 0.0 0.0 
1.0 0.0 0.0 
1.0 0.0 0.0 
1.0 0.0 0.0 
1.0 0.0 0.0 
1.0 0.0 0.0 
1.0 0.0 0.0 
1.0 0.0 0.0 
1.0 0.0 0.0 
1.0 0.0 0.0 
1.0 0.0 0.0 
1.0 0.0 0.0 
1.0 0.0 0.0 
1.0 0.0 0.0 
1.0 0.0 0.0 
1.0 0.0 0.0 
1.0 0.0 0.0 
1.0 0.0 0.0 
1.0 0.0 0.0 
1.0 0.0 0.0 
1.0 0.0 0.0 
1.0 0.0 0.0 
1.0 0.0 0.0 
1.0 0.0 0.0 
1.0 0.0 0.0 
1.0 0.0 0.0 
1.0 0.0 0.0 
1.0 0.0 0.0 
1.0 0.0 0.0 
1.0 0.0 0.0 
1.0 0.0 0.0 
1.0 0.0 0.0 
1.0 0.0 0.0 
1.0 0.0 0.0 
1.0 0.0 0.0 
1.0 0.0 0.0 
1.0 0.0 0.0 
1.0 0.0 0.0 
1.0 0.0 0.0 
1.0 0.0 0.0 
1.0 0.0 0.0 
1.0 0.0 0.0 
1.0 0.0 0.0 
1.0 0.0 0.0 
1.0 0.0 0.0 
1.0 0.0 0.0 
1.0 0.0 0.0 
1.0 0.0 0.0 
0.0 1.0 0.0 
0.0 1.0 0.0 
0.0 1.0 0.0 
0.0 1.0 0.0 
0.0 1.0 0.0 
0.0 1.0 0.0 
0.0 1.0 0.0 
0.0 1.0 0.0 
0.0 1.0 0.0 
0.0 1.0 0.0 
0.0 1.0 0.0 
0.0 1.0 0.0 
0.0 1.0 0.0 
0.0 1.0 0.0 
0.0 1.0 0.0 
0.0 1.0 0.0 
0.0 1.0 0.0 
0.0 1.0 0.0 
0.0 1.0 0.0 
0.0 1.0 0.0 
0.0 1.0 0.0 
0.0 1.0 0.0 
0.0 1.0 0.0 
0.0 1.0 0.0 
0.0 1.0 0.0 
0.0 1.0 0.0 
0.0 1.0 0.0 
0.0 1.0 0.0 
0.0 1.0 0.0 
0.0 1.0 0.0 
0.0 1.0 0.0 
0.0 1.0 0.0 
0.0 1.0 0.0 
0.0 1.0 0.0 
0.0 1.0 0.0 
0.0 1.0 0.0 
0.0 1.0 0.0 
0.0 1.0 0.0 
0.0 1.0 0.0 
0.0 1.0 0.0 
0.0 1.0 0.0 
0.0 1.0 0.0 
0.0 1.0 0.0 
0.0 1.0 0.0 
0.0 1.0 0.0 
0.0 1.0 0.0 
0.0 1.0 0.0 
0.0 1.0 0.0 
0.0 1.0 0.0 
0.0 1.0 0.0 
0.0 0.0 1.0 
0.0 0.0 1.0 
0.0 0.0 1.0 
0.0 0.0 1.0 
0.0 0.0 1.0 
0.0 0.0 1.0 
0.0 0.0 1.0 
0.0 0.0 1.0 
0.0 0.0 1.0 
0.0 0.0 1.0 
0.0 0.0 1.0 
0.0 0.0 1.0 
0.0 0.0 1.0 
0.0 0.0 1.0 
0.0 0.0 1.0 
0.0 0.0 1.0 
0.0 0.0 1.0 
0.0 0.0 1.0 
0.0 0.0 1.0 
0.0 0.0 1.0 
0.0 0.0 1.0 
0.0 0.0 1.0 
0.0 0.0 1.0 
0.0 0.0 1.0 
0.0 0.0 1.0 
0.0 0.0 1.0 
0.0 0.0 1.0 
0.0 0.0 1.0 
0.0 0.0 1.0 
0.0 0.0 1.0 
0.0 0.0 1.0 
0.0 0.0 1.0 
0.0 0.0 1.0 
0.0 0.0 1.0 
0.0 0.0 1.0 
0.0 0.0 1.0 
0.0 0.0 1.0 
0.0 0.0 1.0 
0.0 0.0 1.0 
0.0 0.0 1.0 
0.0 0.0 1.0 
0.0 0.0 1.0 
0.0 0.0 1.0 
0.0 0.0 1.0 
0.0 0.0 1.0 
0.0 0.0 1.0 
0.0 0.0 1.0 
0.0 0.0 1.0 
0.0 0.0 1.0 
0.0 0.0 1.0 
Learning : 0.699999988079071
Momentum : 0.9
Epoch: 100, Error: 0.012511971241677263
Epoch: 200, Error: 0.012743632984489488
Epoch: 300, Error: 0.022216431357458027
Epoch: 400, Error: 0.017711420668548382
Epoch: 500, Error: 0.012386141490394579
Epoch: 600, Error: 0.014875617228001216
Epoch: 700, Error: 0.011801743618139444
Epoch: 800, Error: 0.013707164985510093
Epoch: 900, Error: 0.0140855812213548
Epoch: 1000, Error: 0.011851203517386107
Epoch: 1100, Error: 0.01176746370312207
Epoch: 1200, Error: 0.013383653040001097
Epoch: 1300, Error: 0.011375995927637059
Epoch: 1400, Error: 0.011844275656271741
Epoch: 1500, Error: 0.013548494927285585
Epoch: 1600, Error: 0.012472131139807944
Epoch: 1700, Error: 0.012187580856431733
Epoch: 1800, Error: 0.011386928157474807
Epoch: 1900, Error: 0.011721210003243004
Epoch: 2000, Error: 0.011214136093577748
Epoch: 2100, Error: 0.011100254618668306
Epoch: 2200, Error: 0.011458646758356146
Epoch: 2300, Error: 0.011102958428647737
Epoch: 2400, Error: 0.012257063263751646
Epoch: 2500, Error: 0.011063383785114705
Epoch: 2600, Error: 0.011601261622734645
Epoch: 2700, Error: 0.010665121864508076
Epoch: 2800, Error: 0.012929175425582412
Epoch: 2900, Error: 0.010890377412511752
Epoch: 3000, Error: 0.01083067202534977
Epoch: 3100, Error: 0.011089257369622171
Epoch: 3200, Error: 0.010799526768295908
Epoch: 3300, Error: 0.010244944144680372
Epoch: 3400, Error: 0.010336463365422295
Epoch: 3500, Error: 0.010161739482004817
Epoch: 3600, Error: 0.010141314854792034
Epoch: 3700, Error: 0.010470656041991318
Epoch: 3800, Error: 0.010257125269924637
Epoch: 3900, Error: 0.010739540395818098
Epoch: 4000, Error: 0.009930843185536997
Epoch: 4100, Error: 0.009858799023306077
Epoch: 4200, Error: 0.009947809038555893
Epoch: 4300, Error: 0.009913481050294675
Epoch: 4400, Error: 0.00950846220909373
Epoch: 4500, Error: 0.010023018325923996
Epoch: 4600, Error: 0.009550063024189396
Epoch: 4700, Error: 0.009166260350076675
Epoch: 4800, Error: 0.009190998528104495
Epoch: 4900, Error: 0.009648414580660115
Epoch: 5000, Error: 0.009078388536620458
Epoch: 5100, Error: 0.011923001709711466
Epoch: 5200, Error: 0.008320543518171714
Epoch: 5300, Error: 0.008646656222835466
Epoch: 5400, Error: 0.008120179018873911
Epoch: 5500, Error: 0.008076478138991485
Epoch: 5600, Error: 0.006835989363335297
Epoch: 5700, Error: 0.006339034854989936
Epoch: 5800, Error: 0.006581695042663856
Epoch: 5900, Error: 0.006151733972813185
Epoch: 6000, Error: 0.0056837143240707775
Epoch: 6100, Error: 0.005556606796236992
Epoch: 6200, Error: 0.005603050632669697
Epoch: 6300, Error: 0.005373976110048748
Epoch: 6400, Error: 0.0053670787271189214
Epoch: 6500, Error: 0.00543619274805612
Epoch: 6600, Error: 0.005427529644476488
Epoch: 6700, Error: 0.0053123793556975486
Epoch: 6800, Error: 0.005217962407359346
Epoch: 6900, Error: 0.005068892213067943
Epoch: 7000, Error: 0.005244310278996854
Epoch: 7100, Error: 0.005015821373516722
Epoch: 7200, Error: 0.005020772522105222
Epoch: 7300, Error: 0.004941653139733235
Epoch: 7400, Error: 0.0049693137468297035
Epoch: 7500, Error: 0.0049095916875787245
Epoch: 7600, Error: 0.00483287628170405
Epoch: 7700, Error: 0.004821719314886331
Epoch: 7800, Error: 0.00491603224135086
Epoch: 7900, Error: 0.0047655960373903196
Epoch: 8000, Error: 0.0047888724877357056
Epoch: 8100, Error: 0.005089948628637966
Epoch: 8200, Error: 0.004753080134838647
Epoch: 8300, Error: 0.004678848216539112
Epoch: 8400, Error: 0.0046479697753845075
Epoch: 8500, Error: 0.00465214855968741
Epoch: 8600, Error: 0.004602535955780163
Epoch: 8700, Error: 0.0049914175208314315
Epoch: 8800, Error: 0.0044361289076143545
Epoch: 8900, Error: 0.004376126892071238
Epoch: 9000, Error: 0.004700969193483697
Epoch: 9100, Error: 0.004311071868323706
Epoch: 9200, Error: 0.0043169254268721645
Epoch: 9300, Error: 0.003954462834190021
Epoch: 9400, Error: 0.00394425888894887
Epoch: 9500, Error: 0.003645460276867689
Epoch: 9600, Error: 0.0037658981606709433
Epoch: 9700, Error: 0.004028501625513778
Epoch: 9800, Error: 0.005325060325455971
Epoch: 9900, Error: 0.004104946477168767
Epoch: 10000, Error: 0.002868829978166168
Epoch: 10100, Error: 0.0027218977902781502
Epoch: 10200, Error: 0.0036469555409708162
Epoch: 10300, Error: 0.004706767055644372
Epoch: 10400, Error: 0.0034440538165465386
Epoch: 10500, Error: 0.00315744979201376
Epoch: 10600, Error: 0.0020690844621491207
Epoch: 10700, Error: 0.0015091406652969605
Epoch: 10800, Error: 0.002335688956152012
Epoch: 10900, Error: 0.0014349993320692158
Epoch: 11000, Error: 0.0018795595076771293
Epoch: 11100, Error: 0.0010907735272392715
Epoch: 11200, Error: 0.0010823179147404413
Epoch: 11300, Error: 9.450903475413718E-4
Epoch: 11400, Error: 8.129873375476058E-4
Epoch: 11500, Error: 8.552675973958306E-4
Epoch: 11600, Error: 8.113878789747281E-4
Epoch: 11700, Error: 7.845921486222768E-4
Epoch: 11800, Error: 7.755977149703444E-4
Epoch: 11900, Error: 7.092825535651417E-4
Epoch: 12000, Error: 6.566038380852276E-4
Epoch: 12100, Error: 6.022398915406235E-4
Epoch: 12200, Error: 6.395595258719427E-4
Epoch: 12300, Error: 6.576955378263682E-4
Epoch: 12400, Error: 6.30534489874955E-4
Epoch: 12500, Error: 6.379377379438278E-4
Epoch: 12600, Error: 6.590106440357819E-4
Epoch: 12700, Error: 6.86099419714871E-4
Epoch: 12800, Error: 6.584938209782291E-4
Epoch: 12900, Error: 6.538288006685876E-4
Epoch: 13000, Error: 6.395373486839476E-4
Epoch: 13100, Error: 6.304765408352486E-4
Epoch: 13200, Error: 6.46357865941303E-4
Epoch: 13300, Error: 6.248398497481186E-4
Epoch: 13400, Error: 6.230175277987121E-4
Epoch: 13500, Error: 6.246202998040635E-4
Epoch: 13600, Error: 6.242038995254934E-4
Epoch: 13700, Error: 6.257005872111307E-4
Epoch: 13800, Error: 6.247700823170291E-4
Finished
