Input Patterns
0.224 0.624 0.067 0.043 
0.11 0.502 0.051 0.043 
0.196 0.667 0.067 0.043 
0.055 0.584 0.067 0.082 
0.027 0.376 0.067 0.043 
0.306 0.71 0.086 0.043 
0.137 0.416 0.067 0.0 
0.416 0.831 0.035 0.043 
0.306 0.792 0.051 0.125 
0.388 0.749 0.118 0.082 
0.306 0.584 0.118 0.043 
0.082 0.667 0.0 0.043 
0.137 0.584 0.153 0.043 
0.196 0.584 0.102 0.125 
0.251 0.584 0.067 0.043 
0.137 0.459 0.102 0.043 
0.251 0.875 0.086 0.0 
0.165 0.459 0.086 0.043 
0.333 0.624 0.051 0.043 
0.027 0.416 0.051 0.043 
0.196 0.624 0.051 0.082 
0.027 0.502 0.051 0.043 
0.224 0.749 0.153 0.125 
0.224 0.749 0.102 0.043 
0.278 0.71 0.086 0.043 
0.165 0.416 0.067 0.043 
0.082 0.459 0.086 0.043 
0.306 0.792 0.118 0.125 
0.196 0.584 0.086 0.043 
0.165 0.459 0.086 0.0 
0.137 0.584 0.102 0.043 
0.0 0.416 0.016 0.0 
0.388 1.0 0.086 0.125 
0.224 0.624 0.067 0.082 
0.224 0.749 0.086 0.082 
0.224 0.71 0.086 0.125 
0.224 0.541 0.118 0.165 
0.196 0.416 0.102 0.043 
0.251 0.624 0.086 0.043 
0.11 0.502 0.102 0.043 
0.306 0.584 0.086 0.125 
0.333 0.918 0.067 0.043 
0.196 0.502 0.035 0.043 
0.165 0.667 0.067 0.0 
0.224 0.584 0.086 0.043 
0.055 0.125 0.051 0.082 
0.196 0.624 0.102 0.208 
0.137 0.416 0.067 0.082 
0.082 0.502 0.067 0.043 
0.196 0.541 0.067 0.043 
0.749 0.502 0.627 0.541 
0.722 0.459 0.663 0.584 
0.612 0.333 0.612 0.584 
0.557 0.541 0.627 0.624 
0.639 0.376 0.612 0.498 
0.196 0.0 0.424 0.376 
0.471 0.082 0.51 0.376 
0.361 0.376 0.439 0.498 
0.361 0.416 0.592 0.584 
0.529 0.082 0.592 0.584 
0.443 0.502 0.643 0.459 
0.557 0.208 0.663 0.584 
0.584 0.376 0.561 0.498 
0.694 0.333 0.643 0.541 
0.471 0.376 0.592 0.584 
0.333 0.169 0.475 0.416 
0.416 0.29 0.49 0.459 
0.306 0.416 0.592 0.584 
0.667 0.459 0.627 0.584 
0.361 0.416 0.525 0.498 
0.333 0.251 0.576 0.459 
0.416 0.251 0.51 0.459 
0.361 0.29 0.541 0.498 
0.388 0.376 0.541 0.498 
0.224 0.208 0.337 0.416 
0.584 0.502 0.592 0.584 
0.333 0.125 0.51 0.498 
0.388 0.333 0.592 0.498 
0.165 0.169 0.388 0.376 
0.251 0.29 0.49 0.541 
0.443 0.416 0.541 0.584 
0.498 0.376 0.627 0.541 
0.667 0.459 0.576 0.541 
0.416 0.29 0.525 0.376 
0.361 0.208 0.49 0.416 
0.498 0.333 0.51 0.498 
0.498 0.333 0.627 0.459 
0.639 0.416 0.576 0.541 
0.667 0.416 0.678 0.667 
0.388 0.251 0.424 0.376 
0.333 0.169 0.459 0.376 
0.471 0.29 0.694 0.624 
0.471 0.584 0.592 0.624 
0.557 0.125 0.576 0.498 
0.333 0.208 0.51 0.498 
0.498 0.416 0.612 0.541 
0.196 0.125 0.388 0.376 
0.388 0.416 0.541 0.459 
0.529 0.376 0.561 0.498 
0.388 0.333 0.525 0.498 
0.557 0.541 0.847 1.0 
0.776 0.416 0.831 0.831 
0.612 0.416 0.812 0.875 
0.165 0.208 0.592 0.667 
0.667 0.208 0.812 0.71 
0.612 0.502 0.694 0.792 
0.694 0.416 0.761 0.831 
0.416 0.333 0.694 0.957 
0.612 0.416 0.761 0.71 
0.945 0.251 1.0 0.918 
0.722 0.502 0.796 0.918 
0.945 0.333 0.965 0.792 
0.667 0.541 0.796 0.831 
0.529 0.333 0.643 0.71 
0.584 0.333 0.78 0.831 
0.863 0.333 0.863 0.749 
0.584 0.333 0.78 0.875 
0.498 0.251 0.78 0.541 
0.557 0.584 0.78 0.957 
0.471 0.416 0.643 0.71 
0.667 0.459 0.78 0.957 
0.416 0.29 0.694 0.749 
0.667 0.541 0.796 1.0 
0.557 0.208 0.678 0.749 
0.529 0.584 0.745 0.918 
0.416 0.29 0.694 0.749 
0.557 0.376 0.78 0.71 
0.918 0.416 0.949 0.831 
0.835 0.376 0.898 0.71 
0.804 0.667 0.863 1.0 
0.584 0.29 0.729 0.749 
0.388 0.208 0.678 0.792 
0.584 0.502 0.729 0.918 
0.945 0.749 0.965 0.875 
0.471 0.082 0.678 0.584 
0.361 0.333 0.663 0.792 
0.557 0.29 0.663 0.71 
0.804 0.502 0.847 0.71 
0.498 0.416 0.51 0.71 
0.804 0.416 0.812 0.624 
1.0 0.749 0.914 0.792 
0.557 0.333 0.694 0.584 
0.945 0.416 0.863 0.918 
0.584 0.459 0.761 0.71 
0.722 0.459 0.745 0.831 
0.722 0.459 0.694 0.918 
0.694 0.502 0.831 0.918 
0.667 0.416 0.714 0.918 
0.612 0.416 0.714 0.792 
0.443 0.416 0.694 0.71 
Teaching Patterns
1.0 0.0 0.0 
1.0 0.0 0.0 
1.0 0.0 0.0 
1.0 0.0 0.0 
1.0 0.0 0.0 
1.0 0.0 0.0 
1.0 0.0 0.0 
1.0 0.0 0.0 
1.0 0.0 0.0 
1.0 0.0 0.0 
1.0 0.0 0.0 
1.0 0.0 0.0 
1.0 0.0 0.0 
1.0 0.0 0.0 
1.0 0.0 0.0 
1.0 0.0 0.0 
1.0 0.0 0.0 
1.0 0.0 0.0 
1.0 0.0 0.0 
1.0 0.0 0.0 
1.0 0.0 0.0 
1.0 0.0 0.0 
1.0 0.0 0.0 
1.0 0.0 0.0 
1.0 0.0 0.0 
1.0 0.0 0.0 
1.0 0.0 0.0 
1.0 0.0 0.0 
1.0 0.0 0.0 
1.0 0.0 0.0 
1.0 0.0 0.0 
1.0 0.0 0.0 
1.0 0.0 0.0 
1.0 0.0 0.0 
1.0 0.0 0.0 
1.0 0.0 0.0 
1.0 0.0 0.0 
1.0 0.0 0.0 
1.0 0.0 0.0 
1.0 0.0 0.0 
1.0 0.0 0.0 
1.0 0.0 0.0 
1.0 0.0 0.0 
1.0 0.0 0.0 
1.0 0.0 0.0 
1.0 0.0 0.0 
1.0 0.0 0.0 
1.0 0.0 0.0 
1.0 0.0 0.0 
1.0 0.0 0.0 
0.0 1.0 0.0 
0.0 1.0 0.0 
0.0 1.0 0.0 
0.0 1.0 0.0 
0.0 1.0 0.0 
0.0 1.0 0.0 
0.0 1.0 0.0 
0.0 1.0 0.0 
0.0 1.0 0.0 
0.0 1.0 0.0 
0.0 1.0 0.0 
0.0 1.0 0.0 
0.0 1.0 0.0 
0.0 1.0 0.0 
0.0 1.0 0.0 
0.0 1.0 0.0 
0.0 1.0 0.0 
0.0 1.0 0.0 
0.0 1.0 0.0 
0.0 1.0 0.0 
0.0 1.0 0.0 
0.0 1.0 0.0 
0.0 1.0 0.0 
0.0 1.0 0.0 
0.0 1.0 0.0 
0.0 1.0 0.0 
0.0 1.0 0.0 
0.0 1.0 0.0 
0.0 1.0 0.0 
0.0 1.0 0.0 
0.0 1.0 0.0 
0.0 1.0 0.0 
0.0 1.0 0.0 
0.0 1.0 0.0 
0.0 1.0 0.0 
0.0 1.0 0.0 
0.0 1.0 0.0 
0.0 1.0 0.0 
0.0 1.0 0.0 
0.0 1.0 0.0 
0.0 1.0 0.0 
0.0 1.0 0.0 
0.0 1.0 0.0 
0.0 1.0 0.0 
0.0 1.0 0.0 
0.0 1.0 0.0 
0.0 1.0 0.0 
0.0 1.0 0.0 
0.0 1.0 0.0 
0.0 1.0 0.0 
0.0 0.0 1.0 
0.0 0.0 1.0 
0.0 0.0 1.0 
0.0 0.0 1.0 
0.0 0.0 1.0 
0.0 0.0 1.0 
0.0 0.0 1.0 
0.0 0.0 1.0 
0.0 0.0 1.0 
0.0 0.0 1.0 
0.0 0.0 1.0 
0.0 0.0 1.0 
0.0 0.0 1.0 
0.0 0.0 1.0 
0.0 0.0 1.0 
0.0 0.0 1.0 
0.0 0.0 1.0 
0.0 0.0 1.0 
0.0 0.0 1.0 
0.0 0.0 1.0 
0.0 0.0 1.0 
0.0 0.0 1.0 
0.0 0.0 1.0 
0.0 0.0 1.0 
0.0 0.0 1.0 
0.0 0.0 1.0 
0.0 0.0 1.0 
0.0 0.0 1.0 
0.0 0.0 1.0 
0.0 0.0 1.0 
0.0 0.0 1.0 
0.0 0.0 1.0 
0.0 0.0 1.0 
0.0 0.0 1.0 
0.0 0.0 1.0 
0.0 0.0 1.0 
0.0 0.0 1.0 
0.0 0.0 1.0 
0.0 0.0 1.0 
0.0 0.0 1.0 
0.0 0.0 1.0 
0.0 0.0 1.0 
0.0 0.0 1.0 
0.0 0.0 1.0 
0.0 0.0 1.0 
0.0 0.0 1.0 
0.0 0.0 1.0 
0.0 0.0 1.0 
0.0 0.0 1.0 
0.0 0.0 1.0 
Learning : 0.44999998807907104
Momentum : 0.9
Epoch: 100, Error: 0.01422733111398422
Epoch: 200, Error: 0.013460649252786496
Epoch: 300, Error: 0.01214824480739981
Epoch: 400, Error: 0.029070868902716398
Epoch: 500, Error: 0.012544223091109122
Epoch: 600, Error: 0.013603909749883647
Epoch: 700, Error: 0.012037989630405909
Epoch: 800, Error: 0.012029937858531393
Epoch: 900, Error: 0.011909364952198713
Epoch: 1000, Error: 0.011976924344711731
Epoch: 1100, Error: 0.01196383321569112
Epoch: 1200, Error: 0.012017542518738234
Epoch: 1300, Error: 0.012061883781785382
Epoch: 1400, Error: 0.012994525920709068
Epoch: 1500, Error: 0.012407049647187621
Epoch: 1600, Error: 0.01280896092756798
Epoch: 1700, Error: 0.012249281182997932
Epoch: 1800, Error: 0.011824630593676786
Epoch: 1900, Error: 0.01170114075352759
Epoch: 2000, Error: 0.011369200178904528
Epoch: 2100, Error: 0.011407106922620215
Epoch: 2200, Error: 0.011165558430643112
Epoch: 2300, Error: 0.010857550350061883
Epoch: 2400, Error: 0.010554072522157839
Epoch: 2500, Error: 0.010113033865446045
Epoch: 2600, Error: 0.00951654546534568
Epoch: 2700, Error: 0.008490084127624354
Epoch: 2800, Error: 0.009233568312986612
Epoch: 2900, Error: 0.006972060514932096
Epoch: 3000, Error: 0.006582849107662542
Epoch: 3100, Error: 0.006166413280978533
Epoch: 3200, Error: 0.005901170351169883
Epoch: 3300, Error: 0.005885786884376244
Epoch: 3400, Error: 0.005745945215627593
Epoch: 3500, Error: 0.005598406042460293
Epoch: 3600, Error: 0.00559628225510574
Epoch: 3700, Error: 0.0055714526962231965
Epoch: 3800, Error: 0.005475286338205368
Epoch: 3900, Error: 0.005486521610604626
Epoch: 4000, Error: 0.005554276121213779
Epoch: 4100, Error: 0.005493754440145347
Epoch: 4200, Error: 0.005429502665084815
Epoch: 4300, Error: 0.0054249655623826555
Epoch: 4400, Error: 0.005370479498465873
Epoch: 4500, Error: 0.005361687831344067
Epoch: 4600, Error: 0.005350240096754733
Epoch: 4700, Error: 0.005338518383389685
Epoch: 4800, Error: 0.005337833657361346
Epoch: 4900, Error: 0.005341611642717182
Epoch: 5000, Error: 0.0053225300298200265
Epoch: 5100, Error: 0.00533193246676796
Epoch: 5200, Error: 0.005345354661139076
Epoch: 5300, Error: 0.005308724806934562
Epoch: 5400, Error: 0.005299606833580784
Epoch: 5500, Error: 0.00531774858867103
Epoch: 5600, Error: 0.00528820762597642
Epoch: 5700, Error: 0.00531317678490657
Epoch: 5800, Error: 0.005319031511866246
Epoch: 5900, Error: 0.0053133025884118164
Epoch: 6000, Error: 0.005320076102087277
Epoch: 6100, Error: 0.005325514322231745
Epoch: 6200, Error: 0.005279196404426411
Epoch: 6300, Error: 0.005323169029451772
Epoch: 6400, Error: 0.005299866372828345
Epoch: 6500, Error: 0.005238489849479196
Epoch: 6600, Error: 0.005183198828626724
Epoch: 6700, Error: 0.005059888811956016
Epoch: 6800, Error: 0.004977089145985289
Epoch: 6900, Error: 0.004919917444597173
Epoch: 7000, Error: 0.004892508405354974
Epoch: 7100, Error: 0.004883367110112276
Epoch: 7200, Error: 0.004809790620033488
Epoch: 7300, Error: 0.0049129227510095125
Epoch: 7400, Error: 0.004876354420648976
Epoch: 7500, Error: 0.004853186114195939
Epoch: 7600, Error: 0.004727156798218113
Epoch: 7700, Error: 0.004894088816200718
Epoch: 7800, Error: 0.004602290971603963
Epoch: 7900, Error: 0.0045789663331204855
Epoch: 8000, Error: 0.004507571691531303
Epoch: 8100, Error: 0.004472705659131755
Epoch: 8200, Error: 0.004368250608820094
Epoch: 8300, Error: 0.004509050078503044
Epoch: 8400, Error: 0.004295150798804327
Epoch: 8500, Error: 0.0044346271596949335
Epoch: 8600, Error: 0.004036866028065986
Epoch: 8700, Error: 0.003946027149313278
Epoch: 8800, Error: 0.0038284617355864026
Epoch: 8900, Error: 0.004075673446045294
Epoch: 9000, Error: 0.003949323775787064
Epoch: 9100, Error: 0.00347695341563502
Epoch: 9200, Error: 0.003328875979505436
Epoch: 9300, Error: 0.003185548218148124
Epoch: 9400, Error: 0.003020317107075918
Epoch: 9500, Error: 0.0035982966713236646
Epoch: 9600, Error: 0.0032092048229909477
Epoch: 9700, Error: 0.003506969187550212
Epoch: 9800, Error: 0.003107947811870917
Epoch: 9900, Error: 0.0034624611715340725
Epoch: 10000, Error: 0.0022174838551488577
Epoch: 10100, Error: 0.0029659275831040647
Epoch: 10200, Error: 0.002079017620771619
Epoch: 10300, Error: 0.002771798683239138
Epoch: 10400, Error: 0.002281211811313578
Epoch: 10500, Error: 0.001985048340888726
Epoch: 10600, Error: 0.002190528148194042
Epoch: 10700, Error: 0.0024881007656258527
Epoch: 10800, Error: 0.0027287223085585904
Epoch: 10900, Error: 0.0027284740639132647
Epoch: 11000, Error: 0.00286102906099917
Epoch: 11100, Error: 0.003282485933495363
Epoch: 11200, Error: 0.0012277078456592908
Epoch: 11300, Error: 0.001357290704100587
Epoch: 11400, Error: 0.004226599085824164
Epoch: 11500, Error: 0.0014386734091561464
Epoch: 11600, Error: 0.004248260582582479
Epoch: 11700, Error: 0.0013050096067222965
Epoch: 11800, Error: 9.766280061102692E-4
Epoch: 11900, Error: 0.0016766882936643836
Epoch: 12000, Error: 0.0014303315674897496
Epoch: 12100, Error: 0.001426491383011128
Epoch: 12200, Error: 0.0010186787398868402
Epoch: 12300, Error: 9.465000584581893E-4
Epoch: 12400, Error: 9.540932907247543E-4
Epoch: 12500, Error: 9.822430404777388E-4
Epoch: 12600, Error: 0.0010085679672997856
Epoch: 12700, Error: 9.331684529142619E-4
Epoch: 12800, Error: 9.802265616685112E-4
Epoch: 12900, Error: 9.92714809181871E-4
Epoch: 13000, Error: 9.025169611670195E-4
Epoch: 13100, Error: 9.034778304305651E-4
Epoch: 13200, Error: 9.465172109438202E-4
Epoch: 13300, Error: 8.163786311256088E-4
Epoch: 13400, Error: 7.833158245196676E-4
Epoch: 13500, Error: 7.5241314224675E-4
Epoch: 13600, Error: 7.44744242999368E-4
Epoch: 13700, Error: 7.442185546961735E-4
Epoch: 13800, Error: 8.593937014424772E-4
Epoch: 13900, Error: 7.940413315491305E-4
Epoch: 14000, Error: 7.990582012680797E-4
Epoch: 14100, Error: 7.44914711985391E-4
Epoch: 14200, Error: 7.73105082127419E-4
Epoch: 14300, Error: 7.198739796109801E-4
Epoch: 14400, Error: 7.450173651112967E-4
Epoch: 14500, Error: 6.994451828936924E-4
Epoch: 14600, Error: 7.110389643543402E-4
Epoch: 14700, Error: 6.85697022324084E-4
Epoch: 14800, Error: 9.304170704083445E-4
Epoch: 14900, Error: 6.99001633683451E-4
Epoch: 15000, Error: 6.874808061354073E-4
Epoch: 15100, Error: 6.701628232556529E-4
Epoch: 15200, Error: 6.78518543956144E-4
Epoch: 15300, Error: 6.780373597445927E-4
Epoch: 15400, Error: 7.194584732603472E-4
Epoch: 15500, Error: 6.982657160655318E-4
Epoch: 15600, Error: 6.940187287455963E-4
Epoch: 15700, Error: 7.332785455015844E-4
Epoch: 15800, Error: 7.420043754057721E-4
Epoch: 15900, Error: 7.614536465348641E-4
Epoch: 16000, Error: 7.933246051714208E-4
Epoch: 16100, Error: 7.875879983961748E-4
Epoch: 16200, Error: 7.883943915265996E-4
Epoch: 16300, Error: 8.195041928873734E-4
Epoch: 16400, Error: 8.166225637348E-4
Epoch: 16500, Error: 8.13359526426336E-4
Epoch: 16600, Error: 8.110873086535997E-4
Epoch: 16700, Error: 7.935737351379302E-4
Epoch: 16800, Error: 7.867457841378802E-4
Epoch: 16900, Error: 8.051548187375198E-4
Epoch: 17000, Error: 8.054032907265583E-4
Epoch: 17100, Error: 8.159943806768847E-4
Epoch: 17200, Error: 8.12804733397093E-4
Epoch: 17300, Error: 7.776116322554079E-4
Epoch: 17400, Error: 7.270188780037544E-4
finished
