Input Patterns
0.224 0.624 0.067 0.043 
0.11 0.502 0.051 0.043 
0.196 0.667 0.067 0.043 
0.055 0.584 0.067 0.082 
0.027 0.376 0.067 0.043 
0.306 0.71 0.086 0.043 
0.137 0.416 0.067 0.0 
0.416 0.831 0.035 0.043 
0.306 0.792 0.051 0.125 
0.388 0.749 0.118 0.082 
0.306 0.584 0.118 0.043 
0.082 0.667 0.0 0.043 
0.137 0.584 0.153 0.043 
0.196 0.584 0.102 0.125 
0.251 0.584 0.067 0.043 
0.137 0.459 0.102 0.043 
0.251 0.875 0.086 0.0 
0.165 0.459 0.086 0.043 
0.333 0.624 0.051 0.043 
0.027 0.416 0.051 0.043 
0.196 0.624 0.051 0.082 
0.027 0.502 0.051 0.043 
0.224 0.749 0.153 0.125 
0.224 0.749 0.102 0.043 
0.278 0.71 0.086 0.043 
0.165 0.416 0.067 0.043 
0.082 0.459 0.086 0.043 
0.306 0.792 0.118 0.125 
0.196 0.584 0.086 0.043 
0.165 0.459 0.086 0.0 
0.137 0.584 0.102 0.043 
0.0 0.416 0.016 0.0 
0.388 1.0 0.086 0.125 
0.224 0.624 0.067 0.082 
0.224 0.749 0.086 0.082 
0.224 0.71 0.086 0.125 
0.224 0.541 0.118 0.165 
0.196 0.416 0.102 0.043 
0.251 0.624 0.086 0.043 
0.11 0.502 0.102 0.043 
0.306 0.584 0.086 0.125 
0.333 0.918 0.067 0.043 
0.196 0.502 0.035 0.043 
0.165 0.667 0.067 0.0 
0.224 0.584 0.086 0.043 
0.055 0.125 0.051 0.082 
0.196 0.624 0.102 0.208 
0.137 0.416 0.067 0.082 
0.082 0.502 0.067 0.043 
0.196 0.541 0.067 0.043 
0.749 0.502 0.627 0.541 
0.722 0.459 0.663 0.584 
0.612 0.333 0.612 0.584 
0.557 0.541 0.627 0.624 
0.639 0.376 0.612 0.498 
0.196 0.0 0.424 0.376 
0.471 0.082 0.51 0.376 
0.361 0.376 0.439 0.498 
0.361 0.416 0.592 0.584 
0.529 0.082 0.592 0.584 
0.443 0.502 0.643 0.459 
0.557 0.208 0.663 0.584 
0.584 0.376 0.561 0.498 
0.694 0.333 0.643 0.541 
0.471 0.376 0.592 0.584 
0.333 0.169 0.475 0.416 
0.416 0.29 0.49 0.459 
0.306 0.416 0.592 0.584 
0.667 0.459 0.627 0.584 
0.361 0.416 0.525 0.498 
0.333 0.251 0.576 0.459 
0.416 0.251 0.51 0.459 
0.361 0.29 0.541 0.498 
0.388 0.376 0.541 0.498 
0.224 0.208 0.337 0.416 
0.584 0.502 0.592 0.584 
0.333 0.125 0.51 0.498 
0.388 0.333 0.592 0.498 
0.165 0.169 0.388 0.376 
0.251 0.29 0.49 0.541 
0.443 0.416 0.541 0.584 
0.498 0.376 0.627 0.541 
0.667 0.459 0.576 0.541 
0.416 0.29 0.525 0.376 
0.361 0.208 0.49 0.416 
0.498 0.333 0.51 0.498 
0.498 0.333 0.627 0.459 
0.639 0.416 0.576 0.541 
0.667 0.416 0.678 0.667 
0.388 0.251 0.424 0.376 
0.333 0.169 0.459 0.376 
0.471 0.29 0.694 0.624 
0.471 0.584 0.592 0.624 
0.557 0.125 0.576 0.498 
0.333 0.208 0.51 0.498 
0.498 0.416 0.612 0.541 
0.196 0.125 0.388 0.376 
0.388 0.416 0.541 0.459 
0.529 0.376 0.561 0.498 
0.388 0.333 0.525 0.498 
0.557 0.541 0.847 1.0 
0.776 0.416 0.831 0.831 
0.612 0.416 0.812 0.875 
0.165 0.208 0.592 0.667 
0.667 0.208 0.812 0.71 
0.612 0.502 0.694 0.792 
0.694 0.416 0.761 0.831 
0.416 0.333 0.694 0.957 
0.612 0.416 0.761 0.71 
0.945 0.251 1.0 0.918 
0.722 0.502 0.796 0.918 
0.945 0.333 0.965 0.792 
0.667 0.541 0.796 0.831 
0.529 0.333 0.643 0.71 
0.584 0.333 0.78 0.831 
0.863 0.333 0.863 0.749 
0.584 0.333 0.78 0.875 
0.498 0.251 0.78 0.541 
0.557 0.584 0.78 0.957 
0.471 0.416 0.643 0.71 
0.667 0.459 0.78 0.957 
0.416 0.29 0.694 0.749 
0.667 0.541 0.796 1.0 
0.557 0.208 0.678 0.749 
0.529 0.584 0.745 0.918 
0.416 0.29 0.694 0.749 
0.557 0.376 0.78 0.71 
0.918 0.416 0.949 0.831 
0.835 0.376 0.898 0.71 
0.804 0.667 0.863 1.0 
0.584 0.29 0.729 0.749 
0.388 0.208 0.678 0.792 
0.584 0.502 0.729 0.918 
0.945 0.749 0.965 0.875 
0.471 0.082 0.678 0.584 
0.361 0.333 0.663 0.792 
0.557 0.29 0.663 0.71 
0.804 0.502 0.847 0.71 
0.498 0.416 0.51 0.71 
0.804 0.416 0.812 0.624 
1.0 0.749 0.914 0.792 
0.557 0.333 0.694 0.584 
0.945 0.416 0.863 0.918 
0.584 0.459 0.761 0.71 
0.722 0.459 0.745 0.831 
0.722 0.459 0.694 0.918 
0.694 0.502 0.831 0.918 
0.667 0.416 0.714 0.918 
0.612 0.416 0.714 0.792 
0.443 0.416 0.694 0.71 
Teaching Patterns
1.0 0.0 0.0 
1.0 0.0 0.0 
1.0 0.0 0.0 
1.0 0.0 0.0 
1.0 0.0 0.0 
1.0 0.0 0.0 
1.0 0.0 0.0 
1.0 0.0 0.0 
1.0 0.0 0.0 
1.0 0.0 0.0 
1.0 0.0 0.0 
1.0 0.0 0.0 
1.0 0.0 0.0 
1.0 0.0 0.0 
1.0 0.0 0.0 
1.0 0.0 0.0 
1.0 0.0 0.0 
1.0 0.0 0.0 
1.0 0.0 0.0 
1.0 0.0 0.0 
1.0 0.0 0.0 
1.0 0.0 0.0 
1.0 0.0 0.0 
1.0 0.0 0.0 
1.0 0.0 0.0 
1.0 0.0 0.0 
1.0 0.0 0.0 
1.0 0.0 0.0 
1.0 0.0 0.0 
1.0 0.0 0.0 
1.0 0.0 0.0 
1.0 0.0 0.0 
1.0 0.0 0.0 
1.0 0.0 0.0 
1.0 0.0 0.0 
1.0 0.0 0.0 
1.0 0.0 0.0 
1.0 0.0 0.0 
1.0 0.0 0.0 
1.0 0.0 0.0 
1.0 0.0 0.0 
1.0 0.0 0.0 
1.0 0.0 0.0 
1.0 0.0 0.0 
1.0 0.0 0.0 
1.0 0.0 0.0 
1.0 0.0 0.0 
1.0 0.0 0.0 
1.0 0.0 0.0 
1.0 0.0 0.0 
0.0 1.0 0.0 
0.0 1.0 0.0 
0.0 1.0 0.0 
0.0 1.0 0.0 
0.0 1.0 0.0 
0.0 1.0 0.0 
0.0 1.0 0.0 
0.0 1.0 0.0 
0.0 1.0 0.0 
0.0 1.0 0.0 
0.0 1.0 0.0 
0.0 1.0 0.0 
0.0 1.0 0.0 
0.0 1.0 0.0 
0.0 1.0 0.0 
0.0 1.0 0.0 
0.0 1.0 0.0 
0.0 1.0 0.0 
0.0 1.0 0.0 
0.0 1.0 0.0 
0.0 1.0 0.0 
0.0 1.0 0.0 
0.0 1.0 0.0 
0.0 1.0 0.0 
0.0 1.0 0.0 
0.0 1.0 0.0 
0.0 1.0 0.0 
0.0 1.0 0.0 
0.0 1.0 0.0 
0.0 1.0 0.0 
0.0 1.0 0.0 
0.0 1.0 0.0 
0.0 1.0 0.0 
0.0 1.0 0.0 
0.0 1.0 0.0 
0.0 1.0 0.0 
0.0 1.0 0.0 
0.0 1.0 0.0 
0.0 1.0 0.0 
0.0 1.0 0.0 
0.0 1.0 0.0 
0.0 1.0 0.0 
0.0 1.0 0.0 
0.0 1.0 0.0 
0.0 1.0 0.0 
0.0 1.0 0.0 
0.0 1.0 0.0 
0.0 1.0 0.0 
0.0 1.0 0.0 
0.0 1.0 0.0 
0.0 0.0 1.0 
0.0 0.0 1.0 
0.0 0.0 1.0 
0.0 0.0 1.0 
0.0 0.0 1.0 
0.0 0.0 1.0 
0.0 0.0 1.0 
0.0 0.0 1.0 
0.0 0.0 1.0 
0.0 0.0 1.0 
0.0 0.0 1.0 
0.0 0.0 1.0 
0.0 0.0 1.0 
0.0 0.0 1.0 
0.0 0.0 1.0 
0.0 0.0 1.0 
0.0 0.0 1.0 
0.0 0.0 1.0 
0.0 0.0 1.0 
0.0 0.0 1.0 
0.0 0.0 1.0 
0.0 0.0 1.0 
0.0 0.0 1.0 
0.0 0.0 1.0 
0.0 0.0 1.0 
0.0 0.0 1.0 
0.0 0.0 1.0 
0.0 0.0 1.0 
0.0 0.0 1.0 
0.0 0.0 1.0 
0.0 0.0 1.0 
0.0 0.0 1.0 
0.0 0.0 1.0 
0.0 0.0 1.0 
0.0 0.0 1.0 
0.0 0.0 1.0 
0.0 0.0 1.0 
0.0 0.0 1.0 
0.0 0.0 1.0 
0.0 0.0 1.0 
0.0 0.0 1.0 
0.0 0.0 1.0 
0.0 0.0 1.0 
0.0 0.0 1.0 
0.0 0.0 1.0 
0.0 0.0 1.0 
0.0 0.0 1.0 
0.0 0.0 1.0 
0.0 0.0 1.0 
0.0 0.0 1.0 
Learning : 0.4000000059604645
Momentum : 0.9
Epoch: 100, Error: 0.013977922586742783
Epoch: 200, Error: 0.012133969568810816
Epoch: 300, Error: 0.011798321551439403
Epoch: 400, Error: 0.012081502887088208
Epoch: 500, Error: 0.012133990738379728
Epoch: 600, Error: 0.011873758904570564
Epoch: 700, Error: 0.011977260214331334
Epoch: 800, Error: 0.012453540684106288
Epoch: 900, Error: 0.011982965276842096
Epoch: 1000, Error: 0.012872906135001517
Epoch: 1100, Error: 0.012589362899379711
Epoch: 1200, Error: 0.012690380889887895
Epoch: 1300, Error: 0.012414063488093482
Epoch: 1400, Error: 0.012237591803289805
Epoch: 1500, Error: 0.012345398583263128
Epoch: 1600, Error: 0.01221799913670156
Epoch: 1700, Error: 0.012251123036181762
Epoch: 1800, Error: 0.012290734759229151
Epoch: 1900, Error: 0.011921124232229515
Epoch: 2000, Error: 0.013814390876055604
Epoch: 2100, Error: 0.011893520019586212
Epoch: 2200, Error: 0.011742132412558783
Epoch: 2300, Error: 0.012092478455620146
Epoch: 2400, Error: 0.01425790899406157
Epoch: 2500, Error: 0.01200679041670749
Epoch: 2600, Error: 0.012221170479146448
Epoch: 2700, Error: 0.011584992629447783
Epoch: 2800, Error: 0.012499051580206193
Epoch: 2900, Error: 0.013124650213207134
Epoch: 3000, Error: 0.011856551621210982
Epoch: 3100, Error: 0.01192804225375733
Epoch: 3200, Error: 0.012167059427970972
Epoch: 3300, Error: 0.012733406179588838
Epoch: 3400, Error: 0.011727475860557243
Epoch: 3500, Error: 0.011547159888970055
Epoch: 3600, Error: 0.011475363158064774
Epoch: 3700, Error: 0.011670116484545988
Epoch: 3800, Error: 0.011645536324932194
Epoch: 3900, Error: 0.011195732451443218
Epoch: 4000, Error: 0.011657935855103118
Epoch: 4100, Error: 0.011702509493999997
Epoch: 4200, Error: 0.015496766855017531
Epoch: 4300, Error: 0.011150408225046976
Epoch: 4400, Error: 0.01025770599398377
Epoch: 4500, Error: 0.010060347868207606
Epoch: 4600, Error: 0.009858887217758476
Epoch: 4700, Error: 0.009613588313488191
Epoch: 4800, Error: 0.009554836488126758
Epoch: 4900, Error: 0.008873016277295066
Epoch: 5000, Error: 0.00896244835620497
Epoch: 5100, Error: 0.008392487108762772
Epoch: 5200, Error: 0.007953522637450562
Epoch: 5300, Error: 0.008015650649976764
Epoch: 5400, Error: 0.008656549221990481
Epoch: 5500, Error: 0.007830025099330062
Epoch: 5600, Error: 0.00791425855957552
Epoch: 5700, Error: 0.008633743053960051
Epoch: 5800, Error: 0.008701123489034426
Epoch: 5900, Error: 0.007434956979370775
Epoch: 6000, Error: 0.006898792888366403
Epoch: 6100, Error: 0.006898295331710693
Epoch: 6200, Error: 0.007196412919002467
Epoch: 6300, Error: 0.006763540874777728
Epoch: 6400, Error: 0.006836498613039209
Epoch: 6500, Error: 0.006606618923705457
Epoch: 6600, Error: 0.007409899586728006
Epoch: 6700, Error: 0.0069097902222007785
Epoch: 6800, Error: 0.006505727222413267
Epoch: 6900, Error: 0.007765537095900194
Epoch: 7000, Error: 0.0067393173877655504
Epoch: 7100, Error: 0.007070086415463278
Epoch: 7200, Error: 0.007847110517800541
Epoch: 7300, Error: 0.006595803123470743
Epoch: 7400, Error: 0.006152072232192345
Epoch: 7500, Error: 0.006137337282846452
Epoch: 7600, Error: 0.0061223713837683155
Epoch: 7700, Error: 0.00671189688766507
Epoch: 7800, Error: 0.00607560172206895
Epoch: 7900, Error: 0.00598930729405656
Epoch: 8000, Error: 0.006056997810649903
Epoch: 8100, Error: 0.006039725755840994
Epoch: 8200, Error: 0.005688819424940326
Epoch: 8300, Error: 0.008418419543181706
Epoch: 8400, Error: 0.0058280748519811834
Epoch: 8500, Error: 0.005835444543429688
Epoch: 8600, Error: 0.00566479002327538
Epoch: 8700, Error: 0.005546875194531202
Epoch: 8800, Error: 0.005887005401027195
Epoch: 8900, Error: 0.005572864205478549
Epoch: 9000, Error: 0.005750302966956976
Epoch: 9100, Error: 0.005432489623325251
Epoch: 9200, Error: 0.005701137240251487
Epoch: 9300, Error: 0.005288250252726207
Epoch: 9400, Error: 0.005346088094007878
Epoch: 9500, Error: 0.005075401047430234
Epoch: 9600, Error: 0.005138194246028766
Epoch: 9700, Error: 0.005033679507496105
Epoch: 9800, Error: 0.005107680466057697
Epoch: 9900, Error: 0.00523063637285431
Epoch: 10000, Error: 0.0048047724775234614
Epoch: 10100, Error: 0.004860857130008187
Epoch: 10200, Error: 0.004585624502113568
Epoch: 10300, Error: 0.004590848191508468
Epoch: 10400, Error: 0.004246869810211479
Epoch: 10500, Error: 0.0040986974018288255
Epoch: 10600, Error: 0.004065652025633325
Epoch: 10700, Error: 0.00406461683170963
Epoch: 10800, Error: 0.004067382036111145
Epoch: 10900, Error: 0.0049593639442880285
Epoch: 11000, Error: 0.003426134711351182
Epoch: 11100, Error: 0.0033149604519535874
Epoch: 11200, Error: 0.0033036858312118695
Epoch: 11300, Error: 0.003086365742708762
Epoch: 11400, Error: 0.0034433179040627535
Epoch: 11500, Error: 0.0027809369146323047
Epoch: 11600, Error: 0.002727392929505273
Epoch: 11700, Error: 0.002890670602184479
Epoch: 11800, Error: 0.0024066930684713966
Epoch: 11900, Error: 0.0029594102643559802
Epoch: 12000, Error: 0.002350256625845996
Epoch: 12100, Error: 0.0020622505858597295
Epoch: 12200, Error: 0.0018800634049546874
Epoch: 12300, Error: 0.002119276231872239
Epoch: 12400, Error: 0.001818994020886531
Epoch: 12500, Error: 0.0017545097176886457
Epoch: 12600, Error: 0.0014198931865772944
Epoch: 12700, Error: 0.001465603925435436
Epoch: 12800, Error: 0.0013463626351509275
Epoch: 12900, Error: 0.0010370614319843389
Epoch: 13000, Error: 9.827433657278446E-4
Epoch: 13100, Error: 0.0011681655464833342
Epoch: 13200, Error: 8.910347719778206E-4
Epoch: 13300, Error: 9.283004768383454E-4
Epoch: 13400, Error: 9.020878286523291E-4
Epoch: 13500, Error: 7.859580335333973E-4
Epoch: 13600, Error: 8.398224127848396E-4
Epoch: 13700, Error: 8.082236447157903E-4
Epoch: 13800, Error: 8.52032349999009E-4
Epoch: 13900, Error: 0.0010608099020623404
Epoch: 14000, Error: 9.076923103499215E-4
Epoch: 14100, Error: 8.851388986659882E-4
Epoch: 14200, Error: 8.03503663346812E-4
Epoch: 14300, Error: 7.642140374334486E-4
Epoch: 14400, Error: 7.199614862342091E-4
Epoch: 14500, Error: 7.168781834348679E-4
Epoch: 14600, Error: 7.057180350518325E-4
Epoch: 14700, Error: 7.12362663150698E-4
Epoch: 14800, Error: 7.029108806785768E-4
Epoch: 14900, Error: 6.895542604064165E-4
Epoch: 15000, Error: 7.037436945151006E-4
Epoch: 15100, Error: 6.929400218805977E-4
Epoch: 15200, Error: 7.010705425028747E-4
Epoch: 15300, Error: 6.980275153415223E-4
Epoch: 15400, Error: 7.008107878510232E-4
Epoch: 15500, Error: 7.152621009077778E-4
Epoch: 15600, Error: 7.413004721476546E-4
Epoch: 15700, Error: 7.282262613705937E-4
Epoch: 15800, Error: 7.6835741498053E-4
Epoch: 15900, Error: 7.294579281398541E-4
Epoch: 16000, Error: 7.758100322647483E-4
Epoch: 16100, Error: 7.834320125328927E-4
Epoch: 16200, Error: 7.764665331875149E-4
Epoch: 16300, Error: 8.03646140389074E-4
Epoch: 16400, Error: 8.07220196297873E-4
Epoch: 16500, Error: 8.431849399101939E-4
Epoch: 16600, Error: 8.276820795773338E-4
Epoch: 16700, Error: 8.488638422877565E-4
Epoch: 16800, Error: 8.602799151293292E-4
Epoch: 16900, Error: 8.689382355740213E-4
Epoch: 17000, Error: 8.669289995361106E-4
Epoch: 17100, Error: 8.734887947575937E-4
Epoch: 17200, Error: 8.842758525198543E-4
Epoch: 17300, Error: 9.249730957049862E-4
Epoch: 17400, Error: 8.923075293034994E-4
Epoch: 17500, Error: 8.928525283245909E-4
Epoch: 17600, Error: 9.700519344574763E-4
Epoch: 17700, Error: 9.109130468336012E-4
Epoch: 17800, Error: 9.015147328375866E-4
Epoch: 17900, Error: 9.106231572184743E-4
Epoch: 18000, Error: 9.552473177306863E-4
Epoch: 18100, Error: 9.244845318069627E-4
Epoch: 18200, Error: 9.641049498909524E-4
Epoch: 18300, Error: 9.573281222221232E-4
Epoch: 18400, Error: 9.562919132258586E-4
Epoch: 18500, Error: 9.465514769385415E-4
Epoch: 18600, Error: 0.0010134669574533377
Epoch: 18700, Error: 9.93208498382049E-4
Epoch: 18800, Error: 0.001001170208693697
Epoch: 18900, Error: 0.001017292119255505
Epoch: 19000, Error: 0.0010377489606948366
Epoch: 19100, Error: 0.001042133912976855
Epoch: 19200, Error: 0.0010350909853109492
Epoch: 19300, Error: 0.001028728184336821
Epoch: 19400, Error: 0.001051046299732913
Epoch: 19500, Error: 0.0010608279730328477
Finished
