Input Patterns
0.224 0.624 0.067 0.043 
0.11 0.502 0.051 0.043 
0.196 0.667 0.067 0.043 
0.055 0.584 0.067 0.082 
0.027 0.376 0.067 0.043 
0.306 0.71 0.086 0.043 
0.137 0.416 0.067 0.0 
0.416 0.831 0.035 0.043 
0.306 0.792 0.051 0.125 
0.388 0.749 0.118 0.082 
0.306 0.584 0.118 0.043 
0.082 0.667 0.0 0.043 
0.137 0.584 0.153 0.043 
0.196 0.584 0.102 0.125 
0.251 0.584 0.067 0.043 
0.137 0.459 0.102 0.043 
0.251 0.875 0.086 0.0 
0.165 0.459 0.086 0.043 
0.333 0.624 0.051 0.043 
0.027 0.416 0.051 0.043 
0.196 0.624 0.051 0.082 
0.027 0.502 0.051 0.043 
0.224 0.749 0.153 0.125 
0.224 0.749 0.102 0.043 
0.278 0.71 0.086 0.043 
0.165 0.416 0.067 0.043 
0.082 0.459 0.086 0.043 
0.306 0.792 0.118 0.125 
0.196 0.584 0.086 0.043 
0.165 0.459 0.086 0.0 
0.137 0.584 0.102 0.043 
0.0 0.416 0.016 0.0 
0.388 1.0 0.086 0.125 
0.224 0.624 0.067 0.082 
0.224 0.749 0.086 0.082 
0.224 0.71 0.086 0.125 
0.224 0.541 0.118 0.165 
0.196 0.416 0.102 0.043 
0.251 0.624 0.086 0.043 
0.11 0.502 0.102 0.043 
0.306 0.584 0.086 0.125 
0.333 0.918 0.067 0.043 
0.196 0.502 0.035 0.043 
0.165 0.667 0.067 0.0 
0.224 0.584 0.086 0.043 
0.055 0.125 0.051 0.082 
0.196 0.624 0.102 0.208 
0.137 0.416 0.067 0.082 
0.082 0.502 0.067 0.043 
0.196 0.541 0.067 0.043 
0.749 0.502 0.627 0.541 
0.722 0.459 0.663 0.584 
0.612 0.333 0.612 0.584 
0.557 0.541 0.627 0.624 
0.639 0.376 0.612 0.498 
0.196 0.0 0.424 0.376 
0.471 0.082 0.51 0.376 
0.361 0.376 0.439 0.498 
0.361 0.416 0.592 0.584 
0.529 0.082 0.592 0.584 
0.443 0.502 0.643 0.459 
0.557 0.208 0.663 0.584 
0.584 0.376 0.561 0.498 
0.694 0.333 0.643 0.541 
0.471 0.376 0.592 0.584 
0.333 0.169 0.475 0.416 
0.416 0.29 0.49 0.459 
0.306 0.416 0.592 0.584 
0.667 0.459 0.627 0.584 
0.361 0.416 0.525 0.498 
0.333 0.251 0.576 0.459 
0.416 0.251 0.51 0.459 
0.361 0.29 0.541 0.498 
0.388 0.376 0.541 0.498 
0.224 0.208 0.337 0.416 
0.584 0.502 0.592 0.584 
0.333 0.125 0.51 0.498 
0.388 0.333 0.592 0.498 
0.165 0.169 0.388 0.376 
0.251 0.29 0.49 0.541 
0.443 0.416 0.541 0.584 
0.498 0.376 0.627 0.541 
0.667 0.459 0.576 0.541 
0.416 0.29 0.525 0.376 
0.361 0.208 0.49 0.416 
0.498 0.333 0.51 0.498 
0.498 0.333 0.627 0.459 
0.639 0.416 0.576 0.541 
0.667 0.416 0.678 0.667 
0.388 0.251 0.424 0.376 
0.333 0.169 0.459 0.376 
0.471 0.29 0.694 0.624 
0.471 0.584 0.592 0.624 
0.557 0.125 0.576 0.498 
0.333 0.208 0.51 0.498 
0.498 0.416 0.612 0.541 
0.196 0.125 0.388 0.376 
0.388 0.416 0.541 0.459 
0.529 0.376 0.561 0.498 
0.388 0.333 0.525 0.498 
0.557 0.541 0.847 1.0 
0.776 0.416 0.831 0.831 
0.612 0.416 0.812 0.875 
0.165 0.208 0.592 0.667 
0.667 0.208 0.812 0.71 
0.612 0.502 0.694 0.792 
0.694 0.416 0.761 0.831 
0.416 0.333 0.694 0.957 
0.612 0.416 0.761 0.71 
0.945 0.251 1.0 0.918 
0.722 0.502 0.796 0.918 
0.945 0.333 0.965 0.792 
0.667 0.541 0.796 0.831 
0.529 0.333 0.643 0.71 
0.584 0.333 0.78 0.831 
0.863 0.333 0.863 0.749 
0.584 0.333 0.78 0.875 
0.498 0.251 0.78 0.541 
0.557 0.584 0.78 0.957 
0.471 0.416 0.643 0.71 
0.667 0.459 0.78 0.957 
0.416 0.29 0.694 0.749 
0.667 0.541 0.796 1.0 
0.557 0.208 0.678 0.749 
0.529 0.584 0.745 0.918 
0.416 0.29 0.694 0.749 
0.557 0.376 0.78 0.71 
0.918 0.416 0.949 0.831 
0.835 0.376 0.898 0.71 
0.804 0.667 0.863 1.0 
0.584 0.29 0.729 0.749 
0.388 0.208 0.678 0.792 
0.584 0.502 0.729 0.918 
0.945 0.749 0.965 0.875 
0.471 0.082 0.678 0.584 
0.361 0.333 0.663 0.792 
0.557 0.29 0.663 0.71 
0.804 0.502 0.847 0.71 
0.498 0.416 0.51 0.71 
0.804 0.416 0.812 0.624 
1.0 0.749 0.914 0.792 
0.557 0.333 0.694 0.584 
0.945 0.416 0.863 0.918 
0.584 0.459 0.761 0.71 
0.722 0.459 0.745 0.831 
0.722 0.459 0.694 0.918 
0.694 0.502 0.831 0.918 
0.667 0.416 0.714 0.918 
0.612 0.416 0.714 0.792 
0.443 0.416 0.694 0.71 
Teaching Patterns
1.0 0.0 0.0 
1.0 0.0 0.0 
1.0 0.0 0.0 
1.0 0.0 0.0 
1.0 0.0 0.0 
1.0 0.0 0.0 
1.0 0.0 0.0 
1.0 0.0 0.0 
1.0 0.0 0.0 
1.0 0.0 0.0 
1.0 0.0 0.0 
1.0 0.0 0.0 
1.0 0.0 0.0 
1.0 0.0 0.0 
1.0 0.0 0.0 
1.0 0.0 0.0 
1.0 0.0 0.0 
1.0 0.0 0.0 
1.0 0.0 0.0 
1.0 0.0 0.0 
1.0 0.0 0.0 
1.0 0.0 0.0 
1.0 0.0 0.0 
1.0 0.0 0.0 
1.0 0.0 0.0 
1.0 0.0 0.0 
1.0 0.0 0.0 
1.0 0.0 0.0 
1.0 0.0 0.0 
1.0 0.0 0.0 
1.0 0.0 0.0 
1.0 0.0 0.0 
1.0 0.0 0.0 
1.0 0.0 0.0 
1.0 0.0 0.0 
1.0 0.0 0.0 
1.0 0.0 0.0 
1.0 0.0 0.0 
1.0 0.0 0.0 
1.0 0.0 0.0 
1.0 0.0 0.0 
1.0 0.0 0.0 
1.0 0.0 0.0 
1.0 0.0 0.0 
1.0 0.0 0.0 
1.0 0.0 0.0 
1.0 0.0 0.0 
1.0 0.0 0.0 
1.0 0.0 0.0 
1.0 0.0 0.0 
0.0 1.0 0.0 
0.0 1.0 0.0 
0.0 1.0 0.0 
0.0 1.0 0.0 
0.0 1.0 0.0 
0.0 1.0 0.0 
0.0 1.0 0.0 
0.0 1.0 0.0 
0.0 1.0 0.0 
0.0 1.0 0.0 
0.0 1.0 0.0 
0.0 1.0 0.0 
0.0 1.0 0.0 
0.0 1.0 0.0 
0.0 1.0 0.0 
0.0 1.0 0.0 
0.0 1.0 0.0 
0.0 1.0 0.0 
0.0 1.0 0.0 
0.0 1.0 0.0 
0.0 1.0 0.0 
0.0 1.0 0.0 
0.0 1.0 0.0 
0.0 1.0 0.0 
0.0 1.0 0.0 
0.0 1.0 0.0 
0.0 1.0 0.0 
0.0 1.0 0.0 
0.0 1.0 0.0 
0.0 1.0 0.0 
0.0 1.0 0.0 
0.0 1.0 0.0 
0.0 1.0 0.0 
0.0 1.0 0.0 
0.0 1.0 0.0 
0.0 1.0 0.0 
0.0 1.0 0.0 
0.0 1.0 0.0 
0.0 1.0 0.0 
0.0 1.0 0.0 
0.0 1.0 0.0 
0.0 1.0 0.0 
0.0 1.0 0.0 
0.0 1.0 0.0 
0.0 1.0 0.0 
0.0 1.0 0.0 
0.0 1.0 0.0 
0.0 1.0 0.0 
0.0 1.0 0.0 
0.0 1.0 0.0 
0.0 0.0 1.0 
0.0 0.0 1.0 
0.0 0.0 1.0 
0.0 0.0 1.0 
0.0 0.0 1.0 
0.0 0.0 1.0 
0.0 0.0 1.0 
0.0 0.0 1.0 
0.0 0.0 1.0 
0.0 0.0 1.0 
0.0 0.0 1.0 
0.0 0.0 1.0 
0.0 0.0 1.0 
0.0 0.0 1.0 
0.0 0.0 1.0 
0.0 0.0 1.0 
0.0 0.0 1.0 
0.0 0.0 1.0 
0.0 0.0 1.0 
0.0 0.0 1.0 
0.0 0.0 1.0 
0.0 0.0 1.0 
0.0 0.0 1.0 
0.0 0.0 1.0 
0.0 0.0 1.0 
0.0 0.0 1.0 
0.0 0.0 1.0 
0.0 0.0 1.0 
0.0 0.0 1.0 
0.0 0.0 1.0 
0.0 0.0 1.0 
0.0 0.0 1.0 
0.0 0.0 1.0 
0.0 0.0 1.0 
0.0 0.0 1.0 
0.0 0.0 1.0 
0.0 0.0 1.0 
0.0 0.0 1.0 
0.0 0.0 1.0 
0.0 0.0 1.0 
0.0 0.0 1.0 
0.0 0.0 1.0 
0.0 0.0 1.0 
0.0 0.0 1.0 
0.0 0.0 1.0 
0.0 0.0 1.0 
0.0 0.0 1.0 
0.0 0.0 1.0 
0.0 0.0 1.0 
0.0 0.0 1.0 
Learning : 0.4000000059604645
Momentum : 0.9
Epoch: 100, Error: 0.013874119161363174
Epoch: 200, Error: 0.012361983841817454
Epoch: 300, Error: 0.013133596842448553
Epoch: 400, Error: 0.012425311558954932
Epoch: 500, Error: 0.012554473244993779
Epoch: 600, Error: 0.013007841401039045
Epoch: 700, Error: 0.01195393407860508
Epoch: 800, Error: 0.01217388437572912
Epoch: 900, Error: 0.012415555687269566
Epoch: 1000, Error: 0.011935380948605157
Epoch: 1100, Error: 0.011904474382302641
Epoch: 1200, Error: 0.011919582949871759
Epoch: 1300, Error: 0.01193475176238176
Epoch: 1400, Error: 0.01187309824849487
Epoch: 1500, Error: 0.012489131506549067
Epoch: 1600, Error: 0.011499187796357495
Epoch: 1700, Error: 0.012378275078993833
Epoch: 1800, Error: 0.011880842219890773
Epoch: 1900, Error: 0.011120663347006145
Epoch: 2000, Error: 0.010990385643666938
Epoch: 2100, Error: 0.010762297259552855
Epoch: 2200, Error: 0.010831183370346794
Epoch: 2300, Error: 0.010465471351865088
Epoch: 2400, Error: 0.009689662786365153
Epoch: 2500, Error: 0.009469423310763427
Epoch: 2600, Error: 0.00812835739239937
Epoch: 2700, Error: 0.007341355048928839
Epoch: 2800, Error: 0.007134627233994071
Epoch: 2900, Error: 0.006209995624273015
Epoch: 3000, Error: 0.006136009606826166
Epoch: 3100, Error: 0.005769267464521539
Epoch: 3200, Error: 0.00599451457551057
Epoch: 3300, Error: 0.005638828315543837
Epoch: 3400, Error: 0.0053961921337784356
Epoch: 3500, Error: 0.005307110003486755
Epoch: 3600, Error: 0.0053212769411605755
Epoch: 3700, Error: 0.005285254437500289
Epoch: 3800, Error: 0.0052604076491853035
Epoch: 3900, Error: 0.0052743559556958875
Epoch: 4000, Error: 0.005209492669766472
Epoch: 4100, Error: 0.005189205872978692
Epoch: 4200, Error: 0.005202638010110392
Epoch: 4300, Error: 0.005158889710770471
Epoch: 4400, Error: 0.005151813230003688
Epoch: 4500, Error: 0.005142566305648295
Epoch: 4600, Error: 0.005110229176929065
Epoch: 4700, Error: 0.0050939413139571895
Epoch: 4800, Error: 0.005183916010662519
Epoch: 4900, Error: 0.0050690633590750565
Epoch: 5000, Error: 0.00512870424509165
Epoch: 5100, Error: 0.005117906816702622
Epoch: 5200, Error: 0.0050981209228503485
Epoch: 5300, Error: 0.005071142344235938
Epoch: 5400, Error: 0.005065873556823508
Epoch: 5500, Error: 0.005061322370011897
Epoch: 5600, Error: 0.005031229109536533
Epoch: 5700, Error: 0.005028718707988373
Epoch: 5800, Error: 0.005043791831668692
Epoch: 5900, Error: 0.005043494775333063
Epoch: 6000, Error: 0.005031456059663762
Epoch: 6100, Error: 0.005012768004042792
Epoch: 6200, Error: 0.004972442212228382
Epoch: 6300, Error: 0.004976257299277342
Epoch: 6400, Error: 0.004942647305938428
Epoch: 6500, Error: 0.0049033520882348705
Epoch: 6600, Error: 0.004843583629332965
Epoch: 6700, Error: 0.00483932483851903
Epoch: 6800, Error: 0.0048502528073980835
Epoch: 6900, Error: 0.004753638571650585
Epoch: 7000, Error: 0.004743318059449637
Epoch: 7100, Error: 0.004748864787820707
Epoch: 7200, Error: 0.004625940177006451
Epoch: 7300, Error: 0.0045531427484731875
Epoch: 7400, Error: 0.004622761155897132
Epoch: 7500, Error: 0.004462851881833756
Epoch: 7600, Error: 0.004425432839457046
Epoch: 7700, Error: 0.004418405551272893
Epoch: 7800, Error: 0.004395467811254074
Epoch: 7900, Error: 0.0044156852329566626
Epoch: 8000, Error: 0.0043605766549614676
Epoch: 8100, Error: 0.004209482783471578
Epoch: 8200, Error: 0.004428845380514623
Epoch: 8300, Error: 0.004341999845826886
Epoch: 8400, Error: 0.004368392345253105
Epoch: 8500, Error: 0.003861936987411555
Epoch: 8600, Error: 0.005386765609393837
Epoch: 8700, Error: 0.003978781641041999
Epoch: 8800, Error: 0.004186826275867158
Epoch: 8900, Error: 0.0037663465352365732
Epoch: 9000, Error: 0.003183129809680733
Epoch: 9100, Error: 0.003017335251354499
Epoch: 9200, Error: 0.00726086246572557
Epoch: 9300, Error: 0.0034084085308750877
Epoch: 9400, Error: 0.003996720833642005
Epoch: 9500, Error: 0.0030577447809712263
Epoch: 9600, Error: 0.0030118511403716213
Epoch: 9700, Error: 0.0034117281188910803
Epoch: 9800, Error: 0.0022270120941805496
Epoch: 9900, Error: 0.00439318900684688
Epoch: 10000, Error: 0.0028056865077449745
Epoch: 10100, Error: 0.004232785480027576
Epoch: 10200, Error: 0.0030384811623191555
Epoch: 10300, Error: 0.0024543242777152687
Epoch: 10400, Error: 0.001663347783522526
Epoch: 10500, Error: 0.001745915154241307
Epoch: 10600, Error: 0.0015486311567193295
Epoch: 10700, Error: 0.00351865883386009
Epoch: 10800, Error: 0.001371753679720419
Epoch: 10900, Error: 0.002560466992883045
Epoch: 11000, Error: 0.001305623028663195
Epoch: 11100, Error: 0.0014358834178992924
Epoch: 11200, Error: 0.0016046293031029433
Epoch: 11300, Error: 0.0019451832783260023
Epoch: 11400, Error: 0.0018536490626249707
Epoch: 11500, Error: 0.0014574132555914125
Epoch: 11600, Error: 0.003180988256108178
Epoch: 11700, Error: 0.0014650925387718389
Epoch: 11800, Error: 0.0011671089336885356
Epoch: 11900, Error: 0.0018041385096474484
Epoch: 12000, Error: 0.0020430021493907805
Epoch: 12100, Error: 0.0012956799305410976
Epoch: 12200, Error: 0.0015323804163949312
Epoch: 12300, Error: 0.001016879779234203
Epoch: 12400, Error: 0.00100481661950585
Epoch: 12500, Error: 0.0022906615363455446
Epoch: 12600, Error: 0.0010101196335854188
Epoch: 12700, Error: 0.0010083619229852392
Epoch: 12800, Error: 9.797881831685627E-4
Epoch: 12900, Error: 0.001213274573330285
Epoch: 13000, Error: 0.0010263122141751712
Epoch: 13100, Error: 9.91032192372934E-4
Epoch: 13200, Error: 0.0010789955021041312
Epoch: 13300, Error: 0.0010384788079479408
Epoch: 13400, Error: 0.0010312410806425341
Epoch: 13500, Error: 0.0010921909166292953
Epoch: 13600, Error: 9.324087960093314E-4
Epoch: 13700, Error: 9.158895010703811E-4
Epoch: 13800, Error: 8.049759478526523E-4
Epoch: 13900, Error: 8.187544021740357E-4
Epoch: 14000, Error: 7.210991771764821E-4
Epoch: 14100, Error: 7.220622518931203E-4
Epoch: 14200, Error: 7.263191986660121E-4
Epoch: 14300, Error: 7.414270623797415E-4
Epoch: 14400, Error: 7.041189369345052E-4
Epoch: 14500, Error: 7.043965948847607E-4
Epoch: 14600, Error: 6.862363132100057E-4
Epoch: 14700, Error: 6.913949135493423E-4
Epoch: 14800, Error: 6.79069209862617E-4
Epoch: 14900, Error: 6.87348256673242E-4
Epoch: 15000, Error: 6.737187108380574E-4
Epoch: 15100, Error: 7.289449334607926E-4
Epoch: 15200, Error: 7.020261854343495E-4
Epoch: 15300, Error: 6.720756938134053E-4
Epoch: 15400, Error: 6.987595314853931E-4
Epoch: 15500, Error: 7.435082308300074E-4
Epoch: 15600, Error: 6.807993703263715E-4
Epoch: 15700, Error: 6.862236296125029E-4
Epoch: 15800, Error: 6.951903321755624E-4
Epoch: 15900, Error: 6.758399278819787E-4
Epoch: 16000, Error: 6.746194303362201E-4
Epoch: 16100, Error: 6.833438218384658E-4
Epoch: 16200, Error: 6.363579923127482E-4
Epoch: 16300, Error: 6.482583709586039E-4
Epoch: 16400, Error: 6.409723422290108E-4
Finished
