Input Patterns
0.224 0.624 0.067 0.043 
0.11 0.502 0.051 0.043 
0.196 0.667 0.067 0.043 
0.055 0.584 0.067 0.082 
0.027 0.376 0.067 0.043 
0.306 0.71 0.086 0.043 
0.137 0.416 0.067 0.0 
0.416 0.831 0.035 0.043 
0.306 0.792 0.051 0.125 
0.388 0.749 0.118 0.082 
0.306 0.584 0.118 0.043 
0.082 0.667 0.0 0.043 
0.137 0.584 0.153 0.043 
0.196 0.584 0.102 0.125 
0.251 0.584 0.067 0.043 
0.137 0.459 0.102 0.043 
0.251 0.875 0.086 0.0 
0.165 0.459 0.086 0.043 
0.333 0.624 0.051 0.043 
0.027 0.416 0.051 0.043 
0.196 0.624 0.051 0.082 
0.027 0.502 0.051 0.043 
0.224 0.749 0.153 0.125 
0.224 0.749 0.102 0.043 
0.278 0.71 0.086 0.043 
0.165 0.416 0.067 0.043 
0.082 0.459 0.086 0.043 
0.306 0.792 0.118 0.125 
0.196 0.584 0.086 0.043 
0.165 0.459 0.086 0.0 
0.137 0.584 0.102 0.043 
0.0 0.416 0.016 0.0 
0.388 1.0 0.086 0.125 
0.224 0.624 0.067 0.082 
0.224 0.749 0.086 0.082 
0.224 0.71 0.086 0.125 
0.224 0.541 0.118 0.165 
0.196 0.416 0.102 0.043 
0.251 0.624 0.086 0.043 
0.11 0.502 0.102 0.043 
0.306 0.584 0.086 0.125 
0.333 0.918 0.067 0.043 
0.196 0.502 0.035 0.043 
0.165 0.667 0.067 0.0 
0.224 0.584 0.086 0.043 
0.055 0.125 0.051 0.082 
0.196 0.624 0.102 0.208 
0.137 0.416 0.067 0.082 
0.082 0.502 0.067 0.043 
0.196 0.541 0.067 0.043 
0.749 0.502 0.627 0.541 
0.722 0.459 0.663 0.584 
0.612 0.333 0.612 0.584 
0.557 0.541 0.627 0.624 
0.639 0.376 0.612 0.498 
0.196 0.0 0.424 0.376 
0.471 0.082 0.51 0.376 
0.361 0.376 0.439 0.498 
0.361 0.416 0.592 0.584 
0.529 0.082 0.592 0.584 
0.443 0.502 0.643 0.459 
0.557 0.208 0.663 0.584 
0.584 0.376 0.561 0.498 
0.694 0.333 0.643 0.541 
0.471 0.376 0.592 0.584 
0.333 0.169 0.475 0.416 
0.416 0.29 0.49 0.459 
0.306 0.416 0.592 0.584 
0.667 0.459 0.627 0.584 
0.361 0.416 0.525 0.498 
0.333 0.251 0.576 0.459 
0.416 0.251 0.51 0.459 
0.361 0.29 0.541 0.498 
0.388 0.376 0.541 0.498 
0.224 0.208 0.337 0.416 
0.584 0.502 0.592 0.584 
0.333 0.125 0.51 0.498 
0.388 0.333 0.592 0.498 
0.165 0.169 0.388 0.376 
0.251 0.29 0.49 0.541 
0.443 0.416 0.541 0.584 
0.498 0.376 0.627 0.541 
0.667 0.459 0.576 0.541 
0.416 0.29 0.525 0.376 
0.361 0.208 0.49 0.416 
0.498 0.333 0.51 0.498 
0.498 0.333 0.627 0.459 
0.639 0.416 0.576 0.541 
0.667 0.416 0.678 0.667 
0.388 0.251 0.424 0.376 
0.333 0.169 0.459 0.376 
0.471 0.29 0.694 0.624 
0.471 0.584 0.592 0.624 
0.557 0.125 0.576 0.498 
0.333 0.208 0.51 0.498 
0.498 0.416 0.612 0.541 
0.196 0.125 0.388 0.376 
0.388 0.416 0.541 0.459 
0.529 0.376 0.561 0.498 
0.388 0.333 0.525 0.498 
0.557 0.541 0.847 1.0 
0.776 0.416 0.831 0.831 
0.612 0.416 0.812 0.875 
0.165 0.208 0.592 0.667 
0.667 0.208 0.812 0.71 
0.612 0.502 0.694 0.792 
0.694 0.416 0.761 0.831 
0.416 0.333 0.694 0.957 
0.612 0.416 0.761 0.71 
0.945 0.251 1.0 0.918 
0.722 0.502 0.796 0.918 
0.945 0.333 0.965 0.792 
0.667 0.541 0.796 0.831 
0.529 0.333 0.643 0.71 
0.584 0.333 0.78 0.831 
0.863 0.333 0.863 0.749 
0.584 0.333 0.78 0.875 
0.498 0.251 0.78 0.541 
0.557 0.584 0.78 0.957 
0.471 0.416 0.643 0.71 
0.667 0.459 0.78 0.957 
0.416 0.29 0.694 0.749 
0.667 0.541 0.796 1.0 
0.557 0.208 0.678 0.749 
0.529 0.584 0.745 0.918 
0.416 0.29 0.694 0.749 
0.557 0.376 0.78 0.71 
0.918 0.416 0.949 0.831 
0.835 0.376 0.898 0.71 
0.804 0.667 0.863 1.0 
0.584 0.29 0.729 0.749 
0.388 0.208 0.678 0.792 
0.584 0.502 0.729 0.918 
0.945 0.749 0.965 0.875 
0.471 0.082 0.678 0.584 
0.361 0.333 0.663 0.792 
0.557 0.29 0.663 0.71 
0.804 0.502 0.847 0.71 
0.498 0.416 0.51 0.71 
0.804 0.416 0.812 0.624 
1.0 0.749 0.914 0.792 
0.557 0.333 0.694 0.584 
0.945 0.416 0.863 0.918 
0.584 0.459 0.761 0.71 
0.722 0.459 0.745 0.831 
0.722 0.459 0.694 0.918 
0.694 0.502 0.831 0.918 
0.667 0.416 0.714 0.918 
0.612 0.416 0.714 0.792 
0.443 0.416 0.694 0.71 
Teaching Patterns
1.0 0.0 0.0 
1.0 0.0 0.0 
1.0 0.0 0.0 
1.0 0.0 0.0 
1.0 0.0 0.0 
1.0 0.0 0.0 
1.0 0.0 0.0 
1.0 0.0 0.0 
1.0 0.0 0.0 
1.0 0.0 0.0 
1.0 0.0 0.0 
1.0 0.0 0.0 
1.0 0.0 0.0 
1.0 0.0 0.0 
1.0 0.0 0.0 
1.0 0.0 0.0 
1.0 0.0 0.0 
1.0 0.0 0.0 
1.0 0.0 0.0 
1.0 0.0 0.0 
1.0 0.0 0.0 
1.0 0.0 0.0 
1.0 0.0 0.0 
1.0 0.0 0.0 
1.0 0.0 0.0 
1.0 0.0 0.0 
1.0 0.0 0.0 
1.0 0.0 0.0 
1.0 0.0 0.0 
1.0 0.0 0.0 
1.0 0.0 0.0 
1.0 0.0 0.0 
1.0 0.0 0.0 
1.0 0.0 0.0 
1.0 0.0 0.0 
1.0 0.0 0.0 
1.0 0.0 0.0 
1.0 0.0 0.0 
1.0 0.0 0.0 
1.0 0.0 0.0 
1.0 0.0 0.0 
1.0 0.0 0.0 
1.0 0.0 0.0 
1.0 0.0 0.0 
1.0 0.0 0.0 
1.0 0.0 0.0 
1.0 0.0 0.0 
1.0 0.0 0.0 
1.0 0.0 0.0 
1.0 0.0 0.0 
0.0 1.0 0.0 
0.0 1.0 0.0 
0.0 1.0 0.0 
0.0 1.0 0.0 
0.0 1.0 0.0 
0.0 1.0 0.0 
0.0 1.0 0.0 
0.0 1.0 0.0 
0.0 1.0 0.0 
0.0 1.0 0.0 
0.0 1.0 0.0 
0.0 1.0 0.0 
0.0 1.0 0.0 
0.0 1.0 0.0 
0.0 1.0 0.0 
0.0 1.0 0.0 
0.0 1.0 0.0 
0.0 1.0 0.0 
0.0 1.0 0.0 
0.0 1.0 0.0 
0.0 1.0 0.0 
0.0 1.0 0.0 
0.0 1.0 0.0 
0.0 1.0 0.0 
0.0 1.0 0.0 
0.0 1.0 0.0 
0.0 1.0 0.0 
0.0 1.0 0.0 
0.0 1.0 0.0 
0.0 1.0 0.0 
0.0 1.0 0.0 
0.0 1.0 0.0 
0.0 1.0 0.0 
0.0 1.0 0.0 
0.0 1.0 0.0 
0.0 1.0 0.0 
0.0 1.0 0.0 
0.0 1.0 0.0 
0.0 1.0 0.0 
0.0 1.0 0.0 
0.0 1.0 0.0 
0.0 1.0 0.0 
0.0 1.0 0.0 
0.0 1.0 0.0 
0.0 1.0 0.0 
0.0 1.0 0.0 
0.0 1.0 0.0 
0.0 1.0 0.0 
0.0 1.0 0.0 
0.0 1.0 0.0 
0.0 0.0 1.0 
0.0 0.0 1.0 
0.0 0.0 1.0 
0.0 0.0 1.0 
0.0 0.0 1.0 
0.0 0.0 1.0 
0.0 0.0 1.0 
0.0 0.0 1.0 
0.0 0.0 1.0 
0.0 0.0 1.0 
0.0 0.0 1.0 
0.0 0.0 1.0 
0.0 0.0 1.0 
0.0 0.0 1.0 
0.0 0.0 1.0 
0.0 0.0 1.0 
0.0 0.0 1.0 
0.0 0.0 1.0 
0.0 0.0 1.0 
0.0 0.0 1.0 
0.0 0.0 1.0 
0.0 0.0 1.0 
0.0 0.0 1.0 
0.0 0.0 1.0 
0.0 0.0 1.0 
0.0 0.0 1.0 
0.0 0.0 1.0 
0.0 0.0 1.0 
0.0 0.0 1.0 
0.0 0.0 1.0 
0.0 0.0 1.0 
0.0 0.0 1.0 
0.0 0.0 1.0 
0.0 0.0 1.0 
0.0 0.0 1.0 
0.0 0.0 1.0 
0.0 0.0 1.0 
0.0 0.0 1.0 
0.0 0.0 1.0 
0.0 0.0 1.0 
0.0 0.0 1.0 
0.0 0.0 1.0 
0.0 0.0 1.0 
0.0 0.0 1.0 
0.0 0.0 1.0 
0.0 0.0 1.0 
0.0 0.0 1.0 
0.0 0.0 1.0 
0.0 0.0 1.0 
0.0 0.0 1.0 
Learning : 0.4000000059604645
Momentum : 0.9
Epoch: 100, Error: 0.015094074580552262
Epoch: 200, Error: 0.015185653499539944
Epoch: 300, Error: 0.015388491854358078
Epoch: 400, Error: 0.012747908654956612
Epoch: 500, Error: 0.012017461173266929
Epoch: 600, Error: 0.011745286456341864
Epoch: 700, Error: 0.01168076164276013
Epoch: 800, Error: 0.012014374147969058
Epoch: 900, Error: 0.011687391454919288
Epoch: 1000, Error: 0.012433150851365512
Epoch: 1100, Error: 0.01276342774150587
Epoch: 1200, Error: 0.011565805106573556
Epoch: 1300, Error: 0.0115300228124933
Epoch: 1400, Error: 0.011582921211836624
Epoch: 1500, Error: 0.011538628881025914
Epoch: 1600, Error: 0.011604208551733072
Epoch: 1700, Error: 0.011444871751468159
Epoch: 1800, Error: 0.01145222254506261
Epoch: 1900, Error: 0.011594275998979007
Epoch: 2000, Error: 0.01168370412996693
Epoch: 2100, Error: 0.013379514342761186
Epoch: 2200, Error: 0.011172367633725975
Epoch: 2300, Error: 0.011494744468305078
Epoch: 2400, Error: 0.01097667642237081
Epoch: 2500, Error: 0.010890589365290998
Epoch: 2600, Error: 0.010288403325543746
Epoch: 2700, Error: 0.009299063698398068
Epoch: 2800, Error: 0.008773667096787048
Epoch: 2900, Error: 0.00818255265460868
Epoch: 3000, Error: 0.008616933403871513
Epoch: 3100, Error: 0.007153702237698248
Epoch: 3200, Error: 0.00728711334227676
Epoch: 3300, Error: 0.006695821448016377
Epoch: 3400, Error: 0.006479312530787924
Epoch: 3500, Error: 0.006251298246353818
Epoch: 3600, Error: 0.0060217297746629405
Epoch: 3700, Error: 0.005876379784893017
Epoch: 3800, Error: 0.005933260349334169
Epoch: 3900, Error: 0.005548140301555443
Epoch: 4000, Error: 0.0054384326030169445
Epoch: 4100, Error: 0.0053485742452537705
Epoch: 4200, Error: 0.0053163691081636825
Epoch: 4300, Error: 0.0052766241286633705
Epoch: 4400, Error: 0.005233530256195984
Epoch: 4500, Error: 0.0051978959755325385
Epoch: 4600, Error: 0.005206561072053144
Epoch: 4700, Error: 0.00516258409198789
Epoch: 4800, Error: 0.005140482419268511
Epoch: 4900, Error: 0.005128891923153888
Epoch: 5000, Error: 0.005132749113594733
Epoch: 5100, Error: 0.005123078513324364
Epoch: 5200, Error: 0.00511906540204669
Epoch: 5300, Error: 0.005113266144784247
Epoch: 5400, Error: 0.005106901632125497
Epoch: 5500, Error: 0.00510030044387646
Epoch: 5600, Error: 0.005103608235967017
Epoch: 5700, Error: 0.005125977300304316
Epoch: 5800, Error: 0.005088800802910049
Epoch: 5900, Error: 0.005090723171470157
Epoch: 6000, Error: 0.005089334259814084
Epoch: 6100, Error: 0.0050765126997535
Epoch: 6200, Error: 0.005049518365742127
Epoch: 6300, Error: 0.005048293838746695
Epoch: 6400, Error: 0.005032386645759171
Epoch: 6500, Error: 0.005038010886196123
Epoch: 6600, Error: 0.005015696211807781
Epoch: 6700, Error: 0.004965494083915522
Epoch: 6800, Error: 0.004964937502979524
Epoch: 6900, Error: 0.004942115471749333
Epoch: 7000, Error: 0.004935424387912573
Epoch: 7100, Error: 0.0048948046689197555
Epoch: 7200, Error: 0.0048824952115377246
Epoch: 7300, Error: 0.0048708096957277075
Epoch: 7400, Error: 0.004879253449335362
Epoch: 7500, Error: 0.004871518754549421
Epoch: 7600, Error: 0.004865677641140379
Epoch: 7700, Error: 0.004810067102956205
Epoch: 7800, Error: 0.00483046769456955
Epoch: 7900, Error: 0.004758708456890585
Epoch: 8000, Error: 0.00473802872901456
Epoch: 8100, Error: 0.004794147977066914
Epoch: 8200, Error: 0.004718310167390931
Epoch: 8300, Error: 0.004812996199476097
Epoch: 8400, Error: 0.004687365747010597
Epoch: 8500, Error: 0.004720247129239981
Epoch: 8600, Error: 0.00459219502477015
Epoch: 8700, Error: 0.004419592874427334
Epoch: 8800, Error: 0.004386974831797391
Epoch: 8900, Error: 0.004225305440132027
Epoch: 9000, Error: 0.004765702094648619
Epoch: 9100, Error: 0.004178280063671363
Epoch: 9200, Error: 0.004362334379190706
Epoch: 9300, Error: 0.0036653020861049258
Epoch: 9400, Error: 0.004160581650616281
Epoch: 9500, Error: 0.004235256628096925
Epoch: 9600, Error: 0.003457373296625671
Epoch: 9700, Error: 0.0031254685099232887
Epoch: 9800, Error: 0.003729057274562809
Epoch: 9900, Error: 0.003496731606245299
Epoch: 10000, Error: 0.003572099778644928
Epoch: 10100, Error: 0.0032984665860997953
Epoch: 10200, Error: 0.002552395580989641
Epoch: 10300, Error: 0.002797584845487784
Epoch: 10400, Error: 0.004463622646547633
Epoch: 10500, Error: 0.003382487888118274
Epoch: 10600, Error: 0.0021054555995503633
Epoch: 10700, Error: 0.0025339608885126615
Epoch: 10800, Error: 0.013171922256903276
Epoch: 10900, Error: 0.00432590170887601
Epoch: 11000, Error: 0.0028288210729409315
Epoch: 11100, Error: 0.0020095761963178846
Epoch: 11200, Error: 0.001602390701373033
Epoch: 11300, Error: 0.002099950252960204
Epoch: 11400, Error: 0.003268160319390414
Epoch: 11500, Error: 0.001777211330085145
Epoch: 11600, Error: 0.0021109080754588973
Epoch: 11700, Error: 0.001635992500483956
Epoch: 11800, Error: 0.002504479090318576
Epoch: 11900, Error: 0.0011766529104923465
Epoch: 12000, Error: 0.0029075757828524074
Epoch: 12100, Error: 0.0012886225677822187
Epoch: 12200, Error: 0.0013443221728270235
Epoch: 12300, Error: 0.0010371444655697625
Epoch: 12400, Error: 0.0011281987792705075
Epoch: 12500, Error: 9.778398607293943E-4
Epoch: 12600, Error: 0.00183915850321243
Epoch: 12700, Error: 0.001407235352820729
Epoch: 12800, Error: 0.001173759202045084
Epoch: 12900, Error: 9.48984206533135E-4
Epoch: 13000, Error: 0.0010461460589309966
Epoch: 13100, Error: 9.338984294917459E-4
Epoch: 13200, Error: 0.0011219507910019274
Epoch: 13300, Error: 9.455147771524294E-4
Epoch: 13400, Error: 0.0010458730668441963
Epoch: 13500, Error: 9.6087115312899E-4
Epoch: 13600, Error: 0.0010239717052792454
Epoch: 13700, Error: 0.0010042188900172006
Epoch: 13800, Error: 9.954123189311347E-4
Epoch: 13900, Error: 9.713349140127831E-4
Epoch: 14000, Error: 0.0010352471822726152
Epoch: 14100, Error: 9.965431274904912E-4
Epoch: 14200, Error: 9.793939558493385E-4
Epoch: 14300, Error: 9.28665938575447E-4
Epoch: 14400, Error: 9.257595443399052E-4
Epoch: 14500, Error: 0.0010086715100111254
Epoch: 14600, Error: 7.912362931336965E-4
Epoch: 14700, Error: 7.670933474474048E-4
Epoch: 14800, Error: 7.437582404007414E-4
Epoch: 14900, Error: 7.049407301754287E-4
Epoch: 15000, Error: 7.431533995272696E-4
Epoch: 15100, Error: 6.937028573307935E-4
Epoch: 15200, Error: 7.82104595232242E-4
Epoch: 15300, Error: 6.991617511251462E-4
Epoch: 15400, Error: 6.990264686262684E-4
Epoch: 15500, Error: 7.369523205184267E-4
Epoch: 15600, Error: 7.197056644530917E-4
Epoch: 15700, Error: 7.218915951437498E-4
Epoch: 15800, Error: 7.246138342953895E-4
Epoch: 15900, Error: 7.245934303834125E-4
Epoch: 16000, Error: 7.071362999355437E-4
Epoch: 16100, Error: 7.074939800457955E-4
Epoch: 16200, Error: 7.09530752769205E-4
Epoch: 16300, Error: 7.243151463769367E-4
Epoch: 16400, Error: 7.00720702522095E-4
Epoch: 16500, Error: 7.080303222102148E-4
Epoch: 16600, Error: 6.968608421583946E-4
Epoch: 16700, Error: 6.996403025540028E-4
Epoch: 16800, Error: 6.945309345603982E-4
Epoch: 16900, Error: 7.042583851203853E-4
Epoch: 17000, Error: 6.925965504041637E-4
Epoch: 17100, Error: 6.867919683780094E-4
Epoch: 17200, Error: 6.933813432435203E-4
Epoch: 17300, Error: 6.996587072700694E-4
Epoch: 17400, Error: 7.26067487942215E-4
Epoch: 17500, Error: 7.147756179144508E-4
Epoch: 17600, Error: 7.165935466545632E-4
Epoch: 17700, Error: 7.39630239363956E-4
Epoch: 17800, Error: 7.642495549329114E-4
Epoch: 17900, Error: 7.853119795462491E-4
Epoch: 18000, Error: 7.958183853277446E-4
Epoch: 18100, Error: 8.22679840241272E-4
Epoch: 18200, Error: 8.133857245964669E-4
Epoch: 18300, Error: 8.142268205636749E-4
Epoch: 18400, Error: 7.903089897244758E-4
Epoch: 18500, Error: 7.901605678795824E-4
Epoch: 18600, Error: 7.725288182148397E-4
Epoch: 18700, Error: 7.674122008492094E-4
Epoch: 18800, Error: 7.622620068329934E-4
Epoch: 18900, Error: 7.487638375860633E-4
Epoch: 19000, Error: 7.343505021033698E-4
Finished
