Input Patterns
0.224 0.624 0.067 0.043 
0.11 0.502 0.051 0.043 
0.196 0.667 0.067 0.043 
0.055 0.584 0.067 0.082 
0.027 0.376 0.067 0.043 
0.306 0.71 0.086 0.043 
0.137 0.416 0.067 0.0 
0.416 0.831 0.035 0.043 
0.306 0.792 0.051 0.125 
0.388 0.749 0.118 0.082 
0.306 0.584 0.118 0.043 
0.082 0.667 0.0 0.043 
0.137 0.584 0.153 0.043 
0.196 0.584 0.102 0.125 
0.251 0.584 0.067 0.043 
0.137 0.459 0.102 0.043 
0.251 0.875 0.086 0.0 
0.165 0.459 0.086 0.043 
0.333 0.624 0.051 0.043 
0.027 0.416 0.051 0.043 
0.196 0.624 0.051 0.082 
0.027 0.502 0.051 0.043 
0.224 0.749 0.153 0.125 
0.224 0.749 0.102 0.043 
0.278 0.71 0.086 0.043 
0.165 0.416 0.067 0.043 
0.082 0.459 0.086 0.043 
0.306 0.792 0.118 0.125 
0.196 0.584 0.086 0.043 
0.165 0.459 0.086 0.0 
0.137 0.584 0.102 0.043 
0.0 0.416 0.016 0.0 
0.388 1.0 0.086 0.125 
0.224 0.624 0.067 0.082 
0.224 0.749 0.086 0.082 
0.224 0.71 0.086 0.125 
0.224 0.541 0.118 0.165 
0.196 0.416 0.102 0.043 
0.251 0.624 0.086 0.043 
0.11 0.502 0.102 0.043 
0.306 0.584 0.086 0.125 
0.333 0.918 0.067 0.043 
0.196 0.502 0.035 0.043 
0.165 0.667 0.067 0.0 
0.224 0.584 0.086 0.043 
0.055 0.125 0.051 0.082 
0.196 0.624 0.102 0.208 
0.137 0.416 0.067 0.082 
0.082 0.502 0.067 0.043 
0.196 0.541 0.067 0.043 
0.749 0.502 0.627 0.541 
0.722 0.459 0.663 0.584 
0.612 0.333 0.612 0.584 
0.557 0.541 0.627 0.624 
0.639 0.376 0.612 0.498 
0.196 0.0 0.424 0.376 
0.471 0.082 0.51 0.376 
0.361 0.376 0.439 0.498 
0.361 0.416 0.592 0.584 
0.529 0.082 0.592 0.584 
0.443 0.502 0.643 0.459 
0.557 0.208 0.663 0.584 
0.584 0.376 0.561 0.498 
0.694 0.333 0.643 0.541 
0.471 0.376 0.592 0.584 
0.333 0.169 0.475 0.416 
0.416 0.29 0.49 0.459 
0.306 0.416 0.592 0.584 
0.667 0.459 0.627 0.584 
0.361 0.416 0.525 0.498 
0.333 0.251 0.576 0.459 
0.416 0.251 0.51 0.459 
0.361 0.29 0.541 0.498 
0.388 0.376 0.541 0.498 
0.224 0.208 0.337 0.416 
0.584 0.502 0.592 0.584 
0.333 0.125 0.51 0.498 
0.388 0.333 0.592 0.498 
0.165 0.169 0.388 0.376 
0.251 0.29 0.49 0.541 
0.443 0.416 0.541 0.584 
0.498 0.376 0.627 0.541 
0.667 0.459 0.576 0.541 
0.416 0.29 0.525 0.376 
0.361 0.208 0.49 0.416 
0.498 0.333 0.51 0.498 
0.498 0.333 0.627 0.459 
0.639 0.416 0.576 0.541 
0.667 0.416 0.678 0.667 
0.388 0.251 0.424 0.376 
0.333 0.169 0.459 0.376 
0.471 0.29 0.694 0.624 
0.471 0.584 0.592 0.624 
0.557 0.125 0.576 0.498 
0.333 0.208 0.51 0.498 
0.498 0.416 0.612 0.541 
0.196 0.125 0.388 0.376 
0.388 0.416 0.541 0.459 
0.529 0.376 0.561 0.498 
0.388 0.333 0.525 0.498 
0.557 0.541 0.847 1.0 
0.776 0.416 0.831 0.831 
0.612 0.416 0.812 0.875 
0.165 0.208 0.592 0.667 
0.667 0.208 0.812 0.71 
0.612 0.502 0.694 0.792 
0.694 0.416 0.761 0.831 
0.416 0.333 0.694 0.957 
0.612 0.416 0.761 0.71 
0.945 0.251 1.0 0.918 
0.722 0.502 0.796 0.918 
0.945 0.333 0.965 0.792 
0.667 0.541 0.796 0.831 
0.529 0.333 0.643 0.71 
0.584 0.333 0.78 0.831 
0.863 0.333 0.863 0.749 
0.584 0.333 0.78 0.875 
0.498 0.251 0.78 0.541 
0.557 0.584 0.78 0.957 
0.471 0.416 0.643 0.71 
0.667 0.459 0.78 0.957 
0.416 0.29 0.694 0.749 
0.667 0.541 0.796 1.0 
0.557 0.208 0.678 0.749 
0.529 0.584 0.745 0.918 
0.416 0.29 0.694 0.749 
0.557 0.376 0.78 0.71 
0.918 0.416 0.949 0.831 
0.835 0.376 0.898 0.71 
0.804 0.667 0.863 1.0 
0.584 0.29 0.729 0.749 
0.388 0.208 0.678 0.792 
0.584 0.502 0.729 0.918 
0.945 0.749 0.965 0.875 
0.471 0.082 0.678 0.584 
0.361 0.333 0.663 0.792 
0.557 0.29 0.663 0.71 
0.804 0.502 0.847 0.71 
0.498 0.416 0.51 0.71 
0.804 0.416 0.812 0.624 
1.0 0.749 0.914 0.792 
0.557 0.333 0.694 0.584 
0.945 0.416 0.863 0.918 
0.584 0.459 0.761 0.71 
0.722 0.459 0.745 0.831 
0.722 0.459 0.694 0.918 
0.694 0.502 0.831 0.918 
0.667 0.416 0.714 0.918 
0.612 0.416 0.714 0.792 
0.443 0.416 0.694 0.71 
Teaching Patterns
1.0 0.0 0.0 
1.0 0.0 0.0 
1.0 0.0 0.0 
1.0 0.0 0.0 
1.0 0.0 0.0 
1.0 0.0 0.0 
1.0 0.0 0.0 
1.0 0.0 0.0 
1.0 0.0 0.0 
1.0 0.0 0.0 
1.0 0.0 0.0 
1.0 0.0 0.0 
1.0 0.0 0.0 
1.0 0.0 0.0 
1.0 0.0 0.0 
1.0 0.0 0.0 
1.0 0.0 0.0 
1.0 0.0 0.0 
1.0 0.0 0.0 
1.0 0.0 0.0 
1.0 0.0 0.0 
1.0 0.0 0.0 
1.0 0.0 0.0 
1.0 0.0 0.0 
1.0 0.0 0.0 
1.0 0.0 0.0 
1.0 0.0 0.0 
1.0 0.0 0.0 
1.0 0.0 0.0 
1.0 0.0 0.0 
1.0 0.0 0.0 
1.0 0.0 0.0 
1.0 0.0 0.0 
1.0 0.0 0.0 
1.0 0.0 0.0 
1.0 0.0 0.0 
1.0 0.0 0.0 
1.0 0.0 0.0 
1.0 0.0 0.0 
1.0 0.0 0.0 
1.0 0.0 0.0 
1.0 0.0 0.0 
1.0 0.0 0.0 
1.0 0.0 0.0 
1.0 0.0 0.0 
1.0 0.0 0.0 
1.0 0.0 0.0 
1.0 0.0 0.0 
1.0 0.0 0.0 
1.0 0.0 0.0 
0.0 1.0 0.0 
0.0 1.0 0.0 
0.0 1.0 0.0 
0.0 1.0 0.0 
0.0 1.0 0.0 
0.0 1.0 0.0 
0.0 1.0 0.0 
0.0 1.0 0.0 
0.0 1.0 0.0 
0.0 1.0 0.0 
0.0 1.0 0.0 
0.0 1.0 0.0 
0.0 1.0 0.0 
0.0 1.0 0.0 
0.0 1.0 0.0 
0.0 1.0 0.0 
0.0 1.0 0.0 
0.0 1.0 0.0 
0.0 1.0 0.0 
0.0 1.0 0.0 
0.0 1.0 0.0 
0.0 1.0 0.0 
0.0 1.0 0.0 
0.0 1.0 0.0 
0.0 1.0 0.0 
0.0 1.0 0.0 
0.0 1.0 0.0 
0.0 1.0 0.0 
0.0 1.0 0.0 
0.0 1.0 0.0 
0.0 1.0 0.0 
0.0 1.0 0.0 
0.0 1.0 0.0 
0.0 1.0 0.0 
0.0 1.0 0.0 
0.0 1.0 0.0 
0.0 1.0 0.0 
0.0 1.0 0.0 
0.0 1.0 0.0 
0.0 1.0 0.0 
0.0 1.0 0.0 
0.0 1.0 0.0 
0.0 1.0 0.0 
0.0 1.0 0.0 
0.0 1.0 0.0 
0.0 1.0 0.0 
0.0 1.0 0.0 
0.0 1.0 0.0 
0.0 1.0 0.0 
0.0 1.0 0.0 
0.0 0.0 1.0 
0.0 0.0 1.0 
0.0 0.0 1.0 
0.0 0.0 1.0 
0.0 0.0 1.0 
0.0 0.0 1.0 
0.0 0.0 1.0 
0.0 0.0 1.0 
0.0 0.0 1.0 
0.0 0.0 1.0 
0.0 0.0 1.0 
0.0 0.0 1.0 
0.0 0.0 1.0 
0.0 0.0 1.0 
0.0 0.0 1.0 
0.0 0.0 1.0 
0.0 0.0 1.0 
0.0 0.0 1.0 
0.0 0.0 1.0 
0.0 0.0 1.0 
0.0 0.0 1.0 
0.0 0.0 1.0 
0.0 0.0 1.0 
0.0 0.0 1.0 
0.0 0.0 1.0 
0.0 0.0 1.0 
0.0 0.0 1.0 
0.0 0.0 1.0 
0.0 0.0 1.0 
0.0 0.0 1.0 
0.0 0.0 1.0 
0.0 0.0 1.0 
0.0 0.0 1.0 
0.0 0.0 1.0 
0.0 0.0 1.0 
0.0 0.0 1.0 
0.0 0.0 1.0 
0.0 0.0 1.0 
0.0 0.0 1.0 
0.0 0.0 1.0 
0.0 0.0 1.0 
0.0 0.0 1.0 
0.0 0.0 1.0 
0.0 0.0 1.0 
0.0 0.0 1.0 
0.0 0.0 1.0 
0.0 0.0 1.0 
0.0 0.0 1.0 
0.0 0.0 1.0 
0.0 0.0 1.0 
Learning : 0.05
Momentum : 0.10000000149011612
Epoch: 100, Error: 0.09245975753789719
Epoch: 200, Error: 0.039078344788424785
Epoch: 300, Error: 0.021735448962997884
Epoch: 400, Error: 0.017961394816333902
Epoch: 500, Error: 0.016143317666843734
Epoch: 600, Error: 0.015111930758107111
Epoch: 700, Error: 0.01453547738893252
Epoch: 800, Error: 0.01409032782163565
Epoch: 900, Error: 0.013798011097503476
Epoch: 1000, Error: 0.013461973686961053
Epoch: 1100, Error: 0.013282256350459518
Epoch: 1200, Error: 0.013116920795400945
Epoch: 1300, Error: 0.01300928707763463
Epoch: 1400, Error: 0.012884355567596584
Epoch: 1500, Error: 0.01277997180145048
Epoch: 1600, Error: 0.012687637419983364
Epoch: 1700, Error: 0.01260208804494688
Epoch: 1800, Error: 0.012679586145646031
Epoch: 1900, Error: 0.012512635738778359
Epoch: 2000, Error: 0.012426026483600233
Epoch: 2100, Error: 0.01237043985707028
Epoch: 2200, Error: 0.012369254843940474
Epoch: 2300, Error: 0.012312811606561003
Epoch: 2400, Error: 0.01229406868763896
Epoch: 2500, Error: 0.012272440163272908
Epoch: 2600, Error: 0.012283376792414875
Epoch: 2700, Error: 0.012248406116677204
Epoch: 2800, Error: 0.012249421033778757
Epoch: 2900, Error: 0.012191757994268743
Epoch: 3000, Error: 0.012187340771874562
Epoch: 3100, Error: 0.012183129195136847
Epoch: 3200, Error: 0.01216684543285127
Epoch: 3300, Error: 0.012134551181096577
Epoch: 3400, Error: 0.012172611721031148
Epoch: 3500, Error: 0.012125987863784455
Epoch: 3600, Error: 0.012104098287421818
Epoch: 3700, Error: 0.012110156855043947
Epoch: 3800, Error: 0.012116784185083515
Epoch: 3900, Error: 0.012093934400279144
Epoch: 4000, Error: 0.01209937415237311
Epoch: 4100, Error: 0.012148936213777585
Epoch: 4200, Error: 0.012074397805109185
Epoch: 4300, Error: 0.012071126486290456
Epoch: 4400, Error: 0.012058094540247886
Epoch: 4500, Error: 0.01212028733241318
Epoch: 4600, Error: 0.012070805610476998
Epoch: 4700, Error: 0.01206904590189628
Epoch: 4800, Error: 0.012058368652652513
Epoch: 4900, Error: 0.012042830364648727
Epoch: 5000, Error: 0.012053557027208719
Epoch: 5100, Error: 0.012048149719938783
Epoch: 5200, Error: 0.012046741682531344
Epoch: 5300, Error: 0.012043337716823073
Epoch: 5400, Error: 0.012057043587674097
Epoch: 5500, Error: 0.012041467003554759
Epoch: 5600, Error: 0.01207766884143346
Epoch: 5700, Error: 0.012038768761532332
Epoch: 5800, Error: 0.01208618686529996
Epoch: 5900, Error: 0.01205156857500525
Epoch: 6000, Error: 0.012038061169667937
Epoch: 6100, Error: 0.012024001772406201
Epoch: 6200, Error: 0.012004584704752339
Epoch: 6300, Error: 0.012007405867396376
Epoch: 6400, Error: 0.012036283252352148
Epoch: 6500, Error: 0.012003372480835403
Epoch: 6600, Error: 0.011996511822851146
Epoch: 6700, Error: 0.012077427348153964
Epoch: 6800, Error: 0.011984788561743748
Epoch: 6900, Error: 0.01198760692265689
Epoch: 7000, Error: 0.011991317498718393
Epoch: 7100, Error: 0.011992787406633034
Epoch: 7200, Error: 0.011970031457134699
Epoch: 7300, Error: 0.01198537781486141
Epoch: 7400, Error: 0.011975360703063332
Epoch: 7500, Error: 0.011958099918995692
Epoch: 7600, Error: 0.01195959040072938
Epoch: 7700, Error: 0.011940471656426949
Epoch: 7800, Error: 0.011953430456124183
Epoch: 7900, Error: 0.011932336889701568
Epoch: 8000, Error: 0.011947612873485579
Epoch: 8100, Error: 0.0120437425647483
Epoch: 8200, Error: 0.011895399613063323
Epoch: 8300, Error: 0.011912223925267933
Epoch: 8400, Error: 0.011899517513011085
Epoch: 8500, Error: 0.011881669568845735
Epoch: 8600, Error: 0.011899070061789625
Epoch: 8700, Error: 0.0119026325012737
Epoch: 8800, Error: 0.011890327171249009
Epoch: 8900, Error: 0.011844899637199095
Epoch: 9000, Error: 0.011820163499611938
Epoch: 9100, Error: 0.011878183012231557
Epoch: 9200, Error: 0.011788788670395763
Epoch: 9300, Error: 0.01176479213043875
Epoch: 9400, Error: 0.01177527753621199
Epoch: 9500, Error: 0.011771007347716213
Epoch: 9600, Error: 0.011758530126776908
Epoch: 9700, Error: 0.011728491767740861
Epoch: 9800, Error: 0.01167314627030123
Epoch: 9900, Error: 0.011642095067143456
Epoch: 10000, Error: 0.011613169379995441
Epoch: 10100, Error: 0.011587199817476582
Epoch: 10200, Error: 0.011549531042595701
Epoch: 10300, Error: 0.011508492212788442
Epoch: 10400, Error: 0.011442837489237004
Epoch: 10500, Error: 0.011441008437854231
Epoch: 10600, Error: 0.011348578151355067
Epoch: 10700, Error: 0.011338345145878283
Epoch: 10800, Error: 0.011233154776162936
Epoch: 10900, Error: 0.011158744591265521
Epoch: 11000, Error: 0.011064722385264514
Epoch: 11100, Error: 0.010974861650761279
Epoch: 11200, Error: 0.010936625226978332
Epoch: 11300, Error: 0.010792501104938368
Epoch: 11400, Error: 0.010649977787365452
Epoch: 11500, Error: 0.010547665262291206
Epoch: 11600, Error: 0.010414079217729645
Epoch: 11700, Error: 0.010289504172191788
Epoch: 11800, Error: 0.010149167858506272
Epoch: 11900, Error: 0.010024571299901216
Epoch: 12000, Error: 0.00987368286210337
Epoch: 12100, Error: 0.009762922385024152
Epoch: 12200, Error: 0.009575769779561453
Epoch: 12300, Error: 0.009427911977954052
Epoch: 12400, Error: 0.009294670013878709
Epoch: 12500, Error: 0.009135825742462822
Epoch: 12600, Error: 0.009000691344187182
Epoch: 12700, Error: 0.008858970922074095
Epoch: 12800, Error: 0.008717952505489693
Epoch: 12900, Error: 0.008612691909167565
Epoch: 13000, Error: 0.008467063089587461
Epoch: 13100, Error: 0.008357429816739304
Epoch: 13200, Error: 0.008258105182365676
Epoch: 13300, Error: 0.008165040157981123
Epoch: 13400, Error: 0.008071360212547231
Epoch: 13500, Error: 0.008003601632283754
Epoch: 13600, Error: 0.007910290019816467
Epoch: 13700, Error: 0.007840349288764148
Epoch: 13800, Error: 0.007759997297433338
Epoch: 13900, Error: 0.007699673680582901
Epoch: 14000, Error: 0.0076461135604936215
Epoch: 14100, Error: 0.007560076438932653
Epoch: 14200, Error: 0.007503131144531239
Epoch: 14300, Error: 0.0074725957988545
Epoch: 14400, Error: 0.00740444512336414
Epoch: 14500, Error: 0.0073530603843559965
Epoch: 14600, Error: 0.007315390558835864
Epoch: 14700, Error: 0.0072806737266596705
Epoch: 14800, Error: 0.007232679965087887
Epoch: 14900, Error: 0.007191883598761988
Epoch: 15000, Error: 0.007146513075493415
Epoch: 15100, Error: 0.007100797568490527
Epoch: 15200, Error: 0.007066049303635208
Epoch: 15300, Error: 0.0070352923018342315
Epoch: 15400, Error: 0.006994530560737795
Epoch: 15500, Error: 0.006965446883910125
Epoch: 15600, Error: 0.006935496820903163
Epoch: 15700, Error: 0.006890568858197937
Epoch: 15800, Error: 0.006839419005536288
Epoch: 15900, Error: 0.0068187123440233855
Epoch: 16000, Error: 0.006801584780478297
Epoch: 16100, Error: 0.006756829297073827
Epoch: 16200, Error: 0.006730776759582542
Epoch: 16300, Error: 0.006708083962185418
Epoch: 16400, Error: 0.006677497163069382
Epoch: 16500, Error: 0.006657496218856618
Epoch: 16600, Error: 0.0066333394084444304
Epoch: 16700, Error: 0.006596001796249273
Epoch: 16800, Error: 0.0065514527370785615
Epoch: 16900, Error: 0.00654085447977533
Epoch: 17000, Error: 0.006501659269544059
Epoch: 17100, Error: 0.00647996544065739
Epoch: 17200, Error: 0.0064537435172838985
Epoch: 17300, Error: 0.0064322489763366
Epoch: 17400, Error: 0.006412612980706044
Epoch: 17500, Error: 0.006392847895729313
Epoch: 17600, Error: 0.00636803271487335
Epoch: 17700, Error: 0.006355368262747821
Epoch: 17800, Error: 0.00634954995981977
Epoch: 17900, Error: 0.006326399976011873
Epoch: 18000, Error: 0.0062955163913537915
Epoch: 18100, Error: 0.006277640310347964
Epoch: 18200, Error: 0.006260799164297328
Epoch: 18300, Error: 0.006251232423182826
Epoch: 18400, Error: 0.0062174875032073975
Epoch: 18500, Error: 0.006204159629550183
Epoch: 18600, Error: 0.00619076564791902
Epoch: 18700, Error: 0.006168910187555684
Epoch: 18800, Error: 0.006159732223829685
Epoch: 18900, Error: 0.006147108385811912
Epoch: 19000, Error: 0.006160088425967052
Epoch: 19100, Error: 0.006129459738172806
Epoch: 19200, Error: 0.006137933789443832
Epoch: 19300, Error: 0.006156190804825366
Epoch: 19400, Error: 0.0061581790574282745
Epoch: 19500, Error: 0.006146695200273121
Epoch: 19600, Error: 0.006127710991305571
Epoch: 19700, Error: 0.006115934682083135
Finished
