Input Patterns
0.224 0.624 0.067 0.043 
0.11 0.502 0.051 0.043 
0.196 0.667 0.067 0.043 
0.055 0.584 0.067 0.082 
0.027 0.376 0.067 0.043 
0.306 0.71 0.086 0.043 
0.137 0.416 0.067 0.0 
0.416 0.831 0.035 0.043 
0.306 0.792 0.051 0.125 
0.388 0.749 0.118 0.082 
0.306 0.584 0.118 0.043 
0.082 0.667 0.0 0.043 
0.137 0.584 0.153 0.043 
0.196 0.584 0.102 0.125 
0.251 0.584 0.067 0.043 
0.137 0.459 0.102 0.043 
0.251 0.875 0.086 0.0 
0.165 0.459 0.086 0.043 
0.333 0.624 0.051 0.043 
0.027 0.416 0.051 0.043 
0.196 0.624 0.051 0.082 
0.027 0.502 0.051 0.043 
0.224 0.749 0.153 0.125 
0.224 0.749 0.102 0.043 
0.278 0.71 0.086 0.043 
0.165 0.416 0.067 0.043 
0.082 0.459 0.086 0.043 
0.306 0.792 0.118 0.125 
0.196 0.584 0.086 0.043 
0.165 0.459 0.086 0.0 
0.137 0.584 0.102 0.043 
0.0 0.416 0.016 0.0 
0.388 1.0 0.086 0.125 
0.224 0.624 0.067 0.082 
0.224 0.749 0.086 0.082 
0.224 0.71 0.086 0.125 
0.224 0.541 0.118 0.165 
0.196 0.416 0.102 0.043 
0.251 0.624 0.086 0.043 
0.11 0.502 0.102 0.043 
0.306 0.584 0.086 0.125 
0.333 0.918 0.067 0.043 
0.196 0.502 0.035 0.043 
0.165 0.667 0.067 0.0 
0.224 0.584 0.086 0.043 
0.055 0.125 0.051 0.082 
0.196 0.624 0.102 0.208 
0.137 0.416 0.067 0.082 
0.082 0.502 0.067 0.043 
0.196 0.541 0.067 0.043 
0.749 0.502 0.627 0.541 
0.722 0.459 0.663 0.584 
0.612 0.333 0.612 0.584 
0.557 0.541 0.627 0.624 
0.639 0.376 0.612 0.498 
0.196 0.0 0.424 0.376 
0.471 0.082 0.51 0.376 
0.361 0.376 0.439 0.498 
0.361 0.416 0.592 0.584 
0.529 0.082 0.592 0.584 
0.443 0.502 0.643 0.459 
0.557 0.208 0.663 0.584 
0.584 0.376 0.561 0.498 
0.694 0.333 0.643 0.541 
0.471 0.376 0.592 0.584 
0.333 0.169 0.475 0.416 
0.416 0.29 0.49 0.459 
0.306 0.416 0.592 0.584 
0.667 0.459 0.627 0.584 
0.361 0.416 0.525 0.498 
0.333 0.251 0.576 0.459 
0.416 0.251 0.51 0.459 
0.361 0.29 0.541 0.498 
0.388 0.376 0.541 0.498 
0.224 0.208 0.337 0.416 
0.584 0.502 0.592 0.584 
0.333 0.125 0.51 0.498 
0.388 0.333 0.592 0.498 
0.165 0.169 0.388 0.376 
0.251 0.29 0.49 0.541 
0.443 0.416 0.541 0.584 
0.498 0.376 0.627 0.541 
0.667 0.459 0.576 0.541 
0.416 0.29 0.525 0.376 
0.361 0.208 0.49 0.416 
0.498 0.333 0.51 0.498 
0.498 0.333 0.627 0.459 
0.639 0.416 0.576 0.541 
0.667 0.416 0.678 0.667 
0.388 0.251 0.424 0.376 
0.333 0.169 0.459 0.376 
0.471 0.29 0.694 0.624 
0.471 0.584 0.592 0.624 
0.557 0.125 0.576 0.498 
0.333 0.208 0.51 0.498 
0.498 0.416 0.612 0.541 
0.196 0.125 0.388 0.376 
0.388 0.416 0.541 0.459 
0.529 0.376 0.561 0.498 
0.388 0.333 0.525 0.498 
0.557 0.541 0.847 1.0 
0.776 0.416 0.831 0.831 
0.612 0.416 0.812 0.875 
0.165 0.208 0.592 0.667 
0.667 0.208 0.812 0.71 
0.612 0.502 0.694 0.792 
0.694 0.416 0.761 0.831 
0.416 0.333 0.694 0.957 
0.612 0.416 0.761 0.71 
0.945 0.251 1.0 0.918 
0.722 0.502 0.796 0.918 
0.945 0.333 0.965 0.792 
0.667 0.541 0.796 0.831 
0.529 0.333 0.643 0.71 
0.584 0.333 0.78 0.831 
0.863 0.333 0.863 0.749 
0.584 0.333 0.78 0.875 
0.498 0.251 0.78 0.541 
0.557 0.584 0.78 0.957 
0.471 0.416 0.643 0.71 
0.667 0.459 0.78 0.957 
0.416 0.29 0.694 0.749 
0.667 0.541 0.796 1.0 
0.557 0.208 0.678 0.749 
0.529 0.584 0.745 0.918 
0.416 0.29 0.694 0.749 
0.557 0.376 0.78 0.71 
0.918 0.416 0.949 0.831 
0.835 0.376 0.898 0.71 
0.804 0.667 0.863 1.0 
0.584 0.29 0.729 0.749 
0.388 0.208 0.678 0.792 
0.584 0.502 0.729 0.918 
0.945 0.749 0.965 0.875 
0.471 0.082 0.678 0.584 
0.361 0.333 0.663 0.792 
0.557 0.29 0.663 0.71 
0.804 0.502 0.847 0.71 
0.498 0.416 0.51 0.71 
0.804 0.416 0.812 0.624 
1.0 0.749 0.914 0.792 
0.557 0.333 0.694 0.584 
0.945 0.416 0.863 0.918 
0.584 0.459 0.761 0.71 
0.722 0.459 0.745 0.831 
0.722 0.459 0.694 0.918 
0.694 0.502 0.831 0.918 
0.667 0.416 0.714 0.918 
0.612 0.416 0.714 0.792 
0.443 0.416 0.694 0.71 
Teaching Patterns
1.0 0.0 0.0 
1.0 0.0 0.0 
1.0 0.0 0.0 
1.0 0.0 0.0 
1.0 0.0 0.0 
1.0 0.0 0.0 
1.0 0.0 0.0 
1.0 0.0 0.0 
1.0 0.0 0.0 
1.0 0.0 0.0 
1.0 0.0 0.0 
1.0 0.0 0.0 
1.0 0.0 0.0 
1.0 0.0 0.0 
1.0 0.0 0.0 
1.0 0.0 0.0 
1.0 0.0 0.0 
1.0 0.0 0.0 
1.0 0.0 0.0 
1.0 0.0 0.0 
1.0 0.0 0.0 
1.0 0.0 0.0 
1.0 0.0 0.0 
1.0 0.0 0.0 
1.0 0.0 0.0 
1.0 0.0 0.0 
1.0 0.0 0.0 
1.0 0.0 0.0 
1.0 0.0 0.0 
1.0 0.0 0.0 
1.0 0.0 0.0 
1.0 0.0 0.0 
1.0 0.0 0.0 
1.0 0.0 0.0 
1.0 0.0 0.0 
1.0 0.0 0.0 
1.0 0.0 0.0 
1.0 0.0 0.0 
1.0 0.0 0.0 
1.0 0.0 0.0 
1.0 0.0 0.0 
1.0 0.0 0.0 
1.0 0.0 0.0 
1.0 0.0 0.0 
1.0 0.0 0.0 
1.0 0.0 0.0 
1.0 0.0 0.0 
1.0 0.0 0.0 
1.0 0.0 0.0 
1.0 0.0 0.0 
0.0 1.0 0.0 
0.0 1.0 0.0 
0.0 1.0 0.0 
0.0 1.0 0.0 
0.0 1.0 0.0 
0.0 1.0 0.0 
0.0 1.0 0.0 
0.0 1.0 0.0 
0.0 1.0 0.0 
0.0 1.0 0.0 
0.0 1.0 0.0 
0.0 1.0 0.0 
0.0 1.0 0.0 
0.0 1.0 0.0 
0.0 1.0 0.0 
0.0 1.0 0.0 
0.0 1.0 0.0 
0.0 1.0 0.0 
0.0 1.0 0.0 
0.0 1.0 0.0 
0.0 1.0 0.0 
0.0 1.0 0.0 
0.0 1.0 0.0 
0.0 1.0 0.0 
0.0 1.0 0.0 
0.0 1.0 0.0 
0.0 1.0 0.0 
0.0 1.0 0.0 
0.0 1.0 0.0 
0.0 1.0 0.0 
0.0 1.0 0.0 
0.0 1.0 0.0 
0.0 1.0 0.0 
0.0 1.0 0.0 
0.0 1.0 0.0 
0.0 1.0 0.0 
0.0 1.0 0.0 
0.0 1.0 0.0 
0.0 1.0 0.0 
0.0 1.0 0.0 
0.0 1.0 0.0 
0.0 1.0 0.0 
0.0 1.0 0.0 
0.0 1.0 0.0 
0.0 1.0 0.0 
0.0 1.0 0.0 
0.0 1.0 0.0 
0.0 1.0 0.0 
0.0 1.0 0.0 
0.0 1.0 0.0 
0.0 0.0 1.0 
0.0 0.0 1.0 
0.0 0.0 1.0 
0.0 0.0 1.0 
0.0 0.0 1.0 
0.0 0.0 1.0 
0.0 0.0 1.0 
0.0 0.0 1.0 
0.0 0.0 1.0 
0.0 0.0 1.0 
0.0 0.0 1.0 
0.0 0.0 1.0 
0.0 0.0 1.0 
0.0 0.0 1.0 
0.0 0.0 1.0 
0.0 0.0 1.0 
0.0 0.0 1.0 
0.0 0.0 1.0 
0.0 0.0 1.0 
0.0 0.0 1.0 
0.0 0.0 1.0 
0.0 0.0 1.0 
0.0 0.0 1.0 
0.0 0.0 1.0 
0.0 0.0 1.0 
0.0 0.0 1.0 
0.0 0.0 1.0 
0.0 0.0 1.0 
0.0 0.0 1.0 
0.0 0.0 1.0 
0.0 0.0 1.0 
0.0 0.0 1.0 
0.0 0.0 1.0 
0.0 0.0 1.0 
0.0 0.0 1.0 
0.0 0.0 1.0 
0.0 0.0 1.0 
0.0 0.0 1.0 
0.0 0.0 1.0 
0.0 0.0 1.0 
0.0 0.0 1.0 
0.0 0.0 1.0 
0.0 0.0 1.0 
0.0 0.0 1.0 
0.0 0.0 1.0 
0.0 0.0 1.0 
0.0 0.0 1.0 
0.0 0.0 1.0 
0.0 0.0 1.0 
0.0 0.0 1.0 
Learning : 0.05
Momentum : 0.10000000149011612
Epoch: 100, Error: 0.09204276169326682
Epoch: 200, Error: 0.04848218960362098
Epoch: 300, Error: 0.023433324677212878
Epoch: 400, Error: 0.017791341789628552
Epoch: 500, Error: 0.015672337712663433
Epoch: 600, Error: 0.014628341545950033
Epoch: 700, Error: 0.01405436684039102
Epoch: 800, Error: 0.013571553655255812
Epoch: 900, Error: 0.013268321192643144
Epoch: 1000, Error: 0.012984225528967299
Epoch: 1100, Error: 0.012860391470697497
Epoch: 1200, Error: 0.012673783531457358
Epoch: 1300, Error: 0.012552657700650775
Epoch: 1400, Error: 0.012473026018778312
Epoch: 1500, Error: 0.012380819376245387
Epoch: 1600, Error: 0.012330604883670224
Epoch: 1700, Error: 0.012292179052301764
Epoch: 1800, Error: 0.01226970212789396
Epoch: 1900, Error: 0.01216017834710357
Epoch: 2000, Error: 0.012127431999797844
Epoch: 2100, Error: 0.01211278595812928
Epoch: 2200, Error: 0.01215315589019424
Epoch: 2300, Error: 0.012081175862555438
Epoch: 2400, Error: 0.012070919083775845
Epoch: 2500, Error: 0.012067260645145964
Epoch: 2600, Error: 0.012052645807621243
Epoch: 2700, Error: 0.012060118369260325
Epoch: 2800, Error: 0.0120284941589091
Epoch: 2900, Error: 0.012038975494835449
Epoch: 3000, Error: 0.012039220136467283
Epoch: 3100, Error: 0.012045716148327482
Epoch: 3200, Error: 0.012044486121298905
Epoch: 3300, Error: 0.012043615108870758
Epoch: 3400, Error: 0.012096490782219253
Epoch: 3500, Error: 0.012042990504353339
Epoch: 3600, Error: 0.012040015625073695
Epoch: 3700, Error: 0.012049692453640647
Epoch: 3800, Error: 0.01202977373995304
Epoch: 3900, Error: 0.01202693330355184
Epoch: 4000, Error: 0.012021737676147984
Epoch: 4100, Error: 0.012065511309680518
Epoch: 4200, Error: 0.012068929833424702
Epoch: 4300, Error: 0.012006347657183473
Epoch: 4400, Error: 0.012004660716685508
Epoch: 4500, Error: 0.011998267922530986
Epoch: 4600, Error: 0.012017121208006609
Epoch: 4700, Error: 0.012002009063365958
Epoch: 4800, Error: 0.012009105505977405
Epoch: 4900, Error: 0.01202054491916613
Epoch: 5000, Error: 0.012021496968409
Epoch: 5100, Error: 0.012035681839700895
Epoch: 5200, Error: 0.01203633301388839
Epoch: 5300, Error: 0.0119971372557143
Epoch: 5400, Error: 0.012013480985547272
Epoch: 5500, Error: 0.012008157990234344
Epoch: 5600, Error: 0.011998641179035428
Epoch: 5700, Error: 0.012009581835323831
Epoch: 5800, Error: 0.01198962785878154
Epoch: 5900, Error: 0.012004372076847375
Epoch: 6000, Error: 0.01200791552395648
Epoch: 6100, Error: 0.012015350116302882
Epoch: 6200, Error: 0.011996819389143008
Epoch: 6300, Error: 0.01203544748623881
Epoch: 6400, Error: 0.012000743027751424
Epoch: 6500, Error: 0.012013277016150776
Epoch: 6600, Error: 0.012004990793789905
Epoch: 6700, Error: 0.011999437046733726
Epoch: 6800, Error: 0.012030226192627445
Epoch: 6900, Error: 0.012000591083244434
Epoch: 7000, Error: 0.012017556059327838
Epoch: 7100, Error: 0.011995791014516212
Epoch: 7200, Error: 0.011996017479997479
Epoch: 7300, Error: 0.011987774615528184
Epoch: 7400, Error: 0.011981948605767267
Epoch: 7500, Error: 0.01198912347570328
Epoch: 7600, Error: 0.011990758319567186
Epoch: 7700, Error: 0.012010707419906855
Epoch: 7800, Error: 0.011974318741821182
Epoch: 7900, Error: 0.011975425375872048
Epoch: 8000, Error: 0.011982284597221038
Epoch: 8100, Error: 0.012040496240414119
Epoch: 8200, Error: 0.011966699182560322
Epoch: 8300, Error: 0.011976145604170105
Epoch: 8400, Error: 0.011972423554987564
Epoch: 8500, Error: 0.012044914057489822
Epoch: 8600, Error: 0.01197776123328035
Epoch: 8700, Error: 0.011971327457614072
Epoch: 8800, Error: 0.011994863229659153
Epoch: 8900, Error: 0.012009092605071896
Epoch: 9000, Error: 0.012041414022834976
Epoch: 9100, Error: 0.012036332118121617
Epoch: 9200, Error: 0.012038902377261467
Epoch: 9300, Error: 0.012041570681360756
Epoch: 9400, Error: 0.01208114671951744
Epoch: 9500, Error: 0.012117061852420027
Epoch: 9600, Error: 0.012066283857577147
Epoch: 9700, Error: 0.01208448994212645
Epoch: 9800, Error: 0.012074453342921346
Epoch: 9900, Error: 0.012091109327931317
Epoch: 10000, Error: 0.012130274364212264
Epoch: 10100, Error: 0.012099005867478517
Epoch: 10200, Error: 0.012103966020916958
Epoch: 10300, Error: 0.012112779325737446
Epoch: 10400, Error: 0.012124442376832764
Epoch: 10500, Error: 0.012121845286839846
Epoch: 10600, Error: 0.012134440892588493
Epoch: 10700, Error: 0.012132673687369117
Epoch: 10800, Error: 0.012147234489299294
Epoch: 10900, Error: 0.012128132014725667
Epoch: 11000, Error: 0.012133985535590688
Epoch: 11100, Error: 0.01216761160543237
Epoch: 11200, Error: 0.012152320015267537
Epoch: 11300, Error: 0.012151420371549204
Finished
