Input Patterns
0.224 0.624 0.067 0.043 
0.11 0.502 0.051 0.043 
0.196 0.667 0.067 0.043 
0.055 0.584 0.067 0.082 
0.027 0.376 0.067 0.043 
0.306 0.71 0.086 0.043 
0.137 0.416 0.067 0.0 
0.416 0.831 0.035 0.043 
0.306 0.792 0.051 0.125 
0.388 0.749 0.118 0.082 
0.306 0.584 0.118 0.043 
0.082 0.667 0.0 0.043 
0.137 0.584 0.153 0.043 
0.196 0.584 0.102 0.125 
0.251 0.584 0.067 0.043 
0.137 0.459 0.102 0.043 
0.251 0.875 0.086 0.0 
0.165 0.459 0.086 0.043 
0.333 0.624 0.051 0.043 
0.027 0.416 0.051 0.043 
0.196 0.624 0.051 0.082 
0.027 0.502 0.051 0.043 
0.224 0.749 0.153 0.125 
0.224 0.749 0.102 0.043 
0.278 0.71 0.086 0.043 
0.165 0.416 0.067 0.043 
0.082 0.459 0.086 0.043 
0.306 0.792 0.118 0.125 
0.196 0.584 0.086 0.043 
0.165 0.459 0.086 0.0 
0.137 0.584 0.102 0.043 
0.0 0.416 0.016 0.0 
0.388 1.0 0.086 0.125 
0.224 0.624 0.067 0.082 
0.224 0.749 0.086 0.082 
0.224 0.71 0.086 0.125 
0.224 0.541 0.118 0.165 
0.196 0.416 0.102 0.043 
0.251 0.624 0.086 0.043 
0.11 0.502 0.102 0.043 
0.306 0.584 0.086 0.125 
0.333 0.918 0.067 0.043 
0.196 0.502 0.035 0.043 
0.165 0.667 0.067 0.0 
0.224 0.584 0.086 0.043 
0.055 0.125 0.051 0.082 
0.196 0.624 0.102 0.208 
0.137 0.416 0.067 0.082 
0.082 0.502 0.067 0.043 
0.196 0.541 0.067 0.043 
0.749 0.502 0.627 0.541 
0.722 0.459 0.663 0.584 
0.612 0.333 0.612 0.584 
0.557 0.541 0.627 0.624 
0.639 0.376 0.612 0.498 
0.196 0.0 0.424 0.376 
0.471 0.082 0.51 0.376 
0.361 0.376 0.439 0.498 
0.361 0.416 0.592 0.584 
0.529 0.082 0.592 0.584 
0.443 0.502 0.643 0.459 
0.557 0.208 0.663 0.584 
0.584 0.376 0.561 0.498 
0.694 0.333 0.643 0.541 
0.471 0.376 0.592 0.584 
0.333 0.169 0.475 0.416 
0.416 0.29 0.49 0.459 
0.306 0.416 0.592 0.584 
0.667 0.459 0.627 0.584 
0.361 0.416 0.525 0.498 
0.333 0.251 0.576 0.459 
0.416 0.251 0.51 0.459 
0.361 0.29 0.541 0.498 
0.388 0.376 0.541 0.498 
0.224 0.208 0.337 0.416 
0.584 0.502 0.592 0.584 
0.333 0.125 0.51 0.498 
0.388 0.333 0.592 0.498 
0.165 0.169 0.388 0.376 
0.251 0.29 0.49 0.541 
0.443 0.416 0.541 0.584 
0.498 0.376 0.627 0.541 
0.667 0.459 0.576 0.541 
0.416 0.29 0.525 0.376 
0.361 0.208 0.49 0.416 
0.498 0.333 0.51 0.498 
0.498 0.333 0.627 0.459 
0.639 0.416 0.576 0.541 
0.667 0.416 0.678 0.667 
0.388 0.251 0.424 0.376 
0.333 0.169 0.459 0.376 
0.471 0.29 0.694 0.624 
0.471 0.584 0.592 0.624 
0.557 0.125 0.576 0.498 
0.333 0.208 0.51 0.498 
0.498 0.416 0.612 0.541 
0.196 0.125 0.388 0.376 
0.388 0.416 0.541 0.459 
0.529 0.376 0.561 0.498 
0.388 0.333 0.525 0.498 
0.557 0.541 0.847 1.0 
0.776 0.416 0.831 0.831 
0.612 0.416 0.812 0.875 
0.165 0.208 0.592 0.667 
0.667 0.208 0.812 0.71 
0.612 0.502 0.694 0.792 
0.694 0.416 0.761 0.831 
0.416 0.333 0.694 0.957 
0.612 0.416 0.761 0.71 
0.945 0.251 1.0 0.918 
0.722 0.502 0.796 0.918 
0.945 0.333 0.965 0.792 
0.667 0.541 0.796 0.831 
0.529 0.333 0.643 0.71 
0.584 0.333 0.78 0.831 
0.863 0.333 0.863 0.749 
0.584 0.333 0.78 0.875 
0.498 0.251 0.78 0.541 
0.557 0.584 0.78 0.957 
0.471 0.416 0.643 0.71 
0.667 0.459 0.78 0.957 
0.416 0.29 0.694 0.749 
0.667 0.541 0.796 1.0 
0.557 0.208 0.678 0.749 
0.529 0.584 0.745 0.918 
0.416 0.29 0.694 0.749 
0.557 0.376 0.78 0.71 
0.918 0.416 0.949 0.831 
0.835 0.376 0.898 0.71 
0.804 0.667 0.863 1.0 
0.584 0.29 0.729 0.749 
0.388 0.208 0.678 0.792 
0.584 0.502 0.729 0.918 
0.945 0.749 0.965 0.875 
0.471 0.082 0.678 0.584 
0.361 0.333 0.663 0.792 
0.557 0.29 0.663 0.71 
0.804 0.502 0.847 0.71 
0.498 0.416 0.51 0.71 
0.804 0.416 0.812 0.624 
1.0 0.749 0.914 0.792 
0.557 0.333 0.694 0.584 
0.945 0.416 0.863 0.918 
0.584 0.459 0.761 0.71 
0.722 0.459 0.745 0.831 
0.722 0.459 0.694 0.918 
0.694 0.502 0.831 0.918 
0.667 0.416 0.714 0.918 
0.612 0.416 0.714 0.792 
0.443 0.416 0.694 0.71 
Teaching Patterns
1.0 0.0 0.0 
1.0 0.0 0.0 
1.0 0.0 0.0 
1.0 0.0 0.0 
1.0 0.0 0.0 
1.0 0.0 0.0 
1.0 0.0 0.0 
1.0 0.0 0.0 
1.0 0.0 0.0 
1.0 0.0 0.0 
1.0 0.0 0.0 
1.0 0.0 0.0 
1.0 0.0 0.0 
1.0 0.0 0.0 
1.0 0.0 0.0 
1.0 0.0 0.0 
1.0 0.0 0.0 
1.0 0.0 0.0 
1.0 0.0 0.0 
1.0 0.0 0.0 
1.0 0.0 0.0 
1.0 0.0 0.0 
1.0 0.0 0.0 
1.0 0.0 0.0 
1.0 0.0 0.0 
1.0 0.0 0.0 
1.0 0.0 0.0 
1.0 0.0 0.0 
1.0 0.0 0.0 
1.0 0.0 0.0 
1.0 0.0 0.0 
1.0 0.0 0.0 
1.0 0.0 0.0 
1.0 0.0 0.0 
1.0 0.0 0.0 
1.0 0.0 0.0 
1.0 0.0 0.0 
1.0 0.0 0.0 
1.0 0.0 0.0 
1.0 0.0 0.0 
1.0 0.0 0.0 
1.0 0.0 0.0 
1.0 0.0 0.0 
1.0 0.0 0.0 
1.0 0.0 0.0 
1.0 0.0 0.0 
1.0 0.0 0.0 
1.0 0.0 0.0 
1.0 0.0 0.0 
1.0 0.0 0.0 
0.0 1.0 0.0 
0.0 1.0 0.0 
0.0 1.0 0.0 
0.0 1.0 0.0 
0.0 1.0 0.0 
0.0 1.0 0.0 
0.0 1.0 0.0 
0.0 1.0 0.0 
0.0 1.0 0.0 
0.0 1.0 0.0 
0.0 1.0 0.0 
0.0 1.0 0.0 
0.0 1.0 0.0 
0.0 1.0 0.0 
0.0 1.0 0.0 
0.0 1.0 0.0 
0.0 1.0 0.0 
0.0 1.0 0.0 
0.0 1.0 0.0 
0.0 1.0 0.0 
0.0 1.0 0.0 
0.0 1.0 0.0 
0.0 1.0 0.0 
0.0 1.0 0.0 
0.0 1.0 0.0 
0.0 1.0 0.0 
0.0 1.0 0.0 
0.0 1.0 0.0 
0.0 1.0 0.0 
0.0 1.0 0.0 
0.0 1.0 0.0 
0.0 1.0 0.0 
0.0 1.0 0.0 
0.0 1.0 0.0 
0.0 1.0 0.0 
0.0 1.0 0.0 
0.0 1.0 0.0 
0.0 1.0 0.0 
0.0 1.0 0.0 
0.0 1.0 0.0 
0.0 1.0 0.0 
0.0 1.0 0.0 
0.0 1.0 0.0 
0.0 1.0 0.0 
0.0 1.0 0.0 
0.0 1.0 0.0 
0.0 1.0 0.0 
0.0 1.0 0.0 
0.0 1.0 0.0 
0.0 1.0 0.0 
0.0 0.0 1.0 
0.0 0.0 1.0 
0.0 0.0 1.0 
0.0 0.0 1.0 
0.0 0.0 1.0 
0.0 0.0 1.0 
0.0 0.0 1.0 
0.0 0.0 1.0 
0.0 0.0 1.0 
0.0 0.0 1.0 
0.0 0.0 1.0 
0.0 0.0 1.0 
0.0 0.0 1.0 
0.0 0.0 1.0 
0.0 0.0 1.0 
0.0 0.0 1.0 
0.0 0.0 1.0 
0.0 0.0 1.0 
0.0 0.0 1.0 
0.0 0.0 1.0 
0.0 0.0 1.0 
0.0 0.0 1.0 
0.0 0.0 1.0 
0.0 0.0 1.0 
0.0 0.0 1.0 
0.0 0.0 1.0 
0.0 0.0 1.0 
0.0 0.0 1.0 
0.0 0.0 1.0 
0.0 0.0 1.0 
0.0 0.0 1.0 
0.0 0.0 1.0 
0.0 0.0 1.0 
0.0 0.0 1.0 
0.0 0.0 1.0 
0.0 0.0 1.0 
0.0 0.0 1.0 
0.0 0.0 1.0 
0.0 0.0 1.0 
0.0 0.0 1.0 
0.0 0.0 1.0 
0.0 0.0 1.0 
0.0 0.0 1.0 
0.0 0.0 1.0 
0.0 0.0 1.0 
0.0 0.0 1.0 
0.0 0.0 1.0 
0.0 0.0 1.0 
0.0 0.0 1.0 
0.0 0.0 1.0 
Learning : 0.05
Momentum : 0.10000000149011612
Epoch: 100, Error: 0.09286889238207464
Epoch: 200, Error: 0.05069305901556922
Epoch: 300, Error: 0.023868519196194014
Epoch: 400, Error: 0.017895702260949272
Epoch: 500, Error: 0.0157210096995263
Epoch: 600, Error: 0.014451020066915957
Epoch: 700, Error: 0.013717807221597104
Epoch: 800, Error: 0.013210988522677002
Epoch: 900, Error: 0.01286819270387412
Epoch: 1000, Error: 0.012595907045702223
Epoch: 1100, Error: 0.012441005692533733
Epoch: 1200, Error: 0.012303847431866246
Epoch: 1300, Error: 0.012236751229285164
Epoch: 1400, Error: 0.012128175051827148
Epoch: 1500, Error: 0.012038273824758708
Epoch: 1600, Error: 0.011982272243992266
Epoch: 1700, Error: 0.011966321354956564
Epoch: 1800, Error: 0.011966640203352311
Epoch: 1900, Error: 0.011934114559309105
Epoch: 2000, Error: 0.011921516866687252
Epoch: 2100, Error: 0.011962788105005622
Epoch: 2200, Error: 0.011969470474419496
Epoch: 2300, Error: 0.012017039279696618
Epoch: 2400, Error: 0.012101499198082786
Epoch: 2500, Error: 0.012079510559390383
Epoch: 2600, Error: 0.012085886281395598
Epoch: 2700, Error: 0.012084995860658655
Epoch: 2800, Error: 0.012096450252337862
Epoch: 2900, Error: 0.012099529954948906
Epoch: 3000, Error: 0.012085097046529979
Epoch: 3100, Error: 0.012113776131584608
Epoch: 3200, Error: 0.012064658251760998
Epoch: 3300, Error: 0.012019510455195318
Epoch: 3400, Error: 0.011997961632878754
Epoch: 3500, Error: 0.011939513220725896
Epoch: 3600, Error: 0.011949634089900803
Epoch: 3700, Error: 0.011899305871531762
Epoch: 3800, Error: 0.011911525788308787
Epoch: 3900, Error: 0.011865451254484615
Epoch: 4000, Error: 0.011857045490070165
Epoch: 4100, Error: 0.011840949384829208
Epoch: 4200, Error: 0.011853453355847225
Epoch: 4300, Error: 0.011801034707441293
Epoch: 4400, Error: 0.01180559796902513
Epoch: 4500, Error: 0.011775246050530888
Epoch: 4600, Error: 0.011760239136530494
Epoch: 4700, Error: 0.011754835349945845
Epoch: 4800, Error: 0.011726487283462166
Epoch: 4900, Error: 0.011721288638219082
Epoch: 5000, Error: 0.01172102159232653
Epoch: 5100, Error: 0.011698708139803587
Epoch: 5200, Error: 0.01169139210533585
Epoch: 5300, Error: 0.011691322682636146
Epoch: 5400, Error: 0.011694876020099717
Epoch: 5500, Error: 0.011673326383373123
Epoch: 5600, Error: 0.011708088880392244
Epoch: 5700, Error: 0.011654310057989158
Epoch: 5800, Error: 0.011642809142338301
Epoch: 5900, Error: 0.011648833628604445
Epoch: 6000, Error: 0.011643773777510547
Epoch: 6100, Error: 0.011601647065456258
Epoch: 6200, Error: 0.011592752520681477
Epoch: 6300, Error: 0.01157888854872259
Epoch: 6400, Error: 0.011557242294955186
Epoch: 6500, Error: 0.011552448871817202
Epoch: 6600, Error: 0.01153309530184646
Epoch: 6700, Error: 0.011541507016121671
Epoch: 6800, Error: 0.011505423427748927
Epoch: 6900, Error: 0.011504179930113254
Epoch: 7000, Error: 0.011524240604694954
Epoch: 7100, Error: 0.011464208418122361
Epoch: 7200, Error: 0.011437416322229704
Epoch: 7300, Error: 0.011422663652878983
Epoch: 7400, Error: 0.011404537640036402
Epoch: 7500, Error: 0.011382955059775251
Epoch: 7600, Error: 0.011362382680365851
Epoch: 7700, Error: 0.011348174318182521
Epoch: 7800, Error: 0.011322704506584038
Epoch: 7900, Error: 0.011325467536998736
Epoch: 8000, Error: 0.011329097014539487
Epoch: 8100, Error: 0.011260756517621283
Epoch: 8200, Error: 0.011254046172206354
Epoch: 8300, Error: 0.011228467006690465
Epoch: 8400, Error: 0.011208680620216125
Epoch: 8500, Error: 0.011219184813199577
Epoch: 8600, Error: 0.01116565322297053
Epoch: 8700, Error: 0.01122359724617435
Epoch: 8800, Error: 0.011125777394808429
Epoch: 8900, Error: 0.01110207919654057
Epoch: 9000, Error: 0.01107057556536018
Epoch: 9100, Error: 0.0110497630661803
Epoch: 9200, Error: 0.01103264829517674
Epoch: 9300, Error: 0.010995752047033064
Epoch: 9400, Error: 0.010975670671373621
Epoch: 9500, Error: 0.010936552909968414
Epoch: 9600, Error: 0.010899945669193849
Epoch: 9700, Error: 0.010857311472097262
Epoch: 9800, Error: 0.01080782627657743
Epoch: 9900, Error: 0.010770250167281767
Epoch: 10000, Error: 0.010706921883818193
Epoch: 10100, Error: 0.010667946731848389
Epoch: 10200, Error: 0.010619135132703897
Epoch: 10300, Error: 0.010509925915797821
Epoch: 10400, Error: 0.010438445360530483
Epoch: 10500, Error: 0.010353387432824199
Epoch: 10600, Error: 0.01030295730740227
Epoch: 10700, Error: 0.010154931317175887
Epoch: 10800, Error: 0.010071991670895066
Epoch: 10900, Error: 0.009941698492849631
Epoch: 11000, Error: 0.00984534281601986
Epoch: 11100, Error: 0.009664004140279216
Epoch: 11200, Error: 0.00955601299754625
Epoch: 11300, Error: 0.009384263819750781
Epoch: 11400, Error: 0.009229466565648442
Epoch: 11500, Error: 0.0090651322966779
Epoch: 11600, Error: 0.008940645746010447
Epoch: 11700, Error: 0.00876252999029032
Epoch: 11800, Error: 0.008606371940846132
Epoch: 11900, Error: 0.008470490755833116
Epoch: 12000, Error: 0.008340163815700354
Epoch: 12100, Error: 0.008170764157336906
Epoch: 12200, Error: 0.008032141516779705
Epoch: 12300, Error: 0.007879850853343069
Epoch: 12400, Error: 0.007753944370728305
Epoch: 12500, Error: 0.007637003131562396
Epoch: 12600, Error: 0.007538917345241805
Epoch: 12700, Error: 0.00741718087780303
Epoch: 12800, Error: 0.007325758273922238
Epoch: 12900, Error: 0.007229508760291237
Epoch: 13000, Error: 0.007145957715867807
Epoch: 13100, Error: 0.007066341550930888
Epoch: 13200, Error: 0.006992441352107231
Epoch: 13300, Error: 0.006917754473150788
Epoch: 13400, Error: 0.006843180378444711
Epoch: 13500, Error: 0.0067920652801527984
Epoch: 13600, Error: 0.006721712848619866
Epoch: 13700, Error: 0.006650475920556827
Epoch: 13800, Error: 0.006593802077887178
Epoch: 13900, Error: 0.006539285714350988
Epoch: 14000, Error: 0.006501745226213229
Epoch: 14100, Error: 0.006451731043879863
Epoch: 14200, Error: 0.00643362076443107
Epoch: 14300, Error: 0.006370380242884247
Epoch: 14400, Error: 0.006339370182442541
Epoch: 14500, Error: 0.006319519170510574
Epoch: 14600, Error: 0.006295139314314012
Epoch: 14700, Error: 0.006274331029236415
Epoch: 14800, Error: 0.006273156765620893
Epoch: 14900, Error: 0.006228061029462709
Epoch: 15000, Error: 0.006208672257664025
Epoch: 15100, Error: 0.006181551387732859
Epoch: 15200, Error: 0.006163170407241538
Epoch: 15300, Error: 0.006139044263434366
Epoch: 15400, Error: 0.006121025801985931
Epoch: 15500, Error: 0.00609158901238014
Epoch: 15600, Error: 0.006126725106627608
Epoch: 15700, Error: 0.0060624195465374875
Epoch: 15800, Error: 0.006026940000661849
Epoch: 15900, Error: 0.006017931448907092
Epoch: 16000, Error: 0.006001547412846939
Epoch: 16100, Error: 0.006003705288169477
Epoch: 16200, Error: 0.005970803789414723
Epoch: 16300, Error: 0.00594513936230403
Epoch: 16400, Error: 0.0059309031509120055
Epoch: 16500, Error: 0.005944531686376347
Epoch: 16600, Error: 0.0058932709806305775
Epoch: 16700, Error: 0.005887908141609587
Epoch: 16800, Error: 0.00587436103268124
Epoch: 16900, Error: 0.005858258518370358
Epoch: 17000, Error: 0.005825487689629299
Epoch: 17100, Error: 0.005805807949459351
Epoch: 17200, Error: 0.005794652259928604
Epoch: 17300, Error: 0.005776952071018923
Epoch: 17400, Error: 0.005752864497603584
Epoch: 17500, Error: 0.005740921400386706
Epoch: 17600, Error: 0.005719432886844609
Epoch: 17700, Error: 0.005702783483812782
Epoch: 17800, Error: 0.0056852807439174285
Epoch: 17900, Error: 0.005656501430621725
Epoch: 18000, Error: 0.005649668818752465
Epoch: 18100, Error: 0.00563795758617205
Epoch: 18200, Error: 0.005603425906070889
Epoch: 18300, Error: 0.00561860135270897
Epoch: 18400, Error: 0.005571165536035555
Epoch: 18500, Error: 0.005575158544779386
Epoch: 18600, Error: 0.005549046259392176
Epoch: 18700, Error: 0.00551830947859971
Epoch: 18800, Error: 0.005480258492096911
Epoch: 18900, Error: 0.005466340364628827
Epoch: 19000, Error: 0.005441317805551604
Epoch: 19100, Error: 0.005395146533289639
Epoch: 19200, Error: 0.00535260085876845
Epoch: 19300, Error: 0.005336005984740841
Epoch: 19400, Error: 0.005304184998977976
Epoch: 19500, Error: 0.005273628809847738
Epoch: 19600, Error: 0.005247343113250191
Epoch: 19700, Error: 0.005222502287641391
Epoch: 19800, Error: 0.005230641192063119
Epoch: 19900, Error: 0.005193585163492307
Epoch: 20000, Error: 0.005162717750964445
Epoch: 20100, Error: 0.005151726422013381
Epoch: 20200, Error: 0.005124859255833006
Epoch: 20300, Error: 0.005113861187510746
Epoch: 20400, Error: 0.005094265598573253
Epoch: 20500, Error: 0.005077230853157996
Epoch: 20600, Error: 0.005057177842786709
Epoch: 20700, Error: 0.005053447642709135
Epoch: 20800, Error: 0.005058848073747871
Epoch: 20900, Error: 0.005043593897482153
Epoch: 21000, Error: 0.005000270789595822
Epoch: 21100, Error: 0.004981444387206184
Epoch: 21200, Error: 0.00497660815819245
Epoch: 21300, Error: 0.00494679759579237
Epoch: 21400, Error: 0.004923315734723784
Epoch: 21500, Error: 0.004905332916117459
Epoch: 21600, Error: 0.0048886903562559165
Epoch: 21700, Error: 0.004868511747986156
Epoch: 21800, Error: 0.004863772574098329
Epoch: 21900, Error: 0.004834599185812349
Epoch: 22000, Error: 0.0048239888837056264
Epoch: 22100, Error: 0.004799859456338453
Epoch: 22200, Error: 0.004808436732348135
Epoch: 22300, Error: 0.004799456491374841
Epoch: 22400, Error: 0.004753937508793262
Epoch: 22500, Error: 0.0047351599493846335
Epoch: 22600, Error: 0.004720733399345634
Epoch: 22700, Error: 0.00470439167319796
Epoch: 22800, Error: 0.004693402079542746
Epoch: 22900, Error: 0.004687482612083157
Epoch: 23000, Error: 0.004669869903708382
Epoch: 23100, Error: 0.0046621483175372
Epoch: 23200, Error: 0.004640984719606899
Epoch: 23300, Error: 0.004628764829919676
Epoch: 23400, Error: 0.0046173550002832275
Epoch: 23500, Error: 0.004627817601033793
Epoch: 23600, Error: 0.0045979872196896315
Epoch: 23700, Error: 0.004589216133840309
Epoch: 23800, Error: 0.004576552471991399
Epoch: 23900, Error: 0.004573964216876802
Epoch: 24000, Error: 0.00455169422863836
Epoch: 24100, Error: 0.004533888723247171
Epoch: 24200, Error: 0.004595444494249364
Epoch: 24300, Error: 0.004516561535492595
Epoch: 24400, Error: 0.0045427771808542365
Epoch: 24500, Error: 0.004502351932578574
Epoch: 24600, Error: 0.004465784920797209
Epoch: 24700, Error: 0.004443137205406836
Epoch: 24800, Error: 0.004439172286794945
Epoch: 24900, Error: 0.004407254181196423
Epoch: 25000, Error: 0.004398050980948236
Epoch: 25100, Error: 0.004374627709263688
Epoch: 25200, Error: 0.004373966217700631
Epoch: 25300, Error: 0.004346682746334776
Epoch: 25400, Error: 0.004358047335979078
Epoch: 25500, Error: 0.00430793217259596
Epoch: 25600, Error: 0.004309637528478262
Epoch: 25700, Error: 0.004294922917745252
Epoch: 25800, Error: 0.004274453456947635
Epoch: 25900, Error: 0.004253183169789653
Epoch: 26000, Error: 0.004256457781890559
Epoch: 26100, Error: 0.004215587233135451
Epoch: 26200, Error: 0.004211909209148325
Epoch: 26300, Error: 0.004182864425595644
Epoch: 26400, Error: 0.004194948856301396
Epoch: 26500, Error: 0.004168323649038033
Epoch: 26600, Error: 0.004169492231924194
Epoch: 26700, Error: 0.00418318688938936
Epoch: 26800, Error: 0.004133009574726751
Epoch: 26900, Error: 0.004129311742317092
Epoch: 27000, Error: 0.004111751248698905
Epoch: 27100, Error: 0.004108882535541462
Epoch: 27200, Error: 0.004096865416424395
Epoch: 27300, Error: 0.004138753042294252
Epoch: 27400, Error: 0.004098012850241718
Epoch: 27500, Error: 0.004082456263675694
Epoch: 27600, Error: 0.004039513122550069
Epoch: 27700, Error: 0.004023687520031189
Epoch: 27800, Error: 0.003997990417293129
Epoch: 27900, Error: 0.004031135150035003
Epoch: 28000, Error: 0.003997409544651314
Epoch: 28100, Error: 0.003959543185406154
Epoch: 28200, Error: 0.003951278086493859
Epoch: 28300, Error: 0.003957922837252561
Epoch: 28400, Error: 0.003919966726552733
Epoch: 28500, Error: 0.003912709203342705
Epoch: 28600, Error: 0.0039071305599414265
Epoch: 28700, Error: 0.0038803991195625917
Epoch: 28800, Error: 0.003872352315616469
Epoch: 28900, Error: 0.003847277203138435
Epoch: 29000, Error: 0.00384787187006786
Epoch: 29100, Error: 0.0038067148656417867
Epoch: 29200, Error: 0.0037964456236369384
Epoch: 29300, Error: 0.003774514755190318
Epoch: 29400, Error: 0.003755087339309967
Epoch: 29500, Error: 0.00373569832694325
Epoch: 29600, Error: 0.003781474267968308
Epoch: 29700, Error: 0.0036879716524448724
Epoch: 29800, Error: 0.0036944947470341077
Epoch: 29900, Error: 0.003696701041450837
Epoch: 30000, Error: 0.003625695150638118
Epoch: 30100, Error: 0.0036159230623439846
Epoch: 30200, Error: 0.003602746771534815
Epoch: 30300, Error: 0.0035795424150602937
Epoch: 30400, Error: 0.0035398803869339185
Epoch: 30500, Error: 0.003538097208465319
Epoch: 30600, Error: 0.003544342585946019
Epoch: 30700, Error: 0.003513116783320586
Epoch: 30800, Error: 0.0034613815274364907
Epoch: 30900, Error: 0.0034995633123037833
Epoch: 31000, Error: 0.0034396828706389966
Epoch: 31100, Error: 0.003415792694094151
Epoch: 31200, Error: 0.003366681366645903
Epoch: 31300, Error: 0.0033391063980323225
Epoch: 31400, Error: 0.003316408610282245
Epoch: 31500, Error: 0.0033362263749371858
Epoch: 31600, Error: 0.0032995348991571153
Epoch: 31700, Error: 0.003372251122379799
Epoch: 31800, Error: 0.003248431695401036
Epoch: 31900, Error: 0.0032133042341196843
Epoch: 32000, Error: 0.003240055824313419
Epoch: 32100, Error: 0.0032145196518984617
Epoch: 32200, Error: 0.0031601567208831447
Epoch: 32300, Error: 0.00312452527218087
Epoch: 32400, Error: 0.0031424427869523206
Epoch: 32500, Error: 0.0031309629602839814
Epoch: 32600, Error: 0.003111582186342875
Epoch: 32700, Error: 0.0030440199816902337
Epoch: 32800, Error: 0.0030665055127804767
Epoch: 32900, Error: 0.002996253359845446
Epoch: 33000, Error: 0.0029872186423344767
Epoch: 33100, Error: 0.002974439836308637
Epoch: 33200, Error: 0.0029517446835326364
Epoch: 33300, Error: 0.002933338232535545
Epoch: 33400, Error: 0.0029134478466711546
Epoch: 33500, Error: 0.002877218124730344
Epoch: 33600, Error: 0.002881054694778725
Epoch: 33700, Error: 0.0028210402087715213
Epoch: 33800, Error: 0.0028397738015861467
Epoch: 33900, Error: 0.0027853430721418077
Epoch: 34000, Error: 0.002793653362143932
Epoch: 34100, Error: 0.0027637890199567654
Epoch: 34200, Error: 0.002738207474410254
Epoch: 34300, Error: 0.002707865084138002
Epoch: 34400, Error: 0.002669306559126586
Epoch: 34500, Error: 0.0026507844626051024
Epoch: 34600, Error: 0.0026503522025063766
Epoch: 34700, Error: 0.002613343716042486
Epoch: 34800, Error: 0.002611051188271334
Epoch: 34900, Error: 0.0026245633369439726
Epoch: 35000, Error: 0.0025755234270687997
Epoch: 35100, Error: 0.0025732333563337493
Epoch: 35200, Error: 0.0025751835839765724
Epoch: 35300, Error: 0.002510461798237695
Epoch: 35400, Error: 0.0024939143576142003
Epoch: 35500, Error: 0.002508995429929832
Epoch: 35600, Error: 0.002456183508783986
Epoch: 35700, Error: 0.0024646519832673113
Epoch: 35800, Error: 0.002482596770883349
Epoch: 35900, Error: 0.0024077404063578022
Epoch: 36000, Error: 0.0024313799578899336
Epoch: 36100, Error: 0.002384578098587911
Epoch: 36200, Error: 0.002393285929051253
Epoch: 36300, Error: 0.0023638545299369176
Epoch: 36400, Error: 0.002354972268955189
Epoch: 36500, Error: 0.0023135285731412237
Epoch: 36600, Error: 0.0023413222466767787
Epoch: 36700, Error: 0.002295569819610486
Epoch: 36800, Error: 0.0022773089389096454
Epoch: 36900, Error: 0.0022733068932883228
Epoch: 37000, Error: 0.0022459356753967773
Epoch: 37100, Error: 0.0022862354476013537
Epoch: 37200, Error: 0.0022146578253367747
Epoch: 37300, Error: 0.0022134872943939117
Epoch: 37400, Error: 0.0021871011721391175
Epoch: 37500, Error: 0.002211822268921529
Epoch: 37600, Error: 0.0021932638055249636
Epoch: 37700, Error: 0.0021956645442017795
Epoch: 37800, Error: 0.0021400808541369026
Epoch: 37900, Error: 0.002123408411335055
Epoch: 38000, Error: 0.002113330314586594
Epoch: 38100, Error: 0.0021080357421236974
Epoch: 38200, Error: 0.002100487003145913
Epoch: 38300, Error: 0.0020942220628638575
Epoch: 38400, Error: 0.002103176419222674
Epoch: 38500, Error: 0.0020730403129826515
Epoch: 38600, Error: 0.002062285941223515
Epoch: 38700, Error: 0.002031896543163384
Epoch: 38800, Error: 0.0020444794512800265
Epoch: 38900, Error: 0.0020094399818480495
Epoch: 39000, Error: 0.002018986101360651
Epoch: 39100, Error: 0.0019939943220169845
Epoch: 39200, Error: 0.0019781630239420873
Epoch: 39300, Error: 0.001968870818892304
Epoch: 39400, Error: 0.0019564076776316178
Epoch: 39500, Error: 0.0019474095687422904
Epoch: 39600, Error: 0.0019448233152342198
Epoch: 39700, Error: 0.0019829325793192707
Epoch: 39800, Error: 0.0019282450828720318
Epoch: 39900, Error: 0.0019363903064769678
Epoch: 40000, Error: 0.0019224531268915949
Finished
