Input Patterns
0.224 0.624 0.067 0.043 
0.11 0.502 0.051 0.043 
0.196 0.667 0.067 0.043 
0.055 0.584 0.067 0.082 
0.027 0.376 0.067 0.043 
0.306 0.71 0.086 0.043 
0.137 0.416 0.067 0.0 
0.416 0.831 0.035 0.043 
0.306 0.792 0.051 0.125 
0.388 0.749 0.118 0.082 
0.306 0.584 0.118 0.043 
0.082 0.667 0.0 0.043 
0.137 0.584 0.153 0.043 
0.196 0.584 0.102 0.125 
0.251 0.584 0.067 0.043 
0.137 0.459 0.102 0.043 
0.251 0.875 0.086 0.0 
0.165 0.459 0.086 0.043 
0.333 0.624 0.051 0.043 
0.027 0.416 0.051 0.043 
0.196 0.624 0.051 0.082 
0.027 0.502 0.051 0.043 
0.224 0.749 0.153 0.125 
0.224 0.749 0.102 0.043 
0.278 0.71 0.086 0.043 
0.165 0.416 0.067 0.043 
0.082 0.459 0.086 0.043 
0.306 0.792 0.118 0.125 
0.196 0.584 0.086 0.043 
0.165 0.459 0.086 0.0 
0.137 0.584 0.102 0.043 
0.0 0.416 0.016 0.0 
0.388 1.0 0.086 0.125 
0.224 0.624 0.067 0.082 
0.224 0.749 0.086 0.082 
0.224 0.71 0.086 0.125 
0.224 0.541 0.118 0.165 
0.196 0.416 0.102 0.043 
0.251 0.624 0.086 0.043 
0.11 0.502 0.102 0.043 
0.306 0.584 0.086 0.125 
0.333 0.918 0.067 0.043 
0.196 0.502 0.035 0.043 
0.165 0.667 0.067 0.0 
0.224 0.584 0.086 0.043 
0.055 0.125 0.051 0.082 
0.196 0.624 0.102 0.208 
0.137 0.416 0.067 0.082 
0.082 0.502 0.067 0.043 
0.196 0.541 0.067 0.043 
0.749 0.502 0.627 0.541 
0.722 0.459 0.663 0.584 
0.612 0.333 0.612 0.584 
0.557 0.541 0.627 0.624 
0.639 0.376 0.612 0.498 
0.196 0.0 0.424 0.376 
0.471 0.082 0.51 0.376 
0.361 0.376 0.439 0.498 
0.361 0.416 0.592 0.584 
0.529 0.082 0.592 0.584 
0.443 0.502 0.643 0.459 
0.557 0.208 0.663 0.584 
0.584 0.376 0.561 0.498 
0.694 0.333 0.643 0.541 
0.471 0.376 0.592 0.584 
0.333 0.169 0.475 0.416 
0.416 0.29 0.49 0.459 
0.306 0.416 0.592 0.584 
0.667 0.459 0.627 0.584 
0.361 0.416 0.525 0.498 
0.333 0.251 0.576 0.459 
0.416 0.251 0.51 0.459 
0.361 0.29 0.541 0.498 
0.388 0.376 0.541 0.498 
0.224 0.208 0.337 0.416 
0.584 0.502 0.592 0.584 
0.333 0.125 0.51 0.498 
0.388 0.333 0.592 0.498 
0.165 0.169 0.388 0.376 
0.251 0.29 0.49 0.541 
0.443 0.416 0.541 0.584 
0.498 0.376 0.627 0.541 
0.667 0.459 0.576 0.541 
0.416 0.29 0.525 0.376 
0.361 0.208 0.49 0.416 
0.498 0.333 0.51 0.498 
0.498 0.333 0.627 0.459 
0.639 0.416 0.576 0.541 
0.667 0.416 0.678 0.667 
0.388 0.251 0.424 0.376 
0.333 0.169 0.459 0.376 
0.471 0.29 0.694 0.624 
0.471 0.584 0.592 0.624 
0.557 0.125 0.576 0.498 
0.333 0.208 0.51 0.498 
0.498 0.416 0.612 0.541 
0.196 0.125 0.388 0.376 
0.388 0.416 0.541 0.459 
0.529 0.376 0.561 0.498 
0.388 0.333 0.525 0.498 
0.557 0.541 0.847 1.0 
0.776 0.416 0.831 0.831 
0.612 0.416 0.812 0.875 
0.165 0.208 0.592 0.667 
0.667 0.208 0.812 0.71 
0.612 0.502 0.694 0.792 
0.694 0.416 0.761 0.831 
0.416 0.333 0.694 0.957 
0.612 0.416 0.761 0.71 
0.945 0.251 1.0 0.918 
0.722 0.502 0.796 0.918 
0.945 0.333 0.965 0.792 
0.667 0.541 0.796 0.831 
0.529 0.333 0.643 0.71 
0.584 0.333 0.78 0.831 
0.863 0.333 0.863 0.749 
0.584 0.333 0.78 0.875 
0.498 0.251 0.78 0.541 
0.557 0.584 0.78 0.957 
0.471 0.416 0.643 0.71 
0.667 0.459 0.78 0.957 
0.416 0.29 0.694 0.749 
0.667 0.541 0.796 1.0 
0.557 0.208 0.678 0.749 
0.529 0.584 0.745 0.918 
0.416 0.29 0.694 0.749 
0.557 0.376 0.78 0.71 
0.918 0.416 0.949 0.831 
0.835 0.376 0.898 0.71 
0.804 0.667 0.863 1.0 
0.584 0.29 0.729 0.749 
0.388 0.208 0.678 0.792 
0.584 0.502 0.729 0.918 
0.945 0.749 0.965 0.875 
0.471 0.082 0.678 0.584 
0.361 0.333 0.663 0.792 
0.557 0.29 0.663 0.71 
0.804 0.502 0.847 0.71 
0.498 0.416 0.51 0.71 
0.804 0.416 0.812 0.624 
1.0 0.749 0.914 0.792 
0.557 0.333 0.694 0.584 
0.945 0.416 0.863 0.918 
0.584 0.459 0.761 0.71 
0.722 0.459 0.745 0.831 
0.722 0.459 0.694 0.918 
0.694 0.502 0.831 0.918 
0.667 0.416 0.714 0.918 
0.612 0.416 0.714 0.792 
0.443 0.416 0.694 0.71 
Teaching Patterns
1.0 0.0 0.0 
1.0 0.0 0.0 
1.0 0.0 0.0 
1.0 0.0 0.0 
1.0 0.0 0.0 
1.0 0.0 0.0 
1.0 0.0 0.0 
1.0 0.0 0.0 
1.0 0.0 0.0 
1.0 0.0 0.0 
1.0 0.0 0.0 
1.0 0.0 0.0 
1.0 0.0 0.0 
1.0 0.0 0.0 
1.0 0.0 0.0 
1.0 0.0 0.0 
1.0 0.0 0.0 
1.0 0.0 0.0 
1.0 0.0 0.0 
1.0 0.0 0.0 
1.0 0.0 0.0 
1.0 0.0 0.0 
1.0 0.0 0.0 
1.0 0.0 0.0 
1.0 0.0 0.0 
1.0 0.0 0.0 
1.0 0.0 0.0 
1.0 0.0 0.0 
1.0 0.0 0.0 
1.0 0.0 0.0 
1.0 0.0 0.0 
1.0 0.0 0.0 
1.0 0.0 0.0 
1.0 0.0 0.0 
1.0 0.0 0.0 
1.0 0.0 0.0 
1.0 0.0 0.0 
1.0 0.0 0.0 
1.0 0.0 0.0 
1.0 0.0 0.0 
1.0 0.0 0.0 
1.0 0.0 0.0 
1.0 0.0 0.0 
1.0 0.0 0.0 
1.0 0.0 0.0 
1.0 0.0 0.0 
1.0 0.0 0.0 
1.0 0.0 0.0 
1.0 0.0 0.0 
1.0 0.0 0.0 
0.0 1.0 0.0 
0.0 1.0 0.0 
0.0 1.0 0.0 
0.0 1.0 0.0 
0.0 1.0 0.0 
0.0 1.0 0.0 
0.0 1.0 0.0 
0.0 1.0 0.0 
0.0 1.0 0.0 
0.0 1.0 0.0 
0.0 1.0 0.0 
0.0 1.0 0.0 
0.0 1.0 0.0 
0.0 1.0 0.0 
0.0 1.0 0.0 
0.0 1.0 0.0 
0.0 1.0 0.0 
0.0 1.0 0.0 
0.0 1.0 0.0 
0.0 1.0 0.0 
0.0 1.0 0.0 
0.0 1.0 0.0 
0.0 1.0 0.0 
0.0 1.0 0.0 
0.0 1.0 0.0 
0.0 1.0 0.0 
0.0 1.0 0.0 
0.0 1.0 0.0 
0.0 1.0 0.0 
0.0 1.0 0.0 
0.0 1.0 0.0 
0.0 1.0 0.0 
0.0 1.0 0.0 
0.0 1.0 0.0 
0.0 1.0 0.0 
0.0 1.0 0.0 
0.0 1.0 0.0 
0.0 1.0 0.0 
0.0 1.0 0.0 
0.0 1.0 0.0 
0.0 1.0 0.0 
0.0 1.0 0.0 
0.0 1.0 0.0 
0.0 1.0 0.0 
0.0 1.0 0.0 
0.0 1.0 0.0 
0.0 1.0 0.0 
0.0 1.0 0.0 
0.0 1.0 0.0 
0.0 1.0 0.0 
0.0 0.0 1.0 
0.0 0.0 1.0 
0.0 0.0 1.0 
0.0 0.0 1.0 
0.0 0.0 1.0 
0.0 0.0 1.0 
0.0 0.0 1.0 
0.0 0.0 1.0 
0.0 0.0 1.0 
0.0 0.0 1.0 
0.0 0.0 1.0 
0.0 0.0 1.0 
0.0 0.0 1.0 
0.0 0.0 1.0 
0.0 0.0 1.0 
0.0 0.0 1.0 
0.0 0.0 1.0 
0.0 0.0 1.0 
0.0 0.0 1.0 
0.0 0.0 1.0 
0.0 0.0 1.0 
0.0 0.0 1.0 
0.0 0.0 1.0 
0.0 0.0 1.0 
0.0 0.0 1.0 
0.0 0.0 1.0 
0.0 0.0 1.0 
0.0 0.0 1.0 
0.0 0.0 1.0 
0.0 0.0 1.0 
0.0 0.0 1.0 
0.0 0.0 1.0 
0.0 0.0 1.0 
0.0 0.0 1.0 
0.0 0.0 1.0 
0.0 0.0 1.0 
0.0 0.0 1.0 
0.0 0.0 1.0 
0.0 0.0 1.0 
0.0 0.0 1.0 
0.0 0.0 1.0 
0.0 0.0 1.0 
0.0 0.0 1.0 
0.0 0.0 1.0 
0.0 0.0 1.0 
0.0 0.0 1.0 
0.0 0.0 1.0 
0.0 0.0 1.0 
0.0 0.0 1.0 
0.0 0.0 1.0 
Learning : 0.05
Momentum : 0.30000001192092896
Epoch: 100, Error: 0.08561650293580135
Epoch: 200, Error: 0.027644807891548627
Epoch: 300, Error: 0.01862215665409048
Epoch: 400, Error: 0.01571486110317489
Epoch: 500, Error: 0.014470481222424914
Epoch: 600, Error: 0.01369263330512486
Epoch: 700, Error: 0.013216904251593666
Epoch: 800, Error: 0.012902927383267296
Epoch: 900, Error: 0.012663484693849737
Epoch: 1000, Error: 0.012519832218683679
Epoch: 1100, Error: 0.012356266648871461
Epoch: 1200, Error: 0.012472527764633581
Epoch: 1300, Error: 0.012153467009641653
Epoch: 1400, Error: 0.012096575307977218
Epoch: 1500, Error: 0.012017497102043537
Epoch: 1600, Error: 0.011992971640973916
Epoch: 1700, Error: 0.011964426312779339
Epoch: 1800, Error: 0.011948797075967512
Epoch: 1900, Error: 0.011997245199273482
Epoch: 2000, Error: 0.011934642740397896
Epoch: 2100, Error: 0.011883404070187774
Epoch: 2200, Error: 0.011931144313417606
Epoch: 2300, Error: 0.011860284383251894
Epoch: 2400, Error: 0.01185312430850099
Epoch: 2500, Error: 0.011848770026034369
Epoch: 2600, Error: 0.011838863396346525
Epoch: 2700, Error: 0.011867523217747894
Epoch: 2800, Error: 0.011849581063326444
Epoch: 2900, Error: 0.011846008541581765
Epoch: 3000, Error: 0.011823855827743776
Epoch: 3100, Error: 0.011824693112415732
Epoch: 3200, Error: 0.011844036280475454
Epoch: 3300, Error: 0.01181508703027151
Epoch: 3400, Error: 0.011877774468891912
Epoch: 3500, Error: 0.011818080320305216
Epoch: 3600, Error: 0.011833195076555253
Epoch: 3700, Error: 0.011805656097808198
Epoch: 3800, Error: 0.011809536880520936
Epoch: 3900, Error: 0.011823432527805027
Epoch: 4000, Error: 0.011883333018736484
Epoch: 4100, Error: 0.011886262481888026
Epoch: 4200, Error: 0.011855578064132274
Epoch: 4300, Error: 0.011854572268913427
Epoch: 4400, Error: 0.011802846389413302
Epoch: 4500, Error: 0.011830874300493854
Epoch: 4600, Error: 0.011802500328249555
Epoch: 4700, Error: 0.011817512413571134
Epoch: 4800, Error: 0.011803343456603879
Epoch: 4900, Error: 0.011808960026522314
Epoch: 5000, Error: 0.011843275329121194
Epoch: 5100, Error: 0.011837084594879954
Epoch: 5200, Error: 0.01182900796361575
Epoch: 5300, Error: 0.011839441047439012
Epoch: 5400, Error: 0.01182920264763241
Epoch: 5500, Error: 0.01182939989347665
Epoch: 5600, Error: 0.011810752050798743
Epoch: 5700, Error: 0.011814596915435734
Epoch: 5800, Error: 0.011804662243124835
Epoch: 5900, Error: 0.011814912699553865
Epoch: 6000, Error: 0.011822795525774808
Epoch: 6100, Error: 0.011804040116200447
Epoch: 6200, Error: 0.011829137987035138
Epoch: 6300, Error: 0.011815925245180945
Epoch: 6400, Error: 0.011807014544515116
Epoch: 6500, Error: 0.011802910372864708
Epoch: 6600, Error: 0.011831878041563425
Epoch: 6700, Error: 0.01181029614262741
Epoch: 6800, Error: 0.01180840130737428
Epoch: 6900, Error: 0.01181534700541972
Epoch: 7000, Error: 0.011802364634506835
Epoch: 7100, Error: 0.01179403254917884
Epoch: 7200, Error: 0.01182815123391948
Epoch: 7300, Error: 0.011802973233017891
Epoch: 7400, Error: 0.011779669392422098
Epoch: 7500, Error: 0.01177761939156431
Epoch: 7600, Error: 0.011768618491882698
Epoch: 7700, Error: 0.01176448476384114
Epoch: 7800, Error: 0.011786330450614883
Epoch: 7900, Error: 0.011786312469109087
Epoch: 8000, Error: 0.011751839842888205
Epoch: 8100, Error: 0.01173525089856607
Epoch: 8200, Error: 0.01172665918871246
Epoch: 8300, Error: 0.011709068687323946
Epoch: 8400, Error: 0.011708633690801724
Epoch: 8500, Error: 0.01169134319539778
Epoch: 8600, Error: 0.011684473501766816
Epoch: 8700, Error: 0.01167055996000463
Epoch: 8800, Error: 0.01164909222563254
Epoch: 8900, Error: 0.011636531425583671
Epoch: 9000, Error: 0.011608515768188743
Epoch: 9100, Error: 0.011627529736928049
Epoch: 9200, Error: 0.011582723196581735
Epoch: 9300, Error: 0.011553127389780217
Epoch: 9400, Error: 0.011545011875161736
Epoch: 9500, Error: 0.01153737974327352
Epoch: 9600, Error: 0.011517326855325099
Epoch: 9700, Error: 0.011503860054549467
Epoch: 9800, Error: 0.011514584471164256
Epoch: 9900, Error: 0.011477337172509584
Epoch: 10000, Error: 0.011459096325475008
Epoch: 10100, Error: 0.011472297542595633
Epoch: 10200, Error: 0.01142417293394693
Epoch: 10300, Error: 0.011457740031217039
Epoch: 10400, Error: 0.011391114826401674
Epoch: 10500, Error: 0.011361337446976894
Epoch: 10600, Error: 0.01132560644324763
Epoch: 10700, Error: 0.01131442684190786
Epoch: 10800, Error: 0.011277531325372571
Epoch: 10900, Error: 0.011257666655559244
Epoch: 11000, Error: 0.011195024196690061
Epoch: 11100, Error: 0.01120243683177933
Epoch: 11200, Error: 0.011199173045235777
Epoch: 11300, Error: 0.011118306698297763
Epoch: 11400, Error: 0.011087079153720023
Epoch: 11500, Error: 0.011049118308060418
Epoch: 11600, Error: 0.01096480112203985
Epoch: 11700, Error: 0.010904886793467076
Epoch: 11800, Error: 0.010839944233644967
Epoch: 11900, Error: 0.010740882899965644
Epoch: 12000, Error: 0.010642230622540534
Epoch: 12100, Error: 0.01057807130702304
Epoch: 12200, Error: 0.010457100196345059
Epoch: 12300, Error: 0.010361574952881399
Epoch: 12400, Error: 0.010232766732910918
Epoch: 12500, Error: 0.010182171190424593
Epoch: 12600, Error: 0.01001817924887767
Epoch: 12700, Error: 0.009872351231563955
Epoch: 12800, Error: 0.009768381527195153
Epoch: 12900, Error: 0.009648899257177473
Epoch: 13000, Error: 0.009489531073107483
Epoch: 13100, Error: 0.009352732441239225
Epoch: 13200, Error: 0.009235799448343561
Epoch: 13300, Error: 0.009058985594148347
Epoch: 13400, Error: 0.008952439375756703
Epoch: 13500, Error: 0.008799744545490465
Epoch: 13600, Error: 0.008689743740224739
Epoch: 13700, Error: 0.008608727727724846
Epoch: 13800, Error: 0.008428381075867998
Epoch: 13900, Error: 0.008321610737720423
Epoch: 14000, Error: 0.0081909904755263
Epoch: 14100, Error: 0.008083118847031322
Epoch: 14200, Error: 0.007991302992785835
Epoch: 14300, Error: 0.007877705092201422
Epoch: 14400, Error: 0.007793711476711511
Epoch: 14500, Error: 0.007698607163509638
Epoch: 14600, Error: 0.007595183833947576
Epoch: 14700, Error: 0.0075176684211882795
Epoch: 14800, Error: 0.007426702622379721
Epoch: 14900, Error: 0.007359028373264397
Epoch: 15000, Error: 0.00729272994125246
Epoch: 15100, Error: 0.007232905546976948
Epoch: 15200, Error: 0.0071819425773403675
Epoch: 15300, Error: 0.007131212561358554
Epoch: 15400, Error: 0.007078901509972297
Epoch: 15500, Error: 0.00704197097501638
Epoch: 15600, Error: 0.007002522406922414
Epoch: 15700, Error: 0.006966154199886749
Epoch: 15800, Error: 0.006937529366343789
Epoch: 15900, Error: 0.0068924675358481395
Epoch: 16000, Error: 0.006864498971753737
Epoch: 16100, Error: 0.006832316262585684
Epoch: 16200, Error: 0.0068095320465753634
Epoch: 16300, Error: 0.006766899202046823
Epoch: 16400, Error: 0.006747086888277685
Epoch: 16500, Error: 0.006709949381927483
Epoch: 16600, Error: 0.006690347844270069
Epoch: 16700, Error: 0.006642249195755911
Epoch: 16800, Error: 0.006612998813250147
Epoch: 16900, Error: 0.006589824190181223
Epoch: 17000, Error: 0.006569339809496847
Epoch: 17100, Error: 0.006552078104697958
Epoch: 17200, Error: 0.006526771865955687
Epoch: 17300, Error: 0.006509689704006616
Epoch: 17400, Error: 0.00650370598830881
Epoch: 17500, Error: 0.006505468203487151
Epoch: 17600, Error: 0.006513002609561332
Epoch: 17700, Error: 0.006523275668554903
Epoch: 17800, Error: 0.006543398221350608
Epoch: 17900, Error: 0.006546559620853064
Epoch: 18000, Error: 0.006535430969671867
Finished
