Input Patterns
0.224 0.624 0.067 0.043 
0.11 0.502 0.051 0.043 
0.196 0.667 0.067 0.043 
0.055 0.584 0.067 0.082 
0.027 0.376 0.067 0.043 
0.306 0.71 0.086 0.043 
0.137 0.416 0.067 0.0 
0.416 0.831 0.035 0.043 
0.306 0.792 0.051 0.125 
0.388 0.749 0.118 0.082 
0.306 0.584 0.118 0.043 
0.082 0.667 0.0 0.043 
0.137 0.584 0.153 0.043 
0.196 0.584 0.102 0.125 
0.251 0.584 0.067 0.043 
0.137 0.459 0.102 0.043 
0.251 0.875 0.086 0.0 
0.165 0.459 0.086 0.043 
0.333 0.624 0.051 0.043 
0.027 0.416 0.051 0.043 
0.196 0.624 0.051 0.082 
0.027 0.502 0.051 0.043 
0.224 0.749 0.153 0.125 
0.224 0.749 0.102 0.043 
0.278 0.71 0.086 0.043 
0.165 0.416 0.067 0.043 
0.082 0.459 0.086 0.043 
0.306 0.792 0.118 0.125 
0.196 0.584 0.086 0.043 
0.165 0.459 0.086 0.0 
0.137 0.584 0.102 0.043 
0.0 0.416 0.016 0.0 
0.388 1.0 0.086 0.125 
0.224 0.624 0.067 0.082 
0.224 0.749 0.086 0.082 
0.224 0.71 0.086 0.125 
0.224 0.541 0.118 0.165 
0.196 0.416 0.102 0.043 
0.251 0.624 0.086 0.043 
0.11 0.502 0.102 0.043 
0.306 0.584 0.086 0.125 
0.333 0.918 0.067 0.043 
0.196 0.502 0.035 0.043 
0.165 0.667 0.067 0.0 
0.224 0.584 0.086 0.043 
0.055 0.125 0.051 0.082 
0.196 0.624 0.102 0.208 
0.137 0.416 0.067 0.082 
0.082 0.502 0.067 0.043 
0.196 0.541 0.067 0.043 
0.749 0.502 0.627 0.541 
0.722 0.459 0.663 0.584 
0.612 0.333 0.612 0.584 
0.557 0.541 0.627 0.624 
0.639 0.376 0.612 0.498 
0.196 0.0 0.424 0.376 
0.471 0.082 0.51 0.376 
0.361 0.376 0.439 0.498 
0.361 0.416 0.592 0.584 
0.529 0.082 0.592 0.584 
0.443 0.502 0.643 0.459 
0.557 0.208 0.663 0.584 
0.584 0.376 0.561 0.498 
0.694 0.333 0.643 0.541 
0.471 0.376 0.592 0.584 
0.333 0.169 0.475 0.416 
0.416 0.29 0.49 0.459 
0.306 0.416 0.592 0.584 
0.667 0.459 0.627 0.584 
0.361 0.416 0.525 0.498 
0.333 0.251 0.576 0.459 
0.416 0.251 0.51 0.459 
0.361 0.29 0.541 0.498 
0.388 0.376 0.541 0.498 
0.224 0.208 0.337 0.416 
0.584 0.502 0.592 0.584 
0.333 0.125 0.51 0.498 
0.388 0.333 0.592 0.498 
0.165 0.169 0.388 0.376 
0.251 0.29 0.49 0.541 
0.443 0.416 0.541 0.584 
0.498 0.376 0.627 0.541 
0.667 0.459 0.576 0.541 
0.416 0.29 0.525 0.376 
0.361 0.208 0.49 0.416 
0.498 0.333 0.51 0.498 
0.498 0.333 0.627 0.459 
0.639 0.416 0.576 0.541 
0.667 0.416 0.678 0.667 
0.388 0.251 0.424 0.376 
0.333 0.169 0.459 0.376 
0.471 0.29 0.694 0.624 
0.471 0.584 0.592 0.624 
0.557 0.125 0.576 0.498 
0.333 0.208 0.51 0.498 
0.498 0.416 0.612 0.541 
0.196 0.125 0.388 0.376 
0.388 0.416 0.541 0.459 
0.529 0.376 0.561 0.498 
0.388 0.333 0.525 0.498 
0.557 0.541 0.847 1.0 
0.776 0.416 0.831 0.831 
0.612 0.416 0.812 0.875 
0.165 0.208 0.592 0.667 
0.667 0.208 0.812 0.71 
0.612 0.502 0.694 0.792 
0.694 0.416 0.761 0.831 
0.416 0.333 0.694 0.957 
0.612 0.416 0.761 0.71 
0.945 0.251 1.0 0.918 
0.722 0.502 0.796 0.918 
0.945 0.333 0.965 0.792 
0.667 0.541 0.796 0.831 
0.529 0.333 0.643 0.71 
0.584 0.333 0.78 0.831 
0.863 0.333 0.863 0.749 
0.584 0.333 0.78 0.875 
0.498 0.251 0.78 0.541 
0.557 0.584 0.78 0.957 
0.471 0.416 0.643 0.71 
0.667 0.459 0.78 0.957 
0.416 0.29 0.694 0.749 
0.667 0.541 0.796 1.0 
0.557 0.208 0.678 0.749 
0.529 0.584 0.745 0.918 
0.416 0.29 0.694 0.749 
0.557 0.376 0.78 0.71 
0.918 0.416 0.949 0.831 
0.835 0.376 0.898 0.71 
0.804 0.667 0.863 1.0 
0.584 0.29 0.729 0.749 
0.388 0.208 0.678 0.792 
0.584 0.502 0.729 0.918 
0.945 0.749 0.965 0.875 
0.471 0.082 0.678 0.584 
0.361 0.333 0.663 0.792 
0.557 0.29 0.663 0.71 
0.804 0.502 0.847 0.71 
0.498 0.416 0.51 0.71 
0.804 0.416 0.812 0.624 
1.0 0.749 0.914 0.792 
0.557 0.333 0.694 0.584 
0.945 0.416 0.863 0.918 
0.584 0.459 0.761 0.71 
0.722 0.459 0.745 0.831 
0.722 0.459 0.694 0.918 
0.694 0.502 0.831 0.918 
0.667 0.416 0.714 0.918 
0.612 0.416 0.714 0.792 
0.443 0.416 0.694 0.71 
Teaching Patterns
1.0 0.0 0.0 
1.0 0.0 0.0 
1.0 0.0 0.0 
1.0 0.0 0.0 
1.0 0.0 0.0 
1.0 0.0 0.0 
1.0 0.0 0.0 
1.0 0.0 0.0 
1.0 0.0 0.0 
1.0 0.0 0.0 
1.0 0.0 0.0 
1.0 0.0 0.0 
1.0 0.0 0.0 
1.0 0.0 0.0 
1.0 0.0 0.0 
1.0 0.0 0.0 
1.0 0.0 0.0 
1.0 0.0 0.0 
1.0 0.0 0.0 
1.0 0.0 0.0 
1.0 0.0 0.0 
1.0 0.0 0.0 
1.0 0.0 0.0 
1.0 0.0 0.0 
1.0 0.0 0.0 
1.0 0.0 0.0 
1.0 0.0 0.0 
1.0 0.0 0.0 
1.0 0.0 0.0 
1.0 0.0 0.0 
1.0 0.0 0.0 
1.0 0.0 0.0 
1.0 0.0 0.0 
1.0 0.0 0.0 
1.0 0.0 0.0 
1.0 0.0 0.0 
1.0 0.0 0.0 
1.0 0.0 0.0 
1.0 0.0 0.0 
1.0 0.0 0.0 
1.0 0.0 0.0 
1.0 0.0 0.0 
1.0 0.0 0.0 
1.0 0.0 0.0 
1.0 0.0 0.0 
1.0 0.0 0.0 
1.0 0.0 0.0 
1.0 0.0 0.0 
1.0 0.0 0.0 
1.0 0.0 0.0 
0.0 1.0 0.0 
0.0 1.0 0.0 
0.0 1.0 0.0 
0.0 1.0 0.0 
0.0 1.0 0.0 
0.0 1.0 0.0 
0.0 1.0 0.0 
0.0 1.0 0.0 
0.0 1.0 0.0 
0.0 1.0 0.0 
0.0 1.0 0.0 
0.0 1.0 0.0 
0.0 1.0 0.0 
0.0 1.0 0.0 
0.0 1.0 0.0 
0.0 1.0 0.0 
0.0 1.0 0.0 
0.0 1.0 0.0 
0.0 1.0 0.0 
0.0 1.0 0.0 
0.0 1.0 0.0 
0.0 1.0 0.0 
0.0 1.0 0.0 
0.0 1.0 0.0 
0.0 1.0 0.0 
0.0 1.0 0.0 
0.0 1.0 0.0 
0.0 1.0 0.0 
0.0 1.0 0.0 
0.0 1.0 0.0 
0.0 1.0 0.0 
0.0 1.0 0.0 
0.0 1.0 0.0 
0.0 1.0 0.0 
0.0 1.0 0.0 
0.0 1.0 0.0 
0.0 1.0 0.0 
0.0 1.0 0.0 
0.0 1.0 0.0 
0.0 1.0 0.0 
0.0 1.0 0.0 
0.0 1.0 0.0 
0.0 1.0 0.0 
0.0 1.0 0.0 
0.0 1.0 0.0 
0.0 1.0 0.0 
0.0 1.0 0.0 
0.0 1.0 0.0 
0.0 1.0 0.0 
0.0 1.0 0.0 
0.0 0.0 1.0 
0.0 0.0 1.0 
0.0 0.0 1.0 
0.0 0.0 1.0 
0.0 0.0 1.0 
0.0 0.0 1.0 
0.0 0.0 1.0 
0.0 0.0 1.0 
0.0 0.0 1.0 
0.0 0.0 1.0 
0.0 0.0 1.0 
0.0 0.0 1.0 
0.0 0.0 1.0 
0.0 0.0 1.0 
0.0 0.0 1.0 
0.0 0.0 1.0 
0.0 0.0 1.0 
0.0 0.0 1.0 
0.0 0.0 1.0 
0.0 0.0 1.0 
0.0 0.0 1.0 
0.0 0.0 1.0 
0.0 0.0 1.0 
0.0 0.0 1.0 
0.0 0.0 1.0 
0.0 0.0 1.0 
0.0 0.0 1.0 
0.0 0.0 1.0 
0.0 0.0 1.0 
0.0 0.0 1.0 
0.0 0.0 1.0 
0.0 0.0 1.0 
0.0 0.0 1.0 
0.0 0.0 1.0 
0.0 0.0 1.0 
0.0 0.0 1.0 
0.0 0.0 1.0 
0.0 0.0 1.0 
0.0 0.0 1.0 
0.0 0.0 1.0 
0.0 0.0 1.0 
0.0 0.0 1.0 
0.0 0.0 1.0 
0.0 0.0 1.0 
0.0 0.0 1.0 
0.0 0.0 1.0 
0.0 0.0 1.0 
0.0 0.0 1.0 
0.0 0.0 1.0 
0.0 0.0 1.0 
Learning : 0.05
Momentum : 0.30000001192092896
Epoch: 100, Error: 0.08432546869049501
Epoch: 200, Error: 0.030220158472128927
Epoch: 300, Error: 0.020261180046880656
Epoch: 400, Error: 0.01710667705071131
Epoch: 500, Error: 0.015950032187682484
Epoch: 600, Error: 0.015029683193242114
Epoch: 700, Error: 0.01452021591747974
Epoch: 800, Error: 0.014095160419355176
Epoch: 900, Error: 0.01379774301531784
Epoch: 1000, Error: 0.01360229832187664
Epoch: 1100, Error: 0.013493354288557436
Epoch: 1200, Error: 0.013337095569224109
Epoch: 1300, Error: 0.013122128370385486
Epoch: 1400, Error: 0.013024080257572632
Epoch: 1500, Error: 0.013190511317719094
Epoch: 1600, Error: 0.012922423162617803
Epoch: 1700, Error: 0.012939802471079682
Epoch: 1800, Error: 0.01308148635376601
Epoch: 1900, Error: 0.012771706153184589
Epoch: 2000, Error: 0.01263023190164663
Epoch: 2100, Error: 0.012582991359850424
Epoch: 2200, Error: 0.012569552751788634
Epoch: 2300, Error: 0.012561641698628246
Epoch: 2400, Error: 0.012498641648783289
Epoch: 2500, Error: 0.012480027290681327
Epoch: 2600, Error: 0.012512433689057443
Epoch: 2700, Error: 0.012443978891468659
Epoch: 2800, Error: 0.012418062637810794
Epoch: 2900, Error: 0.012439736556587911
Epoch: 3000, Error: 0.01237933969963341
Epoch: 3100, Error: 0.01236669946613505
Epoch: 3200, Error: 0.012341505950449467
Epoch: 3300, Error: 0.012313815868085672
Epoch: 3400, Error: 0.012329689292008178
Epoch: 3500, Error: 0.012314912212365612
Epoch: 3600, Error: 0.01228702999477339
Epoch: 3700, Error: 0.012323360477614974
Epoch: 3800, Error: 0.012259939079032365
Epoch: 3900, Error: 0.012258919536496765
Epoch: 4000, Error: 0.01224331176861714
Epoch: 4100, Error: 0.012218306651800464
Epoch: 4200, Error: 0.012211499321982495
Epoch: 4300, Error: 0.012192705394706349
Epoch: 4400, Error: 0.012199087625747061
Epoch: 4500, Error: 0.012204128762834625
Epoch: 4600, Error: 0.012164986854038704
Epoch: 4700, Error: 0.01219902539005032
Epoch: 4800, Error: 0.012263093940208096
Epoch: 4900, Error: 0.012157617227010715
Epoch: 5000, Error: 0.012155272381865818
Epoch: 5100, Error: 0.012160388390446909
Epoch: 5200, Error: 0.012138320584840896
Epoch: 5300, Error: 0.012126410434336429
Epoch: 5400, Error: 0.012106712448185841
Epoch: 5500, Error: 0.012125731916464844
Epoch: 5600, Error: 0.012095647500423514
Epoch: 5700, Error: 0.012080700865572232
Epoch: 5800, Error: 0.01207858229858156
Epoch: 5900, Error: 0.01205294792294087
Epoch: 6000, Error: 0.012038828173779085
Epoch: 6100, Error: 0.012026748210583504
Epoch: 6200, Error: 0.01206529450150231
Epoch: 6300, Error: 0.011998729193843628
Epoch: 6400, Error: 0.011983203705440605
Epoch: 6500, Error: 0.012026136215665869
Epoch: 6600, Error: 0.012031425938155822
Epoch: 6700, Error: 0.012051648460712732
Epoch: 6800, Error: 0.011992417382504455
Epoch: 6900, Error: 0.012047523960062225
Epoch: 7000, Error: 0.011977871728708758
Epoch: 7100, Error: 0.01197116606185409
Epoch: 7200, Error: 0.011945742532186953
Epoch: 7300, Error: 0.01194968476969701
Epoch: 7400, Error: 0.011937996357475063
Epoch: 7500, Error: 0.01191140170868185
Epoch: 7600, Error: 0.01189586909692992
Epoch: 7700, Error: 0.011878005649635436
Epoch: 7800, Error: 0.011862643750154018
Epoch: 7900, Error: 0.011867853680008283
Epoch: 8000, Error: 0.011856008388789157
Epoch: 8100, Error: 0.011823680514480725
Epoch: 8200, Error: 0.011833294341075397
Epoch: 8300, Error: 0.0117730908385712
Epoch: 8400, Error: 0.011751698962494493
Epoch: 8500, Error: 0.011724646305045232
Epoch: 8600, Error: 0.011702714286892481
Epoch: 8700, Error: 0.011689489270262034
Epoch: 8800, Error: 0.011668046535336672
Epoch: 8900, Error: 0.011652740660203548
Epoch: 9000, Error: 0.011607915621526549
Epoch: 9100, Error: 0.011592379951043681
Epoch: 9200, Error: 0.011582090444856535
Epoch: 9300, Error: 0.011525246941682039
Epoch: 9400, Error: 0.011526089491462622
Epoch: 9500, Error: 0.01148814795249804
Epoch: 9600, Error: 0.011477977368823004
Epoch: 9700, Error: 0.011431466577197612
Epoch: 9800, Error: 0.01139933952571272
Epoch: 9900, Error: 0.011374116282184021
Epoch: 10000, Error: 0.01136090837867675
Epoch: 10100, Error: 0.011284115861147059
Epoch: 10200, Error: 0.011252393288012778
Epoch: 10300, Error: 0.011220314017093247
Epoch: 10400, Error: 0.011171948590908379
Epoch: 10500, Error: 0.011145142275514915
Epoch: 10600, Error: 0.011118347262407305
Epoch: 10700, Error: 0.011061117502416007
Epoch: 10800, Error: 0.011057400122558332
Epoch: 10900, Error: 0.010967643257814687
Epoch: 11000, Error: 0.010952974049773075
Epoch: 11100, Error: 0.01089219239812249
Epoch: 11200, Error: 0.010883187990347046
Epoch: 11300, Error: 0.010797193018992065
Epoch: 11400, Error: 0.010725323919622946
Epoch: 11500, Error: 0.010680908749248394
Epoch: 11600, Error: 0.010616399775078028
Epoch: 11700, Error: 0.010573979971085007
Epoch: 11800, Error: 0.010508113322187857
Epoch: 11900, Error: 0.010444434523293722
Epoch: 12000, Error: 0.010383100433464444
Epoch: 12100, Error: 0.010305029797088293
Epoch: 12200, Error: 0.010229566206973151
Epoch: 12300, Error: 0.010157670546433448
Epoch: 12400, Error: 0.010110732009773554
Epoch: 12500, Error: 0.010026434124472515
Epoch: 12600, Error: 0.009947929417154446
Epoch: 12700, Error: 0.00986328846255667
Epoch: 12800, Error: 0.009836288997537253
Epoch: 12900, Error: 0.00975181603929487
Epoch: 13000, Error: 0.009648107958506418
Epoch: 13100, Error: 0.009593629091105053
Epoch: 13200, Error: 0.009518191570503593
Epoch: 13300, Error: 0.009503264240647194
Epoch: 13400, Error: 0.009363810056994869
Epoch: 13500, Error: 0.00927612370713041
Epoch: 13600, Error: 0.009191005339022706
Epoch: 13700, Error: 0.009115095534422009
Epoch: 13800, Error: 0.009059281527197387
Epoch: 13900, Error: 0.00893422021520691
Epoch: 14000, Error: 0.00885410156755582
Epoch: 14100, Error: 0.00874422422543801
Epoch: 14200, Error: 0.008657229424221462
Epoch: 14300, Error: 0.008550735565149237
Epoch: 14400, Error: 0.008488981641378075
Epoch: 14500, Error: 0.008357086149218913
Epoch: 14600, Error: 0.008244861553726815
Epoch: 14700, Error: 0.00813894616570736
Epoch: 14800, Error: 0.0080327731863191
Epoch: 14900, Error: 0.007908433640909499
Epoch: 15000, Error: 0.007808106483384141
Epoch: 15100, Error: 0.007710098182741837
Epoch: 15200, Error: 0.007611478427128453
Epoch: 15300, Error: 0.0075135302676638096
Epoch: 15400, Error: 0.007464082546836598
Epoch: 15500, Error: 0.00736983303177985
Epoch: 15600, Error: 0.007277987990634988
Epoch: 15700, Error: 0.007200995530026477
Epoch: 15800, Error: 0.00713419389380154
Epoch: 15900, Error: 0.007068387856902531
Epoch: 16000, Error: 0.007008571058384378
Epoch: 16100, Error: 0.006959952512332005
Epoch: 16200, Error: 0.00692315008472065
Epoch: 16300, Error: 0.006904310275573663
Epoch: 16400, Error: 0.006872310360490213
Epoch: 16500, Error: 0.006840394227241046
Epoch: 16600, Error: 0.006812989938893269
Epoch: 16700, Error: 0.006783699990208097
Epoch: 16800, Error: 0.0067697391384953925
Epoch: 16900, Error: 0.0067316929529395
Epoch: 17000, Error: 0.006685205645980983
Epoch: 17100, Error: 0.006690833910750686
Epoch: 17200, Error: 0.006612398050424309
Epoch: 17300, Error: 0.00657588770797062
Epoch: 17400, Error: 0.00656357235153402
Epoch: 17500, Error: 0.006539989640352008
Epoch: 17600, Error: 0.0065223045986283175
Epoch: 17700, Error: 0.006497995874903142
Epoch: 17800, Error: 0.006513035902436637
Epoch: 17900, Error: 0.006481423161862619
Epoch: 18000, Error: 0.006459322008729099
Epoch: 18100, Error: 0.006448705074440969
Epoch: 18200, Error: 0.006446533828638333
Epoch: 18300, Error: 0.006427972886063198
Epoch: 18400, Error: 0.006414506613718386
Epoch: 18500, Error: 0.006370576172515358
Epoch: 18600, Error: 0.006356030367045497
Epoch: 18700, Error: 0.006341747890627662
Epoch: 18800, Error: 0.006326727022965434
Epoch: 18900, Error: 0.006314939429223003
Epoch: 19000, Error: 0.006293650968337393
Epoch: 19100, Error: 0.0062855571412536206
Epoch: 19200, Error: 0.006295046334137346
Epoch: 19300, Error: 0.006283771202257329
Epoch: 19400, Error: 0.006236975138047842
Epoch: 19500, Error: 0.0062822275882139945
Epoch: 19600, Error: 0.006218885910047005
Epoch: 19700, Error: 0.006242762490110437
Epoch: 19800, Error: 0.0062089156725043
Epoch: 19900, Error: 0.006192561403524644
Epoch: 20000, Error: 0.006172299003627353
Epoch: 20100, Error: 0.006148246712926864
Epoch: 20200, Error: 0.00612769853180855
Epoch: 20300, Error: 0.00609222389169411
Epoch: 20400, Error: 0.006047569626516902
Epoch: 20500, Error: 0.006023502761878308
Epoch: 20600, Error: 0.005995717364100427
Epoch: 20700, Error: 0.005980118666218733
Epoch: 20800, Error: 0.005963232708069882
Epoch: 20900, Error: 0.005919883638226741
Epoch: 21000, Error: 0.005880711915096002
Epoch: 21100, Error: 0.005850148278989953
Epoch: 21200, Error: 0.005806553436981361
Epoch: 21300, Error: 0.005784649579135352
Epoch: 21400, Error: 0.005734851024980148
Epoch: 21500, Error: 0.005719779139826445
Epoch: 21600, Error: 0.00567922799872954
Epoch: 21700, Error: 0.00562953710673402
Epoch: 21800, Error: 0.005611476388806823
Epoch: 21900, Error: 0.005588285437555515
Epoch: 22000, Error: 0.005555100701982083
Epoch: 22100, Error: 0.005546837392885351
Epoch: 22200, Error: 0.005512659601303072
Epoch: 22300, Error: 0.005503663489754895
Epoch: 22400, Error: 0.005453852972107447
Epoch: 22500, Error: 0.00543463573745226
Epoch: 22600, Error: 0.005404023647443397
Epoch: 22700, Error: 0.005385474185048022
Epoch: 22800, Error: 0.005370979810208046
Epoch: 22900, Error: 0.00534864728704913
Epoch: 23000, Error: 0.005328061200408836
Epoch: 23100, Error: 0.005339748848937368
Epoch: 23200, Error: 0.00528131771119733
Epoch: 23300, Error: 0.005288154041712048
Epoch: 23400, Error: 0.005268727425288377
Epoch: 23500, Error: 0.005231022646922737
Epoch: 23600, Error: 0.0052056167290478236
Epoch: 23700, Error: 0.005230798312358467
Epoch: 23800, Error: 0.005211307567778107
Epoch: 23900, Error: 0.005150519556565747
Epoch: 24000, Error: 0.005145478233226805
Epoch: 24100, Error: 0.005090494966190484
Epoch: 24200, Error: 0.0050632045990763284
Epoch: 24300, Error: 0.005058324558110705
Epoch: 24400, Error: 0.005043193099522525
Epoch: 24500, Error: 0.00501895516893812
Epoch: 24600, Error: 0.004981635506984662
Epoch: 24700, Error: 0.004952700598592406
Epoch: 24800, Error: 0.004940589238982971
Epoch: 24900, Error: 0.004901275132459089
Epoch: 25000, Error: 0.0048808895596285234
Epoch: 25100, Error: 0.004852033325423453
Epoch: 25200, Error: 0.004828824903480548
Epoch: 25300, Error: 0.0048284018531228766
Epoch: 25400, Error: 0.004800045219855474
Epoch: 25500, Error: 0.004765041961480191
Epoch: 25600, Error: 0.00474316800852506
Epoch: 25700, Error: 0.004721593660719434
Epoch: 25800, Error: 0.004707463142561064
Epoch: 25900, Error: 0.004686290993252531
Epoch: 26000, Error: 0.004684165051034093
Epoch: 26100, Error: 0.004636096212174969
Epoch: 26200, Error: 0.0046120494603753585
Epoch: 26300, Error: 0.004627323158553003
Epoch: 26400, Error: 0.004553240047624583
Epoch: 26500, Error: 0.004528007569947671
Epoch: 26600, Error: 0.004535371405350192
Epoch: 26700, Error: 0.004472929945613584
Epoch: 26800, Error: 0.004478261179170486
Epoch: 26900, Error: 0.00443396322016628
Epoch: 27000, Error: 0.004401452550765828
Epoch: 27100, Error: 0.0044023903808601056
Epoch: 27200, Error: 0.004369504750949491
Epoch: 27300, Error: 0.004362833707140359
Epoch: 27400, Error: 0.004343070935719073
Epoch: 27500, Error: 0.0043222709673721655
Epoch: 27600, Error: 0.004250694368391507
Epoch: 27700, Error: 0.0042463788259561284
Epoch: 27800, Error: 0.004199001372401876
Epoch: 27900, Error: 0.0041880003793653975
Epoch: 28000, Error: 0.004149501430774912
Epoch: 28100, Error: 0.004154645765213669
Epoch: 28200, Error: 0.0041105766857215745
Epoch: 28300, Error: 0.004096426002175846
Epoch: 28400, Error: 0.004048055481032437
Epoch: 28500, Error: 0.004028218386895453
Epoch: 28600, Error: 0.0040312392321677736
Epoch: 28700, Error: 0.004038113880558745
Epoch: 28800, Error: 0.003957776230143678
Epoch: 28900, Error: 0.003918356285056845
Epoch: 29000, Error: 0.003908184937628532
Epoch: 29100, Error: 0.0038776472348362916
Epoch: 29200, Error: 0.003864194570232848
Epoch: 29300, Error: 0.0038285762571015135
Epoch: 29400, Error: 0.003798698387050804
Epoch: 29500, Error: 0.003788876437402853
Epoch: 29600, Error: 0.0037633509151630785
Epoch: 29700, Error: 0.0037471355516984013
Epoch: 29800, Error: 0.003776982098546801
Epoch: 29900, Error: 0.0036950326594584536
Epoch: 30000, Error: 0.003687614336697767
Epoch: 30100, Error: 0.0036669762130734063
Epoch: 30200, Error: 0.003698377025436358
Epoch: 30300, Error: 0.003683345113880663
Epoch: 30400, Error: 0.0036347324265507733
Epoch: 30500, Error: 0.003617746528794199
Epoch: 30600, Error: 0.0035812810752270325
Epoch: 30700, Error: 0.0035940995680322743
Epoch: 30800, Error: 0.0035439879982443294
Epoch: 30900, Error: 0.0035619984603357823
Epoch: 31000, Error: 0.0035651557666591172
Epoch: 31100, Error: 0.0034930031668809975
Epoch: 31200, Error: 0.003489419034327664
Epoch: 31300, Error: 0.003464196910236282
Epoch: 31400, Error: 0.0034242713440660014
Epoch: 31500, Error: 0.0034024152263747195
Epoch: 31600, Error: 0.0033955475010773923
Epoch: 31700, Error: 0.003350051301026512
Epoch: 31800, Error: 0.003320628012793047
Epoch: 31900, Error: 0.0033020844449412937
Epoch: 32000, Error: 0.0032648228783490035
Epoch: 32100, Error: 0.003242151038475382
Epoch: 32200, Error: 0.0032284995992398163
Epoch: 32300, Error: 0.0032115927782398737
Epoch: 32400, Error: 0.0032259108306883066
Epoch: 32500, Error: 0.0031216862046701496
Epoch: 32600, Error: 0.0031947016788405375
Epoch: 32700, Error: 0.0030877868139600074
Epoch: 32800, Error: 0.003043834945202002
Epoch: 32900, Error: 0.0030180552173868255
Epoch: 33000, Error: 0.002979422297556201
Epoch: 33100, Error: 0.0029534397540701245
Epoch: 33200, Error: 0.0029324348509878694
Epoch: 33300, Error: 0.0028889850390873854
Epoch: 33400, Error: 0.002859213021289631
Epoch: 33500, Error: 0.002855104303149628
Epoch: 33600, Error: 0.0028385814159052644
Epoch: 33700, Error: 0.002785911133943167
Epoch: 33800, Error: 0.0027491961096055826
Epoch: 33900, Error: 0.002782001239423958
Epoch: 34000, Error: 0.0027368122834938477
Epoch: 34100, Error: 0.0026853354253919075
Epoch: 34200, Error: 0.0026755256656526235
Epoch: 34300, Error: 0.0026188967597682443
Epoch: 34400, Error: 0.0026129137533080007
Epoch: 34500, Error: 0.0025771586478993466
Epoch: 34600, Error: 0.002531275741008445
Epoch: 34700, Error: 0.0025530809249806443
Epoch: 34800, Error: 0.00249270749811744
Epoch: 34900, Error: 0.0024651997952904628
Epoch: 35000, Error: 0.002458544060617179
Epoch: 35100, Error: 0.0024602852673406253
Epoch: 35200, Error: 0.0024014348084112967
Epoch: 35300, Error: 0.0023680139203725316
Epoch: 35400, Error: 0.002345859439239552
Epoch: 35500, Error: 0.002321892546083762
Epoch: 35600, Error: 0.0022991662761240672
Epoch: 35700, Error: 0.0022848044508679364
Epoch: 35800, Error: 0.0022973007051018653
Epoch: 35900, Error: 0.0022385722639100096
Epoch: 36000, Error: 0.00225974624004761
Epoch: 36100, Error: 0.002228945584702998
Epoch: 36200, Error: 0.0021802895615675
Epoch: 36300, Error: 0.0021540020891963507
Epoch: 36400, Error: 0.0021354298885967633
Epoch: 36500, Error: 0.0021843669502333613
Epoch: 36600, Error: 0.0021503321383729485
Epoch: 36700, Error: 0.002113326439718232
Epoch: 36800, Error: 0.0020532685222888884
Epoch: 36900, Error: 0.0020991677663710563
Epoch: 37000, Error: 0.0020198887032518713
Epoch: 37100, Error: 0.002001352785483161
Epoch: 37200, Error: 0.002053992665687077
Epoch: 37300, Error: 0.0019768057770063415
Epoch: 37400, Error: 0.0019580086322868065
Epoch: 37500, Error: 0.0019494719362847365
Epoch: 37600, Error: 0.001969364081246184
Epoch: 37700, Error: 0.0018989964507846104
Epoch: 37800, Error: 0.0019875945910125294
Epoch: 37900, Error: 0.0019219899706740323
Epoch: 38000, Error: 0.001866527057022787
Epoch: 38100, Error: 0.0018716708579863727
Epoch: 38200, Error: 0.0018367541971459269
Epoch: 38300, Error: 0.0018244450732330282
Epoch: 38400, Error: 0.0018704100491642192
Epoch: 38500, Error: 0.001785791486092239
Epoch: 38600, Error: 0.001794235151279181
Epoch: 38700, Error: 0.0018126495382709237
Epoch: 38800, Error: 0.0017648906442157444
Epoch: 38900, Error: 0.0017570957870831122
Epoch: 39000, Error: 0.0017342823656326968
Epoch: 39100, Error: 0.0017547721444636847
Epoch: 39200, Error: 0.0017117228908069774
Epoch: 39300, Error: 0.0017163255573868325
Epoch: 39400, Error: 0.001719071509303725
Epoch: 39500, Error: 0.0016995917837188837
Epoch: 39600, Error: 0.0017332740845918927
Epoch: 39700, Error: 0.0016900446813976552
Epoch: 39800, Error: 0.0016525077485176052
Epoch: 39900, Error: 0.0016607589803199101
Epoch: 40000, Error: 0.0016505867896191592
Epoch: 40100, Error: 0.0016424051496879844
Epoch: 40200, Error: 0.001654313185888178
Epoch: 40300, Error: 0.001612283855057331
Epoch: 40400, Error: 0.0016266192801730071
Epoch: 40500, Error: 0.0015970984916608276
Epoch: 40600, Error: 0.0015850673819321525
Epoch: 40700, Error: 0.0016231583954742267
Finished
