Input Patterns
0.224 0.624 0.067 0.043 
0.11 0.502 0.051 0.043 
0.196 0.667 0.067 0.043 
0.055 0.584 0.067 0.082 
0.027 0.376 0.067 0.043 
0.306 0.71 0.086 0.043 
0.137 0.416 0.067 0.0 
0.416 0.831 0.035 0.043 
0.306 0.792 0.051 0.125 
0.388 0.749 0.118 0.082 
0.306 0.584 0.118 0.043 
0.082 0.667 0.0 0.043 
0.137 0.584 0.153 0.043 
0.196 0.584 0.102 0.125 
0.251 0.584 0.067 0.043 
0.137 0.459 0.102 0.043 
0.251 0.875 0.086 0.0 
0.165 0.459 0.086 0.043 
0.333 0.624 0.051 0.043 
0.027 0.416 0.051 0.043 
0.196 0.624 0.051 0.082 
0.027 0.502 0.051 0.043 
0.224 0.749 0.153 0.125 
0.224 0.749 0.102 0.043 
0.278 0.71 0.086 0.043 
0.165 0.416 0.067 0.043 
0.082 0.459 0.086 0.043 
0.306 0.792 0.118 0.125 
0.196 0.584 0.086 0.043 
0.165 0.459 0.086 0.0 
0.137 0.584 0.102 0.043 
0.0 0.416 0.016 0.0 
0.388 1.0 0.086 0.125 
0.224 0.624 0.067 0.082 
0.224 0.749 0.086 0.082 
0.224 0.71 0.086 0.125 
0.224 0.541 0.118 0.165 
0.196 0.416 0.102 0.043 
0.251 0.624 0.086 0.043 
0.11 0.502 0.102 0.043 
0.306 0.584 0.086 0.125 
0.333 0.918 0.067 0.043 
0.196 0.502 0.035 0.043 
0.165 0.667 0.067 0.0 
0.224 0.584 0.086 0.043 
0.055 0.125 0.051 0.082 
0.196 0.624 0.102 0.208 
0.137 0.416 0.067 0.082 
0.082 0.502 0.067 0.043 
0.196 0.541 0.067 0.043 
0.749 0.502 0.627 0.541 
0.722 0.459 0.663 0.584 
0.612 0.333 0.612 0.584 
0.557 0.541 0.627 0.624 
0.639 0.376 0.612 0.498 
0.196 0.0 0.424 0.376 
0.471 0.082 0.51 0.376 
0.361 0.376 0.439 0.498 
0.361 0.416 0.592 0.584 
0.529 0.082 0.592 0.584 
0.443 0.502 0.643 0.459 
0.557 0.208 0.663 0.584 
0.584 0.376 0.561 0.498 
0.694 0.333 0.643 0.541 
0.471 0.376 0.592 0.584 
0.333 0.169 0.475 0.416 
0.416 0.29 0.49 0.459 
0.306 0.416 0.592 0.584 
0.667 0.459 0.627 0.584 
0.361 0.416 0.525 0.498 
0.333 0.251 0.576 0.459 
0.416 0.251 0.51 0.459 
0.361 0.29 0.541 0.498 
0.388 0.376 0.541 0.498 
0.224 0.208 0.337 0.416 
0.584 0.502 0.592 0.584 
0.333 0.125 0.51 0.498 
0.388 0.333 0.592 0.498 
0.165 0.169 0.388 0.376 
0.251 0.29 0.49 0.541 
0.443 0.416 0.541 0.584 
0.498 0.376 0.627 0.541 
0.667 0.459 0.576 0.541 
0.416 0.29 0.525 0.376 
0.361 0.208 0.49 0.416 
0.498 0.333 0.51 0.498 
0.498 0.333 0.627 0.459 
0.639 0.416 0.576 0.541 
0.667 0.416 0.678 0.667 
0.388 0.251 0.424 0.376 
0.333 0.169 0.459 0.376 
0.471 0.29 0.694 0.624 
0.471 0.584 0.592 0.624 
0.557 0.125 0.576 0.498 
0.333 0.208 0.51 0.498 
0.498 0.416 0.612 0.541 
0.196 0.125 0.388 0.376 
0.388 0.416 0.541 0.459 
0.529 0.376 0.561 0.498 
0.388 0.333 0.525 0.498 
0.557 0.541 0.847 1.0 
0.776 0.416 0.831 0.831 
0.612 0.416 0.812 0.875 
0.165 0.208 0.592 0.667 
0.667 0.208 0.812 0.71 
0.612 0.502 0.694 0.792 
0.694 0.416 0.761 0.831 
0.416 0.333 0.694 0.957 
0.612 0.416 0.761 0.71 
0.945 0.251 1.0 0.918 
0.722 0.502 0.796 0.918 
0.945 0.333 0.965 0.792 
0.667 0.541 0.796 0.831 
0.529 0.333 0.643 0.71 
0.584 0.333 0.78 0.831 
0.863 0.333 0.863 0.749 
0.584 0.333 0.78 0.875 
0.498 0.251 0.78 0.541 
0.557 0.584 0.78 0.957 
0.471 0.416 0.643 0.71 
0.667 0.459 0.78 0.957 
0.416 0.29 0.694 0.749 
0.667 0.541 0.796 1.0 
0.557 0.208 0.678 0.749 
0.529 0.584 0.745 0.918 
0.416 0.29 0.694 0.749 
0.557 0.376 0.78 0.71 
0.918 0.416 0.949 0.831 
0.835 0.376 0.898 0.71 
0.804 0.667 0.863 1.0 
0.584 0.29 0.729 0.749 
0.388 0.208 0.678 0.792 
0.584 0.502 0.729 0.918 
0.945 0.749 0.965 0.875 
0.471 0.082 0.678 0.584 
0.361 0.333 0.663 0.792 
0.557 0.29 0.663 0.71 
0.804 0.502 0.847 0.71 
0.498 0.416 0.51 0.71 
0.804 0.416 0.812 0.624 
1.0 0.749 0.914 0.792 
0.557 0.333 0.694 0.584 
0.945 0.416 0.863 0.918 
0.584 0.459 0.761 0.71 
0.722 0.459 0.745 0.831 
0.722 0.459 0.694 0.918 
0.694 0.502 0.831 0.918 
0.667 0.416 0.714 0.918 
0.612 0.416 0.714 0.792 
0.443 0.416 0.694 0.71 
Teaching Patterns
1.0 0.0 0.0 
1.0 0.0 0.0 
1.0 0.0 0.0 
1.0 0.0 0.0 
1.0 0.0 0.0 
1.0 0.0 0.0 
1.0 0.0 0.0 
1.0 0.0 0.0 
1.0 0.0 0.0 
1.0 0.0 0.0 
1.0 0.0 0.0 
1.0 0.0 0.0 
1.0 0.0 0.0 
1.0 0.0 0.0 
1.0 0.0 0.0 
1.0 0.0 0.0 
1.0 0.0 0.0 
1.0 0.0 0.0 
1.0 0.0 0.0 
1.0 0.0 0.0 
1.0 0.0 0.0 
1.0 0.0 0.0 
1.0 0.0 0.0 
1.0 0.0 0.0 
1.0 0.0 0.0 
1.0 0.0 0.0 
1.0 0.0 0.0 
1.0 0.0 0.0 
1.0 0.0 0.0 
1.0 0.0 0.0 
1.0 0.0 0.0 
1.0 0.0 0.0 
1.0 0.0 0.0 
1.0 0.0 0.0 
1.0 0.0 0.0 
1.0 0.0 0.0 
1.0 0.0 0.0 
1.0 0.0 0.0 
1.0 0.0 0.0 
1.0 0.0 0.0 
1.0 0.0 0.0 
1.0 0.0 0.0 
1.0 0.0 0.0 
1.0 0.0 0.0 
1.0 0.0 0.0 
1.0 0.0 0.0 
1.0 0.0 0.0 
1.0 0.0 0.0 
1.0 0.0 0.0 
1.0 0.0 0.0 
0.0 1.0 0.0 
0.0 1.0 0.0 
0.0 1.0 0.0 
0.0 1.0 0.0 
0.0 1.0 0.0 
0.0 1.0 0.0 
0.0 1.0 0.0 
0.0 1.0 0.0 
0.0 1.0 0.0 
0.0 1.0 0.0 
0.0 1.0 0.0 
0.0 1.0 0.0 
0.0 1.0 0.0 
0.0 1.0 0.0 
0.0 1.0 0.0 
0.0 1.0 0.0 
0.0 1.0 0.0 
0.0 1.0 0.0 
0.0 1.0 0.0 
0.0 1.0 0.0 
0.0 1.0 0.0 
0.0 1.0 0.0 
0.0 1.0 0.0 
0.0 1.0 0.0 
0.0 1.0 0.0 
0.0 1.0 0.0 
0.0 1.0 0.0 
0.0 1.0 0.0 
0.0 1.0 0.0 
0.0 1.0 0.0 
0.0 1.0 0.0 
0.0 1.0 0.0 
0.0 1.0 0.0 
0.0 1.0 0.0 
0.0 1.0 0.0 
0.0 1.0 0.0 
0.0 1.0 0.0 
0.0 1.0 0.0 
0.0 1.0 0.0 
0.0 1.0 0.0 
0.0 1.0 0.0 
0.0 1.0 0.0 
0.0 1.0 0.0 
0.0 1.0 0.0 
0.0 1.0 0.0 
0.0 1.0 0.0 
0.0 1.0 0.0 
0.0 1.0 0.0 
0.0 1.0 0.0 
0.0 1.0 0.0 
0.0 0.0 1.0 
0.0 0.0 1.0 
0.0 0.0 1.0 
0.0 0.0 1.0 
0.0 0.0 1.0 
0.0 0.0 1.0 
0.0 0.0 1.0 
0.0 0.0 1.0 
0.0 0.0 1.0 
0.0 0.0 1.0 
0.0 0.0 1.0 
0.0 0.0 1.0 
0.0 0.0 1.0 
0.0 0.0 1.0 
0.0 0.0 1.0 
0.0 0.0 1.0 
0.0 0.0 1.0 
0.0 0.0 1.0 
0.0 0.0 1.0 
0.0 0.0 1.0 
0.0 0.0 1.0 
0.0 0.0 1.0 
0.0 0.0 1.0 
0.0 0.0 1.0 
0.0 0.0 1.0 
0.0 0.0 1.0 
0.0 0.0 1.0 
0.0 0.0 1.0 
0.0 0.0 1.0 
0.0 0.0 1.0 
0.0 0.0 1.0 
0.0 0.0 1.0 
0.0 0.0 1.0 
0.0 0.0 1.0 
0.0 0.0 1.0 
0.0 0.0 1.0 
0.0 0.0 1.0 
0.0 0.0 1.0 
0.0 0.0 1.0 
0.0 0.0 1.0 
0.0 0.0 1.0 
0.0 0.0 1.0 
0.0 0.0 1.0 
0.0 0.0 1.0 
0.0 0.0 1.0 
0.0 0.0 1.0 
0.0 0.0 1.0 
0.0 0.0 1.0 
0.0 0.0 1.0 
0.0 0.0 1.0 
Learning : 0.05
Momentum : 0.30000001192092896
Epoch: 100, Error: 0.07854420436815965
Epoch: 200, Error: 0.026935154509271628
Epoch: 300, Error: 0.019269043334993418
Epoch: 400, Error: 0.016935246348444295
Epoch: 500, Error: 0.015457611632428883
Epoch: 600, Error: 0.014736684431180926
Epoch: 700, Error: 0.014251850842369308
Epoch: 800, Error: 0.013958643200339793
Epoch: 900, Error: 0.013643450958561641
Epoch: 1000, Error: 0.013521853728485406
Epoch: 1100, Error: 0.013432936664964564
Epoch: 1200, Error: 0.013190058579050309
Epoch: 1300, Error: 0.013192255901206743
Epoch: 1400, Error: 0.013044786982301144
Epoch: 1500, Error: 0.013034870611361786
Epoch: 1600, Error: 0.01298536017110147
Epoch: 1700, Error: 0.0128622569904939
Epoch: 1800, Error: 0.01276442103333083
Epoch: 1900, Error: 0.012713631426377749
Epoch: 2000, Error: 0.012642670421995472
Epoch: 2100, Error: 0.012590367756091195
Epoch: 2200, Error: 0.012627292006300007
Epoch: 2300, Error: 0.012572521810328825
Epoch: 2400, Error: 0.012517466300488436
Epoch: 2500, Error: 0.012503478774174334
Epoch: 2600, Error: 0.012534133059613397
Epoch: 2700, Error: 0.012529037516924376
Epoch: 2800, Error: 0.012531177953743654
Epoch: 2900, Error: 0.012476802718189366
Epoch: 3000, Error: 0.012448242145936981
Epoch: 3100, Error: 0.012456249114596737
Epoch: 3200, Error: 0.012452973826996677
Epoch: 3300, Error: 0.012496502552142475
Epoch: 3400, Error: 0.012433842420249896
Epoch: 3500, Error: 0.012468856020844335
Epoch: 3600, Error: 0.01243717940272831
Epoch: 3700, Error: 0.01242576309124837
Epoch: 3800, Error: 0.012426091284692941
Epoch: 3900, Error: 0.012432723455485802
Epoch: 4000, Error: 0.0123938666789826
Epoch: 4100, Error: 0.01242347211491234
Epoch: 4200, Error: 0.012353568074796697
Epoch: 4300, Error: 0.012340909313629517
Epoch: 4400, Error: 0.012353036472304254
Epoch: 4500, Error: 0.012325295711843307
Epoch: 4600, Error: 0.012326192708253818
Epoch: 4700, Error: 0.012358434463169816
Epoch: 4800, Error: 0.012297003246999276
Epoch: 4900, Error: 0.012349253958332265
Epoch: 5000, Error: 0.012324741098979174
Epoch: 5100, Error: 0.012306758857810171
Epoch: 5200, Error: 0.012299471645481494
Epoch: 5300, Error: 0.012288151008486492
Epoch: 5400, Error: 0.012368260784941298
Epoch: 5500, Error: 0.012262775094136086
Epoch: 5600, Error: 0.012244924742501979
Epoch: 5700, Error: 0.0122036513326964
Epoch: 5800, Error: 0.012218845811827483
Epoch: 5900, Error: 0.012236034657941404
Epoch: 6000, Error: 0.012233356420146462
Epoch: 6100, Error: 0.0122269646304202
Epoch: 6200, Error: 0.01222027703189637
Epoch: 6300, Error: 0.012224897124407379
Epoch: 6400, Error: 0.012208754572737516
Epoch: 6500, Error: 0.012209830622409433
Epoch: 6600, Error: 0.012194055765626146
Epoch: 6700, Error: 0.012159998164907645
Epoch: 6800, Error: 0.012168468566382424
Epoch: 6900, Error: 0.01215428081502019
Epoch: 7000, Error: 0.012186909585708075
Epoch: 7100, Error: 0.012195961496809665
Epoch: 7200, Error: 0.012146339741994382
Epoch: 7300, Error: 0.012131166054037287
Epoch: 7400, Error: 0.012137490119582059
Epoch: 7500, Error: 0.01218011940353539
Epoch: 7600, Error: 0.012161106885762071
Epoch: 7700, Error: 0.01214444386515583
Epoch: 7800, Error: 0.012206453509127777
Epoch: 7900, Error: 0.012104132498001336
Epoch: 8000, Error: 0.012095357525876595
Epoch: 8100, Error: 0.012135599798245364
Epoch: 8200, Error: 0.012133728337611721
Epoch: 8300, Error: 0.012147134281746588
Epoch: 8400, Error: 0.012123053952303136
Epoch: 8500, Error: 0.012081553509284138
Epoch: 8600, Error: 0.0120685354986277
Epoch: 8700, Error: 0.012086092877428916
Epoch: 8800, Error: 0.012097718743855233
Epoch: 8900, Error: 0.012052140901575473
Epoch: 9000, Error: 0.012044094049059812
Epoch: 9100, Error: 0.012059691591498731
Epoch: 9200, Error: 0.012074989538691395
Epoch: 9300, Error: 0.012075858165090011
Epoch: 9400, Error: 0.012077434425283744
Epoch: 9500, Error: 0.01205466057146014
Epoch: 9600, Error: 0.012037206718316155
Epoch: 9700, Error: 0.01203490171389529
Finished
