Input Patterns
0.224 0.624 0.067 0.043 
0.11 0.502 0.051 0.043 
0.196 0.667 0.067 0.043 
0.055 0.584 0.067 0.082 
0.027 0.376 0.067 0.043 
0.306 0.71 0.086 0.043 
0.137 0.416 0.067 0.0 
0.416 0.831 0.035 0.043 
0.306 0.792 0.051 0.125 
0.388 0.749 0.118 0.082 
0.306 0.584 0.118 0.043 
0.082 0.667 0.0 0.043 
0.137 0.584 0.153 0.043 
0.196 0.584 0.102 0.125 
0.251 0.584 0.067 0.043 
0.137 0.459 0.102 0.043 
0.251 0.875 0.086 0.0 
0.165 0.459 0.086 0.043 
0.333 0.624 0.051 0.043 
0.027 0.416 0.051 0.043 
0.196 0.624 0.051 0.082 
0.027 0.502 0.051 0.043 
0.224 0.749 0.153 0.125 
0.224 0.749 0.102 0.043 
0.278 0.71 0.086 0.043 
0.165 0.416 0.067 0.043 
0.082 0.459 0.086 0.043 
0.306 0.792 0.118 0.125 
0.196 0.584 0.086 0.043 
0.165 0.459 0.086 0.0 
0.137 0.584 0.102 0.043 
0.0 0.416 0.016 0.0 
0.388 1.0 0.086 0.125 
0.224 0.624 0.067 0.082 
0.224 0.749 0.086 0.082 
0.224 0.71 0.086 0.125 
0.224 0.541 0.118 0.165 
0.196 0.416 0.102 0.043 
0.251 0.624 0.086 0.043 
0.11 0.502 0.102 0.043 
0.306 0.584 0.086 0.125 
0.333 0.918 0.067 0.043 
0.196 0.502 0.035 0.043 
0.165 0.667 0.067 0.0 
0.224 0.584 0.086 0.043 
0.055 0.125 0.051 0.082 
0.196 0.624 0.102 0.208 
0.137 0.416 0.067 0.082 
0.082 0.502 0.067 0.043 
0.196 0.541 0.067 0.043 
0.749 0.502 0.627 0.541 
0.722 0.459 0.663 0.584 
0.612 0.333 0.612 0.584 
0.557 0.541 0.627 0.624 
0.639 0.376 0.612 0.498 
0.196 0.0 0.424 0.376 
0.471 0.082 0.51 0.376 
0.361 0.376 0.439 0.498 
0.361 0.416 0.592 0.584 
0.529 0.082 0.592 0.584 
0.443 0.502 0.643 0.459 
0.557 0.208 0.663 0.584 
0.584 0.376 0.561 0.498 
0.694 0.333 0.643 0.541 
0.471 0.376 0.592 0.584 
0.333 0.169 0.475 0.416 
0.416 0.29 0.49 0.459 
0.306 0.416 0.592 0.584 
0.667 0.459 0.627 0.584 
0.361 0.416 0.525 0.498 
0.333 0.251 0.576 0.459 
0.416 0.251 0.51 0.459 
0.361 0.29 0.541 0.498 
0.388 0.376 0.541 0.498 
0.224 0.208 0.337 0.416 
0.584 0.502 0.592 0.584 
0.333 0.125 0.51 0.498 
0.388 0.333 0.592 0.498 
0.165 0.169 0.388 0.376 
0.251 0.29 0.49 0.541 
0.443 0.416 0.541 0.584 
0.498 0.376 0.627 0.541 
0.667 0.459 0.576 0.541 
0.416 0.29 0.525 0.376 
0.361 0.208 0.49 0.416 
0.498 0.333 0.51 0.498 
0.498 0.333 0.627 0.459 
0.639 0.416 0.576 0.541 
0.667 0.416 0.678 0.667 
0.388 0.251 0.424 0.376 
0.333 0.169 0.459 0.376 
0.471 0.29 0.694 0.624 
0.471 0.584 0.592 0.624 
0.557 0.125 0.576 0.498 
0.333 0.208 0.51 0.498 
0.498 0.416 0.612 0.541 
0.196 0.125 0.388 0.376 
0.388 0.416 0.541 0.459 
0.529 0.376 0.561 0.498 
0.388 0.333 0.525 0.498 
0.557 0.541 0.847 1.0 
0.776 0.416 0.831 0.831 
0.612 0.416 0.812 0.875 
0.165 0.208 0.592 0.667 
0.667 0.208 0.812 0.71 
0.612 0.502 0.694 0.792 
0.694 0.416 0.761 0.831 
0.416 0.333 0.694 0.957 
0.612 0.416 0.761 0.71 
0.945 0.251 1.0 0.918 
0.722 0.502 0.796 0.918 
0.945 0.333 0.965 0.792 
0.667 0.541 0.796 0.831 
0.529 0.333 0.643 0.71 
0.584 0.333 0.78 0.831 
0.863 0.333 0.863 0.749 
0.584 0.333 0.78 0.875 
0.498 0.251 0.78 0.541 
0.557 0.584 0.78 0.957 
0.471 0.416 0.643 0.71 
0.667 0.459 0.78 0.957 
0.416 0.29 0.694 0.749 
0.667 0.541 0.796 1.0 
0.557 0.208 0.678 0.749 
0.529 0.584 0.745 0.918 
0.416 0.29 0.694 0.749 
0.557 0.376 0.78 0.71 
0.918 0.416 0.949 0.831 
0.835 0.376 0.898 0.71 
0.804 0.667 0.863 1.0 
0.584 0.29 0.729 0.749 
0.388 0.208 0.678 0.792 
0.584 0.502 0.729 0.918 
0.945 0.749 0.965 0.875 
0.471 0.082 0.678 0.584 
0.361 0.333 0.663 0.792 
0.557 0.29 0.663 0.71 
0.804 0.502 0.847 0.71 
0.498 0.416 0.51 0.71 
0.804 0.416 0.812 0.624 
1.0 0.749 0.914 0.792 
0.557 0.333 0.694 0.584 
0.945 0.416 0.863 0.918 
0.584 0.459 0.761 0.71 
0.722 0.459 0.745 0.831 
0.722 0.459 0.694 0.918 
0.694 0.502 0.831 0.918 
0.667 0.416 0.714 0.918 
0.612 0.416 0.714 0.792 
0.443 0.416 0.694 0.71 
Teaching Patterns
1.0 0.0 0.0 
1.0 0.0 0.0 
1.0 0.0 0.0 
1.0 0.0 0.0 
1.0 0.0 0.0 
1.0 0.0 0.0 
1.0 0.0 0.0 
1.0 0.0 0.0 
1.0 0.0 0.0 
1.0 0.0 0.0 
1.0 0.0 0.0 
1.0 0.0 0.0 
1.0 0.0 0.0 
1.0 0.0 0.0 
1.0 0.0 0.0 
1.0 0.0 0.0 
1.0 0.0 0.0 
1.0 0.0 0.0 
1.0 0.0 0.0 
1.0 0.0 0.0 
1.0 0.0 0.0 
1.0 0.0 0.0 
1.0 0.0 0.0 
1.0 0.0 0.0 
1.0 0.0 0.0 
1.0 0.0 0.0 
1.0 0.0 0.0 
1.0 0.0 0.0 
1.0 0.0 0.0 
1.0 0.0 0.0 
1.0 0.0 0.0 
1.0 0.0 0.0 
1.0 0.0 0.0 
1.0 0.0 0.0 
1.0 0.0 0.0 
1.0 0.0 0.0 
1.0 0.0 0.0 
1.0 0.0 0.0 
1.0 0.0 0.0 
1.0 0.0 0.0 
1.0 0.0 0.0 
1.0 0.0 0.0 
1.0 0.0 0.0 
1.0 0.0 0.0 
1.0 0.0 0.0 
1.0 0.0 0.0 
1.0 0.0 0.0 
1.0 0.0 0.0 
1.0 0.0 0.0 
1.0 0.0 0.0 
0.0 1.0 0.0 
0.0 1.0 0.0 
0.0 1.0 0.0 
0.0 1.0 0.0 
0.0 1.0 0.0 
0.0 1.0 0.0 
0.0 1.0 0.0 
0.0 1.0 0.0 
0.0 1.0 0.0 
0.0 1.0 0.0 
0.0 1.0 0.0 
0.0 1.0 0.0 
0.0 1.0 0.0 
0.0 1.0 0.0 
0.0 1.0 0.0 
0.0 1.0 0.0 
0.0 1.0 0.0 
0.0 1.0 0.0 
0.0 1.0 0.0 
0.0 1.0 0.0 
0.0 1.0 0.0 
0.0 1.0 0.0 
0.0 1.0 0.0 
0.0 1.0 0.0 
0.0 1.0 0.0 
0.0 1.0 0.0 
0.0 1.0 0.0 
0.0 1.0 0.0 
0.0 1.0 0.0 
0.0 1.0 0.0 
0.0 1.0 0.0 
0.0 1.0 0.0 
0.0 1.0 0.0 
0.0 1.0 0.0 
0.0 1.0 0.0 
0.0 1.0 0.0 
0.0 1.0 0.0 
0.0 1.0 0.0 
0.0 1.0 0.0 
0.0 1.0 0.0 
0.0 1.0 0.0 
0.0 1.0 0.0 
0.0 1.0 0.0 
0.0 1.0 0.0 
0.0 1.0 0.0 
0.0 1.0 0.0 
0.0 1.0 0.0 
0.0 1.0 0.0 
0.0 1.0 0.0 
0.0 1.0 0.0 
0.0 0.0 1.0 
0.0 0.0 1.0 
0.0 0.0 1.0 
0.0 0.0 1.0 
0.0 0.0 1.0 
0.0 0.0 1.0 
0.0 0.0 1.0 
0.0 0.0 1.0 
0.0 0.0 1.0 
0.0 0.0 1.0 
0.0 0.0 1.0 
0.0 0.0 1.0 
0.0 0.0 1.0 
0.0 0.0 1.0 
0.0 0.0 1.0 
0.0 0.0 1.0 
0.0 0.0 1.0 
0.0 0.0 1.0 
0.0 0.0 1.0 
0.0 0.0 1.0 
0.0 0.0 1.0 
0.0 0.0 1.0 
0.0 0.0 1.0 
0.0 0.0 1.0 
0.0 0.0 1.0 
0.0 0.0 1.0 
0.0 0.0 1.0 
0.0 0.0 1.0 
0.0 0.0 1.0 
0.0 0.0 1.0 
0.0 0.0 1.0 
0.0 0.0 1.0 
0.0 0.0 1.0 
0.0 0.0 1.0 
0.0 0.0 1.0 
0.0 0.0 1.0 
0.0 0.0 1.0 
0.0 0.0 1.0 
0.0 0.0 1.0 
0.0 0.0 1.0 
0.0 0.0 1.0 
0.0 0.0 1.0 
0.0 0.0 1.0 
0.0 0.0 1.0 
0.0 0.0 1.0 
0.0 0.0 1.0 
0.0 0.0 1.0 
0.0 0.0 1.0 
0.0 0.0 1.0 
0.0 0.0 1.0 
Learning : 0.05
Momentum : 0.30000001192092896
Epoch: 100, Error: 0.08389492575262603
Epoch: 200, Error: 0.02794025569817099
Epoch: 300, Error: 0.018686202819642634
Epoch: 400, Error: 0.016083732011358775
Epoch: 500, Error: 0.014730642583310909
Epoch: 600, Error: 0.013995343406121626
Epoch: 700, Error: 0.013502238440935054
Epoch: 800, Error: 0.013152466902055304
Epoch: 900, Error: 0.01285102518331632
Epoch: 1000, Error: 0.012695926453656683
Epoch: 1100, Error: 0.012489763818883637
Epoch: 1200, Error: 0.012411338539579438
Epoch: 1300, Error: 0.01238643968672426
Epoch: 1400, Error: 0.012232118104692569
Epoch: 1500, Error: 0.012242236619193048
Epoch: 1600, Error: 0.012188168393118572
Epoch: 1700, Error: 0.012296314769616594
Epoch: 1800, Error: 0.012075810630664515
Epoch: 1900, Error: 0.012075184231000013
Epoch: 2000, Error: 0.012040085361241062
Epoch: 2100, Error: 0.012034425821890713
Epoch: 2200, Error: 0.012101381081565943
Epoch: 2300, Error: 0.012128814293403262
Epoch: 2400, Error: 0.012009606777076406
Epoch: 2500, Error: 0.012010650405968274
Epoch: 2600, Error: 0.012004153421054594
Epoch: 2700, Error: 0.012002788573463373
Epoch: 2800, Error: 0.011989321730283381
Epoch: 2900, Error: 0.011993546810247122
Epoch: 3000, Error: 0.012000722775164736
Epoch: 3100, Error: 0.0120277634453713
Epoch: 3200, Error: 0.011987955559336889
Epoch: 3300, Error: 0.011998597107869076
Epoch: 3400, Error: 0.01198828312641543
Epoch: 3500, Error: 0.011981319021289752
Epoch: 3600, Error: 0.011973873901181192
Epoch: 3700, Error: 0.011977244458150765
Epoch: 3800, Error: 0.011980974842131892
Epoch: 3900, Error: 0.012005515852451704
Epoch: 4000, Error: 0.012004070720836249
Epoch: 4100, Error: 0.011989244464580112
Epoch: 4200, Error: 0.01196823417202695
Epoch: 4300, Error: 0.01197755375691749
Epoch: 4400, Error: 0.011938993638470946
Epoch: 4500, Error: 0.011925776603657628
Epoch: 4600, Error: 0.011992763778171156
Epoch: 4700, Error: 0.011925025725764843
Epoch: 4800, Error: 0.011938090987638957
Epoch: 4900, Error: 0.011944794596911413
Epoch: 5000, Error: 0.01192000243676822
Epoch: 5100, Error: 0.011937064035319675
Epoch: 5200, Error: 0.011916085032508102
Epoch: 5300, Error: 0.012053933875651164
Epoch: 5400, Error: 0.011904534982661814
Epoch: 5500, Error: 0.01191780190914752
Epoch: 5600, Error: 0.012027392221447315
Epoch: 5700, Error: 0.011866944454060578
Epoch: 5800, Error: 0.011880885248667596
Epoch: 5900, Error: 0.011839602460681251
Epoch: 6000, Error: 0.011822024543921278
Epoch: 6100, Error: 0.011811199563794585
Epoch: 6200, Error: 0.011798851168110842
Epoch: 6300, Error: 0.011772215842458085
Epoch: 6400, Error: 0.01177038070176062
Epoch: 6500, Error: 0.011804811475705664
Epoch: 6600, Error: 0.011783467643191334
Epoch: 6700, Error: 0.011706621017324193
Epoch: 6800, Error: 0.011735807554464382
Epoch: 6900, Error: 0.01167686350227567
Epoch: 7000, Error: 0.01165712039683976
Epoch: 7100, Error: 0.011645757839042757
Epoch: 7200, Error: 0.011669826479654763
Epoch: 7300, Error: 0.01160818547971231
Epoch: 7400, Error: 0.011572963934783152
Epoch: 7500, Error: 0.011552958025110964
Epoch: 7600, Error: 0.011550104919864801
Epoch: 7700, Error: 0.011502796633983858
Epoch: 7800, Error: 0.0114814821427458
Epoch: 7900, Error: 0.01146386584202692
Epoch: 8000, Error: 0.011469207044052831
Epoch: 8100, Error: 0.011414353330012235
Epoch: 8200, Error: 0.0114061195134319
Epoch: 8300, Error: 0.01138213729270213
Epoch: 8400, Error: 0.011342280187595812
Epoch: 8500, Error: 0.011302454182699675
Epoch: 8600, Error: 0.011262874090473473
Epoch: 8700, Error: 0.011219495815183672
Epoch: 8800, Error: 0.011203738836648654
Epoch: 8900, Error: 0.011187674179805734
Epoch: 9000, Error: 0.011087996794624303
Epoch: 9100, Error: 0.011050213397271615
Epoch: 9200, Error: 0.010979482404109423
Epoch: 9300, Error: 0.010935967069549362
Epoch: 9400, Error: 0.010883182775016847
Epoch: 9500, Error: 0.01082952358898511
Epoch: 9600, Error: 0.010747342166256477
Epoch: 9700, Error: 0.01069818154028793
Epoch: 9800, Error: 0.010613855832424291
Epoch: 9900, Error: 0.010562220508179015
Epoch: 10000, Error: 0.010466714136749551
Epoch: 10100, Error: 0.010389583879795522
Epoch: 10200, Error: 0.010297481801480936
Epoch: 10300, Error: 0.01023741685197438
Epoch: 10400, Error: 0.010143200598735804
Epoch: 10500, Error: 0.010054133046783207
Epoch: 10600, Error: 0.00996218766118998
Epoch: 10700, Error: 0.009869857878865964
Epoch: 10800, Error: 0.009795020371300306
Epoch: 10900, Error: 0.009699606708539909
Epoch: 11000, Error: 0.009582892616890026
Epoch: 11100, Error: 0.0094894073583693
Epoch: 11200, Error: 0.009396507889678883
Epoch: 11300, Error: 0.009318134076801687
Epoch: 11400, Error: 0.009202947456334258
Epoch: 11500, Error: 0.009114939668607743
Epoch: 11600, Error: 0.009010053820655908
Epoch: 11700, Error: 0.008911101691516177
Epoch: 11800, Error: 0.008839177909303162
Epoch: 11900, Error: 0.00872837294434903
Epoch: 12000, Error: 0.008635435069396041
Epoch: 12100, Error: 0.008549707980137636
Epoch: 12200, Error: 0.008448330691104816
Epoch: 12300, Error: 0.008356990113769286
Epoch: 12400, Error: 0.008277776892213496
Epoch: 12500, Error: 0.008177927223726619
Epoch: 12600, Error: 0.008088671112390282
Epoch: 12700, Error: 0.008028248823190596
Epoch: 12800, Error: 0.007923374923877662
Epoch: 12900, Error: 0.007855083476188846
Epoch: 13000, Error: 0.00778286570725327
Epoch: 13100, Error: 0.007700609010609796
Epoch: 13200, Error: 0.007625968347639893
Epoch: 13300, Error: 0.007588542347461445
Epoch: 13400, Error: 0.007509756528896285
Epoch: 13500, Error: 0.0074365461665566535
Epoch: 13600, Error: 0.007364374790346917
Epoch: 13700, Error: 0.00732561248075697
Epoch: 13800, Error: 0.007247472851923224
Epoch: 13900, Error: 0.007202756185729743
Epoch: 14000, Error: 0.007158569145811514
Epoch: 14100, Error: 0.007097150328809656
Epoch: 14200, Error: 0.007040516802847029
Epoch: 14300, Error: 0.006988856659174349
Epoch: 14400, Error: 0.006930687637470344
Epoch: 14500, Error: 0.0068794868336158645
Epoch: 14600, Error: 0.006830050422878056
Epoch: 14700, Error: 0.006786430635916649
Epoch: 14800, Error: 0.006751374706238858
Epoch: 14900, Error: 0.006719326230542286
Epoch: 15000, Error: 0.00669531369408022
Epoch: 15100, Error: 0.006681007732136219
Epoch: 15200, Error: 0.006653268535533782
Epoch: 15300, Error: 0.006648410277004184
Epoch: 15400, Error: 0.00663495637164554
Epoch: 15500, Error: 0.006610856478006115
Epoch: 15600, Error: 0.006587386358386968
Epoch: 15700, Error: 0.006582444294242858
Epoch: 15800, Error: 0.00655433233514606
Epoch: 15900, Error: 0.006530150361625692
Epoch: 16000, Error: 0.0065000661078189826
Epoch: 16100, Error: 0.006487475662643632
Epoch: 16200, Error: 0.00646511238406318
Epoch: 16300, Error: 0.00642584916586284
Epoch: 16400, Error: 0.0064030197587005245
Epoch: 16500, Error: 0.00637700187110001
Epoch: 16600, Error: 0.006354221658262146
Epoch: 16700, Error: 0.0063321752611177765
Epoch: 16800, Error: 0.006310769031476503
Epoch: 16900, Error: 0.006288344244080936
Epoch: 17000, Error: 0.006275540427161987
Epoch: 17100, Error: 0.00624861491523626
Epoch: 17200, Error: 0.006241665993731745
Epoch: 17300, Error: 0.006211482693346495
Epoch: 17400, Error: 0.006185756643004178
Epoch: 17500, Error: 0.00616151914839966
Epoch: 17600, Error: 0.006146156017118076
Epoch: 17700, Error: 0.006128919523243835
Epoch: 17800, Error: 0.006097975377948116
Epoch: 17900, Error: 0.006071318454213201
Epoch: 18000, Error: 0.006055016512939134
Epoch: 18100, Error: 0.006020536673545812
Epoch: 18200, Error: 0.005988287298657549
Epoch: 18300, Error: 0.005966928175785795
Epoch: 18400, Error: 0.005940708055191188
Epoch: 18500, Error: 0.005913645001004372
Epoch: 18600, Error: 0.005894492411448694
Epoch: 18700, Error: 0.00586639409489614
Epoch: 18800, Error: 0.005858664367460715
Epoch: 18900, Error: 0.005805540439223835
Epoch: 19000, Error: 0.005774721231636408
Epoch: 19100, Error: 0.005744395064833316
Epoch: 19200, Error: 0.005722937998850555
Epoch: 19300, Error: 0.005725145586828782
Epoch: 19400, Error: 0.005671885297225714
Epoch: 19500, Error: 0.005647224541707587
Epoch: 19600, Error: 0.005628183980656045
Epoch: 19700, Error: 0.00562591868129738
Epoch: 19800, Error: 0.005587515180331187
Epoch: 19900, Error: 0.005568369309602961
Epoch: 20000, Error: 0.005571546473336633
Epoch: 20100, Error: 0.005539569837219927
Epoch: 20200, Error: 0.0055116188250289135
Epoch: 20300, Error: 0.005506916736352596
Epoch: 20400, Error: 0.0054672622143494285
Epoch: 20500, Error: 0.005445908244166485
Epoch: 20600, Error: 0.00541855423911807
Epoch: 20700, Error: 0.005386005309891272
Epoch: 20800, Error: 0.005354467474091909
Epoch: 20900, Error: 0.005332308632354696
Epoch: 21000, Error: 0.005347345978406094
Epoch: 21100, Error: 0.005253152237452288
Epoch: 21200, Error: 0.005229226734398676
Epoch: 21300, Error: 0.005215714834220592
Epoch: 21400, Error: 0.005197118883549322
Epoch: 21500, Error: 0.005185287536131857
Epoch: 21600, Error: 0.005161525456633091
Epoch: 21700, Error: 0.0051310443438642
Epoch: 21800, Error: 0.005112842190446341
Epoch: 21900, Error: 0.005101797541182177
Epoch: 22000, Error: 0.005070642118081906
Epoch: 22100, Error: 0.005050470208274707
Epoch: 22200, Error: 0.0050378745907743135
Epoch: 22300, Error: 0.00501887230201296
Epoch: 22400, Error: 0.005000482311319856
Epoch: 22500, Error: 0.004972052683823598
Epoch: 22600, Error: 0.004947991107055017
Epoch: 22700, Error: 0.004929062474955229
Epoch: 22800, Error: 0.004902089696648157
Epoch: 22900, Error: 0.004917425406985834
Epoch: 23000, Error: 0.004878920998895288
Epoch: 23100, Error: 0.004833374575882489
Epoch: 23200, Error: 0.0048132727210954684
Epoch: 23300, Error: 0.0047940898361390465
Epoch: 23400, Error: 0.0047667240696195635
Epoch: 23500, Error: 0.004739230111307792
Epoch: 23600, Error: 0.004707346534990383
Epoch: 23700, Error: 0.004684724556307496
Epoch: 23800, Error: 0.004674123204630806
Epoch: 23900, Error: 0.004635650305218371
Epoch: 24000, Error: 0.00461130939868309
Epoch: 24100, Error: 0.004590932115245177
Epoch: 24200, Error: 0.004581828320165555
Epoch: 24300, Error: 0.004534469923815305
Epoch: 24400, Error: 0.004550306620614486
Epoch: 24500, Error: 0.004489468283311169
Epoch: 24600, Error: 0.004473878369021298
Epoch: 24700, Error: 0.004445367188489877
Epoch: 24800, Error: 0.00444193298851652
Epoch: 24900, Error: 0.004403861957427821
Epoch: 25000, Error: 0.004383866051091664
Epoch: 25100, Error: 0.004379998599381796
Epoch: 25200, Error: 0.004356091928218073
Epoch: 25300, Error: 0.004316380736380273
Epoch: 25400, Error: 0.004326876710445231
Epoch: 25500, Error: 0.004268034702086088
Epoch: 25600, Error: 0.004297858820009193
Epoch: 25700, Error: 0.004222759656313865
Epoch: 25800, Error: 0.00419961171768763
Epoch: 25900, Error: 0.004194268401445906
Epoch: 26000, Error: 0.004175945264983471
Epoch: 26100, Error: 0.004182322919579071
Epoch: 26200, Error: 0.004112421257387576
Epoch: 26300, Error: 0.004086230832257547
Epoch: 26400, Error: 0.0040700522104520276
Epoch: 26500, Error: 0.004047233915931304
Epoch: 26600, Error: 0.004019970112853009
Epoch: 26700, Error: 0.004036645051982462
Epoch: 26800, Error: 0.0040891403946877935
Epoch: 26900, Error: 0.0039557268584029534
Epoch: 27000, Error: 0.003926353808740357
Epoch: 27100, Error: 0.0039027016029784733
Epoch: 27200, Error: 0.003909094446488095
Epoch: 27300, Error: 0.003902582849892171
Epoch: 27400, Error: 0.0038680483715041653
Epoch: 27500, Error: 0.0038745972094097973
Epoch: 27600, Error: 0.0037956048476100114
Epoch: 27700, Error: 0.003771706430452868
Epoch: 27800, Error: 0.0038032039997075405
Epoch: 27900, Error: 0.0037306556421172984
Epoch: 28000, Error: 0.003728331054036414
Epoch: 28100, Error: 0.0037419435105556886
Epoch: 28200, Error: 0.0036775925461517344
Epoch: 28300, Error: 0.0036595881431003854
Epoch: 28400, Error: 0.0036186171330102944
Epoch: 28500, Error: 0.0035954822912721575
Epoch: 28600, Error: 0.0035719850725942776
Epoch: 28700, Error: 0.0035480737846150384
Epoch: 28800, Error: 0.0035263443539640953
Epoch: 28900, Error: 0.0035314227284352615
Epoch: 29000, Error: 0.0034762498450820623
Epoch: 29100, Error: 0.0034502649665304618
Epoch: 29200, Error: 0.0034260932535796857
Epoch: 29300, Error: 0.003419128927293704
Epoch: 29400, Error: 0.0033784352738294473
Epoch: 29500, Error: 0.0033681641295513114
Epoch: 29600, Error: 0.0033398933326138306
Epoch: 29700, Error: 0.0033878598892147847
Epoch: 29800, Error: 0.003339904600159367
Epoch: 29900, Error: 0.0032798423505394124
Epoch: 30000, Error: 0.0032703449862857056
Epoch: 30100, Error: 0.003248688986137239
Epoch: 30200, Error: 0.003232661499900233
Epoch: 30300, Error: 0.0031845050484365766
Epoch: 30400, Error: 0.0031882045139299186
Epoch: 30500, Error: 0.003152715320369519
Epoch: 30600, Error: 0.0032032695829847715
Epoch: 30700, Error: 0.003099292623149344
Epoch: 30800, Error: 0.0031438312007932897
Epoch: 30900, Error: 0.00307780743374995
Epoch: 31000, Error: 0.0030551404900253675
Epoch: 31100, Error: 0.0030378661383394633
Epoch: 31200, Error: 0.003003371723857842
Epoch: 31300, Error: 0.002996450231662933
Epoch: 31400, Error: 0.00298373172931494
Epoch: 31500, Error: 0.0029498516740619233
Epoch: 31600, Error: 0.0029748787927953877
Epoch: 31700, Error: 0.0029863448923308686
Epoch: 31800, Error: 0.002979144034525021
Epoch: 31900, Error: 0.002896748998688773
Epoch: 32000, Error: 0.002891070452042181
Epoch: 32100, Error: 0.002928859707057208
Epoch: 32200, Error: 0.0028537577071862164
Epoch: 32300, Error: 0.0028364956853525764
Epoch: 32400, Error: 0.002896076153969305
Epoch: 32500, Error: 0.002859792904196069
Epoch: 32600, Error: 0.0027914773259326148
Epoch: 32700, Error: 0.002836329335702835
Epoch: 32800, Error: 0.00277751964143619
Epoch: 32900, Error: 0.002775849869460546
Epoch: 33000, Error: 0.0027782852790118684
Epoch: 33100, Error: 0.0027303038998196523
Epoch: 33200, Error: 0.002733615389872186
Epoch: 33300, Error: 0.0026952635999942225
Epoch: 33400, Error: 0.002642018470825097
Epoch: 33500, Error: 0.002657504163481549
Epoch: 33600, Error: 0.002673092322769754
Epoch: 33700, Error: 0.0026069899097442457
Epoch: 33800, Error: 0.0026351214303826993
Epoch: 33900, Error: 0.002652277467536096
Epoch: 34000, Error: 0.002570540951663829
Epoch: 34100, Error: 0.002538234053537041
Epoch: 34200, Error: 0.002551759911595624
Epoch: 34300, Error: 0.002524914274362169
Epoch: 34400, Error: 0.0025645094954747922
Epoch: 34500, Error: 0.0024842576900194814
Epoch: 34600, Error: 0.0024689253610763917
Epoch: 34700, Error: 0.0024538485347268516
Epoch: 34800, Error: 0.0024658879202324696
Epoch: 34900, Error: 0.0024365028040076375
Epoch: 35000, Error: 0.0024587247339280236
Epoch: 35100, Error: 0.002458571461591374
Epoch: 35200, Error: 0.0024038837753470447
Epoch: 35300, Error: 0.0023978336389689275
Epoch: 35400, Error: 0.0023842562679065884
Epoch: 35500, Error: 0.0023700657655091623
Epoch: 35600, Error: 0.0023569353806802327
Epoch: 35700, Error: 0.002335845712199892
Epoch: 35800, Error: 0.0023110627532970016
Epoch: 35900, Error: 0.002309563268454297
Epoch: 36000, Error: 0.0023060839063698104
Epoch: 36100, Error: 0.0023468065086591503
Epoch: 36200, Error: 0.0022966530205730724
Epoch: 36300, Error: 0.00225597122788944
Epoch: 36400, Error: 0.002229136881855379
Epoch: 36500, Error: 0.0022299686988330766
Epoch: 36600, Error: 0.0022178142201995654
Epoch: 36700, Error: 0.002195293115436022
Epoch: 36800, Error: 0.002178190476964918
Epoch: 36900, Error: 0.0021635425967637383
Epoch: 37000, Error: 0.0021986289123394165
Epoch: 37100, Error: 0.0022256171308391516
Epoch: 37200, Error: 0.002129332336070749
Epoch: 37300, Error: 0.0021826387262052394
Epoch: 37400, Error: 0.0021257921130661515
Epoch: 37500, Error: 0.0021011391366504467
Epoch: 37600, Error: 0.002085178444874354
Epoch: 37700, Error: 0.0020686603865983522
Epoch: 37800, Error: 0.0020635553749316885
Epoch: 37900, Error: 0.0020526385175985585
Epoch: 38000, Error: 0.0020450519903726537
Epoch: 38100, Error: 0.0020586903028353668
Epoch: 38200, Error: 0.0020560163922306984
Epoch: 38300, Error: 0.0020543256662725567
Epoch: 38400, Error: 0.002032620974630776
Epoch: 38500, Error: 0.002018595916031662
Epoch: 38600, Error: 0.0020092193192370192
Finished
