Input Patterns
0.224 0.624 0.067 0.043 
0.11 0.502 0.051 0.043 
0.196 0.667 0.067 0.043 
0.055 0.584 0.067 0.082 
0.027 0.376 0.067 0.043 
0.306 0.71 0.086 0.043 
0.137 0.416 0.067 0.0 
0.416 0.831 0.035 0.043 
0.306 0.792 0.051 0.125 
0.388 0.749 0.118 0.082 
0.306 0.584 0.118 0.043 
0.082 0.667 0.0 0.043 
0.137 0.584 0.153 0.043 
0.196 0.584 0.102 0.125 
0.251 0.584 0.067 0.043 
0.137 0.459 0.102 0.043 
0.251 0.875 0.086 0.0 
0.165 0.459 0.086 0.043 
0.333 0.624 0.051 0.043 
0.027 0.416 0.051 0.043 
0.196 0.624 0.051 0.082 
0.027 0.502 0.051 0.043 
0.224 0.749 0.153 0.125 
0.224 0.749 0.102 0.043 
0.278 0.71 0.086 0.043 
0.165 0.416 0.067 0.043 
0.082 0.459 0.086 0.043 
0.306 0.792 0.118 0.125 
0.196 0.584 0.086 0.043 
0.165 0.459 0.086 0.0 
0.137 0.584 0.102 0.043 
0.0 0.416 0.016 0.0 
0.388 1.0 0.086 0.125 
0.224 0.624 0.067 0.082 
0.224 0.749 0.086 0.082 
0.224 0.71 0.086 0.125 
0.224 0.541 0.118 0.165 
0.196 0.416 0.102 0.043 
0.251 0.624 0.086 0.043 
0.11 0.502 0.102 0.043 
0.306 0.584 0.086 0.125 
0.333 0.918 0.067 0.043 
0.196 0.502 0.035 0.043 
0.165 0.667 0.067 0.0 
0.224 0.584 0.086 0.043 
0.055 0.125 0.051 0.082 
0.196 0.624 0.102 0.208 
0.137 0.416 0.067 0.082 
0.082 0.502 0.067 0.043 
0.196 0.541 0.067 0.043 
0.749 0.502 0.627 0.541 
0.722 0.459 0.663 0.584 
0.612 0.333 0.612 0.584 
0.557 0.541 0.627 0.624 
0.639 0.376 0.612 0.498 
0.196 0.0 0.424 0.376 
0.471 0.082 0.51 0.376 
0.361 0.376 0.439 0.498 
0.361 0.416 0.592 0.584 
0.529 0.082 0.592 0.584 
0.443 0.502 0.643 0.459 
0.557 0.208 0.663 0.584 
0.584 0.376 0.561 0.498 
0.694 0.333 0.643 0.541 
0.471 0.376 0.592 0.584 
0.333 0.169 0.475 0.416 
0.416 0.29 0.49 0.459 
0.306 0.416 0.592 0.584 
0.667 0.459 0.627 0.584 
0.361 0.416 0.525 0.498 
0.333 0.251 0.576 0.459 
0.416 0.251 0.51 0.459 
0.361 0.29 0.541 0.498 
0.388 0.376 0.541 0.498 
0.224 0.208 0.337 0.416 
0.584 0.502 0.592 0.584 
0.333 0.125 0.51 0.498 
0.388 0.333 0.592 0.498 
0.165 0.169 0.388 0.376 
0.251 0.29 0.49 0.541 
0.443 0.416 0.541 0.584 
0.498 0.376 0.627 0.541 
0.667 0.459 0.576 0.541 
0.416 0.29 0.525 0.376 
0.361 0.208 0.49 0.416 
0.498 0.333 0.51 0.498 
0.498 0.333 0.627 0.459 
0.639 0.416 0.576 0.541 
0.667 0.416 0.678 0.667 
0.388 0.251 0.424 0.376 
0.333 0.169 0.459 0.376 
0.471 0.29 0.694 0.624 
0.471 0.584 0.592 0.624 
0.557 0.125 0.576 0.498 
0.333 0.208 0.51 0.498 
0.498 0.416 0.612 0.541 
0.196 0.125 0.388 0.376 
0.388 0.416 0.541 0.459 
0.529 0.376 0.561 0.498 
0.388 0.333 0.525 0.498 
0.557 0.541 0.847 1.0 
0.776 0.416 0.831 0.831 
0.612 0.416 0.812 0.875 
0.165 0.208 0.592 0.667 
0.667 0.208 0.812 0.71 
0.612 0.502 0.694 0.792 
0.694 0.416 0.761 0.831 
0.416 0.333 0.694 0.957 
0.612 0.416 0.761 0.71 
0.945 0.251 1.0 0.918 
0.722 0.502 0.796 0.918 
0.945 0.333 0.965 0.792 
0.667 0.541 0.796 0.831 
0.529 0.333 0.643 0.71 
0.584 0.333 0.78 0.831 
0.863 0.333 0.863 0.749 
0.584 0.333 0.78 0.875 
0.498 0.251 0.78 0.541 
0.557 0.584 0.78 0.957 
0.471 0.416 0.643 0.71 
0.667 0.459 0.78 0.957 
0.416 0.29 0.694 0.749 
0.667 0.541 0.796 1.0 
0.557 0.208 0.678 0.749 
0.529 0.584 0.745 0.918 
0.416 0.29 0.694 0.749 
0.557 0.376 0.78 0.71 
0.918 0.416 0.949 0.831 
0.835 0.376 0.898 0.71 
0.804 0.667 0.863 1.0 
0.584 0.29 0.729 0.749 
0.388 0.208 0.678 0.792 
0.584 0.502 0.729 0.918 
0.945 0.749 0.965 0.875 
0.471 0.082 0.678 0.584 
0.361 0.333 0.663 0.792 
0.557 0.29 0.663 0.71 
0.804 0.502 0.847 0.71 
0.498 0.416 0.51 0.71 
0.804 0.416 0.812 0.624 
1.0 0.749 0.914 0.792 
0.557 0.333 0.694 0.584 
0.945 0.416 0.863 0.918 
0.584 0.459 0.761 0.71 
0.722 0.459 0.745 0.831 
0.722 0.459 0.694 0.918 
0.694 0.502 0.831 0.918 
0.667 0.416 0.714 0.918 
0.612 0.416 0.714 0.792 
0.443 0.416 0.694 0.71 
Teaching Patterns
1.0 0.0 0.0 
1.0 0.0 0.0 
1.0 0.0 0.0 
1.0 0.0 0.0 
1.0 0.0 0.0 
1.0 0.0 0.0 
1.0 0.0 0.0 
1.0 0.0 0.0 
1.0 0.0 0.0 
1.0 0.0 0.0 
1.0 0.0 0.0 
1.0 0.0 0.0 
1.0 0.0 0.0 
1.0 0.0 0.0 
1.0 0.0 0.0 
1.0 0.0 0.0 
1.0 0.0 0.0 
1.0 0.0 0.0 
1.0 0.0 0.0 
1.0 0.0 0.0 
1.0 0.0 0.0 
1.0 0.0 0.0 
1.0 0.0 0.0 
1.0 0.0 0.0 
1.0 0.0 0.0 
1.0 0.0 0.0 
1.0 0.0 0.0 
1.0 0.0 0.0 
1.0 0.0 0.0 
1.0 0.0 0.0 
1.0 0.0 0.0 
1.0 0.0 0.0 
1.0 0.0 0.0 
1.0 0.0 0.0 
1.0 0.0 0.0 
1.0 0.0 0.0 
1.0 0.0 0.0 
1.0 0.0 0.0 
1.0 0.0 0.0 
1.0 0.0 0.0 
1.0 0.0 0.0 
1.0 0.0 0.0 
1.0 0.0 0.0 
1.0 0.0 0.0 
1.0 0.0 0.0 
1.0 0.0 0.0 
1.0 0.0 0.0 
1.0 0.0 0.0 
1.0 0.0 0.0 
1.0 0.0 0.0 
0.0 1.0 0.0 
0.0 1.0 0.0 
0.0 1.0 0.0 
0.0 1.0 0.0 
0.0 1.0 0.0 
0.0 1.0 0.0 
0.0 1.0 0.0 
0.0 1.0 0.0 
0.0 1.0 0.0 
0.0 1.0 0.0 
0.0 1.0 0.0 
0.0 1.0 0.0 
0.0 1.0 0.0 
0.0 1.0 0.0 
0.0 1.0 0.0 
0.0 1.0 0.0 
0.0 1.0 0.0 
0.0 1.0 0.0 
0.0 1.0 0.0 
0.0 1.0 0.0 
0.0 1.0 0.0 
0.0 1.0 0.0 
0.0 1.0 0.0 
0.0 1.0 0.0 
0.0 1.0 0.0 
0.0 1.0 0.0 
0.0 1.0 0.0 
0.0 1.0 0.0 
0.0 1.0 0.0 
0.0 1.0 0.0 
0.0 1.0 0.0 
0.0 1.0 0.0 
0.0 1.0 0.0 
0.0 1.0 0.0 
0.0 1.0 0.0 
0.0 1.0 0.0 
0.0 1.0 0.0 
0.0 1.0 0.0 
0.0 1.0 0.0 
0.0 1.0 0.0 
0.0 1.0 0.0 
0.0 1.0 0.0 
0.0 1.0 0.0 
0.0 1.0 0.0 
0.0 1.0 0.0 
0.0 1.0 0.0 
0.0 1.0 0.0 
0.0 1.0 0.0 
0.0 1.0 0.0 
0.0 1.0 0.0 
0.0 0.0 1.0 
0.0 0.0 1.0 
0.0 0.0 1.0 
0.0 0.0 1.0 
0.0 0.0 1.0 
0.0 0.0 1.0 
0.0 0.0 1.0 
0.0 0.0 1.0 
0.0 0.0 1.0 
0.0 0.0 1.0 
0.0 0.0 1.0 
0.0 0.0 1.0 
0.0 0.0 1.0 
0.0 0.0 1.0 
0.0 0.0 1.0 
0.0 0.0 1.0 
0.0 0.0 1.0 
0.0 0.0 1.0 
0.0 0.0 1.0 
0.0 0.0 1.0 
0.0 0.0 1.0 
0.0 0.0 1.0 
0.0 0.0 1.0 
0.0 0.0 1.0 
0.0 0.0 1.0 
0.0 0.0 1.0 
0.0 0.0 1.0 
0.0 0.0 1.0 
0.0 0.0 1.0 
0.0 0.0 1.0 
0.0 0.0 1.0 
0.0 0.0 1.0 
0.0 0.0 1.0 
0.0 0.0 1.0 
0.0 0.0 1.0 
0.0 0.0 1.0 
0.0 0.0 1.0 
0.0 0.0 1.0 
0.0 0.0 1.0 
0.0 0.0 1.0 
0.0 0.0 1.0 
0.0 0.0 1.0 
0.0 0.0 1.0 
0.0 0.0 1.0 
0.0 0.0 1.0 
0.0 0.0 1.0 
0.0 0.0 1.0 
0.0 0.0 1.0 
0.0 0.0 1.0 
0.0 0.0 1.0 
Learning : 0.05
Momentum : 0.30000001192092896
Epoch: 100, Error: 0.08943704019448491
Epoch: 200, Error: 0.03462662806942524
Epoch: 300, Error: 0.02053157368945812
Epoch: 400, Error: 0.017171979414298044
Epoch: 500, Error: 0.015526780914169659
Epoch: 600, Error: 0.014622726645514844
Epoch: 700, Error: 0.014042392605570608
Epoch: 800, Error: 0.013648277556152121
Epoch: 900, Error: 0.013370579744139431
Epoch: 1000, Error: 0.013157781982180428
Epoch: 1100, Error: 0.013031104136471652
Epoch: 1200, Error: 0.01287964855750683
Epoch: 1300, Error: 0.012755018218490026
Epoch: 1400, Error: 0.012609914325247697
Epoch: 1500, Error: 0.012534702311656386
Epoch: 1600, Error: 0.012501514430885657
Epoch: 1700, Error: 0.012475034250344536
Epoch: 1800, Error: 0.012348473566767241
Epoch: 1900, Error: 0.012320890959513532
Epoch: 2000, Error: 0.012331128928433228
Epoch: 2100, Error: 0.01222474992287412
Epoch: 2200, Error: 0.012261282864482064
Epoch: 2300, Error: 0.012166868349236474
Epoch: 2400, Error: 0.012192556826480164
Epoch: 2500, Error: 0.012264746457905937
Epoch: 2600, Error: 0.012173632177479904
Epoch: 2700, Error: 0.01212726635370544
Epoch: 2800, Error: 0.01207295743190973
Epoch: 2900, Error: 0.012069189047192423
Epoch: 3000, Error: 0.012055264160795292
Epoch: 3100, Error: 0.012058148622009837
Epoch: 3200, Error: 0.012077348901168343
Epoch: 3300, Error: 0.012032059316591842
Epoch: 3400, Error: 0.012027786356223211
Epoch: 3500, Error: 0.01203410208294204
Epoch: 3600, Error: 0.012012284461861034
Epoch: 3700, Error: 0.012011616597712344
Epoch: 3800, Error: 0.011980786643140319
Epoch: 3900, Error: 0.011993265440443076
Epoch: 4000, Error: 0.011991475118902223
Epoch: 4100, Error: 0.012006511134315796
Epoch: 4200, Error: 0.011994079120836438
Epoch: 4300, Error: 0.011962465179122653
Epoch: 4400, Error: 0.011982613826959554
Epoch: 4500, Error: 0.011980100194483674
Epoch: 4600, Error: 0.011980047024466875
Epoch: 4700, Error: 0.012072981585307632
Epoch: 4800, Error: 0.01195026817468022
Epoch: 4900, Error: 0.011925163558557147
Epoch: 5000, Error: 0.0119245102738907
Epoch: 5100, Error: 0.011944528310711713
Epoch: 5200, Error: 0.011939034379013417
Epoch: 5300, Error: 0.011947603069616718
Epoch: 5400, Error: 0.01193296931001082
Epoch: 5500, Error: 0.012042173119776617
Epoch: 5600, Error: 0.01189861685162572
Epoch: 5700, Error: 0.01189704103255798
Epoch: 5800, Error: 0.011876643229307558
Epoch: 5900, Error: 0.011996359649334081
Epoch: 6000, Error: 0.011873172046459558
Epoch: 6100, Error: 0.011880481135538296
Epoch: 6200, Error: 0.01189169568842304
Epoch: 6300, Error: 0.011874110359554704
Epoch: 6400, Error: 0.011858537185017866
Epoch: 6500, Error: 0.011845721410718364
Epoch: 6600, Error: 0.011813243045774031
Epoch: 6700, Error: 0.011806725307299475
Epoch: 6800, Error: 0.011811035231683573
Epoch: 6900, Error: 0.011793214800108172
Epoch: 7000, Error: 0.011773251419201623
Epoch: 7100, Error: 0.01177688028056061
Epoch: 7200, Error: 0.011827479912337766
Epoch: 7300, Error: 0.011744845929509196
Epoch: 7400, Error: 0.011742598295298586
Epoch: 7500, Error: 0.011731287251117226
Epoch: 7600, Error: 0.011718970081569276
Epoch: 7700, Error: 0.011709684534743836
Epoch: 7800, Error: 0.011691349332089845
Epoch: 7900, Error: 0.011695753528745632
Epoch: 8000, Error: 0.011678714982935967
Epoch: 8100, Error: 0.011670255032508398
Epoch: 8200, Error: 0.011701022947499598
Epoch: 8300, Error: 0.011654707261332603
Epoch: 8400, Error: 0.01165115356161107
Epoch: 8500, Error: 0.01163562617531091
Epoch: 8600, Error: 0.011624897403312238
Epoch: 8700, Error: 0.011611282453088389
Epoch: 8800, Error: 0.01160708191643496
Epoch: 8900, Error: 0.011616441205934426
Epoch: 9000, Error: 0.011593098110479686
Epoch: 9100, Error: 0.011588951211037226
Epoch: 9200, Error: 0.011577471820803455
Epoch: 9300, Error: 0.011587481648994239
Epoch: 9400, Error: 0.011562712206557683
Epoch: 9500, Error: 0.011581083603564928
Epoch: 9600, Error: 0.011536334492176267
Epoch: 9700, Error: 0.011524675359419928
Epoch: 9800, Error: 0.011507691927438916
Epoch: 9900, Error: 0.01150079675457375
Epoch: 10000, Error: 0.011489104066474992
Epoch: 10100, Error: 0.011487619832482204
Epoch: 10200, Error: 0.011507229171662173
Epoch: 10300, Error: 0.011457387965198278
Epoch: 10400, Error: 0.011530403250721957
Epoch: 10500, Error: 0.011437396183936533
Epoch: 10600, Error: 0.011420747768486762
Epoch: 10700, Error: 0.011448089884604532
Epoch: 10800, Error: 0.01139835677608572
Epoch: 10900, Error: 0.011393810077628101
Epoch: 11000, Error: 0.011371309277312771
Epoch: 11100, Error: 0.0113589915572262
Epoch: 11200, Error: 0.011338211617157147
Epoch: 11300, Error: 0.011325221029427268
Epoch: 11400, Error: 0.011381559164781636
Epoch: 11500, Error: 0.011285288689755443
Epoch: 11600, Error: 0.011275623018694543
Epoch: 11700, Error: 0.011264755381012128
Epoch: 11800, Error: 0.01121421129052079
Epoch: 11900, Error: 0.01118150637522718
Epoch: 12000, Error: 0.011182872135277274
Epoch: 12100, Error: 0.011130919046842923
Epoch: 12200, Error: 0.011111611062170993
Epoch: 12300, Error: 0.01111377904423244
Epoch: 12400, Error: 0.011046861968429009
Epoch: 12500, Error: 0.011021246895674963
Epoch: 12600, Error: 0.011022722722518948
Epoch: 12700, Error: 0.010954451019906853
Epoch: 12800, Error: 0.01090859134414666
Epoch: 12900, Error: 0.010883568779393024
Epoch: 13000, Error: 0.010833316769844448
Epoch: 13100, Error: 0.010801336405233931
Epoch: 13200, Error: 0.010763216927410925
Epoch: 13300, Error: 0.010718354212696733
Epoch: 13400, Error: 0.010685414483652301
Epoch: 13500, Error: 0.010628313542654515
Epoch: 13600, Error: 0.01059209342247923
Epoch: 13700, Error: 0.010556900178467145
Epoch: 13800, Error: 0.010507462244460414
Epoch: 13900, Error: 0.010470646938189176
Epoch: 14000, Error: 0.010424860688588678
Epoch: 14100, Error: 0.01038087233551377
Epoch: 14200, Error: 0.010342055142540158
Epoch: 14300, Error: 0.010280501518691988
Epoch: 14400, Error: 0.010235544184999858
Epoch: 14500, Error: 0.010171689822802005
Epoch: 14600, Error: 0.010127778170558824
Epoch: 14700, Error: 0.010043189805964158
Epoch: 14800, Error: 0.010001235520669288
Epoch: 14900, Error: 0.009979783757746377
Epoch: 15000, Error: 0.009868133994701914
Epoch: 15100, Error: 0.00982356363098149
Epoch: 15200, Error: 0.009723676074298245
Epoch: 15300, Error: 0.009665701533942223
Epoch: 15400, Error: 0.009613042216531847
Epoch: 15500, Error: 0.00960072001686194
Epoch: 15600, Error: 0.00948119685179676
Epoch: 15700, Error: 0.009420416532911015
Epoch: 15800, Error: 0.009355331575654297
Epoch: 15900, Error: 0.009294370399732365
Epoch: 16000, Error: 0.009232235421135264
Epoch: 16100, Error: 0.00917529386926829
Epoch: 16200, Error: 0.009122212681261996
Epoch: 16300, Error: 0.009078753686527625
Epoch: 16400, Error: 0.009041477852101354
Epoch: 16500, Error: 0.008953247714884075
Epoch: 16600, Error: 0.008893378953069105
Epoch: 16700, Error: 0.00883226382252217
Epoch: 16800, Error: 0.00877197634075395
Epoch: 16900, Error: 0.008721860542414767
Epoch: 17000, Error: 0.008660184492556974
Epoch: 17100, Error: 0.008607687236938538
Epoch: 17200, Error: 0.008591305370105561
Epoch: 17300, Error: 0.008493465140035223
Epoch: 17400, Error: 0.008435815743253632
Epoch: 17500, Error: 0.008384634736326464
Epoch: 17600, Error: 0.008325604972318263
Epoch: 17700, Error: 0.008295572852227866
Epoch: 17800, Error: 0.008236582126161017
Epoch: 17900, Error: 0.008223672390898239
Epoch: 18000, Error: 0.008119280688173195
Epoch: 18100, Error: 0.00806680109230292
Epoch: 18200, Error: 0.008016938070800117
Epoch: 18300, Error: 0.00796773110086579
Epoch: 18400, Error: 0.007922784237633061
Epoch: 18500, Error: 0.007900661395528766
Epoch: 18600, Error: 0.007837297234465761
Epoch: 18700, Error: 0.007810536022249797
Epoch: 18800, Error: 0.007744577612108426
Epoch: 18900, Error: 0.007718450069698325
Epoch: 19000, Error: 0.007679308822076847
Epoch: 19100, Error: 0.007647251767731812
Epoch: 19200, Error: 0.007609101263933785
Epoch: 19300, Error: 0.007589955466908061
Epoch: 19400, Error: 0.00756124902215128
Epoch: 19500, Error: 0.00754869743964126
Epoch: 19600, Error: 0.007575390177680017
Epoch: 19700, Error: 0.007529131710193158
Epoch: 19800, Error: 0.0075088183894590045
Epoch: 19900, Error: 0.007529579901314928
Epoch: 20000, Error: 0.007478137854165958
Epoch: 20100, Error: 0.007448107051065589
Epoch: 20200, Error: 0.007427952800428147
Epoch: 20300, Error: 0.007408441356644395
Epoch: 20400, Error: 0.007394530522204098
Epoch: 20500, Error: 0.007370042171321265
Epoch: 20600, Error: 0.007366039541489344
Epoch: 20700, Error: 0.007350689245282078
Epoch: 20800, Error: 0.007338806235080781
Epoch: 20900, Error: 0.007276232720621105
Epoch: 21000, Error: 0.0072596618617080414
Epoch: 21100, Error: 0.00727751725543266
Epoch: 21200, Error: 0.007200668022854809
Epoch: 21300, Error: 0.007178704415633799
Epoch: 21400, Error: 0.007153650138184602
Epoch: 21500, Error: 0.007159937862602304
Epoch: 21600, Error: 0.007087813869513267
Epoch: 21700, Error: 0.007067567027198743
Epoch: 21800, Error: 0.007040889337237244
Epoch: 21900, Error: 0.007021331473649589
Epoch: 22000, Error: 0.0069939464099341596
Epoch: 22100, Error: 0.0069718204005432315
Epoch: 22200, Error: 0.0069532956411356055
Epoch: 22300, Error: 0.00691457626526939
Epoch: 22400, Error: 0.006933736632478842
Epoch: 22500, Error: 0.006867904280375907
Epoch: 22600, Error: 0.006847866691889186
Epoch: 22700, Error: 0.006835631138114183
Epoch: 22800, Error: 0.006788190537774588
Epoch: 22900, Error: 0.006761219399174998
Epoch: 23000, Error: 0.006733905248697963
Epoch: 23100, Error: 0.006713439931772995
Epoch: 23200, Error: 0.006686260158276717
Epoch: 23300, Error: 0.006652714196390212
Epoch: 23400, Error: 0.006622648292724543
Epoch: 23500, Error: 0.006598630659967167
Epoch: 23600, Error: 0.006572593043527902
Epoch: 23700, Error: 0.0065458292011213925
Epoch: 23800, Error: 0.006522880292765817
Epoch: 23900, Error: 0.006499133892263686
Epoch: 24000, Error: 0.006463086103313221
Epoch: 24100, Error: 0.006437225848188488
Epoch: 24200, Error: 0.006412739826321119
Epoch: 24300, Error: 0.006397302875786277
Epoch: 24400, Error: 0.006395784242811049
Epoch: 24500, Error: 0.006345468564879007
Epoch: 24600, Error: 0.006325883498188206
Epoch: 24700, Error: 0.006306920889313974
Epoch: 24800, Error: 0.006285564734307691
Epoch: 24900, Error: 0.006264323658309372
Epoch: 25000, Error: 0.006266914372475468
Epoch: 25100, Error: 0.006242964423451472
Epoch: 25200, Error: 0.006226280433012124
Epoch: 25300, Error: 0.00622182235361105
Epoch: 25400, Error: 0.0062150826856881
Epoch: 25500, Error: 0.00622149317435809
Epoch: 25600, Error: 0.00621395272882261
Epoch: 25700, Error: 0.006199511054792517
Epoch: 25800, Error: 0.0062157583269278754
Epoch: 25900, Error: 0.006194502438149744
Finished
