Input Patterns
0.224 0.624 0.067 0.043 
0.11 0.502 0.051 0.043 
0.196 0.667 0.067 0.043 
0.055 0.584 0.067 0.082 
0.027 0.376 0.067 0.043 
0.306 0.71 0.086 0.043 
0.137 0.416 0.067 0.0 
0.416 0.831 0.035 0.043 
0.306 0.792 0.051 0.125 
0.388 0.749 0.118 0.082 
0.306 0.584 0.118 0.043 
0.082 0.667 0.0 0.043 
0.137 0.584 0.153 0.043 
0.196 0.584 0.102 0.125 
0.251 0.584 0.067 0.043 
0.137 0.459 0.102 0.043 
0.251 0.875 0.086 0.0 
0.165 0.459 0.086 0.043 
0.333 0.624 0.051 0.043 
0.027 0.416 0.051 0.043 
0.196 0.624 0.051 0.082 
0.027 0.502 0.051 0.043 
0.224 0.749 0.153 0.125 
0.224 0.749 0.102 0.043 
0.278 0.71 0.086 0.043 
0.165 0.416 0.067 0.043 
0.082 0.459 0.086 0.043 
0.306 0.792 0.118 0.125 
0.196 0.584 0.086 0.043 
0.165 0.459 0.086 0.0 
0.137 0.584 0.102 0.043 
0.0 0.416 0.016 0.0 
0.388 1.0 0.086 0.125 
0.224 0.624 0.067 0.082 
0.224 0.749 0.086 0.082 
0.224 0.71 0.086 0.125 
0.224 0.541 0.118 0.165 
0.196 0.416 0.102 0.043 
0.251 0.624 0.086 0.043 
0.11 0.502 0.102 0.043 
0.306 0.584 0.086 0.125 
0.333 0.918 0.067 0.043 
0.196 0.502 0.035 0.043 
0.165 0.667 0.067 0.0 
0.224 0.584 0.086 0.043 
0.055 0.125 0.051 0.082 
0.196 0.624 0.102 0.208 
0.137 0.416 0.067 0.082 
0.082 0.502 0.067 0.043 
0.196 0.541 0.067 0.043 
0.749 0.502 0.627 0.541 
0.722 0.459 0.663 0.584 
0.612 0.333 0.612 0.584 
0.557 0.541 0.627 0.624 
0.639 0.376 0.612 0.498 
0.196 0.0 0.424 0.376 
0.471 0.082 0.51 0.376 
0.361 0.376 0.439 0.498 
0.361 0.416 0.592 0.584 
0.529 0.082 0.592 0.584 
0.443 0.502 0.643 0.459 
0.557 0.208 0.663 0.584 
0.584 0.376 0.561 0.498 
0.694 0.333 0.643 0.541 
0.471 0.376 0.592 0.584 
0.333 0.169 0.475 0.416 
0.416 0.29 0.49 0.459 
0.306 0.416 0.592 0.584 
0.667 0.459 0.627 0.584 
0.361 0.416 0.525 0.498 
0.333 0.251 0.576 0.459 
0.416 0.251 0.51 0.459 
0.361 0.29 0.541 0.498 
0.388 0.376 0.541 0.498 
0.224 0.208 0.337 0.416 
0.584 0.502 0.592 0.584 
0.333 0.125 0.51 0.498 
0.388 0.333 0.592 0.498 
0.165 0.169 0.388 0.376 
0.251 0.29 0.49 0.541 
0.443 0.416 0.541 0.584 
0.498 0.376 0.627 0.541 
0.667 0.459 0.576 0.541 
0.416 0.29 0.525 0.376 
0.361 0.208 0.49 0.416 
0.498 0.333 0.51 0.498 
0.498 0.333 0.627 0.459 
0.639 0.416 0.576 0.541 
0.667 0.416 0.678 0.667 
0.388 0.251 0.424 0.376 
0.333 0.169 0.459 0.376 
0.471 0.29 0.694 0.624 
0.471 0.584 0.592 0.624 
0.557 0.125 0.576 0.498 
0.333 0.208 0.51 0.498 
0.498 0.416 0.612 0.541 
0.196 0.125 0.388 0.376 
0.388 0.416 0.541 0.459 
0.529 0.376 0.561 0.498 
0.388 0.333 0.525 0.498 
0.557 0.541 0.847 1.0 
0.776 0.416 0.831 0.831 
0.612 0.416 0.812 0.875 
0.165 0.208 0.592 0.667 
0.667 0.208 0.812 0.71 
0.612 0.502 0.694 0.792 
0.694 0.416 0.761 0.831 
0.416 0.333 0.694 0.957 
0.612 0.416 0.761 0.71 
0.945 0.251 1.0 0.918 
0.722 0.502 0.796 0.918 
0.945 0.333 0.965 0.792 
0.667 0.541 0.796 0.831 
0.529 0.333 0.643 0.71 
0.584 0.333 0.78 0.831 
0.863 0.333 0.863 0.749 
0.584 0.333 0.78 0.875 
0.498 0.251 0.78 0.541 
0.557 0.584 0.78 0.957 
0.471 0.416 0.643 0.71 
0.667 0.459 0.78 0.957 
0.416 0.29 0.694 0.749 
0.667 0.541 0.796 1.0 
0.557 0.208 0.678 0.749 
0.529 0.584 0.745 0.918 
0.416 0.29 0.694 0.749 
0.557 0.376 0.78 0.71 
0.918 0.416 0.949 0.831 
0.835 0.376 0.898 0.71 
0.804 0.667 0.863 1.0 
0.584 0.29 0.729 0.749 
0.388 0.208 0.678 0.792 
0.584 0.502 0.729 0.918 
0.945 0.749 0.965 0.875 
0.471 0.082 0.678 0.584 
0.361 0.333 0.663 0.792 
0.557 0.29 0.663 0.71 
0.804 0.502 0.847 0.71 
0.498 0.416 0.51 0.71 
0.804 0.416 0.812 0.624 
1.0 0.749 0.914 0.792 
0.557 0.333 0.694 0.584 
0.945 0.416 0.863 0.918 
0.584 0.459 0.761 0.71 
0.722 0.459 0.745 0.831 
0.722 0.459 0.694 0.918 
0.694 0.502 0.831 0.918 
0.667 0.416 0.714 0.918 
0.612 0.416 0.714 0.792 
0.443 0.416 0.694 0.71 
Teaching Patterns
1.0 0.0 0.0 
1.0 0.0 0.0 
1.0 0.0 0.0 
1.0 0.0 0.0 
1.0 0.0 0.0 
1.0 0.0 0.0 
1.0 0.0 0.0 
1.0 0.0 0.0 
1.0 0.0 0.0 
1.0 0.0 0.0 
1.0 0.0 0.0 
1.0 0.0 0.0 
1.0 0.0 0.0 
1.0 0.0 0.0 
1.0 0.0 0.0 
1.0 0.0 0.0 
1.0 0.0 0.0 
1.0 0.0 0.0 
1.0 0.0 0.0 
1.0 0.0 0.0 
1.0 0.0 0.0 
1.0 0.0 0.0 
1.0 0.0 0.0 
1.0 0.0 0.0 
1.0 0.0 0.0 
1.0 0.0 0.0 
1.0 0.0 0.0 
1.0 0.0 0.0 
1.0 0.0 0.0 
1.0 0.0 0.0 
1.0 0.0 0.0 
1.0 0.0 0.0 
1.0 0.0 0.0 
1.0 0.0 0.0 
1.0 0.0 0.0 
1.0 0.0 0.0 
1.0 0.0 0.0 
1.0 0.0 0.0 
1.0 0.0 0.0 
1.0 0.0 0.0 
1.0 0.0 0.0 
1.0 0.0 0.0 
1.0 0.0 0.0 
1.0 0.0 0.0 
1.0 0.0 0.0 
1.0 0.0 0.0 
1.0 0.0 0.0 
1.0 0.0 0.0 
1.0 0.0 0.0 
1.0 0.0 0.0 
0.0 1.0 0.0 
0.0 1.0 0.0 
0.0 1.0 0.0 
0.0 1.0 0.0 
0.0 1.0 0.0 
0.0 1.0 0.0 
0.0 1.0 0.0 
0.0 1.0 0.0 
0.0 1.0 0.0 
0.0 1.0 0.0 
0.0 1.0 0.0 
0.0 1.0 0.0 
0.0 1.0 0.0 
0.0 1.0 0.0 
0.0 1.0 0.0 
0.0 1.0 0.0 
0.0 1.0 0.0 
0.0 1.0 0.0 
0.0 1.0 0.0 
0.0 1.0 0.0 
0.0 1.0 0.0 
0.0 1.0 0.0 
0.0 1.0 0.0 
0.0 1.0 0.0 
0.0 1.0 0.0 
0.0 1.0 0.0 
0.0 1.0 0.0 
0.0 1.0 0.0 
0.0 1.0 0.0 
0.0 1.0 0.0 
0.0 1.0 0.0 
0.0 1.0 0.0 
0.0 1.0 0.0 
0.0 1.0 0.0 
0.0 1.0 0.0 
0.0 1.0 0.0 
0.0 1.0 0.0 
0.0 1.0 0.0 
0.0 1.0 0.0 
0.0 1.0 0.0 
0.0 1.0 0.0 
0.0 1.0 0.0 
0.0 1.0 0.0 
0.0 1.0 0.0 
0.0 1.0 0.0 
0.0 1.0 0.0 
0.0 1.0 0.0 
0.0 1.0 0.0 
0.0 1.0 0.0 
0.0 1.0 0.0 
0.0 0.0 1.0 
0.0 0.0 1.0 
0.0 0.0 1.0 
0.0 0.0 1.0 
0.0 0.0 1.0 
0.0 0.0 1.0 
0.0 0.0 1.0 
0.0 0.0 1.0 
0.0 0.0 1.0 
0.0 0.0 1.0 
0.0 0.0 1.0 
0.0 0.0 1.0 
0.0 0.0 1.0 
0.0 0.0 1.0 
0.0 0.0 1.0 
0.0 0.0 1.0 
0.0 0.0 1.0 
0.0 0.0 1.0 
0.0 0.0 1.0 
0.0 0.0 1.0 
0.0 0.0 1.0 
0.0 0.0 1.0 
0.0 0.0 1.0 
0.0 0.0 1.0 
0.0 0.0 1.0 
0.0 0.0 1.0 
0.0 0.0 1.0 
0.0 0.0 1.0 
0.0 0.0 1.0 
0.0 0.0 1.0 
0.0 0.0 1.0 
0.0 0.0 1.0 
0.0 0.0 1.0 
0.0 0.0 1.0 
0.0 0.0 1.0 
0.0 0.0 1.0 
0.0 0.0 1.0 
0.0 0.0 1.0 
0.0 0.0 1.0 
0.0 0.0 1.0 
0.0 0.0 1.0 
0.0 0.0 1.0 
0.0 0.0 1.0 
0.0 0.0 1.0 
0.0 0.0 1.0 
0.0 0.0 1.0 
0.0 0.0 1.0 
0.0 0.0 1.0 
0.0 0.0 1.0 
0.0 0.0 1.0 
Learning : 0.05
Momentum : 0.30000001192092896
Epoch: 100, Error: 0.07837180039900747
Epoch: 200, Error: 0.02718045023077188
Epoch: 300, Error: 0.018930010296555118
Epoch: 400, Error: 0.016133067297624655
Epoch: 500, Error: 0.014960373412461765
Epoch: 600, Error: 0.014245852504661958
Epoch: 700, Error: 0.013972170769491048
Epoch: 800, Error: 0.013506071021939818
Epoch: 900, Error: 0.013314520328114338
Epoch: 1000, Error: 0.013160753581981337
Epoch: 1100, Error: 0.01300978851170495
Epoch: 1200, Error: 0.012927935416013501
Epoch: 1300, Error: 0.012806011430626221
Epoch: 1400, Error: 0.012714408191490677
Epoch: 1500, Error: 0.012650731962750298
Epoch: 1600, Error: 0.0124745248587395
Epoch: 1700, Error: 0.012438923693273206
Epoch: 1800, Error: 0.012357653361774888
Epoch: 1900, Error: 0.012319639165490387
Epoch: 2000, Error: 0.01227157135494485
Epoch: 2100, Error: 0.012248229237497238
Epoch: 2200, Error: 0.012228742669113921
Epoch: 2300, Error: 0.012228271149148954
Epoch: 2400, Error: 0.012210204784110664
Epoch: 2500, Error: 0.012201399917739887
Epoch: 2600, Error: 0.0121667809293158
Epoch: 2700, Error: 0.012176695074983387
Epoch: 2800, Error: 0.012157608786810005
Epoch: 2900, Error: 0.012115411679860496
Epoch: 3000, Error: 0.012161247039248604
Epoch: 3100, Error: 0.012112036530796663
Epoch: 3200, Error: 0.012119318227107602
Epoch: 3300, Error: 0.012142990486600858
Epoch: 3400, Error: 0.012080181144137796
Epoch: 3500, Error: 0.012072525479159667
Epoch: 3600, Error: 0.012077599310795053
Epoch: 3700, Error: 0.012109913018531296
Epoch: 3800, Error: 0.012053572355676254
Epoch: 3900, Error: 0.012069422029424784
Epoch: 4000, Error: 0.012033932367885206
Epoch: 4100, Error: 0.011987294459109387
Epoch: 4200, Error: 0.011984116735598
Epoch: 4300, Error: 0.011980820101312718
Epoch: 4400, Error: 0.011973545872395028
Epoch: 4500, Error: 0.011964559917143536
Epoch: 4600, Error: 0.011987944991556428
Epoch: 4700, Error: 0.011960103747645359
Epoch: 4800, Error: 0.011951120591805302
Epoch: 4900, Error: 0.011966256429013352
Epoch: 5000, Error: 0.011902580573782568
Epoch: 5100, Error: 0.01191157517671665
Epoch: 5200, Error: 0.011910606772511703
Epoch: 5300, Error: 0.0118949094778364
Epoch: 5400, Error: 0.011905887454219877
Epoch: 5500, Error: 0.011966845572879527
Epoch: 5600, Error: 0.011897844696461421
Epoch: 5700, Error: 0.01196635595014233
Epoch: 5800, Error: 0.011844303815637027
Epoch: 5900, Error: 0.011858943231176719
Epoch: 6000, Error: 0.011919256092770059
Epoch: 6100, Error: 0.011871446845630356
Epoch: 6200, Error: 0.011812336309874353
Epoch: 6300, Error: 0.011808677744351855
Epoch: 6400, Error: 0.01179968804620365
Epoch: 6500, Error: 0.011796586785548416
Epoch: 6600, Error: 0.011813778861661805
Epoch: 6700, Error: 0.011820893182429234
Epoch: 6800, Error: 0.011807655804902666
Epoch: 6900, Error: 0.011806031091568333
Epoch: 7000, Error: 0.01178931024713558
Epoch: 7100, Error: 0.011780110626731509
Epoch: 7200, Error: 0.011804084252456182
Epoch: 7300, Error: 0.011779462035916762
Epoch: 7400, Error: 0.01177593601942365
Epoch: 7500, Error: 0.011765990837614534
Epoch: 7600, Error: 0.011751610395904614
Epoch: 7700, Error: 0.011744364341487045
Epoch: 7800, Error: 0.011755723194723232
Epoch: 7900, Error: 0.01173856341558738
Epoch: 8000, Error: 0.011718250305206632
Epoch: 8100, Error: 0.011740058552306752
Epoch: 8200, Error: 0.011710600332175882
Epoch: 8300, Error: 0.01173621155167035
Epoch: 8400, Error: 0.011694572327280297
Epoch: 8500, Error: 0.011697389688771244
Epoch: 8600, Error: 0.011689581570456938
Epoch: 8700, Error: 0.01172231765704511
Epoch: 8800, Error: 0.011678581820828662
Epoch: 8900, Error: 0.011679473505967874
Finished
