Input Patterns
0.224 0.624 0.067 0.043 
0.11 0.502 0.051 0.043 
0.196 0.667 0.067 0.043 
0.055 0.584 0.067 0.082 
0.027 0.376 0.067 0.043 
0.306 0.71 0.086 0.043 
0.137 0.416 0.067 0.0 
0.416 0.831 0.035 0.043 
0.306 0.792 0.051 0.125 
0.388 0.749 0.118 0.082 
0.306 0.584 0.118 0.043 
0.082 0.667 0.0 0.043 
0.137 0.584 0.153 0.043 
0.196 0.584 0.102 0.125 
0.251 0.584 0.067 0.043 
0.137 0.459 0.102 0.043 
0.251 0.875 0.086 0.0 
0.165 0.459 0.086 0.043 
0.333 0.624 0.051 0.043 
0.027 0.416 0.051 0.043 
0.196 0.624 0.051 0.082 
0.027 0.502 0.051 0.043 
0.224 0.749 0.153 0.125 
0.224 0.749 0.102 0.043 
0.278 0.71 0.086 0.043 
0.165 0.416 0.067 0.043 
0.082 0.459 0.086 0.043 
0.306 0.792 0.118 0.125 
0.196 0.584 0.086 0.043 
0.165 0.459 0.086 0.0 
0.137 0.584 0.102 0.043 
0.0 0.416 0.016 0.0 
0.388 1.0 0.086 0.125 
0.224 0.624 0.067 0.082 
0.224 0.749 0.086 0.082 
0.224 0.71 0.086 0.125 
0.224 0.541 0.118 0.165 
0.196 0.416 0.102 0.043 
0.251 0.624 0.086 0.043 
0.11 0.502 0.102 0.043 
0.306 0.584 0.086 0.125 
0.333 0.918 0.067 0.043 
0.196 0.502 0.035 0.043 
0.165 0.667 0.067 0.0 
0.224 0.584 0.086 0.043 
0.055 0.125 0.051 0.082 
0.196 0.624 0.102 0.208 
0.137 0.416 0.067 0.082 
0.082 0.502 0.067 0.043 
0.196 0.541 0.067 0.043 
0.749 0.502 0.627 0.541 
0.722 0.459 0.663 0.584 
0.612 0.333 0.612 0.584 
0.557 0.541 0.627 0.624 
0.639 0.376 0.612 0.498 
0.196 0.0 0.424 0.376 
0.471 0.082 0.51 0.376 
0.361 0.376 0.439 0.498 
0.361 0.416 0.592 0.584 
0.529 0.082 0.592 0.584 
0.443 0.502 0.643 0.459 
0.557 0.208 0.663 0.584 
0.584 0.376 0.561 0.498 
0.694 0.333 0.643 0.541 
0.471 0.376 0.592 0.584 
0.333 0.169 0.475 0.416 
0.416 0.29 0.49 0.459 
0.306 0.416 0.592 0.584 
0.667 0.459 0.627 0.584 
0.361 0.416 0.525 0.498 
0.333 0.251 0.576 0.459 
0.416 0.251 0.51 0.459 
0.361 0.29 0.541 0.498 
0.388 0.376 0.541 0.498 
0.224 0.208 0.337 0.416 
0.584 0.502 0.592 0.584 
0.333 0.125 0.51 0.498 
0.388 0.333 0.592 0.498 
0.165 0.169 0.388 0.376 
0.251 0.29 0.49 0.541 
0.443 0.416 0.541 0.584 
0.498 0.376 0.627 0.541 
0.667 0.459 0.576 0.541 
0.416 0.29 0.525 0.376 
0.361 0.208 0.49 0.416 
0.498 0.333 0.51 0.498 
0.498 0.333 0.627 0.459 
0.639 0.416 0.576 0.541 
0.667 0.416 0.678 0.667 
0.388 0.251 0.424 0.376 
0.333 0.169 0.459 0.376 
0.471 0.29 0.694 0.624 
0.471 0.584 0.592 0.624 
0.557 0.125 0.576 0.498 
0.333 0.208 0.51 0.498 
0.498 0.416 0.612 0.541 
0.196 0.125 0.388 0.376 
0.388 0.416 0.541 0.459 
0.529 0.376 0.561 0.498 
0.388 0.333 0.525 0.498 
0.557 0.541 0.847 1.0 
0.776 0.416 0.831 0.831 
0.612 0.416 0.812 0.875 
0.165 0.208 0.592 0.667 
0.667 0.208 0.812 0.71 
0.612 0.502 0.694 0.792 
0.694 0.416 0.761 0.831 
0.416 0.333 0.694 0.957 
0.612 0.416 0.761 0.71 
0.945 0.251 1.0 0.918 
0.722 0.502 0.796 0.918 
0.945 0.333 0.965 0.792 
0.667 0.541 0.796 0.831 
0.529 0.333 0.643 0.71 
0.584 0.333 0.78 0.831 
0.863 0.333 0.863 0.749 
0.584 0.333 0.78 0.875 
0.498 0.251 0.78 0.541 
0.557 0.584 0.78 0.957 
0.471 0.416 0.643 0.71 
0.667 0.459 0.78 0.957 
0.416 0.29 0.694 0.749 
0.667 0.541 0.796 1.0 
0.557 0.208 0.678 0.749 
0.529 0.584 0.745 0.918 
0.416 0.29 0.694 0.749 
0.557 0.376 0.78 0.71 
0.918 0.416 0.949 0.831 
0.835 0.376 0.898 0.71 
0.804 0.667 0.863 1.0 
0.584 0.29 0.729 0.749 
0.388 0.208 0.678 0.792 
0.584 0.502 0.729 0.918 
0.945 0.749 0.965 0.875 
0.471 0.082 0.678 0.584 
0.361 0.333 0.663 0.792 
0.557 0.29 0.663 0.71 
0.804 0.502 0.847 0.71 
0.498 0.416 0.51 0.71 
0.804 0.416 0.812 0.624 
1.0 0.749 0.914 0.792 
0.557 0.333 0.694 0.584 
0.945 0.416 0.863 0.918 
0.584 0.459 0.761 0.71 
0.722 0.459 0.745 0.831 
0.722 0.459 0.694 0.918 
0.694 0.502 0.831 0.918 
0.667 0.416 0.714 0.918 
0.612 0.416 0.714 0.792 
0.443 0.416 0.694 0.71 
Teaching Patterns
1.0 0.0 0.0 
1.0 0.0 0.0 
1.0 0.0 0.0 
1.0 0.0 0.0 
1.0 0.0 0.0 
1.0 0.0 0.0 
1.0 0.0 0.0 
1.0 0.0 0.0 
1.0 0.0 0.0 
1.0 0.0 0.0 
1.0 0.0 0.0 
1.0 0.0 0.0 
1.0 0.0 0.0 
1.0 0.0 0.0 
1.0 0.0 0.0 
1.0 0.0 0.0 
1.0 0.0 0.0 
1.0 0.0 0.0 
1.0 0.0 0.0 
1.0 0.0 0.0 
1.0 0.0 0.0 
1.0 0.0 0.0 
1.0 0.0 0.0 
1.0 0.0 0.0 
1.0 0.0 0.0 
1.0 0.0 0.0 
1.0 0.0 0.0 
1.0 0.0 0.0 
1.0 0.0 0.0 
1.0 0.0 0.0 
1.0 0.0 0.0 
1.0 0.0 0.0 
1.0 0.0 0.0 
1.0 0.0 0.0 
1.0 0.0 0.0 
1.0 0.0 0.0 
1.0 0.0 0.0 
1.0 0.0 0.0 
1.0 0.0 0.0 
1.0 0.0 0.0 
1.0 0.0 0.0 
1.0 0.0 0.0 
1.0 0.0 0.0 
1.0 0.0 0.0 
1.0 0.0 0.0 
1.0 0.0 0.0 
1.0 0.0 0.0 
1.0 0.0 0.0 
1.0 0.0 0.0 
1.0 0.0 0.0 
0.0 1.0 0.0 
0.0 1.0 0.0 
0.0 1.0 0.0 
0.0 1.0 0.0 
0.0 1.0 0.0 
0.0 1.0 0.0 
0.0 1.0 0.0 
0.0 1.0 0.0 
0.0 1.0 0.0 
0.0 1.0 0.0 
0.0 1.0 0.0 
0.0 1.0 0.0 
0.0 1.0 0.0 
0.0 1.0 0.0 
0.0 1.0 0.0 
0.0 1.0 0.0 
0.0 1.0 0.0 
0.0 1.0 0.0 
0.0 1.0 0.0 
0.0 1.0 0.0 
0.0 1.0 0.0 
0.0 1.0 0.0 
0.0 1.0 0.0 
0.0 1.0 0.0 
0.0 1.0 0.0 
0.0 1.0 0.0 
0.0 1.0 0.0 
0.0 1.0 0.0 
0.0 1.0 0.0 
0.0 1.0 0.0 
0.0 1.0 0.0 
0.0 1.0 0.0 
0.0 1.0 0.0 
0.0 1.0 0.0 
0.0 1.0 0.0 
0.0 1.0 0.0 
0.0 1.0 0.0 
0.0 1.0 0.0 
0.0 1.0 0.0 
0.0 1.0 0.0 
0.0 1.0 0.0 
0.0 1.0 0.0 
0.0 1.0 0.0 
0.0 1.0 0.0 
0.0 1.0 0.0 
0.0 1.0 0.0 
0.0 1.0 0.0 
0.0 1.0 0.0 
0.0 1.0 0.0 
0.0 1.0 0.0 
0.0 0.0 1.0 
0.0 0.0 1.0 
0.0 0.0 1.0 
0.0 0.0 1.0 
0.0 0.0 1.0 
0.0 0.0 1.0 
0.0 0.0 1.0 
0.0 0.0 1.0 
0.0 0.0 1.0 
0.0 0.0 1.0 
0.0 0.0 1.0 
0.0 0.0 1.0 
0.0 0.0 1.0 
0.0 0.0 1.0 
0.0 0.0 1.0 
0.0 0.0 1.0 
0.0 0.0 1.0 
0.0 0.0 1.0 
0.0 0.0 1.0 
0.0 0.0 1.0 
0.0 0.0 1.0 
0.0 0.0 1.0 
0.0 0.0 1.0 
0.0 0.0 1.0 
0.0 0.0 1.0 
0.0 0.0 1.0 
0.0 0.0 1.0 
0.0 0.0 1.0 
0.0 0.0 1.0 
0.0 0.0 1.0 
0.0 0.0 1.0 
0.0 0.0 1.0 
0.0 0.0 1.0 
0.0 0.0 1.0 
0.0 0.0 1.0 
0.0 0.0 1.0 
0.0 0.0 1.0 
0.0 0.0 1.0 
0.0 0.0 1.0 
0.0 0.0 1.0 
0.0 0.0 1.0 
0.0 0.0 1.0 
0.0 0.0 1.0 
0.0 0.0 1.0 
0.0 0.0 1.0 
0.0 0.0 1.0 
0.0 0.0 1.0 
0.0 0.0 1.0 
0.0 0.0 1.0 
0.0 0.0 1.0 
Learning : 0.05
Momentum : 0.30000001192092896
Epoch: 100, Error: 0.08645130177145911
Epoch: 200, Error: 0.028545375523545035
Epoch: 300, Error: 0.018494502242879605
Epoch: 400, Error: 0.01579982554496112
Epoch: 500, Error: 0.014581001517508373
Epoch: 600, Error: 0.014012884549195862
Epoch: 700, Error: 0.013303064076627501
Epoch: 800, Error: 0.012944295877172088
Epoch: 900, Error: 0.012857787626389996
Epoch: 1000, Error: 0.012626347559489355
Epoch: 1100, Error: 0.012316090172966056
Epoch: 1200, Error: 0.012324212447118506
Epoch: 1300, Error: 0.012194197199166666
Epoch: 1400, Error: 0.012044827766113608
Epoch: 1500, Error: 0.011981675320809175
Epoch: 1600, Error: 0.011942686439255371
Epoch: 1700, Error: 0.011987214558331074
Epoch: 1800, Error: 0.011909460393053342
Epoch: 1900, Error: 0.011902134116025774
Epoch: 2000, Error: 0.011841028996289873
Epoch: 2100, Error: 0.01185424848077991
Epoch: 2200, Error: 0.01187500535045688
Epoch: 2300, Error: 0.011899851473254857
Epoch: 2400, Error: 0.011863704764052957
Epoch: 2500, Error: 0.011810617579241383
Epoch: 2600, Error: 0.011828522976786646
Epoch: 2700, Error: 0.011798699062603616
Epoch: 2800, Error: 0.011833593765040213
Epoch: 2900, Error: 0.01180324977375163
Epoch: 3000, Error: 0.011793936020172457
Epoch: 3100, Error: 0.01197930088403939
Epoch: 3200, Error: 0.011832148420523996
Epoch: 3300, Error: 0.011783205645436971
Epoch: 3400, Error: 0.01177912966373683
Epoch: 3500, Error: 0.011788751124721369
Epoch: 3600, Error: 0.011766512959196595
Epoch: 3700, Error: 0.011758006993965788
Epoch: 3800, Error: 0.01174465694038857
Epoch: 3900, Error: 0.011745405621430234
Epoch: 4000, Error: 0.01176835707607298
Epoch: 4100, Error: 0.011736878508531935
Epoch: 4200, Error: 0.011726408148614547
Epoch: 4300, Error: 0.011723189042826692
Epoch: 4400, Error: 0.011706874177295773
Epoch: 4500, Error: 0.011699521799116491
Epoch: 4600, Error: 0.011692803599325697
Epoch: 4700, Error: 0.011693651355596935
Epoch: 4800, Error: 0.011690114701903032
Epoch: 4900, Error: 0.011730139226382509
Epoch: 5000, Error: 0.01169310264121242
Epoch: 5100, Error: 0.011685523485344353
Epoch: 5200, Error: 0.01167414992550372
Epoch: 5300, Error: 0.011673146019868052
Epoch: 5400, Error: 0.01165561804404681
Epoch: 5500, Error: 0.011660816620384833
Epoch: 5600, Error: 0.011647538970241837
Epoch: 5700, Error: 0.01162582667298406
Epoch: 5800, Error: 0.011642289466311649
Epoch: 5900, Error: 0.011608007341896284
Epoch: 6000, Error: 0.011596878073066943
Epoch: 6100, Error: 0.011586497825186273
Epoch: 6200, Error: 0.011619766293954836
Epoch: 6300, Error: 0.011581085572619164
Epoch: 6400, Error: 0.011568166356067212
Epoch: 6500, Error: 0.011578898523644863
Epoch: 6600, Error: 0.011554549596484194
Epoch: 6700, Error: 0.011521805197914342
Epoch: 6800, Error: 0.011513962307936205
Epoch: 6900, Error: 0.011520393237895468
Epoch: 7000, Error: 0.011526229972036067
Epoch: 7100, Error: 0.011494159260592421
Epoch: 7200, Error: 0.011477892872579547
Epoch: 7300, Error: 0.01155483271017786
Epoch: 7400, Error: 0.01143984534355067
Epoch: 7500, Error: 0.011413753926230041
Epoch: 7600, Error: 0.011399899241316893
Epoch: 7700, Error: 0.011408076047148288
Epoch: 7800, Error: 0.01136907762381662
Epoch: 7900, Error: 0.011349267406999925
Epoch: 8000, Error: 0.011326464088885048
Epoch: 8100, Error: 0.011313094549924478
Epoch: 8200, Error: 0.011281710820243053
Epoch: 8300, Error: 0.011262924297560026
Epoch: 8400, Error: 0.011245504382795266
Epoch: 8500, Error: 0.011227828116448676
Epoch: 8600, Error: 0.011212330443057647
Epoch: 8700, Error: 0.011198146551136306
Epoch: 8800, Error: 0.011199684597310995
Epoch: 8900, Error: 0.011157238284457756
Epoch: 9000, Error: 0.011164733337995388
Epoch: 9100, Error: 0.011130805082679865
Epoch: 9200, Error: 0.011100326697228631
Epoch: 9300, Error: 0.01106243863181776
Epoch: 9400, Error: 0.01107285290833663
Epoch: 9500, Error: 0.011031856585532698
Epoch: 9600, Error: 0.01096209993062716
Epoch: 9700, Error: 0.010941541333401267
Epoch: 9800, Error: 0.010893194272881686
Epoch: 9900, Error: 0.010876175024984044
Epoch: 10000, Error: 0.010837004712965642
Epoch: 10100, Error: 0.010759793234156533
Epoch: 10200, Error: 0.010704579467824252
Epoch: 10300, Error: 0.010687800698154497
Epoch: 10400, Error: 0.010632512478939865
Epoch: 10500, Error: 0.010614477558911917
Epoch: 10600, Error: 0.010569821897822787
Epoch: 10700, Error: 0.01048135302420231
Epoch: 10800, Error: 0.010534253956427533
Epoch: 10900, Error: 0.010390185685044054
Epoch: 11000, Error: 0.010300771794064233
Epoch: 11100, Error: 0.010238778218224668
Epoch: 11200, Error: 0.010179517944460046
Epoch: 11300, Error: 0.010240983118173216
Epoch: 11400, Error: 0.010026745903177613
Epoch: 11500, Error: 0.009954018158278125
Epoch: 11600, Error: 0.009872057510414436
Epoch: 11700, Error: 0.009796810111596879
Epoch: 11800, Error: 0.009730222912248065
Epoch: 11900, Error: 0.00965892433676836
Epoch: 12000, Error: 0.009626309317291035
Epoch: 12100, Error: 0.009508658517762966
Epoch: 12200, Error: 0.009431316344115747
Epoch: 12300, Error: 0.009328208909912459
Epoch: 12400, Error: 0.009237663610112462
Epoch: 12500, Error: 0.009171788586091597
Epoch: 12600, Error: 0.009081432083656088
Epoch: 12700, Error: 0.008962887277758633
Epoch: 12800, Error: 0.008873200972180882
Epoch: 12900, Error: 0.008766157387970805
Epoch: 13000, Error: 0.008679951930603022
Epoch: 13100, Error: 0.008653497328597859
Epoch: 13200, Error: 0.008501410699558228
Epoch: 13300, Error: 0.008425368444383768
Epoch: 13400, Error: 0.008333678390067769
Epoch: 13500, Error: 0.008263906773509917
Epoch: 13600, Error: 0.008173325449659884
Epoch: 13700, Error: 0.008095676729321795
Epoch: 13800, Error: 0.008023624314833801
Epoch: 13900, Error: 0.007963128523358575
Epoch: 14000, Error: 0.007877963865936874
Epoch: 14100, Error: 0.007821308721710572
Epoch: 14200, Error: 0.0077378416443432815
Epoch: 14300, Error: 0.00767225189443536
Epoch: 14400, Error: 0.007606730306130519
Epoch: 14500, Error: 0.007542689381936028
Epoch: 14600, Error: 0.00747892311793645
Epoch: 14700, Error: 0.007429645276726906
Epoch: 14800, Error: 0.007402360200632317
Epoch: 14900, Error: 0.007312339270086833
Epoch: 15000, Error: 0.007267194679273058
Epoch: 15100, Error: 0.007210629273890046
Epoch: 15200, Error: 0.007157500123136882
Epoch: 15300, Error: 0.0071096147885748116
Epoch: 15400, Error: 0.007064339446752283
Epoch: 15500, Error: 0.007015561068389881
Epoch: 15600, Error: 0.00697448178133815
Epoch: 15700, Error: 0.0069335969527723265
Epoch: 15800, Error: 0.006895833608084651
Epoch: 15900, Error: 0.006853597836725415
Epoch: 16000, Error: 0.006815462153091927
Epoch: 16100, Error: 0.006773576970322596
Epoch: 16200, Error: 0.006733402965994114
Epoch: 16300, Error: 0.006706788987571848
Epoch: 16400, Error: 0.006685406149644507
Epoch: 16500, Error: 0.006642869668320324
Epoch: 16600, Error: 0.0065923650385441
Epoch: 16700, Error: 0.006564738943975638
Epoch: 16800, Error: 0.006535124370581366
Epoch: 16900, Error: 0.006499046231748202
Epoch: 17000, Error: 0.006510578629430832
Epoch: 17100, Error: 0.006448129323602553
Epoch: 17200, Error: 0.006425731385736403
Epoch: 17300, Error: 0.006394808602944705
Epoch: 17400, Error: 0.006365833458299858
Epoch: 17500, Error: 0.006340417241525168
Epoch: 17600, Error: 0.006313214292177357
Epoch: 17700, Error: 0.006283958858967683
Epoch: 17800, Error: 0.006260014540873157
Epoch: 17900, Error: 0.006232125405001446
Epoch: 18000, Error: 0.0062338881668388794
Epoch: 18100, Error: 0.0061977043120093195
Epoch: 18200, Error: 0.006191808375319427
Epoch: 18300, Error: 0.006149000633618688
Epoch: 18400, Error: 0.006142074131397085
Epoch: 18500, Error: 0.006107097438370913
Epoch: 18600, Error: 0.006084933264046988
Epoch: 18700, Error: 0.006059359539758405
Epoch: 18800, Error: 0.0060348714113250945
Epoch: 18900, Error: 0.006015739121111916
Epoch: 19000, Error: 0.006005014298708838
Epoch: 19100, Error: 0.005979115501974599
Epoch: 19200, Error: 0.005941431330075845
Epoch: 19300, Error: 0.005919563128054116
Epoch: 19400, Error: 0.005898320185145236
Epoch: 19500, Error: 0.0058808819140776375
Epoch: 19600, Error: 0.005865869485665755
Epoch: 19700, Error: 0.005844301529169709
Epoch: 19800, Error: 0.005826201755855749
Epoch: 19900, Error: 0.005833107105232303
Epoch: 20000, Error: 0.005808215232377152
Epoch: 20100, Error: 0.005779478672108571
Epoch: 20200, Error: 0.005777145316037805
Epoch: 20300, Error: 0.0057565619001636635
Epoch: 20400, Error: 0.005746108292935565
Epoch: 20500, Error: 0.005740168816200497
Epoch: 20600, Error: 0.0057216669947138445
Epoch: 20700, Error: 0.005711808044325637
Epoch: 20800, Error: 0.005705461787246086
Epoch: 20900, Error: 0.005695492734852236
Epoch: 21000, Error: 0.005691802021082567
Epoch: 21100, Error: 0.00568857342984977
Epoch: 21200, Error: 0.005681094733719753
Epoch: 21300, Error: 0.0056933798735680765
Finished
