Input Patterns
0.224 0.624 0.067 0.043 
0.11 0.502 0.051 0.043 
0.196 0.667 0.067 0.043 
0.055 0.584 0.067 0.082 
0.027 0.376 0.067 0.043 
0.306 0.71 0.086 0.043 
0.137 0.416 0.067 0.0 
0.416 0.831 0.035 0.043 
0.306 0.792 0.051 0.125 
0.388 0.749 0.118 0.082 
0.306 0.584 0.118 0.043 
0.082 0.667 0.0 0.043 
0.137 0.584 0.153 0.043 
0.196 0.584 0.102 0.125 
0.251 0.584 0.067 0.043 
0.137 0.459 0.102 0.043 
0.251 0.875 0.086 0.0 
0.165 0.459 0.086 0.043 
0.333 0.624 0.051 0.043 
0.027 0.416 0.051 0.043 
0.196 0.624 0.051 0.082 
0.027 0.502 0.051 0.043 
0.224 0.749 0.153 0.125 
0.224 0.749 0.102 0.043 
0.278 0.71 0.086 0.043 
0.165 0.416 0.067 0.043 
0.082 0.459 0.086 0.043 
0.306 0.792 0.118 0.125 
0.196 0.584 0.086 0.043 
0.165 0.459 0.086 0.0 
0.137 0.584 0.102 0.043 
0.0 0.416 0.016 0.0 
0.388 1.0 0.086 0.125 
0.224 0.624 0.067 0.082 
0.224 0.749 0.086 0.082 
0.224 0.71 0.086 0.125 
0.224 0.541 0.118 0.165 
0.196 0.416 0.102 0.043 
0.251 0.624 0.086 0.043 
0.11 0.502 0.102 0.043 
0.306 0.584 0.086 0.125 
0.333 0.918 0.067 0.043 
0.196 0.502 0.035 0.043 
0.165 0.667 0.067 0.0 
0.224 0.584 0.086 0.043 
0.055 0.125 0.051 0.082 
0.196 0.624 0.102 0.208 
0.137 0.416 0.067 0.082 
0.082 0.502 0.067 0.043 
0.196 0.541 0.067 0.043 
0.749 0.502 0.627 0.541 
0.722 0.459 0.663 0.584 
0.612 0.333 0.612 0.584 
0.557 0.541 0.627 0.624 
0.639 0.376 0.612 0.498 
0.196 0.0 0.424 0.376 
0.471 0.082 0.51 0.376 
0.361 0.376 0.439 0.498 
0.361 0.416 0.592 0.584 
0.529 0.082 0.592 0.584 
0.443 0.502 0.643 0.459 
0.557 0.208 0.663 0.584 
0.584 0.376 0.561 0.498 
0.694 0.333 0.643 0.541 
0.471 0.376 0.592 0.584 
0.333 0.169 0.475 0.416 
0.416 0.29 0.49 0.459 
0.306 0.416 0.592 0.584 
0.667 0.459 0.627 0.584 
0.361 0.416 0.525 0.498 
0.333 0.251 0.576 0.459 
0.416 0.251 0.51 0.459 
0.361 0.29 0.541 0.498 
0.388 0.376 0.541 0.498 
0.224 0.208 0.337 0.416 
0.584 0.502 0.592 0.584 
0.333 0.125 0.51 0.498 
0.388 0.333 0.592 0.498 
0.165 0.169 0.388 0.376 
0.251 0.29 0.49 0.541 
0.443 0.416 0.541 0.584 
0.498 0.376 0.627 0.541 
0.667 0.459 0.576 0.541 
0.416 0.29 0.525 0.376 
0.361 0.208 0.49 0.416 
0.498 0.333 0.51 0.498 
0.498 0.333 0.627 0.459 
0.639 0.416 0.576 0.541 
0.667 0.416 0.678 0.667 
0.388 0.251 0.424 0.376 
0.333 0.169 0.459 0.376 
0.471 0.29 0.694 0.624 
0.471 0.584 0.592 0.624 
0.557 0.125 0.576 0.498 
0.333 0.208 0.51 0.498 
0.498 0.416 0.612 0.541 
0.196 0.125 0.388 0.376 
0.388 0.416 0.541 0.459 
0.529 0.376 0.561 0.498 
0.388 0.333 0.525 0.498 
0.557 0.541 0.847 1.0 
0.776 0.416 0.831 0.831 
0.612 0.416 0.812 0.875 
0.165 0.208 0.592 0.667 
0.667 0.208 0.812 0.71 
0.612 0.502 0.694 0.792 
0.694 0.416 0.761 0.831 
0.416 0.333 0.694 0.957 
0.612 0.416 0.761 0.71 
0.945 0.251 1.0 0.918 
0.722 0.502 0.796 0.918 
0.945 0.333 0.965 0.792 
0.667 0.541 0.796 0.831 
0.529 0.333 0.643 0.71 
0.584 0.333 0.78 0.831 
0.863 0.333 0.863 0.749 
0.584 0.333 0.78 0.875 
0.498 0.251 0.78 0.541 
0.557 0.584 0.78 0.957 
0.471 0.416 0.643 0.71 
0.667 0.459 0.78 0.957 
0.416 0.29 0.694 0.749 
0.667 0.541 0.796 1.0 
0.557 0.208 0.678 0.749 
0.529 0.584 0.745 0.918 
0.416 0.29 0.694 0.749 
0.557 0.376 0.78 0.71 
0.918 0.416 0.949 0.831 
0.835 0.376 0.898 0.71 
0.804 0.667 0.863 1.0 
0.584 0.29 0.729 0.749 
0.388 0.208 0.678 0.792 
0.584 0.502 0.729 0.918 
0.945 0.749 0.965 0.875 
0.471 0.082 0.678 0.584 
0.361 0.333 0.663 0.792 
0.557 0.29 0.663 0.71 
0.804 0.502 0.847 0.71 
0.498 0.416 0.51 0.71 
0.804 0.416 0.812 0.624 
1.0 0.749 0.914 0.792 
0.557 0.333 0.694 0.584 
0.945 0.416 0.863 0.918 
0.584 0.459 0.761 0.71 
0.722 0.459 0.745 0.831 
0.722 0.459 0.694 0.918 
0.694 0.502 0.831 0.918 
0.667 0.416 0.714 0.918 
0.612 0.416 0.714 0.792 
0.443 0.416 0.694 0.71 
Teaching Patterns
1.0 0.0 0.0 
1.0 0.0 0.0 
1.0 0.0 0.0 
1.0 0.0 0.0 
1.0 0.0 0.0 
1.0 0.0 0.0 
1.0 0.0 0.0 
1.0 0.0 0.0 
1.0 0.0 0.0 
1.0 0.0 0.0 
1.0 0.0 0.0 
1.0 0.0 0.0 
1.0 0.0 0.0 
1.0 0.0 0.0 
1.0 0.0 0.0 
1.0 0.0 0.0 
1.0 0.0 0.0 
1.0 0.0 0.0 
1.0 0.0 0.0 
1.0 0.0 0.0 
1.0 0.0 0.0 
1.0 0.0 0.0 
1.0 0.0 0.0 
1.0 0.0 0.0 
1.0 0.0 0.0 
1.0 0.0 0.0 
1.0 0.0 0.0 
1.0 0.0 0.0 
1.0 0.0 0.0 
1.0 0.0 0.0 
1.0 0.0 0.0 
1.0 0.0 0.0 
1.0 0.0 0.0 
1.0 0.0 0.0 
1.0 0.0 0.0 
1.0 0.0 0.0 
1.0 0.0 0.0 
1.0 0.0 0.0 
1.0 0.0 0.0 
1.0 0.0 0.0 
1.0 0.0 0.0 
1.0 0.0 0.0 
1.0 0.0 0.0 
1.0 0.0 0.0 
1.0 0.0 0.0 
1.0 0.0 0.0 
1.0 0.0 0.0 
1.0 0.0 0.0 
1.0 0.0 0.0 
1.0 0.0 0.0 
0.0 1.0 0.0 
0.0 1.0 0.0 
0.0 1.0 0.0 
0.0 1.0 0.0 
0.0 1.0 0.0 
0.0 1.0 0.0 
0.0 1.0 0.0 
0.0 1.0 0.0 
0.0 1.0 0.0 
0.0 1.0 0.0 
0.0 1.0 0.0 
0.0 1.0 0.0 
0.0 1.0 0.0 
0.0 1.0 0.0 
0.0 1.0 0.0 
0.0 1.0 0.0 
0.0 1.0 0.0 
0.0 1.0 0.0 
0.0 1.0 0.0 
0.0 1.0 0.0 
0.0 1.0 0.0 
0.0 1.0 0.0 
0.0 1.0 0.0 
0.0 1.0 0.0 
0.0 1.0 0.0 
0.0 1.0 0.0 
0.0 1.0 0.0 
0.0 1.0 0.0 
0.0 1.0 0.0 
0.0 1.0 0.0 
0.0 1.0 0.0 
0.0 1.0 0.0 
0.0 1.0 0.0 
0.0 1.0 0.0 
0.0 1.0 0.0 
0.0 1.0 0.0 
0.0 1.0 0.0 
0.0 1.0 0.0 
0.0 1.0 0.0 
0.0 1.0 0.0 
0.0 1.0 0.0 
0.0 1.0 0.0 
0.0 1.0 0.0 
0.0 1.0 0.0 
0.0 1.0 0.0 
0.0 1.0 0.0 
0.0 1.0 0.0 
0.0 1.0 0.0 
0.0 1.0 0.0 
0.0 1.0 0.0 
0.0 0.0 1.0 
0.0 0.0 1.0 
0.0 0.0 1.0 
0.0 0.0 1.0 
0.0 0.0 1.0 
0.0 0.0 1.0 
0.0 0.0 1.0 
0.0 0.0 1.0 
0.0 0.0 1.0 
0.0 0.0 1.0 
0.0 0.0 1.0 
0.0 0.0 1.0 
0.0 0.0 1.0 
0.0 0.0 1.0 
0.0 0.0 1.0 
0.0 0.0 1.0 
0.0 0.0 1.0 
0.0 0.0 1.0 
0.0 0.0 1.0 
0.0 0.0 1.0 
0.0 0.0 1.0 
0.0 0.0 1.0 
0.0 0.0 1.0 
0.0 0.0 1.0 
0.0 0.0 1.0 
0.0 0.0 1.0 
0.0 0.0 1.0 
0.0 0.0 1.0 
0.0 0.0 1.0 
0.0 0.0 1.0 
0.0 0.0 1.0 
0.0 0.0 1.0 
0.0 0.0 1.0 
0.0 0.0 1.0 
0.0 0.0 1.0 
0.0 0.0 1.0 
0.0 0.0 1.0 
0.0 0.0 1.0 
0.0 0.0 1.0 
0.0 0.0 1.0 
0.0 0.0 1.0 
0.0 0.0 1.0 
0.0 0.0 1.0 
0.0 0.0 1.0 
0.0 0.0 1.0 
0.0 0.0 1.0 
0.0 0.0 1.0 
0.0 0.0 1.0 
0.0 0.0 1.0 
0.0 0.0 1.0 
Learning : 0.05
Momentum : 0.30000001192092896
Epoch: 100, Error: 0.0877771413889113
Epoch: 200, Error: 0.030102162294969863
Epoch: 300, Error: 0.018808541216455386
Epoch: 400, Error: 0.016008309476438734
Epoch: 500, Error: 0.015032196596232419
Epoch: 600, Error: 0.014047065695966162
Epoch: 700, Error: 0.013565957926423072
Epoch: 800, Error: 0.013377763260971771
Epoch: 900, Error: 0.013045953059754744
Epoch: 1000, Error: 0.01286259278384367
Epoch: 1100, Error: 0.012799625306249821
Epoch: 1200, Error: 0.012632797583686212
Epoch: 1300, Error: 0.012588548922788172
Epoch: 1400, Error: 0.012487219463421713
Epoch: 1500, Error: 0.012362888302391777
Epoch: 1600, Error: 0.01230417142875403
Epoch: 1700, Error: 0.012305391712776547
Epoch: 1800, Error: 0.012200395321055739
Epoch: 1900, Error: 0.012189285566292812
Epoch: 2000, Error: 0.012185979902602832
Epoch: 2100, Error: 0.012241268863012631
Epoch: 2200, Error: 0.012086379561735658
Epoch: 2300, Error: 0.01206656269321777
Epoch: 2400, Error: 0.012132395840983166
Epoch: 2500, Error: 0.012074924080732706
Epoch: 2600, Error: 0.012031241069922517
Epoch: 2700, Error: 0.012022343196908595
Epoch: 2800, Error: 0.01202100209268589
Epoch: 2900, Error: 0.01205149915652723
Epoch: 3000, Error: 0.012015324833322402
Epoch: 3100, Error: 0.01201862179573165
Epoch: 3200, Error: 0.012021929663628122
Epoch: 3300, Error: 0.012011183009536578
Epoch: 3400, Error: 0.012009602731735113
Epoch: 3500, Error: 0.011997809903281847
Epoch: 3600, Error: 0.012045779503320045
Epoch: 3700, Error: 0.012043367345791362
Epoch: 3800, Error: 0.012012026993853541
Epoch: 3900, Error: 0.012018618228015029
Epoch: 4000, Error: 0.012009521196045201
Epoch: 4100, Error: 0.012018358319792925
Epoch: 4200, Error: 0.012019546746405553
Epoch: 4300, Error: 0.01203330231332317
Epoch: 4400, Error: 0.012063467017623074
Epoch: 4500, Error: 0.01202757064586347
Epoch: 4600, Error: 0.01204659311880025
Epoch: 4700, Error: 0.012056880395457315
Epoch: 4800, Error: 0.012116861833010402
Epoch: 4900, Error: 0.012045604765401709
Epoch: 5000, Error: 0.012037336616990633
Epoch: 5100, Error: 0.012106925378935457
Epoch: 5200, Error: 0.012069046365497058
Epoch: 5300, Error: 0.012042038883911104
Epoch: 5400, Error: 0.012024114132967128
Epoch: 5500, Error: 0.012094561032472646
Epoch: 5600, Error: 0.012074755603645494
Epoch: 5700, Error: 0.012000043061037092
Epoch: 5800, Error: 0.011996805350336062
Epoch: 5900, Error: 0.01201107677223776
Epoch: 6000, Error: 0.012004972604131357
Epoch: 6100, Error: 0.011989429582555923
Epoch: 6200, Error: 0.012060646269247525
Epoch: 6300, Error: 0.01199255934575718
Epoch: 6400, Error: 0.011975489368052343
Epoch: 6500, Error: 0.011982678211877628
Epoch: 6600, Error: 0.01199880739637091
Epoch: 6700, Error: 0.011984504204337014
Epoch: 6800, Error: 0.011974802802293835
Epoch: 6900, Error: 0.01199943948850749
Epoch: 7000, Error: 0.011971559266478143
Epoch: 7100, Error: 0.012023390122798374
Epoch: 7200, Error: 0.011992220908689077
Epoch: 7300, Error: 0.011959243219346353
Epoch: 7400, Error: 0.012012869357909454
Epoch: 7500, Error: 0.011955005980512693
Epoch: 7600, Error: 0.011981218672124698
Epoch: 7700, Error: 0.011989331174473454
Epoch: 7800, Error: 0.011977505924557475
Epoch: 7900, Error: 0.011968200209787807
Epoch: 8000, Error: 0.011989102138339288
Epoch: 8100, Error: 0.011990829253322838
Epoch: 8200, Error: 0.01202457514286023
Epoch: 8300, Error: 0.011982301840475778
Epoch: 8400, Error: 0.012079326730458709
Epoch: 8500, Error: 0.011978951884646809
Epoch: 8600, Error: 0.012025809637136281
Epoch: 8700, Error: 0.012051120474180728
Epoch: 8800, Error: 0.011981777669564651
Epoch: 8900, Error: 0.01199189006668955
Epoch: 9000, Error: 0.012029230860040924
Epoch: 9100, Error: 0.011989358500187558
Epoch: 9200, Error: 0.012053725312081156
Epoch: 9300, Error: 0.011955119188465617
Epoch: 9400, Error: 0.01197259682850827
Epoch: 9500, Error: 0.011962686452185971
Epoch: 9600, Error: 0.011973612174807547
Epoch: 9700, Error: 0.011971389718474324
Epoch: 9800, Error: 0.011970108856512575
Epoch: 9900, Error: 0.011984987864728163
Epoch: 10000, Error: 0.011921995292145039
Epoch: 10100, Error: 0.011944080087417049
Epoch: 10200, Error: 0.011993844976534267
Epoch: 10300, Error: 0.011935163250434422
Epoch: 10400, Error: 0.011973808686787301
Epoch: 10500, Error: 0.011897310161588934
Epoch: 10600, Error: 0.011915180578626308
Epoch: 10700, Error: 0.011952286073033882
Epoch: 10800, Error: 0.01188805681712975
Epoch: 10900, Error: 0.0119419933752638
Epoch: 11000, Error: 0.011862551777832462
Epoch: 11100, Error: 0.011889418548611341
Epoch: 11200, Error: 0.011883374087326374
Epoch: 11300, Error: 0.011837281879023378
Epoch: 11400, Error: 0.011816897014010584
Epoch: 11500, Error: 0.011802167808599839
Epoch: 11600, Error: 0.011808601936132063
Epoch: 11700, Error: 0.011791739758401662
Epoch: 11800, Error: 0.011758066876376797
Epoch: 11900, Error: 0.011758887557414792
Epoch: 12000, Error: 0.011732515620162469
Epoch: 12100, Error: 0.011720342725338794
Epoch: 12200, Error: 0.011682749630527988
Epoch: 12300, Error: 0.011657300867473634
Epoch: 12400, Error: 0.011643833812154515
Epoch: 12500, Error: 0.011638767103333952
Epoch: 12600, Error: 0.011594441141947106
Epoch: 12700, Error: 0.011574783038096944
Epoch: 12800, Error: 0.011559353636891844
Epoch: 12900, Error: 0.011495804737869132
Epoch: 13000, Error: 0.011460112969334661
Epoch: 13100, Error: 0.011413241033288252
Epoch: 13200, Error: 0.011510341182621195
Epoch: 13300, Error: 0.011424003568113881
Epoch: 13400, Error: 0.011276561421292462
Epoch: 13500, Error: 0.01124149512199979
Epoch: 13600, Error: 0.011167622667354691
Epoch: 13700, Error: 0.011133221980900642
Epoch: 13800, Error: 0.011063692273388883
Epoch: 13900, Error: 0.01098765809820974
Epoch: 14000, Error: 0.010918494869849419
Epoch: 14100, Error: 0.010832616717787345
Epoch: 14200, Error: 0.010737948824545086
Epoch: 14300, Error: 0.010648970501929417
Epoch: 14400, Error: 0.010628244973954853
Epoch: 14500, Error: 0.010464417234752567
Epoch: 14600, Error: 0.010346395188331532
Epoch: 14700, Error: 0.010238199057075984
Epoch: 14800, Error: 0.010087293193276068
Epoch: 14900, Error: 0.009959220200519094
Epoch: 15000, Error: 0.009836855100606862
Epoch: 15100, Error: 0.009702339591147628
Epoch: 15200, Error: 0.009550187963573143
Epoch: 15300, Error: 0.009473756355692685
Epoch: 15400, Error: 0.009325120888086997
Epoch: 15500, Error: 0.009182428166198901
Epoch: 15600, Error: 0.008997816314222784
Epoch: 15700, Error: 0.008912142747799506
Epoch: 15800, Error: 0.008751013452994312
Epoch: 15900, Error: 0.008622084092324952
Epoch: 16000, Error: 0.008505282022337867
Epoch: 16100, Error: 0.008405652879311101
Epoch: 16200, Error: 0.008299068019902165
Epoch: 16300, Error: 0.008206798975873323
Epoch: 16400, Error: 0.008120005145585443
Epoch: 16500, Error: 0.008048416100101345
Epoch: 16600, Error: 0.00800272248109296
Epoch: 16700, Error: 0.007893533478079905
Epoch: 16800, Error: 0.007845217521939027
Epoch: 16900, Error: 0.007785474653282845
Epoch: 17000, Error: 0.007745418606763152
Epoch: 17100, Error: 0.0076895453164974766
Epoch: 17200, Error: 0.007624900305926696
Epoch: 17300, Error: 0.007576147843905368
Epoch: 17400, Error: 0.0075550743292086015
Epoch: 17500, Error: 0.0074958389599084204
Epoch: 17600, Error: 0.007432040918837165
Epoch: 17700, Error: 0.0073589483722398714
Epoch: 17800, Error: 0.007311159085366988
Epoch: 17900, Error: 0.0073105534292702175
Epoch: 18000, Error: 0.007235034610817068
Epoch: 18100, Error: 0.007202283468976436
Epoch: 18200, Error: 0.007174114238409028
Epoch: 18300, Error: 0.007170496604849824
Epoch: 18400, Error: 0.007077316978242541
Epoch: 18500, Error: 0.007055746559013044
Epoch: 18600, Error: 0.007051693631892561
Epoch: 18700, Error: 0.00699243889725956
Epoch: 18800, Error: 0.00695829436848646
Epoch: 18900, Error: 0.006928254270811047
Epoch: 19000, Error: 0.006901178433381583
Epoch: 19100, Error: 0.006873688047755065
Epoch: 19200, Error: 0.0068398442950251175
Epoch: 19300, Error: 0.006831536306163694
Epoch: 19400, Error: 0.0067920581073550755
Epoch: 19500, Error: 0.006764932900099748
Epoch: 19600, Error: 0.006735071797402097
Epoch: 19700, Error: 0.006720570437140835
Epoch: 19800, Error: 0.006707318149406978
Epoch: 19900, Error: 0.006652899544012172
Epoch: 20000, Error: 0.0066222888339393686
Epoch: 20100, Error: 0.0065924260878790055
Epoch: 20200, Error: 0.006567447160309668
Epoch: 20300, Error: 0.006566125691725001
Epoch: 20400, Error: 0.006541218768795726
Epoch: 20500, Error: 0.006520914163803936
Epoch: 20600, Error: 0.006487754758203917
Epoch: 20700, Error: 0.006469639091470536
Epoch: 20800, Error: 0.006452162060231716
Epoch: 20900, Error: 0.006399686054028511
Epoch: 21000, Error: 0.006418584195958074
Epoch: 21100, Error: 0.006399321219161461
Epoch: 21200, Error: 0.006367261559127319
Epoch: 21300, Error: 0.006362921706413073
Epoch: 21400, Error: 0.006322575970491741
Epoch: 21500, Error: 0.006299934926051399
Epoch: 21600, Error: 0.00627566308320064
Epoch: 21700, Error: 0.006284015694403172
Epoch: 21800, Error: 0.006216328618359776
Epoch: 21900, Error: 0.006194843920507893
Epoch: 22000, Error: 0.006181725597150346
Epoch: 22100, Error: 0.006161564532137245
Epoch: 22200, Error: 0.006127889668107371
Epoch: 22300, Error: 0.0061102305177992595
Epoch: 22400, Error: 0.006088083838520873
Epoch: 22500, Error: 0.006072889909783136
Epoch: 22600, Error: 0.006047423107249743
Epoch: 22700, Error: 0.006029867884207427
Epoch: 22800, Error: 0.006012651841732117
Epoch: 22900, Error: 0.006002497133084165
Epoch: 23000, Error: 0.0060022868874453125
Epoch: 23100, Error: 0.005974907029828365
Epoch: 23200, Error: 0.005977228720272752
Epoch: 23300, Error: 0.005958312013415062
Epoch: 23400, Error: 0.005960704259504572
Epoch: 23500, Error: 0.005954613154805525
Epoch: 23600, Error: 0.00592663504098003
Epoch: 23700, Error: 0.005918663063456972
Epoch: 23800, Error: 0.005918572708477883
Epoch: 23900, Error: 0.005906259833890865
Epoch: 24000, Error: 0.005902021811135939
Epoch: 24100, Error: 0.005890803633200262
Epoch: 24200, Error: 0.005895706418037428
Epoch: 24300, Error: 0.0058835101506698574
Finished
