Input Patterns
0.224 0.624 0.067 0.043 
0.11 0.502 0.051 0.043 
0.196 0.667 0.067 0.043 
0.055 0.584 0.067 0.082 
0.027 0.376 0.067 0.043 
0.306 0.71 0.086 0.043 
0.137 0.416 0.067 0.0 
0.416 0.831 0.035 0.043 
0.306 0.792 0.051 0.125 
0.388 0.749 0.118 0.082 
0.306 0.584 0.118 0.043 
0.082 0.667 0.0 0.043 
0.137 0.584 0.153 0.043 
0.196 0.584 0.102 0.125 
0.251 0.584 0.067 0.043 
0.137 0.459 0.102 0.043 
0.251 0.875 0.086 0.0 
0.165 0.459 0.086 0.043 
0.333 0.624 0.051 0.043 
0.027 0.416 0.051 0.043 
0.196 0.624 0.051 0.082 
0.027 0.502 0.051 0.043 
0.224 0.749 0.153 0.125 
0.224 0.749 0.102 0.043 
0.278 0.71 0.086 0.043 
0.165 0.416 0.067 0.043 
0.082 0.459 0.086 0.043 
0.306 0.792 0.118 0.125 
0.196 0.584 0.086 0.043 
0.165 0.459 0.086 0.0 
0.137 0.584 0.102 0.043 
0.0 0.416 0.016 0.0 
0.388 1.0 0.086 0.125 
0.224 0.624 0.067 0.082 
0.224 0.749 0.086 0.082 
0.224 0.71 0.086 0.125 
0.224 0.541 0.118 0.165 
0.196 0.416 0.102 0.043 
0.251 0.624 0.086 0.043 
0.11 0.502 0.102 0.043 
0.306 0.584 0.086 0.125 
0.333 0.918 0.067 0.043 
0.196 0.502 0.035 0.043 
0.165 0.667 0.067 0.0 
0.224 0.584 0.086 0.043 
0.055 0.125 0.051 0.082 
0.196 0.624 0.102 0.208 
0.137 0.416 0.067 0.082 
0.082 0.502 0.067 0.043 
0.196 0.541 0.067 0.043 
0.749 0.502 0.627 0.541 
0.722 0.459 0.663 0.584 
0.612 0.333 0.612 0.584 
0.557 0.541 0.627 0.624 
0.639 0.376 0.612 0.498 
0.196 0.0 0.424 0.376 
0.471 0.082 0.51 0.376 
0.361 0.376 0.439 0.498 
0.361 0.416 0.592 0.584 
0.529 0.082 0.592 0.584 
0.443 0.502 0.643 0.459 
0.557 0.208 0.663 0.584 
0.584 0.376 0.561 0.498 
0.694 0.333 0.643 0.541 
0.471 0.376 0.592 0.584 
0.333 0.169 0.475 0.416 
0.416 0.29 0.49 0.459 
0.306 0.416 0.592 0.584 
0.667 0.459 0.627 0.584 
0.361 0.416 0.525 0.498 
0.333 0.251 0.576 0.459 
0.416 0.251 0.51 0.459 
0.361 0.29 0.541 0.498 
0.388 0.376 0.541 0.498 
0.224 0.208 0.337 0.416 
0.584 0.502 0.592 0.584 
0.333 0.125 0.51 0.498 
0.388 0.333 0.592 0.498 
0.165 0.169 0.388 0.376 
0.251 0.29 0.49 0.541 
0.443 0.416 0.541 0.584 
0.498 0.376 0.627 0.541 
0.667 0.459 0.576 0.541 
0.416 0.29 0.525 0.376 
0.361 0.208 0.49 0.416 
0.498 0.333 0.51 0.498 
0.498 0.333 0.627 0.459 
0.639 0.416 0.576 0.541 
0.667 0.416 0.678 0.667 
0.388 0.251 0.424 0.376 
0.333 0.169 0.459 0.376 
0.471 0.29 0.694 0.624 
0.471 0.584 0.592 0.624 
0.557 0.125 0.576 0.498 
0.333 0.208 0.51 0.498 
0.498 0.416 0.612 0.541 
0.196 0.125 0.388 0.376 
0.388 0.416 0.541 0.459 
0.529 0.376 0.561 0.498 
0.388 0.333 0.525 0.498 
0.557 0.541 0.847 1.0 
0.776 0.416 0.831 0.831 
0.612 0.416 0.812 0.875 
0.165 0.208 0.592 0.667 
0.667 0.208 0.812 0.71 
0.612 0.502 0.694 0.792 
0.694 0.416 0.761 0.831 
0.416 0.333 0.694 0.957 
0.612 0.416 0.761 0.71 
0.945 0.251 1.0 0.918 
0.722 0.502 0.796 0.918 
0.945 0.333 0.965 0.792 
0.667 0.541 0.796 0.831 
0.529 0.333 0.643 0.71 
0.584 0.333 0.78 0.831 
0.863 0.333 0.863 0.749 
0.584 0.333 0.78 0.875 
0.498 0.251 0.78 0.541 
0.557 0.584 0.78 0.957 
0.471 0.416 0.643 0.71 
0.667 0.459 0.78 0.957 
0.416 0.29 0.694 0.749 
0.667 0.541 0.796 1.0 
0.557 0.208 0.678 0.749 
0.529 0.584 0.745 0.918 
0.416 0.29 0.694 0.749 
0.557 0.376 0.78 0.71 
0.918 0.416 0.949 0.831 
0.835 0.376 0.898 0.71 
0.804 0.667 0.863 1.0 
0.584 0.29 0.729 0.749 
0.388 0.208 0.678 0.792 
0.584 0.502 0.729 0.918 
0.945 0.749 0.965 0.875 
0.471 0.082 0.678 0.584 
0.361 0.333 0.663 0.792 
0.557 0.29 0.663 0.71 
0.804 0.502 0.847 0.71 
0.498 0.416 0.51 0.71 
0.804 0.416 0.812 0.624 
1.0 0.749 0.914 0.792 
0.557 0.333 0.694 0.584 
0.945 0.416 0.863 0.918 
0.584 0.459 0.761 0.71 
0.722 0.459 0.745 0.831 
0.722 0.459 0.694 0.918 
0.694 0.502 0.831 0.918 
0.667 0.416 0.714 0.918 
0.612 0.416 0.714 0.792 
0.443 0.416 0.694 0.71 
Teaching Patterns
1.0 0.0 0.0 
1.0 0.0 0.0 
1.0 0.0 0.0 
1.0 0.0 0.0 
1.0 0.0 0.0 
1.0 0.0 0.0 
1.0 0.0 0.0 
1.0 0.0 0.0 
1.0 0.0 0.0 
1.0 0.0 0.0 
1.0 0.0 0.0 
1.0 0.0 0.0 
1.0 0.0 0.0 
1.0 0.0 0.0 
1.0 0.0 0.0 
1.0 0.0 0.0 
1.0 0.0 0.0 
1.0 0.0 0.0 
1.0 0.0 0.0 
1.0 0.0 0.0 
1.0 0.0 0.0 
1.0 0.0 0.0 
1.0 0.0 0.0 
1.0 0.0 0.0 
1.0 0.0 0.0 
1.0 0.0 0.0 
1.0 0.0 0.0 
1.0 0.0 0.0 
1.0 0.0 0.0 
1.0 0.0 0.0 
1.0 0.0 0.0 
1.0 0.0 0.0 
1.0 0.0 0.0 
1.0 0.0 0.0 
1.0 0.0 0.0 
1.0 0.0 0.0 
1.0 0.0 0.0 
1.0 0.0 0.0 
1.0 0.0 0.0 
1.0 0.0 0.0 
1.0 0.0 0.0 
1.0 0.0 0.0 
1.0 0.0 0.0 
1.0 0.0 0.0 
1.0 0.0 0.0 
1.0 0.0 0.0 
1.0 0.0 0.0 
1.0 0.0 0.0 
1.0 0.0 0.0 
1.0 0.0 0.0 
0.0 1.0 0.0 
0.0 1.0 0.0 
0.0 1.0 0.0 
0.0 1.0 0.0 
0.0 1.0 0.0 
0.0 1.0 0.0 
0.0 1.0 0.0 
0.0 1.0 0.0 
0.0 1.0 0.0 
0.0 1.0 0.0 
0.0 1.0 0.0 
0.0 1.0 0.0 
0.0 1.0 0.0 
0.0 1.0 0.0 
0.0 1.0 0.0 
0.0 1.0 0.0 
0.0 1.0 0.0 
0.0 1.0 0.0 
0.0 1.0 0.0 
0.0 1.0 0.0 
0.0 1.0 0.0 
0.0 1.0 0.0 
0.0 1.0 0.0 
0.0 1.0 0.0 
0.0 1.0 0.0 
0.0 1.0 0.0 
0.0 1.0 0.0 
0.0 1.0 0.0 
0.0 1.0 0.0 
0.0 1.0 0.0 
0.0 1.0 0.0 
0.0 1.0 0.0 
0.0 1.0 0.0 
0.0 1.0 0.0 
0.0 1.0 0.0 
0.0 1.0 0.0 
0.0 1.0 0.0 
0.0 1.0 0.0 
0.0 1.0 0.0 
0.0 1.0 0.0 
0.0 1.0 0.0 
0.0 1.0 0.0 
0.0 1.0 0.0 
0.0 1.0 0.0 
0.0 1.0 0.0 
0.0 1.0 0.0 
0.0 1.0 0.0 
0.0 1.0 0.0 
0.0 1.0 0.0 
0.0 1.0 0.0 
0.0 0.0 1.0 
0.0 0.0 1.0 
0.0 0.0 1.0 
0.0 0.0 1.0 
0.0 0.0 1.0 
0.0 0.0 1.0 
0.0 0.0 1.0 
0.0 0.0 1.0 
0.0 0.0 1.0 
0.0 0.0 1.0 
0.0 0.0 1.0 
0.0 0.0 1.0 
0.0 0.0 1.0 
0.0 0.0 1.0 
0.0 0.0 1.0 
0.0 0.0 1.0 
0.0 0.0 1.0 
0.0 0.0 1.0 
0.0 0.0 1.0 
0.0 0.0 1.0 
0.0 0.0 1.0 
0.0 0.0 1.0 
0.0 0.0 1.0 
0.0 0.0 1.0 
0.0 0.0 1.0 
0.0 0.0 1.0 
0.0 0.0 1.0 
0.0 0.0 1.0 
0.0 0.0 1.0 
0.0 0.0 1.0 
0.0 0.0 1.0 
0.0 0.0 1.0 
0.0 0.0 1.0 
0.0 0.0 1.0 
0.0 0.0 1.0 
0.0 0.0 1.0 
0.0 0.0 1.0 
0.0 0.0 1.0 
0.0 0.0 1.0 
0.0 0.0 1.0 
0.0 0.0 1.0 
0.0 0.0 1.0 
0.0 0.0 1.0 
0.0 0.0 1.0 
0.0 0.0 1.0 
0.0 0.0 1.0 
0.0 0.0 1.0 
0.0 0.0 1.0 
0.0 0.0 1.0 
0.0 0.0 1.0 
Learning : 0.949999988079071
Momentum : 0.9
Epoch: 100, Error: 0.014219022428193295
Epoch: 200, Error: 0.013882879908902157
Epoch: 300, Error: 0.013244544486178936
Epoch: 400, Error: 0.013378928739050031
Epoch: 500, Error: 0.012474506744334897
Epoch: 600, Error: 0.013632814650246987
Epoch: 700, Error: 0.012711160887943815
Epoch: 800, Error: 0.013557306962727642
Epoch: 900, Error: 0.012627622664669182
Epoch: 1000, Error: 0.013063407392456296
Epoch: 1100, Error: 0.012550868517385877
Epoch: 1200, Error: 0.01695782648506876
Epoch: 1300, Error: 0.01271736897102639
Epoch: 1400, Error: 0.012338159934577595
Epoch: 1500, Error: 0.012123048343780954
Epoch: 1600, Error: 0.011891289931275247
Epoch: 1700, Error: 0.01207350148168113
Epoch: 1800, Error: 0.01190998230031292
Epoch: 1900, Error: 0.011779589916912803
Epoch: 2000, Error: 0.011349240936199245
Epoch: 2100, Error: 0.011264917389254335
Epoch: 2200, Error: 0.011307250787634272
Epoch: 2300, Error: 0.010672015549708733
Epoch: 2400, Error: 0.011097959576764774
Epoch: 2500, Error: 0.012455629266987598
Epoch: 2600, Error: 0.009722370208034601
Epoch: 2700, Error: 0.008319700116454448
Epoch: 2800, Error: 0.007681176425225083
Epoch: 2900, Error: 0.008095505230153358
Epoch: 3000, Error: 0.006951768375841014
Epoch: 3100, Error: 0.006734127295615803
Epoch: 3200, Error: 0.00671875634049423
Epoch: 3300, Error: 0.006286820998706882
Epoch: 3400, Error: 0.006429146813304301
Epoch: 3500, Error: 0.005951798839984838
Epoch: 3600, Error: 0.006056259487941677
Epoch: 3700, Error: 0.006065805938647834
Epoch: 3800, Error: 0.00621898263138701
Epoch: 3900, Error: 0.005832889436761319
Epoch: 4000, Error: 0.005728688963675918
Epoch: 4100, Error: 0.005614655388681058
Epoch: 4200, Error: 0.0055124714478154545
Epoch: 4300, Error: 0.005622100187003319
Epoch: 4400, Error: 0.006015385630820363
Epoch: 4500, Error: 0.005657180389909749
Epoch: 4600, Error: 0.005532968572683051
Epoch: 4700, Error: 0.005455816052388034
Epoch: 4800, Error: 0.0054978850702575984
Epoch: 4900, Error: 0.005505248887776042
Epoch: 5000, Error: 0.005420316596833217
Epoch: 5100, Error: 0.005499140205250555
Epoch: 5200, Error: 0.005481095246279773
Epoch: 5300, Error: 0.005426505021634517
Epoch: 5400, Error: 0.005521783506207975
Epoch: 5500, Error: 0.0054529449215972225
Epoch: 5600, Error: 0.005396744115890024
Epoch: 5700, Error: 0.005453218456880739
Epoch: 5800, Error: 0.00550694448598527
Epoch: 5900, Error: 0.0054470128156678755
Epoch: 6000, Error: 0.0054117672774427845
Epoch: 6100, Error: 0.005495371084412299
Epoch: 6200, Error: 0.0052625585684694404
Epoch: 6300, Error: 0.005395652271978545
Epoch: 6400, Error: 0.005441983061651883
Epoch: 6500, Error: 0.005370703525468487
Epoch: 6600, Error: 0.005328468045602466
Epoch: 6700, Error: 0.005290023499466639
Epoch: 6800, Error: 0.005441896681283185
Epoch: 6900, Error: 0.00537107399635661
Epoch: 7000, Error: 0.005383669106690784
Epoch: 7100, Error: 0.005300688414392668
Epoch: 7200, Error: 0.005320804436974464
Epoch: 7300, Error: 0.005312732817420294
Epoch: 7400, Error: 0.005345740259595932
Epoch: 7500, Error: 0.005285246577293605
Epoch: 7600, Error: 0.005385121087817827
Epoch: 7700, Error: 0.005134266206179993
Epoch: 7800, Error: 0.005232159941767402
Epoch: 7900, Error: 0.004981540306898197
Epoch: 8000, Error: 0.005223797799387535
Epoch: 8100, Error: 0.004570541959066504
Epoch: 8200, Error: 0.004273483093636464
Epoch: 8300, Error: 0.004500998845211321
Epoch: 8400, Error: 0.0036854826601532427
Epoch: 8500, Error: 0.0033746021277650017
Epoch: 8600, Error: 0.004521369104005859
Epoch: 8700, Error: 0.002846687272579623
Epoch: 8800, Error: 0.002329634943128631
Epoch: 8900, Error: 0.0025238607008742165
Epoch: 9000, Error: 0.0038226821018375323
Epoch: 9100, Error: 0.0024333244729098113
Epoch: 9200, Error: 0.0012725099020273818
Epoch: 9300, Error: 0.001138429848114081
Epoch: 9400, Error: 0.001114327970759784
Epoch: 9500, Error: 0.001197507942497489
Epoch: 9600, Error: 0.0010258221350040882
Epoch: 9700, Error: 0.0010416160783931578
Epoch: 9800, Error: 9.687204903675896E-4
Epoch: 9900, Error: 9.308593779632204E-4
Epoch: 10000, Error: 9.1549529372256E-4
Epoch: 10100, Error: 8.960607907135527E-4
Epoch: 10200, Error: 8.570440629432218E-4
Epoch: 10300, Error: 8.487789620609707E-4
Epoch: 10400, Error: 7.97190681029854E-4
Epoch: 10500, Error: 7.233492534870525E-4
Epoch: 10600, Error: 6.788762462124881E-4
Epoch: 10700, Error: 6.644302709945488E-4
Epoch: 10800, Error: 6.638133552032518E-4
Epoch: 10900, Error: 6.461412295639837E-4
Epoch: 11000, Error: 6.41137067812922E-4
Epoch: 11100, Error: 6.537467602003478E-4
Epoch: 11200, Error: 6.314241689588026E-4
Epoch: 11300, Error: 6.373472645763111E-4
Epoch: 11400, Error: 6.400700940562187E-4
Epoch: 11500, Error: 6.278221839559141E-4
Finished
