Input Patterns
0.224 0.624 0.067 0.043 
0.11 0.502 0.051 0.043 
0.196 0.667 0.067 0.043 
0.055 0.584 0.067 0.082 
0.027 0.376 0.067 0.043 
0.306 0.71 0.086 0.043 
0.137 0.416 0.067 0.0 
0.416 0.831 0.035 0.043 
0.306 0.792 0.051 0.125 
0.388 0.749 0.118 0.082 
0.306 0.584 0.118 0.043 
0.082 0.667 0.0 0.043 
0.137 0.584 0.153 0.043 
0.196 0.584 0.102 0.125 
0.251 0.584 0.067 0.043 
0.137 0.459 0.102 0.043 
0.251 0.875 0.086 0.0 
0.165 0.459 0.086 0.043 
0.333 0.624 0.051 0.043 
0.027 0.416 0.051 0.043 
0.196 0.624 0.051 0.082 
0.027 0.502 0.051 0.043 
0.224 0.749 0.153 0.125 
0.224 0.749 0.102 0.043 
0.278 0.71 0.086 0.043 
0.165 0.416 0.067 0.043 
0.082 0.459 0.086 0.043 
0.306 0.792 0.118 0.125 
0.196 0.584 0.086 0.043 
0.165 0.459 0.086 0.0 
0.137 0.584 0.102 0.043 
0.0 0.416 0.016 0.0 
0.388 1.0 0.086 0.125 
0.224 0.624 0.067 0.082 
0.224 0.749 0.086 0.082 
0.224 0.71 0.086 0.125 
0.224 0.541 0.118 0.165 
0.196 0.416 0.102 0.043 
0.251 0.624 0.086 0.043 
0.11 0.502 0.102 0.043 
0.306 0.584 0.086 0.125 
0.333 0.918 0.067 0.043 
0.196 0.502 0.035 0.043 
0.165 0.667 0.067 0.0 
0.224 0.584 0.086 0.043 
0.055 0.125 0.051 0.082 
0.196 0.624 0.102 0.208 
0.137 0.416 0.067 0.082 
0.082 0.502 0.067 0.043 
0.196 0.541 0.067 0.043 
0.749 0.502 0.627 0.541 
0.722 0.459 0.663 0.584 
0.612 0.333 0.612 0.584 
0.557 0.541 0.627 0.624 
0.639 0.376 0.612 0.498 
0.196 0.0 0.424 0.376 
0.471 0.082 0.51 0.376 
0.361 0.376 0.439 0.498 
0.361 0.416 0.592 0.584 
0.529 0.082 0.592 0.584 
0.443 0.502 0.643 0.459 
0.557 0.208 0.663 0.584 
0.584 0.376 0.561 0.498 
0.694 0.333 0.643 0.541 
0.471 0.376 0.592 0.584 
0.333 0.169 0.475 0.416 
0.416 0.29 0.49 0.459 
0.306 0.416 0.592 0.584 
0.667 0.459 0.627 0.584 
0.361 0.416 0.525 0.498 
0.333 0.251 0.576 0.459 
0.416 0.251 0.51 0.459 
0.361 0.29 0.541 0.498 
0.388 0.376 0.541 0.498 
0.224 0.208 0.337 0.416 
0.584 0.502 0.592 0.584 
0.333 0.125 0.51 0.498 
0.388 0.333 0.592 0.498 
0.165 0.169 0.388 0.376 
0.251 0.29 0.49 0.541 
0.443 0.416 0.541 0.584 
0.498 0.376 0.627 0.541 
0.667 0.459 0.576 0.541 
0.416 0.29 0.525 0.376 
0.361 0.208 0.49 0.416 
0.498 0.333 0.51 0.498 
0.498 0.333 0.627 0.459 
0.639 0.416 0.576 0.541 
0.667 0.416 0.678 0.667 
0.388 0.251 0.424 0.376 
0.333 0.169 0.459 0.376 
0.471 0.29 0.694 0.624 
0.471 0.584 0.592 0.624 
0.557 0.125 0.576 0.498 
0.333 0.208 0.51 0.498 
0.498 0.416 0.612 0.541 
0.196 0.125 0.388 0.376 
0.388 0.416 0.541 0.459 
0.529 0.376 0.561 0.498 
0.388 0.333 0.525 0.498 
0.557 0.541 0.847 1.0 
0.776 0.416 0.831 0.831 
0.612 0.416 0.812 0.875 
0.165 0.208 0.592 0.667 
0.667 0.208 0.812 0.71 
0.612 0.502 0.694 0.792 
0.694 0.416 0.761 0.831 
0.416 0.333 0.694 0.957 
0.612 0.416 0.761 0.71 
0.945 0.251 1.0 0.918 
0.722 0.502 0.796 0.918 
0.945 0.333 0.965 0.792 
0.667 0.541 0.796 0.831 
0.529 0.333 0.643 0.71 
0.584 0.333 0.78 0.831 
0.863 0.333 0.863 0.749 
0.584 0.333 0.78 0.875 
0.498 0.251 0.78 0.541 
0.557 0.584 0.78 0.957 
0.471 0.416 0.643 0.71 
0.667 0.459 0.78 0.957 
0.416 0.29 0.694 0.749 
0.667 0.541 0.796 1.0 
0.557 0.208 0.678 0.749 
0.529 0.584 0.745 0.918 
0.416 0.29 0.694 0.749 
0.557 0.376 0.78 0.71 
0.918 0.416 0.949 0.831 
0.835 0.376 0.898 0.71 
0.804 0.667 0.863 1.0 
0.584 0.29 0.729 0.749 
0.388 0.208 0.678 0.792 
0.584 0.502 0.729 0.918 
0.945 0.749 0.965 0.875 
0.471 0.082 0.678 0.584 
0.361 0.333 0.663 0.792 
0.557 0.29 0.663 0.71 
0.804 0.502 0.847 0.71 
0.498 0.416 0.51 0.71 
0.804 0.416 0.812 0.624 
1.0 0.749 0.914 0.792 
0.557 0.333 0.694 0.584 
0.945 0.416 0.863 0.918 
0.584 0.459 0.761 0.71 
0.722 0.459 0.745 0.831 
0.722 0.459 0.694 0.918 
0.694 0.502 0.831 0.918 
0.667 0.416 0.714 0.918 
0.612 0.416 0.714 0.792 
0.443 0.416 0.694 0.71 
Teaching Patterns
1.0 0.0 0.0 
1.0 0.0 0.0 
1.0 0.0 0.0 
1.0 0.0 0.0 
1.0 0.0 0.0 
1.0 0.0 0.0 
1.0 0.0 0.0 
1.0 0.0 0.0 
1.0 0.0 0.0 
1.0 0.0 0.0 
1.0 0.0 0.0 
1.0 0.0 0.0 
1.0 0.0 0.0 
1.0 0.0 0.0 
1.0 0.0 0.0 
1.0 0.0 0.0 
1.0 0.0 0.0 
1.0 0.0 0.0 
1.0 0.0 0.0 
1.0 0.0 0.0 
1.0 0.0 0.0 
1.0 0.0 0.0 
1.0 0.0 0.0 
1.0 0.0 0.0 
1.0 0.0 0.0 
1.0 0.0 0.0 
1.0 0.0 0.0 
1.0 0.0 0.0 
1.0 0.0 0.0 
1.0 0.0 0.0 
1.0 0.0 0.0 
1.0 0.0 0.0 
1.0 0.0 0.0 
1.0 0.0 0.0 
1.0 0.0 0.0 
1.0 0.0 0.0 
1.0 0.0 0.0 
1.0 0.0 0.0 
1.0 0.0 0.0 
1.0 0.0 0.0 
1.0 0.0 0.0 
1.0 0.0 0.0 
1.0 0.0 0.0 
1.0 0.0 0.0 
1.0 0.0 0.0 
1.0 0.0 0.0 
1.0 0.0 0.0 
1.0 0.0 0.0 
1.0 0.0 0.0 
1.0 0.0 0.0 
0.0 1.0 0.0 
0.0 1.0 0.0 
0.0 1.0 0.0 
0.0 1.0 0.0 
0.0 1.0 0.0 
0.0 1.0 0.0 
0.0 1.0 0.0 
0.0 1.0 0.0 
0.0 1.0 0.0 
0.0 1.0 0.0 
0.0 1.0 0.0 
0.0 1.0 0.0 
0.0 1.0 0.0 
0.0 1.0 0.0 
0.0 1.0 0.0 
0.0 1.0 0.0 
0.0 1.0 0.0 
0.0 1.0 0.0 
0.0 1.0 0.0 
0.0 1.0 0.0 
0.0 1.0 0.0 
0.0 1.0 0.0 
0.0 1.0 0.0 
0.0 1.0 0.0 
0.0 1.0 0.0 
0.0 1.0 0.0 
0.0 1.0 0.0 
0.0 1.0 0.0 
0.0 1.0 0.0 
0.0 1.0 0.0 
0.0 1.0 0.0 
0.0 1.0 0.0 
0.0 1.0 0.0 
0.0 1.0 0.0 
0.0 1.0 0.0 
0.0 1.0 0.0 
0.0 1.0 0.0 
0.0 1.0 0.0 
0.0 1.0 0.0 
0.0 1.0 0.0 
0.0 1.0 0.0 
0.0 1.0 0.0 
0.0 1.0 0.0 
0.0 1.0 0.0 
0.0 1.0 0.0 
0.0 1.0 0.0 
0.0 1.0 0.0 
0.0 1.0 0.0 
0.0 1.0 0.0 
0.0 1.0 0.0 
0.0 0.0 1.0 
0.0 0.0 1.0 
0.0 0.0 1.0 
0.0 0.0 1.0 
0.0 0.0 1.0 
0.0 0.0 1.0 
0.0 0.0 1.0 
0.0 0.0 1.0 
0.0 0.0 1.0 
0.0 0.0 1.0 
0.0 0.0 1.0 
0.0 0.0 1.0 
0.0 0.0 1.0 
0.0 0.0 1.0 
0.0 0.0 1.0 
0.0 0.0 1.0 
0.0 0.0 1.0 
0.0 0.0 1.0 
0.0 0.0 1.0 
0.0 0.0 1.0 
0.0 0.0 1.0 
0.0 0.0 1.0 
0.0 0.0 1.0 
0.0 0.0 1.0 
0.0 0.0 1.0 
0.0 0.0 1.0 
0.0 0.0 1.0 
0.0 0.0 1.0 
0.0 0.0 1.0 
0.0 0.0 1.0 
0.0 0.0 1.0 
0.0 0.0 1.0 
0.0 0.0 1.0 
0.0 0.0 1.0 
0.0 0.0 1.0 
0.0 0.0 1.0 
0.0 0.0 1.0 
0.0 0.0 1.0 
0.0 0.0 1.0 
0.0 0.0 1.0 
0.0 0.0 1.0 
0.0 0.0 1.0 
0.0 0.0 1.0 
0.0 0.0 1.0 
0.0 0.0 1.0 
0.0 0.0 1.0 
0.0 0.0 1.0 
0.0 0.0 1.0 
0.0 0.0 1.0 
0.0 0.0 1.0 
Learning : 0.949999988079071
Momentum : 0.9
Epoch: 100, Error: 0.012423355576457521
Epoch: 200, Error: 0.013069750957414384
Epoch: 300, Error: 0.012321649252423378
Epoch: 400, Error: 0.011895192088777576
Epoch: 500, Error: 0.012613548152312129
Epoch: 600, Error: 0.012661898775978248
Epoch: 700, Error: 0.011850403282954981
Epoch: 800, Error: 0.01187896359147073
Epoch: 900, Error: 0.013243056178484962
Epoch: 1000, Error: 0.011896207339189786
Epoch: 1100, Error: 0.011664821832521504
Epoch: 1200, Error: 0.011925368078438794
Epoch: 1300, Error: 0.01152085049318195
Epoch: 1400, Error: 0.011384155233622073
Epoch: 1500, Error: 0.011125264298239047
Epoch: 1600, Error: 0.011531543662392056
Epoch: 1700, Error: 0.013114903497021874
Epoch: 1800, Error: 0.010971522390470553
Epoch: 1900, Error: 0.010987129176028903
Epoch: 2000, Error: 0.011043275992571783
Epoch: 2100, Error: 0.010660669432552651
Epoch: 2200, Error: 0.011894713351213934
Epoch: 2300, Error: 0.01135069453307004
Epoch: 2400, Error: 0.010873285289587106
Epoch: 2500, Error: 0.010743637105700006
Epoch: 2600, Error: 0.010686694286199144
Epoch: 2700, Error: 0.01046145653028388
Epoch: 2800, Error: 0.010650320777190159
Epoch: 2900, Error: 0.015413063792669504
Epoch: 3000, Error: 0.01101543160654343
Epoch: 3100, Error: 0.010308858240986552
Epoch: 3200, Error: 0.01099330198207109
Epoch: 3300, Error: 0.010341600666938634
Epoch: 3400, Error: 0.01059695184052174
Epoch: 3500, Error: 0.010457118045638144
Epoch: 3600, Error: 0.013999927995963812
Epoch: 3700, Error: 0.011845931055866607
Epoch: 3800, Error: 0.01038967134830152
Epoch: 3900, Error: 0.010758357660018484
Epoch: 4000, Error: 0.01042347447172213
Epoch: 4100, Error: 0.010430534485168893
Epoch: 4200, Error: 0.010540117591245802
Epoch: 4300, Error: 0.010204580517438321
Epoch: 4400, Error: 0.010816443434211636
Epoch: 4500, Error: 0.010916851430450914
Epoch: 4600, Error: 0.012121254995334585
Epoch: 4700, Error: 0.010325250317233125
Epoch: 4800, Error: 0.010409978815507722
Epoch: 4900, Error: 0.009940681495529518
Epoch: 5000, Error: 0.009764348269260207
Epoch: 5100, Error: 0.010588518653614532
Epoch: 5200, Error: 0.010329035081056244
Epoch: 5300, Error: 0.009989035725166096
Epoch: 5400, Error: 0.00986734813841479
Epoch: 5500, Error: 0.01051132637101737
Epoch: 5600, Error: 0.010064523858761118
Epoch: 5700, Error: 0.009721485675763817
Epoch: 5800, Error: 0.009764147111646151
Epoch: 5900, Error: 0.00974979130297861
Epoch: 6000, Error: 0.009756779519350332
Epoch: 6100, Error: 0.00976501889852851
Epoch: 6200, Error: 0.010715713191614263
Epoch: 6300, Error: 0.009873608982359937
Epoch: 6400, Error: 0.010355039544101713
Epoch: 6500, Error: 0.009729376049142075
Epoch: 6600, Error: 0.00977977123404989
Epoch: 6700, Error: 0.01026530297949162
Epoch: 6800, Error: 0.010212544223074745
Epoch: 6900, Error: 0.0102012843954774
Epoch: 7000, Error: 0.009940101365778532
Epoch: 7100, Error: 0.009604009761402929
Epoch: 7200, Error: 0.009999387211292442
Epoch: 7300, Error: 0.009702012159765313
Epoch: 7400, Error: 0.009601718117460226
Epoch: 7500, Error: 0.009559592267467708
Epoch: 7600, Error: 0.009961689900950442
Epoch: 7700, Error: 0.009783910579006171
Epoch: 7800, Error: 0.009899031970092759
Epoch: 7900, Error: 0.010219926656961916
Epoch: 8000, Error: 0.009473256697918635
Epoch: 8100, Error: 0.010071896350342842
Epoch: 8200, Error: 0.01142268551495232
Epoch: 8300, Error: 0.009471365275828095
Epoch: 8400, Error: 0.00950277885767576
Epoch: 8500, Error: 0.009801596643001497
Epoch: 8600, Error: 0.009507517806191619
Epoch: 8700, Error: 0.009580374119625892
Epoch: 8800, Error: 0.009547178382128768
Epoch: 8900, Error: 0.009582780925872983
Epoch: 9000, Error: 0.010680522351907976
Epoch: 9100, Error: 0.009500968185082016
Epoch: 9200, Error: 0.009725352494658893
Epoch: 9300, Error: 0.009698169216320775
Epoch: 9400, Error: 0.01000117090360246
Epoch: 9500, Error: 0.009607825202363838
Epoch: 9600, Error: 0.009629101709922474
Epoch: 9700, Error: 0.009618889316421294
Epoch: 9800, Error: 0.009514514610957753
Epoch: 9900, Error: 0.009723726963651062
Epoch: 10000, Error: 0.009520427824654426
Epoch: 10100, Error: 0.009901598471290171
Epoch: 10200, Error: 0.011238162724863181
Epoch: 10300, Error: 0.009855458928839102
Epoch: 10400, Error: 0.009492236182572777
Epoch: 10500, Error: 0.009642813170066555
Epoch: 10600, Error: 0.009486284827683683
Epoch: 10700, Error: 0.009769912367807542
Epoch: 10800, Error: 0.009895410389593476
Epoch: 10900, Error: 0.009471265572927743
Epoch: 11000, Error: 0.009388160145613625
Epoch: 11100, Error: 0.009444843150567898
Epoch: 11200, Error: 0.010135276747641465
Epoch: 11300, Error: 0.009372201642868372
Epoch: 11400, Error: 0.009659872602191862
Epoch: 11500, Error: 0.010021201424451367
Epoch: 11600, Error: 0.009467564991196482
Epoch: 11700, Error: 0.009535828492219789
Epoch: 11800, Error: 0.009584961354446071
Epoch: 11900, Error: 0.009730990625735516
Epoch: 12000, Error: 0.00932264166309953
Epoch: 12100, Error: 0.009648498502940956
Epoch: 12200, Error: 0.00996493624090334
Epoch: 12300, Error: 0.009459563096861329
Epoch: 12400, Error: 0.009524755159830424
Epoch: 12500, Error: 0.009342261279935662
Epoch: 12600, Error: 0.009551770751723171
Epoch: 12700, Error: 0.009493728498786764
Epoch: 12800, Error: 0.01015434744325521
Epoch: 12900, Error: 0.009851443886306953
Epoch: 13000, Error: 0.009338069440472371
Epoch: 13100, Error: 0.009701295279940217
Epoch: 13200, Error: 0.009509602511964725
Epoch: 13300, Error: 0.00939273787910984
Epoch: 13400, Error: 0.009448457028483312
Epoch: 13500, Error: 0.010052021437508985
Epoch: 13600, Error: 0.009574987000683613
Epoch: 13700, Error: 0.009288322998815083
Epoch: 13800, Error: 0.00942653190468167
Epoch: 13900, Error: 0.009491883585496505
Epoch: 14000, Error: 0.009866789797554749
Epoch: 14100, Error: 0.00968619588587851
Epoch: 14200, Error: 0.009352151133504544
Epoch: 14300, Error: 0.009665040471264858
Epoch: 14400, Error: 0.00915778477539198
Epoch: 14500, Error: 0.00966874119481586
Epoch: 14600, Error: 0.009420954707303553
Epoch: 14700, Error: 0.009855250643149153
Epoch: 14800, Error: 0.009403833853869356
Epoch: 14900, Error: 0.009413069776592715
Epoch: 15000, Error: 0.009173968577292113
Epoch: 15100, Error: 0.009244297411586836
Epoch: 15200, Error: 0.009397970575404653
Epoch: 15300, Error: 0.00965638734476238
Epoch: 15400, Error: 0.009419968264196376
Epoch: 15500, Error: 0.009449963341706991
Epoch: 15600, Error: 0.009320492325096878
Epoch: 15700, Error: 0.00926173998381579
Epoch: 15800, Error: 0.009409152526786963
Epoch: 15900, Error: 0.00942817308999883
Epoch: 16000, Error: 0.009828193677307275
Epoch: 16100, Error: 0.009274446746700558
Epoch: 16200, Error: 0.009431920985461965
Epoch: 16300, Error: 0.009984848149368505
Epoch: 16400, Error: 0.009689927175768255
Epoch: 16500, Error: 0.009781781915524377
Epoch: 16600, Error: 0.009813562553820349
Epoch: 16700, Error: 0.009591737989658008
Epoch: 16800, Error: 0.010541011440902547
Epoch: 16900, Error: 0.009457961788013901
Epoch: 17000, Error: 0.009375130953911244
Epoch: 17100, Error: 0.009416547279263669
Epoch: 17200, Error: 0.009391710741651287
Epoch: 17300, Error: 0.009380810851950151
Epoch: 17400, Error: 0.009428099417719762
Epoch: 17500, Error: 0.009513841047125616
Epoch: 17600, Error: 0.010515116889341222
Epoch: 17700, Error: 0.009368103915798114
Epoch: 17800, Error: 0.009890391171545455
Epoch: 17900, Error: 0.009434357288709273
Epoch: 18000, Error: 0.009464685870764057
Epoch: 18100, Error: 0.00979125226782846
Epoch: 18200, Error: 0.009307222280774548
Epoch: 18300, Error: 0.012225002030662907
Epoch: 18400, Error: 0.009403037026562767
Epoch: 18500, Error: 0.009454845693774932
Epoch: 18600, Error: 0.009890982385155357
Epoch: 18700, Error: 0.009979481071251293
Epoch: 18800, Error: 0.009743997700063137
Epoch: 18900, Error: 0.00935226962379065
Epoch: 19000, Error: 0.009714172397277392
Epoch: 19100, Error: 0.009495010884416389
Epoch: 19200, Error: 0.009230046087219633
Epoch: 19300, Error: 0.009326299345985339
Epoch: 19400, Error: 0.009635623165806722
Epoch: 19500, Error: 0.009952663766006377
Epoch: 19600, Error: 0.009231669582145127
Epoch: 19700, Error: 0.00971068324323903
Epoch: 19800, Error: 0.009862094878956479
Epoch: 19900, Error: 0.010057024201095985
Epoch: 20000, Error: 0.00947751887063468
Epoch: 20100, Error: 0.00998251563684877
Epoch: 20200, Error: 0.009660597901190737
Epoch: 20300, Error: 0.009688398454749452
Epoch: 20400, Error: 0.009494584221036289
Epoch: 20500, Error: 0.009540066016034594
Epoch: 20600, Error: 0.00961550454868104
Epoch: 20700, Error: 0.009250634879718113
Epoch: 20800, Error: 0.009471398459981451
Epoch: 20900, Error: 0.009246121153818001
Epoch: 21000, Error: 0.009380919770972296
Epoch: 21100, Error: 0.009199312647703819
Epoch: 21200, Error: 0.009427853487512898
Epoch: 21300, Error: 0.009153353357013816
Epoch: 21400, Error: 0.009192406440354633
Epoch: 21500, Error: 0.009129584200247485
Epoch: 21600, Error: 0.0094433218883172
Epoch: 21700, Error: 0.009785744920212912
Epoch: 21800, Error: 0.009434024424113646
Epoch: 21900, Error: 0.009709002439163198
Epoch: 22000, Error: 0.00955327509625192
Epoch: 22100, Error: 0.009630533664455222
Epoch: 22200, Error: 0.009415372941814283
Epoch: 22300, Error: 0.009468220820087091
Epoch: 22400, Error: 0.009936292287861397
Epoch: 22500, Error: 0.009422344408268543
Epoch: 22600, Error: 0.009380007993330516
Epoch: 22700, Error: 0.009589179995960217
Epoch: 22800, Error: 0.009242360445914043
Epoch: 22900, Error: 0.009486786997057245
Epoch: 23000, Error: 0.009400040005623278
Epoch: 23100, Error: 0.011898970661162368
Epoch: 23200, Error: 0.009501720617833566
Epoch: 23300, Error: 0.009550660800358322
Epoch: 23400, Error: 0.009593412616840036
Epoch: 23500, Error: 0.009162655496022668
Epoch: 23600, Error: 0.009371295026115958
Epoch: 23700, Error: 0.009530878186446233
Epoch: 23800, Error: 0.009436235179842312
Epoch: 23900, Error: 0.00973871042203297
Epoch: 24000, Error: 0.009457205489217817
Epoch: 24100, Error: 0.009675344477873167
Epoch: 24200, Error: 0.00958400337499121
Epoch: 24300, Error: 0.009324593630557133
Epoch: 24400, Error: 0.009651206705119954
Epoch: 24500, Error: 0.009596468771806794
Epoch: 24600, Error: 0.00958338042834581
Epoch: 24700, Error: 0.009517179053030669
Epoch: 24800, Error: 0.009677719871771868
Epoch: 24900, Error: 0.009262353820509703
Epoch: 25000, Error: 0.009168410640275916
Epoch: 25100, Error: 0.009671717602731054
Epoch: 25200, Error: 0.010187567233963326
Epoch: 25300, Error: 0.009316480810980188
Epoch: 25400, Error: 0.009415270620115053
Epoch: 25500, Error: 0.009496480928081233
Epoch: 25600, Error: 0.009230786091153348
Epoch: 25700, Error: 0.009673333471616951
Epoch: 25800, Error: 0.009381675811583024
Epoch: 25900, Error: 0.00951098772273125
Epoch: 26000, Error: 0.00969335048245209
Epoch: 26100, Error: 0.010005207400295132
Epoch: 26200, Error: 0.012033026626212893
Epoch: 26300, Error: 0.009324449972038195
Epoch: 26400, Error: 0.009540724665671041
Epoch: 26500, Error: 0.009542585285146987
Epoch: 26600, Error: 0.009321815229754523
Epoch: 26700, Error: 0.010055050971184833
Epoch: 26800, Error: 0.009352715024739597
Epoch: 26900, Error: 0.009894442337931656
Epoch: 27000, Error: 0.009399601639151793
Epoch: 27100, Error: 0.009290160171471896
Epoch: 27200, Error: 0.01070286867218895
Epoch: 27300, Error: 0.009512460538152925
Epoch: 27400, Error: 0.01094355189496098
Epoch: 27500, Error: 0.009358744374592578
Epoch: 27600, Error: 0.0095374552763807
Epoch: 27700, Error: 0.009216233907500912
Epoch: 27800, Error: 0.009390076540324612
Epoch: 27900, Error: 0.009847333855455503
Epoch: 28000, Error: 0.009414719264625794
Epoch: 28100, Error: 0.00935671759708744
Epoch: 28200, Error: 0.009399793839917615
Epoch: 28300, Error: 0.009512274329743746
Epoch: 28400, Error: 0.00923924267917127
Epoch: 28500, Error: 0.009216512817451963
Epoch: 28600, Error: 0.009393380159381515
Epoch: 28700, Error: 0.009509490754545187
Epoch: 28800, Error: 0.010121764409204816
Epoch: 28900, Error: 0.009507305435081817
Epoch: 29000, Error: 0.009484401765907683
Epoch: 29100, Error: 0.009284542585537403
Epoch: 29200, Error: 0.00943311229245451
Epoch: 29300, Error: 0.009590136867159949
Epoch: 29400, Error: 0.00951074031541849
Epoch: 29500, Error: 0.009279893236614
Epoch: 29600, Error: 0.00933286252767461
Epoch: 29700, Error: 0.009595585353991297
Epoch: 29800, Error: 0.011172320667013489
Epoch: 29900, Error: 0.009484107275921246
Epoch: 30000, Error: 0.009225885656113096
Epoch: 30100, Error: 0.01176624408014006
Epoch: 30200, Error: 0.00948878953213469
Epoch: 30300, Error: 0.009374612669937233
Epoch: 30400, Error: 0.009842045280494413
Epoch: 30500, Error: 0.009392881414686525
Epoch: 30600, Error: 0.009379581127513243
Epoch: 30700, Error: 0.009295097378093746
Epoch: 30800, Error: 0.009261843084530437
Epoch: 30900, Error: 0.00962587570109777
Epoch: 31000, Error: 0.009540204845144023
Epoch: 31100, Error: 0.009569712787033993
Epoch: 31200, Error: 0.009279975583556106
Epoch: 31300, Error: 0.009287221415400278
Epoch: 31400, Error: 0.009627576887214292
Epoch: 31500, Error: 0.00932817285356338
Epoch: 31600, Error: 0.009388922118397479
Epoch: 31700, Error: 0.009155371825620422
Epoch: 31800, Error: 0.009447322497089449
Epoch: 31900, Error: 0.009382639127269245
Epoch: 32000, Error: 0.009338045039962791
Epoch: 32100, Error: 0.009251151321180578
Epoch: 32200, Error: 0.009342554869347612
Epoch: 32300, Error: 0.00940671988995872
Epoch: 32400, Error: 0.009244179412175245
Epoch: 32500, Error: 0.009384410677753342
Epoch: 32600, Error: 0.009715673182310432
Epoch: 32700, Error: 0.009600023619205828
Epoch: 32800, Error: 0.009376287236251618
Epoch: 32900, Error: 0.00971037094981802
Epoch: 33000, Error: 0.009700290590897047
Epoch: 33100, Error: 0.010119321762794349
Epoch: 33200, Error: 0.009356277965258668
Epoch: 33300, Error: 0.009393727295013771
Epoch: 33400, Error: 0.009426020683774886
Epoch: 33500, Error: 0.00967662307805712
Epoch: 33600, Error: 0.009436257437088065
Epoch: 33700, Error: 0.009547121379993013
Epoch: 33800, Error: 0.009224531852645297
Epoch: 33900, Error: 0.009244592667037605
Epoch: 34000, Error: 0.009443362452579061
Epoch: 34100, Error: 0.009690010671855057
Epoch: 34200, Error: 0.009377207066825988
Epoch: 34300, Error: 0.009674856779520864
Epoch: 34400, Error: 0.011040909460919441
Epoch: 34500, Error: 0.009331296191477299
Epoch: 34600, Error: 0.00965715593171863
Epoch: 34700, Error: 0.009451211467775049
Epoch: 34800, Error: 0.009470474001235865
Epoch: 34900, Error: 0.010355879258966779
Epoch: 35000, Error: 0.00923732948091065
Epoch: 35100, Error: 0.009365264002238043
Epoch: 35200, Error: 0.009840810431808617
Epoch: 35300, Error: 0.009626555706301413
Epoch: 35400, Error: 0.009528479054394166
Epoch: 35500, Error: 0.009204140679212235
Epoch: 35600, Error: 0.011073449059733695
Epoch: 35700, Error: 0.009627872782194678
Epoch: 35800, Error: 0.00938963667629139
Epoch: 35900, Error: 0.009558166158991344
Epoch: 36000, Error: 0.009213721965377442
Epoch: 36100, Error: 0.009564874271716168
Epoch: 36200, Error: 0.00924256645036051
Epoch: 36300, Error: 0.009443104234048148
Epoch: 36400, Error: 0.009239326792810632
Epoch: 36500, Error: 0.009676177567058025
Epoch: 36600, Error: 0.009795787336911367
Epoch: 36700, Error: 0.010033197547029712
Epoch: 36800, Error: 0.00997058850102567
Epoch: 36900, Error: 0.009655720108749813
Epoch: 37000, Error: 0.009256529819964316
Epoch: 37100, Error: 0.009440734376384386
Epoch: 37200, Error: 0.009716351486116858
Epoch: 37300, Error: 0.0092760484520266
Epoch: 37400, Error: 0.009407102563311667
Epoch: 37500, Error: 0.009299681477716404
Epoch: 37600, Error: 0.0094223081652194
Epoch: 37700, Error: 0.00962930704860934
Epoch: 37800, Error: 0.009463706017027396
Epoch: 37900, Error: 0.009330684205930636
Epoch: 38000, Error: 0.009257403366085661
Epoch: 38100, Error: 0.009578518341417049
Epoch: 38200, Error: 0.0094294051667525
Epoch: 38300, Error: 0.009609673079481641
Epoch: 38400, Error: 0.010236234849584542
Epoch: 38500, Error: 0.010347677686476226
Epoch: 38600, Error: 0.009611038806301379
Epoch: 38700, Error: 0.009284192148204978
Epoch: 38800, Error: 0.009624849992969904
Epoch: 38900, Error: 0.009440403559282459
Epoch: 39000, Error: 0.009503974343905782
Epoch: 39100, Error: 0.009490282029477343
Epoch: 39200, Error: 0.009412569020854761
Epoch: 39300, Error: 0.010058288788162988
Epoch: 39400, Error: 0.00942594647964077
Epoch: 39500, Error: 0.009412785114905273
Epoch: 39600, Error: 0.009799809590828048
Epoch: 39700, Error: 0.009298959284359247
Epoch: 39800, Error: 0.009962277554961499
Epoch: 39900, Error: 0.009617991460606481
Epoch: 40000, Error: 0.009248946742074979
Epoch: 40100, Error: 0.009567990408499006
Epoch: 40200, Error: 0.00991972578692035
Epoch: 40300, Error: 0.009543723619189258
Epoch: 40400, Error: 0.00974975428202695
Epoch: 40500, Error: 0.009277708566262833
Epoch: 40600, Error: 0.009641546116531369
Epoch: 40700, Error: 0.009185578091843774
Epoch: 40800, Error: 0.009331106201983562
Epoch: 40900, Error: 0.009384254524314165
Epoch: 41000, Error: 0.009376609232133298
Epoch: 41100, Error: 0.00950859497920761
Epoch: 41200, Error: 0.009599253647204226
Epoch: 41300, Error: 0.009668811374947692
Epoch: 41400, Error: 0.009610155507347933
Epoch: 41500, Error: 0.009743656648818912
Epoch: 41600, Error: 0.009257491865540637
Epoch: 41700, Error: 0.00935268807353223
Epoch: 41800, Error: 0.00972499832173185
Epoch: 41900, Error: 0.009424843513250906
Epoch: 42000, Error: 0.00967679415470973
Epoch: 42100, Error: 0.00936892884039931
Epoch: 42200, Error: 0.00986130317546799
Epoch: 42300, Error: 0.009294770051689985
Epoch: 42400, Error: 0.009518133773212185
Epoch: 42500, Error: 0.009463067732922202
Epoch: 42600, Error: 0.009708209662251856
Epoch: 42700, Error: 0.009348391070168351
Epoch: 42800, Error: 0.009496154930510741
Epoch: 42900, Error: 0.00951206072551254
Epoch: 43000, Error: 0.00933607924088755
Epoch: 43100, Error: 0.009595601405110168
Epoch: 43200, Error: 0.009378728936820091
Epoch: 43300, Error: 0.009419864610199164
Epoch: 43400, Error: 0.009509160803183887
Epoch: 43500, Error: 0.009241134117898687
Epoch: 43600, Error: 0.009364148452172975
Epoch: 43700, Error: 0.009309750263862169
Epoch: 43800, Error: 0.00968533546770021
Epoch: 43900, Error: 0.009310605482109503
Epoch: 44000, Error: 0.009684926858987504
Epoch: 44100, Error: 0.010431186958343636
Epoch: 44200, Error: 0.00953591271910944
Epoch: 44300, Error: 0.009514389368332783
Epoch: 44400, Error: 0.009493106712673866
Epoch: 44500, Error: 0.009290013976743236
Epoch: 44600, Error: 0.009432919009579653
Epoch: 44700, Error: 0.00946396519327196
Epoch: 44800, Error: 0.00938472194216899
Epoch: 44900, Error: 0.009273389791816838
Epoch: 45000, Error: 0.009926598346833003
Epoch: 45100, Error: 0.009618586763900079
Epoch: 45200, Error: 0.00932922869171469
Epoch: 45300, Error: 0.009296936524559537
Epoch: 45400, Error: 0.009296363393542032
Epoch: 45500, Error: 0.00985445709365887
Epoch: 45600, Error: 0.009402318835382242
Epoch: 45700, Error: 0.009896865044997745
Epoch: 45800, Error: 0.009477234947723947
Epoch: 45900, Error: 0.009782719430739372
Epoch: 46000, Error: 0.009794224731807112
Epoch: 46100, Error: 0.009319786562985913
Epoch: 46200, Error: 0.009451130402061785
Epoch: 46300, Error: 0.009363930214305885
Epoch: 46400, Error: 0.009369393423410078
Epoch: 46500, Error: 0.009401251610321359
Epoch: 46600, Error: 0.009590727313721046
Epoch: 46700, Error: 0.009699376714578576
Epoch: 46800, Error: 0.009428946400317176
Epoch: 46900, Error: 0.009481241727760605
Epoch: 47000, Error: 0.009186300360226484
Epoch: 47100, Error: 0.009467713663809569
Epoch: 47200, Error: 0.009329449694790638
Epoch: 47300, Error: 0.00978631723692993
Epoch: 47400, Error: 0.009609456245022827
Epoch: 47500, Error: 0.009371854344231267
Epoch: 47600, Error: 0.009264920936240706
Epoch: 47700, Error: 0.009413225806594051
Epoch: 47800, Error: 0.009269315026222339
Epoch: 47900, Error: 0.00960852397548438
Epoch: 48000, Error: 0.009409672268254891
Epoch: 48100, Error: 0.00932544320806913
Epoch: 48200, Error: 0.009753491793365415
Epoch: 48300, Error: 0.00930658700281274
Epoch: 48400, Error: 0.009817725716402664
Epoch: 48500, Error: 0.009423668504732316
Epoch: 48600, Error: 0.009452710546076201
Epoch: 48700, Error: 0.009439057909457213
Epoch: 48800, Error: 0.009662403004609639
Epoch: 48900, Error: 0.009334451094990358
Epoch: 49000, Error: 0.009651897208829958
Epoch: 49100, Error: 0.0093206513461725
Epoch: 49200, Error: 0.009510574740907966
Epoch: 49300, Error: 0.009427914413274584
Epoch: 49400, Error: 0.00978654550707792
Epoch: 49500, Error: 0.009405049829076795
Epoch: 49600, Error: 0.0101124397785345
Epoch: 49700, Error: 0.009587841905202682
Epoch: 49800, Error: 0.009414575187921393
Epoch: 49900, Error: 0.009376609481422285
Epoch: 50000, Error: 0.009441561552961802
Epoch: 50100, Error: 0.0104010089501043
Epoch: 50200, Error: 0.009496333135000852
Epoch: 50300, Error: 0.00939831487807939
Epoch: 50400, Error: 0.009676067590605306
Epoch: 50500, Error: 0.00942240416346982
Epoch: 50600, Error: 0.009754652143738479
Epoch: 50700, Error: 0.00958573530640721
Epoch: 50800, Error: 0.009475248409146935
Epoch: 50900, Error: 0.009680526932773043
Epoch: 51000, Error: 0.009282546471076824
Epoch: 51100, Error: 0.009389872625594016
Epoch: 51200, Error: 0.010474912429221024
Epoch: 51300, Error: 0.010204620668596374
Epoch: 51400, Error: 0.009427586585823313
Epoch: 51500, Error: 0.009492160932583829
Epoch: 51600, Error: 0.00954026688428446
Epoch: 51700, Error: 0.00955036208251801
Epoch: 51800, Error: 0.009264158313040886
Epoch: 51900, Error: 0.009634462293287927
Epoch: 52000, Error: 0.009399447928382768
Epoch: 52100, Error: 0.009602528162534754
Epoch: 52200, Error: 0.00941628342389638
Epoch: 52300, Error: 0.009487411004972383
Epoch: 52400, Error: 0.009554058103564328
Epoch: 52500, Error: 0.009354884955793466
Epoch: 52600, Error: 0.009378405101240496
Epoch: 52700, Error: 0.009519282400969269
Epoch: 52800, Error: 0.009600904402268346
Epoch: 52900, Error: 0.009744832380712172
Epoch: 53000, Error: 0.00964329502062394
Epoch: 53100, Error: 0.00926616653517144
Epoch: 53200, Error: 0.009337998472686973
Epoch: 53300, Error: 0.009445466412664005
Epoch: 53400, Error: 0.009486081510237223
Epoch: 53500, Error: 0.009328566120659396
Epoch: 53600, Error: 0.009422899148894458
Epoch: 53700, Error: 0.009568506421429337
Epoch: 53800, Error: 0.009398172576004414
Epoch: 53900, Error: 0.010258690995454147
Epoch: 54000, Error: 0.009529987690538365
Epoch: 54100, Error: 0.009298825693270635
Epoch: 54200, Error: 0.009524646143314858
Epoch: 54300, Error: 0.009877601226383575
Epoch: 54400, Error: 0.009711680333560726
Epoch: 54500, Error: 0.00926912335455294
Epoch: 54600, Error: 0.009572092769745797
Epoch: 54700, Error: 0.01006529161253446
Epoch: 54800, Error: 0.009355056388181087
Epoch: 54900, Error: 0.009225816691093318
Epoch: 55000, Error: 0.009954132279867398
Epoch: 55100, Error: 0.010131932855136678
Epoch: 55200, Error: 0.009490830701338115
Epoch: 55300, Error: 0.009448827323766245
Epoch: 55400, Error: 0.009631086810220459
Epoch: 55500, Error: 0.009390983962566215
Epoch: 55600, Error: 0.009648914341944849
Epoch: 55700, Error: 0.009487311431947578
Epoch: 55800, Error: 0.00951120928889626
Epoch: 55900, Error: 0.009642911601794884
Epoch: 56000, Error: 0.009500209630001517
Epoch: 56100, Error: 0.009373837973401224
Epoch: 56200, Error: 0.00989205883409959
Epoch: 56300, Error: 0.009739702347140047
Epoch: 56400, Error: 0.009334300090287889
Epoch: 56500, Error: 0.009448174850094611
Epoch: 56600, Error: 0.009379402077822464
Epoch: 56700, Error: 0.00953173828760457
Epoch: 56800, Error: 0.009774036283592703
Epoch: 56900, Error: 0.009385811743713677
Epoch: 57000, Error: 0.009526482058585946
Epoch: 57100, Error: 0.009482592151556004
Epoch: 57200, Error: 0.009677013194919792
Epoch: 57300, Error: 0.009853620157567536
Epoch: 57400, Error: 0.010015555392284728
Epoch: 57500, Error: 0.009622430368668871
Epoch: 57600, Error: 0.00934175737035516
Epoch: 57700, Error: 0.00947517288983493
Epoch: 57800, Error: 0.009390878828714633
Epoch: 57900, Error: 0.00937868212212966
Epoch: 58000, Error: 0.009289395455813868
Epoch: 58100, Error: 0.0093288482890754
Epoch: 58200, Error: 0.009550603231011742
Epoch: 58300, Error: 0.009439836272387394
Epoch: 58400, Error: 0.009437857184213616
Epoch: 58500, Error: 0.009280635544193517
Epoch: 58600, Error: 0.00971267547902423
Epoch: 58700, Error: 0.00959865111218288
Epoch: 58800, Error: 0.009325620162960093
Epoch: 58900, Error: 0.0100091071362694
Epoch: 59000, Error: 0.00981103959234249
Epoch: 59100, Error: 0.00960421314575935
Epoch: 59200, Error: 0.009264541992037915
Epoch: 59300, Error: 0.00964019428677364
Epoch: 59400, Error: 0.009347925483426067
Epoch: 59500, Error: 0.009647704367927614
Epoch: 59600, Error: 0.00938412912664382
Epoch: 59700, Error: 0.009182217689385142
Epoch: 59800, Error: 0.009256462316969973
Epoch: 59900, Error: 0.009389061342968942
Epoch: 60000, Error: 0.009465259652740464
Epoch: 60100, Error: 0.010554603145577424
Epoch: 60200, Error: 0.009553504794561863
Epoch: 60300, Error: 0.009349096326088702
Epoch: 60400, Error: 0.009486237399285474
Epoch: 60500, Error: 0.00939614039368032
Epoch: 60600, Error: 0.009378998245281357
Epoch: 60700, Error: 0.011336961858630633
Epoch: 60800, Error: 0.009658477641605063
Epoch: 60900, Error: 0.00923389945092748
Epoch: 61000, Error: 0.009572300730397694
Epoch: 61100, Error: 0.010003734272701573
Epoch: 61200, Error: 0.00927380116659561
Epoch: 61300, Error: 0.009637238862384155
Epoch: 61400, Error: 0.010099159107453874
Epoch: 61500, Error: 0.009503560328576223
Epoch: 61600, Error: 0.010853411962210669
Epoch: 61700, Error: 0.009346896277954434
Epoch: 61800, Error: 0.009417455139625207
Epoch: 61900, Error: 0.010444039233571435
Epoch: 62000, Error: 0.009422839768735529
Epoch: 62100, Error: 0.010060818489641863
Epoch: 62200, Error: 0.009579283024201808
Epoch: 62300, Error: 0.00963270409394084
Epoch: 62400, Error: 0.009428610045898301
Epoch: 62500, Error: 0.009387650994923025
Epoch: 62600, Error: 0.00968080283197486
Epoch: 62700, Error: 0.009479662415979959
Epoch: 62800, Error: 0.009361009085791207
Epoch: 62900, Error: 0.009397045566584978
Epoch: 63000, Error: 0.009487521430660225
Epoch: 63100, Error: 0.00952885441229015
Epoch: 63200, Error: 0.00951234044098506
Epoch: 63300, Error: 0.009363243338995743
Epoch: 63400, Error: 0.009640174042229971
Epoch: 63500, Error: 0.009421411152931174
Epoch: 63600, Error: 0.009412007949550778
Epoch: 63700, Error: 0.009328654402133284
Epoch: 63800, Error: 0.00947361522069605
Epoch: 63900, Error: 0.009578891813859763
Epoch: 64000, Error: 0.009285582302908478
Epoch: 64100, Error: 0.009583710752206837
Epoch: 64200, Error: 0.00951258995908047
Epoch: 64300, Error: 0.009506965054507186
Epoch: 64400, Error: 0.009389826646491937
Epoch: 64500, Error: 0.009258202495711049
Epoch: 64600, Error: 0.009683648221436577
Epoch: 64700, Error: 0.009324306656555422
Epoch: 64800, Error: 0.009355302110447382
Epoch: 64900, Error: 0.009750032388038241
Epoch: 65000, Error: 0.009716562455480892
Epoch: 65100, Error: 0.012704788300002753
Epoch: 65200, Error: 0.009440805901016694
Epoch: 65300, Error: 0.009444719261681271
Epoch: 65400, Error: 0.009551715863454921
Epoch: 65500, Error: 0.009397586827576647
Epoch: 65600, Error: 0.00938929364880876
Epoch: 65700, Error: 0.009349979514529615
Epoch: 65800, Error: 0.009599839424294125
Epoch: 65900, Error: 0.009445269946839663
Epoch: 66000, Error: 0.009554250882811767
Epoch: 66100, Error: 0.009877130984154919
Epoch: 66200, Error: 0.00972462013484714
Epoch: 66300, Error: 0.009632777172053152
Epoch: 66400, Error: 0.009316083221570267
Epoch: 66500, Error: 0.009755170893116194
Epoch: 66600, Error: 0.00981981078454426
Epoch: 66700, Error: 0.0097681628166538
Epoch: 66800, Error: 0.009639988580470216
Epoch: 66900, Error: 0.009653789134938615
Epoch: 67000, Error: 0.009358339908919272
Epoch: 67100, Error: 0.009356247668770593
Epoch: 67200, Error: 0.009415178431956326
Epoch: 67300, Error: 0.009990284703365434
Epoch: 67400, Error: 0.009418282560402202
Epoch: 67500, Error: 0.009519009826441382
Epoch: 67600, Error: 0.009708514777544851
Epoch: 67700, Error: 0.010241994675860932
Epoch: 67800, Error: 0.009880340270608667
Epoch: 67900, Error: 0.009600856075533945
Epoch: 68000, Error: 0.009858512438483024
Epoch: 68100, Error: 0.009539556035419632
Epoch: 68200, Error: 0.009751120575302212
Epoch: 68300, Error: 0.009432762163777204
Epoch: 68400, Error: 0.009511530004238399
Epoch: 68500, Error: 0.009484606867844289
Epoch: 68600, Error: 0.01074717518296754
Epoch: 68700, Error: 0.00947232843191983
Epoch: 68800, Error: 0.009905212381193691
Epoch: 68900, Error: 0.009347496218663041
Epoch: 69000, Error: 0.00967881638957479
Epoch: 69100, Error: 0.00936026653182466
Epoch: 69200, Error: 0.009890314536816934
Epoch: 69300, Error: 0.009770856766451272
Epoch: 69400, Error: 0.00941728671419857
Epoch: 69500, Error: 0.009389851708785412
Epoch: 69600, Error: 0.009690817322657693
Epoch: 69700, Error: 0.009403043314551421
Epoch: 69800, Error: 0.009428221409111842
Epoch: 69900, Error: 0.009503760203958257
Epoch: 70000, Error: 0.009422077505516734
Epoch: 70100, Error: 0.009436351062374351
Epoch: 70200, Error: 0.010893942905789048
Epoch: 70300, Error: 0.009583832339210601
Epoch: 70400, Error: 0.009390514066279106
Epoch: 70500, Error: 0.009383111871972804
Epoch: 70600, Error: 0.009416173106685848
Epoch: 70700, Error: 0.009656746090519917
Epoch: 70800, Error: 0.009624510840371418
Epoch: 70900, Error: 0.00953059963128329
Epoch: 71000, Error: 0.00959322413689502
Epoch: 71100, Error: 0.009687194048885114
Epoch: 71200, Error: 0.009720462669451245
Epoch: 71300, Error: 0.00949974474107728
Epoch: 71400, Error: 0.010454651181622402
Epoch: 71500, Error: 0.009400616380965716
Epoch: 71600, Error: 0.009598458228177434
Epoch: 71700, Error: 0.009387589853970618
Epoch: 71800, Error: 0.009343703505126836
Epoch: 71900, Error: 0.009387474715406099
Epoch: 72000, Error: 0.009444168566593214
Epoch: 72100, Error: 0.00934027514481906
Epoch: 72200, Error: 0.00965765237871174
Epoch: 72300, Error: 0.009322768553206849
Epoch: 72400, Error: 0.009403380950455974
Epoch: 72500, Error: 0.009844714588878332
Epoch: 72600, Error: 0.009545275990891201
Epoch: 72700, Error: 0.009432553607489569
Epoch: 72800, Error: 0.009634114644841362
Epoch: 72900, Error: 0.009444736432623871
Epoch: 73000, Error: 0.00931783890926411
Epoch: 73100, Error: 0.009353887090364986
Epoch: 73200, Error: 0.00946622078908164
Epoch: 73300, Error: 0.009427116418543147
Epoch: 73400, Error: 0.009726991537217062
Epoch: 73500, Error: 0.009605314695917197
Epoch: 73600, Error: 0.009516771955127297
Epoch: 73700, Error: 0.00947133788641898
Epoch: 73800, Error: 0.009676041049062683
Epoch: 73900, Error: 0.009601003576621036
Epoch: 74000, Error: 0.009729972085586252
Epoch: 74100, Error: 0.010029424851899787
Epoch: 74200, Error: 0.009313589332951414
Epoch: 74300, Error: 0.009255527147170619
Epoch: 74400, Error: 0.00958344000646201
Epoch: 74500, Error: 0.009603927952779428
Epoch: 74600, Error: 0.009361150229587127
Epoch: 74700, Error: 0.009281320215496637
Epoch: 74800, Error: 0.009696392490026538
Epoch: 74900, Error: 0.009601144456892466
Epoch: 75000, Error: 0.0102090355383614
Epoch: 75100, Error: 0.009378731304723824
Epoch: 75200, Error: 0.00929422192791142
Epoch: 75300, Error: 0.009628851478141588
Epoch: 75400, Error: 0.009486228360138627
Epoch: 75500, Error: 0.009423238537462644
Epoch: 75600, Error: 0.00943515655187243
Epoch: 75700, Error: 0.009479475951626445
Epoch: 75800, Error: 0.009651062189084354
Epoch: 75900, Error: 0.009378199557462366
Epoch: 76000, Error: 0.009413620514613051
Epoch: 76100, Error: 0.009740112785773728
Epoch: 76200, Error: 0.00931024237908765
Epoch: 76300, Error: 0.009849826169029286
Epoch: 76400, Error: 0.009399967695951113
Epoch: 76500, Error: 0.009822943287444545
Epoch: 76600, Error: 0.009340316111261961
Epoch: 76700, Error: 0.009463551018887465
Epoch: 76800, Error: 0.009583171073686376
Epoch: 76900, Error: 0.010306163098752156
Epoch: 77000, Error: 0.009366062490320789
Epoch: 77100, Error: 0.009376515379246515
Epoch: 77200, Error: 0.009542399305834838
Epoch: 77300, Error: 0.009393136569339837
Epoch: 77400, Error: 0.009483174426829631
Epoch: 77500, Error: 0.00938905096663646
Epoch: 77600, Error: 0.009230110824203124
Epoch: 77700, Error: 0.009576117179015582
Epoch: 77800, Error: 0.009352859696398305
Epoch: 77900, Error: 0.009502728343752678
Epoch: 78000, Error: 0.009353127277731781
Epoch: 78100, Error: 0.00954031087221579
Epoch: 78200, Error: 0.009374900891773369
Epoch: 78300, Error: 0.009669454719973242
Epoch: 78400, Error: 0.009397921863831298
Epoch: 78500, Error: 0.009691146396244209
Epoch: 78600, Error: 0.009553363853205604
Epoch: 78700, Error: 0.009672372447545721
Epoch: 78800, Error: 0.009443657911250316
Epoch: 78900, Error: 0.009760426375686635
Epoch: 79000, Error: 0.009687409200542976
Epoch: 79100, Error: 0.009436287976359176
Epoch: 79200, Error: 0.009668051665374496
Epoch: 79300, Error: 0.009488974634230731
Epoch: 79400, Error: 0.009288817114759025
Epoch: 79500, Error: 0.009619288455023115
Epoch: 79600, Error: 0.009939346758404115
Epoch: 79700, Error: 0.009463598535790691
Epoch: 79800, Error: 0.009327331957454225
Epoch: 79900, Error: 0.009549236339595363
Epoch: 80000, Error: 0.009510515605056384
Epoch: 80100, Error: 0.0095550708618256
Epoch: 80200, Error: 0.009858240081707237
Epoch: 80300, Error: 0.009585136077919101
Epoch: 80400, Error: 0.009411032323130251
Epoch: 80500, Error: 0.009405530476504642
Epoch: 80600, Error: 0.009791366377288275
Epoch: 80700, Error: 0.009532775108728403
Epoch: 80800, Error: 0.009514095853651771
Epoch: 80900, Error: 0.009440857259683683
Epoch: 81000, Error: 0.009399273785130804
Epoch: 81100, Error: 0.009368272722682765
Epoch: 81200, Error: 0.010143435672655667
Epoch: 81300, Error: 0.010200343828230339
Epoch: 81400, Error: 0.010018609599375776
Epoch: 81500, Error: 0.009413974618848062
Epoch: 81600, Error: 0.0098805083769647
Epoch: 81700, Error: 0.010142585870883371
Epoch: 81800, Error: 0.009411694255082365
Epoch: 81900, Error: 0.009616092850561997
Epoch: 82000, Error: 0.009710293675191724
Epoch: 82100, Error: 0.01019593588654305
Epoch: 82200, Error: 0.009588279777879731
Epoch: 82300, Error: 0.009393237665168868
Epoch: 82400, Error: 0.009509964161069969
Epoch: 82500, Error: 0.009313063475629085
Epoch: 82600, Error: 0.009293731664353813
Epoch: 82700, Error: 0.009297670715298011
Epoch: 82800, Error: 0.009263677526559313
Epoch: 82900, Error: 0.009264069535541514
Epoch: 83000, Error: 0.00934488974802263
Epoch: 83100, Error: 0.009900258468536758
Epoch: 83200, Error: 0.009424894454021232
Epoch: 83300, Error: 0.009733738901240923
Epoch: 83400, Error: 0.00974982581373856
Epoch: 83500, Error: 0.009384356072996388
Epoch: 83600, Error: 0.009643158114086543
Epoch: 83700, Error: 0.009507247400759623
Epoch: 83800, Error: 0.009962929743183238
Epoch: 83900, Error: 0.009790755249493759
Epoch: 84000, Error: 0.00931469819009752
Epoch: 84100, Error: 0.009439403977588261
Epoch: 84200, Error: 0.009451385518922637
Epoch: 84300, Error: 0.009594127834597729
Epoch: 84400, Error: 0.00999000831983165
Epoch: 84500, Error: 0.009441530338848852
Epoch: 84600, Error: 0.009683998052423823
Epoch: 84700, Error: 0.009454672671199494
Epoch: 84800, Error: 0.009456148822517614
Epoch: 84900, Error: 0.009328958815017444
Epoch: 85000, Error: 0.009319726004476113
Epoch: 85100, Error: 0.009520715039354734
Epoch: 85200, Error: 0.00967809010934421
Epoch: 85300, Error: 0.009461945959143816
Epoch: 85400, Error: 0.009266117009610459
Epoch: 85500, Error: 0.00958433958535216
Epoch: 85600, Error: 0.009365959039438881
Epoch: 85700, Error: 0.009434023163720528
Epoch: 85800, Error: 0.009605857983057853
Epoch: 85900, Error: 0.012574168061095485
Epoch: 86000, Error: 0.009458898748786753
Epoch: 86100, Error: 0.009432886687698702
Epoch: 86200, Error: 0.00940500575913603
Epoch: 86300, Error: 0.009459535395395943
Epoch: 86400, Error: 0.009490177243848716
Epoch: 86500, Error: 0.00932314731186929
Epoch: 86600, Error: 0.00967681445235178
Epoch: 86700, Error: 0.009392181763495218
Epoch: 86800, Error: 0.009518095699939479
Epoch: 86900, Error: 0.00940865383028856
Epoch: 87000, Error: 0.009461366955357329
Epoch: 87100, Error: 0.00983237270800103
Epoch: 87200, Error: 0.009743280576394203
Epoch: 87300, Error: 0.009382691907176244
Epoch: 87400, Error: 0.009582836157168028
Epoch: 87500, Error: 0.009302214025317964
Epoch: 87600, Error: 0.00940511675758645
Epoch: 87700, Error: 0.009367071229755355
Epoch: 87800, Error: 0.009963237598654692
Epoch: 87900, Error: 0.009350889167839598
Epoch: 88000, Error: 0.009489462040190107
Epoch: 88100, Error: 0.009749941475037108
Epoch: 88200, Error: 0.009406664286906785
Epoch: 88300, Error: 0.009424455858383928
Epoch: 88400, Error: 0.009552743302578364
Epoch: 88500, Error: 0.009541215264972674
Epoch: 88600, Error: 0.009640374524361167
Epoch: 88700, Error: 0.009341247176808969
Epoch: 88800, Error: 0.009365626944806893
Epoch: 88900, Error: 0.009355638630761618
Epoch: 89000, Error: 0.009680799502225316
Epoch: 89100, Error: 0.009594450594065536
Epoch: 89200, Error: 0.00964094012945223
Epoch: 89300, Error: 0.009420029765298153
Epoch: 89400, Error: 0.00991884446812385
Epoch: 89500, Error: 0.009460034750963409
Epoch: 89600, Error: 0.009367794970175015
Epoch: 89700, Error: 0.00935947820016578
Epoch: 89800, Error: 0.00965213979173497
Epoch: 89900, Error: 0.009496456798624974
Epoch: 90000, Error: 0.009618722123400075
Epoch: 90100, Error: 0.010343941429929322
Epoch: 90200, Error: 0.010134946300082577
Epoch: 90300, Error: 0.009320526398101488
Epoch: 90400, Error: 0.0093313098310853
Epoch: 90500, Error: 0.00943294601949392
Epoch: 90600, Error: 0.009250065552027849
Epoch: 90700, Error: 0.009482884529079322
Epoch: 90800, Error: 0.01188573172557667
Epoch: 90900, Error: 0.010452847720025714
Epoch: 91000, Error: 0.009328852887724618
Epoch: 91100, Error: 0.009744082761109699
Epoch: 91200, Error: 0.009720688569464557
Epoch: 91300, Error: 0.009548368665975096
Epoch: 91400, Error: 0.009474993217598447
Epoch: 91500, Error: 0.009640666246781037
Epoch: 91600, Error: 0.009368287509842718
Epoch: 91700, Error: 0.009704815184725128
Epoch: 91800, Error: 0.009895183634337227
Epoch: 91900, Error: 0.009859341067844508
Epoch: 92000, Error: 0.00951552510123385
Epoch: 92100, Error: 0.01022959576072938
Epoch: 92200, Error: 0.009756997323895877
Epoch: 92300, Error: 0.009632570758032229
Epoch: 92400, Error: 0.009553736806919991
Epoch: 92500, Error: 0.00932527243348901
Epoch: 92600, Error: 0.009370201371471624
Epoch: 92700, Error: 0.009382102870975925
Epoch: 92800, Error: 0.009446806585691405
Epoch: 92900, Error: 0.009592488510703823
Epoch: 93000, Error: 0.009325298242878224
Epoch: 93100, Error: 0.009782821012186492
Epoch: 93200, Error: 0.00950505324047039
Epoch: 93300, Error: 0.009728330073832881
Epoch: 93400, Error: 0.00944863203472773
Epoch: 93500, Error: 0.010079127903102563
Epoch: 93600, Error: 0.009511810832926758
Epoch: 93700, Error: 0.009373979613817383
Epoch: 93800, Error: 0.009948686343772753
Epoch: 93900, Error: 0.009335810256038503
Epoch: 94000, Error: 0.009652172266117904
Epoch: 94100, Error: 0.00930469452406954
Epoch: 94200, Error: 0.009234900207065012
Epoch: 94300, Error: 0.009359365739021472
Epoch: 94400, Error: 0.009546395963702686
Epoch: 94500, Error: 0.009477147936673723
Epoch: 94600, Error: 0.009564527278750805
Epoch: 94700, Error: 0.009303406610872764
Epoch: 94800, Error: 0.009459713104438324
Epoch: 94900, Error: 0.009293621254673694
Epoch: 95000, Error: 0.009426373259692677
Epoch: 95100, Error: 0.009589402144091225
Epoch: 95200, Error: 0.009551127269273948
Epoch: 95300, Error: 0.009593052699202673
Epoch: 95400, Error: 0.00944706938960406
Epoch: 95500, Error: 0.00946702466819114
Epoch: 95600, Error: 0.009444344932520372
Epoch: 95700, Error: 0.010077085669238596
Epoch: 95800, Error: 0.009609687775349731
Epoch: 95900, Error: 0.009405931629209817
Epoch: 96000, Error: 0.00953304133974616
Epoch: 96100, Error: 0.009669429443789568
Epoch: 96200, Error: 0.0094454386112464
Epoch: 96300, Error: 0.0093278559870672
Epoch: 96400, Error: 0.011339572502952382
Epoch: 96500, Error: 0.009368363491356042
Epoch: 96600, Error: 0.009723318211562268
Epoch: 96700, Error: 0.00945548213412399
Epoch: 96800, Error: 0.009496879319745001
Epoch: 96900, Error: 0.009549183842672617
Epoch: 97000, Error: 0.009270674756582007
Epoch: 97100, Error: 0.009513696322679005
Epoch: 97200, Error: 0.009481892304026754
Epoch: 97300, Error: 0.009316973557576063
Epoch: 97400, Error: 0.009348296653688542
Epoch: 97500, Error: 0.009714264061953692
Epoch: 97600, Error: 0.009356654697099986
Epoch: 97700, Error: 0.00950691094551549
Epoch: 97800, Error: 0.01079875642282
Epoch: 97900, Error: 0.009398136981773804
Epoch: 98000, Error: 0.009314155967357329
Epoch: 98100, Error: 0.00957679999563817
Epoch: 98200, Error: 0.009341743554946514
Epoch: 98300, Error: 0.009301294660878895
Epoch: 98400, Error: 0.009688513273785105
Epoch: 98500, Error: 0.009614704249045643
Epoch: 98600, Error: 0.0097859469759029
Epoch: 98700, Error: 0.009395532450917218
Epoch: 98800, Error: 0.009872977811130883
Epoch: 98900, Error: 0.009359357973594157
Epoch: 99000, Error: 0.00932389023563765
Epoch: 99100, Error: 0.00933234044508927
Epoch: 99200, Error: 0.009327140589418526
Epoch: 99300, Error: 0.009391406950729233
Epoch: 99400, Error: 0.009293058352653531
Epoch: 99500, Error: 0.009316822805718333
Epoch: 99600, Error: 0.009454056433163412
Epoch: 99700, Error: 0.009349176394828169
Epoch: 99800, Error: 0.009580668197310736
Epoch: 99900, Error: 0.01051367879081916
Epoch: 100000, Error: 0.009286646626418465
Epoch: 100100, Error: 0.009354670724360522
Epoch: 100200, Error: 0.009311073645558282
Epoch: 100300, Error: 0.009414714150033348
Epoch: 100400, Error: 0.009398103563830631
Epoch: 100500, Error: 0.009231317514438949
Epoch: 100600, Error: 0.00938247556572804
Epoch: 100700, Error: 0.00967923395387202
Epoch: 100800, Error: 0.009369277448662613
Epoch: 100900, Error: 0.0094979626981824
Epoch: 101000, Error: 0.009695241688834172
Epoch: 101100, Error: 0.009379671671449943
Epoch: 101200, Error: 0.009681252837381983
Epoch: 101300, Error: 0.00921384927700242
Epoch: 101400, Error: 0.009319843207111914
Epoch: 101500, Error: 0.009514239517389132
Epoch: 101600, Error: 0.009249349431453027
Epoch: 101700, Error: 0.009620954052206723
Epoch: 101800, Error: 0.00967822151138614
Epoch: 101900, Error: 0.00951025246120194
Epoch: 102000, Error: 0.009615963800299044
Epoch: 102100, Error: 0.009373184485621003
Epoch: 102200, Error: 0.009315713421145618
Epoch: 102300, Error: 0.00935751609341665
Epoch: 102400, Error: 0.009365875434911772
Epoch: 102500, Error: 0.009314090651525095
Epoch: 102600, Error: 0.009497368518850611
Epoch: 102700, Error: 0.009583053250041695
Epoch: 102800, Error: 0.009412069386366947
Epoch: 102900, Error: 0.009385551764285795
Epoch: 103000, Error: 0.009778574363293838
Epoch: 103100, Error: 0.010059826660560942
Epoch: 103200, Error: 0.009449446171116758
Epoch: 103300, Error: 0.009465478624760855
Epoch: 103400, Error: 0.011847761459917899
Epoch: 103500, Error: 0.009256781825671058
Epoch: 103600, Error: 0.009448030647228252
Epoch: 103700, Error: 0.009492708393051217
Epoch: 103800, Error: 0.00921972316525363
Epoch: 103900, Error: 0.009597317098465204
Epoch: 104000, Error: 0.009375317190472075
Epoch: 104100, Error: 0.00940605065878483
Epoch: 104200, Error: 0.009295539120733125
Epoch: 104300, Error: 0.009902742451154103
Epoch: 104400, Error: 0.009306765237972784
Epoch: 104500, Error: 0.009421506979256847
Epoch: 104600, Error: 0.009429907170236049
Epoch: 104700, Error: 0.00980434556031408
Epoch: 104800, Error: 0.009326931090448269
Epoch: 104900, Error: 0.009441258048866778
Epoch: 105000, Error: 0.009334009590346025
Epoch: 105100, Error: 0.009857892340269826
Epoch: 105200, Error: 0.009271402311332933
Epoch: 105300, Error: 0.009445477420949996
Epoch: 105400, Error: 0.009366191877404813
Epoch: 105500, Error: 0.009555353321148853
Epoch: 105600, Error: 0.009565637125827671
Epoch: 105700, Error: 0.009485980346112732
Epoch: 105800, Error: 0.00939721171967991
Epoch: 105900, Error: 0.00937758701293896
Epoch: 106000, Error: 0.009545138250034372
Epoch: 106100, Error: 0.009499339253535445
Epoch: 106200, Error: 0.009521202888503827
Epoch: 106300, Error: 0.009588394214898923
Epoch: 106400, Error: 0.009737198925981278
Epoch: 106500, Error: 0.009430249061714682
Epoch: 106600, Error: 0.009367502924055178
Epoch: 106700, Error: 0.0093948327612321
Epoch: 106800, Error: 0.009488745461068619
Epoch: 106900, Error: 0.009327458251483647
Epoch: 107000, Error: 0.009327036572883102
Epoch: 107100, Error: 0.00934157901286123
Epoch: 107200, Error: 0.009676642305265359
Epoch: 107300, Error: 0.009375778786847592
Epoch: 107400, Error: 0.009444236563070639
Epoch: 107500, Error: 0.009542580875858289
Epoch: 107600, Error: 0.009407737563534925
Epoch: 107700, Error: 0.009405473187244483
Epoch: 107800, Error: 0.009463332198830138
Epoch: 107900, Error: 0.00923077416584797
Epoch: 108000, Error: 0.009528069215577424
Epoch: 108100, Error: 0.009286761833511152
Epoch: 108200, Error: 0.010164569810725076
Epoch: 108300, Error: 0.009755805107926993
Epoch: 108400, Error: 0.009944626114600568
Epoch: 108500, Error: 0.009358695988237103
Epoch: 108600, Error: 0.009335021101811504
Epoch: 108700, Error: 0.009427750741111886
Epoch: 108800, Error: 0.009423495583219213
Epoch: 108900, Error: 0.009543052489968671
Epoch: 109000, Error: 0.009444484506572271
Epoch: 109100, Error: 0.009410738413063769
Epoch: 109200, Error: 0.009680865043807748
Epoch: 109300, Error: 0.009241838379259742
Epoch: 109400, Error: 0.0094272010736994
Epoch: 109500, Error: 0.009329931093811947
Epoch: 109600, Error: 0.009476683793171823
Epoch: 109700, Error: 0.009428612677313517
Epoch: 109800, Error: 0.009554115523346698
Epoch: 109900, Error: 0.009428609818154429
Epoch: 110000, Error: 0.00923924450055822
Epoch: 110100, Error: 0.00933155634109841
Epoch: 110200, Error: 0.009784711862318466
Epoch: 110300, Error: 0.00993693864252309
Epoch: 110400, Error: 0.009349448655842635
Epoch: 110500, Error: 0.009367445815023157
Epoch: 110600, Error: 0.009383555249917198
Epoch: 110700, Error: 0.00951676207094461
Epoch: 110800, Error: 0.009348361521160987
Epoch: 110900, Error: 0.009640892550033331
Epoch: 111000, Error: 0.009363335010713927
Epoch: 111100, Error: 0.010771183349981717
Epoch: 111200, Error: 0.009585209361318221
Epoch: 111300, Error: 0.00940153453628975
Epoch: 111400, Error: 0.009610854856030568
Epoch: 111500, Error: 0.009440639180946621
Epoch: 111600, Error: 0.009724624825777605
Epoch: 111700, Error: 0.009622863139701055
Epoch: 111800, Error: 0.00942607951403916
Epoch: 111900, Error: 0.009351704901548923
Epoch: 112000, Error: 0.00980789509626094
Epoch: 112100, Error: 0.009363294375353734
Epoch: 112200, Error: 0.009650127271183842
Epoch: 112300, Error: 0.00960244482050155
Epoch: 112400, Error: 0.009568366744425016
Epoch: 112500, Error: 0.009611236994558738
Epoch: 112600, Error: 0.009293369614702281
Epoch: 112700, Error: 0.009625262698952957
Epoch: 112800, Error: 0.009726059433357668
Epoch: 112900, Error: 0.009347377794803066
Epoch: 113000, Error: 0.009566255238579123
Epoch: 113100, Error: 0.009670004735936906
Epoch: 113200, Error: 0.009570132152950021
Epoch: 113300, Error: 0.00946200389921349
Epoch: 113400, Error: 0.009571840057014074
Epoch: 113500, Error: 0.009327931914924334
Epoch: 113600, Error: 0.009754594451463995
Epoch: 113700, Error: 0.0097780282077454
Epoch: 113800, Error: 0.010695311032556446
Epoch: 113900, Error: 0.00957467158075423
Epoch: 114000, Error: 0.009714153600271726
Epoch: 114100, Error: 0.009450512558572067
Epoch: 114200, Error: 0.009680644354260517
Epoch: 114300, Error: 0.009888499371774467
Epoch: 114400, Error: 0.009285059083346538
Epoch: 114500, Error: 0.009629536627156442
Epoch: 114600, Error: 0.00952594410027458
Epoch: 114700, Error: 0.009396533865940896
Epoch: 114800, Error: 0.009298982411129156
Epoch: 114900, Error: 0.00947303184704749
Epoch: 115000, Error: 0.009394080985769347
Epoch: 115100, Error: 0.009643096015653068
Epoch: 115200, Error: 0.009365403610474377
Epoch: 115300, Error: 0.010201105201156309
Epoch: 115400, Error: 0.009439070238502432
Epoch: 115500, Error: 0.009306809060344144
Epoch: 115600, Error: 0.009458762681378092
Epoch: 115700, Error: 0.009318531635242665
Epoch: 115800, Error: 0.00927100334128467
Epoch: 115900, Error: 0.011903899405728866
Epoch: 116000, Error: 0.009416991317136138
Epoch: 116100, Error: 0.00950322814488309
Epoch: 116200, Error: 0.009483846301035352
Epoch: 116300, Error: 0.009329158693920475
Epoch: 116400, Error: 0.009355318450922946
Epoch: 116500, Error: 0.00946291150907905
Epoch: 116600, Error: 0.00947106674242822
Epoch: 116700, Error: 0.010144727386002727
Epoch: 116800, Error: 0.009534478843479872
Epoch: 116900, Error: 0.009374501158934111
Epoch: 117000, Error: 0.010115579529156425
Epoch: 117100, Error: 0.009241134571326278
Epoch: 117200, Error: 0.009764197819682453
Epoch: 117300, Error: 0.009555166479055088
Epoch: 117400, Error: 0.009461352100379447
Epoch: 117500, Error: 0.009553170551728695
Epoch: 117600, Error: 0.009230093065314995
Epoch: 117700, Error: 0.009335098479080149
Epoch: 117800, Error: 0.00933344164192551
Epoch: 117900, Error: 0.009771192188090574
Epoch: 118000, Error: 0.009504745646612509
Epoch: 118100, Error: 0.009316664844757542
Epoch: 118200, Error: 0.009866292247130476
Epoch: 118300, Error: 0.009614304903944812
Epoch: 118400, Error: 0.009538700313453989
Epoch: 118500, Error: 0.00969061706970904
Epoch: 118600, Error: 0.009390908613682407
Epoch: 118700, Error: 0.010029248698823368
Epoch: 118800, Error: 0.0093085500886491
Epoch: 118900, Error: 0.009332778880869856
Epoch: 119000, Error: 0.009329386295699843
Epoch: 119100, Error: 0.009298967388728362
Epoch: 119200, Error: 0.009279583891547085
Epoch: 119300, Error: 0.009378170874710537
Epoch: 119400, Error: 0.009388338178473081
Epoch: 119500, Error: 0.009472232162886311
Epoch: 119600, Error: 0.009664632418251086
Epoch: 119700, Error: 0.00926085444052886
Epoch: 119800, Error: 0.009433322061191206
Epoch: 119900, Error: 0.009696002757881303
Epoch: 120000, Error: 0.009728262501251087
Epoch: 120100, Error: 0.009222835257044648
Epoch: 120200, Error: 0.009272150202740527
Epoch: 120300, Error: 0.009639181694258413
Epoch: 120400, Error: 0.009424396388714753
Epoch: 120500, Error: 0.009331166738492845
Epoch: 120600, Error: 0.009494321981336514
Epoch: 120700, Error: 0.009308279415787981
Epoch: 120800, Error: 0.009345804822083746
Epoch: 120900, Error: 0.009268646158686548
Epoch: 121000, Error: 0.010030905641685552
Epoch: 121100, Error: 0.009384062048532728
Epoch: 121200, Error: 0.009433385493367103
Epoch: 121300, Error: 0.009485938282012047
Epoch: 121400, Error: 0.010002704974881824
Epoch: 121500, Error: 0.009358185780855928
Epoch: 121600, Error: 0.010127422737976838
Epoch: 121700, Error: 0.009483953996278502
Epoch: 121800, Error: 0.009379547079967661
Epoch: 121900, Error: 0.009320347098064586
Epoch: 122000, Error: 0.009745319945389208
Epoch: 122100, Error: 0.009385199707371991
Epoch: 122200, Error: 0.00953026227526742
Epoch: 122300, Error: 0.009484858218385565
Epoch: 122400, Error: 0.009342564771136779
Epoch: 122500, Error: 0.009287033730494805
Epoch: 122600, Error: 0.009501963823399536
Epoch: 122700, Error: 0.009337101335184714
Epoch: 122800, Error: 0.009309821140623025
Epoch: 122900, Error: 0.009421860941435501
Epoch: 123000, Error: 0.009403238247021937
Epoch: 123100, Error: 0.009675887647902583
Epoch: 123200, Error: 0.009403935414033128
Epoch: 123300, Error: 0.00998138006950844
Epoch: 123400, Error: 0.009381533503329579
Epoch: 123500, Error: 0.00931658478169283
Epoch: 123600, Error: 0.009488438183510505
Epoch: 123700, Error: 0.0094419307127223
Epoch: 123800, Error: 0.009604928254394298
Epoch: 123900, Error: 0.009335753006741268
Epoch: 124000, Error: 0.009446981882578354
Epoch: 124100, Error: 0.009360609098720817
Epoch: 124200, Error: 0.009436605280281351
Epoch: 124300, Error: 0.009199298784982443
Epoch: 124400, Error: 0.009371778134386595
Epoch: 124500, Error: 0.009663242679933896
Epoch: 124600, Error: 0.009332875707439493
Epoch: 124700, Error: 0.009384141179027427
Epoch: 124800, Error: 0.009361740694798401
Epoch: 124900, Error: 0.009511179237678583
Epoch: 125000, Error: 0.009350218557076106
Epoch: 125100, Error: 0.009233508962054446
Epoch: 125200, Error: 0.009525187488902175
Epoch: 125300, Error: 0.009392440547216165
Epoch: 125400, Error: 0.009318733734943761
Epoch: 125500, Error: 0.00927573624128938
Epoch: 125600, Error: 0.009315731581490664
Epoch: 125700, Error: 0.01094033166476782
Epoch: 125800, Error: 0.009465169730746547
Epoch: 125900, Error: 0.009572954246473296
Epoch: 126000, Error: 0.010720194415188625
Epoch: 126100, Error: 0.00955220334366788
Epoch: 126200, Error: 0.009312180047661654
Epoch: 126300, Error: 0.009526715707740559
Epoch: 126400, Error: 0.009424496026121285
Epoch: 126500, Error: 0.00940840441754227
Epoch: 126600, Error: 0.010793388178158399
Epoch: 126700, Error: 0.009352175106717738
Epoch: 126800, Error: 0.009365194464272048
Epoch: 126900, Error: 0.009411430373546387
Epoch: 127000, Error: 0.009392931988454947
Epoch: 127100, Error: 0.009302120064968234
Epoch: 127200, Error: 0.009220467808437533
Epoch: 127300, Error: 0.009579702578879336
Epoch: 127400, Error: 0.00931842316016631
Epoch: 127500, Error: 0.009254386582097832
Epoch: 127600, Error: 0.009432516419827999
Epoch: 127700, Error: 0.009515882110751942
Epoch: 127800, Error: 0.009415006076648339
Epoch: 127900, Error: 0.009590584234441847
Epoch: 128000, Error: 0.00966738106858293
Epoch: 128100, Error: 0.0092924131697942
Epoch: 128200, Error: 0.009343999944882357
Epoch: 128300, Error: 0.009291431037613767
Epoch: 128400, Error: 0.009333637067748557
Epoch: 128500, Error: 0.009609310392663864
Epoch: 128600, Error: 0.00931157188450588
Epoch: 128700, Error: 0.009357904313095938
Epoch: 128800, Error: 0.009667088408132511
Epoch: 128900, Error: 0.009377648263463701
Epoch: 129000, Error: 0.009473716923841016
Epoch: 129100, Error: 0.009475000099079907
Epoch: 129200, Error: 0.009512474190552112
Epoch: 129300, Error: 0.009405484696410003
Epoch: 129400, Error: 0.0094516289476529
Epoch: 129500, Error: 0.009570089711311472
Epoch: 129600, Error: 0.00926895885536561
Epoch: 129700, Error: 0.009321777301671625
Epoch: 129800, Error: 0.009509579885761675
Epoch: 129900, Error: 0.009252592591207635
Epoch: 130000, Error: 0.00971276701605088
Epoch: 130100, Error: 0.009314143266551278
Epoch: 130200, Error: 0.009626160861509
Epoch: 130300, Error: 0.009488808135263484
Epoch: 130400, Error: 0.009328343263370079
Epoch: 130500, Error: 0.00951118449495747
Epoch: 130600, Error: 0.009461660908830213
Epoch: 130700, Error: 0.009669976574949933
Epoch: 130800, Error: 0.009432608076445768
Epoch: 130900, Error: 0.010134275697008095
Epoch: 131000, Error: 0.0093197978572723
Epoch: 131100, Error: 0.009351828633562497
Epoch: 131200, Error: 0.009310305206577652
Epoch: 131300, Error: 0.009401676382567777
Epoch: 131400, Error: 0.009421677752794172
Epoch: 131500, Error: 0.009431242285248383
Epoch: 131600, Error: 0.009721969955337046
Epoch: 131700, Error: 0.009351823394421971
Epoch: 131800, Error: 0.009620046113618264
Epoch: 131900, Error: 0.009943641438123069
Epoch: 132000, Error: 0.00957525062065394
Epoch: 132100, Error: 0.009502171174321753
Epoch: 132200, Error: 0.009415264460165223
Epoch: 132300, Error: 0.009413886210065451
Epoch: 132400, Error: 0.009654200830286034
Epoch: 132500, Error: 0.009512939596621405
Epoch: 132600, Error: 0.009484425989626514
Epoch: 132700, Error: 0.009432278350161088
Epoch: 132800, Error: 0.009390928456773417
Epoch: 132900, Error: 0.010099757624194456
Epoch: 133000, Error: 0.009470013532833508
Epoch: 133100, Error: 0.009379626675889841
Epoch: 133200, Error: 0.01024885585314016
Epoch: 133300, Error: 0.009461574329143643
Epoch: 133400, Error: 0.00927810157555296
Epoch: 133500, Error: 0.009321431828698901
Epoch: 133600, Error: 0.009247440704092351
Epoch: 133700, Error: 0.00919921392574868
Epoch: 133800, Error: 0.009311664508798263
Epoch: 133900, Error: 0.009545139784103575
Epoch: 134000, Error: 0.009467577021999383
Epoch: 134100, Error: 0.009677601950286302
Epoch: 134200, Error: 0.009379151609870292
Epoch: 134300, Error: 0.00939259153615749
Epoch: 134400, Error: 0.009296302616287656
Epoch: 134500, Error: 0.009384129249775938
Epoch: 134600, Error: 0.009747506561591549
Epoch: 134700, Error: 0.009313651553186976
Epoch: 134800, Error: 0.009492964743967628
Epoch: 134900, Error: 0.009507103593964844
Epoch: 135000, Error: 0.009213080257890447
Epoch: 135100, Error: 0.009548068305724779
Epoch: 135200, Error: 0.009218378515449458
Epoch: 135300, Error: 0.009261192502551113
Epoch: 135400, Error: 0.010717690668082971
Epoch: 135500, Error: 0.009376309376546287
Epoch: 135600, Error: 0.00957522240278283
Epoch: 135700, Error: 0.009422203299389907
Epoch: 135800, Error: 0.009407047191993454
Epoch: 135900, Error: 0.009403961197287121
Epoch: 136000, Error: 0.009326101790621205
Epoch: 136100, Error: 0.009359344873886089
Epoch: 136200, Error: 0.009931173316885882
Epoch: 136300, Error: 0.009271165736029378
Epoch: 136400, Error: 0.010091406160670675
Epoch: 136500, Error: 0.009410666000513934
Epoch: 136600, Error: 0.009230388392455015
Epoch: 136700, Error: 0.010057364908421924
Epoch: 136800, Error: 0.009404497413109864
Epoch: 136900, Error: 0.00924588876445036
Epoch: 137000, Error: 0.009244743591494376
Epoch: 137100, Error: 0.009581000952279942
Epoch: 137200, Error: 0.009205650331978022
Epoch: 137300, Error: 0.009382218796980453
Epoch: 137400, Error: 0.009942674442337734
Epoch: 137500, Error: 0.00922785234156617
Epoch: 137600, Error: 0.009487635444321924
Epoch: 137700, Error: 0.009335128346327454
Epoch: 137800, Error: 0.009376149001304361
Epoch: 137900, Error: 0.009413063578333321
Epoch: 138000, Error: 0.009417708854671204
Epoch: 138100, Error: 0.009807545647253316
Epoch: 138200, Error: 0.009505320366556087
Epoch: 138300, Error: 0.009394838497280317
Epoch: 138400, Error: 0.00948858063875062
Epoch: 138500, Error: 0.009260963177005631
Epoch: 138600, Error: 0.009377907261593078
Epoch: 138700, Error: 0.009554289800804807
Epoch: 138800, Error: 0.00933212700577863
Epoch: 138900, Error: 0.009378486697269098
Epoch: 139000, Error: 0.009207890730820853
Epoch: 139100, Error: 0.010534128157896356
Epoch: 139200, Error: 0.009205674049918351
Epoch: 139300, Error: 0.009201381465890076
Epoch: 139400, Error: 0.009285700345315609
Epoch: 139500, Error: 0.010126001523965143
Epoch: 139600, Error: 0.00961085453126033
Epoch: 139700, Error: 0.009457810003634541
Epoch: 139800, Error: 0.009329579437022348
Epoch: 139900, Error: 0.009322982467086004
Epoch: 140000, Error: 0.009291771576895468
Epoch: 140100, Error: 0.009443093056361396
Epoch: 140200, Error: 0.009233572431964022
Epoch: 140300, Error: 0.009215088673411148
Epoch: 140400, Error: 0.009205598868586991
Epoch: 140500, Error: 0.009645652339733668
Epoch: 140600, Error: 0.009209082604457443
Epoch: 140700, Error: 0.009706305831422844
Epoch: 140800, Error: 0.009278125319900745
Epoch: 140900, Error: 0.00932596685405674
Epoch: 141000, Error: 0.009362607084609504
Epoch: 141100, Error: 0.009250396837469555
Epoch: 141200, Error: 0.009347846138517787
Epoch: 141300, Error: 0.00937733384964943
Epoch: 141400, Error: 0.009153963111942116
Epoch: 141500, Error: 0.009180319049008361
Epoch: 141600, Error: 0.00920339444450047
Epoch: 141700, Error: 0.009371316644703505
Epoch: 141800, Error: 0.00925091832822129
Epoch: 141900, Error: 0.009289974864215107
Epoch: 142000, Error: 0.010129596826081989
Epoch: 142100, Error: 0.009369009934597258
Epoch: 142200, Error: 0.009197988316616534
Epoch: 142300, Error: 0.009038768183124274
Epoch: 142400, Error: 0.009222096460170168
Epoch: 142500, Error: 0.00902402504937499
Epoch: 142600, Error: 0.008965448346494433
Epoch: 142700, Error: 0.008908968270106768
Epoch: 142800, Error: 0.009145247254383712
Epoch: 142900, Error: 0.009846918897997246
Epoch: 143000, Error: 0.008845138959606645
Epoch: 143100, Error: 0.009176426059886595
Epoch: 143200, Error: 0.008708649974872692
Epoch: 143300, Error: 0.008509729607370002
Epoch: 143400, Error: 0.008412444751318754
Epoch: 143500, Error: 0.008032530085629068
Epoch: 143600, Error: 0.008257473012942712
Epoch: 143700, Error: 0.00674506433144275
Epoch: 143800, Error: 0.006753973161805355
Epoch: 143900, Error: 0.005849273667632381
Epoch: 144000, Error: 0.005701640316416066
Epoch: 144100, Error: 0.005260260149402101
Epoch: 144200, Error: 0.0050296954113084455
Epoch: 144300, Error: 0.004842333724253289
Epoch: 144400, Error: 0.004741158033280018
Epoch: 144500, Error: 0.004494352715168564
Epoch: 144600, Error: 0.004215767856267825
Epoch: 144700, Error: 0.003959924691579728
Epoch: 144800, Error: 0.0037472665905166794
Epoch: 144900, Error: 0.0031777895436944886
Epoch: 145000, Error: 0.0026968525848036977
Epoch: 145100, Error: 0.0030864662220595846
Epoch: 145200, Error: 0.002572896143156547
Epoch: 145300, Error: 0.002424238943093407
Epoch: 145400, Error: 0.0021566724709258345
Epoch: 145500, Error: 0.0011166921233274748
Epoch: 145600, Error: 0.0010155028573391866
Epoch: 145700, Error: 0.0010419977866987925
Epoch: 145800, Error: 9.728829894643448E-4
Epoch: 145900, Error: 9.886769334776263E-4
Epoch: 146000, Error: 0.0010777287116507238
Epoch: 146100, Error: 0.0010831911506139216
Epoch: 146200, Error: 0.0010221917628172716
Epoch: 146300, Error: 9.845294111498865E-4
Epoch: 146400, Error: 0.0010415975887064191
Epoch: 146500, Error: 9.576092081715733E-4
Epoch: 146600, Error: 9.608408868192807E-4
Epoch: 146700, Error: 9.778217562752907E-4
Epoch: 146800, Error: 9.169644200933224E-4
Epoch: 146900, Error: 9.42365424717849E-4
Epoch: 147000, Error: 9.203742504659482E-4
Epoch: 147100, Error: 9.574410329149688E-4
Epoch: 147200, Error: 9.13373840606967E-4
Epoch: 147300, Error: 9.073796017536911E-4
Epoch: 147400, Error: 8.977446590133167E-4
Epoch: 147500, Error: 8.904640721620382E-4
Epoch: 147600, Error: 8.830085331618504E-4
Epoch: 147700, Error: 8.807707679628456E-4
Finished
