Input Patterns
0.224 0.624 0.067 0.043 
0.11 0.502 0.051 0.043 
0.196 0.667 0.067 0.043 
0.055 0.584 0.067 0.082 
0.027 0.376 0.067 0.043 
0.306 0.71 0.086 0.043 
0.137 0.416 0.067 0.0 
0.416 0.831 0.035 0.043 
0.306 0.792 0.051 0.125 
0.388 0.749 0.118 0.082 
0.306 0.584 0.118 0.043 
0.082 0.667 0.0 0.043 
0.137 0.584 0.153 0.043 
0.196 0.584 0.102 0.125 
0.251 0.584 0.067 0.043 
0.137 0.459 0.102 0.043 
0.251 0.875 0.086 0.0 
0.165 0.459 0.086 0.043 
0.333 0.624 0.051 0.043 
0.027 0.416 0.051 0.043 
0.196 0.624 0.051 0.082 
0.027 0.502 0.051 0.043 
0.224 0.749 0.153 0.125 
0.224 0.749 0.102 0.043 
0.278 0.71 0.086 0.043 
0.165 0.416 0.067 0.043 
0.082 0.459 0.086 0.043 
0.306 0.792 0.118 0.125 
0.196 0.584 0.086 0.043 
0.165 0.459 0.086 0.0 
0.137 0.584 0.102 0.043 
0.0 0.416 0.016 0.0 
0.388 1.0 0.086 0.125 
0.224 0.624 0.067 0.082 
0.224 0.749 0.086 0.082 
0.224 0.71 0.086 0.125 
0.224 0.541 0.118 0.165 
0.196 0.416 0.102 0.043 
0.251 0.624 0.086 0.043 
0.11 0.502 0.102 0.043 
0.306 0.584 0.086 0.125 
0.333 0.918 0.067 0.043 
0.196 0.502 0.035 0.043 
0.165 0.667 0.067 0.0 
0.224 0.584 0.086 0.043 
0.055 0.125 0.051 0.082 
0.196 0.624 0.102 0.208 
0.137 0.416 0.067 0.082 
0.082 0.502 0.067 0.043 
0.196 0.541 0.067 0.043 
0.749 0.502 0.627 0.541 
0.722 0.459 0.663 0.584 
0.612 0.333 0.612 0.584 
0.557 0.541 0.627 0.624 
0.639 0.376 0.612 0.498 
0.196 0.0 0.424 0.376 
0.471 0.082 0.51 0.376 
0.361 0.376 0.439 0.498 
0.361 0.416 0.592 0.584 
0.529 0.082 0.592 0.584 
0.443 0.502 0.643 0.459 
0.557 0.208 0.663 0.584 
0.584 0.376 0.561 0.498 
0.694 0.333 0.643 0.541 
0.471 0.376 0.592 0.584 
0.333 0.169 0.475 0.416 
0.416 0.29 0.49 0.459 
0.306 0.416 0.592 0.584 
0.667 0.459 0.627 0.584 
0.361 0.416 0.525 0.498 
0.333 0.251 0.576 0.459 
0.416 0.251 0.51 0.459 
0.361 0.29 0.541 0.498 
0.388 0.376 0.541 0.498 
0.224 0.208 0.337 0.416 
0.584 0.502 0.592 0.584 
0.333 0.125 0.51 0.498 
0.388 0.333 0.592 0.498 
0.165 0.169 0.388 0.376 
0.251 0.29 0.49 0.541 
0.443 0.416 0.541 0.584 
0.498 0.376 0.627 0.541 
0.667 0.459 0.576 0.541 
0.416 0.29 0.525 0.376 
0.361 0.208 0.49 0.416 
0.498 0.333 0.51 0.498 
0.498 0.333 0.627 0.459 
0.639 0.416 0.576 0.541 
0.667 0.416 0.678 0.667 
0.388 0.251 0.424 0.376 
0.333 0.169 0.459 0.376 
0.471 0.29 0.694 0.624 
0.471 0.584 0.592 0.624 
0.557 0.125 0.576 0.498 
0.333 0.208 0.51 0.498 
0.498 0.416 0.612 0.541 
0.196 0.125 0.388 0.376 
0.388 0.416 0.541 0.459 
0.529 0.376 0.561 0.498 
0.388 0.333 0.525 0.498 
0.557 0.541 0.847 1.0 
0.776 0.416 0.831 0.831 
0.612 0.416 0.812 0.875 
0.165 0.208 0.592 0.667 
0.667 0.208 0.812 0.71 
0.612 0.502 0.694 0.792 
0.694 0.416 0.761 0.831 
0.416 0.333 0.694 0.957 
0.612 0.416 0.761 0.71 
0.945 0.251 1.0 0.918 
0.722 0.502 0.796 0.918 
0.945 0.333 0.965 0.792 
0.667 0.541 0.796 0.831 
0.529 0.333 0.643 0.71 
0.584 0.333 0.78 0.831 
0.863 0.333 0.863 0.749 
0.584 0.333 0.78 0.875 
0.498 0.251 0.78 0.541 
0.557 0.584 0.78 0.957 
0.471 0.416 0.643 0.71 
0.667 0.459 0.78 0.957 
0.416 0.29 0.694 0.749 
0.667 0.541 0.796 1.0 
0.557 0.208 0.678 0.749 
0.529 0.584 0.745 0.918 
0.416 0.29 0.694 0.749 
0.557 0.376 0.78 0.71 
0.918 0.416 0.949 0.831 
0.835 0.376 0.898 0.71 
0.804 0.667 0.863 1.0 
0.584 0.29 0.729 0.749 
0.388 0.208 0.678 0.792 
0.584 0.502 0.729 0.918 
0.945 0.749 0.965 0.875 
0.471 0.082 0.678 0.584 
0.361 0.333 0.663 0.792 
0.557 0.29 0.663 0.71 
0.804 0.502 0.847 0.71 
0.498 0.416 0.51 0.71 
0.804 0.416 0.812 0.624 
1.0 0.749 0.914 0.792 
0.557 0.333 0.694 0.584 
0.945 0.416 0.863 0.918 
0.584 0.459 0.761 0.71 
0.722 0.459 0.745 0.831 
0.722 0.459 0.694 0.918 
0.694 0.502 0.831 0.918 
0.667 0.416 0.714 0.918 
0.612 0.416 0.714 0.792 
0.443 0.416 0.694 0.71 
Teaching Patterns
1.0 0.0 0.0 
1.0 0.0 0.0 
1.0 0.0 0.0 
1.0 0.0 0.0 
1.0 0.0 0.0 
1.0 0.0 0.0 
1.0 0.0 0.0 
1.0 0.0 0.0 
1.0 0.0 0.0 
1.0 0.0 0.0 
1.0 0.0 0.0 
1.0 0.0 0.0 
1.0 0.0 0.0 
1.0 0.0 0.0 
1.0 0.0 0.0 
1.0 0.0 0.0 
1.0 0.0 0.0 
1.0 0.0 0.0 
1.0 0.0 0.0 
1.0 0.0 0.0 
1.0 0.0 0.0 
1.0 0.0 0.0 
1.0 0.0 0.0 
1.0 0.0 0.0 
1.0 0.0 0.0 
1.0 0.0 0.0 
1.0 0.0 0.0 
1.0 0.0 0.0 
1.0 0.0 0.0 
1.0 0.0 0.0 
1.0 0.0 0.0 
1.0 0.0 0.0 
1.0 0.0 0.0 
1.0 0.0 0.0 
1.0 0.0 0.0 
1.0 0.0 0.0 
1.0 0.0 0.0 
1.0 0.0 0.0 
1.0 0.0 0.0 
1.0 0.0 0.0 
1.0 0.0 0.0 
1.0 0.0 0.0 
1.0 0.0 0.0 
1.0 0.0 0.0 
1.0 0.0 0.0 
1.0 0.0 0.0 
1.0 0.0 0.0 
1.0 0.0 0.0 
1.0 0.0 0.0 
1.0 0.0 0.0 
0.0 1.0 0.0 
0.0 1.0 0.0 
0.0 1.0 0.0 
0.0 1.0 0.0 
0.0 1.0 0.0 
0.0 1.0 0.0 
0.0 1.0 0.0 
0.0 1.0 0.0 
0.0 1.0 0.0 
0.0 1.0 0.0 
0.0 1.0 0.0 
0.0 1.0 0.0 
0.0 1.0 0.0 
0.0 1.0 0.0 
0.0 1.0 0.0 
0.0 1.0 0.0 
0.0 1.0 0.0 
0.0 1.0 0.0 
0.0 1.0 0.0 
0.0 1.0 0.0 
0.0 1.0 0.0 
0.0 1.0 0.0 
0.0 1.0 0.0 
0.0 1.0 0.0 
0.0 1.0 0.0 
0.0 1.0 0.0 
0.0 1.0 0.0 
0.0 1.0 0.0 
0.0 1.0 0.0 
0.0 1.0 0.0 
0.0 1.0 0.0 
0.0 1.0 0.0 
0.0 1.0 0.0 
0.0 1.0 0.0 
0.0 1.0 0.0 
0.0 1.0 0.0 
0.0 1.0 0.0 
0.0 1.0 0.0 
0.0 1.0 0.0 
0.0 1.0 0.0 
0.0 1.0 0.0 
0.0 1.0 0.0 
0.0 1.0 0.0 
0.0 1.0 0.0 
0.0 1.0 0.0 
0.0 1.0 0.0 
0.0 1.0 0.0 
0.0 1.0 0.0 
0.0 1.0 0.0 
0.0 1.0 0.0 
0.0 0.0 1.0 
0.0 0.0 1.0 
0.0 0.0 1.0 
0.0 0.0 1.0 
0.0 0.0 1.0 
0.0 0.0 1.0 
0.0 0.0 1.0 
0.0 0.0 1.0 
0.0 0.0 1.0 
0.0 0.0 1.0 
0.0 0.0 1.0 
0.0 0.0 1.0 
0.0 0.0 1.0 
0.0 0.0 1.0 
0.0 0.0 1.0 
0.0 0.0 1.0 
0.0 0.0 1.0 
0.0 0.0 1.0 
0.0 0.0 1.0 
0.0 0.0 1.0 
0.0 0.0 1.0 
0.0 0.0 1.0 
0.0 0.0 1.0 
0.0 0.0 1.0 
0.0 0.0 1.0 
0.0 0.0 1.0 
0.0 0.0 1.0 
0.0 0.0 1.0 
0.0 0.0 1.0 
0.0 0.0 1.0 
0.0 0.0 1.0 
0.0 0.0 1.0 
0.0 0.0 1.0 
0.0 0.0 1.0 
0.0 0.0 1.0 
0.0 0.0 1.0 
0.0 0.0 1.0 
0.0 0.0 1.0 
0.0 0.0 1.0 
0.0 0.0 1.0 
0.0 0.0 1.0 
0.0 0.0 1.0 
0.0 0.0 1.0 
0.0 0.0 1.0 
0.0 0.0 1.0 
0.0 0.0 1.0 
0.0 0.0 1.0 
0.0 0.0 1.0 
0.0 0.0 1.0 
0.0 0.0 1.0 
Learning : 0.949999988079071
Momentum : 0.9
Epoch: 100, Error: 0.01395930826364904
Epoch: 200, Error: 0.01217196714157784
Epoch: 300, Error: 0.015707047566872957
Epoch: 400, Error: 0.012144699264420905
Epoch: 500, Error: 0.011974881988786875
Epoch: 600, Error: 0.013479411381854954
Epoch: 700, Error: 0.01228554863283842
Epoch: 800, Error: 0.013127840079347306
Epoch: 900, Error: 0.012553587291419444
Epoch: 1000, Error: 0.015442669512072961
Epoch: 1100, Error: 0.011796802438212378
Epoch: 1200, Error: 0.011327499198481658
Epoch: 1300, Error: 0.01126414481347037
Epoch: 1400, Error: 0.010966327772839032
Epoch: 1500, Error: 0.012141195001427333
Epoch: 1600, Error: 0.010152931783587105
Epoch: 1700, Error: 0.00972920056935059
Epoch: 1800, Error: 0.009734671968620745
Epoch: 1900, Error: 0.008895856629496891
Epoch: 2000, Error: 0.010218031323895593
Epoch: 2100, Error: 0.007581384131963358
Epoch: 2200, Error: 0.007645412702097043
Epoch: 2300, Error: 0.007497348355099063
Epoch: 2400, Error: 0.008004454916247404
Epoch: 2500, Error: 0.007169122782589426
Epoch: 2600, Error: 0.007111530724541946
Epoch: 2700, Error: 0.0067249753512968425
Epoch: 2800, Error: 0.006578967112978669
Epoch: 2900, Error: 0.006258377548329974
Epoch: 3000, Error: 0.005914066451392122
Epoch: 3100, Error: 0.006159069262665595
Epoch: 3200, Error: 0.005396629219024787
Epoch: 3300, Error: 0.005643527986221331
Epoch: 3400, Error: 0.005391704110858158
Epoch: 3500, Error: 0.0054443200437596356
Epoch: 3600, Error: 0.005352294121241822
Epoch: 3700, Error: 0.005328157620671126
Epoch: 3800, Error: 0.005302485808931066
Epoch: 3900, Error: 0.0051857239189127815
Epoch: 4000, Error: 0.0052615109916426366
Epoch: 4100, Error: 0.005187719508589999
Epoch: 4200, Error: 0.005151381673460281
Epoch: 4300, Error: 0.005199809750944227
Epoch: 4400, Error: 0.005322134582897437
Epoch: 4500, Error: 0.005005956824732528
Epoch: 4600, Error: 0.004908260996311376
Epoch: 4700, Error: 0.004997987940788981
Epoch: 4800, Error: 0.004943049281557751
Epoch: 4900, Error: 0.004891146580095673
Epoch: 5000, Error: 0.00484045649551949
Epoch: 5100, Error: 0.004799053506574109
Epoch: 5200, Error: 0.0047346119263957384
Epoch: 5300, Error: 0.004497705164346967
Epoch: 5400, Error: 0.004615856908133835
Epoch: 5500, Error: 0.00438720206610947
Epoch: 5600, Error: 0.004443083861269357
Epoch: 5700, Error: 0.004365877363268195
Epoch: 5800, Error: 0.004095746232068068
Epoch: 5900, Error: 0.004311769417817743
Epoch: 6000, Error: 0.004254341020852582
Epoch: 6100, Error: 0.00403656066337894
Epoch: 6200, Error: 0.003963887320710272
Epoch: 6300, Error: 0.00421589989721767
Epoch: 6400, Error: 0.0038544252154285147
Epoch: 6500, Error: 0.0036382875832416785
Epoch: 6600, Error: 0.003756686195368658
Epoch: 6700, Error: 0.0033368451030751723
Epoch: 6800, Error: 0.0043691128415266406
Epoch: 6900, Error: 0.003632154605226234
Epoch: 7000, Error: 0.003774536811291646
Epoch: 7100, Error: 0.0036319727915480843
Epoch: 7200, Error: 0.003453154053401942
Epoch: 7300, Error: 0.0032305307685254084
Epoch: 7400, Error: 0.002994254162464378
Epoch: 7500, Error: 0.0030107999366059328
Epoch: 7600, Error: 0.004054916731951516
Epoch: 7700, Error: 0.003580892618617137
Epoch: 7800, Error: 0.0038417942313898347
Epoch: 7900, Error: 0.003186753667792196
Epoch: 8000, Error: 0.003264543501875408
Epoch: 8100, Error: 0.0025511944061064585
Epoch: 8200, Error: 0.003298143002773143
Epoch: 8300, Error: 0.0031044471477382337
Epoch: 8400, Error: 0.0030380136800738644
Epoch: 8500, Error: 0.0023440510141675974
Epoch: 8600, Error: 0.002881379521866951
Epoch: 8700, Error: 0.003513078417173797
Epoch: 8800, Error: 0.002685045309037156
Epoch: 8900, Error: 0.0024415491011699174
Epoch: 9000, Error: 0.004187452097000388
Epoch: 9100, Error: 0.0025895607587309334
Epoch: 9200, Error: 0.00978942490096961
Epoch: 9300, Error: 0.002001563862121392
Epoch: 9400, Error: 0.0034210923435059218
Epoch: 9500, Error: 0.0022144031591794337
Epoch: 9600, Error: 5.708562281541411E-4
Epoch: 9700, Error: 5.829891956319333E-4
Epoch: 9800, Error: 5.505311623404505E-4
Epoch: 9900, Error: 5.544102863688968E-4
Epoch: 10000, Error: 6.957757132193165E-4
Epoch: 10100, Error: 6.010967118785413E-4
Epoch: 10200, Error: 6.194227741180686E-4
Epoch: 10300, Error: 5.987281139737072E-4
Epoch: 10400, Error: 6.365911359777521E-4
Epoch: 10500, Error: 6.280108681369571E-4
Epoch: 10600, Error: 6.41780916144167E-4
Epoch: 10700, Error: 6.216029177936474E-4
Epoch: 10800, Error: 5.982007073466655E-4
Epoch: 10900, Error: 6.717091601157816E-4
Epoch: 11000, Error: 6.461421911563613E-4
Epoch: 11100, Error: 6.044922580598722E-4
Epoch: 11200, Error: 5.928706536543525E-4
Epoch: 11300, Error: 5.91606338080336E-4
Epoch: 11400, Error: 5.713579614045604E-4
Epoch: 11500, Error: 5.471862176821994E-4
Epoch: 11600, Error: 5.973614236202666E-4
Epoch: 11700, Error: 5.693365767526064E-4
Epoch: 11800, Error: 5.400898846107994E-4
Epoch: 11900, Error: 5.752705748364429E-4
Epoch: 12000, Error: 5.28977006200143E-4
Epoch: 12100, Error: 5.42207795172721E-4
Epoch: 12200, Error: 5.380892801989204E-4
Epoch: 12300, Error: 5.560060976790001E-4
Epoch: 12400, Error: 5.381310095258511E-4
Epoch: 12500, Error: 5.299325067471947E-4
Finished
