Input Patterns
0.224 0.624 0.067 0.043 
0.11 0.502 0.051 0.043 
0.196 0.667 0.067 0.043 
0.055 0.584 0.067 0.082 
0.027 0.376 0.067 0.043 
0.306 0.71 0.086 0.043 
0.137 0.416 0.067 0.0 
0.416 0.831 0.035 0.043 
0.306 0.792 0.051 0.125 
0.388 0.749 0.118 0.082 
0.306 0.584 0.118 0.043 
0.082 0.667 0.0 0.043 
0.137 0.584 0.153 0.043 
0.196 0.584 0.102 0.125 
0.251 0.584 0.067 0.043 
0.137 0.459 0.102 0.043 
0.251 0.875 0.086 0.0 
0.165 0.459 0.086 0.043 
0.333 0.624 0.051 0.043 
0.027 0.416 0.051 0.043 
0.196 0.624 0.051 0.082 
0.027 0.502 0.051 0.043 
0.224 0.749 0.153 0.125 
0.224 0.749 0.102 0.043 
0.278 0.71 0.086 0.043 
0.165 0.416 0.067 0.043 
0.082 0.459 0.086 0.043 
0.306 0.792 0.118 0.125 
0.196 0.584 0.086 0.043 
0.165 0.459 0.086 0.0 
0.137 0.584 0.102 0.043 
0.0 0.416 0.016 0.0 
0.388 1.0 0.086 0.125 
0.224 0.624 0.067 0.082 
0.224 0.749 0.086 0.082 
0.224 0.71 0.086 0.125 
0.224 0.541 0.118 0.165 
0.196 0.416 0.102 0.043 
0.251 0.624 0.086 0.043 
0.11 0.502 0.102 0.043 
0.306 0.584 0.086 0.125 
0.333 0.918 0.067 0.043 
0.196 0.502 0.035 0.043 
0.165 0.667 0.067 0.0 
0.224 0.584 0.086 0.043 
0.055 0.125 0.051 0.082 
0.196 0.624 0.102 0.208 
0.137 0.416 0.067 0.082 
0.082 0.502 0.067 0.043 
0.196 0.541 0.067 0.043 
0.749 0.502 0.627 0.541 
0.722 0.459 0.663 0.584 
0.612 0.333 0.612 0.584 
0.557 0.541 0.627 0.624 
0.639 0.376 0.612 0.498 
0.196 0.0 0.424 0.376 
0.471 0.082 0.51 0.376 
0.361 0.376 0.439 0.498 
0.361 0.416 0.592 0.584 
0.529 0.082 0.592 0.584 
0.443 0.502 0.643 0.459 
0.557 0.208 0.663 0.584 
0.584 0.376 0.561 0.498 
0.694 0.333 0.643 0.541 
0.471 0.376 0.592 0.584 
0.333 0.169 0.475 0.416 
0.416 0.29 0.49 0.459 
0.306 0.416 0.592 0.584 
0.667 0.459 0.627 0.584 
0.361 0.416 0.525 0.498 
0.333 0.251 0.576 0.459 
0.416 0.251 0.51 0.459 
0.361 0.29 0.541 0.498 
0.388 0.376 0.541 0.498 
0.224 0.208 0.337 0.416 
0.584 0.502 0.592 0.584 
0.333 0.125 0.51 0.498 
0.388 0.333 0.592 0.498 
0.165 0.169 0.388 0.376 
0.251 0.29 0.49 0.541 
0.443 0.416 0.541 0.584 
0.498 0.376 0.627 0.541 
0.667 0.459 0.576 0.541 
0.416 0.29 0.525 0.376 
0.361 0.208 0.49 0.416 
0.498 0.333 0.51 0.498 
0.498 0.333 0.627 0.459 
0.639 0.416 0.576 0.541 
0.667 0.416 0.678 0.667 
0.388 0.251 0.424 0.376 
0.333 0.169 0.459 0.376 
0.471 0.29 0.694 0.624 
0.471 0.584 0.592 0.624 
0.557 0.125 0.576 0.498 
0.333 0.208 0.51 0.498 
0.498 0.416 0.612 0.541 
0.196 0.125 0.388 0.376 
0.388 0.416 0.541 0.459 
0.529 0.376 0.561 0.498 
0.388 0.333 0.525 0.498 
0.557 0.541 0.847 1.0 
0.776 0.416 0.831 0.831 
0.612 0.416 0.812 0.875 
0.165 0.208 0.592 0.667 
0.667 0.208 0.812 0.71 
0.612 0.502 0.694 0.792 
0.694 0.416 0.761 0.831 
0.416 0.333 0.694 0.957 
0.612 0.416 0.761 0.71 
0.945 0.251 1.0 0.918 
0.722 0.502 0.796 0.918 
0.945 0.333 0.965 0.792 
0.667 0.541 0.796 0.831 
0.529 0.333 0.643 0.71 
0.584 0.333 0.78 0.831 
0.863 0.333 0.863 0.749 
0.584 0.333 0.78 0.875 
0.498 0.251 0.78 0.541 
0.557 0.584 0.78 0.957 
0.471 0.416 0.643 0.71 
0.667 0.459 0.78 0.957 
0.416 0.29 0.694 0.749 
0.667 0.541 0.796 1.0 
0.557 0.208 0.678 0.749 
0.529 0.584 0.745 0.918 
0.416 0.29 0.694 0.749 
0.557 0.376 0.78 0.71 
0.918 0.416 0.949 0.831 
0.835 0.376 0.898 0.71 
0.804 0.667 0.863 1.0 
0.584 0.29 0.729 0.749 
0.388 0.208 0.678 0.792 
0.584 0.502 0.729 0.918 
0.945 0.749 0.965 0.875 
0.471 0.082 0.678 0.584 
0.361 0.333 0.663 0.792 
0.557 0.29 0.663 0.71 
0.804 0.502 0.847 0.71 
0.498 0.416 0.51 0.71 
0.804 0.416 0.812 0.624 
1.0 0.749 0.914 0.792 
0.557 0.333 0.694 0.584 
0.945 0.416 0.863 0.918 
0.584 0.459 0.761 0.71 
0.722 0.459 0.745 0.831 
0.722 0.459 0.694 0.918 
0.694 0.502 0.831 0.918 
0.667 0.416 0.714 0.918 
0.612 0.416 0.714 0.792 
0.443 0.416 0.694 0.71 
Teaching Patterns
1.0 0.0 0.0 
1.0 0.0 0.0 
1.0 0.0 0.0 
1.0 0.0 0.0 
1.0 0.0 0.0 
1.0 0.0 0.0 
1.0 0.0 0.0 
1.0 0.0 0.0 
1.0 0.0 0.0 
1.0 0.0 0.0 
1.0 0.0 0.0 
1.0 0.0 0.0 
1.0 0.0 0.0 
1.0 0.0 0.0 
1.0 0.0 0.0 
1.0 0.0 0.0 
1.0 0.0 0.0 
1.0 0.0 0.0 
1.0 0.0 0.0 
1.0 0.0 0.0 
1.0 0.0 0.0 
1.0 0.0 0.0 
1.0 0.0 0.0 
1.0 0.0 0.0 
1.0 0.0 0.0 
1.0 0.0 0.0 
1.0 0.0 0.0 
1.0 0.0 0.0 
1.0 0.0 0.0 
1.0 0.0 0.0 
1.0 0.0 0.0 
1.0 0.0 0.0 
1.0 0.0 0.0 
1.0 0.0 0.0 
1.0 0.0 0.0 
1.0 0.0 0.0 
1.0 0.0 0.0 
1.0 0.0 0.0 
1.0 0.0 0.0 
1.0 0.0 0.0 
1.0 0.0 0.0 
1.0 0.0 0.0 
1.0 0.0 0.0 
1.0 0.0 0.0 
1.0 0.0 0.0 
1.0 0.0 0.0 
1.0 0.0 0.0 
1.0 0.0 0.0 
1.0 0.0 0.0 
1.0 0.0 0.0 
0.0 1.0 0.0 
0.0 1.0 0.0 
0.0 1.0 0.0 
0.0 1.0 0.0 
0.0 1.0 0.0 
0.0 1.0 0.0 
0.0 1.0 0.0 
0.0 1.0 0.0 
0.0 1.0 0.0 
0.0 1.0 0.0 
0.0 1.0 0.0 
0.0 1.0 0.0 
0.0 1.0 0.0 
0.0 1.0 0.0 
0.0 1.0 0.0 
0.0 1.0 0.0 
0.0 1.0 0.0 
0.0 1.0 0.0 
0.0 1.0 0.0 
0.0 1.0 0.0 
0.0 1.0 0.0 
0.0 1.0 0.0 
0.0 1.0 0.0 
0.0 1.0 0.0 
0.0 1.0 0.0 
0.0 1.0 0.0 
0.0 1.0 0.0 
0.0 1.0 0.0 
0.0 1.0 0.0 
0.0 1.0 0.0 
0.0 1.0 0.0 
0.0 1.0 0.0 
0.0 1.0 0.0 
0.0 1.0 0.0 
0.0 1.0 0.0 
0.0 1.0 0.0 
0.0 1.0 0.0 
0.0 1.0 0.0 
0.0 1.0 0.0 
0.0 1.0 0.0 
0.0 1.0 0.0 
0.0 1.0 0.0 
0.0 1.0 0.0 
0.0 1.0 0.0 
0.0 1.0 0.0 
0.0 1.0 0.0 
0.0 1.0 0.0 
0.0 1.0 0.0 
0.0 1.0 0.0 
0.0 1.0 0.0 
0.0 0.0 1.0 
0.0 0.0 1.0 
0.0 0.0 1.0 
0.0 0.0 1.0 
0.0 0.0 1.0 
0.0 0.0 1.0 
0.0 0.0 1.0 
0.0 0.0 1.0 
0.0 0.0 1.0 
0.0 0.0 1.0 
0.0 0.0 1.0 
0.0 0.0 1.0 
0.0 0.0 1.0 
0.0 0.0 1.0 
0.0 0.0 1.0 
0.0 0.0 1.0 
0.0 0.0 1.0 
0.0 0.0 1.0 
0.0 0.0 1.0 
0.0 0.0 1.0 
0.0 0.0 1.0 
0.0 0.0 1.0 
0.0 0.0 1.0 
0.0 0.0 1.0 
0.0 0.0 1.0 
0.0 0.0 1.0 
0.0 0.0 1.0 
0.0 0.0 1.0 
0.0 0.0 1.0 
0.0 0.0 1.0 
0.0 0.0 1.0 
0.0 0.0 1.0 
0.0 0.0 1.0 
0.0 0.0 1.0 
0.0 0.0 1.0 
0.0 0.0 1.0 
0.0 0.0 1.0 
0.0 0.0 1.0 
0.0 0.0 1.0 
0.0 0.0 1.0 
0.0 0.0 1.0 
0.0 0.0 1.0 
0.0 0.0 1.0 
0.0 0.0 1.0 
0.0 0.0 1.0 
0.0 0.0 1.0 
0.0 0.0 1.0 
0.0 0.0 1.0 
0.0 0.0 1.0 
0.0 0.0 1.0 
Learning : 0.949999988079071
Momentum : 0.9
Epoch: 100, Error: 0.012769822804850102
Epoch: 200, Error: 0.01196394379861133
Epoch: 300, Error: 0.011951702604587205
Epoch: 400, Error: 0.011760170593631174
Epoch: 500, Error: 0.01219151204889482
Epoch: 600, Error: 0.012569987139055412
Epoch: 700, Error: 0.011978903341435034
Epoch: 800, Error: 0.011604204068438572
Epoch: 900, Error: 0.013717677737012645
Epoch: 1000, Error: 0.011858550553211642
Epoch: 1100, Error: 0.014073188910265185
Epoch: 1200, Error: 0.011400461578598822
Epoch: 1300, Error: 0.010910316433021282
Epoch: 1400, Error: 0.010862003657266606
Epoch: 1500, Error: 0.010404499377841183
Epoch: 1600, Error: 0.01052683228615809
Epoch: 1700, Error: 0.008747729357447637
Epoch: 1800, Error: 0.011924318095481915
Epoch: 1900, Error: 0.007366276260336299
Epoch: 2000, Error: 0.005802941019384576
Epoch: 2100, Error: 0.006262978687124667
Epoch: 2200, Error: 0.005515165200432379
Epoch: 2300, Error: 0.005381907290274634
Epoch: 2400, Error: 0.005375229540411398
Epoch: 2500, Error: 0.005397303875056294
Epoch: 2600, Error: 0.005366871007678595
Epoch: 2700, Error: 0.005371244697411356
Epoch: 2800, Error: 0.005325316051083937
Epoch: 2900, Error: 0.0054266478086132915
Epoch: 3000, Error: 0.005375456339970785
Epoch: 3100, Error: 0.00530502657396081
Epoch: 3200, Error: 0.005300952518752878
Epoch: 3300, Error: 0.005262523778892854
Epoch: 3400, Error: 0.005275593655068737
Epoch: 3500, Error: 0.005273003218492429
Epoch: 3600, Error: 0.005193961525950399
Epoch: 3700, Error: 0.0052255151079916495
Epoch: 3800, Error: 0.005164544525749054
Epoch: 3900, Error: 0.005148554802625982
Epoch: 4000, Error: 0.005161945134660294
Epoch: 4100, Error: 0.005184245989243025
Epoch: 4200, Error: 0.005084927832151874
Epoch: 4300, Error: 0.005054349433778694
Epoch: 4400, Error: 0.005159202996775591
Epoch: 4500, Error: 0.005019890280894367
Epoch: 4600, Error: 0.005339567165595766
Epoch: 4700, Error: 0.0050792441894207405
Epoch: 4800, Error: 0.005180468776230277
Epoch: 4900, Error: 0.005143897485739523
Epoch: 5000, Error: 0.005131190916515998
Epoch: 5100, Error: 0.005245950067293208
Epoch: 5200, Error: 0.004821704294564021
Epoch: 5300, Error: 0.004743891901262873
Epoch: 5400, Error: 0.005328072436005114
Epoch: 5500, Error: 0.00460480344261009
Epoch: 5600, Error: 0.004594572776869557
Epoch: 5700, Error: 0.004909514856515949
Epoch: 5800, Error: 0.004006380254637186
Epoch: 5900, Error: 0.00469756455612138
Epoch: 6000, Error: 0.004287301378776155
Epoch: 6100, Error: 0.003785020069337414
Epoch: 6200, Error: 0.0044047488245888364
Epoch: 6300, Error: 0.00484160505132528
Epoch: 6400, Error: 0.0031234529732416592
Epoch: 6500, Error: 0.0046571806299436115
Epoch: 6600, Error: 0.004211321882649305
Epoch: 6700, Error: 0.004509252206631983
Epoch: 6800, Error: 0.004020102527530917
Epoch: 6900, Error: 0.004427113379807322
Epoch: 7000, Error: 0.0051774048213295044
Epoch: 7100, Error: 0.004287308272082234
Epoch: 7200, Error: 0.003401832310133776
Epoch: 7300, Error: 0.003704510421424545
Epoch: 7400, Error: 0.0029608113287930998
Epoch: 7500, Error: 0.0029404450534393552
Epoch: 7600, Error: 0.0018484846246497415
Epoch: 7700, Error: 0.007747476952002286
Epoch: 7800, Error: 0.0027206765433168585
Epoch: 7900, Error: 0.006010059141005463
Epoch: 8000, Error: 0.0037168019318313187
Epoch: 8100, Error: 0.0022942488770933403
Epoch: 8200, Error: 0.0037019827811836416
Epoch: 8300, Error: 0.004614453215946898
Epoch: 8400, Error: 0.003526552743811368
Epoch: 8500, Error: 0.006845518955613926
Epoch: 8600, Error: 0.0017612409057012933
Epoch: 8700, Error: 0.0013784187047303673
Epoch: 8800, Error: 0.0026490981009499857
Epoch: 8900, Error: 0.0013772992096156753
Epoch: 9000, Error: 0.004499600065164824
Epoch: 9100, Error: 0.001415939904779424
Epoch: 9200, Error: 0.001186842107175696
Epoch: 9300, Error: 0.0016435218149704613
Epoch: 9400, Error: 9.970359147638914E-4
Epoch: 9500, Error: 9.734440468004156E-4
Epoch: 9600, Error: 9.584674558989177E-4
Epoch: 9700, Error: 9.516960430649057E-4
Epoch: 9800, Error: 9.578595327639761E-4
Epoch: 9900, Error: 9.444493313917079E-4
Epoch: 10000, Error: 9.327706492112682E-4
Epoch: 10100, Error: 9.10363739705684E-4
Epoch: 10200, Error: 8.94775686067374E-4
Epoch: 10300, Error: 8.817122909736767E-4
Epoch: 10400, Error: 9.483845669105275E-4
Epoch: 10500, Error: 8.483678332729178E-4
Epoch: 10600, Error: 8.292041857793757E-4
Epoch: 10700, Error: 8.231908996121487E-4
Epoch: 10800, Error: 8.080880215907463E-4
Epoch: 10900, Error: 8.106604252838119E-4
Epoch: 11000, Error: 7.885167334629862E-4
Epoch: 11100, Error: 7.835447894478588E-4
Epoch: 11200, Error: 7.897651046299968E-4
Epoch: 11300, Error: 7.704752999350002E-4
Epoch: 11400, Error: 7.677729282492246E-4
Epoch: 11500, Error: 7.720494383178225E-4
Epoch: 11600, Error: 7.761927680861115E-4
Epoch: 11700, Error: 7.602515418591072E-4
Finished
