Input Patterns
0.224 0.624 0.067 0.043 
0.11 0.502 0.051 0.043 
0.196 0.667 0.067 0.043 
0.055 0.584 0.067 0.082 
0.027 0.376 0.067 0.043 
0.306 0.71 0.086 0.043 
0.137 0.416 0.067 0.0 
0.416 0.831 0.035 0.043 
0.306 0.792 0.051 0.125 
0.388 0.749 0.118 0.082 
0.306 0.584 0.118 0.043 
0.082 0.667 0.0 0.043 
0.137 0.584 0.153 0.043 
0.196 0.584 0.102 0.125 
0.251 0.584 0.067 0.043 
0.137 0.459 0.102 0.043 
0.251 0.875 0.086 0.0 
0.165 0.459 0.086 0.043 
0.333 0.624 0.051 0.043 
0.027 0.416 0.051 0.043 
0.196 0.624 0.051 0.082 
0.027 0.502 0.051 0.043 
0.224 0.749 0.153 0.125 
0.224 0.749 0.102 0.043 
0.278 0.71 0.086 0.043 
0.165 0.416 0.067 0.043 
0.082 0.459 0.086 0.043 
0.306 0.792 0.118 0.125 
0.196 0.584 0.086 0.043 
0.165 0.459 0.086 0.0 
0.137 0.584 0.102 0.043 
0.0 0.416 0.016 0.0 
0.388 1.0 0.086 0.125 
0.224 0.624 0.067 0.082 
0.224 0.749 0.086 0.082 
0.224 0.71 0.086 0.125 
0.224 0.541 0.118 0.165 
0.196 0.416 0.102 0.043 
0.251 0.624 0.086 0.043 
0.11 0.502 0.102 0.043 
0.306 0.584 0.086 0.125 
0.333 0.918 0.067 0.043 
0.196 0.502 0.035 0.043 
0.165 0.667 0.067 0.0 
0.224 0.584 0.086 0.043 
0.055 0.125 0.051 0.082 
0.196 0.624 0.102 0.208 
0.137 0.416 0.067 0.082 
0.082 0.502 0.067 0.043 
0.196 0.541 0.067 0.043 
0.749 0.502 0.627 0.541 
0.722 0.459 0.663 0.584 
0.612 0.333 0.612 0.584 
0.557 0.541 0.627 0.624 
0.639 0.376 0.612 0.498 
0.196 0.0 0.424 0.376 
0.471 0.082 0.51 0.376 
0.361 0.376 0.439 0.498 
0.361 0.416 0.592 0.584 
0.529 0.082 0.592 0.584 
0.443 0.502 0.643 0.459 
0.557 0.208 0.663 0.584 
0.584 0.376 0.561 0.498 
0.694 0.333 0.643 0.541 
0.471 0.376 0.592 0.584 
0.333 0.169 0.475 0.416 
0.416 0.29 0.49 0.459 
0.306 0.416 0.592 0.584 
0.667 0.459 0.627 0.584 
0.361 0.416 0.525 0.498 
0.333 0.251 0.576 0.459 
0.416 0.251 0.51 0.459 
0.361 0.29 0.541 0.498 
0.388 0.376 0.541 0.498 
0.224 0.208 0.337 0.416 
0.584 0.502 0.592 0.584 
0.333 0.125 0.51 0.498 
0.388 0.333 0.592 0.498 
0.165 0.169 0.388 0.376 
0.251 0.29 0.49 0.541 
0.443 0.416 0.541 0.584 
0.498 0.376 0.627 0.541 
0.667 0.459 0.576 0.541 
0.416 0.29 0.525 0.376 
0.361 0.208 0.49 0.416 
0.498 0.333 0.51 0.498 
0.498 0.333 0.627 0.459 
0.639 0.416 0.576 0.541 
0.667 0.416 0.678 0.667 
0.388 0.251 0.424 0.376 
0.333 0.169 0.459 0.376 
0.471 0.29 0.694 0.624 
0.471 0.584 0.592 0.624 
0.557 0.125 0.576 0.498 
0.333 0.208 0.51 0.498 
0.498 0.416 0.612 0.541 
0.196 0.125 0.388 0.376 
0.388 0.416 0.541 0.459 
0.529 0.376 0.561 0.498 
0.388 0.333 0.525 0.498 
0.557 0.541 0.847 1.0 
0.776 0.416 0.831 0.831 
0.612 0.416 0.812 0.875 
0.165 0.208 0.592 0.667 
0.667 0.208 0.812 0.71 
0.612 0.502 0.694 0.792 
0.694 0.416 0.761 0.831 
0.416 0.333 0.694 0.957 
0.612 0.416 0.761 0.71 
0.945 0.251 1.0 0.918 
0.722 0.502 0.796 0.918 
0.945 0.333 0.965 0.792 
0.667 0.541 0.796 0.831 
0.529 0.333 0.643 0.71 
0.584 0.333 0.78 0.831 
0.863 0.333 0.863 0.749 
0.584 0.333 0.78 0.875 
0.498 0.251 0.78 0.541 
0.557 0.584 0.78 0.957 
0.471 0.416 0.643 0.71 
0.667 0.459 0.78 0.957 
0.416 0.29 0.694 0.749 
0.667 0.541 0.796 1.0 
0.557 0.208 0.678 0.749 
0.529 0.584 0.745 0.918 
0.416 0.29 0.694 0.749 
0.557 0.376 0.78 0.71 
0.918 0.416 0.949 0.831 
0.835 0.376 0.898 0.71 
0.804 0.667 0.863 1.0 
0.584 0.29 0.729 0.749 
0.388 0.208 0.678 0.792 
0.584 0.502 0.729 0.918 
0.945 0.749 0.965 0.875 
0.471 0.082 0.678 0.584 
0.361 0.333 0.663 0.792 
0.557 0.29 0.663 0.71 
0.804 0.502 0.847 0.71 
0.498 0.416 0.51 0.71 
0.804 0.416 0.812 0.624 
1.0 0.749 0.914 0.792 
0.557 0.333 0.694 0.584 
0.945 0.416 0.863 0.918 
0.584 0.459 0.761 0.71 
0.722 0.459 0.745 0.831 
0.722 0.459 0.694 0.918 
0.694 0.502 0.831 0.918 
0.667 0.416 0.714 0.918 
0.612 0.416 0.714 0.792 
0.443 0.416 0.694 0.71 
Teaching Patterns
1.0 0.0 0.0 
1.0 0.0 0.0 
1.0 0.0 0.0 
1.0 0.0 0.0 
1.0 0.0 0.0 
1.0 0.0 0.0 
1.0 0.0 0.0 
1.0 0.0 0.0 
1.0 0.0 0.0 
1.0 0.0 0.0 
1.0 0.0 0.0 
1.0 0.0 0.0 
1.0 0.0 0.0 
1.0 0.0 0.0 
1.0 0.0 0.0 
1.0 0.0 0.0 
1.0 0.0 0.0 
1.0 0.0 0.0 
1.0 0.0 0.0 
1.0 0.0 0.0 
1.0 0.0 0.0 
1.0 0.0 0.0 
1.0 0.0 0.0 
1.0 0.0 0.0 
1.0 0.0 0.0 
1.0 0.0 0.0 
1.0 0.0 0.0 
1.0 0.0 0.0 
1.0 0.0 0.0 
1.0 0.0 0.0 
1.0 0.0 0.0 
1.0 0.0 0.0 
1.0 0.0 0.0 
1.0 0.0 0.0 
1.0 0.0 0.0 
1.0 0.0 0.0 
1.0 0.0 0.0 
1.0 0.0 0.0 
1.0 0.0 0.0 
1.0 0.0 0.0 
1.0 0.0 0.0 
1.0 0.0 0.0 
1.0 0.0 0.0 
1.0 0.0 0.0 
1.0 0.0 0.0 
1.0 0.0 0.0 
1.0 0.0 0.0 
1.0 0.0 0.0 
1.0 0.0 0.0 
1.0 0.0 0.0 
0.0 1.0 0.0 
0.0 1.0 0.0 
0.0 1.0 0.0 
0.0 1.0 0.0 
0.0 1.0 0.0 
0.0 1.0 0.0 
0.0 1.0 0.0 
0.0 1.0 0.0 
0.0 1.0 0.0 
0.0 1.0 0.0 
0.0 1.0 0.0 
0.0 1.0 0.0 
0.0 1.0 0.0 
0.0 1.0 0.0 
0.0 1.0 0.0 
0.0 1.0 0.0 
0.0 1.0 0.0 
0.0 1.0 0.0 
0.0 1.0 0.0 
0.0 1.0 0.0 
0.0 1.0 0.0 
0.0 1.0 0.0 
0.0 1.0 0.0 
0.0 1.0 0.0 
0.0 1.0 0.0 
0.0 1.0 0.0 
0.0 1.0 0.0 
0.0 1.0 0.0 
0.0 1.0 0.0 
0.0 1.0 0.0 
0.0 1.0 0.0 
0.0 1.0 0.0 
0.0 1.0 0.0 
0.0 1.0 0.0 
0.0 1.0 0.0 
0.0 1.0 0.0 
0.0 1.0 0.0 
0.0 1.0 0.0 
0.0 1.0 0.0 
0.0 1.0 0.0 
0.0 1.0 0.0 
0.0 1.0 0.0 
0.0 1.0 0.0 
0.0 1.0 0.0 
0.0 1.0 0.0 
0.0 1.0 0.0 
0.0 1.0 0.0 
0.0 1.0 0.0 
0.0 1.0 0.0 
0.0 1.0 0.0 
0.0 0.0 1.0 
0.0 0.0 1.0 
0.0 0.0 1.0 
0.0 0.0 1.0 
0.0 0.0 1.0 
0.0 0.0 1.0 
0.0 0.0 1.0 
0.0 0.0 1.0 
0.0 0.0 1.0 
0.0 0.0 1.0 
0.0 0.0 1.0 
0.0 0.0 1.0 
0.0 0.0 1.0 
0.0 0.0 1.0 
0.0 0.0 1.0 
0.0 0.0 1.0 
0.0 0.0 1.0 
0.0 0.0 1.0 
0.0 0.0 1.0 
0.0 0.0 1.0 
0.0 0.0 1.0 
0.0 0.0 1.0 
0.0 0.0 1.0 
0.0 0.0 1.0 
0.0 0.0 1.0 
0.0 0.0 1.0 
0.0 0.0 1.0 
0.0 0.0 1.0 
0.0 0.0 1.0 
0.0 0.0 1.0 
0.0 0.0 1.0 
0.0 0.0 1.0 
0.0 0.0 1.0 
0.0 0.0 1.0 
0.0 0.0 1.0 
0.0 0.0 1.0 
0.0 0.0 1.0 
0.0 0.0 1.0 
0.0 0.0 1.0 
0.0 0.0 1.0 
0.0 0.0 1.0 
0.0 0.0 1.0 
0.0 0.0 1.0 
0.0 0.0 1.0 
0.0 0.0 1.0 
0.0 0.0 1.0 
0.0 0.0 1.0 
0.0 0.0 1.0 
0.0 0.0 1.0 
0.0 0.0 1.0 
Learning : 0.949999988079071
Momentum : 0.9
Epoch: 100, Error: 0.025555922416113534
Epoch: 200, Error: 0.027348662990443633
Epoch: 300, Error: 0.013408362469082252
Epoch: 400, Error: 0.012314251146755259
Epoch: 500, Error: 0.011911199497312158
Epoch: 600, Error: 0.011743022319262
Epoch: 700, Error: 0.01178922805886132
Epoch: 800, Error: 0.01324885138660921
Epoch: 900, Error: 0.013452990162104652
Epoch: 1000, Error: 0.012270053868476294
Epoch: 1100, Error: 0.012291271648052458
Epoch: 1200, Error: 0.011763663955863512
Epoch: 1300, Error: 0.012354717316982036
Epoch: 1400, Error: 0.011602985489442687
Epoch: 1500, Error: 0.012113414955072874
Epoch: 1600, Error: 0.011699758784425801
Epoch: 1700, Error: 0.015722061421681758
Epoch: 1800, Error: 0.011748302950255703
Epoch: 1900, Error: 0.012016381926180082
Epoch: 2000, Error: 0.012562552815214543
Epoch: 2100, Error: 0.016029910234830674
Epoch: 2200, Error: 0.011747388377510942
Epoch: 2300, Error: 0.011659079746931755
Epoch: 2400, Error: 0.011202590264824073
Epoch: 2500, Error: 0.014615893911980628
Epoch: 2600, Error: 0.01175783227515232
Epoch: 2700, Error: 0.011315499777441741
Epoch: 2800, Error: 0.011481975775636834
Epoch: 2900, Error: 0.0109143584625491
Epoch: 3000, Error: 0.01729588797711301
Epoch: 3100, Error: 0.012069060511538231
Epoch: 3200, Error: 0.01148240953334388
Epoch: 3300, Error: 0.010911634133489358
Epoch: 3400, Error: 0.012388276529042829
Epoch: 3500, Error: 0.012008245901702387
Epoch: 3600, Error: 0.011572226627330612
Epoch: 3700, Error: 0.011858638650827135
Epoch: 3800, Error: 0.011748616989210396
Epoch: 3900, Error: 0.01121855509687627
Epoch: 4000, Error: 0.01111564863640405
Epoch: 4100, Error: 0.010783625374622637
Epoch: 4200, Error: 0.010676250991162683
Epoch: 4300, Error: 0.011600347614011538
Epoch: 4400, Error: 0.010877416632607086
Epoch: 4500, Error: 0.011793337735350785
Epoch: 4600, Error: 0.010272357222563363
Epoch: 4700, Error: 0.011574813750258893
Epoch: 4800, Error: 0.010178971942701101
Epoch: 4900, Error: 0.010676465669885173
Epoch: 5000, Error: 0.013338167309210912
Epoch: 5100, Error: 0.010209507990234913
Epoch: 5200, Error: 0.010234528692194557
Epoch: 5300, Error: 0.009970929370640993
Epoch: 5400, Error: 0.01075934152388806
Epoch: 5500, Error: 0.009758713335297393
Epoch: 5600, Error: 0.010001883364494082
Epoch: 5700, Error: 0.01054764762071927
Epoch: 5800, Error: 0.009110370611486264
Epoch: 5900, Error: 0.010169197824273425
Epoch: 6000, Error: 0.008715891892160706
Epoch: 6100, Error: 0.01023511627038661
Epoch: 6200, Error: 0.008454485188254956
Epoch: 6300, Error: 0.008071622954668695
Epoch: 6400, Error: 0.008186512216246769
Epoch: 6500, Error: 0.009563687455216751
Epoch: 6600, Error: 0.006644869375637301
Epoch: 6700, Error: 0.007299331035456905
Epoch: 6800, Error: 0.006163967909099712
Epoch: 6900, Error: 0.006155629740373434
Epoch: 7000, Error: 0.006059340908008342
Epoch: 7100, Error: 0.005863274379469756
Epoch: 7200, Error: 0.0058069396378018015
Epoch: 7300, Error: 0.00576772133580766
Epoch: 7400, Error: 0.005428750675776434
Epoch: 7500, Error: 0.005312389939263039
Epoch: 7600, Error: 0.0053871354071237405
Epoch: 7700, Error: 0.005359399780497328
Epoch: 7800, Error: 0.005206731852356108
Epoch: 7900, Error: 0.005238197777174847
Epoch: 8000, Error: 0.0049584379827808155
Epoch: 8100, Error: 0.005037199337705518
Epoch: 8200, Error: 0.004930151378627774
Epoch: 8300, Error: 0.004873242283867975
Epoch: 8400, Error: 0.005217198925383982
Epoch: 8500, Error: 0.004962802703841612
Epoch: 8600, Error: 0.004601390681210142
Epoch: 8700, Error: 0.004504012750377276
Epoch: 8800, Error: 0.004360828064086861
Epoch: 8900, Error: 0.004503400993364127
Epoch: 9000, Error: 0.004300573924075507
Epoch: 9100, Error: 0.004180642781285974
Epoch: 9200, Error: 0.005280457121123863
Epoch: 9300, Error: 0.005555848034629271
Epoch: 9400, Error: 0.003727529561680147
Epoch: 9500, Error: 0.0037823953017168915
Epoch: 9600, Error: 0.0038611380578660037
Epoch: 9700, Error: 0.0050188925323647465
Epoch: 9800, Error: 0.004931040400849893
Epoch: 9900, Error: 0.0058981833647630735
Epoch: 10000, Error: 0.00310483862595013
Epoch: 10100, Error: 0.0050679080457349006
Epoch: 10200, Error: 0.004471592632978101
Epoch: 10300, Error: 0.006321413424060776
Epoch: 10400, Error: 0.0032680892231991476
Epoch: 10500, Error: 0.0023652104151788184
Epoch: 10600, Error: 0.001962932927025273
Epoch: 10700, Error: 0.004034057637223124
Epoch: 10800, Error: 0.0013165147045093328
Epoch: 10900, Error: 0.001216845536666619
Epoch: 11000, Error: 0.0012161548517636044
Epoch: 11100, Error: 0.0010875173978872755
Epoch: 11200, Error: 0.0011539791539244653
Epoch: 11300, Error: 0.001079126747445371
Epoch: 11400, Error: 0.0010454570730675321
Epoch: 11500, Error: 0.0010247839025075327
Epoch: 11600, Error: 0.0010189839062064656
Epoch: 11700, Error: 0.0010000600023579596
Epoch: 11800, Error: 0.001041564382837575
Epoch: 11900, Error: 0.001051936500305225
Epoch: 12000, Error: 0.0010699696406661445
Epoch: 12100, Error: 0.001032936587767459
Epoch: 12200, Error: 0.0010520841861957465
Epoch: 12300, Error: 0.0010489360662668146
Finished
