Input Patterns
0.224 0.624 0.067 0.043 
0.11 0.502 0.051 0.043 
0.196 0.667 0.067 0.043 
0.055 0.584 0.067 0.082 
0.027 0.376 0.067 0.043 
0.306 0.71 0.086 0.043 
0.137 0.416 0.067 0.0 
0.416 0.831 0.035 0.043 
0.306 0.792 0.051 0.125 
0.388 0.749 0.118 0.082 
0.306 0.584 0.118 0.043 
0.082 0.667 0.0 0.043 
0.137 0.584 0.153 0.043 
0.196 0.584 0.102 0.125 
0.251 0.584 0.067 0.043 
0.137 0.459 0.102 0.043 
0.251 0.875 0.086 0.0 
0.165 0.459 0.086 0.043 
0.333 0.624 0.051 0.043 
0.027 0.416 0.051 0.043 
0.196 0.624 0.051 0.082 
0.027 0.502 0.051 0.043 
0.224 0.749 0.153 0.125 
0.224 0.749 0.102 0.043 
0.278 0.71 0.086 0.043 
0.165 0.416 0.067 0.043 
0.082 0.459 0.086 0.043 
0.306 0.792 0.118 0.125 
0.196 0.584 0.086 0.043 
0.165 0.459 0.086 0.0 
0.137 0.584 0.102 0.043 
0.0 0.416 0.016 0.0 
0.388 1.0 0.086 0.125 
0.224 0.624 0.067 0.082 
0.224 0.749 0.086 0.082 
0.224 0.71 0.086 0.125 
0.224 0.541 0.118 0.165 
0.196 0.416 0.102 0.043 
0.251 0.624 0.086 0.043 
0.11 0.502 0.102 0.043 
0.306 0.584 0.086 0.125 
0.333 0.918 0.067 0.043 
0.196 0.502 0.035 0.043 
0.165 0.667 0.067 0.0 
0.224 0.584 0.086 0.043 
0.055 0.125 0.051 0.082 
0.196 0.624 0.102 0.208 
0.137 0.416 0.067 0.082 
0.082 0.502 0.067 0.043 
0.196 0.541 0.067 0.043 
0.749 0.502 0.627 0.541 
0.722 0.459 0.663 0.584 
0.612 0.333 0.612 0.584 
0.557 0.541 0.627 0.624 
0.639 0.376 0.612 0.498 
0.196 0.0 0.424 0.376 
0.471 0.082 0.51 0.376 
0.361 0.376 0.439 0.498 
0.361 0.416 0.592 0.584 
0.529 0.082 0.592 0.584 
0.443 0.502 0.643 0.459 
0.557 0.208 0.663 0.584 
0.584 0.376 0.561 0.498 
0.694 0.333 0.643 0.541 
0.471 0.376 0.592 0.584 
0.333 0.169 0.475 0.416 
0.416 0.29 0.49 0.459 
0.306 0.416 0.592 0.584 
0.667 0.459 0.627 0.584 
0.361 0.416 0.525 0.498 
0.333 0.251 0.576 0.459 
0.416 0.251 0.51 0.459 
0.361 0.29 0.541 0.498 
0.388 0.376 0.541 0.498 
0.224 0.208 0.337 0.416 
0.584 0.502 0.592 0.584 
0.333 0.125 0.51 0.498 
0.388 0.333 0.592 0.498 
0.165 0.169 0.388 0.376 
0.251 0.29 0.49 0.541 
0.443 0.416 0.541 0.584 
0.498 0.376 0.627 0.541 
0.667 0.459 0.576 0.541 
0.416 0.29 0.525 0.376 
0.361 0.208 0.49 0.416 
0.498 0.333 0.51 0.498 
0.498 0.333 0.627 0.459 
0.639 0.416 0.576 0.541 
0.667 0.416 0.678 0.667 
0.388 0.251 0.424 0.376 
0.333 0.169 0.459 0.376 
0.471 0.29 0.694 0.624 
0.471 0.584 0.592 0.624 
0.557 0.125 0.576 0.498 
0.333 0.208 0.51 0.498 
0.498 0.416 0.612 0.541 
0.196 0.125 0.388 0.376 
0.388 0.416 0.541 0.459 
0.529 0.376 0.561 0.498 
0.388 0.333 0.525 0.498 
0.557 0.541 0.847 1.0 
0.776 0.416 0.831 0.831 
0.612 0.416 0.812 0.875 
0.165 0.208 0.592 0.667 
0.667 0.208 0.812 0.71 
0.612 0.502 0.694 0.792 
0.694 0.416 0.761 0.831 
0.416 0.333 0.694 0.957 
0.612 0.416 0.761 0.71 
0.945 0.251 1.0 0.918 
0.722 0.502 0.796 0.918 
0.945 0.333 0.965 0.792 
0.667 0.541 0.796 0.831 
0.529 0.333 0.643 0.71 
0.584 0.333 0.78 0.831 
0.863 0.333 0.863 0.749 
0.584 0.333 0.78 0.875 
0.498 0.251 0.78 0.541 
0.557 0.584 0.78 0.957 
0.471 0.416 0.643 0.71 
0.667 0.459 0.78 0.957 
0.416 0.29 0.694 0.749 
0.667 0.541 0.796 1.0 
0.557 0.208 0.678 0.749 
0.529 0.584 0.745 0.918 
0.416 0.29 0.694 0.749 
0.557 0.376 0.78 0.71 
0.918 0.416 0.949 0.831 
0.835 0.376 0.898 0.71 
0.804 0.667 0.863 1.0 
0.584 0.29 0.729 0.749 
0.388 0.208 0.678 0.792 
0.584 0.502 0.729 0.918 
0.945 0.749 0.965 0.875 
0.471 0.082 0.678 0.584 
0.361 0.333 0.663 0.792 
0.557 0.29 0.663 0.71 
0.804 0.502 0.847 0.71 
0.498 0.416 0.51 0.71 
0.804 0.416 0.812 0.624 
1.0 0.749 0.914 0.792 
0.557 0.333 0.694 0.584 
0.945 0.416 0.863 0.918 
0.584 0.459 0.761 0.71 
0.722 0.459 0.745 0.831 
0.722 0.459 0.694 0.918 
0.694 0.502 0.831 0.918 
0.667 0.416 0.714 0.918 
0.612 0.416 0.714 0.792 
0.443 0.416 0.694 0.71 
Teaching Patterns
1.0 0.0 0.0 
1.0 0.0 0.0 
1.0 0.0 0.0 
1.0 0.0 0.0 
1.0 0.0 0.0 
1.0 0.0 0.0 
1.0 0.0 0.0 
1.0 0.0 0.0 
1.0 0.0 0.0 
1.0 0.0 0.0 
1.0 0.0 0.0 
1.0 0.0 0.0 
1.0 0.0 0.0 
1.0 0.0 0.0 
1.0 0.0 0.0 
1.0 0.0 0.0 
1.0 0.0 0.0 
1.0 0.0 0.0 
1.0 0.0 0.0 
1.0 0.0 0.0 
1.0 0.0 0.0 
1.0 0.0 0.0 
1.0 0.0 0.0 
1.0 0.0 0.0 
1.0 0.0 0.0 
1.0 0.0 0.0 
1.0 0.0 0.0 
1.0 0.0 0.0 
1.0 0.0 0.0 
1.0 0.0 0.0 
1.0 0.0 0.0 
1.0 0.0 0.0 
1.0 0.0 0.0 
1.0 0.0 0.0 
1.0 0.0 0.0 
1.0 0.0 0.0 
1.0 0.0 0.0 
1.0 0.0 0.0 
1.0 0.0 0.0 
1.0 0.0 0.0 
1.0 0.0 0.0 
1.0 0.0 0.0 
1.0 0.0 0.0 
1.0 0.0 0.0 
1.0 0.0 0.0 
1.0 0.0 0.0 
1.0 0.0 0.0 
1.0 0.0 0.0 
1.0 0.0 0.0 
1.0 0.0 0.0 
0.0 1.0 0.0 
0.0 1.0 0.0 
0.0 1.0 0.0 
0.0 1.0 0.0 
0.0 1.0 0.0 
0.0 1.0 0.0 
0.0 1.0 0.0 
0.0 1.0 0.0 
0.0 1.0 0.0 
0.0 1.0 0.0 
0.0 1.0 0.0 
0.0 1.0 0.0 
0.0 1.0 0.0 
0.0 1.0 0.0 
0.0 1.0 0.0 
0.0 1.0 0.0 
0.0 1.0 0.0 
0.0 1.0 0.0 
0.0 1.0 0.0 
0.0 1.0 0.0 
0.0 1.0 0.0 
0.0 1.0 0.0 
0.0 1.0 0.0 
0.0 1.0 0.0 
0.0 1.0 0.0 
0.0 1.0 0.0 
0.0 1.0 0.0 
0.0 1.0 0.0 
0.0 1.0 0.0 
0.0 1.0 0.0 
0.0 1.0 0.0 
0.0 1.0 0.0 
0.0 1.0 0.0 
0.0 1.0 0.0 
0.0 1.0 0.0 
0.0 1.0 0.0 
0.0 1.0 0.0 
0.0 1.0 0.0 
0.0 1.0 0.0 
0.0 1.0 0.0 
0.0 1.0 0.0 
0.0 1.0 0.0 
0.0 1.0 0.0 
0.0 1.0 0.0 
0.0 1.0 0.0 
0.0 1.0 0.0 
0.0 1.0 0.0 
0.0 1.0 0.0 
0.0 1.0 0.0 
0.0 1.0 0.0 
0.0 0.0 1.0 
0.0 0.0 1.0 
0.0 0.0 1.0 
0.0 0.0 1.0 
0.0 0.0 1.0 
0.0 0.0 1.0 
0.0 0.0 1.0 
0.0 0.0 1.0 
0.0 0.0 1.0 
0.0 0.0 1.0 
0.0 0.0 1.0 
0.0 0.0 1.0 
0.0 0.0 1.0 
0.0 0.0 1.0 
0.0 0.0 1.0 
0.0 0.0 1.0 
0.0 0.0 1.0 
0.0 0.0 1.0 
0.0 0.0 1.0 
0.0 0.0 1.0 
0.0 0.0 1.0 
0.0 0.0 1.0 
0.0 0.0 1.0 
0.0 0.0 1.0 
0.0 0.0 1.0 
0.0 0.0 1.0 
0.0 0.0 1.0 
0.0 0.0 1.0 
0.0 0.0 1.0 
0.0 0.0 1.0 
0.0 0.0 1.0 
0.0 0.0 1.0 
0.0 0.0 1.0 
0.0 0.0 1.0 
0.0 0.0 1.0 
0.0 0.0 1.0 
0.0 0.0 1.0 
0.0 0.0 1.0 
0.0 0.0 1.0 
0.0 0.0 1.0 
0.0 0.0 1.0 
0.0 0.0 1.0 
0.0 0.0 1.0 
0.0 0.0 1.0 
0.0 0.0 1.0 
0.0 0.0 1.0 
0.0 0.0 1.0 
0.0 0.0 1.0 
0.0 0.0 1.0 
0.0 0.0 1.0 
Learning : 0.949999988079071
Momentum : 0.9
Epoch: 100, Error: 0.013003047246112025
Epoch: 200, Error: 0.01220578020850928
Epoch: 300, Error: 0.012251062020906669
Epoch: 400, Error: 0.013434179182051285
Epoch: 500, Error: 0.014863392489241537
Epoch: 600, Error: 0.01188962783580445
Epoch: 700, Error: 0.013186144931074163
Epoch: 800, Error: 0.012245370745910306
Epoch: 900, Error: 0.01198519019611491
Epoch: 1000, Error: 0.0120907802203378
Epoch: 1100, Error: 0.012187504434326538
Epoch: 1200, Error: 0.011587159993305373
Epoch: 1300, Error: 0.011734055985159069
Epoch: 1400, Error: 0.013838999073226804
Epoch: 1500, Error: 0.01186765569302217
Epoch: 1600, Error: 0.01254474704428697
Epoch: 1700, Error: 0.011178244181919861
Epoch: 1800, Error: 0.011771583156689538
Epoch: 1900, Error: 0.011211533106612324
Epoch: 2000, Error: 0.01106861735924535
Epoch: 2100, Error: 0.011204524955930512
Epoch: 2200, Error: 0.010927085810619068
Epoch: 2300, Error: 0.011541942323470528
Epoch: 2400, Error: 0.010998026991274643
Epoch: 2500, Error: 0.010992266954203519
Epoch: 2600, Error: 0.011282679588596382
Epoch: 2700, Error: 0.011682862479851258
Epoch: 2800, Error: 0.01096643920277026
Epoch: 2900, Error: 0.010883748783228835
Epoch: 3000, Error: 0.010547402557850302
Epoch: 3100, Error: 0.020770694556293524
Epoch: 3200, Error: 0.010955790311086448
Epoch: 3300, Error: 0.010864618733904135
Epoch: 3400, Error: 0.010338796394744228
Epoch: 3500, Error: 0.010679375560647951
Epoch: 3600, Error: 0.010567344147230364
Epoch: 3700, Error: 0.010145162109479015
Epoch: 3800, Error: 0.010324658742525748
Epoch: 3900, Error: 0.011963025415907906
Epoch: 4000, Error: 0.01021075159525078
Epoch: 4100, Error: 0.010378260549141188
Epoch: 4200, Error: 0.010227283965382344
Epoch: 4300, Error: 0.014660743020917352
Epoch: 4400, Error: 0.010929140428689213
Epoch: 4500, Error: 0.010341665587884252
Epoch: 4600, Error: 0.01028579277797732
Epoch: 4700, Error: 0.010368572701248214
Epoch: 4800, Error: 0.010195360874878398
Epoch: 4900, Error: 0.009880265574932337
Epoch: 5000, Error: 0.01069028975690103
Epoch: 5100, Error: 0.010255674218482756
Epoch: 5200, Error: 0.009779584728093444
Epoch: 5300, Error: 0.009939816049388187
Epoch: 5400, Error: 0.010677866544061998
Epoch: 5500, Error: 0.009742199994368537
Epoch: 5600, Error: 0.009594228859246523
Epoch: 5700, Error: 0.011499999401438601
Epoch: 5800, Error: 0.009903617396570061
Epoch: 5900, Error: 0.00983028323616773
Epoch: 6000, Error: 0.011050779448140407
Epoch: 6100, Error: 0.009878106978536217
Epoch: 6200, Error: 0.009373933059844132
Epoch: 6300, Error: 0.0094130858939658
Epoch: 6400, Error: 0.009474156810309942
Epoch: 6500, Error: 0.009785844529906183
Epoch: 6600, Error: 0.009490866949286362
Epoch: 6700, Error: 0.00965355854913028
Epoch: 6800, Error: 0.009548138858920932
Epoch: 6900, Error: 0.009346393685594171
Epoch: 7000, Error: 0.009445044701999661
Epoch: 7100, Error: 0.010936313017323855
Epoch: 7200, Error: 0.009299010426704956
Epoch: 7300, Error: 0.009391623772472553
Epoch: 7400, Error: 0.009188179627547907
Epoch: 7500, Error: 0.009272489289658159
Epoch: 7600, Error: 0.009263362323171764
Epoch: 7700, Error: 0.009056578173510648
Epoch: 7800, Error: 0.00941389727546784
Epoch: 7900, Error: 0.009708551550729055
Epoch: 8000, Error: 0.009033821379075923
Epoch: 8100, Error: 0.008983283494796435
Epoch: 8200, Error: 0.008456606550172793
Epoch: 8300, Error: 0.008472039803832756
Epoch: 8400, Error: 0.008584830010681301
Epoch: 8500, Error: 0.008459429381151089
Epoch: 8600, Error: 0.007473942254661062
Epoch: 8700, Error: 0.007064869832365388
Epoch: 8800, Error: 0.006401418202437814
Epoch: 8900, Error: 0.006210494630099603
Epoch: 9000, Error: 0.005786157587470117
Epoch: 9100, Error: 0.005604821735669969
Epoch: 9200, Error: 0.005482687818485166
Epoch: 9300, Error: 0.0058408098167281155
Epoch: 9400, Error: 0.006269236107495306
Epoch: 9500, Error: 0.005169045151137544
Epoch: 9600, Error: 0.005005579452175103
Epoch: 9700, Error: 0.004876176583292143
Epoch: 9800, Error: 0.004788106733930462
Epoch: 9900, Error: 0.004822938639808699
Epoch: 10000, Error: 0.004812605972515517
Epoch: 10100, Error: 0.004441034146498184
Epoch: 10200, Error: 0.00436933107696483
Epoch: 10300, Error: 0.004086200292924981
Epoch: 10400, Error: 0.004141027703767769
Epoch: 10500, Error: 0.004249931453069666
Epoch: 10600, Error: 0.0035157079338188914
Epoch: 10700, Error: 0.0031123417705136423
Epoch: 10800, Error: 0.002914183979930552
Epoch: 10900, Error: 0.0026200810244841415
Epoch: 11000, Error: 0.004177614545807484
Epoch: 11100, Error: 0.003827765868227013
Epoch: 11200, Error: 0.001619135494335856
Epoch: 11300, Error: 0.002054897176303809
Epoch: 11400, Error: 7.190140692809784E-4
Epoch: 11500, Error: 7.083447626636762E-4
Epoch: 11600, Error: 4.7490399772229464E-4
Epoch: 11700, Error: 4.982839101988581E-4
Epoch: 11800, Error: 4.831930888804056E-4
Epoch: 11900, Error: 4.772284363274944E-4
Epoch: 12000, Error: 4.0639775061363756E-4
Epoch: 12100, Error: 4.7294287982772084E-4
Epoch: 12200, Error: 4.007629037525828E-4
Epoch: 12300, Error: 3.921542624652892E-4
Epoch: 12400, Error: 3.898536213352145E-4
Epoch: 12500, Error: 3.58605576413253E-4
Epoch: 12600, Error: 3.540321276963058E-4
Epoch: 12700, Error: 3.6692272305227294E-4
Epoch: 12800, Error: 3.4989058920888334E-4
Epoch: 12900, Error: 3.4154574372583223E-4
Epoch: 13000, Error: 3.390279653464584E-4
Finished
