Input Patterns
0.224 0.624 0.067 0.043 
0.11 0.502 0.051 0.043 
0.196 0.667 0.067 0.043 
0.055 0.584 0.067 0.082 
0.027 0.376 0.067 0.043 
0.306 0.71 0.086 0.043 
0.137 0.416 0.067 0.0 
0.416 0.831 0.035 0.043 
0.306 0.792 0.051 0.125 
0.388 0.749 0.118 0.082 
0.306 0.584 0.118 0.043 
0.082 0.667 0.0 0.043 
0.137 0.584 0.153 0.043 
0.196 0.584 0.102 0.125 
0.251 0.584 0.067 0.043 
0.137 0.459 0.102 0.043 
0.251 0.875 0.086 0.0 
0.165 0.459 0.086 0.043 
0.333 0.624 0.051 0.043 
0.027 0.416 0.051 0.043 
0.196 0.624 0.051 0.082 
0.027 0.502 0.051 0.043 
0.224 0.749 0.153 0.125 
0.224 0.749 0.102 0.043 
0.278 0.71 0.086 0.043 
0.165 0.416 0.067 0.043 
0.082 0.459 0.086 0.043 
0.306 0.792 0.118 0.125 
0.196 0.584 0.086 0.043 
0.165 0.459 0.086 0.0 
0.137 0.584 0.102 0.043 
0.0 0.416 0.016 0.0 
0.388 1.0 0.086 0.125 
0.224 0.624 0.067 0.082 
0.224 0.749 0.086 0.082 
0.224 0.71 0.086 0.125 
0.224 0.541 0.118 0.165 
0.196 0.416 0.102 0.043 
0.251 0.624 0.086 0.043 
0.11 0.502 0.102 0.043 
0.306 0.584 0.086 0.125 
0.333 0.918 0.067 0.043 
0.196 0.502 0.035 0.043 
0.165 0.667 0.067 0.0 
0.224 0.584 0.086 0.043 
0.055 0.125 0.051 0.082 
0.196 0.624 0.102 0.208 
0.137 0.416 0.067 0.082 
0.082 0.502 0.067 0.043 
0.196 0.541 0.067 0.043 
0.749 0.502 0.627 0.541 
0.722 0.459 0.663 0.584 
0.612 0.333 0.612 0.584 
0.557 0.541 0.627 0.624 
0.639 0.376 0.612 0.498 
0.196 0.0 0.424 0.376 
0.471 0.082 0.51 0.376 
0.361 0.376 0.439 0.498 
0.361 0.416 0.592 0.584 
0.529 0.082 0.592 0.584 
0.443 0.502 0.643 0.459 
0.557 0.208 0.663 0.584 
0.584 0.376 0.561 0.498 
0.694 0.333 0.643 0.541 
0.471 0.376 0.592 0.584 
0.333 0.169 0.475 0.416 
0.416 0.29 0.49 0.459 
0.306 0.416 0.592 0.584 
0.667 0.459 0.627 0.584 
0.361 0.416 0.525 0.498 
0.333 0.251 0.576 0.459 
0.416 0.251 0.51 0.459 
0.361 0.29 0.541 0.498 
0.388 0.376 0.541 0.498 
0.224 0.208 0.337 0.416 
0.584 0.502 0.592 0.584 
0.333 0.125 0.51 0.498 
0.388 0.333 0.592 0.498 
0.165 0.169 0.388 0.376 
0.251 0.29 0.49 0.541 
0.443 0.416 0.541 0.584 
0.498 0.376 0.627 0.541 
0.667 0.459 0.576 0.541 
0.416 0.29 0.525 0.376 
0.361 0.208 0.49 0.416 
0.498 0.333 0.51 0.498 
0.498 0.333 0.627 0.459 
0.639 0.416 0.576 0.541 
0.667 0.416 0.678 0.667 
0.388 0.251 0.424 0.376 
0.333 0.169 0.459 0.376 
0.471 0.29 0.694 0.624 
0.471 0.584 0.592 0.624 
0.557 0.125 0.576 0.498 
0.333 0.208 0.51 0.498 
0.498 0.416 0.612 0.541 
0.196 0.125 0.388 0.376 
0.388 0.416 0.541 0.459 
0.529 0.376 0.561 0.498 
0.388 0.333 0.525 0.498 
0.557 0.541 0.847 1.0 
0.776 0.416 0.831 0.831 
0.612 0.416 0.812 0.875 
0.165 0.208 0.592 0.667 
0.667 0.208 0.812 0.71 
0.612 0.502 0.694 0.792 
0.694 0.416 0.761 0.831 
0.416 0.333 0.694 0.957 
0.612 0.416 0.761 0.71 
0.945 0.251 1.0 0.918 
0.722 0.502 0.796 0.918 
0.945 0.333 0.965 0.792 
0.667 0.541 0.796 0.831 
0.529 0.333 0.643 0.71 
0.584 0.333 0.78 0.831 
0.863 0.333 0.863 0.749 
0.584 0.333 0.78 0.875 
0.498 0.251 0.78 0.541 
0.557 0.584 0.78 0.957 
0.471 0.416 0.643 0.71 
0.667 0.459 0.78 0.957 
0.416 0.29 0.694 0.749 
0.667 0.541 0.796 1.0 
0.557 0.208 0.678 0.749 
0.529 0.584 0.745 0.918 
0.416 0.29 0.694 0.749 
0.557 0.376 0.78 0.71 
0.918 0.416 0.949 0.831 
0.835 0.376 0.898 0.71 
0.804 0.667 0.863 1.0 
0.584 0.29 0.729 0.749 
0.388 0.208 0.678 0.792 
0.584 0.502 0.729 0.918 
0.945 0.749 0.965 0.875 
0.471 0.082 0.678 0.584 
0.361 0.333 0.663 0.792 
0.557 0.29 0.663 0.71 
0.804 0.502 0.847 0.71 
0.498 0.416 0.51 0.71 
0.804 0.416 0.812 0.624 
1.0 0.749 0.914 0.792 
0.557 0.333 0.694 0.584 
0.945 0.416 0.863 0.918 
0.584 0.459 0.761 0.71 
0.722 0.459 0.745 0.831 
0.722 0.459 0.694 0.918 
0.694 0.502 0.831 0.918 
0.667 0.416 0.714 0.918 
0.612 0.416 0.714 0.792 
0.443 0.416 0.694 0.71 
Teaching Patterns
1.0 0.0 0.0 
1.0 0.0 0.0 
1.0 0.0 0.0 
1.0 0.0 0.0 
1.0 0.0 0.0 
1.0 0.0 0.0 
1.0 0.0 0.0 
1.0 0.0 0.0 
1.0 0.0 0.0 
1.0 0.0 0.0 
1.0 0.0 0.0 
1.0 0.0 0.0 
1.0 0.0 0.0 
1.0 0.0 0.0 
1.0 0.0 0.0 
1.0 0.0 0.0 
1.0 0.0 0.0 
1.0 0.0 0.0 
1.0 0.0 0.0 
1.0 0.0 0.0 
1.0 0.0 0.0 
1.0 0.0 0.0 
1.0 0.0 0.0 
1.0 0.0 0.0 
1.0 0.0 0.0 
1.0 0.0 0.0 
1.0 0.0 0.0 
1.0 0.0 0.0 
1.0 0.0 0.0 
1.0 0.0 0.0 
1.0 0.0 0.0 
1.0 0.0 0.0 
1.0 0.0 0.0 
1.0 0.0 0.0 
1.0 0.0 0.0 
1.0 0.0 0.0 
1.0 0.0 0.0 
1.0 0.0 0.0 
1.0 0.0 0.0 
1.0 0.0 0.0 
1.0 0.0 0.0 
1.0 0.0 0.0 
1.0 0.0 0.0 
1.0 0.0 0.0 
1.0 0.0 0.0 
1.0 0.0 0.0 
1.0 0.0 0.0 
1.0 0.0 0.0 
1.0 0.0 0.0 
1.0 0.0 0.0 
0.0 1.0 0.0 
0.0 1.0 0.0 
0.0 1.0 0.0 
0.0 1.0 0.0 
0.0 1.0 0.0 
0.0 1.0 0.0 
0.0 1.0 0.0 
0.0 1.0 0.0 
0.0 1.0 0.0 
0.0 1.0 0.0 
0.0 1.0 0.0 
0.0 1.0 0.0 
0.0 1.0 0.0 
0.0 1.0 0.0 
0.0 1.0 0.0 
0.0 1.0 0.0 
0.0 1.0 0.0 
0.0 1.0 0.0 
0.0 1.0 0.0 
0.0 1.0 0.0 
0.0 1.0 0.0 
0.0 1.0 0.0 
0.0 1.0 0.0 
0.0 1.0 0.0 
0.0 1.0 0.0 
0.0 1.0 0.0 
0.0 1.0 0.0 
0.0 1.0 0.0 
0.0 1.0 0.0 
0.0 1.0 0.0 
0.0 1.0 0.0 
0.0 1.0 0.0 
0.0 1.0 0.0 
0.0 1.0 0.0 
0.0 1.0 0.0 
0.0 1.0 0.0 
0.0 1.0 0.0 
0.0 1.0 0.0 
0.0 1.0 0.0 
0.0 1.0 0.0 
0.0 1.0 0.0 
0.0 1.0 0.0 
0.0 1.0 0.0 
0.0 1.0 0.0 
0.0 1.0 0.0 
0.0 1.0 0.0 
0.0 1.0 0.0 
0.0 1.0 0.0 
0.0 1.0 0.0 
0.0 1.0 0.0 
0.0 0.0 1.0 
0.0 0.0 1.0 
0.0 0.0 1.0 
0.0 0.0 1.0 
0.0 0.0 1.0 
0.0 0.0 1.0 
0.0 0.0 1.0 
0.0 0.0 1.0 
0.0 0.0 1.0 
0.0 0.0 1.0 
0.0 0.0 1.0 
0.0 0.0 1.0 
0.0 0.0 1.0 
0.0 0.0 1.0 
0.0 0.0 1.0 
0.0 0.0 1.0 
0.0 0.0 1.0 
0.0 0.0 1.0 
0.0 0.0 1.0 
0.0 0.0 1.0 
0.0 0.0 1.0 
0.0 0.0 1.0 
0.0 0.0 1.0 
0.0 0.0 1.0 
0.0 0.0 1.0 
0.0 0.0 1.0 
0.0 0.0 1.0 
0.0 0.0 1.0 
0.0 0.0 1.0 
0.0 0.0 1.0 
0.0 0.0 1.0 
0.0 0.0 1.0 
0.0 0.0 1.0 
0.0 0.0 1.0 
0.0 0.0 1.0 
0.0 0.0 1.0 
0.0 0.0 1.0 
0.0 0.0 1.0 
0.0 0.0 1.0 
0.0 0.0 1.0 
0.0 0.0 1.0 
0.0 0.0 1.0 
0.0 0.0 1.0 
0.0 0.0 1.0 
0.0 0.0 1.0 
0.0 0.0 1.0 
0.0 0.0 1.0 
0.0 0.0 1.0 
0.0 0.0 1.0 
0.0 0.0 1.0 
Learning : 0.949999988079071
Momentum : 0.9
Epoch: 100, Error: 0.013526698338573897
Epoch: 200, Error: 0.012058683488170146
Epoch: 300, Error: 0.013201040325319073
Epoch: 400, Error: 0.018883687918854752
Epoch: 500, Error: 0.016032253768502855
Epoch: 600, Error: 0.011979143404022221
Epoch: 700, Error: 0.01393170838869491
Epoch: 800, Error: 0.012533225835124943
Epoch: 900, Error: 0.012036217105361244
Epoch: 1000, Error: 0.012309197894798162
Epoch: 1100, Error: 0.012865457219960047
Epoch: 1200, Error: 0.013286546483827693
Epoch: 1300, Error: 0.01197095188088832
Epoch: 1400, Error: 0.012930674004301953
Epoch: 1500, Error: 0.01314255686388695
Epoch: 1600, Error: 0.011875139426726543
Epoch: 1700, Error: 0.013134718121592361
Epoch: 1800, Error: 0.012082608139417738
Epoch: 1900, Error: 0.01169499363205862
Epoch: 2000, Error: 0.01161470165715589
Epoch: 2100, Error: 0.011517740532275467
Epoch: 2200, Error: 0.012806001787974045
Epoch: 2300, Error: 0.012094161977732614
Epoch: 2400, Error: 0.012508976550477561
Epoch: 2500, Error: 0.015068286110294397
Epoch: 2600, Error: 0.01177151830067808
Epoch: 2700, Error: 0.011310489005548402
Epoch: 2800, Error: 0.012607552618660811
Epoch: 2900, Error: 0.011484198555332184
Epoch: 3000, Error: 0.01145697476328537
Epoch: 3100, Error: 0.011719374091103303
Epoch: 3200, Error: 0.01154478996314187
Epoch: 3300, Error: 0.011180703784029532
Epoch: 3400, Error: 0.01193824754684663
Epoch: 3500, Error: 0.010827165048758285
Epoch: 3600, Error: 0.011080924130758512
Epoch: 3700, Error: 0.011201348908790426
Epoch: 3800, Error: 0.011700760084451542
Epoch: 3900, Error: 0.011167531393556727
Epoch: 4000, Error: 0.010806742442549158
Epoch: 4100, Error: 0.01082953428227235
Epoch: 4200, Error: 0.01058155881077218
Epoch: 4300, Error: 0.01074921881305078
Epoch: 4400, Error: 0.010914806421949632
Epoch: 4500, Error: 0.011187987848511096
Epoch: 4600, Error: 0.01148519026771493
Epoch: 4700, Error: 0.010797833034866214
Epoch: 4800, Error: 0.01347589140048114
Epoch: 4900, Error: 0.010726410122864247
Epoch: 5000, Error: 0.010964965934764802
Epoch: 5100, Error: 0.010764557391395469
Epoch: 5200, Error: 0.010609918365937948
Epoch: 5300, Error: 0.010803741844248762
Epoch: 5400, Error: 0.010522516996271476
Epoch: 5500, Error: 0.010602716004955425
Epoch: 5600, Error: 0.010407110514564808
Epoch: 5700, Error: 0.010209054164602601
Epoch: 5800, Error: 0.010070191936904838
Epoch: 5900, Error: 0.010557015255904863
Epoch: 6000, Error: 0.010694824042878491
Epoch: 6100, Error: 0.010263901342657823
Epoch: 6200, Error: 0.010288243174431501
Epoch: 6300, Error: 0.010120151921524653
Epoch: 6400, Error: 0.01062698038509148
Epoch: 6500, Error: 0.01027411313186051
Epoch: 6600, Error: 0.010289023109103786
Epoch: 6700, Error: 0.010068359143094265
Epoch: 6800, Error: 0.010237077190496298
Epoch: 6900, Error: 0.010422643274030537
Epoch: 7000, Error: 0.010130207339440976
Epoch: 7100, Error: 0.010164177099806097
Epoch: 7200, Error: 0.010176601552652313
Epoch: 7300, Error: 0.010085549560569845
Epoch: 7400, Error: 0.00995009116260013
Epoch: 7500, Error: 0.01006307047577949
Epoch: 7600, Error: 0.010671591313815808
Epoch: 7700, Error: 0.01034044926653074
Epoch: 7800, Error: 0.010520231347114772
Epoch: 7900, Error: 0.009995585603284349
Epoch: 8000, Error: 0.010126546885471984
Epoch: 8100, Error: 0.010237775155392826
Epoch: 8200, Error: 0.010031352688636001
Epoch: 8300, Error: 0.010130494015329509
Epoch: 8400, Error: 0.009894588955698263
Epoch: 8500, Error: 0.009872383772719203
Epoch: 8600, Error: 0.009969905275130832
Epoch: 8700, Error: 0.00994751577335178
Epoch: 8800, Error: 0.009449577336664943
Epoch: 8900, Error: 0.009267722985842606
Epoch: 9000, Error: 0.008902201991268512
Epoch: 9100, Error: 0.008884429480347652
Epoch: 9200, Error: 0.006941297590171546
Epoch: 9300, Error: 0.006183229379489682
Epoch: 9400, Error: 0.005943426585376104
Epoch: 9500, Error: 0.005684758953117455
Epoch: 9600, Error: 0.005693719034039027
Epoch: 9700, Error: 0.0060230973051505435
Epoch: 9800, Error: 0.005440682377735606
Epoch: 9900, Error: 0.0054486565974415715
Epoch: 10000, Error: 0.005624187728319326
Epoch: 10100, Error: 0.005189209894184379
Epoch: 10200, Error: 0.0052624057227992965
Epoch: 10300, Error: 0.005126608811431453
Epoch: 10400, Error: 0.005347140336060112
Epoch: 10500, Error: 0.005121925285355866
Epoch: 10600, Error: 0.005336269523116076
Epoch: 10700, Error: 0.005159610484627439
Epoch: 10800, Error: 0.00511892623542389
Epoch: 10900, Error: 0.005264371619594893
Epoch: 11000, Error: 0.005100547305462075
Epoch: 11100, Error: 0.0052933010601823195
Epoch: 11200, Error: 0.005270327858600441
Epoch: 11300, Error: 0.0052155489639285875
Epoch: 11400, Error: 0.005299401447219638
Epoch: 11500, Error: 0.005328971228083345
Epoch: 11600, Error: 0.005107024252792477
Epoch: 11700, Error: 0.005182531327257588
Epoch: 11800, Error: 0.004990766437919267
Epoch: 11900, Error: 0.004786065194272666
Epoch: 12000, Error: 0.004680803550327181
Epoch: 12100, Error: 0.004467925003803198
Epoch: 12200, Error: 0.00438663922936051
Epoch: 12300, Error: 0.004307992507510924
Epoch: 12400, Error: 0.0041387858524648815
Epoch: 12500, Error: 0.00428776538106987
Epoch: 12600, Error: 0.004222529978338682
Epoch: 12700, Error: 0.004453625276451639
Epoch: 12800, Error: 0.003975483755650841
Epoch: 12900, Error: 0.004275578280713208
Epoch: 13000, Error: 0.007406302763626692
Epoch: 13100, Error: 0.003988667841701646
Epoch: 13200, Error: 0.0036520121767960947
Epoch: 13300, Error: 0.004406355519378389
Epoch: 13400, Error: 0.0037794546763876024
Epoch: 13500, Error: 0.0030466507914130884
Epoch: 13600, Error: 0.005910093894044848
Epoch: 13700, Error: 0.005096289509899228
Epoch: 13800, Error: 0.0050861035036771935
Epoch: 13900, Error: 0.005072263761064812
Epoch: 14000, Error: 0.005069694548046187
Epoch: 14100, Error: 0.005068499413433035
Epoch: 14200, Error: 0.005067648637038788
Epoch: 14300, Error: 0.005067023764364736
Epoch: 14400, Error: 0.005066850376714907
Epoch: 14500, Error: 0.005066850376714907
Epoch: 14600, Error: 0.005066850376714907
Epoch: 14700, Error: 0.005066850376714907
Epoch: 14800, Error: 0.005066850376714907
Finished
