Input Patterns
0.224 0.624 0.067 0.043 
0.11 0.502 0.051 0.043 
0.196 0.667 0.067 0.043 
0.055 0.584 0.067 0.082 
0.027 0.376 0.067 0.043 
0.306 0.71 0.086 0.043 
0.137 0.416 0.067 0.0 
0.416 0.831 0.035 0.043 
0.306 0.792 0.051 0.125 
0.388 0.749 0.118 0.082 
0.306 0.584 0.118 0.043 
0.082 0.667 0.0 0.043 
0.137 0.584 0.153 0.043 
0.196 0.584 0.102 0.125 
0.251 0.584 0.067 0.043 
0.137 0.459 0.102 0.043 
0.251 0.875 0.086 0.0 
0.165 0.459 0.086 0.043 
0.333 0.624 0.051 0.043 
0.027 0.416 0.051 0.043 
0.196 0.624 0.051 0.082 
0.027 0.502 0.051 0.043 
0.224 0.749 0.153 0.125 
0.224 0.749 0.102 0.043 
0.278 0.71 0.086 0.043 
0.165 0.416 0.067 0.043 
0.082 0.459 0.086 0.043 
0.306 0.792 0.118 0.125 
0.196 0.584 0.086 0.043 
0.165 0.459 0.086 0.0 
0.137 0.584 0.102 0.043 
0.0 0.416 0.016 0.0 
0.388 1.0 0.086 0.125 
0.224 0.624 0.067 0.082 
0.224 0.749 0.086 0.082 
0.224 0.71 0.086 0.125 
0.224 0.541 0.118 0.165 
0.196 0.416 0.102 0.043 
0.251 0.624 0.086 0.043 
0.11 0.502 0.102 0.043 
0.306 0.584 0.086 0.125 
0.333 0.918 0.067 0.043 
0.196 0.502 0.035 0.043 
0.165 0.667 0.067 0.0 
0.224 0.584 0.086 0.043 
0.055 0.125 0.051 0.082 
0.196 0.624 0.102 0.208 
0.137 0.416 0.067 0.082 
0.082 0.502 0.067 0.043 
0.196 0.541 0.067 0.043 
0.749 0.502 0.627 0.541 
0.722 0.459 0.663 0.584 
0.612 0.333 0.612 0.584 
0.557 0.541 0.627 0.624 
0.639 0.376 0.612 0.498 
0.196 0.0 0.424 0.376 
0.471 0.082 0.51 0.376 
0.361 0.376 0.439 0.498 
0.361 0.416 0.592 0.584 
0.529 0.082 0.592 0.584 
0.443 0.502 0.643 0.459 
0.557 0.208 0.663 0.584 
0.584 0.376 0.561 0.498 
0.694 0.333 0.643 0.541 
0.471 0.376 0.592 0.584 
0.333 0.169 0.475 0.416 
0.416 0.29 0.49 0.459 
0.306 0.416 0.592 0.584 
0.667 0.459 0.627 0.584 
0.361 0.416 0.525 0.498 
0.333 0.251 0.576 0.459 
0.416 0.251 0.51 0.459 
0.361 0.29 0.541 0.498 
0.388 0.376 0.541 0.498 
0.224 0.208 0.337 0.416 
0.584 0.502 0.592 0.584 
0.333 0.125 0.51 0.498 
0.388 0.333 0.592 0.498 
0.165 0.169 0.388 0.376 
0.251 0.29 0.49 0.541 
0.443 0.416 0.541 0.584 
0.498 0.376 0.627 0.541 
0.667 0.459 0.576 0.541 
0.416 0.29 0.525 0.376 
0.361 0.208 0.49 0.416 
0.498 0.333 0.51 0.498 
0.498 0.333 0.627 0.459 
0.639 0.416 0.576 0.541 
0.667 0.416 0.678 0.667 
0.388 0.251 0.424 0.376 
0.333 0.169 0.459 0.376 
0.471 0.29 0.694 0.624 
0.471 0.584 0.592 0.624 
0.557 0.125 0.576 0.498 
0.333 0.208 0.51 0.498 
0.498 0.416 0.612 0.541 
0.196 0.125 0.388 0.376 
0.388 0.416 0.541 0.459 
0.529 0.376 0.561 0.498 
0.388 0.333 0.525 0.498 
0.557 0.541 0.847 1.0 
0.776 0.416 0.831 0.831 
0.612 0.416 0.812 0.875 
0.165 0.208 0.592 0.667 
0.667 0.208 0.812 0.71 
0.612 0.502 0.694 0.792 
0.694 0.416 0.761 0.831 
0.416 0.333 0.694 0.957 
0.612 0.416 0.761 0.71 
0.945 0.251 1.0 0.918 
0.722 0.502 0.796 0.918 
0.945 0.333 0.965 0.792 
0.667 0.541 0.796 0.831 
0.529 0.333 0.643 0.71 
0.584 0.333 0.78 0.831 
0.863 0.333 0.863 0.749 
0.584 0.333 0.78 0.875 
0.498 0.251 0.78 0.541 
0.557 0.584 0.78 0.957 
0.471 0.416 0.643 0.71 
0.667 0.459 0.78 0.957 
0.416 0.29 0.694 0.749 
0.667 0.541 0.796 1.0 
0.557 0.208 0.678 0.749 
0.529 0.584 0.745 0.918 
0.416 0.29 0.694 0.749 
0.557 0.376 0.78 0.71 
0.918 0.416 0.949 0.831 
0.835 0.376 0.898 0.71 
0.804 0.667 0.863 1.0 
0.584 0.29 0.729 0.749 
0.388 0.208 0.678 0.792 
0.584 0.502 0.729 0.918 
0.945 0.749 0.965 0.875 
0.471 0.082 0.678 0.584 
0.361 0.333 0.663 0.792 
0.557 0.29 0.663 0.71 
0.804 0.502 0.847 0.71 
0.498 0.416 0.51 0.71 
0.804 0.416 0.812 0.624 
1.0 0.749 0.914 0.792 
0.557 0.333 0.694 0.584 
0.945 0.416 0.863 0.918 
0.584 0.459 0.761 0.71 
0.722 0.459 0.745 0.831 
0.722 0.459 0.694 0.918 
0.694 0.502 0.831 0.918 
0.667 0.416 0.714 0.918 
0.612 0.416 0.714 0.792 
0.443 0.416 0.694 0.71 
Teaching Patterns
1.0 0.0 0.0 
1.0 0.0 0.0 
1.0 0.0 0.0 
1.0 0.0 0.0 
1.0 0.0 0.0 
1.0 0.0 0.0 
1.0 0.0 0.0 
1.0 0.0 0.0 
1.0 0.0 0.0 
1.0 0.0 0.0 
1.0 0.0 0.0 
1.0 0.0 0.0 
1.0 0.0 0.0 
1.0 0.0 0.0 
1.0 0.0 0.0 
1.0 0.0 0.0 
1.0 0.0 0.0 
1.0 0.0 0.0 
1.0 0.0 0.0 
1.0 0.0 0.0 
1.0 0.0 0.0 
1.0 0.0 0.0 
1.0 0.0 0.0 
1.0 0.0 0.0 
1.0 0.0 0.0 
1.0 0.0 0.0 
1.0 0.0 0.0 
1.0 0.0 0.0 
1.0 0.0 0.0 
1.0 0.0 0.0 
1.0 0.0 0.0 
1.0 0.0 0.0 
1.0 0.0 0.0 
1.0 0.0 0.0 
1.0 0.0 0.0 
1.0 0.0 0.0 
1.0 0.0 0.0 
1.0 0.0 0.0 
1.0 0.0 0.0 
1.0 0.0 0.0 
1.0 0.0 0.0 
1.0 0.0 0.0 
1.0 0.0 0.0 
1.0 0.0 0.0 
1.0 0.0 0.0 
1.0 0.0 0.0 
1.0 0.0 0.0 
1.0 0.0 0.0 
1.0 0.0 0.0 
1.0 0.0 0.0 
0.0 1.0 0.0 
0.0 1.0 0.0 
0.0 1.0 0.0 
0.0 1.0 0.0 
0.0 1.0 0.0 
0.0 1.0 0.0 
0.0 1.0 0.0 
0.0 1.0 0.0 
0.0 1.0 0.0 
0.0 1.0 0.0 
0.0 1.0 0.0 
0.0 1.0 0.0 
0.0 1.0 0.0 
0.0 1.0 0.0 
0.0 1.0 0.0 
0.0 1.0 0.0 
0.0 1.0 0.0 
0.0 1.0 0.0 
0.0 1.0 0.0 
0.0 1.0 0.0 
0.0 1.0 0.0 
0.0 1.0 0.0 
0.0 1.0 0.0 
0.0 1.0 0.0 
0.0 1.0 0.0 
0.0 1.0 0.0 
0.0 1.0 0.0 
0.0 1.0 0.0 
0.0 1.0 0.0 
0.0 1.0 0.0 
0.0 1.0 0.0 
0.0 1.0 0.0 
0.0 1.0 0.0 
0.0 1.0 0.0 
0.0 1.0 0.0 
0.0 1.0 0.0 
0.0 1.0 0.0 
0.0 1.0 0.0 
0.0 1.0 0.0 
0.0 1.0 0.0 
0.0 1.0 0.0 
0.0 1.0 0.0 
0.0 1.0 0.0 
0.0 1.0 0.0 
0.0 1.0 0.0 
0.0 1.0 0.0 
0.0 1.0 0.0 
0.0 1.0 0.0 
0.0 1.0 0.0 
0.0 1.0 0.0 
0.0 0.0 1.0 
0.0 0.0 1.0 
0.0 0.0 1.0 
0.0 0.0 1.0 
0.0 0.0 1.0 
0.0 0.0 1.0 
0.0 0.0 1.0 
0.0 0.0 1.0 
0.0 0.0 1.0 
0.0 0.0 1.0 
0.0 0.0 1.0 
0.0 0.0 1.0 
0.0 0.0 1.0 
0.0 0.0 1.0 
0.0 0.0 1.0 
0.0 0.0 1.0 
0.0 0.0 1.0 
0.0 0.0 1.0 
0.0 0.0 1.0 
0.0 0.0 1.0 
0.0 0.0 1.0 
0.0 0.0 1.0 
0.0 0.0 1.0 
0.0 0.0 1.0 
0.0 0.0 1.0 
0.0 0.0 1.0 
0.0 0.0 1.0 
0.0 0.0 1.0 
0.0 0.0 1.0 
0.0 0.0 1.0 
0.0 0.0 1.0 
0.0 0.0 1.0 
0.0 0.0 1.0 
0.0 0.0 1.0 
0.0 0.0 1.0 
0.0 0.0 1.0 
0.0 0.0 1.0 
0.0 0.0 1.0 
0.0 0.0 1.0 
0.0 0.0 1.0 
0.0 0.0 1.0 
0.0 0.0 1.0 
0.0 0.0 1.0 
0.0 0.0 1.0 
0.0 0.0 1.0 
0.0 0.0 1.0 
0.0 0.0 1.0 
0.0 0.0 1.0 
0.0 0.0 1.0 
0.0 0.0 1.0 
Learning : 0.05
Momentum : 0.800000011920929
Epoch: 100, Error: 0.027207347174648223
Epoch: 200, Error: 0.017511677716237604
Epoch: 300, Error: 0.015278252442135855
Epoch: 400, Error: 0.014216334486053587
Epoch: 500, Error: 0.013994512818964997
Epoch: 600, Error: 0.013142240122318955
Epoch: 700, Error: 0.012918090301067312
Epoch: 800, Error: 0.012663374742689018
Epoch: 900, Error: 0.012532676646369716
Epoch: 1000, Error: 0.012468011224639298
Epoch: 1100, Error: 0.012532473424824947
Epoch: 1200, Error: 0.012280011502462832
Epoch: 1300, Error: 0.012238763127132252
Epoch: 1400, Error: 0.012303317072005318
Epoch: 1500, Error: 0.012147663052825018
Epoch: 1600, Error: 0.01215432967040522
Epoch: 1700, Error: 0.012120622241509772
Epoch: 1800, Error: 0.012135366835385852
Epoch: 1900, Error: 0.012112739481034446
Epoch: 2000, Error: 0.012061291720697115
Epoch: 2100, Error: 0.012100820134347667
Epoch: 2200, Error: 0.012021357678076699
Epoch: 2300, Error: 0.012018822752516492
Epoch: 2400, Error: 0.012028683052996918
Epoch: 2500, Error: 0.011984961963924123
Epoch: 2600, Error: 0.012036369342953544
Epoch: 2700, Error: 0.011975181206043342
Epoch: 2800, Error: 0.01195374913359646
Epoch: 2900, Error: 0.012070688424090136
Epoch: 3000, Error: 0.011922481433512808
Epoch: 3100, Error: 0.011988293216300999
Epoch: 3200, Error: 0.011948035937363101
Epoch: 3300, Error: 0.011965379124727818
Epoch: 3400, Error: 0.012221024868778298
Epoch: 3500, Error: 0.011924400239170936
Epoch: 3600, Error: 0.012175926887312664
Epoch: 3700, Error: 0.01190334430863949
Epoch: 3800, Error: 0.011935390994629555
Epoch: 3900, Error: 0.011992001740790001
Epoch: 4000, Error: 0.01188109828285037
Epoch: 4100, Error: 0.012029493497681197
Epoch: 4200, Error: 0.011967766438831422
Epoch: 4300, Error: 0.0118917980912124
Epoch: 4400, Error: 0.011887233876769699
Epoch: 4500, Error: 0.011876180142586958
Epoch: 4600, Error: 0.011871691609646802
Epoch: 4700, Error: 0.011926417933166839
Epoch: 4800, Error: 0.011812948685209832
Epoch: 4900, Error: 0.011809923760315665
Epoch: 5000, Error: 0.011843561512727236
Epoch: 5100, Error: 0.011827692913127495
Epoch: 5200, Error: 0.011830787409373857
Epoch: 5300, Error: 0.011800048714343052
Epoch: 5400, Error: 0.011799248593753987
Epoch: 5500, Error: 0.011912927868140025
Epoch: 5600, Error: 0.011741063953854077
Epoch: 5700, Error: 0.011823309636951997
Epoch: 5800, Error: 0.011941536091378485
Epoch: 5900, Error: 0.011795960737263779
Epoch: 6000, Error: 0.011743516274614606
Epoch: 6100, Error: 0.011733442680229519
Epoch: 6200, Error: 0.011660781859456511
Epoch: 6300, Error: 0.011653893358448335
Epoch: 6400, Error: 0.011663913578655784
Epoch: 6500, Error: 0.011682997847467794
Epoch: 6600, Error: 0.01162253020934697
Epoch: 6700, Error: 0.011611216471416238
Epoch: 6800, Error: 0.011887767267695387
Epoch: 6900, Error: 0.01157980942737027
Epoch: 7000, Error: 0.011500437813712365
Epoch: 7100, Error: 0.011477151845245545
Epoch: 7200, Error: 0.011505109597138933
Epoch: 7300, Error: 0.011456373893335056
Epoch: 7400, Error: 0.011424872179143031
Epoch: 7500, Error: 0.011419721857713842
Epoch: 7600, Error: 0.011382548349134682
Epoch: 7700, Error: 0.01139830869234578
Epoch: 7800, Error: 0.011336187719540102
Epoch: 7900, Error: 0.01132555576278105
Epoch: 8000, Error: 0.011346702098292008
Epoch: 8100, Error: 0.011263550926191577
Epoch: 8200, Error: 0.011247114071132
Epoch: 8300, Error: 0.011191577186939252
Epoch: 8400, Error: 0.011173284241417189
Epoch: 8500, Error: 0.011114362429215034
Epoch: 8600, Error: 0.011181220186470192
Epoch: 8700, Error: 0.0111133792576101
Epoch: 8800, Error: 0.011024405935891346
Epoch: 8900, Error: 0.010998968238498429
Epoch: 9000, Error: 0.010963363771472905
Epoch: 9100, Error: 0.010973202937884091
Epoch: 9200, Error: 0.010898863912686787
Epoch: 9300, Error: 0.010913518517277333
Epoch: 9400, Error: 0.01089573864853952
Epoch: 9500, Error: 0.010820177066810547
Epoch: 9600, Error: 0.010749839286500544
Epoch: 9700, Error: 0.010741386436826667
Epoch: 9800, Error: 0.010663353433189185
Epoch: 9900, Error: 0.010627851214199437
Epoch: 10000, Error: 0.010686890499642596
Epoch: 10100, Error: 0.010508507692589803
Epoch: 10200, Error: 0.010798252737698803
Epoch: 10300, Error: 0.010403462079792286
Epoch: 10400, Error: 0.010338790391227204
Epoch: 10500, Error: 0.010283422720641347
Epoch: 10600, Error: 0.010210429479322627
Epoch: 10700, Error: 0.010161816434110125
Epoch: 10800, Error: 0.010087621236344236
Epoch: 10900, Error: 0.01002680432955322
Epoch: 11000, Error: 0.009940739573890417
Epoch: 11100, Error: 0.00990847231881329
Epoch: 11200, Error: 0.009782765343201664
Epoch: 11300, Error: 0.009788533661021394
Epoch: 11400, Error: 0.00960461600097487
Epoch: 11500, Error: 0.009526597317839688
Epoch: 11600, Error: 0.009417010931476804
Epoch: 11700, Error: 0.009282800762162686
Epoch: 11800, Error: 0.009192224189524579
Epoch: 11900, Error: 0.009059245107540335
Epoch: 12000, Error: 0.00890399146388828
Epoch: 12100, Error: 0.008859587329180863
Epoch: 12200, Error: 0.008698075693138248
Epoch: 12300, Error: 0.008539708397637636
Epoch: 12400, Error: 0.008383813586281456
Epoch: 12500, Error: 0.008254523009804289
Epoch: 12600, Error: 0.008135722971289358
Epoch: 12700, Error: 0.00803020745114571
Epoch: 12800, Error: 0.007875129817461596
Epoch: 12900, Error: 0.007732271821532286
Epoch: 13000, Error: 0.00765655062595572
Epoch: 13100, Error: 0.007502896705946163
Epoch: 13200, Error: 0.007389579579728431
Epoch: 13300, Error: 0.0072897913688815385
Epoch: 13400, Error: 0.007205172616648848
Epoch: 13500, Error: 0.007136719799677192
Epoch: 13600, Error: 0.007020525181305093
Epoch: 13700, Error: 0.006939880957653349
Epoch: 13800, Error: 0.006842932169289707
Epoch: 13900, Error: 0.0068106673431856425
Epoch: 14000, Error: 0.006689028895903842
Epoch: 14100, Error: 0.006636352155694209
Epoch: 14200, Error: 0.006578067303999192
Epoch: 14300, Error: 0.006508808713060646
Epoch: 14400, Error: 0.006490466714776755
Epoch: 14500, Error: 0.00640012113343747
Epoch: 14600, Error: 0.006333596240095619
Epoch: 14700, Error: 0.006289282069816347
Epoch: 14800, Error: 0.006313666971923073
Epoch: 14900, Error: 0.006186347093847142
Epoch: 15000, Error: 0.006148477124242216
Epoch: 15100, Error: 0.006104211701029347
Epoch: 15200, Error: 0.006079015922044385
Epoch: 15300, Error: 0.0060393326727677405
Epoch: 15400, Error: 0.006038345534646073
Epoch: 15500, Error: 0.005975126960531017
Epoch: 15600, Error: 0.005998494139349801
Epoch: 15700, Error: 0.00591593808106609
Epoch: 15800, Error: 0.005894164639332557
Epoch: 15900, Error: 0.00586490072629981
Epoch: 16000, Error: 0.005850649772246373
Epoch: 16100, Error: 0.005844064616322685
Epoch: 16200, Error: 0.005794062721979377
Epoch: 16300, Error: 0.005767452122240895
Epoch: 16400, Error: 0.0057500672967672984
Epoch: 16500, Error: 0.005721112933231697
Epoch: 16600, Error: 0.0057040443206285586
Epoch: 16700, Error: 0.005753940935881747
Epoch: 16800, Error: 0.005664709688875316
Epoch: 16900, Error: 0.005639224827498702
Epoch: 17000, Error: 0.005621151506270743
Epoch: 17100, Error: 0.005612655205138138
Epoch: 17200, Error: 0.005545150806749505
Epoch: 17300, Error: 0.005523981749896607
Epoch: 17400, Error: 0.005483762330187477
Epoch: 17500, Error: 0.005457476352011441
Epoch: 17600, Error: 0.005447000667414246
Epoch: 17700, Error: 0.005417487883113111
Epoch: 17800, Error: 0.005383929043427001
Epoch: 17900, Error: 0.0053569840043016575
Epoch: 18000, Error: 0.005329509480609629
Epoch: 18100, Error: 0.00530655402597782
Epoch: 18200, Error: 0.0053084163423472
Epoch: 18300, Error: 0.005263320311301326
Epoch: 18400, Error: 0.005235486991845914
Epoch: 18500, Error: 0.005261342075153328
Epoch: 18600, Error: 0.005217445070334563
Epoch: 18700, Error: 0.005185632215144046
Epoch: 18800, Error: 0.005156621202544691
Epoch: 18900, Error: 0.005133007730931119
Epoch: 19000, Error: 0.005098018248749599
Epoch: 19100, Error: 0.005077062647205507
Epoch: 19200, Error: 0.005065260939863172
Epoch: 19300, Error: 0.005030386742108646
Epoch: 19400, Error: 0.005032027962224897
Epoch: 19500, Error: 0.004977292859647833
Epoch: 19600, Error: 0.004963596311474226
Epoch: 19700, Error: 0.004946907507533812
Epoch: 19800, Error: 0.004930023405145192
Epoch: 19900, Error: 0.0048923629925211485
Epoch: 20000, Error: 0.004878382827073409
Epoch: 20100, Error: 0.004864775485858052
Epoch: 20200, Error: 0.004843689671170958
Epoch: 20300, Error: 0.004945271052441507
Epoch: 20400, Error: 0.0047838712155922015
Epoch: 20500, Error: 0.005182038021102265
Epoch: 20600, Error: 0.004802195131639751
Epoch: 20700, Error: 0.004724349407028098
Epoch: 20800, Error: 0.004698690399950871
Epoch: 20900, Error: 0.004675775589427363
Epoch: 21000, Error: 0.004625760253691652
Epoch: 21100, Error: 0.004637481058360767
Epoch: 21200, Error: 0.004582671561635856
Epoch: 21300, Error: 0.004554966507065259
Epoch: 21400, Error: 0.004536401209876649
Epoch: 21500, Error: 0.004516258205858922
Epoch: 21600, Error: 0.0045031652732563324
Epoch: 21700, Error: 0.0044946474027793325
Epoch: 21800, Error: 0.004448752352390947
Epoch: 21900, Error: 0.004427210117228734
Epoch: 22000, Error: 0.004412476462310232
Epoch: 22100, Error: 0.004377840346806234
Epoch: 22200, Error: 0.004352708701541953
Epoch: 22300, Error: 0.004354831303658545
Epoch: 22400, Error: 0.004341847708451957
Epoch: 22500, Error: 0.004291809514980838
Epoch: 22600, Error: 0.004275637730572403
Epoch: 22700, Error: 0.004309166352110897
Epoch: 22800, Error: 0.0042038281395391465
Epoch: 22900, Error: 0.004252374763271858
Epoch: 23000, Error: 0.0041736013974038476
Epoch: 23100, Error: 0.004151238256645768
Epoch: 23200, Error: 0.00414305630829023
Epoch: 23300, Error: 0.0041185830099179565
Epoch: 23400, Error: 0.0041140184859364375
Epoch: 23500, Error: 0.004062242006867145
Epoch: 23600, Error: 0.004060561166635625
Epoch: 23700, Error: 0.004030741241052808
Epoch: 23800, Error: 0.004014579322935871
Epoch: 23900, Error: 0.0039804703037241655
Epoch: 24000, Error: 0.003979249852501972
Epoch: 24100, Error: 0.003967638672125782
Epoch: 24200, Error: 0.003955697824112721
Epoch: 24300, Error: 0.003913792367137262
Epoch: 24400, Error: 0.003899906226891328
Epoch: 24500, Error: 0.003947402299313129
Epoch: 24600, Error: 0.0039267178074911665
Epoch: 24700, Error: 0.0038251135041142085
Epoch: 24800, Error: 0.0038017680886182604
Epoch: 24900, Error: 0.0038181322297291044
Epoch: 25000, Error: 0.0037762689916604145
Epoch: 25100, Error: 0.0037685823887718254
Epoch: 25200, Error: 0.00373753824363776
Epoch: 25300, Error: 0.003728865491312131
Epoch: 25400, Error: 0.0036845761240746604
Epoch: 25500, Error: 0.0036684777535974118
Epoch: 25600, Error: 0.003740247672175608
Epoch: 25700, Error: 0.0036291830440815837
Epoch: 25800, Error: 0.0036563463883264417
Epoch: 25900, Error: 0.003705854765641506
Epoch: 26000, Error: 0.0035595746211791856
Epoch: 26100, Error: 0.0036132741461548895
Epoch: 26200, Error: 0.0035317891481575696
Epoch: 26300, Error: 0.003499063470159146
Epoch: 26400, Error: 0.0035181786623843083
Epoch: 26500, Error: 0.0034983187760871766
Epoch: 26600, Error: 0.0034406831577413082
Epoch: 26700, Error: 0.0034827815630032477
Epoch: 26800, Error: 0.0033954316874703436
Epoch: 26900, Error: 0.00350896414047748
Epoch: 27000, Error: 0.003538001941961529
Epoch: 27100, Error: 0.003363179361669098
Epoch: 27200, Error: 0.0033225671612773316
Epoch: 27300, Error: 0.0032917027685789276
Epoch: 27400, Error: 0.003376081422088436
Epoch: 27500, Error: 0.003333922924715438
Epoch: 27600, Error: 0.003423927328213848
Epoch: 27700, Error: 0.003226302239029064
Epoch: 27800, Error: 0.003276337540238459
Epoch: 27900, Error: 0.0032777026234232427
Epoch: 28000, Error: 0.003156450039546052
Epoch: 28100, Error: 0.00321104912798208
Epoch: 28200, Error: 0.0031954262114138577
Epoch: 28300, Error: 0.0031300858770378615
Epoch: 28400, Error: 0.0030945548757452587
Epoch: 28500, Error: 0.003072842563794558
Epoch: 28600, Error: 0.0030411573649630308
Epoch: 28700, Error: 0.0032442142187893725
Epoch: 28800, Error: 0.0030456077383425677
Epoch: 28900, Error: 0.0030127434957017887
Epoch: 29000, Error: 0.0029623869304995147
Epoch: 29100, Error: 0.0029990175565594236
Epoch: 29200, Error: 0.003015253703986687
Epoch: 29300, Error: 0.00293719101388479
Epoch: 29400, Error: 0.0028920888070284915
Epoch: 29500, Error: 0.0028877672112727596
Epoch: 29600, Error: 0.002866612964184003
Epoch: 29700, Error: 0.002934111054545411
Epoch: 29800, Error: 0.0028362300287662293
Epoch: 29900, Error: 0.0028197025007702034
Epoch: 30000, Error: 0.002917627569050627
Epoch: 30100, Error: 0.0028099707297832162
Epoch: 30200, Error: 0.002783028404253552
Epoch: 30300, Error: 0.00273987932386214
Epoch: 30400, Error: 0.00273462382086669
Epoch: 30500, Error: 0.0027442488529833007
Epoch: 30600, Error: 0.0026953479476197395
Epoch: 30700, Error: 0.0026697288703943925
Epoch: 30800, Error: 0.0027280394534861404
Epoch: 30900, Error: 0.0026800359197281004
Epoch: 31000, Error: 0.0026513834775928513
Epoch: 31100, Error: 0.0026791197126578674
Epoch: 31200, Error: 0.0026527546445305117
Epoch: 31300, Error: 0.0025990498436533724
Epoch: 31400, Error: 0.00255795014729096
Epoch: 31500, Error: 0.0025454441608190543
Epoch: 31600, Error: 0.002555633616437765
Epoch: 31700, Error: 0.002521909077487791
Epoch: 31800, Error: 0.002522085897723806
Epoch: 31900, Error: 0.002489248862007857
Epoch: 32000, Error: 0.0024723298866725055
Epoch: 32100, Error: 0.0024609321196821213
Epoch: 32200, Error: 0.002499887420442101
Epoch: 32300, Error: 0.0024490737161527807
Epoch: 32400, Error: 0.002415577650686069
Epoch: 32500, Error: 0.0024846099806829615
Epoch: 32600, Error: 0.0024053551995544026
Epoch: 32700, Error: 0.002382548011225306
Epoch: 32800, Error: 0.002384740321510301
Epoch: 32900, Error: 0.0023983646635993713
Epoch: 33000, Error: 0.002335670100042166
Epoch: 33100, Error: 0.0023308843925971424
Epoch: 33200, Error: 0.0023731764005537844
Epoch: 33300, Error: 0.0022976885413915804
Epoch: 33400, Error: 0.0023700681820564957
Epoch: 33500, Error: 0.002277248957297668
Epoch: 33600, Error: 0.0022693610054844546
Epoch: 33700, Error: 0.0027718678786129037
Epoch: 33800, Error: 0.0023028285269238538
Epoch: 33900, Error: 0.0022806143592191083
Epoch: 34000, Error: 0.0022287602361431074
Epoch: 34100, Error: 0.0022363609933909335
Epoch: 34200, Error: 0.002307365949540728
Epoch: 34300, Error: 0.0022921575145984437
Epoch: 34400, Error: 0.00218477034022899
Epoch: 34500, Error: 0.0022239974091950955
Epoch: 34600, Error: 0.0021692146723629136
Epoch: 34700, Error: 0.0021788794810449694
Epoch: 34800, Error: 0.002175580779437382
Epoch: 34900, Error: 0.002163053325159995
Epoch: 35000, Error: 0.002165658585008318
Epoch: 35100, Error: 0.002114932235267645
Epoch: 35200, Error: 0.0021161234107163747
Epoch: 35300, Error: 0.0023158936278346856
Epoch: 35400, Error: 0.0021135707201502553
Epoch: 35500, Error: 0.002075847553444832
Epoch: 35600, Error: 0.0021308952656612216
Epoch: 35700, Error: 0.002070731392480449
Epoch: 35800, Error: 0.0021270279284934758
Epoch: 35900, Error: 0.00207855189607492
Epoch: 36000, Error: 0.002087054000014486
Epoch: 36100, Error: 0.00209306157433516
Epoch: 36200, Error: 0.0020940930157848994
Epoch: 36300, Error: 0.002135374493999523
Epoch: 36400, Error: 0.0020496699476979076
Epoch: 36500, Error: 0.0020835183925148925
Epoch: 36600, Error: 0.0020451795263896518
Epoch: 36700, Error: 0.002047259124122541
Epoch: 36800, Error: 0.002017629833670443
Epoch: 36900, Error: 0.0019947207573099692
Epoch: 37000, Error: 0.0019851981805463007
Epoch: 37100, Error: 0.001964610940714934
Epoch: 37200, Error: 0.0019882755093663766
Epoch: 37300, Error: 0.0019759486900586573
Epoch: 37400, Error: 0.0019551513774919483
Epoch: 37500, Error: 0.0019361881595497
Epoch: 37600, Error: 0.0019698887224834667
Epoch: 37700, Error: 0.0019123753859041604
Epoch: 37800, Error: 0.0019001803816380408
Epoch: 37900, Error: 0.0019152425439390888
Epoch: 38000, Error: 0.0018906846256386831
Epoch: 38100, Error: 0.0019024244459303666
Epoch: 38200, Error: 0.0018700205916510595
Epoch: 38300, Error: 0.0018558189347552627
Epoch: 38400, Error: 0.0018565513786538723
Epoch: 38500, Error: 0.001869836789610163
Epoch: 38600, Error: 0.001893296363621974
Epoch: 38700, Error: 0.0018475599313942733
Epoch: 38800, Error: 0.001837737383208352
Epoch: 38900, Error: 0.0018564422254995444
Epoch: 39000, Error: 0.0018011457902686555
Epoch: 39100, Error: 0.0017868998636066916
Epoch: 39200, Error: 0.0017586599863164776
Epoch: 39300, Error: 0.001780383656031618
Epoch: 39400, Error: 0.001746904169522838
Epoch: 39500, Error: 0.0017523056263645117
Epoch: 39600, Error: 0.0017397374357037262
Epoch: 39700, Error: 0.0017234179050031496
Epoch: 39800, Error: 0.0017115281696195304
Epoch: 39900, Error: 0.0017228994252214685
Epoch: 40000, Error: 0.001717072429926187
Epoch: 40100, Error: 0.0016866919543884467
Epoch: 40200, Error: 0.0016981607840367736
Epoch: 40300, Error: 0.0016909738414325227
Epoch: 40400, Error: 0.0016650133510641846
Epoch: 40500, Error: 0.0016627312717743946
Epoch: 40600, Error: 0.0016631720697350776
Epoch: 40700, Error: 0.0016523117578013738
Epoch: 40800, Error: 0.0016356547771322499
Epoch: 40900, Error: 0.0016236986808742995
Epoch: 41000, Error: 0.0016252892797952191
Epoch: 41100, Error: 0.0016394977102468721
Epoch: 41200, Error: 0.0016217309653916308
Epoch: 41300, Error: 0.0015950247520965825
Epoch: 41400, Error: 0.0015869170967842995
Epoch: 41500, Error: 0.0015678240231726745
Epoch: 41600, Error: 0.001576961777988203
Epoch: 41700, Error: 0.0015717879791719571
Epoch: 41800, Error: 0.001554361358293489
Epoch: 41900, Error: 0.0015514487532143695
Epoch: 42000, Error: 0.001536875409607988
Epoch: 42100, Error: 0.0015215084930627596
Epoch: 42200, Error: 0.00166254607956843
Epoch: 42300, Error: 0.001505609610569902
Epoch: 42400, Error: 0.0015067806275070508
Epoch: 42500, Error: 0.001481483509765472
Epoch: 42600, Error: 0.0014764826572149195
Epoch: 42700, Error: 0.0014615357604335394
Epoch: 42800, Error: 0.0014505858678105154
Epoch: 42900, Error: 0.0014726789243228685
Epoch: 43000, Error: 0.0014328038841852648
Epoch: 43100, Error: 0.001421643040927836
Epoch: 43200, Error: 0.001430796366433382
Epoch: 43300, Error: 0.0014019878958029712
Epoch: 43400, Error: 0.0013915156390045323
Epoch: 43500, Error: 0.0013918337903002966
Epoch: 43600, Error: 0.0013777145794527967
Epoch: 43700, Error: 0.0013654780505528749
Epoch: 43800, Error: 0.0013574311046606394
Epoch: 43900, Error: 0.001341515108310858
Epoch: 44000, Error: 0.0013598627490980914
Epoch: 44100, Error: 0.0013490458550853806
Epoch: 44200, Error: 0.0013367171592624026
Epoch: 44300, Error: 0.001317043135885434
Epoch: 44400, Error: 0.0013880511351507016
Epoch: 44500, Error: 0.001297679068973868
Epoch: 44600, Error: 0.0012950152487789936
Epoch: 44700, Error: 0.0012827053194559316
Epoch: 44800, Error: 0.0012795377417668817
Epoch: 44900, Error: 0.0012815435843995377
Epoch: 45000, Error: 0.0012730137107933974
Epoch: 45100, Error: 0.001260913365656205
Epoch: 45200, Error: 0.0012580317806370831
Epoch: 45300, Error: 0.001253163612157783
Epoch: 45400, Error: 0.0012471878388860113
Epoch: 45500, Error: 0.0012402796844877462
Epoch: 45600, Error: 0.0012377618912827182
Epoch: 45700, Error: 0.0012374467564693107
Epoch: 45800, Error: 0.0012332506183169438
Epoch: 45900, Error: 0.0012234139563276501
Epoch: 46000, Error: 0.0012154972032933386
Epoch: 46100, Error: 0.0012081603314772454
Finished
Input Patterns
0.224 0.624 0.067 0.043 
0.11 0.502 0.051 0.043 
0.196 0.667 0.067 0.043 
0.055 0.584 0.067 0.082 
0.027 0.376 0.067 0.043 
0.306 0.71 0.086 0.043 
0.137 0.416 0.067 0.0 
0.416 0.831 0.035 0.043 
0.306 0.792 0.051 0.125 
0.388 0.749 0.118 0.082 
0.306 0.584 0.118 0.043 
0.082 0.667 0.0 0.043 
0.137 0.584 0.153 0.043 
0.196 0.584 0.102 0.125 
0.251 0.584 0.067 0.043 
0.137 0.459 0.102 0.043 
0.251 0.875 0.086 0.0 
0.165 0.459 0.086 0.043 
0.333 0.624 0.051 0.043 
0.027 0.416 0.051 0.043 
0.196 0.624 0.051 0.082 
0.027 0.502 0.051 0.043 
0.224 0.749 0.153 0.125 
0.224 0.749 0.102 0.043 
0.278 0.71 0.086 0.043 
0.165 0.416 0.067 0.043 
0.082 0.459 0.086 0.043 
0.306 0.792 0.118 0.125 
0.196 0.584 0.086 0.043 
0.165 0.459 0.086 0.0 
0.137 0.584 0.102 0.043 
0.0 0.416 0.016 0.0 
0.388 1.0 0.086 0.125 
0.224 0.624 0.067 0.082 
0.224 0.749 0.086 0.082 
0.224 0.71 0.086 0.125 
0.224 0.541 0.118 0.165 
0.196 0.416 0.102 0.043 
0.251 0.624 0.086 0.043 
0.11 0.502 0.102 0.043 
0.306 0.584 0.086 0.125 
0.333 0.918 0.067 0.043 
0.196 0.502 0.035 0.043 
0.165 0.667 0.067 0.0 
0.224 0.584 0.086 0.043 
0.055 0.125 0.051 0.082 
0.196 0.624 0.102 0.208 
0.137 0.416 0.067 0.082 
0.082 0.502 0.067 0.043 
0.196 0.541 0.067 0.043 
0.749 0.502 0.627 0.541 
0.722 0.459 0.663 0.584 
0.612 0.333 0.612 0.584 
0.557 0.541 0.627 0.624 
0.639 0.376 0.612 0.498 
0.196 0.0 0.424 0.376 
0.471 0.082 0.51 0.376 
0.361 0.376 0.439 0.498 
0.361 0.416 0.592 0.584 
0.529 0.082 0.592 0.584 
0.443 0.502 0.643 0.459 
0.557 0.208 0.663 0.584 
0.584 0.376 0.561 0.498 
0.694 0.333 0.643 0.541 
0.471 0.376 0.592 0.584 
0.333 0.169 0.475 0.416 
0.416 0.29 0.49 0.459 
0.306 0.416 0.592 0.584 
0.667 0.459 0.627 0.584 
0.361 0.416 0.525 0.498 
0.333 0.251 0.576 0.459 
0.416 0.251 0.51 0.459 
0.361 0.29 0.541 0.498 
0.388 0.376 0.541 0.498 
0.224 0.208 0.337 0.416 
0.584 0.502 0.592 0.584 
0.333 0.125 0.51 0.498 
0.388 0.333 0.592 0.498 
0.165 0.169 0.388 0.376 
0.251 0.29 0.49 0.541 
0.443 0.416 0.541 0.584 
0.498 0.376 0.627 0.541 
0.667 0.459 0.576 0.541 
0.416 0.29 0.525 0.376 
0.361 0.208 0.49 0.416 
0.498 0.333 0.51 0.498 
0.498 0.333 0.627 0.459 
0.639 0.416 0.576 0.541 
0.667 0.416 0.678 0.667 
0.388 0.251 0.424 0.376 
0.333 0.169 0.459 0.376 
0.471 0.29 0.694 0.624 
0.471 0.584 0.592 0.624 
0.557 0.125 0.576 0.498 
0.333 0.208 0.51 0.498 
0.498 0.416 0.612 0.541 
0.196 0.125 0.388 0.376 
0.388 0.416 0.541 0.459 
0.529 0.376 0.561 0.498 
0.388 0.333 0.525 0.498 
0.557 0.541 0.847 1.0 
0.776 0.416 0.831 0.831 
0.612 0.416 0.812 0.875 
0.165 0.208 0.592 0.667 
0.667 0.208 0.812 0.71 
0.612 0.502 0.694 0.792 
0.694 0.416 0.761 0.831 
0.416 0.333 0.694 0.957 
0.612 0.416 0.761 0.71 
0.945 0.251 1.0 0.918 
0.722 0.502 0.796 0.918 
0.945 0.333 0.965 0.792 
0.667 0.541 0.796 0.831 
0.529 0.333 0.643 0.71 
0.584 0.333 0.78 0.831 
0.863 0.333 0.863 0.749 
0.584 0.333 0.78 0.875 
0.498 0.251 0.78 0.541 
0.557 0.584 0.78 0.957 
0.471 0.416 0.643 0.71 
0.667 0.459 0.78 0.957 
0.416 0.29 0.694 0.749 
0.667 0.541 0.796 1.0 
0.557 0.208 0.678 0.749 
0.529 0.584 0.745 0.918 
0.416 0.29 0.694 0.749 
0.557 0.376 0.78 0.71 
0.918 0.416 0.949 0.831 
0.835 0.376 0.898 0.71 
0.804 0.667 0.863 1.0 
0.584 0.29 0.729 0.749 
0.388 0.208 0.678 0.792 
0.584 0.502 0.729 0.918 
0.945 0.749 0.965 0.875 
0.471 0.082 0.678 0.584 
0.361 0.333 0.663 0.792 
0.557 0.29 0.663 0.71 
0.804 0.502 0.847 0.71 
0.498 0.416 0.51 0.71 
0.804 0.416 0.812 0.624 
1.0 0.749 0.914 0.792 
0.557 0.333 0.694 0.584 
0.945 0.416 0.863 0.918 
0.584 0.459 0.761 0.71 
0.722 0.459 0.745 0.831 
0.722 0.459 0.694 0.918 
0.694 0.502 0.831 0.918 
0.667 0.416 0.714 0.918 
0.612 0.416 0.714 0.792 
0.443 0.416 0.694 0.71 
Teaching Patterns
1.0 0.0 0.0 
1.0 0.0 0.0 
1.0 0.0 0.0 
1.0 0.0 0.0 
1.0 0.0 0.0 
1.0 0.0 0.0 
1.0 0.0 0.0 
1.0 0.0 0.0 
1.0 0.0 0.0 
1.0 0.0 0.0 
1.0 0.0 0.0 
1.0 0.0 0.0 
1.0 0.0 0.0 
1.0 0.0 0.0 
1.0 0.0 0.0 
1.0 0.0 0.0 
1.0 0.0 0.0 
1.0 0.0 0.0 
1.0 0.0 0.0 
1.0 0.0 0.0 
1.0 0.0 0.0 
1.0 0.0 0.0 
1.0 0.0 0.0 
1.0 0.0 0.0 
1.0 0.0 0.0 
1.0 0.0 0.0 
1.0 0.0 0.0 
1.0 0.0 0.0 
1.0 0.0 0.0 
1.0 0.0 0.0 
1.0 0.0 0.0 
1.0 0.0 0.0 
1.0 0.0 0.0 
1.0 0.0 0.0 
1.0 0.0 0.0 
1.0 0.0 0.0 
1.0 0.0 0.0 
1.0 0.0 0.0 
1.0 0.0 0.0 
1.0 0.0 0.0 
1.0 0.0 0.0 
1.0 0.0 0.0 
1.0 0.0 0.0 
1.0 0.0 0.0 
1.0 0.0 0.0 
1.0 0.0 0.0 
1.0 0.0 0.0 
1.0 0.0 0.0 
1.0 0.0 0.0 
1.0 0.0 0.0 
0.0 1.0 0.0 
0.0 1.0 0.0 
0.0 1.0 0.0 
0.0 1.0 0.0 
0.0 1.0 0.0 
0.0 1.0 0.0 
0.0 1.0 0.0 
0.0 1.0 0.0 
0.0 1.0 0.0 
0.0 1.0 0.0 
0.0 1.0 0.0 
0.0 1.0 0.0 
0.0 1.0 0.0 
0.0 1.0 0.0 
0.0 1.0 0.0 
0.0 1.0 0.0 
0.0 1.0 0.0 
0.0 1.0 0.0 
0.0 1.0 0.0 
0.0 1.0 0.0 
0.0 1.0 0.0 
0.0 1.0 0.0 
0.0 1.0 0.0 
0.0 1.0 0.0 
0.0 1.0 0.0 
0.0 1.0 0.0 
0.0 1.0 0.0 
0.0 1.0 0.0 
0.0 1.0 0.0 
0.0 1.0 0.0 
0.0 1.0 0.0 
0.0 1.0 0.0 
0.0 1.0 0.0 
0.0 1.0 0.0 
0.0 1.0 0.0 
0.0 1.0 0.0 
0.0 1.0 0.0 
0.0 1.0 0.0 
0.0 1.0 0.0 
0.0 1.0 0.0 
0.0 1.0 0.0 
0.0 1.0 0.0 
0.0 1.0 0.0 
0.0 1.0 0.0 
0.0 1.0 0.0 
0.0 1.0 0.0 
0.0 1.0 0.0 
0.0 1.0 0.0 
0.0 1.0 0.0 
0.0 1.0 0.0 
0.0 0.0 1.0 
0.0 0.0 1.0 
0.0 0.0 1.0 
0.0 0.0 1.0 
0.0 0.0 1.0 
0.0 0.0 1.0 
0.0 0.0 1.0 
0.0 0.0 1.0 
0.0 0.0 1.0 
0.0 0.0 1.0 
0.0 0.0 1.0 
0.0 0.0 1.0 
0.0 0.0 1.0 
0.0 0.0 1.0 
0.0 0.0 1.0 
0.0 0.0 1.0 
0.0 0.0 1.0 
0.0 0.0 1.0 
0.0 0.0 1.0 
0.0 0.0 1.0 
0.0 0.0 1.0 
0.0 0.0 1.0 
0.0 0.0 1.0 
0.0 0.0 1.0 
0.0 0.0 1.0 
0.0 0.0 1.0 
0.0 0.0 1.0 
0.0 0.0 1.0 
0.0 0.0 1.0 
0.0 0.0 1.0 
0.0 0.0 1.0 
0.0 0.0 1.0 
0.0 0.0 1.0 
0.0 0.0 1.0 
0.0 0.0 1.0 
0.0 0.0 1.0 
0.0 0.0 1.0 
0.0 0.0 1.0 
0.0 0.0 1.0 
0.0 0.0 1.0 
0.0 0.0 1.0 
0.0 0.0 1.0 
0.0 0.0 1.0 
0.0 0.0 1.0 
0.0 0.0 1.0 
0.0 0.0 1.0 
0.0 0.0 1.0 
0.0 0.0 1.0 
0.0 0.0 1.0 
0.0 0.0 1.0 
Learning : 0.05
Momentum : 0.800000011920929
Epoch: 100, Error: 0.026881277375946467
Epoch: 200, Error: 0.017147956830939545
Epoch: 300, Error: 0.015146122500135993
Epoch: 400, Error: 0.014052421138010298
Epoch: 500, Error: 0.013496423124720148
Epoch: 600, Error: 0.013024064249207963
Epoch: 700, Error: 0.012720400204717854
Epoch: 800, Error: 0.012523774476341365
Epoch: 900, Error: 0.01253658137528061
Epoch: 1000, Error: 0.012671870983519079
Epoch: 1100, Error: 0.012184581853859068
Epoch: 1200, Error: 0.012111067959907072
Epoch: 1300, Error: 0.012084841871359088
Epoch: 1400, Error: 0.012178899333082461
Epoch: 1500, Error: 0.012662631945018885
Epoch: 1600, Error: 0.011935251896217537
Epoch: 1700, Error: 0.011944225293693727
Epoch: 1800, Error: 0.011901761131172934
Epoch: 1900, Error: 0.011872210226113592
Epoch: 2000, Error: 0.011864467278487646
Epoch: 2100, Error: 0.01182879149568655
Epoch: 2200, Error: 0.011828788547100297
Epoch: 2300, Error: 0.01196318194286784
Epoch: 2400, Error: 0.011801881076464073
Epoch: 2500, Error: 0.011771526502354378
Epoch: 2600, Error: 0.011740675871101678
Epoch: 2700, Error: 0.011839092347556405
Epoch: 2800, Error: 0.011783485937603153
Epoch: 2900, Error: 0.011764643922645372
Epoch: 3000, Error: 0.01172168079542338
Epoch: 3100, Error: 0.011720288838710064
Epoch: 3200, Error: 0.011725735556621852
Epoch: 3300, Error: 0.011825825442920827
Epoch: 3400, Error: 0.011788037965622507
Epoch: 3500, Error: 0.011756567535368303
Epoch: 3600, Error: 0.011690657486811399
Epoch: 3700, Error: 0.011730031281083332
Epoch: 3800, Error: 0.011783297638492752
Epoch: 3900, Error: 0.01169339968315947
Epoch: 4000, Error: 0.011701735740328335
Epoch: 4100, Error: 0.011680976332124492
Epoch: 4200, Error: 0.011659605167581761
Epoch: 4300, Error: 0.011700824868156188
Epoch: 4400, Error: 0.011589867106252445
Epoch: 4500, Error: 0.01157723749530171
Epoch: 4600, Error: 0.0115693305589961
Epoch: 4700, Error: 0.011548810333773408
Epoch: 4800, Error: 0.011652872971646026
Epoch: 4900, Error: 0.011731760820839704
Epoch: 5000, Error: 0.01150637694095355
Epoch: 5100, Error: 0.011493804993074029
Epoch: 5200, Error: 0.011516425505034832
Epoch: 5300, Error: 0.011455703930080092
Epoch: 5400, Error: 0.011424574372207267
Epoch: 5500, Error: 0.011438426470368383
Epoch: 5600, Error: 0.011734653844865021
Epoch: 5700, Error: 0.011398302393734489
Epoch: 5800, Error: 0.011376221820206705
Epoch: 5900, Error: 0.011351850858126596
Epoch: 6000, Error: 0.011356648198746067
Epoch: 6100, Error: 0.011327371261159132
Epoch: 6200, Error: 0.011388370805066727
Epoch: 6300, Error: 0.011267620397888855
Epoch: 6400, Error: 0.011281518722894955
Epoch: 6500, Error: 0.011205540668503171
Epoch: 6600, Error: 0.011206232051946945
Epoch: 6700, Error: 0.011131577469458307
Epoch: 6800, Error: 0.011129718890043907
Epoch: 6900, Error: 0.011064022687897194
Epoch: 7000, Error: 0.01102202780195222
Epoch: 7100, Error: 0.010987670171428042
Epoch: 7200, Error: 0.010986588333587803
Epoch: 7300, Error: 0.010971391943702936
Epoch: 7400, Error: 0.01086997782058586
Epoch: 7500, Error: 0.010823297842208169
Epoch: 7600, Error: 0.010735316745903225
Epoch: 7700, Error: 0.010801413212022774
Epoch: 7800, Error: 0.010610894692057646
Epoch: 7900, Error: 0.010559287210604857
Epoch: 8000, Error: 0.010480002693028045
Epoch: 8100, Error: 0.010983558106020046
Epoch: 8200, Error: 0.010350359217482856
Epoch: 8300, Error: 0.010268592359568224
Epoch: 8400, Error: 0.010178095157985853
Epoch: 8500, Error: 0.010104171223732973
Epoch: 8600, Error: 0.009998860939324825
Epoch: 8700, Error: 0.009909791146287627
Epoch: 8800, Error: 0.00983196093183339
Epoch: 8900, Error: 0.009728280774554558
Epoch: 9000, Error: 0.009648949134333562
Epoch: 9100, Error: 0.009534698528226351
Epoch: 9200, Error: 0.009429755315666623
Epoch: 9300, Error: 0.009299574939970938
Epoch: 9400, Error: 0.00919545861730881
Epoch: 9500, Error: 0.009221118964828875
Epoch: 9600, Error: 0.008942520073356101
Epoch: 9700, Error: 0.008894084022518548
Epoch: 9800, Error: 0.008739625116935488
Epoch: 9900, Error: 0.008641042189825638
Epoch: 10000, Error: 0.008533989362496672
Epoch: 10100, Error: 0.008430330845248473
Epoch: 10200, Error: 0.008323067998272265
Epoch: 10300, Error: 0.008213770160149495
Epoch: 10400, Error: 0.00818335052175154
Epoch: 10500, Error: 0.008023849257038865
Epoch: 10600, Error: 0.007944679109033691
Epoch: 10700, Error: 0.00782720602697149
Epoch: 10800, Error: 0.007789923196140449
Epoch: 10900, Error: 0.007664773414553661
Epoch: 11000, Error: 0.007581712164132329
Epoch: 11100, Error: 0.007471502741921789
Epoch: 11200, Error: 0.007408649951125852
Epoch: 11300, Error: 0.007344434222356246
Epoch: 11400, Error: 0.007295128240925306
Epoch: 11500, Error: 0.007195487044163901
Epoch: 11600, Error: 0.007139598082704165
Epoch: 11700, Error: 0.007059285424277101
Epoch: 11800, Error: 0.007010998228233743
Epoch: 11900, Error: 0.006961760172005925
Epoch: 12000, Error: 0.006887027435735759
Epoch: 12100, Error: 0.006838960389467958
Epoch: 12200, Error: 0.006804395183963801
Epoch: 12300, Error: 0.0067495715341881445
Epoch: 12400, Error: 0.006711345581324673
Epoch: 12500, Error: 0.006663547997530992
Epoch: 12600, Error: 0.006628797279957189
Epoch: 12700, Error: 0.00659954550365103
Epoch: 12800, Error: 0.006559609957875292
Epoch: 12900, Error: 0.006537614829450587
Epoch: 13000, Error: 0.00648855036630057
Epoch: 13100, Error: 0.006463179285923931
Epoch: 13200, Error: 0.006471559896978968
Epoch: 13300, Error: 0.006446180206342624
Epoch: 13400, Error: 0.006395504557353909
Epoch: 13500, Error: 0.006357793383626793
Epoch: 13600, Error: 0.006337904431616554
Epoch: 13700, Error: 0.006310460560019314
Epoch: 13800, Error: 0.006311258005365777
Epoch: 13900, Error: 0.0062686457946575765
Epoch: 14000, Error: 0.006259582642454518
Epoch: 14100, Error: 0.006230137668831592
Epoch: 14200, Error: 0.006202152975236899
Epoch: 14300, Error: 0.006171790571373544
Epoch: 14400, Error: 0.006174423048954768
Epoch: 14500, Error: 0.006128116435936219
Epoch: 14600, Error: 0.006129865136827846
Epoch: 14700, Error: 0.006145913053873004
Epoch: 14800, Error: 0.0061127845520820845
Epoch: 14900, Error: 0.0060812827720568684
Epoch: 15000, Error: 0.006056644513509778
Epoch: 15100, Error: 0.00604987583335602
Epoch: 15200, Error: 0.006005667544343513
Epoch: 15300, Error: 0.005998542321143492
Epoch: 15400, Error: 0.0059761861327851514
Epoch: 15500, Error: 0.0059841326445250675
Epoch: 15600, Error: 0.005954067498107311
Epoch: 15700, Error: 0.005934961854355071
Epoch: 15800, Error: 0.005922171779832291
Epoch: 15900, Error: 0.005879585016049063
Epoch: 16000, Error: 0.0058542732818409726
Epoch: 16100, Error: 0.005833701239824159
Epoch: 16200, Error: 0.005818256053857516
Epoch: 16300, Error: 0.005831797657412151
Epoch: 16400, Error: 0.005862485449659206
Epoch: 16500, Error: 0.005747797337612104
Epoch: 16600, Error: 0.005706002694179702
Epoch: 16700, Error: 0.005689329167847352
Epoch: 16800, Error: 0.005682950197509597
Epoch: 16900, Error: 0.005660032176292397
Epoch: 17000, Error: 0.005625992574920554
Epoch: 17100, Error: 0.0055998617507166705
Epoch: 17200, Error: 0.005590765714186459
Epoch: 17300, Error: 0.005551082662670484
Epoch: 17400, Error: 0.005557692514901023
Epoch: 17500, Error: 0.00554459613742429
Epoch: 17600, Error: 0.005494850880651103
Epoch: 17700, Error: 0.005480939926039703
Epoch: 17800, Error: 0.005461642233410421
Epoch: 17900, Error: 0.005441118465358969
Epoch: 18000, Error: 0.005479927531362088
Epoch: 18100, Error: 0.005548750779881088
Epoch: 18200, Error: 0.005387915421300501
Epoch: 18300, Error: 0.0053998261014677066
Epoch: 18400, Error: 0.00534998769845417
Epoch: 18500, Error: 0.005328637098690859
Epoch: 18600, Error: 0.0053168770155858636
Epoch: 18700, Error: 0.005279769395265111
Epoch: 18800, Error: 0.0052653998378141805
Epoch: 18900, Error: 0.0052523092073088655
Epoch: 19000, Error: 0.005244278080937774
Epoch: 19100, Error: 0.005299121682514409
Epoch: 19200, Error: 0.005216391051359129
Epoch: 19300, Error: 0.005174336041598151
Epoch: 19400, Error: 0.00515599340365195
Epoch: 19500, Error: 0.005129526180534906
Epoch: 19600, Error: 0.005126358090566241
Epoch: 19700, Error: 0.005106984828871834
Epoch: 19800, Error: 0.005130633671882992
Epoch: 19900, Error: 0.005079904756459843
Epoch: 20000, Error: 0.005058072892784949
Epoch: 20100, Error: 0.005071955224422488
Epoch: 20200, Error: 0.00502641943401535
Epoch: 20300, Error: 0.004967600909512495
Epoch: 20400, Error: 0.004955019895200498
Epoch: 20500, Error: 0.004934310686885908
Epoch: 20600, Error: 0.0049370504650409885
Epoch: 20700, Error: 0.004908248334464858
Epoch: 20800, Error: 0.0048520190856017895
Epoch: 20900, Error: 0.004838205105247801
Epoch: 21000, Error: 0.004803517028041568
Epoch: 21100, Error: 0.0047753568489396474
Epoch: 21200, Error: 0.00477433263021029
Epoch: 21300, Error: 0.004736310388026938
Epoch: 21400, Error: 0.004732142747941507
Epoch: 21500, Error: 0.004672602200778391
Epoch: 21600, Error: 0.0046579106319177685
Epoch: 21700, Error: 0.004672745934226077
Epoch: 21800, Error: 0.004625597846268831
Epoch: 21900, Error: 0.004570215676238347
Epoch: 22000, Error: 0.004537118970329935
Epoch: 22100, Error: 0.004515108620321821
Epoch: 22200, Error: 0.0044873551540471545
Epoch: 22300, Error: 0.004468930248507763
Epoch: 22400, Error: 0.004548338449800642
Epoch: 22500, Error: 0.004428205937726783
Epoch: 22600, Error: 0.004391203148712148
Epoch: 22700, Error: 0.004371134917614833
Epoch: 22800, Error: 0.0043625708067807105
Epoch: 22900, Error: 0.004353806155318375
Epoch: 23000, Error: 0.004300305588582826
Epoch: 23100, Error: 0.004288784846656019
Epoch: 23200, Error: 0.004245378037808618
Epoch: 23300, Error: 0.004230089214147755
Epoch: 23400, Error: 0.00420263100854022
Epoch: 23500, Error: 0.004249061041489231
Epoch: 23600, Error: 0.004360943951797108
Epoch: 23700, Error: 0.004152074359668156
Epoch: 23800, Error: 0.0041090672643585785
Epoch: 23900, Error: 0.004238307505734484
Epoch: 24000, Error: 0.004067574312092647
Epoch: 24100, Error: 0.004080218395099187
Epoch: 24200, Error: 0.00402968012226053
Epoch: 24300, Error: 0.004017297190712281
Epoch: 24400, Error: 0.003978190145174891
Epoch: 24500, Error: 0.003913681101735181
Epoch: 24600, Error: 0.003890234946671759
Epoch: 24700, Error: 0.003965671813659611
Epoch: 24800, Error: 0.003850415496553576
Epoch: 24900, Error: 0.003851205271377093
Epoch: 25000, Error: 0.0038189390846544544
Epoch: 25100, Error: 0.003781816031666461
Epoch: 25200, Error: 0.003766992146908902
Epoch: 25300, Error: 0.0037276507005112682
Epoch: 25400, Error: 0.0037322273351877494
Epoch: 25500, Error: 0.0037132561334936283
Epoch: 25600, Error: 0.003677895847207142
Epoch: 25700, Error: 0.0036548359402137996
Epoch: 25800, Error: 0.0036253966384292477
Epoch: 25900, Error: 0.003618508811689226
Epoch: 26000, Error: 0.0035762329039183767
Epoch: 26100, Error: 0.003586983900860472
Epoch: 26200, Error: 0.0035312642755916147
Epoch: 26300, Error: 0.00352091112525345
Epoch: 26400, Error: 0.003516287688981591
Epoch: 26500, Error: 0.003460762190684945
Epoch: 26600, Error: 0.0034610940782034043
Epoch: 26700, Error: 0.00348560307902632
Epoch: 26800, Error: 0.0033965400663741726
Epoch: 26900, Error: 0.0035393754967801986
Epoch: 27000, Error: 0.0033724371168807944
Epoch: 27100, Error: 0.0033965452936642855
Epoch: 27200, Error: 0.0033457957688530684
Epoch: 27300, Error: 0.003339296222271467
Epoch: 27400, Error: 0.003540085963649101
Epoch: 27500, Error: 0.0032825614460202587
Epoch: 27600, Error: 0.003271716964038349
Epoch: 27700, Error: 0.003290290445564812
Epoch: 27800, Error: 0.0032431217009558557
Epoch: 27900, Error: 0.0033006072246494858
Epoch: 28000, Error: 0.003218040194179709
Epoch: 28100, Error: 0.0032535222085857108
Epoch: 28200, Error: 0.0032242385206134815
Epoch: 28300, Error: 0.0031887625155630895
Epoch: 28400, Error: 0.0031720182413390993
Epoch: 28500, Error: 0.003173108455222203
Epoch: 28600, Error: 0.0031411633350947477
Epoch: 28700, Error: 0.003136986735998726
Epoch: 28800, Error: 0.003182362574620273
Epoch: 28900, Error: 0.0031367475164604387
Epoch: 29000, Error: 0.0031197858728363374
Epoch: 29100, Error: 0.003299406906103333
Epoch: 29200, Error: 0.003101558810283257
Epoch: 29300, Error: 0.0030703917501519154
Epoch: 29400, Error: 0.0030685091768118352
Epoch: 29500, Error: 0.003042433197965148
Epoch: 29600, Error: 0.0031132481496683397
Epoch: 29700, Error: 0.003047222113806658
Epoch: 29800, Error: 0.0029792229431409695
Epoch: 29900, Error: 0.0029893139567118213
Epoch: 30000, Error: 0.002952446470810564
Epoch: 30100, Error: 0.0030026249603105977
Epoch: 30200, Error: 0.00290869677863022
Epoch: 30300, Error: 0.0030303760497286908
Epoch: 30400, Error: 0.0028806462187985125
Epoch: 30500, Error: 0.0028785366341001623
Epoch: 30600, Error: 0.0029159047921790034
Epoch: 30700, Error: 0.002906561991141642
Epoch: 30800, Error: 0.0028129931946065524
Epoch: 30900, Error: 0.0028120027136994143
Epoch: 31000, Error: 0.0032874287553756325
Epoch: 31100, Error: 0.002771105552671367
Epoch: 31200, Error: 0.0027942260827875103
Epoch: 31300, Error: 0.0027659425709226507
Epoch: 31400, Error: 0.0027651243915385454
Epoch: 31500, Error: 0.0026997761257213457
Epoch: 31600, Error: 0.0026926713389751476
Epoch: 31700, Error: 0.0027398733807624497
Epoch: 31800, Error: 0.002648945455124123
Epoch: 31900, Error: 0.0026713147050257745
Epoch: 32000, Error: 0.0027355502238627268
Epoch: 32100, Error: 0.0025959109724273404
Epoch: 32200, Error: 0.002567549103049034
Epoch: 32300, Error: 0.002612168918484636
Epoch: 32400, Error: 0.0025643650144112043
Epoch: 32500, Error: 0.0026153399566015622
Epoch: 32600, Error: 0.0025256172892334514
Epoch: 32700, Error: 0.0025580170439068635
Epoch: 32800, Error: 0.002543602603932554
Epoch: 32900, Error: 0.002478744329883705
Epoch: 33000, Error: 0.0025601537221916666
Epoch: 33100, Error: 0.0025733010106320574
Epoch: 33200, Error: 0.002441559703503165
Epoch: 33300, Error: 0.002464627925912762
Epoch: 33400, Error: 0.002901003409217173
Epoch: 33500, Error: 0.0024594100358668936
Epoch: 33600, Error: 0.00241889947864394
Epoch: 33700, Error: 0.0024560944797050277
Epoch: 33800, Error: 0.0023619674582886292
Epoch: 33900, Error: 0.002406494341565717
Epoch: 34000, Error: 0.002365679552348503
Epoch: 34100, Error: 0.0023210428075409783
Epoch: 34200, Error: 0.002314413506784722
Epoch: 34300, Error: 0.00238168828550061
Epoch: 34400, Error: 0.0022894760571633703
Epoch: 34500, Error: 0.0022762101916771788
Epoch: 34600, Error: 0.0022708323140405206
Epoch: 34700, Error: 0.0022781967689856873
Epoch: 34800, Error: 0.0022757127324434323
Epoch: 34900, Error: 0.0022751856845697797
Epoch: 35000, Error: 0.002269666418425056
Epoch: 35100, Error: 0.0022475535769671063
Epoch: 35200, Error: 0.002302410059432305
Epoch: 35300, Error: 0.0022389356933805926
Epoch: 35400, Error: 0.0022823089333861165
Epoch: 35500, Error: 0.002239346846327687
Epoch: 35600, Error: 0.002191333212508146
Epoch: 35700, Error: 0.0021604925656801112
Epoch: 35800, Error: 0.0021613420102835172
Epoch: 35900, Error: 0.002128428260455246
Epoch: 36000, Error: 0.0021232522153367215
Epoch: 36100, Error: 0.00212085428572097
Epoch: 36200, Error: 0.002232921225752323
Epoch: 36300, Error: 0.002103565467364923
Epoch: 36400, Error: 0.0021449693776858718
Epoch: 36500, Error: 0.0021296025962800405
Epoch: 36600, Error: 0.0020694823414701014
Epoch: 36700, Error: 0.002077349350687859
Epoch: 36800, Error: 0.002064990860011878
Epoch: 36900, Error: 0.002153349471752012
Epoch: 37000, Error: 0.0020713717822029507
Epoch: 37100, Error: 0.0020204507047047802
Epoch: 37200, Error: 0.002043570658341094
Epoch: 37300, Error: 0.002196035845844328
Epoch: 37400, Error: 0.0020131967173040487
Epoch: 37500, Error: 0.0020459549259196842
Epoch: 37600, Error: 0.00198377493631198
Epoch: 37700, Error: 0.0019645573697009227
Epoch: 37800, Error: 0.0019735986306192994
Epoch: 37900, Error: 0.0019496224929782201
Epoch: 38000, Error: 0.0019931588672213165
Epoch: 38100, Error: 0.0019476986628714065
Epoch: 38200, Error: 0.00197878166717788
Epoch: 38300, Error: 0.00191154935928513
Epoch: 38400, Error: 0.0019429727718834082
Epoch: 38500, Error: 0.0018994904750992846
Epoch: 38600, Error: 0.001929910068558305
Epoch: 38700, Error: 0.0019365366699025984
Epoch: 38800, Error: 0.0018674285047422196
Epoch: 38900, Error: 0.001880737797575335
Epoch: 39000, Error: 0.0018594353675461537
Epoch: 39100, Error: 0.0018314167758386316
Epoch: 39200, Error: 0.0018217631252761218
Epoch: 39300, Error: 0.0018520708109991985
Epoch: 39400, Error: 0.0018088849490550524
Epoch: 39500, Error: 0.0018565478632250267
Epoch: 39600, Error: 0.001824459723902129
Epoch: 39700, Error: 0.0017976685691449407
Epoch: 39800, Error: 0.0018005789589854945
Epoch: 39900, Error: 0.0018440335798666327
Epoch: 40000, Error: 0.0017942441844930699
Epoch: 40100, Error: 0.0017848755215390413
Epoch: 40200, Error: 0.001764285634207143
Epoch: 40300, Error: 0.0017501051407306423
Epoch: 40400, Error: 0.0017648228701987445
Epoch: 40500, Error: 0.0017244663120295225
Epoch: 40600, Error: 0.00173217361128674
Epoch: 40700, Error: 0.0017436815589977675
Epoch: 40800, Error: 0.00170611389820565
Epoch: 40900, Error: 0.0017015732802657896
Epoch: 41000, Error: 0.0016964562258931161
Epoch: 41100, Error: 0.001686594052564764
Epoch: 41200, Error: 0.0016823349851492425
Epoch: 41300, Error: 0.0016632010886258094
Epoch: 41400, Error: 0.001683493423066883
Epoch: 41500, Error: 0.001661211454730116
Epoch: 41600, Error: 0.0016828714907284952
Epoch: 41700, Error: 0.0016553076211734841
Epoch: 41800, Error: 0.0016366527733794735
Epoch: 41900, Error: 0.0016265603627894875
Epoch: 42000, Error: 0.0016185403423613124
Epoch: 42100, Error: 0.001668191604435689
Epoch: 42200, Error: 0.0016106667667604541
Epoch: 42300, Error: 0.001592773005557191
Epoch: 42400, Error: 0.0015822757398335208
Epoch: 42500, Error: 0.0015769280221062006
Epoch: 42600, Error: 0.0015726104051088342
Epoch: 42700, Error: 0.0015725845236969943
Epoch: 42800, Error: 0.001575343864478312
Epoch: 42900, Error: 0.0016413324748707925
Epoch: 43000, Error: 0.0015461282202841361
Epoch: 43100, Error: 0.0015450441143984774
Epoch: 43200, Error: 0.0015276637975431455
Epoch: 43300, Error: 0.001530431290398146
Epoch: 43400, Error: 0.001523633775208409
Epoch: 43500, Error: 0.0015008357736225881
Epoch: 43600, Error: 0.0014959201218652744
Epoch: 43700, Error: 0.0014903052628046538
Epoch: 43800, Error: 0.0014934366995391403
Epoch: 43900, Error: 0.0015835309342858044
Epoch: 44000, Error: 0.0014693512435317382
Epoch: 44100, Error: 0.001466332796775423
Finished
