Input Patterns
0.224 0.624 0.067 0.043 
0.11 0.502 0.051 0.043 
0.196 0.667 0.067 0.043 
0.055 0.584 0.067 0.082 
0.027 0.376 0.067 0.043 
0.306 0.71 0.086 0.043 
0.137 0.416 0.067 0.0 
0.416 0.831 0.035 0.043 
0.306 0.792 0.051 0.125 
0.388 0.749 0.118 0.082 
0.306 0.584 0.118 0.043 
0.082 0.667 0.0 0.043 
0.137 0.584 0.153 0.043 
0.196 0.584 0.102 0.125 
0.251 0.584 0.067 0.043 
0.137 0.459 0.102 0.043 
0.251 0.875 0.086 0.0 
0.165 0.459 0.086 0.043 
0.333 0.624 0.051 0.043 
0.027 0.416 0.051 0.043 
0.196 0.624 0.051 0.082 
0.027 0.502 0.051 0.043 
0.224 0.749 0.153 0.125 
0.224 0.749 0.102 0.043 
0.278 0.71 0.086 0.043 
0.165 0.416 0.067 0.043 
0.082 0.459 0.086 0.043 
0.306 0.792 0.118 0.125 
0.196 0.584 0.086 0.043 
0.165 0.459 0.086 0.0 
0.137 0.584 0.102 0.043 
0.0 0.416 0.016 0.0 
0.388 1.0 0.086 0.125 
0.224 0.624 0.067 0.082 
0.224 0.749 0.086 0.082 
0.224 0.71 0.086 0.125 
0.224 0.541 0.118 0.165 
0.196 0.416 0.102 0.043 
0.251 0.624 0.086 0.043 
0.11 0.502 0.102 0.043 
0.306 0.584 0.086 0.125 
0.333 0.918 0.067 0.043 
0.196 0.502 0.035 0.043 
0.165 0.667 0.067 0.0 
0.224 0.584 0.086 0.043 
0.055 0.125 0.051 0.082 
0.196 0.624 0.102 0.208 
0.137 0.416 0.067 0.082 
0.082 0.502 0.067 0.043 
0.196 0.541 0.067 0.043 
0.749 0.502 0.627 0.541 
0.722 0.459 0.663 0.584 
0.612 0.333 0.612 0.584 
0.557 0.541 0.627 0.624 
0.639 0.376 0.612 0.498 
0.196 0.0 0.424 0.376 
0.471 0.082 0.51 0.376 
0.361 0.376 0.439 0.498 
0.361 0.416 0.592 0.584 
0.529 0.082 0.592 0.584 
0.443 0.502 0.643 0.459 
0.557 0.208 0.663 0.584 
0.584 0.376 0.561 0.498 
0.694 0.333 0.643 0.541 
0.471 0.376 0.592 0.584 
0.333 0.169 0.475 0.416 
0.416 0.29 0.49 0.459 
0.306 0.416 0.592 0.584 
0.667 0.459 0.627 0.584 
0.361 0.416 0.525 0.498 
0.333 0.251 0.576 0.459 
0.416 0.251 0.51 0.459 
0.361 0.29 0.541 0.498 
0.388 0.376 0.541 0.498 
0.224 0.208 0.337 0.416 
0.584 0.502 0.592 0.584 
0.333 0.125 0.51 0.498 
0.388 0.333 0.592 0.498 
0.165 0.169 0.388 0.376 
0.251 0.29 0.49 0.541 
0.443 0.416 0.541 0.584 
0.498 0.376 0.627 0.541 
0.667 0.459 0.576 0.541 
0.416 0.29 0.525 0.376 
0.361 0.208 0.49 0.416 
0.498 0.333 0.51 0.498 
0.498 0.333 0.627 0.459 
0.639 0.416 0.576 0.541 
0.667 0.416 0.678 0.667 
0.388 0.251 0.424 0.376 
0.333 0.169 0.459 0.376 
0.471 0.29 0.694 0.624 
0.471 0.584 0.592 0.624 
0.557 0.125 0.576 0.498 
0.333 0.208 0.51 0.498 
0.498 0.416 0.612 0.541 
0.196 0.125 0.388 0.376 
0.388 0.416 0.541 0.459 
0.529 0.376 0.561 0.498 
0.388 0.333 0.525 0.498 
0.557 0.541 0.847 1.0 
0.776 0.416 0.831 0.831 
0.612 0.416 0.812 0.875 
0.165 0.208 0.592 0.667 
0.667 0.208 0.812 0.71 
0.612 0.502 0.694 0.792 
0.694 0.416 0.761 0.831 
0.416 0.333 0.694 0.957 
0.612 0.416 0.761 0.71 
0.945 0.251 1.0 0.918 
0.722 0.502 0.796 0.918 
0.945 0.333 0.965 0.792 
0.667 0.541 0.796 0.831 
0.529 0.333 0.643 0.71 
0.584 0.333 0.78 0.831 
0.863 0.333 0.863 0.749 
0.584 0.333 0.78 0.875 
0.498 0.251 0.78 0.541 
0.557 0.584 0.78 0.957 
0.471 0.416 0.643 0.71 
0.667 0.459 0.78 0.957 
0.416 0.29 0.694 0.749 
0.667 0.541 0.796 1.0 
0.557 0.208 0.678 0.749 
0.529 0.584 0.745 0.918 
0.416 0.29 0.694 0.749 
0.557 0.376 0.78 0.71 
0.918 0.416 0.949 0.831 
0.835 0.376 0.898 0.71 
0.804 0.667 0.863 1.0 
0.584 0.29 0.729 0.749 
0.388 0.208 0.678 0.792 
0.584 0.502 0.729 0.918 
0.945 0.749 0.965 0.875 
0.471 0.082 0.678 0.584 
0.361 0.333 0.663 0.792 
0.557 0.29 0.663 0.71 
0.804 0.502 0.847 0.71 
0.498 0.416 0.51 0.71 
0.804 0.416 0.812 0.624 
1.0 0.749 0.914 0.792 
0.557 0.333 0.694 0.584 
0.945 0.416 0.863 0.918 
0.584 0.459 0.761 0.71 
0.722 0.459 0.745 0.831 
0.722 0.459 0.694 0.918 
0.694 0.502 0.831 0.918 
0.667 0.416 0.714 0.918 
0.612 0.416 0.714 0.792 
0.443 0.416 0.694 0.71 
Teaching Patterns
1.0 0.0 0.0 
1.0 0.0 0.0 
1.0 0.0 0.0 
1.0 0.0 0.0 
1.0 0.0 0.0 
1.0 0.0 0.0 
1.0 0.0 0.0 
1.0 0.0 0.0 
1.0 0.0 0.0 
1.0 0.0 0.0 
1.0 0.0 0.0 
1.0 0.0 0.0 
1.0 0.0 0.0 
1.0 0.0 0.0 
1.0 0.0 0.0 
1.0 0.0 0.0 
1.0 0.0 0.0 
1.0 0.0 0.0 
1.0 0.0 0.0 
1.0 0.0 0.0 
1.0 0.0 0.0 
1.0 0.0 0.0 
1.0 0.0 0.0 
1.0 0.0 0.0 
1.0 0.0 0.0 
1.0 0.0 0.0 
1.0 0.0 0.0 
1.0 0.0 0.0 
1.0 0.0 0.0 
1.0 0.0 0.0 
1.0 0.0 0.0 
1.0 0.0 0.0 
1.0 0.0 0.0 
1.0 0.0 0.0 
1.0 0.0 0.0 
1.0 0.0 0.0 
1.0 0.0 0.0 
1.0 0.0 0.0 
1.0 0.0 0.0 
1.0 0.0 0.0 
1.0 0.0 0.0 
1.0 0.0 0.0 
1.0 0.0 0.0 
1.0 0.0 0.0 
1.0 0.0 0.0 
1.0 0.0 0.0 
1.0 0.0 0.0 
1.0 0.0 0.0 
1.0 0.0 0.0 
1.0 0.0 0.0 
0.0 1.0 0.0 
0.0 1.0 0.0 
0.0 1.0 0.0 
0.0 1.0 0.0 
0.0 1.0 0.0 
0.0 1.0 0.0 
0.0 1.0 0.0 
0.0 1.0 0.0 
0.0 1.0 0.0 
0.0 1.0 0.0 
0.0 1.0 0.0 
0.0 1.0 0.0 
0.0 1.0 0.0 
0.0 1.0 0.0 
0.0 1.0 0.0 
0.0 1.0 0.0 
0.0 1.0 0.0 
0.0 1.0 0.0 
0.0 1.0 0.0 
0.0 1.0 0.0 
0.0 1.0 0.0 
0.0 1.0 0.0 
0.0 1.0 0.0 
0.0 1.0 0.0 
0.0 1.0 0.0 
0.0 1.0 0.0 
0.0 1.0 0.0 
0.0 1.0 0.0 
0.0 1.0 0.0 
0.0 1.0 0.0 
0.0 1.0 0.0 
0.0 1.0 0.0 
0.0 1.0 0.0 
0.0 1.0 0.0 
0.0 1.0 0.0 
0.0 1.0 0.0 
0.0 1.0 0.0 
0.0 1.0 0.0 
0.0 1.0 0.0 
0.0 1.0 0.0 
0.0 1.0 0.0 
0.0 1.0 0.0 
0.0 1.0 0.0 
0.0 1.0 0.0 
0.0 1.0 0.0 
0.0 1.0 0.0 
0.0 1.0 0.0 
0.0 1.0 0.0 
0.0 1.0 0.0 
0.0 1.0 0.0 
0.0 0.0 1.0 
0.0 0.0 1.0 
0.0 0.0 1.0 
0.0 0.0 1.0 
0.0 0.0 1.0 
0.0 0.0 1.0 
0.0 0.0 1.0 
0.0 0.0 1.0 
0.0 0.0 1.0 
0.0 0.0 1.0 
0.0 0.0 1.0 
0.0 0.0 1.0 
0.0 0.0 1.0 
0.0 0.0 1.0 
0.0 0.0 1.0 
0.0 0.0 1.0 
0.0 0.0 1.0 
0.0 0.0 1.0 
0.0 0.0 1.0 
0.0 0.0 1.0 
0.0 0.0 1.0 
0.0 0.0 1.0 
0.0 0.0 1.0 
0.0 0.0 1.0 
0.0 0.0 1.0 
0.0 0.0 1.0 
0.0 0.0 1.0 
0.0 0.0 1.0 
0.0 0.0 1.0 
0.0 0.0 1.0 
0.0 0.0 1.0 
0.0 0.0 1.0 
0.0 0.0 1.0 
0.0 0.0 1.0 
0.0 0.0 1.0 
0.0 0.0 1.0 
0.0 0.0 1.0 
0.0 0.0 1.0 
0.0 0.0 1.0 
0.0 0.0 1.0 
0.0 0.0 1.0 
0.0 0.0 1.0 
0.0 0.0 1.0 
0.0 0.0 1.0 
0.0 0.0 1.0 
0.0 0.0 1.0 
0.0 0.0 1.0 
0.0 0.0 1.0 
0.0 0.0 1.0 
0.0 0.0 1.0 
Learning : 0.05
Momentum : 0.800000011920929
Epoch: 100, Error: 0.03079230256069051
Epoch: 200, Error: 0.018826067521629897
Epoch: 300, Error: 0.01643310002477087
Epoch: 400, Error: 0.015181681417851148
Epoch: 500, Error: 0.01411430804613041
Epoch: 600, Error: 0.01362129242319479
Epoch: 700, Error: 0.013337551710637415
Epoch: 800, Error: 0.013203002655385931
Epoch: 900, Error: 0.013077631629708174
Epoch: 1000, Error: 0.012786592302010838
Epoch: 1100, Error: 0.012634336826539644
Epoch: 1200, Error: 0.012737196548716542
Epoch: 1300, Error: 0.012549212337732424
Epoch: 1400, Error: 0.012418913014726364
Epoch: 1500, Error: 0.012399277622347387
Epoch: 1600, Error: 0.012337051950444525
Epoch: 1700, Error: 0.012247720588089492
Epoch: 1800, Error: 0.012427576946855541
Epoch: 1900, Error: 0.012220752455300628
Epoch: 2000, Error: 0.01221150474422609
Epoch: 2100, Error: 0.012127241007319246
Epoch: 2200, Error: 0.012201150533391925
Epoch: 2300, Error: 0.012184569959540679
Epoch: 2400, Error: 0.012092524456960891
Epoch: 2500, Error: 0.012050150351723996
Epoch: 2600, Error: 0.012130419884406357
Epoch: 2700, Error: 0.012131168186020192
Epoch: 2800, Error: 0.012099955300675097
Epoch: 2900, Error: 0.012068377018484905
Epoch: 3000, Error: 0.012092918955137016
Epoch: 3100, Error: 0.012062681522368363
Epoch: 3200, Error: 0.012094491133517855
Epoch: 3300, Error: 0.01206666035492061
Epoch: 3400, Error: 0.012056308044656412
Epoch: 3500, Error: 0.01202124888792276
Epoch: 3600, Error: 0.012021805430385337
Epoch: 3700, Error: 0.01202995631611624
Epoch: 3800, Error: 0.011991821885859339
Epoch: 3900, Error: 0.012057431171839435
Epoch: 4000, Error: 0.012566641370853235
Epoch: 4100, Error: 0.012049855045834204
Epoch: 4200, Error: 0.012055578576163503
Epoch: 4300, Error: 0.012056205904623448
Epoch: 4400, Error: 0.012080595763951454
Epoch: 4500, Error: 0.011990569727568866
Epoch: 4600, Error: 0.012009897565502295
Epoch: 4700, Error: 0.01193283322138152
Epoch: 4800, Error: 0.011914673634909001
Epoch: 4900, Error: 0.011941341170352294
Epoch: 5000, Error: 0.01190007017894286
Epoch: 5100, Error: 0.011906353819505307
Epoch: 5200, Error: 0.011902873977523822
Epoch: 5300, Error: 0.011877315734256641
Epoch: 5400, Error: 0.01189126717936532
Epoch: 5500, Error: 0.012220398349669311
Epoch: 5600, Error: 0.011919490302218238
Epoch: 5700, Error: 0.011951874887791833
Epoch: 5800, Error: 0.011943496889980167
Epoch: 5900, Error: 0.011939255803792955
Epoch: 6000, Error: 0.011888765522613361
Epoch: 6100, Error: 0.011865733683096324
Epoch: 6200, Error: 0.01186817003904148
Epoch: 6300, Error: 0.011836327812765843
Epoch: 6400, Error: 0.011834196946937013
Epoch: 6500, Error: 0.011823904025030483
Epoch: 6600, Error: 0.011807293410726961
Epoch: 6700, Error: 0.01181360230724987
Epoch: 6800, Error: 0.011813312043423703
Epoch: 6900, Error: 0.011825485733446843
Epoch: 7000, Error: 0.01183421193961116
Epoch: 7100, Error: 0.011808260985000213
Epoch: 7200, Error: 0.011820417734367896
Epoch: 7300, Error: 0.011933327707783768
Epoch: 7400, Error: 0.011815871865295348
Epoch: 7500, Error: 0.011786407732928722
Epoch: 7600, Error: 0.011920399609369605
Epoch: 7700, Error: 0.011824513397001357
Epoch: 7800, Error: 0.011777774343952916
Epoch: 7900, Error: 0.01175548192107419
Epoch: 8000, Error: 0.01175337722853898
Epoch: 8100, Error: 0.011763706797465029
Epoch: 8200, Error: 0.011750684523945678
Epoch: 8300, Error: 0.01174221497094511
Epoch: 8400, Error: 0.011752156394514436
Epoch: 8500, Error: 0.011762496389716857
Epoch: 8600, Error: 0.011802595980846823
Epoch: 8700, Error: 0.011753285072148954
Epoch: 8800, Error: 0.011741738066164522
Epoch: 8900, Error: 0.011722251348640914
Epoch: 9000, Error: 0.011799182902536034
Epoch: 9100, Error: 0.011726649847906835
Epoch: 9200, Error: 0.011736608454519829
Epoch: 9300, Error: 0.011732062727461336
Epoch: 9400, Error: 0.011740741607801258
Epoch: 9500, Error: 0.011692802138832465
Epoch: 9600, Error: 0.011688240909164892
Epoch: 9700, Error: 0.01168894667475328
Epoch: 9800, Error: 0.011679036750055197
Epoch: 9900, Error: 0.011671104295837325
Epoch: 10000, Error: 0.011664620408666181
Epoch: 10100, Error: 0.011674063268037162
Epoch: 10200, Error: 0.01165512941439845
Epoch: 10300, Error: 0.01164699648995723
Epoch: 10400, Error: 0.011638041127822215
Epoch: 10500, Error: 0.011651978984707864
Epoch: 10600, Error: 0.011626190737312012
Epoch: 10700, Error: 0.011628317249844172
Epoch: 10800, Error: 0.011742028629128433
Epoch: 10900, Error: 0.011661513460664127
Epoch: 11000, Error: 0.011645467628396772
Epoch: 11100, Error: 0.01159452743480588
Epoch: 11200, Error: 0.01158782960370472
Epoch: 11300, Error: 0.011637307592685529
Epoch: 11400, Error: 0.011582566569605067
Epoch: 11500, Error: 0.011596843344168342
Epoch: 11600, Error: 0.011595879837819041
Epoch: 11700, Error: 0.011559161370724304
Epoch: 11800, Error: 0.011559653731220754
Epoch: 11900, Error: 0.011582937480000138
Epoch: 12000, Error: 0.011544099404526855
Epoch: 12100, Error: 0.01157410509890956
Epoch: 12200, Error: 0.011507043455849427
Epoch: 12300, Error: 0.011511261243597172
Epoch: 12400, Error: 0.011516133490444674
Epoch: 12500, Error: 0.011465869005893128
Epoch: 12600, Error: 0.011450729798394633
Epoch: 12700, Error: 0.011427255107191071
Epoch: 12800, Error: 0.011411598361255422
Epoch: 12900, Error: 0.01148678631909218
Epoch: 13000, Error: 0.011361007101892273
Epoch: 13100, Error: 0.011410241858166111
Epoch: 13200, Error: 0.01130980913854178
Epoch: 13300, Error: 0.011293082797528019
Epoch: 13400, Error: 0.011286760303462326
Epoch: 13500, Error: 0.011272441045440949
Epoch: 13600, Error: 0.011241538863163005
Epoch: 13700, Error: 0.011163056830650709
Epoch: 13800, Error: 0.011129481710675496
Epoch: 13900, Error: 0.011075108176272134
Epoch: 14000, Error: 0.01101701189090951
Epoch: 14100, Error: 0.01098539260827315
Epoch: 14200, Error: 0.01097573149766129
Epoch: 14300, Error: 0.010918234173260058
Epoch: 14400, Error: 0.010831382652574594
Epoch: 14500, Error: 0.010785190003383417
Epoch: 14600, Error: 0.010728658641263834
Epoch: 14700, Error: 0.010657764166378604
Epoch: 14800, Error: 0.010610487934252915
Epoch: 14900, Error: 0.010545359902329342
Epoch: 15000, Error: 0.010527812642113119
Epoch: 15100, Error: 0.010405560679854311
Epoch: 15200, Error: 0.0103113894439738
Epoch: 15300, Error: 0.010211510236587326
Epoch: 15400, Error: 0.010155300969594019
Epoch: 15500, Error: 0.010077950510657963
Epoch: 15600, Error: 0.009969627572990246
Epoch: 15700, Error: 0.009981043350569206
Epoch: 15800, Error: 0.00977635921235341
Epoch: 15900, Error: 0.00965882912519608
Epoch: 16000, Error: 0.009558892095193916
Epoch: 16100, Error: 0.009448970105881123
Epoch: 16200, Error: 0.009353947097191407
Epoch: 16300, Error: 0.009274378065662793
Epoch: 16400, Error: 0.009184308473317377
Epoch: 16500, Error: 0.009076127881408031
Epoch: 16600, Error: 0.008957284893143435
Epoch: 16700, Error: 0.008819806493174575
Epoch: 16800, Error: 0.008750908695549191
Epoch: 16900, Error: 0.008615786757845405
Epoch: 17000, Error: 0.008516800560774527
Epoch: 17100, Error: 0.008410459481966143
Epoch: 17200, Error: 0.008356147268480284
Epoch: 17300, Error: 0.00835532494533022
Epoch: 17400, Error: 0.008118565942868895
Epoch: 17500, Error: 0.008021363848262195
Epoch: 17600, Error: 0.007975219061725096
Epoch: 17700, Error: 0.007856728819797315
Epoch: 17800, Error: 0.007764343159580771
Epoch: 17900, Error: 0.007696078004954671
Epoch: 18000, Error: 0.007607298513246192
Epoch: 18100, Error: 0.007526395793066524
Epoch: 18200, Error: 0.007482768051595415
Epoch: 18300, Error: 0.007389819503661525
Epoch: 18400, Error: 0.007317196946781241
Epoch: 18500, Error: 0.007252370656761045
Epoch: 18600, Error: 0.007190833853621123
Epoch: 18700, Error: 0.007127585018990234
Epoch: 18800, Error: 0.00704462201078734
Epoch: 18900, Error: 0.006979981389769774
Epoch: 19000, Error: 0.00695391957543683
Epoch: 19100, Error: 0.006872029049379858
Epoch: 19200, Error: 0.006833554342453104
Epoch: 19300, Error: 0.006785525003852493
Epoch: 19400, Error: 0.006662627112810534
Epoch: 19500, Error: 0.00659588957337963
Epoch: 19600, Error: 0.00653194946491189
Epoch: 19700, Error: 0.006503862330380042
Epoch: 19800, Error: 0.006435633980052947
Epoch: 19900, Error: 0.006397975372928236
Epoch: 20000, Error: 0.006338970560017849
Epoch: 20100, Error: 0.006297325574613064
Epoch: 20200, Error: 0.006270149899904822
Epoch: 20300, Error: 0.006224751911363053
Epoch: 20400, Error: 0.0061891855944343705
Epoch: 20500, Error: 0.006162799288072303
Epoch: 20600, Error: 0.006140851870622641
Epoch: 20700, Error: 0.006111323300754449
Epoch: 20800, Error: 0.006071032616334605
Epoch: 20900, Error: 0.006041306207418507
Epoch: 21000, Error: 0.006020315638065587
Epoch: 21100, Error: 0.0059939972663671575
Epoch: 21200, Error: 0.005946687803109085
Epoch: 21300, Error: 0.005914288558779189
Epoch: 21400, Error: 0.0058932914277811015
Epoch: 21500, Error: 0.005876970541647273
Epoch: 21600, Error: 0.005835055479195383
Epoch: 21700, Error: 0.00582316915648638
Epoch: 21800, Error: 0.005809176046872812
Epoch: 21900, Error: 0.005779251683607331
Epoch: 22000, Error: 0.005760738249665449
Epoch: 22100, Error: 0.005748822793743908
Epoch: 22200, Error: 0.005727800363513113
Epoch: 22300, Error: 0.0057300585954462
Epoch: 22400, Error: 0.005701995337821706
Epoch: 22500, Error: 0.005705875488209012
Epoch: 22600, Error: 0.005680783461952249
Epoch: 22700, Error: 0.005644359344893878
Epoch: 22800, Error: 0.005644581126919505
Epoch: 22900, Error: 0.0056178402528663865
Epoch: 23000, Error: 0.005587606911527618
Epoch: 23100, Error: 0.005571862167014892
Epoch: 23200, Error: 0.005561292688532027
Epoch: 23300, Error: 0.005578142941789453
Epoch: 23400, Error: 0.005531455206736212
Epoch: 23500, Error: 0.005519221364499919
Epoch: 23600, Error: 0.005513993721678429
Epoch: 23700, Error: 0.005493033442138872
Epoch: 23800, Error: 0.0054801188986277095
Epoch: 23900, Error: 0.005458431535554122
Epoch: 24000, Error: 0.005466242473796875
Epoch: 24100, Error: 0.005448988499142449
Epoch: 24200, Error: 0.005442086034195659
Epoch: 24300, Error: 0.005418847808321634
Epoch: 24400, Error: 0.00540508774897917
Epoch: 24500, Error: 0.005415198718033827
Epoch: 24600, Error: 0.00540739863713971
Epoch: 24700, Error: 0.005407543423774012
Epoch: 24800, Error: 0.005382798344234536
Epoch: 24900, Error: 0.005341730290758832
Epoch: 25000, Error: 0.005359221398673571
Epoch: 25100, Error: 0.005339834655154147
Epoch: 25200, Error: 0.005324591513031269
Epoch: 25300, Error: 0.0053259712667806745
Epoch: 25400, Error: 0.005309093283898788
Epoch: 25500, Error: 0.005307021145310702
Epoch: 25600, Error: 0.005291634660745949
Epoch: 25700, Error: 0.005284075391762133
Epoch: 25800, Error: 0.00527555398715791
Finished
Input Patterns
0.224 0.624 0.067 0.043 
0.11 0.502 0.051 0.043 
0.196 0.667 0.067 0.043 
0.055 0.584 0.067 0.082 
0.027 0.376 0.067 0.043 
0.306 0.71 0.086 0.043 
0.137 0.416 0.067 0.0 
0.416 0.831 0.035 0.043 
0.306 0.792 0.051 0.125 
0.388 0.749 0.118 0.082 
0.306 0.584 0.118 0.043 
0.082 0.667 0.0 0.043 
0.137 0.584 0.153 0.043 
0.196 0.584 0.102 0.125 
0.251 0.584 0.067 0.043 
0.137 0.459 0.102 0.043 
0.251 0.875 0.086 0.0 
0.165 0.459 0.086 0.043 
0.333 0.624 0.051 0.043 
0.027 0.416 0.051 0.043 
0.196 0.624 0.051 0.082 
0.027 0.502 0.051 0.043 
0.224 0.749 0.153 0.125 
0.224 0.749 0.102 0.043 
0.278 0.71 0.086 0.043 
0.165 0.416 0.067 0.043 
0.082 0.459 0.086 0.043 
0.306 0.792 0.118 0.125 
0.196 0.584 0.086 0.043 
0.165 0.459 0.086 0.0 
0.137 0.584 0.102 0.043 
0.0 0.416 0.016 0.0 
0.388 1.0 0.086 0.125 
0.224 0.624 0.067 0.082 
0.224 0.749 0.086 0.082 
0.224 0.71 0.086 0.125 
0.224 0.541 0.118 0.165 
0.196 0.416 0.102 0.043 
0.251 0.624 0.086 0.043 
0.11 0.502 0.102 0.043 
0.306 0.584 0.086 0.125 
0.333 0.918 0.067 0.043 
0.196 0.502 0.035 0.043 
0.165 0.667 0.067 0.0 
0.224 0.584 0.086 0.043 
0.055 0.125 0.051 0.082 
0.196 0.624 0.102 0.208 
0.137 0.416 0.067 0.082 
0.082 0.502 0.067 0.043 
0.196 0.541 0.067 0.043 
0.749 0.502 0.627 0.541 
0.722 0.459 0.663 0.584 
0.612 0.333 0.612 0.584 
0.557 0.541 0.627 0.624 
0.639 0.376 0.612 0.498 
0.196 0.0 0.424 0.376 
0.471 0.082 0.51 0.376 
0.361 0.376 0.439 0.498 
0.361 0.416 0.592 0.584 
0.529 0.082 0.592 0.584 
0.443 0.502 0.643 0.459 
0.557 0.208 0.663 0.584 
0.584 0.376 0.561 0.498 
0.694 0.333 0.643 0.541 
0.471 0.376 0.592 0.584 
0.333 0.169 0.475 0.416 
0.416 0.29 0.49 0.459 
0.306 0.416 0.592 0.584 
0.667 0.459 0.627 0.584 
0.361 0.416 0.525 0.498 
0.333 0.251 0.576 0.459 
0.416 0.251 0.51 0.459 
0.361 0.29 0.541 0.498 
0.388 0.376 0.541 0.498 
0.224 0.208 0.337 0.416 
0.584 0.502 0.592 0.584 
0.333 0.125 0.51 0.498 
0.388 0.333 0.592 0.498 
0.165 0.169 0.388 0.376 
0.251 0.29 0.49 0.541 
0.443 0.416 0.541 0.584 
0.498 0.376 0.627 0.541 
0.667 0.459 0.576 0.541 
0.416 0.29 0.525 0.376 
0.361 0.208 0.49 0.416 
0.498 0.333 0.51 0.498 
0.498 0.333 0.627 0.459 
0.639 0.416 0.576 0.541 
0.667 0.416 0.678 0.667 
0.388 0.251 0.424 0.376 
0.333 0.169 0.459 0.376 
0.471 0.29 0.694 0.624 
0.471 0.584 0.592 0.624 
0.557 0.125 0.576 0.498 
0.333 0.208 0.51 0.498 
0.498 0.416 0.612 0.541 
0.196 0.125 0.388 0.376 
0.388 0.416 0.541 0.459 
0.529 0.376 0.561 0.498 
0.388 0.333 0.525 0.498 
0.557 0.541 0.847 1.0 
0.776 0.416 0.831 0.831 
0.612 0.416 0.812 0.875 
0.165 0.208 0.592 0.667 
0.667 0.208 0.812 0.71 
0.612 0.502 0.694 0.792 
0.694 0.416 0.761 0.831 
0.416 0.333 0.694 0.957 
0.612 0.416 0.761 0.71 
0.945 0.251 1.0 0.918 
0.722 0.502 0.796 0.918 
0.945 0.333 0.965 0.792 
0.667 0.541 0.796 0.831 
0.529 0.333 0.643 0.71 
0.584 0.333 0.78 0.831 
0.863 0.333 0.863 0.749 
0.584 0.333 0.78 0.875 
0.498 0.251 0.78 0.541 
0.557 0.584 0.78 0.957 
0.471 0.416 0.643 0.71 
0.667 0.459 0.78 0.957 
0.416 0.29 0.694 0.749 
0.667 0.541 0.796 1.0 
0.557 0.208 0.678 0.749 
0.529 0.584 0.745 0.918 
0.416 0.29 0.694 0.749 
0.557 0.376 0.78 0.71 
0.918 0.416 0.949 0.831 
0.835 0.376 0.898 0.71 
0.804 0.667 0.863 1.0 
0.584 0.29 0.729 0.749 
0.388 0.208 0.678 0.792 
0.584 0.502 0.729 0.918 
0.945 0.749 0.965 0.875 
0.471 0.082 0.678 0.584 
0.361 0.333 0.663 0.792 
0.557 0.29 0.663 0.71 
0.804 0.502 0.847 0.71 
0.498 0.416 0.51 0.71 
0.804 0.416 0.812 0.624 
1.0 0.749 0.914 0.792 
0.557 0.333 0.694 0.584 
0.945 0.416 0.863 0.918 
0.584 0.459 0.761 0.71 
0.722 0.459 0.745 0.831 
0.722 0.459 0.694 0.918 
0.694 0.502 0.831 0.918 
0.667 0.416 0.714 0.918 
0.612 0.416 0.714 0.792 
0.443 0.416 0.694 0.71 
Teaching Patterns
1.0 0.0 0.0 
1.0 0.0 0.0 
1.0 0.0 0.0 
1.0 0.0 0.0 
1.0 0.0 0.0 
1.0 0.0 0.0 
1.0 0.0 0.0 
1.0 0.0 0.0 
1.0 0.0 0.0 
1.0 0.0 0.0 
1.0 0.0 0.0 
1.0 0.0 0.0 
1.0 0.0 0.0 
1.0 0.0 0.0 
1.0 0.0 0.0 
1.0 0.0 0.0 
1.0 0.0 0.0 
1.0 0.0 0.0 
1.0 0.0 0.0 
1.0 0.0 0.0 
1.0 0.0 0.0 
1.0 0.0 0.0 
1.0 0.0 0.0 
1.0 0.0 0.0 
1.0 0.0 0.0 
1.0 0.0 0.0 
1.0 0.0 0.0 
1.0 0.0 0.0 
1.0 0.0 0.0 
1.0 0.0 0.0 
1.0 0.0 0.0 
1.0 0.0 0.0 
1.0 0.0 0.0 
1.0 0.0 0.0 
1.0 0.0 0.0 
1.0 0.0 0.0 
1.0 0.0 0.0 
1.0 0.0 0.0 
1.0 0.0 0.0 
1.0 0.0 0.0 
1.0 0.0 0.0 
1.0 0.0 0.0 
1.0 0.0 0.0 
1.0 0.0 0.0 
1.0 0.0 0.0 
1.0 0.0 0.0 
1.0 0.0 0.0 
1.0 0.0 0.0 
1.0 0.0 0.0 
1.0 0.0 0.0 
0.0 1.0 0.0 
0.0 1.0 0.0 
0.0 1.0 0.0 
0.0 1.0 0.0 
0.0 1.0 0.0 
0.0 1.0 0.0 
0.0 1.0 0.0 
0.0 1.0 0.0 
0.0 1.0 0.0 
0.0 1.0 0.0 
0.0 1.0 0.0 
0.0 1.0 0.0 
0.0 1.0 0.0 
0.0 1.0 0.0 
0.0 1.0 0.0 
0.0 1.0 0.0 
0.0 1.0 0.0 
0.0 1.0 0.0 
0.0 1.0 0.0 
0.0 1.0 0.0 
0.0 1.0 0.0 
0.0 1.0 0.0 
0.0 1.0 0.0 
0.0 1.0 0.0 
0.0 1.0 0.0 
0.0 1.0 0.0 
0.0 1.0 0.0 
0.0 1.0 0.0 
0.0 1.0 0.0 
0.0 1.0 0.0 
0.0 1.0 0.0 
0.0 1.0 0.0 
0.0 1.0 0.0 
0.0 1.0 0.0 
0.0 1.0 0.0 
0.0 1.0 0.0 
0.0 1.0 0.0 
0.0 1.0 0.0 
0.0 1.0 0.0 
0.0 1.0 0.0 
0.0 1.0 0.0 
0.0 1.0 0.0 
0.0 1.0 0.0 
0.0 1.0 0.0 
0.0 1.0 0.0 
0.0 1.0 0.0 
0.0 1.0 0.0 
0.0 1.0 0.0 
0.0 1.0 0.0 
0.0 1.0 0.0 
0.0 0.0 1.0 
0.0 0.0 1.0 
0.0 0.0 1.0 
0.0 0.0 1.0 
0.0 0.0 1.0 
0.0 0.0 1.0 
0.0 0.0 1.0 
0.0 0.0 1.0 
0.0 0.0 1.0 
0.0 0.0 1.0 
0.0 0.0 1.0 
0.0 0.0 1.0 
0.0 0.0 1.0 
0.0 0.0 1.0 
0.0 0.0 1.0 
0.0 0.0 1.0 
0.0 0.0 1.0 
0.0 0.0 1.0 
0.0 0.0 1.0 
0.0 0.0 1.0 
0.0 0.0 1.0 
0.0 0.0 1.0 
0.0 0.0 1.0 
0.0 0.0 1.0 
0.0 0.0 1.0 
0.0 0.0 1.0 
0.0 0.0 1.0 
0.0 0.0 1.0 
0.0 0.0 1.0 
0.0 0.0 1.0 
0.0 0.0 1.0 
0.0 0.0 1.0 
0.0 0.0 1.0 
0.0 0.0 1.0 
0.0 0.0 1.0 
0.0 0.0 1.0 
0.0 0.0 1.0 
0.0 0.0 1.0 
0.0 0.0 1.0 
0.0 0.0 1.0 
0.0 0.0 1.0 
0.0 0.0 1.0 
0.0 0.0 1.0 
0.0 0.0 1.0 
0.0 0.0 1.0 
0.0 0.0 1.0 
0.0 0.0 1.0 
0.0 0.0 1.0 
0.0 0.0 1.0 
0.0 0.0 1.0 
Learning : 0.05
Momentum : 0.800000011920929
Epoch: 100, Error: 0.027607945013410323
Epoch: 200, Error: 0.018285838041526357
Epoch: 300, Error: 0.016070724118297176
Epoch: 400, Error: 0.015196733435642592
Epoch: 500, Error: 0.015383920796031845
Epoch: 600, Error: 0.013848378156047749
Epoch: 700, Error: 0.013706333501080296
Epoch: 800, Error: 0.013445459385048838
Epoch: 900, Error: 0.013198040528870884
Epoch: 1000, Error: 0.013116396336516936
Epoch: 1100, Error: 0.012970743827865103
Epoch: 1200, Error: 0.01271722184460401
Epoch: 1300, Error: 0.012670804257055749
Epoch: 1400, Error: 0.012730553372527684
Epoch: 1500, Error: 0.012775414260482084
Epoch: 1600, Error: 0.012646818944273655
Epoch: 1700, Error: 0.012529115375642474
Epoch: 1800, Error: 0.012462719358382387
Epoch: 1900, Error: 0.012416599956814989
Epoch: 2000, Error: 0.012386988802237193
Epoch: 2100, Error: 0.01249659997001338
Epoch: 2200, Error: 0.012418537526251966
Epoch: 2300, Error: 0.012504596404785373
Epoch: 2400, Error: 0.012598609723586627
Epoch: 2500, Error: 0.012377088273088598
Epoch: 2600, Error: 0.012484598693736743
Epoch: 2700, Error: 0.012386553057537957
Epoch: 2800, Error: 0.012228005074899842
Epoch: 2900, Error: 0.012278905853873291
Epoch: 3000, Error: 0.012270807605024168
Epoch: 3100, Error: 0.01225169234409496
Epoch: 3200, Error: 0.012322780846942242
Epoch: 3300, Error: 0.012335479944755853
Epoch: 3400, Error: 0.012169762245158828
Epoch: 3500, Error: 0.012307794153825762
Epoch: 3600, Error: 0.012307682694235307
Epoch: 3700, Error: 0.012256470283491413
Epoch: 3800, Error: 0.012148027958044441
Epoch: 3900, Error: 0.012179867343307005
Epoch: 4000, Error: 0.01218410637356554
Epoch: 4100, Error: 0.012170160346982104
Epoch: 4200, Error: 0.012180140827222493
Epoch: 4300, Error: 0.012114310631354989
Epoch: 4400, Error: 0.012182855005140148
Epoch: 4500, Error: 0.012156228133418752
Epoch: 4600, Error: 0.01216906322993848
Epoch: 4700, Error: 0.012069613503749847
Epoch: 4800, Error: 0.011989839698050692
Epoch: 4900, Error: 0.01195045505656768
Epoch: 5000, Error: 0.012020740128769478
Epoch: 5100, Error: 0.011994284681847345
Epoch: 5200, Error: 0.01197193574718947
Epoch: 5300, Error: 0.012044233545365346
Epoch: 5400, Error: 0.011941500413957196
Epoch: 5500, Error: 0.012317793954181484
Epoch: 5600, Error: 0.012012364956743396
Epoch: 5700, Error: 0.011984797317162656
Epoch: 5800, Error: 0.011998055047279016
Epoch: 5900, Error: 0.012076318497045224
Epoch: 6000, Error: 0.012013815939890505
Epoch: 6100, Error: 0.011977183275008841
Epoch: 6200, Error: 0.011945441499907663
Epoch: 6300, Error: 0.011930783411363543
Epoch: 6400, Error: 0.011926489894250275
Epoch: 6500, Error: 0.011962983229240323
Epoch: 6600, Error: 0.011906423663917738
Epoch: 6700, Error: 0.011847661269571515
Epoch: 6800, Error: 0.011899031225391607
Epoch: 6900, Error: 0.011867557628617704
Epoch: 7000, Error: 0.01184268722166215
Epoch: 7100, Error: 0.01182427344664517
Epoch: 7200, Error: 0.01186027830403354
Epoch: 7300, Error: 0.01176696089467412
Epoch: 7400, Error: 0.011783234958651169
Epoch: 7500, Error: 0.011747963181178026
Epoch: 7600, Error: 0.011692256223951711
Epoch: 7700, Error: 0.011665729306163407
Epoch: 7800, Error: 0.01167501660108198
Epoch: 7900, Error: 0.011648414322345356
Epoch: 8000, Error: 0.011722918746992678
Epoch: 8100, Error: 0.011654345961417841
Epoch: 8200, Error: 0.01159320873280378
Epoch: 8300, Error: 0.011585477363659042
Epoch: 8400, Error: 0.01156385475950435
Epoch: 8500, Error: 0.011589788185306904
Epoch: 8600, Error: 0.011532978652436816
Epoch: 8700, Error: 0.011528903016204814
Epoch: 8800, Error: 0.011476859955328374
Epoch: 8900, Error: 0.011476125174267736
Epoch: 9000, Error: 0.01141177071833351
Epoch: 9100, Error: 0.011388856792922493
Epoch: 9200, Error: 0.011372005183264674
Epoch: 9300, Error: 0.011430347257295151
Epoch: 9400, Error: 0.011296374325850308
Epoch: 9500, Error: 0.011258104294039525
Epoch: 9600, Error: 0.01123445596868376
Epoch: 9700, Error: 0.011239331631883837
Epoch: 9800, Error: 0.011162887672018756
Epoch: 9900, Error: 0.011226241441285756
Epoch: 10000, Error: 0.0110918668752102
Epoch: 10100, Error: 0.0112912807032489
Epoch: 10200, Error: 0.010973340439329423
Epoch: 10300, Error: 0.010900035168898136
Epoch: 10400, Error: 0.010960421840163981
Epoch: 10500, Error: 0.010845330656729081
Epoch: 10600, Error: 0.010789343170633516
Epoch: 10700, Error: 0.010714311644019252
Epoch: 10800, Error: 0.01062943049235953
Epoch: 10900, Error: 0.01054315460213371
Epoch: 11000, Error: 0.010458234273594923
Epoch: 11100, Error: 0.01040049999935266
Epoch: 11200, Error: 0.010287917488282616
Epoch: 11300, Error: 0.010267541001081787
Epoch: 11400, Error: 0.010107358010504238
Epoch: 11500, Error: 0.010023846042201669
Epoch: 11600, Error: 0.009918298241152075
Epoch: 11700, Error: 0.009802127965838648
Epoch: 11800, Error: 0.009698711767763204
Epoch: 11900, Error: 0.009603437425067687
Epoch: 12000, Error: 0.009465090179994716
Epoch: 12100, Error: 0.009370267329198762
Epoch: 12200, Error: 0.009317829077097195
Epoch: 12300, Error: 0.009083309508098415
Epoch: 12400, Error: 0.008951922680211064
Epoch: 12500, Error: 0.008824110629252943
Epoch: 12600, Error: 0.008692950335663564
Epoch: 12700, Error: 0.008561751675460427
Epoch: 12800, Error: 0.008434339771539892
Epoch: 12900, Error: 0.008340482836125703
Epoch: 13000, Error: 0.008278760462878046
Epoch: 13100, Error: 0.008083804324186976
Epoch: 13200, Error: 0.007982408155164647
Epoch: 13300, Error: 0.007902379280735568
Epoch: 13400, Error: 0.007787352478508843
Epoch: 13500, Error: 0.007689772064057256
Epoch: 13600, Error: 0.00761163056209015
Epoch: 13700, Error: 0.007522511997127657
Epoch: 13800, Error: 0.007472455345302727
Epoch: 13900, Error: 0.0075397653773437365
Epoch: 14000, Error: 0.007345888473307626
Epoch: 14100, Error: 0.007271961258351264
Epoch: 14200, Error: 0.007233441335353647
Epoch: 14300, Error: 0.007133709894607748
Epoch: 14400, Error: 0.00706786119493279
Epoch: 14500, Error: 0.007010032437122476
Epoch: 14600, Error: 0.006964934274043653
Epoch: 14700, Error: 0.006913922000487234
Epoch: 14800, Error: 0.006853905955810407
Epoch: 14900, Error: 0.006813479978542994
Epoch: 15000, Error: 0.006774842075465912
Epoch: 15100, Error: 0.006732137783208993
Epoch: 15200, Error: 0.006697146405260082
Epoch: 15300, Error: 0.006682231880856445
Epoch: 15400, Error: 0.006637639299954706
Epoch: 15500, Error: 0.006586869124039295
Epoch: 15600, Error: 0.00657436668311474
Epoch: 15700, Error: 0.006539597452756002
Epoch: 15800, Error: 0.006524020855204914
Epoch: 15900, Error: 0.006504325118019723
Epoch: 16000, Error: 0.006463193168985682
Epoch: 16100, Error: 0.00643894267461455
Epoch: 16200, Error: 0.006422349909652655
Epoch: 16300, Error: 0.006381469124701717
Epoch: 16400, Error: 0.00633178652594101
Epoch: 16500, Error: 0.006297383710679821
Epoch: 16600, Error: 0.006284259024200705
Epoch: 16700, Error: 0.0062748997513109315
Epoch: 16800, Error: 0.006229385764507519
Epoch: 16900, Error: 0.0061741644084177625
Epoch: 17000, Error: 0.006150985364811033
Epoch: 17100, Error: 0.00609094531235385
Epoch: 17200, Error: 0.006049584345424654
Epoch: 17300, Error: 0.006009914676497191
Epoch: 17400, Error: 0.006000943322984977
Epoch: 17500, Error: 0.005977265236668409
Epoch: 17600, Error: 0.005905066787723159
Epoch: 17700, Error: 0.0058959209373814275
Epoch: 17800, Error: 0.0058647714550139
Epoch: 17900, Error: 0.005846268533396363
Epoch: 18000, Error: 0.005833547489133504
Epoch: 18100, Error: 0.005774609261715828
Epoch: 18200, Error: 0.005759812570350082
Epoch: 18300, Error: 0.005746922753578476
Epoch: 18400, Error: 0.005776105157348102
Epoch: 18500, Error: 0.00573324158252264
Epoch: 18600, Error: 0.005702544613532933
Epoch: 18700, Error: 0.005683129175097188
Epoch: 18800, Error: 0.005628771515888301
Epoch: 18900, Error: 0.005600102181802629
Epoch: 19000, Error: 0.005570977991935313
Epoch: 19100, Error: 0.005559072687642909
Epoch: 19200, Error: 0.0055166647517389585
Epoch: 19300, Error: 0.0054887622142787565
Epoch: 19400, Error: 0.005491689884657838
Epoch: 19500, Error: 0.00546505093627194
Epoch: 19600, Error: 0.005413069828751732
Epoch: 19700, Error: 0.005390954338491345
Epoch: 19800, Error: 0.005377522328881071
Epoch: 19900, Error: 0.005373023501491112
Epoch: 20000, Error: 0.0053122798579777804
Epoch: 20100, Error: 0.005333121341538268
Epoch: 20200, Error: 0.005267655586924818
Epoch: 20300, Error: 0.005227263352154747
Epoch: 20400, Error: 0.005206480760683435
Epoch: 20500, Error: 0.00521475587309461
Epoch: 20600, Error: 0.005183103836552536
Epoch: 20700, Error: 0.005143896974895291
Epoch: 20800, Error: 0.005169745460647901
Epoch: 20900, Error: 0.005163252370752498
Epoch: 21000, Error: 0.005103138030135251
Epoch: 21100, Error: 0.005086500770214493
Epoch: 21200, Error: 0.005079807971337475
Epoch: 21300, Error: 0.005052127963427001
Epoch: 21400, Error: 0.005028178727513457
Epoch: 21500, Error: 0.005056576541314948
Epoch: 21600, Error: 0.005046476307918948
Epoch: 21700, Error: 0.004977903436310735
Epoch: 21800, Error: 0.0049569035506056795
Epoch: 21900, Error: 0.004942357678460953
Epoch: 22000, Error: 0.00493079164128543
Epoch: 22100, Error: 0.0048973571578629325
Epoch: 22200, Error: 0.0048909975481546165
Epoch: 22300, Error: 0.0048675984488973445
Epoch: 22400, Error: 0.004882868309968112
Epoch: 22500, Error: 0.0048485778579033184
Epoch: 22600, Error: 0.004852049987256096
Epoch: 22700, Error: 0.004833245082577389
Epoch: 22800, Error: 0.004784136588960207
Epoch: 22900, Error: 0.004770027978342169
Epoch: 23000, Error: 0.004747449388373127
Epoch: 23100, Error: 0.004723643045493323
Epoch: 23200, Error: 0.004718479575549532
Epoch: 23300, Error: 0.004699466978315698
Epoch: 23400, Error: 0.0046713000954598976
Epoch: 23500, Error: 0.004682170611829206
Epoch: 23600, Error: 0.004646326803531231
Epoch: 23700, Error: 0.0046275987498639115
Epoch: 23800, Error: 0.004599700116593536
Epoch: 23900, Error: 0.00471373421509617
Epoch: 24000, Error: 0.004563498501690496
Epoch: 24100, Error: 0.004555362769766545
Epoch: 24200, Error: 0.004531651095404014
Epoch: 24300, Error: 0.0045391029923539175
Epoch: 24400, Error: 0.0044924193099330975
Epoch: 24500, Error: 0.004482886732224576
Epoch: 24600, Error: 0.004479858424006836
Epoch: 24700, Error: 0.004449128889020682
Epoch: 24800, Error: 0.004441827833119504
Epoch: 24900, Error: 0.004428904332279151
Epoch: 25000, Error: 0.004407158051113868
Epoch: 25100, Error: 0.004361275172492621
Epoch: 25200, Error: 0.004348185761477245
Epoch: 25300, Error: 0.004355136493494476
Epoch: 25400, Error: 0.0042977876105095925
Epoch: 25500, Error: 0.0042797300187842275
Epoch: 25600, Error: 0.004317786599691925
Epoch: 25700, Error: 0.004252977919006885
Epoch: 25800, Error: 0.00424102036048495
Epoch: 25900, Error: 0.004258245838394614
Epoch: 26000, Error: 0.0041898085400322764
Epoch: 26100, Error: 0.004190494072518988
Epoch: 26200, Error: 0.00416019062605991
Epoch: 26300, Error: 0.0041772923178940375
Epoch: 26400, Error: 0.00414066622152143
Epoch: 26500, Error: 0.004108308135716403
Epoch: 26600, Error: 0.0041604632309854665
Epoch: 26700, Error: 0.004090060339228889
Epoch: 26800, Error: 0.0041172445086914795
Epoch: 26900, Error: 0.004119082296226064
Epoch: 27000, Error: 0.004105275638715819
Epoch: 27100, Error: 0.004083932598184963
Epoch: 27200, Error: 0.004073189404807023
Epoch: 27300, Error: 0.0041121288149301525
Epoch: 27400, Error: 0.0040460533653416874
Epoch: 27500, Error: 0.004083244874867398
Epoch: 27600, Error: 0.004044463382738972
Epoch: 27700, Error: 0.004061132929905403
Epoch: 27800, Error: 0.0040149402736043005
Epoch: 27900, Error: 0.003981713648265252
Epoch: 28000, Error: 0.003968016564192002
Epoch: 28100, Error: 0.003941947053029722
Epoch: 28200, Error: 0.003945996086782841
Epoch: 28300, Error: 0.003940495438891697
Epoch: 28400, Error: 0.003913246963713854
Epoch: 28500, Error: 0.0038913128345268626
Epoch: 28600, Error: 0.0038832737066350374
Epoch: 28700, Error: 0.0038931436693414186
Epoch: 28800, Error: 0.003871387281930914
Epoch: 28900, Error: 0.003846587880460637
Epoch: 29000, Error: 0.00379092827035029
Epoch: 29100, Error: 0.0038009302550133773
Epoch: 29200, Error: 0.0037645247299433865
Epoch: 29300, Error: 0.0037317160257342575
Epoch: 29400, Error: 0.0037903506918893328
Epoch: 29500, Error: 0.0037347488815668377
Epoch: 29600, Error: 0.003736701606445927
Epoch: 29700, Error: 0.003670580899468744
Epoch: 29800, Error: 0.003653018182075937
Epoch: 29900, Error: 0.0036626153833386015
Epoch: 30000, Error: 0.003640446696569524
Epoch: 30100, Error: 0.0035884991744565176
Epoch: 30200, Error: 0.0036384501519258166
Epoch: 30300, Error: 0.0035705075633301556
Epoch: 30400, Error: 0.0035155096429009894
Epoch: 30500, Error: 0.0034970774058470273
Epoch: 30600, Error: 0.0034584069717754572
Epoch: 30700, Error: 0.0034538773321755416
Epoch: 30800, Error: 0.0034629939709473023
Epoch: 30900, Error: 0.0034140817240213596
Epoch: 31000, Error: 0.0034392081957771692
Epoch: 31100, Error: 0.0033883517729313265
Epoch: 31200, Error: 0.003384305926370309
Epoch: 31300, Error: 0.003360354426746085
Epoch: 31400, Error: 0.0033097176894911363
Epoch: 31500, Error: 0.003317800182480905
Epoch: 31600, Error: 0.0032965836035766154
Epoch: 31700, Error: 0.0032488133974548517
Epoch: 31800, Error: 0.003232798495117732
Epoch: 31900, Error: 0.003248230509119528
Epoch: 32000, Error: 0.0032509462794017723
Epoch: 32100, Error: 0.0031634579048109308
Epoch: 32200, Error: 0.0032165016756411286
Epoch: 32300, Error: 0.003184289777018062
Epoch: 32400, Error: 0.003171229428143093
Epoch: 32500, Error: 0.003204460876977301
Epoch: 32600, Error: 0.00311213249802039
Epoch: 32700, Error: 0.0030708783203205595
Epoch: 32800, Error: 0.00307797745594404
Epoch: 32900, Error: 0.0030593796115535128
Epoch: 33000, Error: 0.003004183639046531
Epoch: 33100, Error: 0.0029877662179100487
Epoch: 33200, Error: 0.0030007177483523
Epoch: 33300, Error: 0.0029504244503996873
Epoch: 33400, Error: 0.002945460975518112
Epoch: 33500, Error: 0.00293292972718446
Epoch: 33600, Error: 0.0028952028037466325
Epoch: 33700, Error: 0.002934289622970198
Epoch: 33800, Error: 0.00288368375998349
Epoch: 33900, Error: 0.0028219617861194226
Epoch: 34000, Error: 0.002796520772694515
Epoch: 34100, Error: 0.002790950438077305
Epoch: 34200, Error: 0.0027553687160645386
Epoch: 34300, Error: 0.0027568598199894036
Epoch: 34400, Error: 0.003407346041956405
Epoch: 34500, Error: 0.002784374750269935
Epoch: 34600, Error: 0.0027062384781285967
Epoch: 34700, Error: 0.002664155278306235
Epoch: 34800, Error: 0.002708144686669251
Epoch: 34900, Error: 0.0026299334856901523
Epoch: 35000, Error: 0.002637977205245091
Epoch: 35100, Error: 0.002605181766318572
Epoch: 35200, Error: 0.002607923553950518
Epoch: 35300, Error: 0.0025713003694249645
Epoch: 35400, Error: 0.002580526447624478
Epoch: 35500, Error: 0.0025913839650599855
Epoch: 35600, Error: 0.0025505967301159777
Epoch: 35700, Error: 0.0025085666812580667
Epoch: 35800, Error: 0.0025040857086490176
Epoch: 35900, Error: 0.0025013738594715897
Epoch: 36000, Error: 0.0024684109979953004
Epoch: 36100, Error: 0.002497857545801071
Epoch: 36200, Error: 0.002442636205281171
Epoch: 36300, Error: 0.002478087130366576
Epoch: 36400, Error: 0.002499455002506559
Epoch: 36500, Error: 0.0024830664193439805
Epoch: 36600, Error: 0.0024480373613240906
Epoch: 36700, Error: 0.002453923128544039
Epoch: 36800, Error: 0.0024710896158122012
Epoch: 36900, Error: 0.0023778074838300494
Epoch: 37000, Error: 0.002366974867504077
Epoch: 37100, Error: 0.0023610855439939776
Epoch: 37200, Error: 0.002339253888594797
Epoch: 37300, Error: 0.002377211124975503
Epoch: 37400, Error: 0.0023183344975055515
Epoch: 37500, Error: 0.0023321752747830784
Epoch: 37600, Error: 0.0023240383928824185
Epoch: 37700, Error: 0.002305907392080354
Epoch: 37800, Error: 0.0023552996037201506
Epoch: 37900, Error: 0.0022898859781114917
Epoch: 38000, Error: 0.0023004770168487433
Epoch: 38100, Error: 0.0022771543399699103
Epoch: 38200, Error: 0.0022590268054804206
Epoch: 38300, Error: 0.0022681260747614137
Epoch: 38400, Error: 0.0022541125209339283
Epoch: 38500, Error: 0.0022658033532206817
Epoch: 38600, Error: 0.0022699603474547925
Epoch: 38700, Error: 0.002267718674368923
Epoch: 38800, Error: 0.0022409739181363866
Epoch: 38900, Error: 0.00221609518265584
Epoch: 39000, Error: 0.002249082591023126
Epoch: 39100, Error: 0.002206209326123835
Epoch: 39200, Error: 0.0021963201959927544
Epoch: 39300, Error: 0.0021878613650025713
Epoch: 39400, Error: 0.0021870496150959403
Epoch: 39500, Error: 0.0021630332260397117
Epoch: 39600, Error: 0.0021587698188699133
Epoch: 39700, Error: 0.002152599947315539
Epoch: 39800, Error: 0.002171746407432094
Epoch: 39900, Error: 0.002123676813346218
Epoch: 40000, Error: 0.0021170145007207465
Epoch: 40100, Error: 0.0021197887266745452
Epoch: 40200, Error: 0.002122077184797535
Epoch: 40300, Error: 0.002107605921732189
Epoch: 40400, Error: 0.002101875257790613
Epoch: 40500, Error: 0.002080430891139301
Epoch: 40600, Error: 0.0020946162184312823
Epoch: 40700, Error: 0.002065286780674585
Epoch: 40800, Error: 0.002194651252146426
Epoch: 40900, Error: 0.002057979511896401
Epoch: 41000, Error: 0.0020607204763201073
Epoch: 41100, Error: 0.0020586244836869926
Epoch: 41200, Error: 0.002043626005493289
Epoch: 41300, Error: 0.0020286441706749026
Epoch: 41400, Error: 0.0020238151445268956
Epoch: 41500, Error: 0.002049912115585506
Epoch: 41600, Error: 0.0020450916880555537
Epoch: 41700, Error: 0.0020809545823913347
Epoch: 41800, Error: 0.0020079444032955664
Epoch: 41900, Error: 0.0020138280016131728
Epoch: 42000, Error: 0.001997782448401805
Epoch: 42100, Error: 0.0019787678327826126
Epoch: 42200, Error: 0.00198541685761858
Epoch: 42300, Error: 0.0019619667794859405
Epoch: 42400, Error: 0.001961935071804248
Epoch: 42500, Error: 0.0019485810534108062
Epoch: 42600, Error: 0.0019474774671912596
Epoch: 42700, Error: 0.0019385018405214832
Epoch: 42800, Error: 0.001933795114590538
Epoch: 42900, Error: 0.0019170728766127118
Epoch: 43000, Error: 0.001888118970212303
Epoch: 43100, Error: 0.0018820139213065318
Epoch: 43200, Error: 0.0018600436047228103
Epoch: 43300, Error: 0.0018487933736131515
Epoch: 43400, Error: 0.0018132168777698738
Epoch: 43500, Error: 0.0018211122214014195
Epoch: 43600, Error: 0.001772778903758614
Epoch: 43700, Error: 0.0017912059467268297
Epoch: 43800, Error: 0.0017278582553098194
Epoch: 43900, Error: 0.0017118608447943436
Epoch: 44000, Error: 0.0017005568345044046
Epoch: 44100, Error: 0.001681380568382305
Epoch: 44200, Error: 0.0016765543293195732
Epoch: 44300, Error: 0.0016439277376372934
Epoch: 44400, Error: 0.0016318454408894543
Epoch: 44500, Error: 0.001613569671091867
Epoch: 44600, Error: 0.0017370500082749037
Epoch: 44700, Error: 0.00158453383042904
Epoch: 44800, Error: 0.0015797201964586154
Epoch: 44900, Error: 0.0015794012729751495
Epoch: 45000, Error: 0.0015505316063287493
Epoch: 45100, Error: 0.0015415927907749905
Epoch: 45200, Error: 0.0015261979370233183
Epoch: 45300, Error: 0.0015257384900210426
Epoch: 45400, Error: 0.0015116087922650565
Epoch: 45500, Error: 0.0014935472780680924
Epoch: 45600, Error: 0.0014786446208266042
Epoch: 45700, Error: 0.0014852482075546057
Epoch: 45800, Error: 0.0014719316840953475
Epoch: 45900, Error: 0.0014444599643944987
Epoch: 46000, Error: 0.001450991246894092
Epoch: 46100, Error: 0.0014252106185949289
Epoch: 46200, Error: 0.0014183563921248703
Epoch: 46300, Error: 0.0014087581169349172
Epoch: 46400, Error: 0.0013958854373203307
Epoch: 46500, Error: 0.0013864153474333995
Epoch: 46600, Error: 0.0013804140990147187
Epoch: 46700, Error: 0.0013656320298910693
Epoch: 46800, Error: 0.0013761463651376885
Epoch: 46900, Error: 0.001350319603779844
Epoch: 47000, Error: 0.0013417773502101215
Epoch: 47100, Error: 0.0013424896747155181
Epoch: 47200, Error: 0.00135381849827286
Epoch: 47300, Error: 0.0013199546412358224
Epoch: 47400, Error: 0.001313374043622175
Epoch: 47500, Error: 0.0013059799394704583
Epoch: 47600, Error: 0.001296968774520415
Epoch: 47700, Error: 0.0013029010276238056
Epoch: 47800, Error: 0.0012880480924859763
Epoch: 47900, Error: 0.0012774438324625668
Finished
