Input Patterns
0.224 0.624 0.067 0.043 
0.11 0.502 0.051 0.043 
0.196 0.667 0.067 0.043 
0.055 0.584 0.067 0.082 
0.027 0.376 0.067 0.043 
0.306 0.71 0.086 0.043 
0.137 0.416 0.067 0.0 
0.416 0.831 0.035 0.043 
0.306 0.792 0.051 0.125 
0.388 0.749 0.118 0.082 
0.306 0.584 0.118 0.043 
0.082 0.667 0.0 0.043 
0.137 0.584 0.153 0.043 
0.196 0.584 0.102 0.125 
0.251 0.584 0.067 0.043 
0.137 0.459 0.102 0.043 
0.251 0.875 0.086 0.0 
0.165 0.459 0.086 0.043 
0.333 0.624 0.051 0.043 
0.027 0.416 0.051 0.043 
0.196 0.624 0.051 0.082 
0.027 0.502 0.051 0.043 
0.224 0.749 0.153 0.125 
0.224 0.749 0.102 0.043 
0.278 0.71 0.086 0.043 
0.165 0.416 0.067 0.043 
0.082 0.459 0.086 0.043 
0.306 0.792 0.118 0.125 
0.196 0.584 0.086 0.043 
0.165 0.459 0.086 0.0 
0.137 0.584 0.102 0.043 
0.0 0.416 0.016 0.0 
0.388 1.0 0.086 0.125 
0.224 0.624 0.067 0.082 
0.224 0.749 0.086 0.082 
0.224 0.71 0.086 0.125 
0.224 0.541 0.118 0.165 
0.196 0.416 0.102 0.043 
0.251 0.624 0.086 0.043 
0.11 0.502 0.102 0.043 
0.306 0.584 0.086 0.125 
0.333 0.918 0.067 0.043 
0.196 0.502 0.035 0.043 
0.165 0.667 0.067 0.0 
0.224 0.584 0.086 0.043 
0.055 0.125 0.051 0.082 
0.196 0.624 0.102 0.208 
0.137 0.416 0.067 0.082 
0.082 0.502 0.067 0.043 
0.196 0.541 0.067 0.043 
0.749 0.502 0.627 0.541 
0.722 0.459 0.663 0.584 
0.612 0.333 0.612 0.584 
0.557 0.541 0.627 0.624 
0.639 0.376 0.612 0.498 
0.196 0.0 0.424 0.376 
0.471 0.082 0.51 0.376 
0.361 0.376 0.439 0.498 
0.361 0.416 0.592 0.584 
0.529 0.082 0.592 0.584 
0.443 0.502 0.643 0.459 
0.557 0.208 0.663 0.584 
0.584 0.376 0.561 0.498 
0.694 0.333 0.643 0.541 
0.471 0.376 0.592 0.584 
0.333 0.169 0.475 0.416 
0.416 0.29 0.49 0.459 
0.306 0.416 0.592 0.584 
0.667 0.459 0.627 0.584 
0.361 0.416 0.525 0.498 
0.333 0.251 0.576 0.459 
0.416 0.251 0.51 0.459 
0.361 0.29 0.541 0.498 
0.388 0.376 0.541 0.498 
0.224 0.208 0.337 0.416 
0.584 0.502 0.592 0.584 
0.333 0.125 0.51 0.498 
0.388 0.333 0.592 0.498 
0.165 0.169 0.388 0.376 
0.251 0.29 0.49 0.541 
0.443 0.416 0.541 0.584 
0.498 0.376 0.627 0.541 
0.667 0.459 0.576 0.541 
0.416 0.29 0.525 0.376 
0.361 0.208 0.49 0.416 
0.498 0.333 0.51 0.498 
0.498 0.333 0.627 0.459 
0.639 0.416 0.576 0.541 
0.667 0.416 0.678 0.667 
0.388 0.251 0.424 0.376 
0.333 0.169 0.459 0.376 
0.471 0.29 0.694 0.624 
0.471 0.584 0.592 0.624 
0.557 0.125 0.576 0.498 
0.333 0.208 0.51 0.498 
0.498 0.416 0.612 0.541 
0.196 0.125 0.388 0.376 
0.388 0.416 0.541 0.459 
0.529 0.376 0.561 0.498 
0.388 0.333 0.525 0.498 
0.557 0.541 0.847 1.0 
0.776 0.416 0.831 0.831 
0.612 0.416 0.812 0.875 
0.165 0.208 0.592 0.667 
0.667 0.208 0.812 0.71 
0.612 0.502 0.694 0.792 
0.694 0.416 0.761 0.831 
0.416 0.333 0.694 0.957 
0.612 0.416 0.761 0.71 
0.945 0.251 1.0 0.918 
0.722 0.502 0.796 0.918 
0.945 0.333 0.965 0.792 
0.667 0.541 0.796 0.831 
0.529 0.333 0.643 0.71 
0.584 0.333 0.78 0.831 
0.863 0.333 0.863 0.749 
0.584 0.333 0.78 0.875 
0.498 0.251 0.78 0.541 
0.557 0.584 0.78 0.957 
0.471 0.416 0.643 0.71 
0.667 0.459 0.78 0.957 
0.416 0.29 0.694 0.749 
0.667 0.541 0.796 1.0 
0.557 0.208 0.678 0.749 
0.529 0.584 0.745 0.918 
0.416 0.29 0.694 0.749 
0.557 0.376 0.78 0.71 
0.918 0.416 0.949 0.831 
0.835 0.376 0.898 0.71 
0.804 0.667 0.863 1.0 
0.584 0.29 0.729 0.749 
0.388 0.208 0.678 0.792 
0.584 0.502 0.729 0.918 
0.945 0.749 0.965 0.875 
0.471 0.082 0.678 0.584 
0.361 0.333 0.663 0.792 
0.557 0.29 0.663 0.71 
0.804 0.502 0.847 0.71 
0.498 0.416 0.51 0.71 
0.804 0.416 0.812 0.624 
1.0 0.749 0.914 0.792 
0.557 0.333 0.694 0.584 
0.945 0.416 0.863 0.918 
0.584 0.459 0.761 0.71 
0.722 0.459 0.745 0.831 
0.722 0.459 0.694 0.918 
0.694 0.502 0.831 0.918 
0.667 0.416 0.714 0.918 
0.612 0.416 0.714 0.792 
0.443 0.416 0.694 0.71 
Teaching Patterns
1.0 0.0 0.0 
1.0 0.0 0.0 
1.0 0.0 0.0 
1.0 0.0 0.0 
1.0 0.0 0.0 
1.0 0.0 0.0 
1.0 0.0 0.0 
1.0 0.0 0.0 
1.0 0.0 0.0 
1.0 0.0 0.0 
1.0 0.0 0.0 
1.0 0.0 0.0 
1.0 0.0 0.0 
1.0 0.0 0.0 
1.0 0.0 0.0 
1.0 0.0 0.0 
1.0 0.0 0.0 
1.0 0.0 0.0 
1.0 0.0 0.0 
1.0 0.0 0.0 
1.0 0.0 0.0 
1.0 0.0 0.0 
1.0 0.0 0.0 
1.0 0.0 0.0 
1.0 0.0 0.0 
1.0 0.0 0.0 
1.0 0.0 0.0 
1.0 0.0 0.0 
1.0 0.0 0.0 
1.0 0.0 0.0 
1.0 0.0 0.0 
1.0 0.0 0.0 
1.0 0.0 0.0 
1.0 0.0 0.0 
1.0 0.0 0.0 
1.0 0.0 0.0 
1.0 0.0 0.0 
1.0 0.0 0.0 
1.0 0.0 0.0 
1.0 0.0 0.0 
1.0 0.0 0.0 
1.0 0.0 0.0 
1.0 0.0 0.0 
1.0 0.0 0.0 
1.0 0.0 0.0 
1.0 0.0 0.0 
1.0 0.0 0.0 
1.0 0.0 0.0 
1.0 0.0 0.0 
1.0 0.0 0.0 
0.0 1.0 0.0 
0.0 1.0 0.0 
0.0 1.0 0.0 
0.0 1.0 0.0 
0.0 1.0 0.0 
0.0 1.0 0.0 
0.0 1.0 0.0 
0.0 1.0 0.0 
0.0 1.0 0.0 
0.0 1.0 0.0 
0.0 1.0 0.0 
0.0 1.0 0.0 
0.0 1.0 0.0 
0.0 1.0 0.0 
0.0 1.0 0.0 
0.0 1.0 0.0 
0.0 1.0 0.0 
0.0 1.0 0.0 
0.0 1.0 0.0 
0.0 1.0 0.0 
0.0 1.0 0.0 
0.0 1.0 0.0 
0.0 1.0 0.0 
0.0 1.0 0.0 
0.0 1.0 0.0 
0.0 1.0 0.0 
0.0 1.0 0.0 
0.0 1.0 0.0 
0.0 1.0 0.0 
0.0 1.0 0.0 
0.0 1.0 0.0 
0.0 1.0 0.0 
0.0 1.0 0.0 
0.0 1.0 0.0 
0.0 1.0 0.0 
0.0 1.0 0.0 
0.0 1.0 0.0 
0.0 1.0 0.0 
0.0 1.0 0.0 
0.0 1.0 0.0 
0.0 1.0 0.0 
0.0 1.0 0.0 
0.0 1.0 0.0 
0.0 1.0 0.0 
0.0 1.0 0.0 
0.0 1.0 0.0 
0.0 1.0 0.0 
0.0 1.0 0.0 
0.0 1.0 0.0 
0.0 1.0 0.0 
0.0 0.0 1.0 
0.0 0.0 1.0 
0.0 0.0 1.0 
0.0 0.0 1.0 
0.0 0.0 1.0 
0.0 0.0 1.0 
0.0 0.0 1.0 
0.0 0.0 1.0 
0.0 0.0 1.0 
0.0 0.0 1.0 
0.0 0.0 1.0 
0.0 0.0 1.0 
0.0 0.0 1.0 
0.0 0.0 1.0 
0.0 0.0 1.0 
0.0 0.0 1.0 
0.0 0.0 1.0 
0.0 0.0 1.0 
0.0 0.0 1.0 
0.0 0.0 1.0 
0.0 0.0 1.0 
0.0 0.0 1.0 
0.0 0.0 1.0 
0.0 0.0 1.0 
0.0 0.0 1.0 
0.0 0.0 1.0 
0.0 0.0 1.0 
0.0 0.0 1.0 
0.0 0.0 1.0 
0.0 0.0 1.0 
0.0 0.0 1.0 
0.0 0.0 1.0 
0.0 0.0 1.0 
0.0 0.0 1.0 
0.0 0.0 1.0 
0.0 0.0 1.0 
0.0 0.0 1.0 
0.0 0.0 1.0 
0.0 0.0 1.0 
0.0 0.0 1.0 
0.0 0.0 1.0 
0.0 0.0 1.0 
0.0 0.0 1.0 
0.0 0.0 1.0 
0.0 0.0 1.0 
0.0 0.0 1.0 
0.0 0.0 1.0 
0.0 0.0 1.0 
0.0 0.0 1.0 
0.0 0.0 1.0 
Learning : 0.05
Momentum : 0.800000011920929
Epoch: 100, Error: 0.02630633544638205
Epoch: 200, Error: 0.0179166150559316
Epoch: 300, Error: 0.015961439145542333
Epoch: 400, Error: 0.014814232354915776
Epoch: 500, Error: 0.014207719895662064
Epoch: 600, Error: 0.013924631966659938
Epoch: 700, Error: 0.01354544126108265
Epoch: 800, Error: 0.013531926557484019
Epoch: 900, Error: 0.013354958866028985
Epoch: 1000, Error: 0.013301987736839218
Epoch: 1100, Error: 0.013059794503813636
Epoch: 1200, Error: 0.013121367172564562
Epoch: 1300, Error: 0.012918355825416573
Epoch: 1400, Error: 0.012816665694229998
Epoch: 1500, Error: 0.01278139227682358
Epoch: 1600, Error: 0.012665417232221176
Epoch: 1700, Error: 0.012539061123148308
Epoch: 1800, Error: 0.012531905031034634
Epoch: 1900, Error: 0.012480232891960048
Epoch: 2000, Error: 0.01240472030294911
Epoch: 2100, Error: 0.012415227924568872
Epoch: 2200, Error: 0.012345699583681624
Epoch: 2300, Error: 0.01230889916777444
Epoch: 2400, Error: 0.012262961594566439
Epoch: 2500, Error: 0.012264864169948158
Epoch: 2600, Error: 0.012272596852901512
Epoch: 2700, Error: 0.01220216559219178
Epoch: 2800, Error: 0.0121556017474199
Epoch: 2900, Error: 0.01207582184011959
Epoch: 3000, Error: 0.012062190924433057
Epoch: 3100, Error: 0.012493604497118723
Epoch: 3200, Error: 0.01207988214549959
Epoch: 3300, Error: 0.012057842841437206
Epoch: 3400, Error: 0.012019280737268491
Epoch: 3500, Error: 0.01198114323992245
Epoch: 3600, Error: 0.011972836874890824
Epoch: 3700, Error: 0.01193289613540052
Epoch: 3800, Error: 0.012001718300609008
Epoch: 3900, Error: 0.011912580588937325
Epoch: 4000, Error: 0.011838803147953878
Epoch: 4100, Error: 0.011882694961681413
Epoch: 4200, Error: 0.011875326170302267
Epoch: 4300, Error: 0.011820254206212895
Epoch: 4400, Error: 0.012231698644613508
Epoch: 4500, Error: 0.011927736799015667
Epoch: 4600, Error: 0.011816760565879868
Epoch: 4700, Error: 0.011907310977693951
Epoch: 4800, Error: 0.011819646179353202
Epoch: 4900, Error: 0.011806926616230728
Epoch: 5000, Error: 0.011866624861184104
Epoch: 5100, Error: 0.011809295113273445
Epoch: 5200, Error: 0.011805733127036925
Epoch: 5300, Error: 0.011823431282316976
Epoch: 5400, Error: 0.011786346082057598
Epoch: 5500, Error: 0.011804781253694344
Epoch: 5600, Error: 0.011745628882605084
Epoch: 5700, Error: 0.011737937901023586
Epoch: 5800, Error: 0.011721544996872427
Epoch: 5900, Error: 0.01168206502308484
Epoch: 6000, Error: 0.011710340846538846
Epoch: 6100, Error: 0.011662892316433667
Epoch: 6200, Error: 0.011646004542091023
Epoch: 6300, Error: 0.01162778871741004
Epoch: 6400, Error: 0.011716901053978664
Epoch: 6500, Error: 0.011605344850985059
Epoch: 6600, Error: 0.01159730538502104
Epoch: 6700, Error: 0.01163575569462856
Epoch: 6800, Error: 0.011656830443733899
Epoch: 6900, Error: 0.011658208866478824
Epoch: 7000, Error: 0.011572090915003705
Epoch: 7100, Error: 0.011564780292619202
Epoch: 7200, Error: 0.011653345704212042
Epoch: 7300, Error: 0.011600517740733663
Epoch: 7400, Error: 0.011554378351804884
Epoch: 7500, Error: 0.011588320011266438
Epoch: 7600, Error: 0.011561988369669759
Epoch: 7700, Error: 0.011507375105008584
Epoch: 7800, Error: 0.011450525843494269
Epoch: 7900, Error: 0.011462210096994052
Epoch: 8000, Error: 0.011401221756751793
Epoch: 8100, Error: 0.01143913348765546
Epoch: 8200, Error: 0.011384098721025021
Epoch: 8300, Error: 0.011366139801316066
Epoch: 8400, Error: 0.011334548980793148
Epoch: 8500, Error: 0.0113612218258646
Epoch: 8600, Error: 0.01133639833457537
Epoch: 8700, Error: 0.011255236247869846
Epoch: 8800, Error: 0.011362783498791149
Epoch: 8900, Error: 0.011194247480166224
Epoch: 9000, Error: 0.011171338769457369
Epoch: 9100, Error: 0.011460085587960505
Epoch: 9200, Error: 0.01115235065140226
Epoch: 9300, Error: 0.011201443742723539
Epoch: 9400, Error: 0.011043936830394441
Epoch: 9500, Error: 0.011016335654999132
Epoch: 9600, Error: 0.010975841499710306
Epoch: 9700, Error: 0.010910826944228506
Epoch: 9800, Error: 0.010863717583165532
Epoch: 9900, Error: 0.010822819296226931
Epoch: 10000, Error: 0.010756760141184074
Epoch: 10100, Error: 0.010764166671061752
Epoch: 10200, Error: 0.010651649511129839
Epoch: 10300, Error: 0.01062593969035933
Epoch: 10400, Error: 0.010518809507962263
Epoch: 10500, Error: 0.010487821503404719
Epoch: 10600, Error: 0.010360746188981397
Epoch: 10700, Error: 0.010270544840953136
Epoch: 10800, Error: 0.01019219659195673
Epoch: 10900, Error: 0.010089303135526593
Epoch: 11000, Error: 0.010067994683052884
Epoch: 11100, Error: 0.009911383945842499
Epoch: 11200, Error: 0.009855254888828366
Epoch: 11300, Error: 0.009695766696510816
Epoch: 11400, Error: 0.00958863745190591
Epoch: 11500, Error: 0.009498394721434936
Epoch: 11600, Error: 0.009404263614982722
Epoch: 11700, Error: 0.009289244257697197
Epoch: 11800, Error: 0.0091399097839849
Epoch: 11900, Error: 0.009051663215068916
Epoch: 12000, Error: 0.008936899711426331
Epoch: 12100, Error: 0.008830866204504434
Epoch: 12200, Error: 0.008736627657481554
Epoch: 12300, Error: 0.008600896748043855
Epoch: 12400, Error: 0.00849241094097017
Epoch: 12500, Error: 0.008390285841788954
Epoch: 12600, Error: 0.008316108722308474
Epoch: 12700, Error: 0.00825727557466095
Epoch: 12800, Error: 0.008097332243351673
Epoch: 12900, Error: 0.007984590658506086
Epoch: 13000, Error: 0.007878809812378793
Epoch: 13100, Error: 0.007821899574187004
Epoch: 13200, Error: 0.007687344752838392
Epoch: 13300, Error: 0.007614890682917253
Epoch: 13400, Error: 0.007572270741658771
Epoch: 13500, Error: 0.0075074124452705416
Epoch: 13600, Error: 0.007411772142107425
Epoch: 13700, Error: 0.0073852349360199404
Epoch: 13800, Error: 0.0073003528223498535
Epoch: 13900, Error: 0.007243179872424265
Epoch: 14000, Error: 0.0071817761004352694
Epoch: 14100, Error: 0.007127884959502203
Epoch: 14200, Error: 0.007075463913244466
Epoch: 14300, Error: 0.007037154602327784
Epoch: 14400, Error: 0.006979298088968002
Epoch: 14500, Error: 0.006911403388989422
Epoch: 14600, Error: 0.006893016650623198
Epoch: 14700, Error: 0.006947453146134139
Epoch: 14800, Error: 0.0068066224454473604
Epoch: 14900, Error: 0.006788082602628355
Epoch: 15000, Error: 0.0066855786491649
Epoch: 15100, Error: 0.006662728158325209
Epoch: 15200, Error: 0.006651467367385402
Epoch: 15300, Error: 0.006612090090322941
Epoch: 15400, Error: 0.006590648295819694
Epoch: 15500, Error: 0.006558013935715507
Epoch: 15600, Error: 0.006541186420593429
Epoch: 15700, Error: 0.006555013400741261
Epoch: 15800, Error: 0.006526981437537536
Epoch: 15900, Error: 0.006650016058034915
Epoch: 16000, Error: 0.0064904519939077195
Epoch: 16100, Error: 0.006456706688392242
Epoch: 16200, Error: 0.006447110988795788
Epoch: 16300, Error: 0.00643815681104998
Epoch: 16400, Error: 0.006415497570763212
Epoch: 16500, Error: 0.006407727531286089
Epoch: 16600, Error: 0.006363658044831884
Epoch: 16700, Error: 0.006372384524892985
Epoch: 16800, Error: 0.006384867247422537
Epoch: 16900, Error: 0.0063290839437413204
Epoch: 17000, Error: 0.006333898049647717
Epoch: 17100, Error: 0.0062792382279131115
Epoch: 17200, Error: 0.006265685290403729
Epoch: 17300, Error: 0.0062044678045102405
Epoch: 17400, Error: 0.00620444462587029
Epoch: 17500, Error: 0.0061858843250792
Epoch: 17600, Error: 0.0061862159840558855
Epoch: 17700, Error: 0.006169081506536234
Epoch: 17800, Error: 0.006137022705837027
Epoch: 17900, Error: 0.006122758344718194
Epoch: 18000, Error: 0.006093609424648088
Epoch: 18100, Error: 0.0060785457201761
Epoch: 18200, Error: 0.006087782333023156
Epoch: 18300, Error: 0.00605854396949823
Epoch: 18400, Error: 0.00605992262158333
Epoch: 18500, Error: 0.006031167290610026
Epoch: 18600, Error: 0.006022894031885817
Epoch: 18700, Error: 0.00600528061849888
Epoch: 18800, Error: 0.006019312185219193
Epoch: 18900, Error: 0.006034303461255108
Epoch: 19000, Error: 0.006037958909662674
Epoch: 19100, Error: 0.005994604131088041
Epoch: 19200, Error: 0.005976171093676783
Epoch: 19300, Error: 0.00597437729187959
Epoch: 19400, Error: 0.005977333262456366
Epoch: 19500, Error: 0.005943878215209319
Epoch: 19600, Error: 0.005945554763709537
Epoch: 19700, Error: 0.005920217375169876
Epoch: 19800, Error: 0.005916364033619126
Epoch: 19900, Error: 0.005956534943595099
Epoch: 20000, Error: 0.005954672777127104
Epoch: 20100, Error: 0.005930204762965626
Epoch: 20200, Error: 0.005892944788754621
Epoch: 20300, Error: 0.005859716809896877
Epoch: 20400, Error: 0.0058407565411546965
Epoch: 20500, Error: 0.005829293224587117
Epoch: 20600, Error: 0.005823982898440035
Epoch: 20700, Error: 0.005807097370188455
Epoch: 20800, Error: 0.005828618785423109
Epoch: 20900, Error: 0.005765646547844824
Epoch: 21000, Error: 0.005787222377152679
Epoch: 21100, Error: 0.005735262764132795
Epoch: 21200, Error: 0.00568257579356032
Epoch: 21300, Error: 0.005651195900180994
Epoch: 21400, Error: 0.0056359781945574065
Epoch: 21500, Error: 0.005651653454041592
Epoch: 21600, Error: 0.005688014369424162
Epoch: 21700, Error: 0.005588525257148062
Epoch: 21800, Error: 0.005570532610110328
Epoch: 21900, Error: 0.005548601461848527
Epoch: 22000, Error: 0.005547106876233005
Epoch: 22100, Error: 0.0055198846832616826
Epoch: 22200, Error: 0.005493887551223134
Epoch: 22300, Error: 0.005476849576148888
Epoch: 22400, Error: 0.005506428607853515
Epoch: 22500, Error: 0.005494217535702033
Epoch: 22600, Error: 0.0054935360418198655
Epoch: 22700, Error: 0.005431907196055862
Epoch: 22800, Error: 0.0053992758900589695
Epoch: 22900, Error: 0.0053662546565447725
Epoch: 23000, Error: 0.005345923859696955
Epoch: 23100, Error: 0.005342299217530247
Epoch: 23200, Error: 0.0053178111197757115
Epoch: 23300, Error: 0.005290303691012594
Epoch: 23400, Error: 0.005277589580210279
Epoch: 23500, Error: 0.005251420211602195
Epoch: 23600, Error: 0.005219778540323109
Epoch: 23700, Error: 0.00520976716295968
Epoch: 23800, Error: 0.005177899813713265
Epoch: 23900, Error: 0.005149366580250181
Epoch: 24000, Error: 0.005149765023309308
Epoch: 24100, Error: 0.005117903642923345
Epoch: 24200, Error: 0.00513521722074619
Epoch: 24300, Error: 0.005069788790693855
Epoch: 24400, Error: 0.00516690258979863
Epoch: 24500, Error: 0.005053873405754056
Epoch: 24600, Error: 0.005046035416649806
Epoch: 24700, Error: 0.005011525719897862
Epoch: 24800, Error: 0.004992592002707237
Epoch: 24900, Error: 0.004964049276834803
Epoch: 25000, Error: 0.004952904897044142
Epoch: 25100, Error: 0.0048776742710914265
Epoch: 25200, Error: 0.004922948626585914
Epoch: 25300, Error: 0.0049197756427820155
Epoch: 25400, Error: 0.004892891382517946
Epoch: 25500, Error: 0.004866112266484524
Epoch: 25600, Error: 0.00484386500952733
Epoch: 25700, Error: 0.004784061078611511
Epoch: 25800, Error: 0.004830226622100969
Epoch: 25900, Error: 0.004712077306731888
Epoch: 26000, Error: 0.00470447328333402
Epoch: 26100, Error: 0.0046314348554684845
Epoch: 26200, Error: 0.0046134578444971775
Epoch: 26300, Error: 0.0045901541441010696
Epoch: 26400, Error: 0.0045963860581791
Epoch: 26500, Error: 0.004536669786849579
Epoch: 26600, Error: 0.004498725507250475
Epoch: 26700, Error: 0.004595306378291856
Epoch: 26800, Error: 0.004457255204822142
Epoch: 26900, Error: 0.004427589307447209
Epoch: 27000, Error: 0.004362415839240221
Epoch: 27100, Error: 0.004335913117765727
Epoch: 27200, Error: 0.004334238773457836
Epoch: 27300, Error: 0.0042849657848981855
Epoch: 27400, Error: 0.004275853293285307
Epoch: 27500, Error: 0.0043124553815199656
Epoch: 27600, Error: 0.004220013680387269
Epoch: 27700, Error: 0.004172085640696222
Epoch: 27800, Error: 0.0041318166301023635
Epoch: 27900, Error: 0.004133535098473681
Epoch: 28000, Error: 0.004119954040981779
Epoch: 28100, Error: 0.004094342077785877
Epoch: 28200, Error: 0.004080559018041079
Epoch: 28300, Error: 0.004070631296751015
Epoch: 28400, Error: 0.0040399831080772195
Epoch: 28500, Error: 0.004156021747982223
Epoch: 28600, Error: 0.003986444924458822
Epoch: 28700, Error: 0.003986598943579361
Epoch: 28800, Error: 0.003957690939850714
Epoch: 28900, Error: 0.003943144295740681
Epoch: 29000, Error: 0.0039003476696801856
Epoch: 29100, Error: 0.0038531001412417574
Epoch: 29200, Error: 0.00383477315366835
Epoch: 29300, Error: 0.003818975485456065
Epoch: 29400, Error: 0.0037970844405829235
Epoch: 29500, Error: 0.0037840864031418553
Epoch: 29600, Error: 0.0037697135493678685
Epoch: 29700, Error: 0.0037683139669723287
Epoch: 29800, Error: 0.003790236824920933
Epoch: 29900, Error: 0.0036848242727453785
Epoch: 30000, Error: 0.0036792230386521073
Epoch: 30100, Error: 0.0036448086722377197
Epoch: 30200, Error: 0.003820682528885796
Epoch: 30300, Error: 0.0035812461993333013
Epoch: 30400, Error: 0.0035637682686817805
Epoch: 30500, Error: 0.0035662481928443123
Epoch: 30600, Error: 0.0035772165331343577
Epoch: 30700, Error: 0.003494213506101501
Epoch: 30800, Error: 0.003475963253510752
Epoch: 30900, Error: 0.0034597248056325476
Epoch: 31000, Error: 0.003437877082892995
Epoch: 31100, Error: 0.0037068317047922817
Epoch: 31200, Error: 0.0033931981784388176
Epoch: 31300, Error: 0.003407510552312944
Epoch: 31400, Error: 0.0033607840514385968
Epoch: 31500, Error: 0.0033560305516251976
Epoch: 31600, Error: 0.0033260471844101616
Epoch: 31700, Error: 0.003301842305807752
Epoch: 31800, Error: 0.0033022037101645067
Epoch: 31900, Error: 0.0033142256063296936
Epoch: 32000, Error: 0.003247203524965047
Epoch: 32100, Error: 0.0032619176675479727
Epoch: 32200, Error: 0.00322996376425786
Epoch: 32300, Error: 0.003192178250219463
Epoch: 32400, Error: 0.0031916736610122253
Epoch: 32500, Error: 0.0031759712523033615
Epoch: 32600, Error: 0.003171014879545595
Epoch: 32700, Error: 0.003291547148998307
Epoch: 32800, Error: 0.0031167194642678104
Epoch: 32900, Error: 0.0030588244934682866
Epoch: 33000, Error: 0.0030499023568537308
Epoch: 33100, Error: 0.0030373388870975075
Epoch: 33200, Error: 0.00306149808205581
Epoch: 33300, Error: 0.002989868092576375
Epoch: 33400, Error: 0.002949589798556225
Epoch: 33500, Error: 0.002924803423186837
Epoch: 33600, Error: 0.0029246337050964906
Epoch: 33700, Error: 0.0029359729301193594
Epoch: 33800, Error: 0.002854067783471796
Epoch: 33900, Error: 0.002857942602484431
Epoch: 34000, Error: 0.0028506627726482023
Epoch: 34100, Error: 0.0028457327359071105
Epoch: 34200, Error: 0.0028335332579373187
Epoch: 34300, Error: 0.002784140220087387
Epoch: 34400, Error: 0.0027797047407976806
Epoch: 34500, Error: 0.002743444467560042
Epoch: 34600, Error: 0.002698922054188723
Epoch: 34700, Error: 0.0027187596981472347
Epoch: 34800, Error: 0.0026541876412261634
Epoch: 34900, Error: 0.002662911835931101
Epoch: 35000, Error: 0.0026768242504230425
Epoch: 35100, Error: 0.0026381808201571297
Epoch: 35200, Error: 0.0026039045417677333
Epoch: 35300, Error: 0.0026559980433634657
Epoch: 35400, Error: 0.0025531447038798097
Epoch: 35500, Error: 0.002588631046201489
Epoch: 35600, Error: 0.002538606181385501
Epoch: 35700, Error: 0.0025051913473385992
Epoch: 35800, Error: 0.002520886506476303
Epoch: 35900, Error: 0.002497346148860415
Epoch: 36000, Error: 0.002438411335254472
Epoch: 36100, Error: 0.0024656299769701432
Epoch: 36200, Error: 0.00242640654396768
Epoch: 36300, Error: 0.002468940510891074
Epoch: 36400, Error: 0.0024329986809667
Epoch: 36500, Error: 0.0023975053005552706
Epoch: 36600, Error: 0.00238594396262603
Epoch: 36700, Error: 0.0023447400170915652
Epoch: 36800, Error: 0.0023416811044588734
Epoch: 36900, Error: 0.0023057592440224282
Epoch: 37000, Error: 0.0022911790390063155
Epoch: 37100, Error: 0.0022960690527014534
Epoch: 37200, Error: 0.00226955427193781
Epoch: 37300, Error: 0.002255012033289532
Epoch: 37400, Error: 0.002277591182593966
Epoch: 37500, Error: 0.002226550377445924
Epoch: 37600, Error: 0.0022102883198113384
Epoch: 37700, Error: 0.0021928809494226073
Epoch: 37800, Error: 0.0022260867353407245
Epoch: 37900, Error: 0.002157286760736849
Epoch: 38000, Error: 0.0021500130338791856
Epoch: 38100, Error: 0.0021900559025652966
Epoch: 38200, Error: 0.00215207521890285
Epoch: 38300, Error: 0.00210495643455416
Epoch: 38400, Error: 0.002096444633986291
Epoch: 38500, Error: 0.002081634998581264
Epoch: 38600, Error: 0.002085283555156895
Epoch: 38700, Error: 0.002053197640051101
Epoch: 38800, Error: 0.0020380681678635647
Epoch: 38900, Error: 0.0020246400493652236
Epoch: 39000, Error: 0.0020076202294890527
Epoch: 39100, Error: 0.002013017545513872
Epoch: 39200, Error: 0.0019834005308607674
Epoch: 39300, Error: 0.0019906842738867947
Epoch: 39400, Error: 0.0019799183534539295
Epoch: 39500, Error: 0.0019637822171642266
Epoch: 39600, Error: 0.0019383134941459727
Epoch: 39700, Error: 0.001959851989109869
Epoch: 39800, Error: 0.0019199162894387527
Epoch: 39900, Error: 0.001912447489938802
Epoch: 40000, Error: 0.001933076941611806
Epoch: 40100, Error: 0.0018954663488655633
Epoch: 40200, Error: 0.0018903524227411148
Epoch: 40300, Error: 0.0018734251867692346
Epoch: 40400, Error: 0.0018739354362380216
Epoch: 40500, Error: 0.0018397274409056668
Epoch: 40600, Error: 0.001823400095387438
Epoch: 40700, Error: 0.0018141902217113325
Epoch: 40800, Error: 0.0018123700957767672
Epoch: 40900, Error: 0.0017948290156051345
Epoch: 41000, Error: 0.0018092135281015075
Epoch: 41100, Error: 0.0018254326608951807
Epoch: 41200, Error: 0.0017645790015090711
Epoch: 41300, Error: 0.0017845548993174942
Epoch: 41400, Error: 0.0017473149816135685
Epoch: 41500, Error: 0.001764711347255796
Epoch: 41600, Error: 0.0017592003473886773
Epoch: 41700, Error: 0.0017148568345837323
Epoch: 41800, Error: 0.0017148821583694675
Epoch: 41900, Error: 0.0016975050391360089
Epoch: 42000, Error: 0.00171879820448779
Epoch: 42100, Error: 0.001701420247145424
Epoch: 42200, Error: 0.001670706974609891
Epoch: 42300, Error: 0.001658609497423531
Epoch: 42400, Error: 0.0016534515330799942
Epoch: 42500, Error: 0.0016414661613759704
Epoch: 42600, Error: 0.0016382755922958931
Epoch: 42700, Error: 0.0016274056586776926
Epoch: 42800, Error: 0.001608756081788159
Epoch: 42900, Error: 0.0016089513474476717
Epoch: 43000, Error: 0.0015936567274319282
Epoch: 43100, Error: 0.0015992676319973114
Epoch: 43200, Error: 0.0015983364026615086
Epoch: 43300, Error: 0.0015559235761157424
Epoch: 43400, Error: 0.0015668403768897478
Epoch: 43500, Error: 0.0015392288195466585
Epoch: 43600, Error: 0.0015395915749882288
Epoch: 43700, Error: 0.0015448542880938771
Epoch: 43800, Error: 0.0015271076496177886
Epoch: 43900, Error: 0.0015059341090073112
Epoch: 44000, Error: 0.0014954832527755448
Epoch: 44100, Error: 0.0014830618234509996
Epoch: 44200, Error: 0.0015066325415721109
Epoch: 44300, Error: 0.0014789319624121083
Epoch: 44400, Error: 0.001460523071793067
Epoch: 44500, Error: 0.0014499655127578968
Epoch: 44600, Error: 0.0014455373153733464
Epoch: 44700, Error: 0.0014367420233020358
Epoch: 44800, Error: 0.0014872189239304031
Epoch: 44900, Error: 0.0014287481196021067
Epoch: 45000, Error: 0.001427424249965032
Epoch: 45100, Error: 0.0014070267801507088
Epoch: 45200, Error: 0.001418381178819356
Epoch: 45300, Error: 0.0013900366673955742
Epoch: 45400, Error: 0.0013827378323707099
Epoch: 45500, Error: 0.0013778346156791178
Epoch: 45600, Error: 0.0013797448636815425
Epoch: 45700, Error: 0.0013798912424574277
Epoch: 45800, Error: 0.0013542282310847055
Epoch: 45900, Error: 0.0013512306871359616
Finished
Input Patterns
0.224 0.624 0.067 0.043 
0.11 0.502 0.051 0.043 
0.196 0.667 0.067 0.043 
0.055 0.584 0.067 0.082 
0.027 0.376 0.067 0.043 
0.306 0.71 0.086 0.043 
0.137 0.416 0.067 0.0 
0.416 0.831 0.035 0.043 
0.306 0.792 0.051 0.125 
0.388 0.749 0.118 0.082 
0.306 0.584 0.118 0.043 
0.082 0.667 0.0 0.043 
0.137 0.584 0.153 0.043 
0.196 0.584 0.102 0.125 
0.251 0.584 0.067 0.043 
0.137 0.459 0.102 0.043 
0.251 0.875 0.086 0.0 
0.165 0.459 0.086 0.043 
0.333 0.624 0.051 0.043 
0.027 0.416 0.051 0.043 
0.196 0.624 0.051 0.082 
0.027 0.502 0.051 0.043 
0.224 0.749 0.153 0.125 
0.224 0.749 0.102 0.043 
0.278 0.71 0.086 0.043 
0.165 0.416 0.067 0.043 
0.082 0.459 0.086 0.043 
0.306 0.792 0.118 0.125 
0.196 0.584 0.086 0.043 
0.165 0.459 0.086 0.0 
0.137 0.584 0.102 0.043 
0.0 0.416 0.016 0.0 
0.388 1.0 0.086 0.125 
0.224 0.624 0.067 0.082 
0.224 0.749 0.086 0.082 
0.224 0.71 0.086 0.125 
0.224 0.541 0.118 0.165 
0.196 0.416 0.102 0.043 
0.251 0.624 0.086 0.043 
0.11 0.502 0.102 0.043 
0.306 0.584 0.086 0.125 
0.333 0.918 0.067 0.043 
0.196 0.502 0.035 0.043 
0.165 0.667 0.067 0.0 
0.224 0.584 0.086 0.043 
0.055 0.125 0.051 0.082 
0.196 0.624 0.102 0.208 
0.137 0.416 0.067 0.082 
0.082 0.502 0.067 0.043 
0.196 0.541 0.067 0.043 
0.749 0.502 0.627 0.541 
0.722 0.459 0.663 0.584 
0.612 0.333 0.612 0.584 
0.557 0.541 0.627 0.624 
0.639 0.376 0.612 0.498 
0.196 0.0 0.424 0.376 
0.471 0.082 0.51 0.376 
0.361 0.376 0.439 0.498 
0.361 0.416 0.592 0.584 
0.529 0.082 0.592 0.584 
0.443 0.502 0.643 0.459 
0.557 0.208 0.663 0.584 
0.584 0.376 0.561 0.498 
0.694 0.333 0.643 0.541 
0.471 0.376 0.592 0.584 
0.333 0.169 0.475 0.416 
0.416 0.29 0.49 0.459 
0.306 0.416 0.592 0.584 
0.667 0.459 0.627 0.584 
0.361 0.416 0.525 0.498 
0.333 0.251 0.576 0.459 
0.416 0.251 0.51 0.459 
0.361 0.29 0.541 0.498 
0.388 0.376 0.541 0.498 
0.224 0.208 0.337 0.416 
0.584 0.502 0.592 0.584 
0.333 0.125 0.51 0.498 
0.388 0.333 0.592 0.498 
0.165 0.169 0.388 0.376 
0.251 0.29 0.49 0.541 
0.443 0.416 0.541 0.584 
0.498 0.376 0.627 0.541 
0.667 0.459 0.576 0.541 
0.416 0.29 0.525 0.376 
0.361 0.208 0.49 0.416 
0.498 0.333 0.51 0.498 
0.498 0.333 0.627 0.459 
0.639 0.416 0.576 0.541 
0.667 0.416 0.678 0.667 
0.388 0.251 0.424 0.376 
0.333 0.169 0.459 0.376 
0.471 0.29 0.694 0.624 
0.471 0.584 0.592 0.624 
0.557 0.125 0.576 0.498 
0.333 0.208 0.51 0.498 
0.498 0.416 0.612 0.541 
0.196 0.125 0.388 0.376 
0.388 0.416 0.541 0.459 
0.529 0.376 0.561 0.498 
0.388 0.333 0.525 0.498 
0.557 0.541 0.847 1.0 
0.776 0.416 0.831 0.831 
0.612 0.416 0.812 0.875 
0.165 0.208 0.592 0.667 
0.667 0.208 0.812 0.71 
0.612 0.502 0.694 0.792 
0.694 0.416 0.761 0.831 
0.416 0.333 0.694 0.957 
0.612 0.416 0.761 0.71 
0.945 0.251 1.0 0.918 
0.722 0.502 0.796 0.918 
0.945 0.333 0.965 0.792 
0.667 0.541 0.796 0.831 
0.529 0.333 0.643 0.71 
0.584 0.333 0.78 0.831 
0.863 0.333 0.863 0.749 
0.584 0.333 0.78 0.875 
0.498 0.251 0.78 0.541 
0.557 0.584 0.78 0.957 
0.471 0.416 0.643 0.71 
0.667 0.459 0.78 0.957 
0.416 0.29 0.694 0.749 
0.667 0.541 0.796 1.0 
0.557 0.208 0.678 0.749 
0.529 0.584 0.745 0.918 
0.416 0.29 0.694 0.749 
0.557 0.376 0.78 0.71 
0.918 0.416 0.949 0.831 
0.835 0.376 0.898 0.71 
0.804 0.667 0.863 1.0 
0.584 0.29 0.729 0.749 
0.388 0.208 0.678 0.792 
0.584 0.502 0.729 0.918 
0.945 0.749 0.965 0.875 
0.471 0.082 0.678 0.584 
0.361 0.333 0.663 0.792 
0.557 0.29 0.663 0.71 
0.804 0.502 0.847 0.71 
0.498 0.416 0.51 0.71 
0.804 0.416 0.812 0.624 
1.0 0.749 0.914 0.792 
0.557 0.333 0.694 0.584 
0.945 0.416 0.863 0.918 
0.584 0.459 0.761 0.71 
0.722 0.459 0.745 0.831 
0.722 0.459 0.694 0.918 
0.694 0.502 0.831 0.918 
0.667 0.416 0.714 0.918 
0.612 0.416 0.714 0.792 
0.443 0.416 0.694 0.71 
Teaching Patterns
1.0 0.0 0.0 
1.0 0.0 0.0 
1.0 0.0 0.0 
1.0 0.0 0.0 
1.0 0.0 0.0 
1.0 0.0 0.0 
1.0 0.0 0.0 
1.0 0.0 0.0 
1.0 0.0 0.0 
1.0 0.0 0.0 
1.0 0.0 0.0 
1.0 0.0 0.0 
1.0 0.0 0.0 
1.0 0.0 0.0 
1.0 0.0 0.0 
1.0 0.0 0.0 
1.0 0.0 0.0 
1.0 0.0 0.0 
1.0 0.0 0.0 
1.0 0.0 0.0 
1.0 0.0 0.0 
1.0 0.0 0.0 
1.0 0.0 0.0 
1.0 0.0 0.0 
1.0 0.0 0.0 
1.0 0.0 0.0 
1.0 0.0 0.0 
1.0 0.0 0.0 
1.0 0.0 0.0 
1.0 0.0 0.0 
1.0 0.0 0.0 
1.0 0.0 0.0 
1.0 0.0 0.0 
1.0 0.0 0.0 
1.0 0.0 0.0 
1.0 0.0 0.0 
1.0 0.0 0.0 
1.0 0.0 0.0 
1.0 0.0 0.0 
1.0 0.0 0.0 
1.0 0.0 0.0 
1.0 0.0 0.0 
1.0 0.0 0.0 
1.0 0.0 0.0 
1.0 0.0 0.0 
1.0 0.0 0.0 
1.0 0.0 0.0 
1.0 0.0 0.0 
1.0 0.0 0.0 
1.0 0.0 0.0 
0.0 1.0 0.0 
0.0 1.0 0.0 
0.0 1.0 0.0 
0.0 1.0 0.0 
0.0 1.0 0.0 
0.0 1.0 0.0 
0.0 1.0 0.0 
0.0 1.0 0.0 
0.0 1.0 0.0 
0.0 1.0 0.0 
0.0 1.0 0.0 
0.0 1.0 0.0 
0.0 1.0 0.0 
0.0 1.0 0.0 
0.0 1.0 0.0 
0.0 1.0 0.0 
0.0 1.0 0.0 
0.0 1.0 0.0 
0.0 1.0 0.0 
0.0 1.0 0.0 
0.0 1.0 0.0 
0.0 1.0 0.0 
0.0 1.0 0.0 
0.0 1.0 0.0 
0.0 1.0 0.0 
0.0 1.0 0.0 
0.0 1.0 0.0 
0.0 1.0 0.0 
0.0 1.0 0.0 
0.0 1.0 0.0 
0.0 1.0 0.0 
0.0 1.0 0.0 
0.0 1.0 0.0 
0.0 1.0 0.0 
0.0 1.0 0.0 
0.0 1.0 0.0 
0.0 1.0 0.0 
0.0 1.0 0.0 
0.0 1.0 0.0 
0.0 1.0 0.0 
0.0 1.0 0.0 
0.0 1.0 0.0 
0.0 1.0 0.0 
0.0 1.0 0.0 
0.0 1.0 0.0 
0.0 1.0 0.0 
0.0 1.0 0.0 
0.0 1.0 0.0 
0.0 1.0 0.0 
0.0 1.0 0.0 
0.0 0.0 1.0 
0.0 0.0 1.0 
0.0 0.0 1.0 
0.0 0.0 1.0 
0.0 0.0 1.0 
0.0 0.0 1.0 
0.0 0.0 1.0 
0.0 0.0 1.0 
0.0 0.0 1.0 
0.0 0.0 1.0 
0.0 0.0 1.0 
0.0 0.0 1.0 
0.0 0.0 1.0 
0.0 0.0 1.0 
0.0 0.0 1.0 
0.0 0.0 1.0 
0.0 0.0 1.0 
0.0 0.0 1.0 
0.0 0.0 1.0 
0.0 0.0 1.0 
0.0 0.0 1.0 
0.0 0.0 1.0 
0.0 0.0 1.0 
0.0 0.0 1.0 
0.0 0.0 1.0 
0.0 0.0 1.0 
0.0 0.0 1.0 
0.0 0.0 1.0 
0.0 0.0 1.0 
0.0 0.0 1.0 
0.0 0.0 1.0 
0.0 0.0 1.0 
0.0 0.0 1.0 
0.0 0.0 1.0 
0.0 0.0 1.0 
0.0 0.0 1.0 
0.0 0.0 1.0 
0.0 0.0 1.0 
0.0 0.0 1.0 
0.0 0.0 1.0 
0.0 0.0 1.0 
0.0 0.0 1.0 
0.0 0.0 1.0 
0.0 0.0 1.0 
0.0 0.0 1.0 
0.0 0.0 1.0 
0.0 0.0 1.0 
0.0 0.0 1.0 
0.0 0.0 1.0 
0.0 0.0 1.0 
Learning : 0.05
Momentum : 0.800000011920929
Epoch: 100, Error: 0.025277323066852455
Epoch: 200, Error: 0.01962605645643308
Epoch: 300, Error: 0.015255769193307137
Epoch: 400, Error: 0.01407927289106364
Epoch: 500, Error: 0.013491445740151722
Epoch: 600, Error: 0.013402310663706571
Epoch: 700, Error: 0.012796171356025609
Epoch: 800, Error: 0.01262160179228345
Epoch: 900, Error: 0.0124034274757074
Epoch: 1000, Error: 0.012372156689581887
Epoch: 1100, Error: 0.012193239280935225
Epoch: 1200, Error: 0.012474099176566913
Epoch: 1300, Error: 0.012181009881825414
Epoch: 1400, Error: 0.01206513455700846
Epoch: 1500, Error: 0.012003045468736262
Epoch: 1600, Error: 0.012029297941818291
Epoch: 1700, Error: 0.012007143576872218
Epoch: 1800, Error: 0.01241390384712589
Epoch: 1900, Error: 0.012072643544244145
Epoch: 2000, Error: 0.011951118070322422
Epoch: 2100, Error: 0.012000503511019861
Epoch: 2200, Error: 0.012013883414345245
Epoch: 2300, Error: 0.011996136137882184
Epoch: 2400, Error: 0.01204052972573299
Epoch: 2500, Error: 0.011946038381161879
Epoch: 2600, Error: 0.011961251195207566
Epoch: 2700, Error: 0.012021499057406234
Epoch: 2800, Error: 0.011981996060661141
Epoch: 2900, Error: 0.01211314674828011
Epoch: 3000, Error: 0.012113827977640476
Epoch: 3100, Error: 0.011929410781695139
Epoch: 3200, Error: 0.011984038253823782
Epoch: 3300, Error: 0.012067968495950713
Epoch: 3400, Error: 0.011924801360059387
Epoch: 3500, Error: 0.012033029934850895
Epoch: 3600, Error: 0.011933501898226607
Epoch: 3700, Error: 0.01194590797506807
Epoch: 3800, Error: 0.01192492259958886
Epoch: 3900, Error: 0.012016087799154411
Epoch: 4000, Error: 0.011959351817138713
Epoch: 4100, Error: 0.011916912449059553
Epoch: 4200, Error: 0.011908677793439707
Epoch: 4300, Error: 0.012011100098514492
Epoch: 4400, Error: 0.011911382677624021
Epoch: 4500, Error: 0.01189863948333823
Epoch: 4600, Error: 0.011943619037967953
Epoch: 4700, Error: 0.011964268138428824
Epoch: 4800, Error: 0.01190316571366834
Epoch: 4900, Error: 0.011889382175949438
Epoch: 5000, Error: 0.011958233743096932
Epoch: 5100, Error: 0.011935679856509574
Epoch: 5200, Error: 0.01195656542692236
Epoch: 5300, Error: 0.011903916267789565
Epoch: 5400, Error: 0.012085712827201939
Epoch: 5500, Error: 0.011977295753477285
Epoch: 5600, Error: 0.012061208042650734
Epoch: 5700, Error: 0.011959122450622363
Epoch: 5800, Error: 0.011926639376590727
Epoch: 5900, Error: 0.012067372899766468
Epoch: 6000, Error: 0.011914994178727446
Epoch: 6100, Error: 0.011894147287078882
Epoch: 6200, Error: 0.011915722833250599
Epoch: 6300, Error: 0.012000113994154085
Epoch: 6400, Error: 0.011906914349284266
Epoch: 6500, Error: 0.011918308953166161
Epoch: 6600, Error: 0.01193497797115743
Epoch: 6700, Error: 0.011933995906492918
Epoch: 6800, Error: 0.011924294985430857
Epoch: 6900, Error: 0.011906056473834407
Epoch: 7000, Error: 0.011852768870432252
Epoch: 7100, Error: 0.011876149296995018
Epoch: 7200, Error: 0.011900776669487838
Epoch: 7300, Error: 0.0119450425646841
Epoch: 7400, Error: 0.01195096921502925
Epoch: 7500, Error: 0.011872296259529753
Epoch: 7600, Error: 0.011862211093041362
Epoch: 7700, Error: 0.01180376685588633
Epoch: 7800, Error: 0.011879361547194066
Epoch: 7900, Error: 0.011771795573690418
Epoch: 8000, Error: 0.011796485315657005
Epoch: 8100, Error: 0.011805914900896967
Epoch: 8200, Error: 0.011796688901587412
Epoch: 8300, Error: 0.011833513832219872
Epoch: 8400, Error: 0.011739007880005356
Epoch: 8500, Error: 0.011882443374388216
Epoch: 8600, Error: 0.011724473185054448
Epoch: 8700, Error: 0.011739966344072603
Epoch: 8800, Error: 0.011719269969061155
Epoch: 8900, Error: 0.01188567820812639
Epoch: 9000, Error: 0.011688236800765752
Epoch: 9100, Error: 0.01164315586879053
Epoch: 9200, Error: 0.011741508469488272
Epoch: 9300, Error: 0.011682034341640387
Epoch: 9400, Error: 0.011635845179219336
Epoch: 9500, Error: 0.011612224655112966
Epoch: 9600, Error: 0.01159776155448345
Epoch: 9700, Error: 0.011615018110802235
Epoch: 9800, Error: 0.011544020257878042
Epoch: 9900, Error: 0.011553929822371838
Epoch: 10000, Error: 0.01155654009470625
Epoch: 10100, Error: 0.011539334297035516
Epoch: 10200, Error: 0.011486346145576276
Epoch: 10300, Error: 0.01144971776204505
Epoch: 10400, Error: 0.011425755003702668
Epoch: 10500, Error: 0.011428194856252882
Epoch: 10600, Error: 0.011459335358736122
Epoch: 10700, Error: 0.011313344254226209
Epoch: 10800, Error: 0.011278617406836397
Epoch: 10900, Error: 0.011293907168737459
Epoch: 11000, Error: 0.011351836072193316
Epoch: 11100, Error: 0.011157647881077199
Epoch: 11200, Error: 0.0111493252670953
Epoch: 11300, Error: 0.011101280107733098
Epoch: 11400, Error: 0.011026164109573336
Epoch: 11500, Error: 0.010982741473727128
Epoch: 11600, Error: 0.010909382301370297
Epoch: 11700, Error: 0.01083741158149355
Epoch: 11800, Error: 0.010756041486567716
Epoch: 11900, Error: 0.010696523409223512
Epoch: 12000, Error: 0.010620781068742948
Epoch: 12100, Error: 0.010496133027955783
Epoch: 12200, Error: 0.010522187195268484
Epoch: 12300, Error: 0.010291213339222652
Epoch: 12400, Error: 0.01017505262425415
Epoch: 12500, Error: 0.010104434382929857
Epoch: 12600, Error: 0.009973282225424852
Epoch: 12700, Error: 0.009848468570219886
Epoch: 12800, Error: 0.009865881825152004
Epoch: 12900, Error: 0.009656425209892726
Epoch: 13000, Error: 0.00954372710093751
Epoch: 13100, Error: 0.00942320020426639
Epoch: 13200, Error: 0.009272461652047731
Epoch: 13300, Error: 0.0091670999492577
Epoch: 13400, Error: 0.009046999402357253
Epoch: 13500, Error: 0.00913420140279827
Epoch: 13600, Error: 0.00885393431333837
Epoch: 13700, Error: 0.00870481042506182
Epoch: 13800, Error: 0.008593805220870622
Epoch: 13900, Error: 0.00854440633890555
Epoch: 14000, Error: 0.008387941419448222
Epoch: 14100, Error: 0.00830556381075689
Epoch: 14200, Error: 0.00821404266986667
Epoch: 14300, Error: 0.008128746395837287
Epoch: 14400, Error: 0.008042976204579892
Epoch: 14500, Error: 0.007988064657600614
Epoch: 14600, Error: 0.007898130293947446
Epoch: 14700, Error: 0.007836302281478679
Epoch: 14800, Error: 0.0077669616762558
Epoch: 14900, Error: 0.007694002465963818
Epoch: 15000, Error: 0.00768693867277774
Epoch: 15100, Error: 0.007653033886607148
Epoch: 15200, Error: 0.007532711499827257
Epoch: 15300, Error: 0.007488102345897433
Epoch: 15400, Error: 0.007432292081525293
Epoch: 15500, Error: 0.007382783819270931
Epoch: 15600, Error: 0.007357293301535542
Epoch: 15700, Error: 0.00733318885206443
Epoch: 15800, Error: 0.007331627243946954
Epoch: 15900, Error: 0.00723143449891733
Epoch: 16000, Error: 0.007198426869095704
Epoch: 16100, Error: 0.0071694440596501
Epoch: 16200, Error: 0.007214965104861672
Epoch: 16300, Error: 0.007099101000323576
Epoch: 16400, Error: 0.007061906039691162
Epoch: 16500, Error: 0.007024631687241864
Epoch: 16600, Error: 0.006996354272834051
Epoch: 16700, Error: 0.006985758129404798
Epoch: 16800, Error: 0.006983578406191937
Epoch: 16900, Error: 0.006948420485073515
Epoch: 17000, Error: 0.006888356539584901
Epoch: 17100, Error: 0.006864423884214787
Epoch: 17200, Error: 0.006829597606363247
Epoch: 17300, Error: 0.006802059466406793
Epoch: 17400, Error: 0.006770216835235297
Epoch: 17500, Error: 0.006758471415026729
Epoch: 17600, Error: 0.006715782347843072
Epoch: 17700, Error: 0.006701586177126671
Epoch: 17800, Error: 0.006669347885496743
Epoch: 17900, Error: 0.006648450003294564
Epoch: 18000, Error: 0.006629421860247001
Epoch: 18100, Error: 0.0066600521414866215
Epoch: 18200, Error: 0.006564084551939737
Epoch: 18300, Error: 0.006544137946251746
Epoch: 18400, Error: 0.0065183689641215535
Epoch: 18500, Error: 0.006515042380532037
Epoch: 18600, Error: 0.006472572786180343
Epoch: 18700, Error: 0.006434773854794153
Epoch: 18800, Error: 0.00642901877257133
Epoch: 18900, Error: 0.006409469487107097
Epoch: 19000, Error: 0.006380626918339428
Epoch: 19100, Error: 0.006364603367459826
Epoch: 19200, Error: 0.0063707807646272655
Epoch: 19300, Error: 0.006331048826006051
Epoch: 19400, Error: 0.006298294959942566
Epoch: 19500, Error: 0.006303094458078561
Epoch: 19600, Error: 0.006277571965852995
Epoch: 19700, Error: 0.006289487548446251
Epoch: 19800, Error: 0.00623537554059686
Epoch: 19900, Error: 0.006246773231847511
Epoch: 20000, Error: 0.006199812754741587
Epoch: 20100, Error: 0.006193401261648519
Epoch: 20200, Error: 0.0062063955079160885
Epoch: 20300, Error: 0.006301234503660301
Epoch: 20400, Error: 0.006141813556168051
Epoch: 20500, Error: 0.006150665278151306
Epoch: 20600, Error: 0.006129218528846024
Epoch: 20700, Error: 0.006104768803857945
Epoch: 20800, Error: 0.0061587997220609245
Epoch: 20900, Error: 0.0060879890623241695
Epoch: 21000, Error: 0.006072796986408206
Epoch: 21100, Error: 0.006050119091152558
Epoch: 21200, Error: 0.006039793543705068
Epoch: 21300, Error: 0.00602658079672344
Epoch: 21400, Error: 0.006007244647719462
Epoch: 21500, Error: 0.005991360996996096
Epoch: 21600, Error: 0.0059803941852292295
Epoch: 21700, Error: 0.005972133990007982
Epoch: 21800, Error: 0.00594017145708941
Epoch: 21900, Error: 0.005938685040442375
Epoch: 22000, Error: 0.00593647412233527
Epoch: 22100, Error: 0.005913367390176622
Epoch: 22200, Error: 0.005890611900535852
Epoch: 22300, Error: 0.005890340568535147
Epoch: 22400, Error: 0.00588625053208437
Epoch: 22500, Error: 0.005889243777718645
Epoch: 22600, Error: 0.005864039140413308
Epoch: 22700, Error: 0.0058546902509968935
Epoch: 22800, Error: 0.005879894859147475
Epoch: 22900, Error: 0.005835082068292516
Epoch: 23000, Error: 0.005859155743437715
Epoch: 23100, Error: 0.005837376964744463
Epoch: 23200, Error: 0.005842768571002373
Epoch: 23300, Error: 0.005850204352074578
Finished
