Input Patterns
0.224 0.624 0.067 0.043 
0.11 0.502 0.051 0.043 
0.196 0.667 0.067 0.043 
0.055 0.584 0.067 0.082 
0.027 0.376 0.067 0.043 
0.306 0.71 0.086 0.043 
0.137 0.416 0.067 0.0 
0.416 0.831 0.035 0.043 
0.306 0.792 0.051 0.125 
0.388 0.749 0.118 0.082 
0.306 0.584 0.118 0.043 
0.082 0.667 0.0 0.043 
0.137 0.584 0.153 0.043 
0.196 0.584 0.102 0.125 
0.251 0.584 0.067 0.043 
0.137 0.459 0.102 0.043 
0.251 0.875 0.086 0.0 
0.165 0.459 0.086 0.043 
0.333 0.624 0.051 0.043 
0.027 0.416 0.051 0.043 
0.196 0.624 0.051 0.082 
0.027 0.502 0.051 0.043 
0.224 0.749 0.153 0.125 
0.224 0.749 0.102 0.043 
0.278 0.71 0.086 0.043 
0.165 0.416 0.067 0.043 
0.082 0.459 0.086 0.043 
0.306 0.792 0.118 0.125 
0.196 0.584 0.086 0.043 
0.165 0.459 0.086 0.0 
0.137 0.584 0.102 0.043 
0.0 0.416 0.016 0.0 
0.388 1.0 0.086 0.125 
0.224 0.624 0.067 0.082 
0.224 0.749 0.086 0.082 
0.224 0.71 0.086 0.125 
0.224 0.541 0.118 0.165 
0.196 0.416 0.102 0.043 
0.251 0.624 0.086 0.043 
0.11 0.502 0.102 0.043 
0.306 0.584 0.086 0.125 
0.333 0.918 0.067 0.043 
0.196 0.502 0.035 0.043 
0.165 0.667 0.067 0.0 
0.224 0.584 0.086 0.043 
0.055 0.125 0.051 0.082 
0.196 0.624 0.102 0.208 
0.137 0.416 0.067 0.082 
0.082 0.502 0.067 0.043 
0.196 0.541 0.067 0.043 
0.749 0.502 0.627 0.541 
0.722 0.459 0.663 0.584 
0.612 0.333 0.612 0.584 
0.557 0.541 0.627 0.624 
0.639 0.376 0.612 0.498 
0.196 0.0 0.424 0.376 
0.471 0.082 0.51 0.376 
0.361 0.376 0.439 0.498 
0.361 0.416 0.592 0.584 
0.529 0.082 0.592 0.584 
0.443 0.502 0.643 0.459 
0.557 0.208 0.663 0.584 
0.584 0.376 0.561 0.498 
0.694 0.333 0.643 0.541 
0.471 0.376 0.592 0.584 
0.333 0.169 0.475 0.416 
0.416 0.29 0.49 0.459 
0.306 0.416 0.592 0.584 
0.667 0.459 0.627 0.584 
0.361 0.416 0.525 0.498 
0.333 0.251 0.576 0.459 
0.416 0.251 0.51 0.459 
0.361 0.29 0.541 0.498 
0.388 0.376 0.541 0.498 
0.224 0.208 0.337 0.416 
0.584 0.502 0.592 0.584 
0.333 0.125 0.51 0.498 
0.388 0.333 0.592 0.498 
0.165 0.169 0.388 0.376 
0.251 0.29 0.49 0.541 
0.443 0.416 0.541 0.584 
0.498 0.376 0.627 0.541 
0.667 0.459 0.576 0.541 
0.416 0.29 0.525 0.376 
0.361 0.208 0.49 0.416 
0.498 0.333 0.51 0.498 
0.498 0.333 0.627 0.459 
0.639 0.416 0.576 0.541 
0.667 0.416 0.678 0.667 
0.388 0.251 0.424 0.376 
0.333 0.169 0.459 0.376 
0.471 0.29 0.694 0.624 
0.471 0.584 0.592 0.624 
0.557 0.125 0.576 0.498 
0.333 0.208 0.51 0.498 
0.498 0.416 0.612 0.541 
0.196 0.125 0.388 0.376 
0.388 0.416 0.541 0.459 
0.529 0.376 0.561 0.498 
0.388 0.333 0.525 0.498 
0.557 0.541 0.847 1.0 
0.776 0.416 0.831 0.831 
0.612 0.416 0.812 0.875 
0.165 0.208 0.592 0.667 
0.667 0.208 0.812 0.71 
0.612 0.502 0.694 0.792 
0.694 0.416 0.761 0.831 
0.416 0.333 0.694 0.957 
0.612 0.416 0.761 0.71 
0.945 0.251 1.0 0.918 
0.722 0.502 0.796 0.918 
0.945 0.333 0.965 0.792 
0.667 0.541 0.796 0.831 
0.529 0.333 0.643 0.71 
0.584 0.333 0.78 0.831 
0.863 0.333 0.863 0.749 
0.584 0.333 0.78 0.875 
0.498 0.251 0.78 0.541 
0.557 0.584 0.78 0.957 
0.471 0.416 0.643 0.71 
0.667 0.459 0.78 0.957 
0.416 0.29 0.694 0.749 
0.667 0.541 0.796 1.0 
0.557 0.208 0.678 0.749 
0.529 0.584 0.745 0.918 
0.416 0.29 0.694 0.749 
0.557 0.376 0.78 0.71 
0.918 0.416 0.949 0.831 
0.835 0.376 0.898 0.71 
0.804 0.667 0.863 1.0 
0.584 0.29 0.729 0.749 
0.388 0.208 0.678 0.792 
0.584 0.502 0.729 0.918 
0.945 0.749 0.965 0.875 
0.471 0.082 0.678 0.584 
0.361 0.333 0.663 0.792 
0.557 0.29 0.663 0.71 
0.804 0.502 0.847 0.71 
0.498 0.416 0.51 0.71 
0.804 0.416 0.812 0.624 
1.0 0.749 0.914 0.792 
0.557 0.333 0.694 0.584 
0.945 0.416 0.863 0.918 
0.584 0.459 0.761 0.71 
0.722 0.459 0.745 0.831 
0.722 0.459 0.694 0.918 
0.694 0.502 0.831 0.918 
0.667 0.416 0.714 0.918 
0.612 0.416 0.714 0.792 
0.443 0.416 0.694 0.71 
Teaching Patterns
1.0 0.0 0.0 
1.0 0.0 0.0 
1.0 0.0 0.0 
1.0 0.0 0.0 
1.0 0.0 0.0 
1.0 0.0 0.0 
1.0 0.0 0.0 
1.0 0.0 0.0 
1.0 0.0 0.0 
1.0 0.0 0.0 
1.0 0.0 0.0 
1.0 0.0 0.0 
1.0 0.0 0.0 
1.0 0.0 0.0 
1.0 0.0 0.0 
1.0 0.0 0.0 
1.0 0.0 0.0 
1.0 0.0 0.0 
1.0 0.0 0.0 
1.0 0.0 0.0 
1.0 0.0 0.0 
1.0 0.0 0.0 
1.0 0.0 0.0 
1.0 0.0 0.0 
1.0 0.0 0.0 
1.0 0.0 0.0 
1.0 0.0 0.0 
1.0 0.0 0.0 
1.0 0.0 0.0 
1.0 0.0 0.0 
1.0 0.0 0.0 
1.0 0.0 0.0 
1.0 0.0 0.0 
1.0 0.0 0.0 
1.0 0.0 0.0 
1.0 0.0 0.0 
1.0 0.0 0.0 
1.0 0.0 0.0 
1.0 0.0 0.0 
1.0 0.0 0.0 
1.0 0.0 0.0 
1.0 0.0 0.0 
1.0 0.0 0.0 
1.0 0.0 0.0 
1.0 0.0 0.0 
1.0 0.0 0.0 
1.0 0.0 0.0 
1.0 0.0 0.0 
1.0 0.0 0.0 
1.0 0.0 0.0 
0.0 1.0 0.0 
0.0 1.0 0.0 
0.0 1.0 0.0 
0.0 1.0 0.0 
0.0 1.0 0.0 
0.0 1.0 0.0 
0.0 1.0 0.0 
0.0 1.0 0.0 
0.0 1.0 0.0 
0.0 1.0 0.0 
0.0 1.0 0.0 
0.0 1.0 0.0 
0.0 1.0 0.0 
0.0 1.0 0.0 
0.0 1.0 0.0 
0.0 1.0 0.0 
0.0 1.0 0.0 
0.0 1.0 0.0 
0.0 1.0 0.0 
0.0 1.0 0.0 
0.0 1.0 0.0 
0.0 1.0 0.0 
0.0 1.0 0.0 
0.0 1.0 0.0 
0.0 1.0 0.0 
0.0 1.0 0.0 
0.0 1.0 0.0 
0.0 1.0 0.0 
0.0 1.0 0.0 
0.0 1.0 0.0 
0.0 1.0 0.0 
0.0 1.0 0.0 
0.0 1.0 0.0 
0.0 1.0 0.0 
0.0 1.0 0.0 
0.0 1.0 0.0 
0.0 1.0 0.0 
0.0 1.0 0.0 
0.0 1.0 0.0 
0.0 1.0 0.0 
0.0 1.0 0.0 
0.0 1.0 0.0 
0.0 1.0 0.0 
0.0 1.0 0.0 
0.0 1.0 0.0 
0.0 1.0 0.0 
0.0 1.0 0.0 
0.0 1.0 0.0 
0.0 1.0 0.0 
0.0 1.0 0.0 
0.0 0.0 1.0 
0.0 0.0 1.0 
0.0 0.0 1.0 
0.0 0.0 1.0 
0.0 0.0 1.0 
0.0 0.0 1.0 
0.0 0.0 1.0 
0.0 0.0 1.0 
0.0 0.0 1.0 
0.0 0.0 1.0 
0.0 0.0 1.0 
0.0 0.0 1.0 
0.0 0.0 1.0 
0.0 0.0 1.0 
0.0 0.0 1.0 
0.0 0.0 1.0 
0.0 0.0 1.0 
0.0 0.0 1.0 
0.0 0.0 1.0 
0.0 0.0 1.0 
0.0 0.0 1.0 
0.0 0.0 1.0 
0.0 0.0 1.0 
0.0 0.0 1.0 
0.0 0.0 1.0 
0.0 0.0 1.0 
0.0 0.0 1.0 
0.0 0.0 1.0 
0.0 0.0 1.0 
0.0 0.0 1.0 
0.0 0.0 1.0 
0.0 0.0 1.0 
0.0 0.0 1.0 
0.0 0.0 1.0 
0.0 0.0 1.0 
0.0 0.0 1.0 
0.0 0.0 1.0 
0.0 0.0 1.0 
0.0 0.0 1.0 
0.0 0.0 1.0 
0.0 0.0 1.0 
0.0 0.0 1.0 
0.0 0.0 1.0 
0.0 0.0 1.0 
0.0 0.0 1.0 
0.0 0.0 1.0 
0.0 0.0 1.0 
0.0 0.0 1.0 
0.0 0.0 1.0 
0.0 0.0 1.0 
Learning : 0.05
Momentum : 0.800000011920929
Epoch: 100, Error: 0.02462778718567522
Epoch: 200, Error: 0.017873101511282057
Epoch: 300, Error: 0.016000216150996553
Epoch: 400, Error: 0.014931288048940682
Epoch: 500, Error: 0.014681869056413069
Epoch: 600, Error: 0.013835184451196846
Epoch: 700, Error: 0.013467623600712696
Epoch: 800, Error: 0.013315502297352518
Epoch: 900, Error: 0.013070481321027347
Epoch: 1000, Error: 0.01299021224042242
Epoch: 1100, Error: 0.012760972010464552
Epoch: 1200, Error: 0.012905485635226425
Epoch: 1300, Error: 0.01258702291678236
Epoch: 1400, Error: 0.0126188027734479
Epoch: 1500, Error: 0.012634427117473217
Epoch: 1600, Error: 0.012566192064602359
Epoch: 1700, Error: 0.012490597221415128
Epoch: 1800, Error: 0.012435793921573715
Epoch: 1900, Error: 0.01236640224339027
Epoch: 2000, Error: 0.012518317425605966
Epoch: 2100, Error: 0.012400269296934508
Epoch: 2200, Error: 0.012369223115946605
Epoch: 2300, Error: 0.01234093975406813
Epoch: 2400, Error: 0.012362972275206439
Epoch: 2500, Error: 0.012358807371328096
Epoch: 2600, Error: 0.012322988222264828
Epoch: 2700, Error: 0.012427973321130981
Epoch: 2800, Error: 0.012586456556422
Epoch: 2900, Error: 0.012419702667516594
Epoch: 3000, Error: 0.012498229082563041
Epoch: 3100, Error: 0.01257135128658965
Epoch: 3200, Error: 0.012337407091091837
Epoch: 3300, Error: 0.012482153816741448
Epoch: 3400, Error: 0.012393336240432722
Epoch: 3500, Error: 0.012347257095853239
Epoch: 3600, Error: 0.012504133401989106
Epoch: 3700, Error: 0.012369892420797625
Epoch: 3800, Error: 0.012448854929144096
Epoch: 3900, Error: 0.012402799179930963
Epoch: 4000, Error: 0.012365509557909144
Epoch: 4100, Error: 0.012330196024447373
Epoch: 4200, Error: 0.012353828863566209
Epoch: 4300, Error: 0.01235383589782508
Epoch: 4400, Error: 0.012341994096231051
Epoch: 4500, Error: 0.012340309417058402
Epoch: 4600, Error: 0.012337310885506122
Epoch: 4700, Error: 0.012309533102615365
Epoch: 4800, Error: 0.01236112362112744
Epoch: 4900, Error: 0.012313623758829929
Epoch: 5000, Error: 0.012440877547919494
Epoch: 5100, Error: 0.012400066463614846
Epoch: 5200, Error: 0.012404824409645644
Epoch: 5300, Error: 0.012325366604661976
Epoch: 5400, Error: 0.012328688365796855
Epoch: 5500, Error: 0.012286252250649004
Epoch: 5600, Error: 0.012312420289007727
Epoch: 5700, Error: 0.012272832503805469
Epoch: 5800, Error: 0.012301862246034408
Epoch: 5900, Error: 0.012348678779599229
Epoch: 6000, Error: 0.01234419352173032
Epoch: 6100, Error: 0.012285598978833905
Epoch: 6200, Error: 0.012362667215143834
Epoch: 6300, Error: 0.0124012847351511
Epoch: 6400, Error: 0.012556867372431004
Epoch: 6500, Error: 0.012446161006109246
Epoch: 6600, Error: 0.01247637443383088
Epoch: 6700, Error: 0.012494413717047754
Epoch: 6800, Error: 0.012318954438765
Epoch: 6900, Error: 0.012354518604924479
Epoch: 7000, Error: 0.012367245790688297
Epoch: 7100, Error: 0.012339171559243018
Epoch: 7200, Error: 0.01239976009039584
Epoch: 7300, Error: 0.012325525556649392
Epoch: 7400, Error: 0.012363001624686917
Epoch: 7500, Error: 0.012321664639886034
Epoch: 7600, Error: 0.012352102289263171
Epoch: 7700, Error: 0.012358780879887963
Epoch: 7800, Error: 0.0124190951474744
Epoch: 7900, Error: 0.012324896318766548
Epoch: 8000, Error: 0.012409307203714892
Epoch: 8100, Error: 0.012333973644802217
Epoch: 8200, Error: 0.012460996662595984
Epoch: 8300, Error: 0.01236527512145906
Epoch: 8400, Error: 0.012307497747518973
Epoch: 8500, Error: 0.01233352310380722
Epoch: 8600, Error: 0.012303382091621283
Epoch: 8700, Error: 0.01270964319248442
Epoch: 8800, Error: 0.01234934014242021
Epoch: 8900, Error: 0.01241691307991308
Epoch: 9000, Error: 0.012359976930182343
Epoch: 9100, Error: 0.012372413855284689
Epoch: 9200, Error: 0.012296333561710237
Epoch: 9300, Error: 0.012332657452798329
Epoch: 9400, Error: 0.012321292114760109
Epoch: 9500, Error: 0.012326054713829873
Epoch: 9600, Error: 0.012329232359088504
Epoch: 9700, Error: 0.012303787031232298
Epoch: 9800, Error: 0.012351521535093661
Epoch: 9900, Error: 0.012307029543918673
Epoch: 10000, Error: 0.012339473838050296
Epoch: 10100, Error: 0.01236786527494513
Epoch: 10200, Error: 0.012340435473935218
Epoch: 10300, Error: 0.012284067872602219
Epoch: 10400, Error: 0.012280138380196898
Epoch: 10500, Error: 0.012302375755669167
Epoch: 10600, Error: 0.012326384205431721
Epoch: 10700, Error: 0.012230093086314125
Epoch: 10800, Error: 0.012388695255094583
Epoch: 10900, Error: 0.012242142531462302
Epoch: 11000, Error: 0.012278424350895408
Epoch: 11100, Error: 0.012268398197631286
Epoch: 11200, Error: 0.012341885252916044
Epoch: 11300, Error: 0.012301570175238275
Epoch: 11400, Error: 0.012202938030159585
Epoch: 11500, Error: 0.012348850156090604
Epoch: 11600, Error: 0.012251159707529387
Epoch: 11700, Error: 0.012272774520173937
Epoch: 11800, Error: 0.012254616155060422
Epoch: 11900, Error: 0.012320424198388693
Epoch: 12000, Error: 0.012262551775340748
Epoch: 12100, Error: 0.01224450834109382
Epoch: 12200, Error: 0.012302355349177908
Epoch: 12300, Error: 0.012296781519992193
Epoch: 12400, Error: 0.012269638229016291
Epoch: 12500, Error: 0.012260420496677771
Epoch: 12600, Error: 0.012266407600237757
Epoch: 12700, Error: 0.012296184168947991
Epoch: 12800, Error: 0.01239985999397392
Epoch: 12900, Error: 0.012277386142588323
Epoch: 13000, Error: 0.012240313173005281
Epoch: 13100, Error: 0.012288761601255352
Epoch: 13200, Error: 0.012231287700995979
Epoch: 13300, Error: 0.012223635333733848
Epoch: 13400, Error: 0.01225039905447656
Epoch: 13500, Error: 0.012216508557586499
Epoch: 13600, Error: 0.012253762641077987
Epoch: 13700, Error: 0.012317268742750718
Epoch: 13800, Error: 0.012132540745599973
Epoch: 13900, Error: 0.012194100560151116
Epoch: 14000, Error: 0.012163948524647876
Epoch: 14100, Error: 0.012175106835377583
Epoch: 14200, Error: 0.012200687347067437
Epoch: 14300, Error: 0.012172358142083298
Epoch: 14400, Error: 0.012143447550331152
Epoch: 14500, Error: 0.012146881630376877
Epoch: 14600, Error: 0.012125791805492026
Epoch: 14700, Error: 0.01220155375465144
Epoch: 14800, Error: 0.012128191808886593
Epoch: 14900, Error: 0.012110033089967841
Epoch: 15000, Error: 0.01212668112086307
Epoch: 15100, Error: 0.012134189164728438
Epoch: 15200, Error: 0.012132284441490643
Epoch: 15300, Error: 0.012173528444632743
Epoch: 15400, Error: 0.012163543728813292
Epoch: 15500, Error: 0.012090114538053028
Epoch: 15600, Error: 0.012055635323956607
Epoch: 15700, Error: 0.012076659933846146
Epoch: 15800, Error: 0.01212726321522766
Epoch: 15900, Error: 0.012145074272858535
Epoch: 16000, Error: 0.012020207642158835
Epoch: 16100, Error: 0.012043673503407026
Epoch: 16200, Error: 0.012059936040447444
Epoch: 16300, Error: 0.012084067711090687
Epoch: 16400, Error: 0.01192913400859831
Epoch: 16500, Error: 0.011880832935558128
Epoch: 16600, Error: 0.011838938386860204
Epoch: 16700, Error: 0.011828290733829993
Epoch: 16800, Error: 0.011907009150217272
Epoch: 16900, Error: 0.011818446637801376
Epoch: 17000, Error: 0.011816646567174233
Epoch: 17100, Error: 0.011783736026361975
Epoch: 17200, Error: 0.011784305869427195
Epoch: 17300, Error: 0.011750263128603977
Epoch: 17400, Error: 0.011789338630668804
Epoch: 17500, Error: 0.011688917119905615
Epoch: 17600, Error: 0.011657493038733405
Epoch: 17700, Error: 0.01172815735258992
Epoch: 17800, Error: 0.011681033751212586
Epoch: 17900, Error: 0.011643235576631793
Epoch: 18000, Error: 0.011671326190077073
Epoch: 18100, Error: 0.011514995033812795
Epoch: 18200, Error: 0.011536123422037395
Epoch: 18300, Error: 0.011419729013354881
Epoch: 18400, Error: 0.011439109448701157
Epoch: 18500, Error: 0.011494133501009973
Epoch: 18600, Error: 0.011401682936069905
Epoch: 18700, Error: 0.011327820038624821
Epoch: 18800, Error: 0.011338329452708717
Epoch: 18900, Error: 0.011287955811332228
Epoch: 19000, Error: 0.011239788331455
Epoch: 19100, Error: 0.011213423602788163
Epoch: 19200, Error: 0.011185298858519313
Epoch: 19300, Error: 0.011122678345007153
Epoch: 19400, Error: 0.011101906598808442
Epoch: 19500, Error: 0.011059877807901151
Epoch: 19600, Error: 0.011073226434350242
Epoch: 19700, Error: 0.011099089548763907
Epoch: 19800, Error: 0.010874642475448948
Epoch: 19900, Error: 0.010855100950559218
Epoch: 20000, Error: 0.010811970731667796
Epoch: 20100, Error: 0.010808964230547563
Epoch: 20200, Error: 0.010744028433344918
Epoch: 20300, Error: 0.010665611571156457
Epoch: 20400, Error: 0.010630668710634488
Epoch: 20500, Error: 0.010555735234265772
Epoch: 20600, Error: 0.010531006295229241
Epoch: 20700, Error: 0.010471629694214075
Epoch: 20800, Error: 0.010441742742182148
Epoch: 20900, Error: 0.010355929149331118
Epoch: 21000, Error: 0.010310046911886877
Epoch: 21100, Error: 0.010265319982150365
Epoch: 21200, Error: 0.010240256562146666
Epoch: 21300, Error: 0.010200505169128836
Epoch: 21400, Error: 0.010189097359736042
Epoch: 21500, Error: 0.010219750242064932
Epoch: 21600, Error: 0.01023224717786601
Epoch: 21700, Error: 0.010178622397743768
Epoch: 21800, Error: 0.01021662517861246
Epoch: 21900, Error: 0.010296078589321439
Epoch: 22000, Error: 0.0103391897888624
Epoch: 22100, Error: 0.010299152443231785
Epoch: 22200, Error: 0.010228121210399824
Epoch: 22300, Error: 0.010233434387098216
Epoch: 22400, Error: 0.010168922406726871
Epoch: 22500, Error: 0.010114573252482004
Epoch: 22600, Error: 0.010085187756757907
Epoch: 22700, Error: 0.010075895338247156
Epoch: 22800, Error: 0.010061226963019223
Epoch: 22900, Error: 0.010016660795222945
Epoch: 23000, Error: 0.01002548659333463
Epoch: 23100, Error: 0.00998003490563785
Epoch: 23200, Error: 0.009928069658904583
Epoch: 23300, Error: 0.00990892515133536
Epoch: 23400, Error: 0.009841093740263375
Epoch: 23500, Error: 0.009785724621646136
Epoch: 23600, Error: 0.009693300725419653
Epoch: 23700, Error: 0.009655288922768492
Epoch: 23800, Error: 0.00955281722987222
Epoch: 23900, Error: 0.009566171596942522
Epoch: 24000, Error: 0.009532272503064092
Epoch: 24100, Error: 0.009424438930106376
Epoch: 24200, Error: 0.009429828204488733
Epoch: 24300, Error: 0.009346804826942917
Epoch: 24400, Error: 0.00934726639111851
Epoch: 24500, Error: 0.009276443383861575
Epoch: 24600, Error: 0.009210001250371434
Epoch: 24700, Error: 0.009286534052850995
Epoch: 24800, Error: 0.009034988126407503
Epoch: 24900, Error: 0.008999855177859756
Epoch: 25000, Error: 0.008999332400068491
Epoch: 25100, Error: 0.008853954271469969
Epoch: 25200, Error: 0.008842007409194122
Epoch: 25300, Error: 0.008803908029439941
Epoch: 25400, Error: 0.008770980769400291
Epoch: 25500, Error: 0.008707099309589253
Epoch: 25600, Error: 0.008679130480595989
Epoch: 25700, Error: 0.008617255302863653
Epoch: 25800, Error: 0.008606505626073888
Epoch: 25900, Error: 0.008583969160718656
Epoch: 26000, Error: 0.008590193470918257
Epoch: 26100, Error: 0.00860629700055894
Epoch: 26200, Error: 0.008580196471849752
Epoch: 26300, Error: 0.008564559089765608
Epoch: 26400, Error: 0.008560337177559425
Epoch: 26500, Error: 0.008567493401605947
Epoch: 26600, Error: 0.00859331666519935
Epoch: 26700, Error: 0.008552349963093153
Epoch: 26800, Error: 0.00858344407454909
Epoch: 26900, Error: 0.008573788092838685
Epoch: 27000, Error: 0.00856503930895593
Epoch: 27100, Error: 0.008528345376766886
Epoch: 27200, Error: 0.008516284138741309
Epoch: 27300, Error: 0.008551925495454965
Epoch: 27400, Error: 0.0085576003785139
Epoch: 27500, Error: 0.00853350067268412
Epoch: 27600, Error: 0.008510248520816232
Epoch: 27700, Error: 0.008480037203572674
Epoch: 27800, Error: 0.008453113946380908
Epoch: 27900, Error: 0.008474366435647217
Epoch: 28000, Error: 0.008453489698159546
Epoch: 28100, Error: 0.008462319346243537
Epoch: 28200, Error: 0.008428026355330066
Epoch: 28300, Error: 0.008357813124866761
Epoch: 28400, Error: 0.008329503242260105
Epoch: 28500, Error: 0.008311569983876981
Epoch: 28600, Error: 0.008295456016689911
Epoch: 28700, Error: 0.008328197314176135
Epoch: 28800, Error: 0.00829509964991431
Epoch: 28900, Error: 0.008259205535129883
Epoch: 29000, Error: 0.008255906047909736
Epoch: 29100, Error: 0.008247668314350474
Epoch: 29200, Error: 0.008189422973238523
Epoch: 29300, Error: 0.00821705678687912
Epoch: 29400, Error: 0.008160865845553334
Epoch: 29500, Error: 0.008117710562647632
Epoch: 29600, Error: 0.008102956448336151
Epoch: 29700, Error: 0.008095269505777419
Epoch: 29800, Error: 0.008068678597074021
Epoch: 29900, Error: 0.008021799692129407
Epoch: 30000, Error: 0.007981091015368508
Epoch: 30100, Error: 0.007998538453279703
Epoch: 30200, Error: 0.007987954505347537
Epoch: 30300, Error: 0.007924822070814987
Epoch: 30400, Error: 0.008072765603345453
Epoch: 30500, Error: 0.008043759764729893
Epoch: 30600, Error: 0.007958838007417994
Epoch: 30700, Error: 0.00794341063084931
Epoch: 30800, Error: 0.007933675112369311
Epoch: 30900, Error: 0.007914853153805745
Epoch: 31000, Error: 0.00790864471430415
Epoch: 31100, Error: 0.007904997575947271
Epoch: 31200, Error: 0.007895578760534828
Epoch: 31300, Error: 0.007869957766099755
Epoch: 31400, Error: 0.007886596493592331
Epoch: 31500, Error: 0.007873440703334763
Epoch: 31600, Error: 0.007891677572205488
Epoch: 31700, Error: 0.00771553974790989
Epoch: 31800, Error: 0.007707581463616904
Epoch: 31900, Error: 0.007876899231768859
Epoch: 32000, Error: 0.007731780169092638
Epoch: 32100, Error: 0.007902220351649333
Epoch: 32200, Error: 0.00783566347770682
Epoch: 32300, Error: 0.007865956412514792
Epoch: 32400, Error: 0.00786116982789092
Epoch: 32500, Error: 0.007706305061998888
Epoch: 32600, Error: 0.007677561682632692
Epoch: 32700, Error: 0.007827766111452927
Epoch: 32800, Error: 0.007823332992726507
Epoch: 32900, Error: 0.00779662609928516
Epoch: 33000, Error: 0.007803314685291946
Epoch: 33100, Error: 0.007791086873340869
Epoch: 33200, Error: 0.00764268420434888
Epoch: 33300, Error: 0.00762249513445727
Epoch: 33400, Error: 0.007647718831628848
Epoch: 33500, Error: 0.007761839650930844
Epoch: 33600, Error: 0.007611530777471574
Epoch: 33700, Error: 0.00761080032691745
Epoch: 33800, Error: 0.007777615095843667
Epoch: 33900, Error: 0.007748995586783547
Epoch: 34000, Error: 0.007586632963245275
Epoch: 34100, Error: 0.007610474199796637
Epoch: 34200, Error: 0.0075955997439762545
Epoch: 34300, Error: 0.007643850357366889
Epoch: 34400, Error: 0.007630849625947716
Epoch: 34500, Error: 0.0077716945286431935
Epoch: 34600, Error: 0.007774703931360932
Epoch: 34700, Error: 0.007621284633537871
Epoch: 34800, Error: 0.007752371335359487
Epoch: 34900, Error: 0.007620941956496158
Epoch: 35000, Error: 0.007620829404320264
Epoch: 35100, Error: 0.007636910200972125
Epoch: 35200, Error: 0.007754161352942973
Epoch: 35300, Error: 0.007564706889074324
Epoch: 35400, Error: 0.007733062181492388
Epoch: 35500, Error: 0.007580797144647765
Epoch: 35600, Error: 0.007708305786181366
Epoch: 35700, Error: 0.0077288900945084735
Epoch: 35800, Error: 0.007685148796062192
Epoch: 35900, Error: 0.007687237017088176
Epoch: 36000, Error: 0.007670095126856293
Epoch: 36100, Error: 0.00762064107728012
Epoch: 36200, Error: 0.007641713582323606
Epoch: 36300, Error: 0.00752483732038778
Epoch: 36400, Error: 0.0076605875485027675
Epoch: 36500, Error: 0.007601629453736143
Epoch: 36600, Error: 0.007652752658158908
Epoch: 36700, Error: 0.0076024956880669445
Epoch: 36800, Error: 0.007690410057031847
Epoch: 36900, Error: 0.007448761633106331
Epoch: 37000, Error: 0.007563328275610404
Epoch: 37100, Error: 0.007598432207334754
Epoch: 37200, Error: 0.007584022196663343
Epoch: 37300, Error: 0.007406850352590991
Epoch: 37400, Error: 0.007530045069783538
Epoch: 37500, Error: 0.007501362719213259
Epoch: 37600, Error: 0.007559615680607826
Epoch: 37700, Error: 0.00751019581881293
Epoch: 37800, Error: 0.007542637617553286
Epoch: 37900, Error: 0.007451367526739932
Epoch: 38000, Error: 0.007540229278185658
Epoch: 38100, Error: 0.007481540603536229
Epoch: 38200, Error: 0.007283367335888322
Epoch: 38300, Error: 0.007409098733582515
Epoch: 38400, Error: 0.0074240008174553855
Epoch: 38500, Error: 0.007417720419537555
Epoch: 38600, Error: 0.007403581077700698
Epoch: 38700, Error: 0.007409121700891097
Epoch: 38800, Error: 0.00742240631376673
Epoch: 38900, Error: 0.007412323981529391
Epoch: 39000, Error: 0.0074035461890216946
Epoch: 39100, Error: 0.007418198042093199
Epoch: 39200, Error: 0.007391362919698738
Epoch: 39300, Error: 0.007423801458743636
Epoch: 39400, Error: 0.007441294138798979
Epoch: 39500, Error: 0.00726555119016177
Epoch: 39600, Error: 0.007237711821372622
Epoch: 39700, Error: 0.007207898579729996
Epoch: 39800, Error: 0.007381176119898496
Epoch: 39900, Error: 0.007357056357309852
Epoch: 40000, Error: 0.007530425835753161
Epoch: 40100, Error: 0.007373412509032011
Epoch: 40200, Error: 0.007363309291182056
Epoch: 40300, Error: 0.007349916694457588
Epoch: 40400, Error: 0.007336953814354322
Epoch: 40500, Error: 0.007336350159391469
Epoch: 40600, Error: 0.0073171071666036785
Epoch: 40700, Error: 0.007309988908871802
Epoch: 40800, Error: 0.007306593883081078
Epoch: 40900, Error: 0.007313293746499145
Epoch: 41000, Error: 0.007326803384820595
Epoch: 41100, Error: 0.007284515211737029
Epoch: 41200, Error: 0.00726251975131035
Epoch: 41300, Error: 0.007262383418289194
Epoch: 41400, Error: 0.007294972600938231
Epoch: 41500, Error: 0.007260695606335134
Epoch: 41600, Error: 0.007255347212353497
Epoch: 41700, Error: 0.007269205088713421
Epoch: 41800, Error: 0.007266417483548241
Epoch: 41900, Error: 0.007247131230592731
Epoch: 42000, Error: 0.007251247109598041
Epoch: 42100, Error: 0.007225982024982115
Epoch: 42200, Error: 0.007183297828786414
Epoch: 42300, Error: 0.007187960787098424
Epoch: 42400, Error: 0.0071504715884835365
Epoch: 42500, Error: 0.007138421725072832
Epoch: 42600, Error: 0.007137768011892377
Epoch: 42700, Error: 0.007112394420260099
Epoch: 42800, Error: 0.00707416128502991
Epoch: 42900, Error: 0.007071262547700392
Epoch: 43000, Error: 0.007064517389137939
Epoch: 43100, Error: 0.007009099675179642
Epoch: 43200, Error: 0.007016377805844285
Epoch: 43300, Error: 0.00698568960720611
Epoch: 43400, Error: 0.006995060675078194
Epoch: 43500, Error: 0.006972523478124453
Epoch: 43600, Error: 0.007025756013152148
Epoch: 43700, Error: 0.006951339624303572
Epoch: 43800, Error: 0.006936120481971518
Epoch: 43900, Error: 0.006911777955093267
Epoch: 44000, Error: 0.006935668004037459
Epoch: 44100, Error: 0.0068779783020596055
Epoch: 44200, Error: 0.006868283194494924
Epoch: 44300, Error: 0.006891158504881968
Epoch: 44400, Error: 0.006799973906914425
Epoch: 44500, Error: 0.006826136975670582
Epoch: 44600, Error: 0.006757049446786328
Epoch: 44700, Error: 0.006776953300400891
Epoch: 44800, Error: 0.006719472281700218
Epoch: 44900, Error: 0.006699373956848162
Epoch: 45000, Error: 0.006731064115654987
Epoch: 45100, Error: 0.006639077646550483
Epoch: 45200, Error: 0.006725155268472833
Epoch: 45300, Error: 0.006680674793622444
Epoch: 45400, Error: 0.006644326889662918
Epoch: 45500, Error: 0.006581058243370739
Epoch: 45600, Error: 0.006523934986668126
Epoch: 45700, Error: 0.006553135413166569
Epoch: 45800, Error: 0.006496015669131174
Epoch: 45900, Error: 0.006508082174496356
Epoch: 46000, Error: 0.006465045606665272
Epoch: 46100, Error: 0.006476542455217529
Epoch: 46200, Error: 0.006440645922843692
Epoch: 46300, Error: 0.006450486703711241
Epoch: 46400, Error: 0.00630865086587818
Epoch: 46500, Error: 0.006276800602873127
Epoch: 46600, Error: 0.00627911233690348
Epoch: 46700, Error: 0.006173368308008417
Epoch: 46800, Error: 0.006224500348834477
Epoch: 46900, Error: 0.006219081768152013
Epoch: 47000, Error: 0.0061796201389805626
Epoch: 47100, Error: 0.006206561394550193
Epoch: 47200, Error: 0.006193594577622292
Epoch: 47300, Error: 0.006153904681654634
Epoch: 47400, Error: 0.006132864892623545
Epoch: 47500, Error: 0.006136768949087864
Epoch: 47600, Error: 0.006103613113947519
Epoch: 47700, Error: 0.00612085921567909
Epoch: 47800, Error: 0.00608409702758818
Epoch: 47900, Error: 0.006100070585870355
Epoch: 48000, Error: 0.0060534410579093185
Epoch: 48100, Error: 0.005969082947689238
Epoch: 48200, Error: 0.0059775499042641865
Epoch: 48300, Error: 0.006100272330643029
Epoch: 48400, Error: 0.006056916373575626
Epoch: 48500, Error: 0.006035218960238928
Epoch: 48600, Error: 0.006005615071300844
Epoch: 48700, Error: 0.005957830801509034
Epoch: 48800, Error: 0.0060153262812106395
Epoch: 48900, Error: 0.005877989811417921
Epoch: 49000, Error: 0.0059568392164395705
Epoch: 49100, Error: 0.0059859532355935234
Epoch: 49200, Error: 0.005948142907949909
Epoch: 49300, Error: 0.005921140111532174
Epoch: 49400, Error: 0.005834125986136683
Epoch: 49500, Error: 0.0059317256920743
Epoch: 49600, Error: 0.005892762230513552
Epoch: 49700, Error: 0.005917118682869083
Epoch: 49800, Error: 0.005839374215219755
Epoch: 49900, Error: 0.005815717910762993
Epoch: 50000, Error: 0.005796956471753697
Epoch: 50100, Error: 0.0058957704171971725
Epoch: 50200, Error: 0.005813999987384854
Epoch: 50300, Error: 0.005893504654964744
Epoch: 50400, Error: 0.00576820050372817
Epoch: 50500, Error: 0.005779527682280655
Epoch: 50600, Error: 0.005776659650860685
Epoch: 50700, Error: 0.005850092906118633
Epoch: 50800, Error: 0.005893359818025002
Epoch: 50900, Error: 0.005763145323090288
Epoch: 51000, Error: 0.005806671661498891
Epoch: 51100, Error: 0.0057338811798618265
Epoch: 51200, Error: 0.005820363110954369
Epoch: 51300, Error: 0.005819371628744994
Epoch: 51400, Error: 0.005811835600519175
Epoch: 51500, Error: 0.005693014791518457
Epoch: 51600, Error: 0.005793577202953336
Epoch: 51700, Error: 0.0057287409382181555
Epoch: 51800, Error: 0.005804127135665903
Epoch: 51900, Error: 0.005829355639502994
Epoch: 52000, Error: 0.00577970011686263
Epoch: 52100, Error: 0.005784344129222262
Epoch: 52200, Error: 0.005660203450667974
Epoch: 52300, Error: 0.005751631074371087
Epoch: 52400, Error: 0.005753860160045806
Epoch: 52500, Error: 0.005688851062430217
Epoch: 52600, Error: 0.005737746306748791
Epoch: 52700, Error: 0.005740242022585905
Epoch: 52800, Error: 0.005642254309637222
Epoch: 52900, Error: 0.005643721744448761
Epoch: 53000, Error: 0.005790496343337539
Epoch: 53100, Error: 0.005690090252744424
Epoch: 53200, Error: 0.005692332914681496
Epoch: 53300, Error: 0.005701413396495449
Epoch: 53400, Error: 0.005689852571569977
Epoch: 53500, Error: 0.005702097588046979
Epoch: 53600, Error: 0.005569353697810137
Epoch: 53700, Error: 0.005573850400431236
Epoch: 53800, Error: 0.005662299503022489
Epoch: 53900, Error: 0.005642898706072329
Epoch: 54000, Error: 0.0056560999349371316
Epoch: 54100, Error: 0.0056298810683399975
Epoch: 54200, Error: 0.005544919025481306
Epoch: 54300, Error: 0.005511681296288105
Epoch: 54400, Error: 0.005519038756904094
Epoch: 54500, Error: 0.005532158133808225
Epoch: 54600, Error: 0.005610238879540073
Epoch: 54700, Error: 0.00560423429618694
Epoch: 54800, Error: 0.005605370844008363
Epoch: 54900, Error: 0.005589781025832961
Epoch: 55000, Error: 0.0055860612709492
Epoch: 55100, Error: 0.00558217224260536
Epoch: 55200, Error: 0.005471414098340021
Epoch: 55300, Error: 0.005472177191497491
Epoch: 55400, Error: 0.005554615776279826
Epoch: 55500, Error: 0.005457306845139614
Epoch: 55600, Error: 0.0055317144519784495
Epoch: 55700, Error: 0.005532887410032903
Epoch: 55800, Error: 0.005521190370261798
Epoch: 55900, Error: 0.005519950432803429
Epoch: 56000, Error: 0.005535190609298881
Epoch: 56100, Error: 0.005503711935874231
Epoch: 56200, Error: 0.0053918900931212745
Epoch: 56300, Error: 0.005387810550077032
Epoch: 56400, Error: 0.0054642706045163955
Epoch: 56500, Error: 0.005389332666129159
Epoch: 56600, Error: 0.0054559730756945125
Epoch: 56700, Error: 0.005443878140410987
Epoch: 56800, Error: 0.005450355561469583
Epoch: 56900, Error: 0.0054133078957647835
Epoch: 57000, Error: 0.005415803699267658
Epoch: 57100, Error: 0.00531223677633092
Epoch: 57200, Error: 0.005295047519927618
Epoch: 57300, Error: 0.0053795616999952915
Epoch: 57400, Error: 0.00537251502691953
Epoch: 57500, Error: 0.005375815826156657
Epoch: 57600, Error: 0.005365479132083535
Epoch: 57700, Error: 0.005369870296175762
Epoch: 57800, Error: 0.0053385096877119455
Epoch: 57900, Error: 0.005311658554514327
Epoch: 58000, Error: 0.005310132127642652
Epoch: 58100, Error: 0.005205363728194764
Epoch: 58200, Error: 0.0051855959339408755
Epoch: 58300, Error: 0.005265367279047965
Epoch: 58400, Error: 0.005170000017749966
Epoch: 58500, Error: 0.005237189967146889
Epoch: 58600, Error: 0.005121505198077116
Epoch: 58700, Error: 0.005115648391331733
Epoch: 58800, Error: 0.005094824291510251
Epoch: 58900, Error: 0.00509918465459825
Epoch: 59000, Error: 0.005064665544415788
Epoch: 59100, Error: 0.005145636389542666
Epoch: 59200, Error: 0.005035901752212141
Epoch: 59300, Error: 0.005107603264982498
Epoch: 59400, Error: 0.004974081024379037
Epoch: 59500, Error: 0.004959381278797515
Epoch: 59600, Error: 0.004951039191660551
Epoch: 59700, Error: 0.004936239840240276
Epoch: 59800, Error: 0.004907110915248176
Epoch: 59900, Error: 0.004878831834963169
Epoch: 60000, Error: 0.0048973935490763945
Epoch: 60100, Error: 0.004849932001739688
Epoch: 60200, Error: 0.004816587657855556
Epoch: 60300, Error: 0.004806381109265389
Epoch: 60400, Error: 0.004781308025341778
Epoch: 60500, Error: 0.004881998677045258
Epoch: 60600, Error: 0.004735956585643192
Epoch: 60700, Error: 0.0047179736982211435
Epoch: 60800, Error: 0.004698339054149284
Epoch: 60900, Error: 0.0046821038008705435
Epoch: 61000, Error: 0.004656484713900621
Epoch: 61100, Error: 0.004630757904979973
Epoch: 61200, Error: 0.004614891769786026
Epoch: 61300, Error: 0.004553100531353424
Epoch: 61400, Error: 0.004535167554186811
Epoch: 61500, Error: 0.004511045231958877
Epoch: 61600, Error: 0.004493051387200466
Epoch: 61700, Error: 0.004495715472102865
Epoch: 61800, Error: 0.004517336675714915
Epoch: 61900, Error: 0.004385350963800104
Epoch: 62000, Error: 0.004388092902586762
Epoch: 62100, Error: 0.004528222866163328
Epoch: 62200, Error: 0.004329337295945141
Epoch: 62300, Error: 0.004321696085100753
Epoch: 62400, Error: 0.004299665249311013
Epoch: 62500, Error: 0.004382113958228549
Epoch: 62600, Error: 0.004335487135947392
Epoch: 62700, Error: 0.004311263892866501
Epoch: 62800, Error: 0.0041980571456479085
Epoch: 62900, Error: 0.004278052580621932
Epoch: 63000, Error: 0.004250454262477927
Epoch: 63100, Error: 0.004232913216054179
Epoch: 63200, Error: 0.0042158905076170854
Epoch: 63300, Error: 0.004186780995765356
Epoch: 63400, Error: 0.00416869430696437
Epoch: 63500, Error: 0.004167018033606546
Epoch: 63600, Error: 0.004022870206551833
Epoch: 63700, Error: 0.003995625462184809
Epoch: 63800, Error: 0.003989320209565337
Epoch: 63900, Error: 0.004070392134542955
Epoch: 64000, Error: 0.0040371318999470485
Epoch: 64100, Error: 0.003912836504551798
Epoch: 64200, Error: 0.0038929719397606454
Epoch: 64300, Error: 0.00396586484478967
Epoch: 64400, Error: 0.0039436626941685765
Epoch: 64500, Error: 0.0038341501542764277
Epoch: 64600, Error: 0.003914902421099796
Epoch: 64700, Error: 0.003861559579650647
Epoch: 64800, Error: 0.0038425430826551452
Epoch: 64900, Error: 0.0038302474629648467
Epoch: 65000, Error: 0.0037135805930540405
Epoch: 65100, Error: 0.0037004421495892333
Epoch: 65200, Error: 0.003665706769316309
Epoch: 65300, Error: 0.0037145673638375493
Epoch: 65400, Error: 0.003706207506382383
Epoch: 65500, Error: 0.0035634490291970686
Epoch: 65600, Error: 0.0036390229644097513
Epoch: 65700, Error: 0.0035144652247796164
Epoch: 65800, Error: 0.0035005091263487454
Epoch: 65900, Error: 0.003534349384231269
Epoch: 66000, Error: 0.0034677553532508018
Epoch: 66100, Error: 0.0034978649402802003
Epoch: 66200, Error: 0.003476941364974083
Epoch: 66300, Error: 0.0034712892656167437
Epoch: 66400, Error: 0.0034208921063558625
Epoch: 66500, Error: 0.003413072675865821
Epoch: 66600, Error: 0.0033610877315447584
Epoch: 66700, Error: 0.0032929793107859214
Epoch: 66800, Error: 0.0032390894786781975
Epoch: 66900, Error: 0.003287645281009222
Epoch: 67000, Error: 0.003269578385655648
Epoch: 67100, Error: 0.00323745556449733
Epoch: 67200, Error: 0.0032433073962475916
Epoch: 67300, Error: 0.003115587577260521
Epoch: 67400, Error: 0.003090189416295012
Epoch: 67500, Error: 0.003164704870594768
Epoch: 67600, Error: 0.003031147571286688
Epoch: 67700, Error: 0.0030891191827063266
Epoch: 67800, Error: 0.0029909292121811475
Epoch: 67900, Error: 0.0030464745020953934
Epoch: 68000, Error: 0.002938133334170248
Epoch: 68100, Error: 0.0029956063822133903
Epoch: 68200, Error: 0.002984666265267047
Epoch: 68300, Error: 0.0028757087257973504
Epoch: 68400, Error: 0.0029287204666538042
Epoch: 68500, Error: 0.0028235529894717728
Epoch: 68600, Error: 0.0028993686284967037
Epoch: 68700, Error: 0.002804031408808739
Epoch: 68800, Error: 0.0028923445855616498
Epoch: 68900, Error: 0.0028305980232234463
Epoch: 69000, Error: 0.002809965098863391
Epoch: 69100, Error: 0.0028080375322342443
Epoch: 69200, Error: 0.002751611497084219
Epoch: 69300, Error: 0.0027340454771023763
Epoch: 69400, Error: 0.0026493511785136616
Epoch: 69500, Error: 0.0026044923594650445
Epoch: 69600, Error: 0.0026897454465957316
Epoch: 69700, Error: 0.0026522631138881808
Epoch: 69800, Error: 0.00257158739379898
Epoch: 69900, Error: 0.0026376249875333527
Epoch: 70000, Error: 0.0025840586125208636
Epoch: 70100, Error: 0.002569234218149359
Epoch: 70200, Error: 0.00254709205553263
Epoch: 70300, Error: 0.002521777501280678
Epoch: 70400, Error: 0.0025234974503499466
Epoch: 70500, Error: 0.0024857776787840465
Epoch: 70600, Error: 0.002462367877275283
Epoch: 70700, Error: 0.002477424310052189
Epoch: 70800, Error: 0.0024224701213016895
Epoch: 70900, Error: 0.0024141149751970245
Epoch: 71000, Error: 0.0023827674458032364
Epoch: 71100, Error: 0.0023581035545429487
Epoch: 71200, Error: 0.0023486079544536706
Epoch: 71300, Error: 0.0022493926664016338
Epoch: 71400, Error: 0.0023111409568350384
Epoch: 71500, Error: 0.002306770471880911
Epoch: 71600, Error: 0.0022875785451376652
Epoch: 71700, Error: 0.002259668204561723
Epoch: 71800, Error: 0.0022341105201656225
Epoch: 71900, Error: 0.002220443563135933
Epoch: 72000, Error: 0.0021193825743941563
Epoch: 72100, Error: 0.002178668983693248
Epoch: 72200, Error: 0.00208621088107465
Epoch: 72300, Error: 0.0021407972676075596
Epoch: 72400, Error: 0.0021207323711412485
Epoch: 72500, Error: 0.0021187188446024434
Epoch: 72600, Error: 0.002031823311590905
Epoch: 72700, Error: 0.002072995016163466
Epoch: 72800, Error: 0.002056840549268776
Epoch: 72900, Error: 0.0020329438111748024
Epoch: 73000, Error: 0.002139799504853276
Epoch: 73100, Error: 0.0020135023711615736
Epoch: 73200, Error: 0.001999996057227552
Epoch: 73300, Error: 0.0019223354139115843
Epoch: 73400, Error: 0.0019674649383541348
Epoch: 73500, Error: 0.0019530116926660503
Epoch: 73600, Error: 0.0018877864528503078
Epoch: 73700, Error: 0.0019267294019960312
Epoch: 73800, Error: 0.0018623648937106123
Epoch: 73900, Error: 0.00189466996175665
Epoch: 74000, Error: 0.0019047091387542157
Epoch: 74100, Error: 0.0018709634133306863
Epoch: 74200, Error: 0.0018478055539883046
Epoch: 74300, Error: 0.001838062902297343
Epoch: 74400, Error: 0.0018510493446996842
Epoch: 74500, Error: 0.001809970336398398
Epoch: 74600, Error: 0.0018046779228973971
Epoch: 74700, Error: 0.0017828099467415545
Epoch: 74800, Error: 0.001778645710317414
Epoch: 74900, Error: 0.0017549686735325975
Epoch: 75000, Error: 0.0017476243418865019
Epoch: 75100, Error: 0.0017358881201736598
Epoch: 75200, Error: 0.0017179320499989355
Epoch: 75300, Error: 0.001717315817420493
Epoch: 75400, Error: 0.0017081194108101209
Epoch: 75500, Error: 0.0017023177658223552
Epoch: 75600, Error: 0.0016737139642076025
Epoch: 75700, Error: 0.0016701234916784396
Epoch: 75800, Error: 0.0016385772620789998
Epoch: 75900, Error: 0.001629703971592105
Epoch: 76000, Error: 0.001614709054194446
Epoch: 76100, Error: 0.0016059867253180107
Epoch: 76200, Error: 0.0015865945524874759
Epoch: 76300, Error: 0.0015769055956485992
Epoch: 76400, Error: 0.001562539947424249
Epoch: 76500, Error: 0.0015653997223268779
Epoch: 76600, Error: 0.0015609954740523125
Epoch: 76700, Error: 0.001608076283102822
Epoch: 76800, Error: 0.0015117463663757618
Epoch: 76900, Error: 0.0014997492215403237
Epoch: 77000, Error: 0.0014969527067233463
Epoch: 77100, Error: 0.0014901515510618094
Epoch: 77200, Error: 0.0014779342107247525
Epoch: 77300, Error: 0.0014698874721314158
Epoch: 77400, Error: 0.0014566479980695026
Epoch: 77500, Error: 0.0014505244151539589
Epoch: 77600, Error: 0.0014408033502283616
Epoch: 77700, Error: 0.0014312237294514818
Finished
Input Patterns
0.224 0.624 0.067 0.043 
0.11 0.502 0.051 0.043 
0.196 0.667 0.067 0.043 
0.055 0.584 0.067 0.082 
0.027 0.376 0.067 0.043 
0.306 0.71 0.086 0.043 
0.137 0.416 0.067 0.0 
0.416 0.831 0.035 0.043 
0.306 0.792 0.051 0.125 
0.388 0.749 0.118 0.082 
0.306 0.584 0.118 0.043 
0.082 0.667 0.0 0.043 
0.137 0.584 0.153 0.043 
0.196 0.584 0.102 0.125 
0.251 0.584 0.067 0.043 
0.137 0.459 0.102 0.043 
0.251 0.875 0.086 0.0 
0.165 0.459 0.086 0.043 
0.333 0.624 0.051 0.043 
0.027 0.416 0.051 0.043 
0.196 0.624 0.051 0.082 
0.027 0.502 0.051 0.043 
0.224 0.749 0.153 0.125 
0.224 0.749 0.102 0.043 
0.278 0.71 0.086 0.043 
0.165 0.416 0.067 0.043 
0.082 0.459 0.086 0.043 
0.306 0.792 0.118 0.125 
0.196 0.584 0.086 0.043 
0.165 0.459 0.086 0.0 
0.137 0.584 0.102 0.043 
0.0 0.416 0.016 0.0 
0.388 1.0 0.086 0.125 
0.224 0.624 0.067 0.082 
0.224 0.749 0.086 0.082 
0.224 0.71 0.086 0.125 
0.224 0.541 0.118 0.165 
0.196 0.416 0.102 0.043 
0.251 0.624 0.086 0.043 
0.11 0.502 0.102 0.043 
0.306 0.584 0.086 0.125 
0.333 0.918 0.067 0.043 
0.196 0.502 0.035 0.043 
0.165 0.667 0.067 0.0 
0.224 0.584 0.086 0.043 
0.055 0.125 0.051 0.082 
0.196 0.624 0.102 0.208 
0.137 0.416 0.067 0.082 
0.082 0.502 0.067 0.043 
0.196 0.541 0.067 0.043 
0.749 0.502 0.627 0.541 
0.722 0.459 0.663 0.584 
0.612 0.333 0.612 0.584 
0.557 0.541 0.627 0.624 
0.639 0.376 0.612 0.498 
0.196 0.0 0.424 0.376 
0.471 0.082 0.51 0.376 
0.361 0.376 0.439 0.498 
0.361 0.416 0.592 0.584 
0.529 0.082 0.592 0.584 
0.443 0.502 0.643 0.459 
0.557 0.208 0.663 0.584 
0.584 0.376 0.561 0.498 
0.694 0.333 0.643 0.541 
0.471 0.376 0.592 0.584 
0.333 0.169 0.475 0.416 
0.416 0.29 0.49 0.459 
0.306 0.416 0.592 0.584 
0.667 0.459 0.627 0.584 
0.361 0.416 0.525 0.498 
0.333 0.251 0.576 0.459 
0.416 0.251 0.51 0.459 
0.361 0.29 0.541 0.498 
0.388 0.376 0.541 0.498 
0.224 0.208 0.337 0.416 
0.584 0.502 0.592 0.584 
0.333 0.125 0.51 0.498 
0.388 0.333 0.592 0.498 
0.165 0.169 0.388 0.376 
0.251 0.29 0.49 0.541 
0.443 0.416 0.541 0.584 
0.498 0.376 0.627 0.541 
0.667 0.459 0.576 0.541 
0.416 0.29 0.525 0.376 
0.361 0.208 0.49 0.416 
0.498 0.333 0.51 0.498 
0.498 0.333 0.627 0.459 
0.639 0.416 0.576 0.541 
0.667 0.416 0.678 0.667 
0.388 0.251 0.424 0.376 
0.333 0.169 0.459 0.376 
0.471 0.29 0.694 0.624 
0.471 0.584 0.592 0.624 
0.557 0.125 0.576 0.498 
0.333 0.208 0.51 0.498 
0.498 0.416 0.612 0.541 
0.196 0.125 0.388 0.376 
0.388 0.416 0.541 0.459 
0.529 0.376 0.561 0.498 
0.388 0.333 0.525 0.498 
0.557 0.541 0.847 1.0 
0.776 0.416 0.831 0.831 
0.612 0.416 0.812 0.875 
0.165 0.208 0.592 0.667 
0.667 0.208 0.812 0.71 
0.612 0.502 0.694 0.792 
0.694 0.416 0.761 0.831 
0.416 0.333 0.694 0.957 
0.612 0.416 0.761 0.71 
0.945 0.251 1.0 0.918 
0.722 0.502 0.796 0.918 
0.945 0.333 0.965 0.792 
0.667 0.541 0.796 0.831 
0.529 0.333 0.643 0.71 
0.584 0.333 0.78 0.831 
0.863 0.333 0.863 0.749 
0.584 0.333 0.78 0.875 
0.498 0.251 0.78 0.541 
0.557 0.584 0.78 0.957 
0.471 0.416 0.643 0.71 
0.667 0.459 0.78 0.957 
0.416 0.29 0.694 0.749 
0.667 0.541 0.796 1.0 
0.557 0.208 0.678 0.749 
0.529 0.584 0.745 0.918 
0.416 0.29 0.694 0.749 
0.557 0.376 0.78 0.71 
0.918 0.416 0.949 0.831 
0.835 0.376 0.898 0.71 
0.804 0.667 0.863 1.0 
0.584 0.29 0.729 0.749 
0.388 0.208 0.678 0.792 
0.584 0.502 0.729 0.918 
0.945 0.749 0.965 0.875 
0.471 0.082 0.678 0.584 
0.361 0.333 0.663 0.792 
0.557 0.29 0.663 0.71 
0.804 0.502 0.847 0.71 
0.498 0.416 0.51 0.71 
0.804 0.416 0.812 0.624 
1.0 0.749 0.914 0.792 
0.557 0.333 0.694 0.584 
0.945 0.416 0.863 0.918 
0.584 0.459 0.761 0.71 
0.722 0.459 0.745 0.831 
0.722 0.459 0.694 0.918 
0.694 0.502 0.831 0.918 
0.667 0.416 0.714 0.918 
0.612 0.416 0.714 0.792 
0.443 0.416 0.694 0.71 
Teaching Patterns
1.0 0.0 0.0 
1.0 0.0 0.0 
1.0 0.0 0.0 
1.0 0.0 0.0 
1.0 0.0 0.0 
1.0 0.0 0.0 
1.0 0.0 0.0 
1.0 0.0 0.0 
1.0 0.0 0.0 
1.0 0.0 0.0 
1.0 0.0 0.0 
1.0 0.0 0.0 
1.0 0.0 0.0 
1.0 0.0 0.0 
1.0 0.0 0.0 
1.0 0.0 0.0 
1.0 0.0 0.0 
1.0 0.0 0.0 
1.0 0.0 0.0 
1.0 0.0 0.0 
1.0 0.0 0.0 
1.0 0.0 0.0 
1.0 0.0 0.0 
1.0 0.0 0.0 
1.0 0.0 0.0 
1.0 0.0 0.0 
1.0 0.0 0.0 
1.0 0.0 0.0 
1.0 0.0 0.0 
1.0 0.0 0.0 
1.0 0.0 0.0 
1.0 0.0 0.0 
1.0 0.0 0.0 
1.0 0.0 0.0 
1.0 0.0 0.0 
1.0 0.0 0.0 
1.0 0.0 0.0 
1.0 0.0 0.0 
1.0 0.0 0.0 
1.0 0.0 0.0 
1.0 0.0 0.0 
1.0 0.0 0.0 
1.0 0.0 0.0 
1.0 0.0 0.0 
1.0 0.0 0.0 
1.0 0.0 0.0 
1.0 0.0 0.0 
1.0 0.0 0.0 
1.0 0.0 0.0 
1.0 0.0 0.0 
0.0 1.0 0.0 
0.0 1.0 0.0 
0.0 1.0 0.0 
0.0 1.0 0.0 
0.0 1.0 0.0 
0.0 1.0 0.0 
0.0 1.0 0.0 
0.0 1.0 0.0 
0.0 1.0 0.0 
0.0 1.0 0.0 
0.0 1.0 0.0 
0.0 1.0 0.0 
0.0 1.0 0.0 
0.0 1.0 0.0 
0.0 1.0 0.0 
0.0 1.0 0.0 
0.0 1.0 0.0 
0.0 1.0 0.0 
0.0 1.0 0.0 
0.0 1.0 0.0 
0.0 1.0 0.0 
0.0 1.0 0.0 
0.0 1.0 0.0 
0.0 1.0 0.0 
0.0 1.0 0.0 
0.0 1.0 0.0 
0.0 1.0 0.0 
0.0 1.0 0.0 
0.0 1.0 0.0 
0.0 1.0 0.0 
0.0 1.0 0.0 
0.0 1.0 0.0 
0.0 1.0 0.0 
0.0 1.0 0.0 
0.0 1.0 0.0 
0.0 1.0 0.0 
0.0 1.0 0.0 
0.0 1.0 0.0 
0.0 1.0 0.0 
0.0 1.0 0.0 
0.0 1.0 0.0 
0.0 1.0 0.0 
0.0 1.0 0.0 
0.0 1.0 0.0 
0.0 1.0 0.0 
0.0 1.0 0.0 
0.0 1.0 0.0 
0.0 1.0 0.0 
0.0 1.0 0.0 
0.0 1.0 0.0 
0.0 0.0 1.0 
0.0 0.0 1.0 
0.0 0.0 1.0 
0.0 0.0 1.0 
0.0 0.0 1.0 
0.0 0.0 1.0 
0.0 0.0 1.0 
0.0 0.0 1.0 
0.0 0.0 1.0 
0.0 0.0 1.0 
0.0 0.0 1.0 
0.0 0.0 1.0 
0.0 0.0 1.0 
0.0 0.0 1.0 
0.0 0.0 1.0 
0.0 0.0 1.0 
0.0 0.0 1.0 
0.0 0.0 1.0 
0.0 0.0 1.0 
0.0 0.0 1.0 
0.0 0.0 1.0 
0.0 0.0 1.0 
0.0 0.0 1.0 
0.0 0.0 1.0 
0.0 0.0 1.0 
0.0 0.0 1.0 
0.0 0.0 1.0 
0.0 0.0 1.0 
0.0 0.0 1.0 
0.0 0.0 1.0 
0.0 0.0 1.0 
0.0 0.0 1.0 
0.0 0.0 1.0 
0.0 0.0 1.0 
0.0 0.0 1.0 
0.0 0.0 1.0 
0.0 0.0 1.0 
0.0 0.0 1.0 
0.0 0.0 1.0 
0.0 0.0 1.0 
0.0 0.0 1.0 
0.0 0.0 1.0 
0.0 0.0 1.0 
0.0 0.0 1.0 
0.0 0.0 1.0 
0.0 0.0 1.0 
0.0 0.0 1.0 
0.0 0.0 1.0 
0.0 0.0 1.0 
0.0 0.0 1.0 
Learning : 0.05
Momentum : 0.800000011920929
Epoch: 100, Error: 0.02535553721543805
Epoch: 200, Error: 0.017367283244951577
Epoch: 300, Error: 0.015471954712165774
Epoch: 400, Error: 0.01422379658146366
Epoch: 500, Error: 0.013683050333198651
Epoch: 600, Error: 0.013325176072089035
Epoch: 700, Error: 0.012973323445231544
Epoch: 800, Error: 0.012760628490908426
Epoch: 900, Error: 0.012593925464821888
Epoch: 1000, Error: 0.012390532639000569
Epoch: 1100, Error: 0.01231078807410399
Epoch: 1200, Error: 0.012335758234411508
Epoch: 1300, Error: 0.012114131834058815
Epoch: 1400, Error: 0.012106754834473427
Epoch: 1500, Error: 0.012068749614683882
Epoch: 1600, Error: 0.012310993046668285
Epoch: 1700, Error: 0.012065084177667159
Epoch: 1800, Error: 0.01224686500808537
Epoch: 1900, Error: 0.012092884407067758
Epoch: 2000, Error: 0.012085037888544424
Epoch: 2100, Error: 0.011955973757952659
Epoch: 2200, Error: 0.01199759628740026
Epoch: 2300, Error: 0.011990216832831605
Epoch: 2400, Error: 0.012053381877537227
Epoch: 2500, Error: 0.01196363043094687
Epoch: 2600, Error: 0.011950370694956318
Epoch: 2700, Error: 0.012013712604207928
Epoch: 2800, Error: 0.012065552897233973
Epoch: 2900, Error: 0.012228709118984627
Epoch: 3000, Error: 0.0120305606312479
Epoch: 3100, Error: 0.012007941710662686
Epoch: 3200, Error: 0.012034557597805664
Epoch: 3300, Error: 0.012034997429956408
Epoch: 3400, Error: 0.012046784721742173
Epoch: 3500, Error: 0.012135906782420566
Epoch: 3600, Error: 0.012094743411681779
Epoch: 3700, Error: 0.012043331244209957
Epoch: 3800, Error: 0.012047188819339832
Epoch: 3900, Error: 0.012100757036203585
Epoch: 4000, Error: 0.012075295166183444
Epoch: 4100, Error: 0.012095210268432783
Epoch: 4200, Error: 0.012198560315867586
Epoch: 4300, Error: 0.012102754452155404
Epoch: 4400, Error: 0.012017666014802173
Epoch: 4500, Error: 0.012034145438658134
Epoch: 4600, Error: 0.012014671687276946
Epoch: 4700, Error: 0.012008390902204963
Epoch: 4800, Error: 0.012018908690165492
Epoch: 4900, Error: 0.012075444722901249
Epoch: 5000, Error: 0.012043618119031547
Epoch: 5100, Error: 0.012088138030220182
Epoch: 5200, Error: 0.012059000230373138
Epoch: 5300, Error: 0.01205898441012143
Epoch: 5400, Error: 0.012063218077063608
Epoch: 5500, Error: 0.01205232869767972
Epoch: 5600, Error: 0.012025203501080654
Epoch: 5700, Error: 0.012021080375496635
Epoch: 5800, Error: 0.011988953110403362
Epoch: 5900, Error: 0.011968646022188386
Epoch: 6000, Error: 0.012021515746993179
Epoch: 6100, Error: 0.01196356538420254
Epoch: 6200, Error: 0.011894761415797154
Epoch: 6300, Error: 0.01188170414069524
Epoch: 6400, Error: 0.011912077580655617
Epoch: 6500, Error: 0.011869828000438152
Epoch: 6600, Error: 0.011823298097095192
Epoch: 6700, Error: 0.011870870673955671
Epoch: 6800, Error: 0.011825389226025
Epoch: 6900, Error: 0.01184487460152581
Epoch: 7000, Error: 0.011789354792556118
Epoch: 7100, Error: 0.01173682704539713
Epoch: 7200, Error: 0.011701411065381752
Epoch: 7300, Error: 0.011690336577929904
Epoch: 7400, Error: 0.01161887915756601
Epoch: 7500, Error: 0.011599410929790301
Epoch: 7600, Error: 0.011580427059129289
Epoch: 7700, Error: 0.011516243770673246
Epoch: 7800, Error: 0.011499035681736491
Epoch: 7900, Error: 0.011459871365004629
Epoch: 8000, Error: 0.01141456436380545
Epoch: 8100, Error: 0.011351481067635496
Epoch: 8200, Error: 0.011286437884569692
Epoch: 8300, Error: 0.011262919508154856
Epoch: 8400, Error: 0.011383673205841605
Epoch: 8500, Error: 0.011194532677263893
Epoch: 8600, Error: 0.011100399163681178
Epoch: 8700, Error: 0.011261042602312012
Epoch: 8800, Error: 0.010996199397167627
Epoch: 8900, Error: 0.010970960734735608
Epoch: 9000, Error: 0.01090809013390224
Epoch: 9100, Error: 0.010827601920726019
Epoch: 9200, Error: 0.010787305307220925
Epoch: 9300, Error: 0.010692933273984103
Epoch: 9400, Error: 0.010620659899661001
Epoch: 9500, Error: 0.010572892315443692
Epoch: 9600, Error: 0.010490693942044976
Epoch: 9700, Error: 0.01036593732533245
Epoch: 9800, Error: 0.010313046593308471
Epoch: 9900, Error: 0.010204340236091071
Epoch: 10000, Error: 0.010332880567233813
Epoch: 10100, Error: 0.010003279194095098
Epoch: 10200, Error: 0.009920279007773031
Epoch: 10300, Error: 0.0098623885064962
Epoch: 10400, Error: 0.009706730706581216
Epoch: 10500, Error: 0.00959932957728971
Epoch: 10600, Error: 0.009757255435440888
Epoch: 10700, Error: 0.009393278448621032
Epoch: 10800, Error: 0.009255275638279823
Epoch: 10900, Error: 0.009182222061819302
Epoch: 11000, Error: 0.009035715952474394
Epoch: 11100, Error: 0.009036206405314834
Epoch: 11200, Error: 0.008929831021196863
Epoch: 11300, Error: 0.00868291577574383
Epoch: 11400, Error: 0.008590383510648678
Epoch: 11500, Error: 0.008524909154972542
Epoch: 11600, Error: 0.008348889817140166
Epoch: 11700, Error: 0.008250730689678245
Epoch: 11800, Error: 0.00818907798694942
Epoch: 11900, Error: 0.008035719035638355
Epoch: 12000, Error: 0.007961064721384773
Epoch: 12100, Error: 0.007871292324469798
Epoch: 12200, Error: 0.007811331091884821
Epoch: 12300, Error: 0.007673121109385372
Epoch: 12400, Error: 0.00762663345660465
Epoch: 12500, Error: 0.0075238825881938825
Epoch: 12600, Error: 0.007438425143851551
Epoch: 12700, Error: 0.007350117178437002
Epoch: 12800, Error: 0.0072545518768579835
Epoch: 12900, Error: 0.007182821360891939
Epoch: 13000, Error: 0.007123643569819082
Epoch: 13100, Error: 0.007034795605541077
Epoch: 13200, Error: 0.006966471779068422
Epoch: 13300, Error: 0.0069238684858005
Epoch: 13400, Error: 0.006864705286717031
Epoch: 13500, Error: 0.0068008330172045165
Epoch: 13600, Error: 0.006768181699146747
Epoch: 13700, Error: 0.006680605381000092
Epoch: 13800, Error: 0.006637318415557926
Epoch: 13900, Error: 0.006598460592408616
Epoch: 14000, Error: 0.006566446752377284
Epoch: 14100, Error: 0.006499535372648961
Epoch: 14200, Error: 0.0064599968908183175
Epoch: 14300, Error: 0.006389191658573808
Epoch: 14400, Error: 0.006358733808701218
Epoch: 14500, Error: 0.006306455027792141
Epoch: 14600, Error: 0.006291992523458433
Epoch: 14700, Error: 0.006249048680747934
Epoch: 14800, Error: 0.006227493560957082
Epoch: 14900, Error: 0.0061782650116306275
Epoch: 15000, Error: 0.00614860230565075
Epoch: 15100, Error: 0.0061260242350446425
Epoch: 15200, Error: 0.006101018765392297
Epoch: 15300, Error: 0.006065030222611327
Epoch: 15400, Error: 0.006043583199075899
Epoch: 15500, Error: 0.006022020603174938
Epoch: 15600, Error: 0.006121710382710092
Epoch: 15700, Error: 0.0059706990748699465
Epoch: 15800, Error: 0.00595311063387409
Epoch: 15900, Error: 0.005923779635519816
Epoch: 16000, Error: 0.00590519226902302
Epoch: 16100, Error: 0.005897016863660329
Epoch: 16200, Error: 0.00587513316282023
Epoch: 16300, Error: 0.00587088230581318
Epoch: 16400, Error: 0.005831532035232512
Epoch: 16500, Error: 0.005816360075962507
Epoch: 16600, Error: 0.00579405862210024
Epoch: 16700, Error: 0.005764986048147224
Epoch: 16800, Error: 0.005770154166014578
Epoch: 16900, Error: 0.005751470005866703
Epoch: 17000, Error: 0.005729472523750504
Epoch: 17100, Error: 0.005712255769469186
Epoch: 17200, Error: 0.005688060982298195
Epoch: 17300, Error: 0.005669088408518273
Epoch: 17400, Error: 0.00567005340580433
Epoch: 17500, Error: 0.005649708521712907
Epoch: 17600, Error: 0.005649228662090004
Epoch: 17700, Error: 0.0056202432474867095
Epoch: 17800, Error: 0.0056088061290983145
Epoch: 17900, Error: 0.005592482505992226
Epoch: 18000, Error: 0.005606571463569669
Epoch: 18100, Error: 0.005591245773760534
Epoch: 18200, Error: 0.005565101035505925
Epoch: 18300, Error: 0.005591730427594899
Epoch: 18400, Error: 0.0055459323870253666
Epoch: 18500, Error: 0.005543624958803573
Epoch: 18600, Error: 0.005550651732978123
Epoch: 18700, Error: 0.00552320195860569
Epoch: 18800, Error: 0.005516003200734772
Epoch: 18900, Error: 0.005497388147570602
Epoch: 19000, Error: 0.005488222564869728
Epoch: 19100, Error: 0.005483197766845055
Finished
