Input Patterns
0.224 0.624 0.067 0.043 
0.11 0.502 0.051 0.043 
0.196 0.667 0.067 0.043 
0.055 0.584 0.067 0.082 
0.027 0.376 0.067 0.043 
0.306 0.71 0.086 0.043 
0.137 0.416 0.067 0.0 
0.416 0.831 0.035 0.043 
0.306 0.792 0.051 0.125 
0.388 0.749 0.118 0.082 
0.306 0.584 0.118 0.043 
0.082 0.667 0.0 0.043 
0.137 0.584 0.153 0.043 
0.196 0.584 0.102 0.125 
0.251 0.584 0.067 0.043 
0.137 0.459 0.102 0.043 
0.251 0.875 0.086 0.0 
0.165 0.459 0.086 0.043 
0.333 0.624 0.051 0.043 
0.027 0.416 0.051 0.043 
0.196 0.624 0.051 0.082 
0.027 0.502 0.051 0.043 
0.224 0.749 0.153 0.125 
0.224 0.749 0.102 0.043 
0.278 0.71 0.086 0.043 
0.165 0.416 0.067 0.043 
0.082 0.459 0.086 0.043 
0.306 0.792 0.118 0.125 
0.196 0.584 0.086 0.043 
0.165 0.459 0.086 0.0 
0.137 0.584 0.102 0.043 
0.0 0.416 0.016 0.0 
0.388 1.0 0.086 0.125 
0.224 0.624 0.067 0.082 
0.224 0.749 0.086 0.082 
0.224 0.71 0.086 0.125 
0.224 0.541 0.118 0.165 
0.196 0.416 0.102 0.043 
0.251 0.624 0.086 0.043 
0.11 0.502 0.102 0.043 
0.306 0.584 0.086 0.125 
0.333 0.918 0.067 0.043 
0.196 0.502 0.035 0.043 
0.165 0.667 0.067 0.0 
0.224 0.584 0.086 0.043 
0.055 0.125 0.051 0.082 
0.196 0.624 0.102 0.208 
0.137 0.416 0.067 0.082 
0.082 0.502 0.067 0.043 
0.196 0.541 0.067 0.043 
0.749 0.502 0.627 0.541 
0.722 0.459 0.663 0.584 
0.612 0.333 0.612 0.584 
0.557 0.541 0.627 0.624 
0.639 0.376 0.612 0.498 
0.196 0.0 0.424 0.376 
0.471 0.082 0.51 0.376 
0.361 0.376 0.439 0.498 
0.361 0.416 0.592 0.584 
0.529 0.082 0.592 0.584 
0.443 0.502 0.643 0.459 
0.557 0.208 0.663 0.584 
0.584 0.376 0.561 0.498 
0.694 0.333 0.643 0.541 
0.471 0.376 0.592 0.584 
0.333 0.169 0.475 0.416 
0.416 0.29 0.49 0.459 
0.306 0.416 0.592 0.584 
0.667 0.459 0.627 0.584 
0.361 0.416 0.525 0.498 
0.333 0.251 0.576 0.459 
0.416 0.251 0.51 0.459 
0.361 0.29 0.541 0.498 
0.388 0.376 0.541 0.498 
0.224 0.208 0.337 0.416 
0.584 0.502 0.592 0.584 
0.333 0.125 0.51 0.498 
0.388 0.333 0.592 0.498 
0.165 0.169 0.388 0.376 
0.251 0.29 0.49 0.541 
0.443 0.416 0.541 0.584 
0.498 0.376 0.627 0.541 
0.667 0.459 0.576 0.541 
0.416 0.29 0.525 0.376 
0.361 0.208 0.49 0.416 
0.498 0.333 0.51 0.498 
0.498 0.333 0.627 0.459 
0.639 0.416 0.576 0.541 
0.667 0.416 0.678 0.667 
0.388 0.251 0.424 0.376 
0.333 0.169 0.459 0.376 
0.471 0.29 0.694 0.624 
0.471 0.584 0.592 0.624 
0.557 0.125 0.576 0.498 
0.333 0.208 0.51 0.498 
0.498 0.416 0.612 0.541 
0.196 0.125 0.388 0.376 
0.388 0.416 0.541 0.459 
0.529 0.376 0.561 0.498 
0.388 0.333 0.525 0.498 
0.557 0.541 0.847 1.0 
0.776 0.416 0.831 0.831 
0.612 0.416 0.812 0.875 
0.165 0.208 0.592 0.667 
0.667 0.208 0.812 0.71 
0.612 0.502 0.694 0.792 
0.694 0.416 0.761 0.831 
0.416 0.333 0.694 0.957 
0.612 0.416 0.761 0.71 
0.945 0.251 1.0 0.918 
0.722 0.502 0.796 0.918 
0.945 0.333 0.965 0.792 
0.667 0.541 0.796 0.831 
0.529 0.333 0.643 0.71 
0.584 0.333 0.78 0.831 
0.863 0.333 0.863 0.749 
0.584 0.333 0.78 0.875 
0.498 0.251 0.78 0.541 
0.557 0.584 0.78 0.957 
0.471 0.416 0.643 0.71 
0.667 0.459 0.78 0.957 
0.416 0.29 0.694 0.749 
0.667 0.541 0.796 1.0 
0.557 0.208 0.678 0.749 
0.529 0.584 0.745 0.918 
0.416 0.29 0.694 0.749 
0.557 0.376 0.78 0.71 
0.918 0.416 0.949 0.831 
0.835 0.376 0.898 0.71 
0.804 0.667 0.863 1.0 
0.584 0.29 0.729 0.749 
0.388 0.208 0.678 0.792 
0.584 0.502 0.729 0.918 
0.945 0.749 0.965 0.875 
0.471 0.082 0.678 0.584 
0.361 0.333 0.663 0.792 
0.557 0.29 0.663 0.71 
0.804 0.502 0.847 0.71 
0.498 0.416 0.51 0.71 
0.804 0.416 0.812 0.624 
1.0 0.749 0.914 0.792 
0.557 0.333 0.694 0.584 
0.945 0.416 0.863 0.918 
0.584 0.459 0.761 0.71 
0.722 0.459 0.745 0.831 
0.722 0.459 0.694 0.918 
0.694 0.502 0.831 0.918 
0.667 0.416 0.714 0.918 
0.612 0.416 0.714 0.792 
0.443 0.416 0.694 0.71 
Teaching Patterns
1.0 0.0 0.0 
1.0 0.0 0.0 
1.0 0.0 0.0 
1.0 0.0 0.0 
1.0 0.0 0.0 
1.0 0.0 0.0 
1.0 0.0 0.0 
1.0 0.0 0.0 
1.0 0.0 0.0 
1.0 0.0 0.0 
1.0 0.0 0.0 
1.0 0.0 0.0 
1.0 0.0 0.0 
1.0 0.0 0.0 
1.0 0.0 0.0 
1.0 0.0 0.0 
1.0 0.0 0.0 
1.0 0.0 0.0 
1.0 0.0 0.0 
1.0 0.0 0.0 
1.0 0.0 0.0 
1.0 0.0 0.0 
1.0 0.0 0.0 
1.0 0.0 0.0 
1.0 0.0 0.0 
1.0 0.0 0.0 
1.0 0.0 0.0 
1.0 0.0 0.0 
1.0 0.0 0.0 
1.0 0.0 0.0 
1.0 0.0 0.0 
1.0 0.0 0.0 
1.0 0.0 0.0 
1.0 0.0 0.0 
1.0 0.0 0.0 
1.0 0.0 0.0 
1.0 0.0 0.0 
1.0 0.0 0.0 
1.0 0.0 0.0 
1.0 0.0 0.0 
1.0 0.0 0.0 
1.0 0.0 0.0 
1.0 0.0 0.0 
1.0 0.0 0.0 
1.0 0.0 0.0 
1.0 0.0 0.0 
1.0 0.0 0.0 
1.0 0.0 0.0 
1.0 0.0 0.0 
1.0 0.0 0.0 
0.0 1.0 0.0 
0.0 1.0 0.0 
0.0 1.0 0.0 
0.0 1.0 0.0 
0.0 1.0 0.0 
0.0 1.0 0.0 
0.0 1.0 0.0 
0.0 1.0 0.0 
0.0 1.0 0.0 
0.0 1.0 0.0 
0.0 1.0 0.0 
0.0 1.0 0.0 
0.0 1.0 0.0 
0.0 1.0 0.0 
0.0 1.0 0.0 
0.0 1.0 0.0 
0.0 1.0 0.0 
0.0 1.0 0.0 
0.0 1.0 0.0 
0.0 1.0 0.0 
0.0 1.0 0.0 
0.0 1.0 0.0 
0.0 1.0 0.0 
0.0 1.0 0.0 
0.0 1.0 0.0 
0.0 1.0 0.0 
0.0 1.0 0.0 
0.0 1.0 0.0 
0.0 1.0 0.0 
0.0 1.0 0.0 
0.0 1.0 0.0 
0.0 1.0 0.0 
0.0 1.0 0.0 
0.0 1.0 0.0 
0.0 1.0 0.0 
0.0 1.0 0.0 
0.0 1.0 0.0 
0.0 1.0 0.0 
0.0 1.0 0.0 
0.0 1.0 0.0 
0.0 1.0 0.0 
0.0 1.0 0.0 
0.0 1.0 0.0 
0.0 1.0 0.0 
0.0 1.0 0.0 
0.0 1.0 0.0 
0.0 1.0 0.0 
0.0 1.0 0.0 
0.0 1.0 0.0 
0.0 1.0 0.0 
0.0 0.0 1.0 
0.0 0.0 1.0 
0.0 0.0 1.0 
0.0 0.0 1.0 
0.0 0.0 1.0 
0.0 0.0 1.0 
0.0 0.0 1.0 
0.0 0.0 1.0 
0.0 0.0 1.0 
0.0 0.0 1.0 
0.0 0.0 1.0 
0.0 0.0 1.0 
0.0 0.0 1.0 
0.0 0.0 1.0 
0.0 0.0 1.0 
0.0 0.0 1.0 
0.0 0.0 1.0 
0.0 0.0 1.0 
0.0 0.0 1.0 
0.0 0.0 1.0 
0.0 0.0 1.0 
0.0 0.0 1.0 
0.0 0.0 1.0 
0.0 0.0 1.0 
0.0 0.0 1.0 
0.0 0.0 1.0 
0.0 0.0 1.0 
0.0 0.0 1.0 
0.0 0.0 1.0 
0.0 0.0 1.0 
0.0 0.0 1.0 
0.0 0.0 1.0 
0.0 0.0 1.0 
0.0 0.0 1.0 
0.0 0.0 1.0 
0.0 0.0 1.0 
0.0 0.0 1.0 
0.0 0.0 1.0 
0.0 0.0 1.0 
0.0 0.0 1.0 
0.0 0.0 1.0 
0.0 0.0 1.0 
0.0 0.0 1.0 
0.0 0.0 1.0 
0.0 0.0 1.0 
0.0 0.0 1.0 
0.0 0.0 1.0 
0.0 0.0 1.0 
0.0 0.0 1.0 
0.0 0.0 1.0 
Learning : 0.05
Momentum : 0.800000011920929
Epoch: 100, Error: 0.027943650881607766
Epoch: 200, Error: 0.018316584543264642
Epoch: 300, Error: 0.016256926829271986
Epoch: 400, Error: 0.01515064697480262
Epoch: 500, Error: 0.01432353231199198
Epoch: 600, Error: 0.01400205817365975
Epoch: 700, Error: 0.013829881733174884
Epoch: 800, Error: 0.013507880932280844
Epoch: 900, Error: 0.013161585660552044
Epoch: 1000, Error: 0.013101867540782363
Epoch: 1100, Error: 0.01299827462479366
Epoch: 1200, Error: 0.012881062183994475
Epoch: 1300, Error: 0.012681507515077593
Epoch: 1400, Error: 0.012601977072539622
Epoch: 1500, Error: 0.012600961021068075
Epoch: 1600, Error: 0.01262482362725094
Epoch: 1700, Error: 0.012420422510888528
Epoch: 1800, Error: 0.012430415598655422
Epoch: 1900, Error: 0.012388439959492155
Epoch: 2000, Error: 0.012374481190236455
Epoch: 2100, Error: 0.012366154067277793
Epoch: 2200, Error: 0.012384500348236141
Epoch: 2300, Error: 0.012307107971987585
Epoch: 2400, Error: 0.012326767557740684
Epoch: 2500, Error: 0.012271239002663024
Epoch: 2600, Error: 0.012242997454911574
Epoch: 2700, Error: 0.01230486685819221
Epoch: 2800, Error: 0.012335446523487609
Epoch: 2900, Error: 0.01225100500630541
Epoch: 3000, Error: 0.012299096190535751
Epoch: 3100, Error: 0.012291216146047794
Epoch: 3200, Error: 0.012280096330951173
Epoch: 3300, Error: 0.01223255398176081
Epoch: 3400, Error: 0.012167651212456491
Epoch: 3500, Error: 0.012140393917942726
Epoch: 3600, Error: 0.012144523533370633
Epoch: 3700, Error: 0.012164345007481066
Epoch: 3800, Error: 0.012172192197525205
Epoch: 3900, Error: 0.01224163627428786
Epoch: 4000, Error: 0.01213488676525564
Epoch: 4100, Error: 0.01226179436816133
Epoch: 4200, Error: 0.012238162386129188
Epoch: 4300, Error: 0.012329627606322661
Epoch: 4400, Error: 0.012256665443023756
Epoch: 4500, Error: 0.012152017415652415
Epoch: 4600, Error: 0.012124212711761532
Epoch: 4700, Error: 0.012139367892024005
Epoch: 4800, Error: 0.012134034762644668
Epoch: 4900, Error: 0.01220093538092477
Epoch: 5000, Error: 0.012422370007863035
Epoch: 5100, Error: 0.012255821991489177
Epoch: 5200, Error: 0.012202008278233117
Epoch: 5300, Error: 0.012152604684270754
Epoch: 5400, Error: 0.01221240647757868
Epoch: 5500, Error: 0.012226706997447611
Epoch: 5600, Error: 0.012250774500309026
Epoch: 5700, Error: 0.01226885999745655
Epoch: 5800, Error: 0.012249230758445612
Epoch: 5900, Error: 0.012207602354330776
Epoch: 6000, Error: 0.01225354948689997
Epoch: 6100, Error: 0.012359582367561028
Epoch: 6200, Error: 0.012179815392944104
Epoch: 6300, Error: 0.012114632759370293
Epoch: 6400, Error: 0.01209331050723794
Epoch: 6500, Error: 0.01213487778275559
Epoch: 6600, Error: 0.012087624651442825
Epoch: 6700, Error: 0.01208677734393491
Epoch: 6800, Error: 0.012141756285434459
Epoch: 6900, Error: 0.012158373761017569
Epoch: 7000, Error: 0.01218084575704599
Epoch: 7100, Error: 0.012168609676542753
Epoch: 7200, Error: 0.012131555454237213
Epoch: 7300, Error: 0.012159405095368956
Epoch: 7400, Error: 0.012173998875889084
Epoch: 7500, Error: 0.012083900050182977
Epoch: 7600, Error: 0.012057830347063482
Epoch: 7700, Error: 0.012055711832391515
Epoch: 7800, Error: 0.012072814586028999
Epoch: 7900, Error: 0.012063564189684786
Epoch: 8000, Error: 0.012056034875388841
Epoch: 8100, Error: 0.01202678595191707
Epoch: 8200, Error: 0.011993358815088602
Epoch: 8300, Error: 0.011992934125285995
Epoch: 8400, Error: 0.012018738721832982
Epoch: 8500, Error: 0.011964514241077296
Epoch: 8600, Error: 0.01193690819070177
Epoch: 8700, Error: 0.01189580457339398
Epoch: 8800, Error: 0.012041947105053739
Epoch: 8900, Error: 0.01204817089433538
Epoch: 9000, Error: 0.011881689284843167
Epoch: 9100, Error: 0.011926027026979282
Epoch: 9200, Error: 0.011864388018088748
Epoch: 9300, Error: 0.011842311231554055
Epoch: 9400, Error: 0.011822709447304541
Epoch: 9500, Error: 0.011812545029017664
Epoch: 9600, Error: 0.011808964944222707
Epoch: 9700, Error: 0.011811898243444719
Epoch: 9800, Error: 0.011781821556768374
Epoch: 9900, Error: 0.011765235545210565
Epoch: 10000, Error: 0.011769044155516146
Epoch: 10100, Error: 0.011773443004816272
Epoch: 10200, Error: 0.011765925158610848
Epoch: 10300, Error: 0.011726111714898974
Epoch: 10400, Error: 0.0117069230431043
Epoch: 10500, Error: 0.011795476775422002
Epoch: 10600, Error: 0.011673538758961254
Epoch: 10700, Error: 0.011661046850965279
Epoch: 10800, Error: 0.01167225510344534
Epoch: 10900, Error: 0.011765427055287155
Epoch: 11000, Error: 0.011619315209928774
Epoch: 11100, Error: 0.011667102493140121
Epoch: 11200, Error: 0.011597598830478846
Epoch: 11300, Error: 0.0115798461623522
Epoch: 11400, Error: 0.011554105641406685
Epoch: 11500, Error: 0.011546577971289886
Epoch: 11600, Error: 0.011543453749478138
Epoch: 11700, Error: 0.011537467246690497
Epoch: 11800, Error: 0.011545517725243652
Epoch: 11900, Error: 0.011498774510799923
Epoch: 12000, Error: 0.011493754504995752
Epoch: 12100, Error: 0.011453444725279167
Epoch: 12200, Error: 0.011621833455605269
Epoch: 12300, Error: 0.011468196900788393
Epoch: 12400, Error: 0.011416918487677537
Epoch: 12500, Error: 0.011373845004484092
Epoch: 12600, Error: 0.011355433531918058
Epoch: 12700, Error: 0.01136185341222732
Epoch: 12800, Error: 0.01132287166434653
Epoch: 12900, Error: 0.011252076690410003
Epoch: 13000, Error: 0.011255789813173052
Epoch: 13100, Error: 0.011184223422880165
Epoch: 13200, Error: 0.011163314516176297
Epoch: 13300, Error: 0.01121725815565805
Epoch: 13400, Error: 0.011132543958052318
Epoch: 13500, Error: 0.011167711508344324
Epoch: 13600, Error: 0.011020954592383753
Epoch: 13700, Error: 0.010962182599227722
Epoch: 13800, Error: 0.010929978818729829
Epoch: 13900, Error: 0.010891647782431088
Epoch: 14000, Error: 0.010822037403796924
Epoch: 14100, Error: 0.010798557439488973
Epoch: 14200, Error: 0.010726853631666446
Epoch: 14300, Error: 0.010700825487350121
Epoch: 14400, Error: 0.01062224884627295
Epoch: 14500, Error: 0.010539010988259752
Epoch: 14600, Error: 0.010507127819987498
Epoch: 14700, Error: 0.010466633873743214
Epoch: 14800, Error: 0.01038209734976666
Epoch: 14900, Error: 0.010305324946870791
Epoch: 15000, Error: 0.01023383734592651
Epoch: 15100, Error: 0.01017173269858067
Epoch: 15200, Error: 0.010107123107857637
Epoch: 15300, Error: 0.010035160623960622
Epoch: 15400, Error: 0.00989868304607473
Epoch: 15500, Error: 0.009836087531601562
Epoch: 15600, Error: 0.009735824109664283
Epoch: 15700, Error: 0.009654869535398663
Epoch: 15800, Error: 0.009544462293926675
Epoch: 15900, Error: 0.00957796003973452
Epoch: 16000, Error: 0.009373549103257793
Epoch: 16100, Error: 0.00929750694528856
Epoch: 16200, Error: 0.009267368596749065
Epoch: 16300, Error: 0.009133861127983419
Epoch: 16400, Error: 0.008994403799386414
Epoch: 16500, Error: 0.008875933923896035
Epoch: 16600, Error: 0.008846779453088267
Epoch: 16700, Error: 0.008693187311431089
Epoch: 16800, Error: 0.008600302012640783
Epoch: 16900, Error: 0.008524778776563753
Epoch: 17000, Error: 0.00838400308764551
Epoch: 17100, Error: 0.00829380921844624
Epoch: 17200, Error: 0.008207989971146867
Epoch: 17300, Error: 0.008105861191514987
Epoch: 17400, Error: 0.008010855842594524
Epoch: 17500, Error: 0.007936572683811339
Epoch: 17600, Error: 0.007832738052536646
Epoch: 17700, Error: 0.007751253787232081
Epoch: 17800, Error: 0.0076688104085735126
Epoch: 17900, Error: 0.007581923929342597
Epoch: 18000, Error: 0.007533695747484192
Epoch: 18100, Error: 0.007474643416832481
Epoch: 18200, Error: 0.0073710323675384454
Epoch: 18300, Error: 0.00729835237661404
Epoch: 18400, Error: 0.007239988022900513
Epoch: 18500, Error: 0.007231668816547608
Epoch: 18600, Error: 0.0071520775886617025
Epoch: 18700, Error: 0.007096423086608185
Epoch: 18800, Error: 0.007038167523744141
Epoch: 18900, Error: 0.006956238976618701
Epoch: 19000, Error: 0.006921170026832637
Epoch: 19100, Error: 0.006869409994872347
Epoch: 19200, Error: 0.006817318102558059
Epoch: 19300, Error: 0.006793100927774173
Epoch: 19400, Error: 0.006746560628785557
Epoch: 19500, Error: 0.006734555602137396
Epoch: 19600, Error: 0.0066634088896934075
Epoch: 19700, Error: 0.006618926167931463
Epoch: 19800, Error: 0.006575368481563321
Epoch: 19900, Error: 0.0065327141486528255
Epoch: 20000, Error: 0.006540274393836516
Epoch: 20100, Error: 0.006464103567446734
Epoch: 20200, Error: 0.006493049131514843
Epoch: 20300, Error: 0.006402395759536135
Epoch: 20400, Error: 0.0063797948617446785
Epoch: 20500, Error: 0.006353469391396849
Epoch: 20600, Error: 0.006342470207405458
Epoch: 20700, Error: 0.006317282876923965
Epoch: 20800, Error: 0.006279267840168452
Epoch: 20900, Error: 0.006255463533328972
Epoch: 21000, Error: 0.0062467062445400985
Epoch: 21100, Error: 0.0062523111778317805
Epoch: 21200, Error: 0.006233069633320909
Epoch: 21300, Error: 0.0061918756625379155
Epoch: 21400, Error: 0.0061757772986661815
Epoch: 21500, Error: 0.006185385012313137
Epoch: 21600, Error: 0.006172027696144891
Epoch: 21700, Error: 0.006150209436805296
Epoch: 21800, Error: 0.006146197288133068
Epoch: 21900, Error: 0.006140198903017776
Epoch: 22000, Error: 0.006135542429923525
Epoch: 22100, Error: 0.006143646865318223
Epoch: 22200, Error: 0.006092027090338119
Epoch: 22300, Error: 0.006086823307644817
Epoch: 22400, Error: 0.006131754908076545
Epoch: 22500, Error: 0.006129190034256567
Epoch: 22600, Error: 0.006083234336819525
Epoch: 22700, Error: 0.006081895718339841
Epoch: 22800, Error: 0.006081546213092108
Epoch: 22900, Error: 0.006069112710446643
Finished
Input Patterns
0.224 0.624 0.067 0.043 
0.11 0.502 0.051 0.043 
0.196 0.667 0.067 0.043 
0.055 0.584 0.067 0.082 
0.027 0.376 0.067 0.043 
0.306 0.71 0.086 0.043 
0.137 0.416 0.067 0.0 
0.416 0.831 0.035 0.043 
0.306 0.792 0.051 0.125 
0.388 0.749 0.118 0.082 
0.306 0.584 0.118 0.043 
0.082 0.667 0.0 0.043 
0.137 0.584 0.153 0.043 
0.196 0.584 0.102 0.125 
0.251 0.584 0.067 0.043 
0.137 0.459 0.102 0.043 
0.251 0.875 0.086 0.0 
0.165 0.459 0.086 0.043 
0.333 0.624 0.051 0.043 
0.027 0.416 0.051 0.043 
0.196 0.624 0.051 0.082 
0.027 0.502 0.051 0.043 
0.224 0.749 0.153 0.125 
0.224 0.749 0.102 0.043 
0.278 0.71 0.086 0.043 
0.165 0.416 0.067 0.043 
0.082 0.459 0.086 0.043 
0.306 0.792 0.118 0.125 
0.196 0.584 0.086 0.043 
0.165 0.459 0.086 0.0 
0.137 0.584 0.102 0.043 
0.0 0.416 0.016 0.0 
0.388 1.0 0.086 0.125 
0.224 0.624 0.067 0.082 
0.224 0.749 0.086 0.082 
0.224 0.71 0.086 0.125 
0.224 0.541 0.118 0.165 
0.196 0.416 0.102 0.043 
0.251 0.624 0.086 0.043 
0.11 0.502 0.102 0.043 
0.306 0.584 0.086 0.125 
0.333 0.918 0.067 0.043 
0.196 0.502 0.035 0.043 
0.165 0.667 0.067 0.0 
0.224 0.584 0.086 0.043 
0.055 0.125 0.051 0.082 
0.196 0.624 0.102 0.208 
0.137 0.416 0.067 0.082 
0.082 0.502 0.067 0.043 
0.196 0.541 0.067 0.043 
0.749 0.502 0.627 0.541 
0.722 0.459 0.663 0.584 
0.612 0.333 0.612 0.584 
0.557 0.541 0.627 0.624 
0.639 0.376 0.612 0.498 
0.196 0.0 0.424 0.376 
0.471 0.082 0.51 0.376 
0.361 0.376 0.439 0.498 
0.361 0.416 0.592 0.584 
0.529 0.082 0.592 0.584 
0.443 0.502 0.643 0.459 
0.557 0.208 0.663 0.584 
0.584 0.376 0.561 0.498 
0.694 0.333 0.643 0.541 
0.471 0.376 0.592 0.584 
0.333 0.169 0.475 0.416 
0.416 0.29 0.49 0.459 
0.306 0.416 0.592 0.584 
0.667 0.459 0.627 0.584 
0.361 0.416 0.525 0.498 
0.333 0.251 0.576 0.459 
0.416 0.251 0.51 0.459 
0.361 0.29 0.541 0.498 
0.388 0.376 0.541 0.498 
0.224 0.208 0.337 0.416 
0.584 0.502 0.592 0.584 
0.333 0.125 0.51 0.498 
0.388 0.333 0.592 0.498 
0.165 0.169 0.388 0.376 
0.251 0.29 0.49 0.541 
0.443 0.416 0.541 0.584 
0.498 0.376 0.627 0.541 
0.667 0.459 0.576 0.541 
0.416 0.29 0.525 0.376 
0.361 0.208 0.49 0.416 
0.498 0.333 0.51 0.498 
0.498 0.333 0.627 0.459 
0.639 0.416 0.576 0.541 
0.667 0.416 0.678 0.667 
0.388 0.251 0.424 0.376 
0.333 0.169 0.459 0.376 
0.471 0.29 0.694 0.624 
0.471 0.584 0.592 0.624 
0.557 0.125 0.576 0.498 
0.333 0.208 0.51 0.498 
0.498 0.416 0.612 0.541 
0.196 0.125 0.388 0.376 
0.388 0.416 0.541 0.459 
0.529 0.376 0.561 0.498 
0.388 0.333 0.525 0.498 
0.557 0.541 0.847 1.0 
0.776 0.416 0.831 0.831 
0.612 0.416 0.812 0.875 
0.165 0.208 0.592 0.667 
0.667 0.208 0.812 0.71 
0.612 0.502 0.694 0.792 
0.694 0.416 0.761 0.831 
0.416 0.333 0.694 0.957 
0.612 0.416 0.761 0.71 
0.945 0.251 1.0 0.918 
0.722 0.502 0.796 0.918 
0.945 0.333 0.965 0.792 
0.667 0.541 0.796 0.831 
0.529 0.333 0.643 0.71 
0.584 0.333 0.78 0.831 
0.863 0.333 0.863 0.749 
0.584 0.333 0.78 0.875 
0.498 0.251 0.78 0.541 
0.557 0.584 0.78 0.957 
0.471 0.416 0.643 0.71 
0.667 0.459 0.78 0.957 
0.416 0.29 0.694 0.749 
0.667 0.541 0.796 1.0 
0.557 0.208 0.678 0.749 
0.529 0.584 0.745 0.918 
0.416 0.29 0.694 0.749 
0.557 0.376 0.78 0.71 
0.918 0.416 0.949 0.831 
0.835 0.376 0.898 0.71 
0.804 0.667 0.863 1.0 
0.584 0.29 0.729 0.749 
0.388 0.208 0.678 0.792 
0.584 0.502 0.729 0.918 
0.945 0.749 0.965 0.875 
0.471 0.082 0.678 0.584 
0.361 0.333 0.663 0.792 
0.557 0.29 0.663 0.71 
0.804 0.502 0.847 0.71 
0.498 0.416 0.51 0.71 
0.804 0.416 0.812 0.624 
1.0 0.749 0.914 0.792 
0.557 0.333 0.694 0.584 
0.945 0.416 0.863 0.918 
0.584 0.459 0.761 0.71 
0.722 0.459 0.745 0.831 
0.722 0.459 0.694 0.918 
0.694 0.502 0.831 0.918 
0.667 0.416 0.714 0.918 
0.612 0.416 0.714 0.792 
0.443 0.416 0.694 0.71 
Teaching Patterns
1.0 0.0 0.0 
1.0 0.0 0.0 
1.0 0.0 0.0 
1.0 0.0 0.0 
1.0 0.0 0.0 
1.0 0.0 0.0 
1.0 0.0 0.0 
1.0 0.0 0.0 
1.0 0.0 0.0 
1.0 0.0 0.0 
1.0 0.0 0.0 
1.0 0.0 0.0 
1.0 0.0 0.0 
1.0 0.0 0.0 
1.0 0.0 0.0 
1.0 0.0 0.0 
1.0 0.0 0.0 
1.0 0.0 0.0 
1.0 0.0 0.0 
1.0 0.0 0.0 
1.0 0.0 0.0 
1.0 0.0 0.0 
1.0 0.0 0.0 
1.0 0.0 0.0 
1.0 0.0 0.0 
1.0 0.0 0.0 
1.0 0.0 0.0 
1.0 0.0 0.0 
1.0 0.0 0.0 
1.0 0.0 0.0 
1.0 0.0 0.0 
1.0 0.0 0.0 
1.0 0.0 0.0 
1.0 0.0 0.0 
1.0 0.0 0.0 
1.0 0.0 0.0 
1.0 0.0 0.0 
1.0 0.0 0.0 
1.0 0.0 0.0 
1.0 0.0 0.0 
1.0 0.0 0.0 
1.0 0.0 0.0 
1.0 0.0 0.0 
1.0 0.0 0.0 
1.0 0.0 0.0 
1.0 0.0 0.0 
1.0 0.0 0.0 
1.0 0.0 0.0 
1.0 0.0 0.0 
1.0 0.0 0.0 
0.0 1.0 0.0 
0.0 1.0 0.0 
0.0 1.0 0.0 
0.0 1.0 0.0 
0.0 1.0 0.0 
0.0 1.0 0.0 
0.0 1.0 0.0 
0.0 1.0 0.0 
0.0 1.0 0.0 
0.0 1.0 0.0 
0.0 1.0 0.0 
0.0 1.0 0.0 
0.0 1.0 0.0 
0.0 1.0 0.0 
0.0 1.0 0.0 
0.0 1.0 0.0 
0.0 1.0 0.0 
0.0 1.0 0.0 
0.0 1.0 0.0 
0.0 1.0 0.0 
0.0 1.0 0.0 
0.0 1.0 0.0 
0.0 1.0 0.0 
0.0 1.0 0.0 
0.0 1.0 0.0 
0.0 1.0 0.0 
0.0 1.0 0.0 
0.0 1.0 0.0 
0.0 1.0 0.0 
0.0 1.0 0.0 
0.0 1.0 0.0 
0.0 1.0 0.0 
0.0 1.0 0.0 
0.0 1.0 0.0 
0.0 1.0 0.0 
0.0 1.0 0.0 
0.0 1.0 0.0 
0.0 1.0 0.0 
0.0 1.0 0.0 
0.0 1.0 0.0 
0.0 1.0 0.0 
0.0 1.0 0.0 
0.0 1.0 0.0 
0.0 1.0 0.0 
0.0 1.0 0.0 
0.0 1.0 0.0 
0.0 1.0 0.0 
0.0 1.0 0.0 
0.0 1.0 0.0 
0.0 1.0 0.0 
0.0 0.0 1.0 
0.0 0.0 1.0 
0.0 0.0 1.0 
0.0 0.0 1.0 
0.0 0.0 1.0 
0.0 0.0 1.0 
0.0 0.0 1.0 
0.0 0.0 1.0 
0.0 0.0 1.0 
0.0 0.0 1.0 
0.0 0.0 1.0 
0.0 0.0 1.0 
0.0 0.0 1.0 
0.0 0.0 1.0 
0.0 0.0 1.0 
0.0 0.0 1.0 
0.0 0.0 1.0 
0.0 0.0 1.0 
0.0 0.0 1.0 
0.0 0.0 1.0 
0.0 0.0 1.0 
0.0 0.0 1.0 
0.0 0.0 1.0 
0.0 0.0 1.0 
0.0 0.0 1.0 
0.0 0.0 1.0 
0.0 0.0 1.0 
0.0 0.0 1.0 
0.0 0.0 1.0 
0.0 0.0 1.0 
0.0 0.0 1.0 
0.0 0.0 1.0 
0.0 0.0 1.0 
0.0 0.0 1.0 
0.0 0.0 1.0 
0.0 0.0 1.0 
0.0 0.0 1.0 
0.0 0.0 1.0 
0.0 0.0 1.0 
0.0 0.0 1.0 
0.0 0.0 1.0 
0.0 0.0 1.0 
0.0 0.0 1.0 
0.0 0.0 1.0 
0.0 0.0 1.0 
0.0 0.0 1.0 
0.0 0.0 1.0 
0.0 0.0 1.0 
0.0 0.0 1.0 
0.0 0.0 1.0 
Learning : 0.05
Momentum : 0.800000011920929
Epoch: 100, Error: 0.025023280333403456
Epoch: 200, Error: 0.01816151724495125
Epoch: 300, Error: 0.015914745158016278
Epoch: 400, Error: 0.014841896034288218
Epoch: 500, Error: 0.01455253984047815
Epoch: 600, Error: 0.013817870500534601
Epoch: 700, Error: 0.013568699452493544
Epoch: 800, Error: 0.013114714426217772
Epoch: 900, Error: 0.013178655613606738
Epoch: 1000, Error: 0.012856814150375529
Epoch: 1100, Error: 0.012816048091235946
Epoch: 1200, Error: 0.012573220835090196
Epoch: 1300, Error: 0.012801381266122791
Epoch: 1400, Error: 0.012450127532645466
Epoch: 1500, Error: 0.012498132922761803
Epoch: 1600, Error: 0.012406615001737425
Epoch: 1700, Error: 0.012325975979514653
Epoch: 1800, Error: 0.012303197837633052
Epoch: 1900, Error: 0.012303195184732319
Epoch: 2000, Error: 0.01235223530747788
Epoch: 2100, Error: 0.012343787505208164
Epoch: 2200, Error: 0.012232831135412948
Epoch: 2300, Error: 0.012374303471850819
Epoch: 2400, Error: 0.012239706052507725
Epoch: 2500, Error: 0.012256234682120414
Epoch: 2600, Error: 0.01221626027456308
Epoch: 2700, Error: 0.012224291071524757
Epoch: 2800, Error: 0.01223759059901264
Epoch: 2900, Error: 0.012277805434445168
Epoch: 3000, Error: 0.01225452553267516
Epoch: 3100, Error: 0.012214676914735099
Epoch: 3200, Error: 0.012186694480537406
Epoch: 3300, Error: 0.012187506863414391
Epoch: 3400, Error: 0.012252112823429279
Epoch: 3500, Error: 0.012169943410116896
Epoch: 3600, Error: 0.012166685158679401
Epoch: 3700, Error: 0.01213520369850486
Epoch: 3800, Error: 0.012278828710125181
Epoch: 3900, Error: 0.012139099344439342
Epoch: 4000, Error: 0.012164533492446722
Epoch: 4100, Error: 0.012125321083637099
Epoch: 4200, Error: 0.012218846037955903
Epoch: 4300, Error: 0.012185899213672668
Epoch: 4400, Error: 0.012128690341225884
Epoch: 4500, Error: 0.012143256996928949
Epoch: 4600, Error: 0.012112636884983879
Epoch: 4700, Error: 0.01210841690757637
Epoch: 4800, Error: 0.01213403890460321
Epoch: 4900, Error: 0.012183359872152659
Epoch: 5000, Error: 0.012106074642392462
Epoch: 5100, Error: 0.01209529687082561
Epoch: 5200, Error: 0.012297618682659064
Epoch: 5300, Error: 0.012098248166470225
Epoch: 5400, Error: 0.012084312913834768
Epoch: 5500, Error: 0.012264169616455026
Epoch: 5600, Error: 0.012074178800758381
Epoch: 5700, Error: 0.012078934256469028
Epoch: 5800, Error: 0.012307726217415065
Epoch: 5900, Error: 0.012094873997416645
Epoch: 6000, Error: 0.012069871920019192
Epoch: 6100, Error: 0.012073987661634915
Epoch: 6200, Error: 0.012059699565711346
Epoch: 6300, Error: 0.012049186567569151
Epoch: 6400, Error: 0.012065932440151153
Epoch: 6500, Error: 0.012051086869524094
Epoch: 6600, Error: 0.012044304109621224
Epoch: 6700, Error: 0.012035277528590037
Epoch: 6800, Error: 0.012092130696613584
Epoch: 6900, Error: 0.012043697658036522
Epoch: 7000, Error: 0.01214006891728004
Epoch: 7100, Error: 0.012067474377259012
Epoch: 7200, Error: 0.012029489842195429
Epoch: 7300, Error: 0.01197949913852145
Epoch: 7400, Error: 0.01200418096113551
Epoch: 7500, Error: 0.011974038827834686
Epoch: 7600, Error: 0.011964168067864534
Epoch: 7700, Error: 0.011967219027965686
Epoch: 7800, Error: 0.011944794308180665
Epoch: 7900, Error: 0.011928007550524143
Epoch: 8000, Error: 0.011904060753116197
Epoch: 8100, Error: 0.011877617455156184
Epoch: 8200, Error: 0.01189091177352005
Epoch: 8300, Error: 0.011902263877352739
Epoch: 8400, Error: 0.011864865394626037
Epoch: 8500, Error: 0.011824292976331635
Epoch: 8600, Error: 0.012012305781822056
Epoch: 8700, Error: 0.011791553134067875
Epoch: 8800, Error: 0.011760562290813422
Epoch: 8900, Error: 0.011728886684078305
Epoch: 9000, Error: 0.011683397542440771
Epoch: 9100, Error: 0.011638938654337246
Epoch: 9200, Error: 0.01164933715907647
Epoch: 9300, Error: 0.011597743273782386
Epoch: 9400, Error: 0.01153875950974434
Epoch: 9500, Error: 0.01150534549989594
Epoch: 9600, Error: 0.011466167901248282
Epoch: 9700, Error: 0.011394079245800095
Epoch: 9800, Error: 0.011289665068065249
Epoch: 9900, Error: 0.011218465010578799
Epoch: 10000, Error: 0.0111200859867681
Epoch: 10100, Error: 0.01104968401790194
Epoch: 10200, Error: 0.011065292443196456
Epoch: 10300, Error: 0.010874806620906872
Epoch: 10400, Error: 0.010815913899062283
Epoch: 10500, Error: 0.01064156814451401
Epoch: 10600, Error: 0.01061947816094639
Epoch: 10700, Error: 0.010460158132174274
Epoch: 10800, Error: 0.01032721483588044
Epoch: 10900, Error: 0.010189969577663788
Epoch: 11000, Error: 0.010009746031158563
Epoch: 11100, Error: 0.009869738960048577
Epoch: 11200, Error: 0.009735496332263196
Epoch: 11300, Error: 0.009565283550146622
Epoch: 11400, Error: 0.009416296200166136
Epoch: 11500, Error: 0.00928226975359591
Epoch: 11600, Error: 0.009120185082791353
Epoch: 11700, Error: 0.008996083422349425
Epoch: 11800, Error: 0.008853512885910898
Epoch: 11900, Error: 0.008740524731951926
Epoch: 12000, Error: 0.008579778847989489
Epoch: 12100, Error: 0.008458833615397015
Epoch: 12200, Error: 0.008356621576340552
Epoch: 12300, Error: 0.008386076090582858
Epoch: 12400, Error: 0.00818109746390085
Epoch: 12500, Error: 0.008083300316276996
Epoch: 12600, Error: 0.007990424962165323
Epoch: 12700, Error: 0.007899836024013866
Epoch: 12800, Error: 0.007818388766201459
Epoch: 12900, Error: 0.007721154156745308
Epoch: 13000, Error: 0.0076530483638305585
Epoch: 13100, Error: 0.007575839078043885
Epoch: 13200, Error: 0.00750902208089324
Epoch: 13300, Error: 0.007456791324289219
Epoch: 13400, Error: 0.007401121300128941
Epoch: 13500, Error: 0.007356021078896843
Epoch: 13600, Error: 0.007270769448454708
Epoch: 13700, Error: 0.007211026881336738
Epoch: 13800, Error: 0.007182703054094984
Epoch: 13900, Error: 0.007113783177584587
Epoch: 14000, Error: 0.007043784024460211
Epoch: 14100, Error: 0.006999913811717899
Epoch: 14200, Error: 0.006931821949742867
Epoch: 14300, Error: 0.006911101580272991
Epoch: 14400, Error: 0.006819747183177147
Epoch: 14500, Error: 0.006775724063942681
Epoch: 14600, Error: 0.006739400749527256
Epoch: 14700, Error: 0.006694266507943726
Epoch: 14800, Error: 0.0066682423030128566
Epoch: 14900, Error: 0.006634703934276086
Epoch: 15000, Error: 0.0066084782239812295
Epoch: 15100, Error: 0.006576926851987655
Epoch: 15200, Error: 0.006552998606793577
Epoch: 15300, Error: 0.006576887073733214
Epoch: 15400, Error: 0.006555774763972935
Epoch: 15500, Error: 0.006525243947401469
Epoch: 15600, Error: 0.006523310190474006
Epoch: 15700, Error: 0.00652741663436384
Epoch: 15800, Error: 0.006518540882230818
Epoch: 15900, Error: 0.006517452365582402
Epoch: 16000, Error: 0.006562372078738854
Epoch: 16100, Error: 0.006480876821461459
Epoch: 16200, Error: 0.006499648140886379
Epoch: 16300, Error: 0.006485250131234153
Epoch: 16400, Error: 0.0064875285488973375
Epoch: 16500, Error: 0.006468568839890043
Epoch: 16600, Error: 0.006501851432014189
Epoch: 16700, Error: 0.00646099827637713
Epoch: 16800, Error: 0.006439753016850192
Epoch: 16900, Error: 0.0064152447281520105
Epoch: 17000, Error: 0.0064076978389708186
Epoch: 17100, Error: 0.006394400573682764
Epoch: 17200, Error: 0.006361846088251078
Epoch: 17300, Error: 0.006386886976083716
Epoch: 17400, Error: 0.006365265110930508
Epoch: 17500, Error: 0.006325563596938306
Epoch: 17600, Error: 0.006309764401080734
Epoch: 17700, Error: 0.006298227330532803
Epoch: 17800, Error: 0.00629156977199117
Epoch: 17900, Error: 0.006280045672732766
Epoch: 18000, Error: 0.006293631823961321
Epoch: 18100, Error: 0.006228785545273935
Epoch: 18200, Error: 0.006210179513243617
Epoch: 18300, Error: 0.006213480919911101
Epoch: 18400, Error: 0.006217481712111864
Epoch: 18500, Error: 0.006226444655344757
Epoch: 18600, Error: 0.006161970489337041
Epoch: 18700, Error: 0.006132989759423859
Epoch: 18800, Error: 0.00611992081655279
Epoch: 18900, Error: 0.00614463894596898
Epoch: 19000, Error: 0.006172671775516352
Epoch: 19100, Error: 0.006149711072748176
Epoch: 19200, Error: 0.006104757330868669
Epoch: 19300, Error: 0.006126875364181012
Epoch: 19400, Error: 0.0061116900050452
Epoch: 19500, Error: 0.006058699816846192
Epoch: 19600, Error: 0.006097805754566044
Epoch: 19700, Error: 0.00608450590568334
Epoch: 19800, Error: 0.006084583427131632
Epoch: 19900, Error: 0.0060203989470578026
Epoch: 20000, Error: 0.005998544840400361
Epoch: 20100, Error: 0.00600601026154417
Epoch: 20200, Error: 0.006005202388779457
Epoch: 20300, Error: 0.00600820024593926
Epoch: 20400, Error: 0.006002954088329099
Epoch: 20500, Error: 0.00602056967685157
Epoch: 20600, Error: 0.0060537844289786326
Epoch: 20700, Error: 0.006016236293274832
Epoch: 20800, Error: 0.005874421332985459
Epoch: 20900, Error: 0.005958156970617908
Epoch: 21000, Error: 0.005887048255341147
Epoch: 21100, Error: 0.005897834976353607
Epoch: 21200, Error: 0.005978553550623676
Epoch: 21300, Error: 0.005808619877498837
Epoch: 21400, Error: 0.005797257167128127
Epoch: 21500, Error: 0.005838278856411257
Epoch: 21600, Error: 0.005816224287895511
Epoch: 21700, Error: 0.00581091686525634
Epoch: 21800, Error: 0.005742174155739141
Epoch: 21900, Error: 0.005743702617074539
Epoch: 22000, Error: 0.005696686568792404
Epoch: 22100, Error: 0.005702112481713035
Epoch: 22200, Error: 0.0056777558132607864
Epoch: 22300, Error: 0.005751002863113551
Epoch: 22400, Error: 0.0056423661073012835
Epoch: 22500, Error: 0.005618028450849446
Epoch: 22600, Error: 0.00561260852986631
Epoch: 22700, Error: 0.005572304357614141
Epoch: 22800, Error: 0.005546083497137434
Epoch: 22900, Error: 0.0055961747413567735
Epoch: 23000, Error: 0.005568934152346799
Epoch: 23100, Error: 0.005550922177444219
Epoch: 23200, Error: 0.005528203750174547
Epoch: 23300, Error: 0.005513341147854097
Epoch: 23400, Error: 0.0055159434623441765
Epoch: 23500, Error: 0.00550062568401485
Epoch: 23600, Error: 0.005487985599663027
Epoch: 23700, Error: 0.005470098911588616
Epoch: 23800, Error: 0.005522630140776469
Epoch: 23900, Error: 0.005455564957949722
Epoch: 24000, Error: 0.005425531330828539
Epoch: 24100, Error: 0.0054249361286787465
Epoch: 24200, Error: 0.0054163046963397465
Epoch: 24300, Error: 0.005429175213837252
Epoch: 24400, Error: 0.0053956276072501625
Epoch: 24500, Error: 0.0053721612444706714
Epoch: 24600, Error: 0.005379978913122219
Epoch: 24700, Error: 0.005379452237492907
Epoch: 24800, Error: 0.00538304549514997
Epoch: 24900, Error: 0.005354933582772013
Epoch: 25000, Error: 0.00531198265219346
Epoch: 25100, Error: 0.0052924558671280575
Epoch: 25200, Error: 0.005284796923311771
Epoch: 25300, Error: 0.005235399958538032
Epoch: 25400, Error: 0.005199884299151316
Epoch: 25500, Error: 0.005170532310524903
Epoch: 25600, Error: 0.0051282476350262415
Epoch: 25700, Error: 0.005141057083850774
Epoch: 25800, Error: 0.005150898372544534
Epoch: 25900, Error: 0.0050890814216616315
Epoch: 26000, Error: 0.005093175992363677
Epoch: 26100, Error: 0.0050228534632479815
Epoch: 26200, Error: 0.00500954031325054
Epoch: 26300, Error: 0.004979163730022286
Epoch: 26400, Error: 0.0049689938750085705
Epoch: 26500, Error: 0.0049521425366232975
Epoch: 26600, Error: 0.004930384937352035
Epoch: 26700, Error: 0.004950241098210541
Epoch: 26800, Error: 0.004940994379088363
Epoch: 26900, Error: 0.004915069762207502
Epoch: 27000, Error: 0.004858797554262569
Epoch: 27100, Error: 0.004860172761466574
Epoch: 27200, Error: 0.0048436617690362374
Epoch: 27300, Error: 0.004810253950957355
Epoch: 27400, Error: 0.004802585278054275
Epoch: 27500, Error: 0.004793327443971932
Epoch: 27600, Error: 0.004763753682330112
Epoch: 27700, Error: 0.0047973828113109275
Epoch: 27800, Error: 0.004744041354732124
Epoch: 27900, Error: 0.004763208869552983
Epoch: 28000, Error: 0.004716515548407729
Epoch: 28100, Error: 0.004708403844002225
Epoch: 28200, Error: 0.004700888527843322
Epoch: 28300, Error: 0.004700238231738535
Epoch: 28400, Error: 0.004674269931782594
Epoch: 28500, Error: 0.004689595798552604
Epoch: 28600, Error: 0.004660694234190602
Epoch: 28700, Error: 0.004664894413660791
Epoch: 28800, Error: 0.0046419552192136886
Epoch: 28900, Error: 0.004631166281103061
Epoch: 29000, Error: 0.004628005266793309
Epoch: 29100, Error: 0.004617659990910632
Epoch: 29200, Error: 0.0046259990175189485
Epoch: 29300, Error: 0.004633002019976744
Epoch: 29400, Error: 0.004600518015849027
Epoch: 29500, Error: 0.004610989330510848
Epoch: 29600, Error: 0.004553421003043766
Epoch: 29700, Error: 0.004538576883520669
Epoch: 29800, Error: 0.00453961167402745
Epoch: 29900, Error: 0.004561659110325548
Epoch: 30000, Error: 0.004556786149194144
Epoch: 30100, Error: 0.004556039056293604
Epoch: 30200, Error: 0.004560054612614704
Epoch: 30300, Error: 0.004546598651863521
Epoch: 30400, Error: 0.004563917145887342
Epoch: 30500, Error: 0.004614156389550491
Epoch: 30600, Error: 0.004565622136074549
Epoch: 30700, Error: 0.004589654050769723
Epoch: 30800, Error: 0.004567493544079857
Epoch: 30900, Error: 0.004538610649543015
Epoch: 31000, Error: 0.004538920533523413
Epoch: 31100, Error: 0.004502155967142151
Epoch: 31200, Error: 0.004482898805695389
Epoch: 31300, Error: 0.004486353595243633
Epoch: 31400, Error: 0.004441979703707373
Epoch: 31500, Error: 0.004400248489984971
Epoch: 31600, Error: 0.004356714552022428
Epoch: 31700, Error: 0.004342690645682213
Epoch: 31800, Error: 0.004309295241669447
Epoch: 31900, Error: 0.00431348684895744
Epoch: 32000, Error: 0.004271902739678031
Epoch: 32100, Error: 0.004233132709775568
Epoch: 32200, Error: 0.004210585270693357
Epoch: 32300, Error: 0.004149773789580607
Epoch: 32400, Error: 0.0041239515878506395
Epoch: 32500, Error: 0.004072315316027384
Epoch: 32600, Error: 0.004037990333639022
Epoch: 32700, Error: 0.0040142433668375116
Epoch: 32800, Error: 0.0040468178767430986
Epoch: 32900, Error: 0.003976564681508899
Epoch: 33000, Error: 0.0038701056366017214
Epoch: 33100, Error: 0.003870931960805908
Epoch: 33200, Error: 0.0038106377814542576
Epoch: 33300, Error: 0.0037427092392127294
Epoch: 33400, Error: 0.0037312457924258123
Epoch: 33500, Error: 0.003713350254049452
Epoch: 33600, Error: 0.003667106034159625
Epoch: 33700, Error: 0.0036545832052774395
Epoch: 33800, Error: 0.0036467669733697833
Epoch: 33900, Error: 0.003529530613837855
Epoch: 34000, Error: 0.003521478576476269
Epoch: 34100, Error: 0.0035246178789503013
Epoch: 34200, Error: 0.0035442953246144757
Epoch: 34300, Error: 0.0035730110598385894
Epoch: 34400, Error: 0.0034717522571145343
Epoch: 34500, Error: 0.003461265875503489
Epoch: 34600, Error: 0.003811019409011508
Epoch: 34700, Error: 0.0033609953396971483
Epoch: 34800, Error: 0.003368119625399594
Epoch: 34900, Error: 0.003309864065308958
Epoch: 35000, Error: 0.0032852375783921557
Epoch: 35100, Error: 0.0033344282911709423
Epoch: 35200, Error: 0.003293064998975341
Epoch: 35300, Error: 0.003116996402535842
Epoch: 35400, Error: 0.0031199826827773393
Epoch: 35500, Error: 0.0031607749276194833
Epoch: 35600, Error: 0.003143327804492932
Epoch: 35700, Error: 0.003089255354455113
Epoch: 35800, Error: 0.0031661744353942037
Epoch: 35900, Error: 0.0030716563237823498
Epoch: 36000, Error: 0.0033547322896668253
Epoch: 36100, Error: 0.002998830985470936
Epoch: 36200, Error: 0.0029528305687628814
Epoch: 36300, Error: 0.0029841254206912373
Epoch: 36400, Error: 0.002930988214110461
Epoch: 36500, Error: 0.00285791980691978
Epoch: 36600, Error: 0.0028423938082976527
Epoch: 36700, Error: 0.002910187947468255
Epoch: 36800, Error: 0.0029272818941256155
Epoch: 36900, Error: 0.0028677579772403753
Epoch: 37000, Error: 0.002879773618720766
Epoch: 37100, Error: 0.0028515494280875625
Epoch: 37200, Error: 0.0028255798438287993
Epoch: 37300, Error: 0.002833786888187322
Epoch: 37400, Error: 0.0028314019816084285
Epoch: 37500, Error: 0.002788686032268246
Epoch: 37600, Error: 0.0027695717537562963
Epoch: 37700, Error: 0.0028285069853697903
Epoch: 37800, Error: 0.002790498504336043
Epoch: 37900, Error: 0.0027955504305548187
Epoch: 38000, Error: 0.002707066052580729
Epoch: 38100, Error: 0.00271288776691653
Epoch: 38200, Error: 0.0026695936715332427
Epoch: 38300, Error: 0.0026944030568648403
Epoch: 38400, Error: 0.0026644251385007506
Epoch: 38500, Error: 0.002665000186900339
Epoch: 38600, Error: 0.0026410325457226834
Epoch: 38700, Error: 0.0026202199093502253
Epoch: 38800, Error: 0.0025853967400692197
Epoch: 38900, Error: 0.002621293546049678
Epoch: 39000, Error: 0.0025751454740764058
Epoch: 39100, Error: 0.0025676341399104574
Epoch: 39200, Error: 0.002532407787697867
Epoch: 39300, Error: 0.002524841284194373
Epoch: 39400, Error: 0.0025142637745670755
Epoch: 39500, Error: 0.0025128166510607333
Epoch: 39600, Error: 0.0024808491513632486
Epoch: 39700, Error: 0.0024780359733518596
Epoch: 39800, Error: 0.0024736972924662226
Epoch: 39900, Error: 0.0024815613989801213
Epoch: 40000, Error: 0.002682387521162961
Epoch: 40100, Error: 0.0023788130048345854
Epoch: 40200, Error: 0.002329696256148335
Epoch: 40300, Error: 0.00236165534237487
Epoch: 40400, Error: 0.0023116770982646922
Epoch: 40500, Error: 0.0023473307286632945
Epoch: 40600, Error: 0.002334567792728848
Epoch: 40700, Error: 0.0022711115718706963
Epoch: 40800, Error: 0.0022920784901567333
Epoch: 40900, Error: 0.002279727437108331
Epoch: 41000, Error: 0.002274341966031598
Epoch: 41100, Error: 0.002253458087527598
Epoch: 41200, Error: 0.002227826150615631
Epoch: 41300, Error: 0.002240838987289535
Epoch: 41400, Error: 0.0022578013214286244
Epoch: 41500, Error: 0.002215931661372648
Epoch: 41600, Error: 0.0021999176822937354
Epoch: 41700, Error: 0.0021937955504402443
Epoch: 41800, Error: 0.0021656442522236304
Epoch: 41900, Error: 0.002168254259518984
Epoch: 42000, Error: 0.0021419937213214926
Epoch: 42100, Error: 0.002123221524428027
Epoch: 42200, Error: 0.0021040852793918134
Epoch: 42300, Error: 0.002087928101416763
Epoch: 42400, Error: 0.0021092892788781756
Epoch: 42500, Error: 0.002058577447062601
Epoch: 42600, Error: 0.002099252212711707
Epoch: 42700, Error: 0.0020322167884264755
Epoch: 42800, Error: 0.002041494730348842
Epoch: 42900, Error: 0.0020101307592377033
Epoch: 43000, Error: 0.0020025377685415997
Epoch: 43100, Error: 0.0020128691144903274
Epoch: 43200, Error: 0.0019690083276509007
Epoch: 43300, Error: 0.0019621095899397542
Epoch: 43400, Error: 0.0019382001301945498
Epoch: 43500, Error: 0.0019448094678879205
Epoch: 43600, Error: 0.001918061975242147
Epoch: 43700, Error: 0.001914607585329027
Epoch: 43800, Error: 0.001910708915552056
Epoch: 43900, Error: 0.0019099144669582164
Epoch: 44000, Error: 0.0019037006947415283
Epoch: 44100, Error: 0.0018867326035410762
Epoch: 44200, Error: 0.0018456065716050823
Epoch: 44300, Error: 0.0018352131961618806
Epoch: 44400, Error: 0.0018165480501596061
Epoch: 44500, Error: 0.0018133758273485092
Epoch: 44600, Error: 0.0018027585796079383
Epoch: 44700, Error: 0.0017910179769807548
Epoch: 44800, Error: 0.0017790700302793708
Epoch: 44900, Error: 0.0017635080197303998
Epoch: 45000, Error: 0.001765792902128556
Epoch: 45100, Error: 0.001828022045445128
Epoch: 45200, Error: 0.0017376872525557935
Epoch: 45300, Error: 0.0017276127099378202
Epoch: 45400, Error: 0.0017203129222132035
Epoch: 45500, Error: 0.0017135300137173725
Epoch: 45600, Error: 0.0017054079593639352
Epoch: 45700, Error: 0.0016917696446254508
Epoch: 45800, Error: 0.00168339497697037
Epoch: 45900, Error: 0.001675816646196603
Epoch: 46000, Error: 0.001666709249768386
Epoch: 46100, Error: 0.0017688553612575195
Epoch: 46200, Error: 0.0016380511978351725
Epoch: 46300, Error: 0.0016330081175509516
Epoch: 46400, Error: 0.0016250114914654454
Epoch: 46500, Error: 0.0016464481176393867
Epoch: 46600, Error: 0.0016074339357145112
Epoch: 46700, Error: 0.0016115712114567484
Epoch: 46800, Error: 0.0015884866774902263
Epoch: 46900, Error: 0.0015826466179886364
Epoch: 47000, Error: 0.001575850812716507
Epoch: 47100, Error: 0.0015888720205092855
Epoch: 47200, Error: 0.0015580826417432732
Epoch: 47300, Error: 0.0015528485958844363
Epoch: 47400, Error: 0.00154897452142495
Epoch: 47500, Error: 0.0015357979889788446
Epoch: 47600, Error: 0.0015315319590418692
Epoch: 47700, Error: 0.0015712098848127492
Epoch: 47800, Error: 0.001522643740210058
Epoch: 47900, Error: 0.0015249545758122375
Epoch: 48000, Error: 0.0015152308148214599
Epoch: 48100, Error: 0.00150447138050136
Epoch: 48200, Error: 0.0015051658863357437
Epoch: 48300, Error: 0.0015048957546032566
Epoch: 48400, Error: 0.0015045368371659092
Epoch: 48500, Error: 0.001504151647624267
Epoch: 48600, Error: 0.0014946394769181433
Epoch: 48700, Error: 0.0014860757182899576
Epoch: 48800, Error: 0.001491896646472551
Epoch: 48900, Error: 0.001472033866996808
Epoch: 49000, Error: 0.0014623551271746773
Epoch: 49100, Error: 0.0014578328607543468
Epoch: 49200, Error: 0.0014521877160694446
Epoch: 49300, Error: 0.001449407348457232
Epoch: 49400, Error: 0.00145097746472779
Epoch: 49500, Error: 0.001455321966432191
Epoch: 49600, Error: 0.001433190376924131
Epoch: 49700, Error: 0.0014265099312970216
Epoch: 49800, Error: 0.0014233431870693096
Epoch: 49900, Error: 0.0014206257611801508
Epoch: 50000, Error: 0.0014128618668232317
Epoch: 50100, Error: 0.0014211203314274763
Epoch: 50200, Error: 0.0014022947374456964
Epoch: 50300, Error: 0.001403253911959506
Finished
