Input Patterns
0.224 0.624 0.067 0.043 
0.11 0.502 0.051 0.043 
0.196 0.667 0.067 0.043 
0.055 0.584 0.067 0.082 
0.027 0.376 0.067 0.043 
0.306 0.71 0.086 0.043 
0.137 0.416 0.067 0.0 
0.416 0.831 0.035 0.043 
0.306 0.792 0.051 0.125 
0.388 0.749 0.118 0.082 
0.306 0.584 0.118 0.043 
0.082 0.667 0.0 0.043 
0.137 0.584 0.153 0.043 
0.196 0.584 0.102 0.125 
0.251 0.584 0.067 0.043 
0.137 0.459 0.102 0.043 
0.251 0.875 0.086 0.0 
0.165 0.459 0.086 0.043 
0.333 0.624 0.051 0.043 
0.027 0.416 0.051 0.043 
0.196 0.624 0.051 0.082 
0.027 0.502 0.051 0.043 
0.224 0.749 0.153 0.125 
0.224 0.749 0.102 0.043 
0.278 0.71 0.086 0.043 
0.165 0.416 0.067 0.043 
0.082 0.459 0.086 0.043 
0.306 0.792 0.118 0.125 
0.196 0.584 0.086 0.043 
0.165 0.459 0.086 0.0 
0.137 0.584 0.102 0.043 
0.0 0.416 0.016 0.0 
0.388 1.0 0.086 0.125 
0.224 0.624 0.067 0.082 
0.224 0.749 0.086 0.082 
0.224 0.71 0.086 0.125 
0.224 0.541 0.118 0.165 
0.196 0.416 0.102 0.043 
0.251 0.624 0.086 0.043 
0.11 0.502 0.102 0.043 
0.306 0.584 0.086 0.125 
0.333 0.918 0.067 0.043 
0.196 0.502 0.035 0.043 
0.165 0.667 0.067 0.0 
0.224 0.584 0.086 0.043 
0.055 0.125 0.051 0.082 
0.196 0.624 0.102 0.208 
0.137 0.416 0.067 0.082 
0.082 0.502 0.067 0.043 
0.196 0.541 0.067 0.043 
0.749 0.502 0.627 0.541 
0.722 0.459 0.663 0.584 
0.612 0.333 0.612 0.584 
0.557 0.541 0.627 0.624 
0.639 0.376 0.612 0.498 
0.196 0.0 0.424 0.376 
0.471 0.082 0.51 0.376 
0.361 0.376 0.439 0.498 
0.361 0.416 0.592 0.584 
0.529 0.082 0.592 0.584 
0.443 0.502 0.643 0.459 
0.557 0.208 0.663 0.584 
0.584 0.376 0.561 0.498 
0.694 0.333 0.643 0.541 
0.471 0.376 0.592 0.584 
0.333 0.169 0.475 0.416 
0.416 0.29 0.49 0.459 
0.306 0.416 0.592 0.584 
0.667 0.459 0.627 0.584 
0.361 0.416 0.525 0.498 
0.333 0.251 0.576 0.459 
0.416 0.251 0.51 0.459 
0.361 0.29 0.541 0.498 
0.388 0.376 0.541 0.498 
0.224 0.208 0.337 0.416 
0.584 0.502 0.592 0.584 
0.333 0.125 0.51 0.498 
0.388 0.333 0.592 0.498 
0.165 0.169 0.388 0.376 
0.251 0.29 0.49 0.541 
0.443 0.416 0.541 0.584 
0.498 0.376 0.627 0.541 
0.667 0.459 0.576 0.541 
0.416 0.29 0.525 0.376 
0.361 0.208 0.49 0.416 
0.498 0.333 0.51 0.498 
0.498 0.333 0.627 0.459 
0.639 0.416 0.576 0.541 
0.667 0.416 0.678 0.667 
0.388 0.251 0.424 0.376 
0.333 0.169 0.459 0.376 
0.471 0.29 0.694 0.624 
0.471 0.584 0.592 0.624 
0.557 0.125 0.576 0.498 
0.333 0.208 0.51 0.498 
0.498 0.416 0.612 0.541 
0.196 0.125 0.388 0.376 
0.388 0.416 0.541 0.459 
0.529 0.376 0.561 0.498 
0.388 0.333 0.525 0.498 
0.557 0.541 0.847 1.0 
0.776 0.416 0.831 0.831 
0.612 0.416 0.812 0.875 
0.165 0.208 0.592 0.667 
0.667 0.208 0.812 0.71 
0.612 0.502 0.694 0.792 
0.694 0.416 0.761 0.831 
0.416 0.333 0.694 0.957 
0.612 0.416 0.761 0.71 
0.945 0.251 1.0 0.918 
0.722 0.502 0.796 0.918 
0.945 0.333 0.965 0.792 
0.667 0.541 0.796 0.831 
0.529 0.333 0.643 0.71 
0.584 0.333 0.78 0.831 
0.863 0.333 0.863 0.749 
0.584 0.333 0.78 0.875 
0.498 0.251 0.78 0.541 
0.557 0.584 0.78 0.957 
0.471 0.416 0.643 0.71 
0.667 0.459 0.78 0.957 
0.416 0.29 0.694 0.749 
0.667 0.541 0.796 1.0 
0.557 0.208 0.678 0.749 
0.529 0.584 0.745 0.918 
0.416 0.29 0.694 0.749 
0.557 0.376 0.78 0.71 
0.918 0.416 0.949 0.831 
0.835 0.376 0.898 0.71 
0.804 0.667 0.863 1.0 
0.584 0.29 0.729 0.749 
0.388 0.208 0.678 0.792 
0.584 0.502 0.729 0.918 
0.945 0.749 0.965 0.875 
0.471 0.082 0.678 0.584 
0.361 0.333 0.663 0.792 
0.557 0.29 0.663 0.71 
0.804 0.502 0.847 0.71 
0.498 0.416 0.51 0.71 
0.804 0.416 0.812 0.624 
1.0 0.749 0.914 0.792 
0.557 0.333 0.694 0.584 
0.945 0.416 0.863 0.918 
0.584 0.459 0.761 0.71 
0.722 0.459 0.745 0.831 
0.722 0.459 0.694 0.918 
0.694 0.502 0.831 0.918 
0.667 0.416 0.714 0.918 
0.612 0.416 0.714 0.792 
0.443 0.416 0.694 0.71 
Teaching Patterns
1.0 0.0 0.0 
1.0 0.0 0.0 
1.0 0.0 0.0 
1.0 0.0 0.0 
1.0 0.0 0.0 
1.0 0.0 0.0 
1.0 0.0 0.0 
1.0 0.0 0.0 
1.0 0.0 0.0 
1.0 0.0 0.0 
1.0 0.0 0.0 
1.0 0.0 0.0 
1.0 0.0 0.0 
1.0 0.0 0.0 
1.0 0.0 0.0 
1.0 0.0 0.0 
1.0 0.0 0.0 
1.0 0.0 0.0 
1.0 0.0 0.0 
1.0 0.0 0.0 
1.0 0.0 0.0 
1.0 0.0 0.0 
1.0 0.0 0.0 
1.0 0.0 0.0 
1.0 0.0 0.0 
1.0 0.0 0.0 
1.0 0.0 0.0 
1.0 0.0 0.0 
1.0 0.0 0.0 
1.0 0.0 0.0 
1.0 0.0 0.0 
1.0 0.0 0.0 
1.0 0.0 0.0 
1.0 0.0 0.0 
1.0 0.0 0.0 
1.0 0.0 0.0 
1.0 0.0 0.0 
1.0 0.0 0.0 
1.0 0.0 0.0 
1.0 0.0 0.0 
1.0 0.0 0.0 
1.0 0.0 0.0 
1.0 0.0 0.0 
1.0 0.0 0.0 
1.0 0.0 0.0 
1.0 0.0 0.0 
1.0 0.0 0.0 
1.0 0.0 0.0 
1.0 0.0 0.0 
1.0 0.0 0.0 
0.0 1.0 0.0 
0.0 1.0 0.0 
0.0 1.0 0.0 
0.0 1.0 0.0 
0.0 1.0 0.0 
0.0 1.0 0.0 
0.0 1.0 0.0 
0.0 1.0 0.0 
0.0 1.0 0.0 
0.0 1.0 0.0 
0.0 1.0 0.0 
0.0 1.0 0.0 
0.0 1.0 0.0 
0.0 1.0 0.0 
0.0 1.0 0.0 
0.0 1.0 0.0 
0.0 1.0 0.0 
0.0 1.0 0.0 
0.0 1.0 0.0 
0.0 1.0 0.0 
0.0 1.0 0.0 
0.0 1.0 0.0 
0.0 1.0 0.0 
0.0 1.0 0.0 
0.0 1.0 0.0 
0.0 1.0 0.0 
0.0 1.0 0.0 
0.0 1.0 0.0 
0.0 1.0 0.0 
0.0 1.0 0.0 
0.0 1.0 0.0 
0.0 1.0 0.0 
0.0 1.0 0.0 
0.0 1.0 0.0 
0.0 1.0 0.0 
0.0 1.0 0.0 
0.0 1.0 0.0 
0.0 1.0 0.0 
0.0 1.0 0.0 
0.0 1.0 0.0 
0.0 1.0 0.0 
0.0 1.0 0.0 
0.0 1.0 0.0 
0.0 1.0 0.0 
0.0 1.0 0.0 
0.0 1.0 0.0 
0.0 1.0 0.0 
0.0 1.0 0.0 
0.0 1.0 0.0 
0.0 1.0 0.0 
0.0 0.0 1.0 
0.0 0.0 1.0 
0.0 0.0 1.0 
0.0 0.0 1.0 
0.0 0.0 1.0 
0.0 0.0 1.0 
0.0 0.0 1.0 
0.0 0.0 1.0 
0.0 0.0 1.0 
0.0 0.0 1.0 
0.0 0.0 1.0 
0.0 0.0 1.0 
0.0 0.0 1.0 
0.0 0.0 1.0 
0.0 0.0 1.0 
0.0 0.0 1.0 
0.0 0.0 1.0 
0.0 0.0 1.0 
0.0 0.0 1.0 
0.0 0.0 1.0 
0.0 0.0 1.0 
0.0 0.0 1.0 
0.0 0.0 1.0 
0.0 0.0 1.0 
0.0 0.0 1.0 
0.0 0.0 1.0 
0.0 0.0 1.0 
0.0 0.0 1.0 
0.0 0.0 1.0 
0.0 0.0 1.0 
0.0 0.0 1.0 
0.0 0.0 1.0 
0.0 0.0 1.0 
0.0 0.0 1.0 
0.0 0.0 1.0 
0.0 0.0 1.0 
0.0 0.0 1.0 
0.0 0.0 1.0 
0.0 0.0 1.0 
0.0 0.0 1.0 
0.0 0.0 1.0 
0.0 0.0 1.0 
0.0 0.0 1.0 
0.0 0.0 1.0 
0.0 0.0 1.0 
0.0 0.0 1.0 
0.0 0.0 1.0 
0.0 0.0 1.0 
0.0 0.0 1.0 
0.0 0.0 1.0 
Learning : 0.05
Momentum : 0.800000011920929
Epoch: 100, Error: 0.030388882331444367
Epoch: 200, Error: 0.018441727691101188
Epoch: 300, Error: 0.016006045099721453
Epoch: 400, Error: 0.015301313430631106
Epoch: 500, Error: 0.014193025101546703
Epoch: 600, Error: 0.013859520660191374
Epoch: 700, Error: 0.013683140648534382
Epoch: 800, Error: 0.01318127168011568
Epoch: 900, Error: 0.013095455544664058
Epoch: 1000, Error: 0.013094984230254314
Epoch: 1100, Error: 0.01287275037012592
Epoch: 1200, Error: 0.012978317531039587
Epoch: 1300, Error: 0.012666769253918101
Epoch: 1400, Error: 0.012883177958147477
Epoch: 1500, Error: 0.012599520058386562
Epoch: 1600, Error: 0.012526763055133953
Epoch: 1700, Error: 0.012487043889157877
Epoch: 1800, Error: 0.012430348363432348
Epoch: 1900, Error: 0.012417140463408907
Epoch: 2000, Error: 0.012372462091334933
Epoch: 2100, Error: 0.01286257765158104
Epoch: 2200, Error: 0.012345938674903958
Epoch: 2300, Error: 0.012523211321457235
Epoch: 2400, Error: 0.012319992742340318
Epoch: 2500, Error: 0.01232896784438523
Epoch: 2600, Error: 0.012235714692061323
Epoch: 2700, Error: 0.012344229652282995
Epoch: 2800, Error: 0.012235416883445954
Epoch: 2900, Error: 0.012250714288661634
Epoch: 3000, Error: 0.012254559006639914
Epoch: 3100, Error: 0.012229251385523663
Epoch: 3200, Error: 0.012229152544199927
Epoch: 3300, Error: 0.012308297202031733
Epoch: 3400, Error: 0.012490025217359296
Epoch: 3500, Error: 0.012191363047125267
Epoch: 3600, Error: 0.012272027748008917
Epoch: 3700, Error: 0.012226379005647164
Epoch: 3800, Error: 0.01220642901779855
Epoch: 3900, Error: 0.012140426993304542
Epoch: 4000, Error: 0.012233207374515687
Epoch: 4100, Error: 0.012161261242311334
Epoch: 4200, Error: 0.012137832830998656
Epoch: 4300, Error: 0.012132508040377665
Epoch: 4400, Error: 0.012106720893576577
Epoch: 4500, Error: 0.012095729008259564
Epoch: 4600, Error: 0.012112933076413797
Epoch: 4700, Error: 0.012096393681518621
Epoch: 4800, Error: 0.012113979480096064
Epoch: 4900, Error: 0.012082756536379084
Epoch: 5000, Error: 0.012095640678961581
Epoch: 5100, Error: 0.01206721937099246
Epoch: 5200, Error: 0.012051523856772899
Epoch: 5300, Error: 0.01204475032032329
Epoch: 5400, Error: 0.012036860261285353
Epoch: 5500, Error: 0.012060142363983964
Epoch: 5600, Error: 0.012224736835133315
Epoch: 5700, Error: 0.012077472458250109
Epoch: 5800, Error: 0.01213582204789744
Epoch: 5900, Error: 0.01209462759673608
Epoch: 6000, Error: 0.012028059598172183
Epoch: 6100, Error: 0.012021797423207315
Epoch: 6200, Error: 0.012117912676915268
Epoch: 6300, Error: 0.012003362029347275
Epoch: 6400, Error: 0.012032841970902992
Epoch: 6500, Error: 0.012005461204705789
Epoch: 6600, Error: 0.012057921133700694
Epoch: 6700, Error: 0.011932780867234429
Epoch: 6800, Error: 0.01195503374108053
Epoch: 6900, Error: 0.011953052225034616
Epoch: 7000, Error: 0.011968212527708832
Epoch: 7100, Error: 0.011931249140808396
Epoch: 7200, Error: 0.011910146603140409
Epoch: 7300, Error: 0.01198342692998125
Epoch: 7400, Error: 0.011843374271349722
Epoch: 7500, Error: 0.011834761183047408
Epoch: 7600, Error: 0.011789524509293861
Epoch: 7700, Error: 0.01177657298551381
Epoch: 7800, Error: 0.011817146310868566
Epoch: 7900, Error: 0.011761641509002815
Epoch: 8000, Error: 0.011748551439369675
Epoch: 8100, Error: 0.011713270444987817
Epoch: 8200, Error: 0.011720582922659548
Epoch: 8300, Error: 0.011669573625031023
Epoch: 8400, Error: 0.011718162793610435
Epoch: 8500, Error: 0.011570245599330092
Epoch: 8600, Error: 0.011555804990886244
Epoch: 8700, Error: 0.011509425301269229
Epoch: 8800, Error: 0.011508237542306309
Epoch: 8900, Error: 0.011479234075312185
Epoch: 9000, Error: 0.01156481833492238
Epoch: 9100, Error: 0.011410378439742547
Epoch: 9200, Error: 0.01130836337887322
Epoch: 9300, Error: 0.011260156530084473
Epoch: 9400, Error: 0.011169043493121028
Epoch: 9500, Error: 0.011245288066115916
Epoch: 9600, Error: 0.011182305334560045
Epoch: 9700, Error: 0.011049706676071806
Epoch: 9800, Error: 0.011070113857328435
Epoch: 9900, Error: 0.010935509495501768
Epoch: 10000, Error: 0.010863466385778885
Epoch: 10100, Error: 0.01080905658724614
Epoch: 10200, Error: 0.010743715020477834
Epoch: 10300, Error: 0.011066376216650025
Epoch: 10400, Error: 0.010658171857897148
Epoch: 10500, Error: 0.010540829425479797
Epoch: 10600, Error: 0.010483971391075547
Epoch: 10700, Error: 0.010490999017637498
Epoch: 10800, Error: 0.010299452910532173
Epoch: 10900, Error: 0.010205514488497745
Epoch: 11000, Error: 0.010059506629303588
Epoch: 11100, Error: 0.009969466274528955
Epoch: 11200, Error: 0.009848973318341336
Epoch: 11300, Error: 0.009701428303591962
Epoch: 11400, Error: 0.009554111379118288
Epoch: 11500, Error: 0.009438412896754615
Epoch: 11600, Error: 0.009283867190305542
Epoch: 11700, Error: 0.009331224231134628
Epoch: 11800, Error: 0.00907339250200992
Epoch: 11900, Error: 0.00895867349943459
Epoch: 12000, Error: 0.008743729323968902
Epoch: 12100, Error: 0.008630779765914464
Epoch: 12200, Error: 0.008448200523638533
Epoch: 12300, Error: 0.008392935498041104
Epoch: 12400, Error: 0.00819440758384522
Epoch: 12500, Error: 0.00809386647714135
Epoch: 12600, Error: 0.00796529828489631
Epoch: 12700, Error: 0.007898163334012923
Epoch: 12800, Error: 0.007764948915084432
Epoch: 12900, Error: 0.00760517006976937
Epoch: 13000, Error: 0.007520230089546195
Epoch: 13100, Error: 0.007411717810121236
Epoch: 13200, Error: 0.007328466595555242
Epoch: 13300, Error: 0.007314879019106306
Epoch: 13400, Error: 0.007175098230688252
Epoch: 13500, Error: 0.007070375355117918
Epoch: 13600, Error: 0.006995062441808968
Epoch: 13700, Error: 0.006893352116342489
Epoch: 13800, Error: 0.006843034316673513
Epoch: 13900, Error: 0.0067854633783911164
Epoch: 14000, Error: 0.006734060895466932
Epoch: 14100, Error: 0.0066611994858627325
Epoch: 14200, Error: 0.006635766654705854
Epoch: 14300, Error: 0.0065639698659508425
Epoch: 14400, Error: 0.006512433662154477
Epoch: 14500, Error: 0.006468041019584116
Epoch: 14600, Error: 0.006463705327850046
Epoch: 14700, Error: 0.0063659031552691005
Epoch: 14800, Error: 0.006386758562919717
Epoch: 14900, Error: 0.006276163048341942
Epoch: 15000, Error: 0.006236619207827264
Epoch: 15100, Error: 0.006244781923386327
Epoch: 15200, Error: 0.006222577878262777
Epoch: 15300, Error: 0.006212164379723826
Epoch: 15400, Error: 0.006167145436142951
Epoch: 15500, Error: 0.006151927782982488
Epoch: 15600, Error: 0.006146489811459801
Epoch: 15700, Error: 0.006104706624453481
Epoch: 15800, Error: 0.006185928065481716
Epoch: 15900, Error: 0.006051867316673177
Epoch: 16000, Error: 0.006016700249963942
Epoch: 16100, Error: 0.0060214264652892185
Epoch: 16200, Error: 0.005976797248133364
Epoch: 16300, Error: 0.005973198468268272
Epoch: 16400, Error: 0.005942485554784181
Epoch: 16500, Error: 0.0059130224083384485
Epoch: 16600, Error: 0.005875153339356905
Epoch: 16700, Error: 0.005916421161792976
Epoch: 16800, Error: 0.0058742997010626415
Epoch: 16900, Error: 0.0058908602799968976
Epoch: 17000, Error: 0.0059181250412896945
Epoch: 17100, Error: 0.005961981077768044
Epoch: 17200, Error: 0.0058338886539408595
Epoch: 17300, Error: 0.00587257281606176
Epoch: 17400, Error: 0.005818867249151989
Epoch: 17500, Error: 0.005878827552874076
Epoch: 17600, Error: 0.005777543722176417
Epoch: 17700, Error: 0.005752781455800168
Epoch: 17800, Error: 0.005723795348838352
Epoch: 17900, Error: 0.005705903256320396
Epoch: 18000, Error: 0.0056955756092591965
Epoch: 18100, Error: 0.005665459207994315
Epoch: 18200, Error: 0.005651400850468242
Epoch: 18300, Error: 0.005632227912727872
Epoch: 18400, Error: 0.0056316058897044365
Epoch: 18500, Error: 0.005581522176578774
Epoch: 18600, Error: 0.005566575933893058
Epoch: 18700, Error: 0.005544702855024597
Epoch: 18800, Error: 0.005514441384007836
Epoch: 18900, Error: 0.005474032656777516
Epoch: 19000, Error: 0.005485974248270947
Epoch: 19100, Error: 0.005448513647946202
Epoch: 19200, Error: 0.0054366593184707376
Epoch: 19300, Error: 0.00541141452614136
Epoch: 19400, Error: 0.005465466602644114
Epoch: 19500, Error: 0.005387862771547916
Epoch: 19600, Error: 0.005374763895221185
Epoch: 19700, Error: 0.005329869014867622
Epoch: 19800, Error: 0.005308087256255091
Epoch: 19900, Error: 0.005288126106021919
Epoch: 20000, Error: 0.00528863722551153
Epoch: 20100, Error: 0.005234577115263026
Epoch: 20200, Error: 0.00521471519082438
Epoch: 20300, Error: 0.005262099563199718
Epoch: 20400, Error: 0.005172467613447713
Epoch: 20500, Error: 0.005179647262200675
Epoch: 20600, Error: 0.005108611415595446
Epoch: 20700, Error: 0.005096307328531713
Epoch: 20800, Error: 0.00506205300632762
Epoch: 20900, Error: 0.005083694100109718
Epoch: 21000, Error: 0.005015784296970994
Epoch: 21100, Error: 0.004995631924624831
Epoch: 21200, Error: 0.00497833646679224
Epoch: 21300, Error: 0.004937632594184946
Epoch: 21400, Error: 0.004925770874616698
Epoch: 21500, Error: 0.004911508167541087
Epoch: 21600, Error: 0.0048538655521999045
Epoch: 21700, Error: 0.004832166433705226
Epoch: 21800, Error: 0.004801792739017119
Epoch: 21900, Error: 0.004788463581440563
Epoch: 22000, Error: 0.004798801153029956
Epoch: 22100, Error: 0.0048074989574883355
Epoch: 22200, Error: 0.00470562935954037
Epoch: 22300, Error: 0.004677479528517713
Epoch: 22400, Error: 0.004639587637807588
Epoch: 22500, Error: 0.004614912043992374
Epoch: 22600, Error: 0.004641805180868486
Epoch: 22700, Error: 0.0045623686198152935
Epoch: 22800, Error: 0.004601927810757785
Epoch: 22900, Error: 0.004516378296703799
Epoch: 23000, Error: 0.004489558596949219
Epoch: 23100, Error: 0.004683393243838294
Epoch: 23200, Error: 0.004462871715289554
Epoch: 23300, Error: 0.0045234700122783284
Epoch: 23400, Error: 0.0045638779080973725
Epoch: 23500, Error: 0.004386006716234546
Epoch: 23600, Error: 0.004357229315609093
Epoch: 23700, Error: 0.004363575361094938
Epoch: 23800, Error: 0.004328874220776496
Epoch: 23900, Error: 0.0042805862966819016
Epoch: 24000, Error: 0.004271034341274088
Epoch: 24100, Error: 0.004235943389123792
Epoch: 24200, Error: 0.00423519048092443
Epoch: 24300, Error: 0.004192148523156742
Epoch: 24400, Error: 0.004174986741418986
Epoch: 24500, Error: 0.004142375068402431
Epoch: 24600, Error: 0.004230094490075762
Epoch: 24700, Error: 0.004098845017383021
Epoch: 24800, Error: 0.004095822598527622
Epoch: 24900, Error: 0.004061783514178736
Epoch: 25000, Error: 0.004120986215049131
Epoch: 25100, Error: 0.004004973157484837
Epoch: 25200, Error: 0.004277897714537079
Epoch: 25300, Error: 0.003945302512176551
Epoch: 25400, Error: 0.003912872544940595
Epoch: 25500, Error: 0.003908314167477956
Epoch: 25600, Error: 0.003860643479164498
Epoch: 25700, Error: 0.003827079587636416
Epoch: 25800, Error: 0.0038082022082815904
Epoch: 25900, Error: 0.0037813340449964258
Epoch: 26000, Error: 0.003759524569021752
Epoch: 26100, Error: 0.0037878008778883753
Epoch: 26200, Error: 0.0037032354770447583
Epoch: 26300, Error: 0.003655057164736279
Epoch: 26400, Error: 0.0036413960908490747
Epoch: 26500, Error: 0.0036238693164787864
Epoch: 26600, Error: 0.0036422522816136364
Epoch: 26700, Error: 0.003524443064910794
Epoch: 26800, Error: 0.0034969733450169677
Epoch: 26900, Error: 0.0035428379654489583
Epoch: 27000, Error: 0.0034738608673351517
Epoch: 27100, Error: 0.003419676340012527
Epoch: 27200, Error: 0.003380941460231907
Epoch: 27300, Error: 0.0033536734624954557
Epoch: 27400, Error: 0.00333958115956701
Epoch: 27500, Error: 0.003299081232202672
Epoch: 27600, Error: 0.0032731416029464595
Epoch: 27700, Error: 0.0032707998569882412
Epoch: 27800, Error: 0.003229324684214895
Epoch: 27900, Error: 0.0032204733758531053
Epoch: 28000, Error: 0.0032000792308570438
Epoch: 28100, Error: 0.003158675036128549
Epoch: 28200, Error: 0.003177353640523416
Epoch: 28300, Error: 0.0031012143563132546
Epoch: 28400, Error: 0.003142497672557762
Epoch: 28500, Error: 0.0030701536752904485
Epoch: 28600, Error: 0.0030728236517330782
Epoch: 28700, Error: 0.003044177658940696
Epoch: 28800, Error: 0.0029753622126862398
Epoch: 28900, Error: 0.002950214017234294
Epoch: 29000, Error: 0.002932289544019739
Epoch: 29100, Error: 0.002929430752844928
Epoch: 29200, Error: 0.0029309587179687283
Epoch: 29300, Error: 0.00285807894066277
Epoch: 29400, Error: 0.0028885611238034675
Epoch: 29500, Error: 0.002880919582213164
Epoch: 29600, Error: 0.0027998613857848657
Epoch: 29700, Error: 0.0028420628759246416
Epoch: 29800, Error: 0.002764744686344808
Epoch: 29900, Error: 0.0027965761159507926
Epoch: 30000, Error: 0.002733303843305056
Epoch: 30100, Error: 0.0026875733895888334
Epoch: 30200, Error: 0.0026831906297207784
Epoch: 30300, Error: 0.0026446251855168274
Epoch: 30400, Error: 0.00262345276417475
Epoch: 30500, Error: 0.0026669293529059976
Epoch: 30600, Error: 0.00258626046629605
Epoch: 30700, Error: 0.002582073318425108
Epoch: 30800, Error: 0.0025959673184228075
Epoch: 30900, Error: 0.0025626311642682016
Epoch: 31000, Error: 0.0026708039658299688
Epoch: 31100, Error: 0.0024990270821455968
Epoch: 31200, Error: 0.002470535311823393
Epoch: 31300, Error: 0.00249038562734391
Epoch: 31400, Error: 0.002484972883223891
Epoch: 31500, Error: 0.0025261500130098324
Epoch: 31600, Error: 0.002441986161089665
Epoch: 31700, Error: 0.002379225458645281
Epoch: 31800, Error: 0.002408446551859376
Epoch: 31900, Error: 0.0023851687457521857
Epoch: 32000, Error: 0.0023353704830085553
Epoch: 32100, Error: 0.0023939088691615094
Epoch: 32200, Error: 0.002319410087837899
Epoch: 32300, Error: 0.002309568938873546
Epoch: 32400, Error: 0.002288669153437248
Epoch: 32500, Error: 0.002251554252945285
Epoch: 32600, Error: 0.00227063733030854
Epoch: 32700, Error: 0.002220910813015331
Epoch: 32800, Error: 0.0022165338651498156
Epoch: 32900, Error: 0.002261843214994029
Epoch: 33000, Error: 0.002182762913926978
Epoch: 33100, Error: 0.0024696088065182574
Epoch: 33200, Error: 0.002180467596750727
Epoch: 33300, Error: 0.0021471126655510544
Epoch: 33400, Error: 0.0021259456671799157
Epoch: 33500, Error: 0.0021622772583656216
Epoch: 33600, Error: 0.0021384387272415095
Epoch: 33700, Error: 0.002126072683220314
Epoch: 33800, Error: 0.0020557173780030263
Epoch: 33900, Error: 0.002044379426998912
Epoch: 34000, Error: 0.0020525471459069454
Epoch: 34100, Error: 0.0020130086374273827
Epoch: 34200, Error: 0.0020061490538855033
Epoch: 34300, Error: 0.0020538671854739383
Epoch: 34400, Error: 0.0019761494456902906
Epoch: 34500, Error: 0.0019795435977775257
Epoch: 34600, Error: 0.0019621097706256103
Epoch: 34700, Error: 0.0019338327173868692
Epoch: 34800, Error: 0.0022185816324113332
Epoch: 34900, Error: 0.0019228862023005456
Epoch: 35000, Error: 0.00194622414893756
Epoch: 35100, Error: 0.001995071808061379
Epoch: 35200, Error: 0.0018731189320171538
Epoch: 35300, Error: 0.001851326427872741
Epoch: 35400, Error: 0.001879091142027469
Epoch: 35500, Error: 0.0018258633320044973
Epoch: 35600, Error: 0.001874370203923645
Epoch: 35700, Error: 0.001802588153626007
Epoch: 35800, Error: 0.0018285525734241003
Epoch: 35900, Error: 0.001779569623158515
Epoch: 36000, Error: 0.0018956537121409326
Epoch: 36100, Error: 0.0017679872026528079
Epoch: 36200, Error: 0.0017556329439989357
Epoch: 36300, Error: 0.0017503266567760432
Epoch: 36400, Error: 0.0017224751037263537
Epoch: 36500, Error: 0.0017130663747896954
Epoch: 36600, Error: 0.0017099545884066195
Epoch: 36700, Error: 0.001694816074210247
Epoch: 36800, Error: 0.0017199404087156543
Epoch: 36900, Error: 0.001664791358825622
Epoch: 37000, Error: 0.001661483113446835
Epoch: 37100, Error: 0.0016713904843849315
Epoch: 37200, Error: 0.0016459591726421595
Epoch: 37300, Error: 0.0016660000665599719
Epoch: 37400, Error: 0.0016249972997959131
Epoch: 37500, Error: 0.0016184917061364498
Epoch: 37600, Error: 0.0016289250562543823
Epoch: 37700, Error: 0.0015859552735749992
Epoch: 37800, Error: 0.0015727616759974984
Epoch: 37900, Error: 0.0015950520446604258
Epoch: 38000, Error: 0.0015729238658064126
Epoch: 38100, Error: 0.001545545493168706
Epoch: 38200, Error: 0.0015343370300281134
Epoch: 38300, Error: 0.0015321869879548775
Epoch: 38400, Error: 0.0015507340756534848
Epoch: 38500, Error: 0.001525179917479975
Epoch: 38600, Error: 0.0015205131089323215
Epoch: 38700, Error: 0.0015032757835867195
Epoch: 38800, Error: 0.00148209508707708
Epoch: 38900, Error: 0.0014766429026637073
Epoch: 39000, Error: 0.0014625426023070617
Epoch: 39100, Error: 0.001460839331229041
Epoch: 39200, Error: 0.0014761973934093275
Epoch: 39300, Error: 0.0014618696901443774
Epoch: 39400, Error: 0.0014336830268785947
Epoch: 39500, Error: 0.0014231540668521246
Epoch: 39600, Error: 0.0014322447937527053
Epoch: 39700, Error: 0.0014113990190045586
Epoch: 39800, Error: 0.0014079236695603938
Epoch: 39900, Error: 0.0014213920293229395
Epoch: 40000, Error: 0.001393519990272324
Epoch: 40100, Error: 0.0013872486648439945
Epoch: 40200, Error: 0.001399557281675012
Epoch: 40300, Error: 0.0013761852806133926
Epoch: 40400, Error: 0.001376744424593612
Epoch: 40500, Error: 0.001358882992541393
Epoch: 40600, Error: 0.00137200776139919
Epoch: 40700, Error: 0.0013458519793260416
Epoch: 40800, Error: 0.0013448654870783089
Epoch: 40900, Error: 0.0013313110356792588
Epoch: 41000, Error: 0.0013343221964567241
Epoch: 41100, Error: 0.0013262937668172864
Epoch: 41200, Error: 0.0013249194266602056
Epoch: 41300, Error: 0.0013470297250370927
Epoch: 41400, Error: 0.0013012437067879414
Epoch: 41500, Error: 0.0012957439319332144
Epoch: 41600, Error: 0.0012980513909571164
Epoch: 41700, Error: 0.0012917961500508645
Epoch: 41800, Error: 0.0012828029624461642
Epoch: 41900, Error: 0.0012689439959099216
Epoch: 42000, Error: 0.0012745742502961825
Epoch: 42100, Error: 0.0012657863031267796
Epoch: 42200, Error: 0.0012538813568729985
Epoch: 42300, Error: 0.0012464426430453175
Epoch: 42400, Error: 0.0012541657721020843
Epoch: 42500, Error: 0.0012550682093457673
Epoch: 42600, Error: 0.0012346053966143646
Epoch: 42700, Error: 0.0012400294276288307
Epoch: 42800, Error: 0.0012492553756667329
Epoch: 42900, Error: 0.0012167730379540255
Epoch: 43000, Error: 0.0012139988246230235
Epoch: 43100, Error: 0.0012296194474041057
Epoch: 43200, Error: 0.0012131914443388007
Epoch: 43300, Error: 0.001224394416452408
Epoch: 43400, Error: 0.0012008855218719214
Epoch: 43500, Error: 0.0012099166965273275
Epoch: 43600, Error: 0.001203916560899603
Epoch: 43700, Error: 0.0011907305636660792
Epoch: 43800, Error: 0.0011941298093517518
Epoch: 43900, Error: 0.0011948418178252468
Epoch: 44000, Error: 0.0011779332786524088
Epoch: 44100, Error: 0.001183266296398342
Epoch: 44200, Error: 0.0011737701467877354
Epoch: 44300, Error: 0.0011788805022720293
Epoch: 44400, Error: 0.0011859168595354237
Epoch: 44500, Error: 0.0011693660972819577
Epoch: 44600, Error: 0.00119904018522144
Epoch: 44700, Error: 0.0011707684414369555
Epoch: 44800, Error: 0.0011681539420266985
Epoch: 44900, Error: 0.0012005396844216776
Epoch: 45000, Error: 0.001182546105666959
Epoch: 45100, Error: 0.001177555895316021
Epoch: 45200, Error: 0.0011637392635750433
Epoch: 45300, Error: 0.0011584917448405519
Epoch: 45400, Error: 0.001160778894986319
Epoch: 45500, Error: 0.0011884911167852486
Epoch: 45600, Error: 0.001176002368353796
Epoch: 45700, Error: 0.0011509198866787255
Epoch: 45800, Error: 0.0011506217077537418
Epoch: 45900, Error: 0.0011482624971342861
Epoch: 46000, Error: 0.0011424974082513745
Epoch: 46100, Error: 0.0011522732875585986
Epoch: 46200, Error: 0.001137689946088437
Epoch: 46300, Error: 0.001147046921486884
Epoch: 46400, Error: 0.0011471203001874064
Finished
Input Patterns
0.224 0.624 0.067 0.043 
0.11 0.502 0.051 0.043 
0.196 0.667 0.067 0.043 
0.055 0.584 0.067 0.082 
0.027 0.376 0.067 0.043 
0.306 0.71 0.086 0.043 
0.137 0.416 0.067 0.0 
0.416 0.831 0.035 0.043 
0.306 0.792 0.051 0.125 
0.388 0.749 0.118 0.082 
0.306 0.584 0.118 0.043 
0.082 0.667 0.0 0.043 
0.137 0.584 0.153 0.043 
0.196 0.584 0.102 0.125 
0.251 0.584 0.067 0.043 
0.137 0.459 0.102 0.043 
0.251 0.875 0.086 0.0 
0.165 0.459 0.086 0.043 
0.333 0.624 0.051 0.043 
0.027 0.416 0.051 0.043 
0.196 0.624 0.051 0.082 
0.027 0.502 0.051 0.043 
0.224 0.749 0.153 0.125 
0.224 0.749 0.102 0.043 
0.278 0.71 0.086 0.043 
0.165 0.416 0.067 0.043 
0.082 0.459 0.086 0.043 
0.306 0.792 0.118 0.125 
0.196 0.584 0.086 0.043 
0.165 0.459 0.086 0.0 
0.137 0.584 0.102 0.043 
0.0 0.416 0.016 0.0 
0.388 1.0 0.086 0.125 
0.224 0.624 0.067 0.082 
0.224 0.749 0.086 0.082 
0.224 0.71 0.086 0.125 
0.224 0.541 0.118 0.165 
0.196 0.416 0.102 0.043 
0.251 0.624 0.086 0.043 
0.11 0.502 0.102 0.043 
0.306 0.584 0.086 0.125 
0.333 0.918 0.067 0.043 
0.196 0.502 0.035 0.043 
0.165 0.667 0.067 0.0 
0.224 0.584 0.086 0.043 
0.055 0.125 0.051 0.082 
0.196 0.624 0.102 0.208 
0.137 0.416 0.067 0.082 
0.082 0.502 0.067 0.043 
0.196 0.541 0.067 0.043 
0.749 0.502 0.627 0.541 
0.722 0.459 0.663 0.584 
0.612 0.333 0.612 0.584 
0.557 0.541 0.627 0.624 
0.639 0.376 0.612 0.498 
0.196 0.0 0.424 0.376 
0.471 0.082 0.51 0.376 
0.361 0.376 0.439 0.498 
0.361 0.416 0.592 0.584 
0.529 0.082 0.592 0.584 
0.443 0.502 0.643 0.459 
0.557 0.208 0.663 0.584 
0.584 0.376 0.561 0.498 
0.694 0.333 0.643 0.541 
0.471 0.376 0.592 0.584 
0.333 0.169 0.475 0.416 
0.416 0.29 0.49 0.459 
0.306 0.416 0.592 0.584 
0.667 0.459 0.627 0.584 
0.361 0.416 0.525 0.498 
0.333 0.251 0.576 0.459 
0.416 0.251 0.51 0.459 
0.361 0.29 0.541 0.498 
0.388 0.376 0.541 0.498 
0.224 0.208 0.337 0.416 
0.584 0.502 0.592 0.584 
0.333 0.125 0.51 0.498 
0.388 0.333 0.592 0.498 
0.165 0.169 0.388 0.376 
0.251 0.29 0.49 0.541 
0.443 0.416 0.541 0.584 
0.498 0.376 0.627 0.541 
0.667 0.459 0.576 0.541 
0.416 0.29 0.525 0.376 
0.361 0.208 0.49 0.416 
0.498 0.333 0.51 0.498 
0.498 0.333 0.627 0.459 
0.639 0.416 0.576 0.541 
0.667 0.416 0.678 0.667 
0.388 0.251 0.424 0.376 
0.333 0.169 0.459 0.376 
0.471 0.29 0.694 0.624 
0.471 0.584 0.592 0.624 
0.557 0.125 0.576 0.498 
0.333 0.208 0.51 0.498 
0.498 0.416 0.612 0.541 
0.196 0.125 0.388 0.376 
0.388 0.416 0.541 0.459 
0.529 0.376 0.561 0.498 
0.388 0.333 0.525 0.498 
0.557 0.541 0.847 1.0 
0.776 0.416 0.831 0.831 
0.612 0.416 0.812 0.875 
0.165 0.208 0.592 0.667 
0.667 0.208 0.812 0.71 
0.612 0.502 0.694 0.792 
0.694 0.416 0.761 0.831 
0.416 0.333 0.694 0.957 
0.612 0.416 0.761 0.71 
0.945 0.251 1.0 0.918 
0.722 0.502 0.796 0.918 
0.945 0.333 0.965 0.792 
0.667 0.541 0.796 0.831 
0.529 0.333 0.643 0.71 
0.584 0.333 0.78 0.831 
0.863 0.333 0.863 0.749 
0.584 0.333 0.78 0.875 
0.498 0.251 0.78 0.541 
0.557 0.584 0.78 0.957 
0.471 0.416 0.643 0.71 
0.667 0.459 0.78 0.957 
0.416 0.29 0.694 0.749 
0.667 0.541 0.796 1.0 
0.557 0.208 0.678 0.749 
0.529 0.584 0.745 0.918 
0.416 0.29 0.694 0.749 
0.557 0.376 0.78 0.71 
0.918 0.416 0.949 0.831 
0.835 0.376 0.898 0.71 
0.804 0.667 0.863 1.0 
0.584 0.29 0.729 0.749 
0.388 0.208 0.678 0.792 
0.584 0.502 0.729 0.918 
0.945 0.749 0.965 0.875 
0.471 0.082 0.678 0.584 
0.361 0.333 0.663 0.792 
0.557 0.29 0.663 0.71 
0.804 0.502 0.847 0.71 
0.498 0.416 0.51 0.71 
0.804 0.416 0.812 0.624 
1.0 0.749 0.914 0.792 
0.557 0.333 0.694 0.584 
0.945 0.416 0.863 0.918 
0.584 0.459 0.761 0.71 
0.722 0.459 0.745 0.831 
0.722 0.459 0.694 0.918 
0.694 0.502 0.831 0.918 
0.667 0.416 0.714 0.918 
0.612 0.416 0.714 0.792 
0.443 0.416 0.694 0.71 
Teaching Patterns
1.0 0.0 0.0 
1.0 0.0 0.0 
1.0 0.0 0.0 
1.0 0.0 0.0 
1.0 0.0 0.0 
1.0 0.0 0.0 
1.0 0.0 0.0 
1.0 0.0 0.0 
1.0 0.0 0.0 
1.0 0.0 0.0 
1.0 0.0 0.0 
1.0 0.0 0.0 
1.0 0.0 0.0 
1.0 0.0 0.0 
1.0 0.0 0.0 
1.0 0.0 0.0 
1.0 0.0 0.0 
1.0 0.0 0.0 
1.0 0.0 0.0 
1.0 0.0 0.0 
1.0 0.0 0.0 
1.0 0.0 0.0 
1.0 0.0 0.0 
1.0 0.0 0.0 
1.0 0.0 0.0 
1.0 0.0 0.0 
1.0 0.0 0.0 
1.0 0.0 0.0 
1.0 0.0 0.0 
1.0 0.0 0.0 
1.0 0.0 0.0 
1.0 0.0 0.0 
1.0 0.0 0.0 
1.0 0.0 0.0 
1.0 0.0 0.0 
1.0 0.0 0.0 
1.0 0.0 0.0 
1.0 0.0 0.0 
1.0 0.0 0.0 
1.0 0.0 0.0 
1.0 0.0 0.0 
1.0 0.0 0.0 
1.0 0.0 0.0 
1.0 0.0 0.0 
1.0 0.0 0.0 
1.0 0.0 0.0 
1.0 0.0 0.0 
1.0 0.0 0.0 
1.0 0.0 0.0 
1.0 0.0 0.0 
0.0 1.0 0.0 
0.0 1.0 0.0 
0.0 1.0 0.0 
0.0 1.0 0.0 
0.0 1.0 0.0 
0.0 1.0 0.0 
0.0 1.0 0.0 
0.0 1.0 0.0 
0.0 1.0 0.0 
0.0 1.0 0.0 
0.0 1.0 0.0 
0.0 1.0 0.0 
0.0 1.0 0.0 
0.0 1.0 0.0 
0.0 1.0 0.0 
0.0 1.0 0.0 
0.0 1.0 0.0 
0.0 1.0 0.0 
0.0 1.0 0.0 
0.0 1.0 0.0 
0.0 1.0 0.0 
0.0 1.0 0.0 
0.0 1.0 0.0 
0.0 1.0 0.0 
0.0 1.0 0.0 
0.0 1.0 0.0 
0.0 1.0 0.0 
0.0 1.0 0.0 
0.0 1.0 0.0 
0.0 1.0 0.0 
0.0 1.0 0.0 
0.0 1.0 0.0 
0.0 1.0 0.0 
0.0 1.0 0.0 
0.0 1.0 0.0 
0.0 1.0 0.0 
0.0 1.0 0.0 
0.0 1.0 0.0 
0.0 1.0 0.0 
0.0 1.0 0.0 
0.0 1.0 0.0 
0.0 1.0 0.0 
0.0 1.0 0.0 
0.0 1.0 0.0 
0.0 1.0 0.0 
0.0 1.0 0.0 
0.0 1.0 0.0 
0.0 1.0 0.0 
0.0 1.0 0.0 
0.0 1.0 0.0 
0.0 0.0 1.0 
0.0 0.0 1.0 
0.0 0.0 1.0 
0.0 0.0 1.0 
0.0 0.0 1.0 
0.0 0.0 1.0 
0.0 0.0 1.0 
0.0 0.0 1.0 
0.0 0.0 1.0 
0.0 0.0 1.0 
0.0 0.0 1.0 
0.0 0.0 1.0 
0.0 0.0 1.0 
0.0 0.0 1.0 
0.0 0.0 1.0 
0.0 0.0 1.0 
0.0 0.0 1.0 
0.0 0.0 1.0 
0.0 0.0 1.0 
0.0 0.0 1.0 
0.0 0.0 1.0 
0.0 0.0 1.0 
0.0 0.0 1.0 
0.0 0.0 1.0 
0.0 0.0 1.0 
0.0 0.0 1.0 
0.0 0.0 1.0 
0.0 0.0 1.0 
0.0 0.0 1.0 
0.0 0.0 1.0 
0.0 0.0 1.0 
0.0 0.0 1.0 
0.0 0.0 1.0 
0.0 0.0 1.0 
0.0 0.0 1.0 
0.0 0.0 1.0 
0.0 0.0 1.0 
0.0 0.0 1.0 
0.0 0.0 1.0 
0.0 0.0 1.0 
0.0 0.0 1.0 
0.0 0.0 1.0 
0.0 0.0 1.0 
0.0 0.0 1.0 
0.0 0.0 1.0 
0.0 0.0 1.0 
0.0 0.0 1.0 
0.0 0.0 1.0 
0.0 0.0 1.0 
0.0 0.0 1.0 
Learning : 0.05
Momentum : 0.800000011920929
Epoch: 100, Error: 0.026189336856476342
Epoch: 200, Error: 0.018468865001476882
Epoch: 300, Error: 0.015601795177016833
Epoch: 400, Error: 0.014492227584904867
Epoch: 500, Error: 0.013892034659741039
Epoch: 600, Error: 0.013491578138966414
Epoch: 700, Error: 0.013133535779610704
Epoch: 800, Error: 0.012970813853875142
Epoch: 900, Error: 0.013197035266288765
Epoch: 1000, Error: 0.012738745697488143
Epoch: 1100, Error: 0.012697499615982535
Epoch: 1200, Error: 0.012627619194721058
Epoch: 1300, Error: 0.012655243776417332
Epoch: 1400, Error: 0.012508050561509141
Epoch: 1500, Error: 0.012469719969132698
Epoch: 1600, Error: 0.012311470368921194
Epoch: 1700, Error: 0.012451297195278927
Epoch: 1800, Error: 0.01221376047375428
Epoch: 1900, Error: 0.01228454756896896
Epoch: 2000, Error: 0.01220739531120077
Epoch: 2100, Error: 0.012293278444795231
Epoch: 2200, Error: 0.012155815155179429
Epoch: 2300, Error: 0.012325639699073455
Epoch: 2400, Error: 0.01221989686373799
Epoch: 2500, Error: 0.012204917079412144
Epoch: 2600, Error: 0.012209639557934986
Epoch: 2700, Error: 0.012185754829239866
Epoch: 2800, Error: 0.012161424259476594
Epoch: 2900, Error: 0.01211027303933417
Epoch: 3000, Error: 0.012177022095359357
Epoch: 3100, Error: 0.012415959511398816
Epoch: 3200, Error: 0.012258798143459794
Epoch: 3300, Error: 0.012141777425045864
Epoch: 3400, Error: 0.012156952873281121
Epoch: 3500, Error: 0.012107756352405246
Epoch: 3600, Error: 0.012068116432535162
Epoch: 3700, Error: 0.012132964403832883
Epoch: 3800, Error: 0.01233502621964008
Epoch: 3900, Error: 0.012068226358713895
Epoch: 4000, Error: 0.012153762858781367
Epoch: 4100, Error: 0.012018233281005845
Epoch: 4200, Error: 0.012043307394515982
Epoch: 4300, Error: 0.011948044848712952
Epoch: 4400, Error: 0.011971867878463225
Epoch: 4500, Error: 0.01197140758522486
Epoch: 4600, Error: 0.011900096515130574
Epoch: 4700, Error: 0.011903248608210796
Epoch: 4800, Error: 0.011909017607554213
Epoch: 4900, Error: 0.011942091511941031
Epoch: 5000, Error: 0.011896874530629795
Epoch: 5100, Error: 0.01185926271227416
Epoch: 5200, Error: 0.011915228085815929
Epoch: 5300, Error: 0.011898017791832877
Epoch: 5400, Error: 0.011813668300061047
Epoch: 5500, Error: 0.011853335652400042
Epoch: 5600, Error: 0.01183686684697002
Epoch: 5700, Error: 0.01181219242790082
Epoch: 5800, Error: 0.011859788579444462
Epoch: 5900, Error: 0.011862528326710916
Epoch: 6000, Error: 0.01189443191785939
Epoch: 6100, Error: 0.011857878535947578
Epoch: 6200, Error: 0.011860164452611874
Epoch: 6300, Error: 0.01185506567424518
Epoch: 6400, Error: 0.011839004370931442
Epoch: 6500, Error: 0.011799331964203802
Epoch: 6600, Error: 0.011870589262753405
Epoch: 6700, Error: 0.011881916908411096
Epoch: 6800, Error: 0.011840362371760262
Epoch: 6900, Error: 0.011876561814883373
Epoch: 7000, Error: 0.011831518545263106
Epoch: 7100, Error: 0.01192026496686692
Epoch: 7200, Error: 0.011829193265841082
Epoch: 7300, Error: 0.011847461167035226
Epoch: 7400, Error: 0.011773265434030053
Epoch: 7500, Error: 0.011846520400051767
Epoch: 7600, Error: 0.011801437628043638
Epoch: 7700, Error: 0.011756178612826369
Epoch: 7800, Error: 0.011814589231015462
Epoch: 7900, Error: 0.01176231741313512
Epoch: 8000, Error: 0.011901639545333716
Epoch: 8100, Error: 0.011812489641014919
Epoch: 8200, Error: 0.011785253949181996
Epoch: 8300, Error: 0.01178465818624856
Epoch: 8400, Error: 0.011851424550387818
Epoch: 8500, Error: 0.011781992429015812
Epoch: 8600, Error: 0.011795919750927098
Epoch: 8700, Error: 0.011757950135332935
Epoch: 8800, Error: 0.011797578453055103
Epoch: 8900, Error: 0.011728914077126748
Epoch: 9000, Error: 0.011840488166407473
Epoch: 9100, Error: 0.011753435488342264
Epoch: 9200, Error: 0.011816994484731358
Epoch: 9300, Error: 0.011746047747876548
Epoch: 9400, Error: 0.011691879746707549
Epoch: 9500, Error: 0.01171902317342324
Epoch: 9600, Error: 0.011794205123912885
Epoch: 9700, Error: 0.01170703951733086
Epoch: 9800, Error: 0.011728610702154231
Epoch: 9900, Error: 0.011723668671952323
Epoch: 10000, Error: 0.011730261758754903
Epoch: 10100, Error: 0.011761364111648265
Epoch: 10200, Error: 0.011682317972186475
Epoch: 10300, Error: 0.011663350010867424
Epoch: 10400, Error: 0.01176897783977645
Epoch: 10500, Error: 0.011717709434179968
Epoch: 10600, Error: 0.011772919725255265
Epoch: 10700, Error: 0.01174921345436853
Epoch: 10800, Error: 0.011716125086918707
Epoch: 10900, Error: 0.011695554983342963
Epoch: 11000, Error: 0.011752179404868193
Epoch: 11100, Error: 0.011681721237676034
Epoch: 11200, Error: 0.011762917598102223
Epoch: 11300, Error: 0.01176375123392532
Epoch: 11400, Error: 0.01174036692130061
Epoch: 11500, Error: 0.011720263547774496
Epoch: 11600, Error: 0.011732047812349457
Epoch: 11700, Error: 0.011645141338744029
Epoch: 11800, Error: 0.011877918235360203
Epoch: 11900, Error: 0.011749468654782113
Epoch: 12000, Error: 0.011695538477706963
Epoch: 12100, Error: 0.01170474053113458
Epoch: 12200, Error: 0.011709348543151438
Epoch: 12300, Error: 0.011750247878070628
Epoch: 12400, Error: 0.011772061893480325
Epoch: 12500, Error: 0.011794874991214501
Epoch: 12600, Error: 0.011746616172999054
Epoch: 12700, Error: 0.011752217704467325
Epoch: 12800, Error: 0.011800870372561294
Epoch: 12900, Error: 0.01184106847078278
Epoch: 13000, Error: 0.011731936306035595
Epoch: 13100, Error: 0.011804249788689724
Epoch: 13200, Error: 0.011772873856166339
Epoch: 13300, Error: 0.011814841667565877
Epoch: 13400, Error: 0.011718749398675166
Epoch: 13500, Error: 0.011771770293420466
Epoch: 13600, Error: 0.011754419563290954
Epoch: 13700, Error: 0.011705439238618501
Epoch: 13800, Error: 0.01176480526223861
Epoch: 13900, Error: 0.011757323306577064
Epoch: 14000, Error: 0.01177001682415746
Epoch: 14100, Error: 0.01172348959513521
Epoch: 14200, Error: 0.011760848168334153
Epoch: 14300, Error: 0.011700242003746074
Epoch: 14400, Error: 0.011692700272813245
Epoch: 14500, Error: 0.011746780880156765
Epoch: 14600, Error: 0.011736792330046413
Epoch: 14700, Error: 0.011712511489005175
Epoch: 14800, Error: 0.011724905847447
Epoch: 14900, Error: 0.011686411977193356
Epoch: 15000, Error: 0.011651938591405368
Epoch: 15100, Error: 0.011628191592334719
Epoch: 15200, Error: 0.011664582239276997
Epoch: 15300, Error: 0.011605942183910707
Epoch: 15400, Error: 0.01162767701149994
Epoch: 15500, Error: 0.011637700036095594
Epoch: 15600, Error: 0.011638420412146286
Epoch: 15700, Error: 0.011634069183500123
Epoch: 15800, Error: 0.01166397956580204
Epoch: 15900, Error: 0.011791017358775682
Epoch: 16000, Error: 0.011618213652127207
Epoch: 16100, Error: 0.0116529934584885
Epoch: 16200, Error: 0.011694563234834856
Epoch: 16300, Error: 0.01161496131391014
Epoch: 16400, Error: 0.011584002725742728
Epoch: 16500, Error: 0.011515924042107495
Epoch: 16600, Error: 0.01154540021191921
Epoch: 16700, Error: 0.01150149390462481
Epoch: 16800, Error: 0.011485436856600795
Epoch: 16900, Error: 0.011361161376183567
Epoch: 17000, Error: 0.011362691581291138
Epoch: 17100, Error: 0.01131808840382436
Epoch: 17200, Error: 0.011245998678339255
Epoch: 17300, Error: 0.011222914707518314
Epoch: 17400, Error: 0.01121083751836167
Epoch: 17500, Error: 0.011168971295489064
Epoch: 17600, Error: 0.011199955990835583
Epoch: 17700, Error: 0.011170797519128585
Epoch: 17800, Error: 0.011064973559529075
Epoch: 17900, Error: 0.01105105218451013
Epoch: 18000, Error: 0.011073997065757311
Epoch: 18100, Error: 0.010989984651983862
Epoch: 18200, Error: 0.010873430823904578
Epoch: 18300, Error: 0.010829391614900171
Epoch: 18400, Error: 0.010777461408978442
Epoch: 18500, Error: 0.010699503202992598
Epoch: 18600, Error: 0.010700619338102417
Epoch: 18700, Error: 0.010676672708519516
Epoch: 18800, Error: 0.010598460675523017
Epoch: 18900, Error: 0.010587027576341801
Epoch: 19000, Error: 0.010534070894173516
Epoch: 19100, Error: 0.01044430855539093
Epoch: 19200, Error: 0.010404056009649712
Epoch: 19300, Error: 0.010365137350965158
Epoch: 19400, Error: 0.010289813392489662
Epoch: 19500, Error: 0.010232352585568304
Epoch: 19600, Error: 0.010179688809995185
Epoch: 19700, Error: 0.010118322036894223
Epoch: 19800, Error: 0.010076692977393562
Epoch: 19900, Error: 0.01003922425599215
Epoch: 20000, Error: 0.009969518259662906
Epoch: 20100, Error: 0.009915490827947739
Epoch: 20200, Error: 0.009860605363567304
Epoch: 20300, Error: 0.009814558105032296
Epoch: 20400, Error: 0.009774647042328716
Epoch: 20500, Error: 0.009722660781305898
Epoch: 20600, Error: 0.009669736313622024
Epoch: 20700, Error: 0.009579707542722223
Epoch: 20800, Error: 0.009541946774180757
Epoch: 20900, Error: 0.009460232538620966
Epoch: 21000, Error: 0.009393579082115914
Epoch: 21100, Error: 0.009302942198998219
Epoch: 21200, Error: 0.009270957687056495
Epoch: 21300, Error: 0.009236180224647244
Epoch: 21400, Error: 0.00916895810657628
Epoch: 21500, Error: 0.009141008640592922
Epoch: 21600, Error: 0.009076298620593204
Epoch: 21700, Error: 0.009022498405684504
Epoch: 21800, Error: 0.008980014592246033
Epoch: 21900, Error: 0.008928074987252328
Epoch: 22000, Error: 0.008849585711363916
Epoch: 22100, Error: 0.008798034929388208
Epoch: 22200, Error: 0.008767020226970545
Epoch: 22300, Error: 0.008664629316000157
Epoch: 22400, Error: 0.008658456120368075
Epoch: 22500, Error: 0.008581837248952385
Epoch: 22600, Error: 0.008547410416653857
Epoch: 22700, Error: 0.008498019293442328
Epoch: 22800, Error: 0.008455979600108599
Epoch: 22900, Error: 0.00840498559943707
Epoch: 23000, Error: 0.008376160539071312
Epoch: 23100, Error: 0.008295341528856305
Epoch: 23200, Error: 0.008279948995708225
Epoch: 23300, Error: 0.008216277552583797
Epoch: 23400, Error: 0.008198631547118024
Epoch: 23500, Error: 0.008134152077290098
Epoch: 23600, Error: 0.008097120770359607
Epoch: 23700, Error: 0.008074688560344856
Epoch: 23800, Error: 0.008049708248115088
Epoch: 23900, Error: 0.008025391193812154
Epoch: 24000, Error: 0.008030811656316127
Epoch: 24100, Error: 0.008036176173700709
Epoch: 24200, Error: 0.008017754259865941
Epoch: 24300, Error: 0.008010571721410788
Epoch: 24400, Error: 0.007998625889698798
Epoch: 24500, Error: 0.007982992666481467
Epoch: 24600, Error: 0.007934367034637776
Epoch: 24700, Error: 0.007937588206130636
Epoch: 24800, Error: 0.007932323293966991
Epoch: 24900, Error: 0.007942163058794782
Epoch: 25000, Error: 0.00793607748758343
Epoch: 25100, Error: 0.007881963847110119
Epoch: 25200, Error: 0.007866489783883096
Epoch: 25300, Error: 0.007799420696351049
Epoch: 25400, Error: 0.00781785256186318
Epoch: 25500, Error: 0.007785941163626462
Epoch: 25600, Error: 0.00775790657183217
Epoch: 25700, Error: 0.007735060313052383
Epoch: 25800, Error: 0.007732414761908445
Epoch: 25900, Error: 0.007708049449873844
Epoch: 26000, Error: 0.007672974776410758
Epoch: 26100, Error: 0.007714510154518888
Epoch: 26200, Error: 0.007681015339090314
Epoch: 26300, Error: 0.007689285490996734
Epoch: 26400, Error: 0.007648275723923183
Epoch: 26500, Error: 0.0076318561923774016
Epoch: 26600, Error: 0.007657390442122213
Epoch: 26700, Error: 0.007641099790355484
Epoch: 26800, Error: 0.007655015804428041
Epoch: 26900, Error: 0.007677342334128382
Epoch: 27000, Error: 0.007718862368031791
Epoch: 27100, Error: 0.007681610272998555
Epoch: 27200, Error: 0.007716081617789578
Epoch: 27300, Error: 0.0077414340880470325
Epoch: 27400, Error: 0.0077440149610653155
Epoch: 27500, Error: 0.007780487311704484
Epoch: 27600, Error: 0.00782201207064878
Epoch: 27700, Error: 0.00782938888582597
Epoch: 27800, Error: 0.00782457003770226
Epoch: 27900, Error: 0.00788177104558288
Epoch: 28000, Error: 0.007812529039015076
Epoch: 28100, Error: 0.007785445939316631
Epoch: 28200, Error: 0.00777661558416475
Epoch: 28300, Error: 0.007777993136957066
Epoch: 28400, Error: 0.007758314824021075
Epoch: 28500, Error: 0.007766453901155426
Epoch: 28600, Error: 0.007841595481405129
Epoch: 28700, Error: 0.007772820181174753
Epoch: 28800, Error: 0.007756278890031761
Epoch: 28900, Error: 0.007779321983407346
Epoch: 29000, Error: 0.007715258779601759
Epoch: 29100, Error: 0.007701699461850633
Epoch: 29200, Error: 0.0076948041543987945
Epoch: 29300, Error: 0.007745565747118272
Epoch: 29400, Error: 0.007687458363276079
Epoch: 29500, Error: 0.0076767208740625755
Epoch: 29600, Error: 0.007653748633636461
Epoch: 29700, Error: 0.007677207717048945
Epoch: 29800, Error: 0.007631088862180986
Epoch: 29900, Error: 0.007619141702469888
Epoch: 30000, Error: 0.007625739617141565
Epoch: 30100, Error: 0.0076439797743996325
Epoch: 30200, Error: 0.007680715580869978
Epoch: 30300, Error: 0.007615182583814564
Epoch: 30400, Error: 0.007626996039230352
Epoch: 30500, Error: 0.007560884978899819
Epoch: 30600, Error: 0.007525721378762094
Epoch: 30700, Error: 0.007516855693999707
Epoch: 30800, Error: 0.007522131005130584
Epoch: 30900, Error: 0.007511174185293876
Epoch: 31000, Error: 0.007543164855493077
Epoch: 31100, Error: 0.007522032080997763
Epoch: 31200, Error: 0.007476155413540375
Epoch: 31300, Error: 0.007445922162860848
Epoch: 31400, Error: 0.0074137197233135645
Epoch: 31500, Error: 0.0074171655231875
Epoch: 31600, Error: 0.0073932722652492525
Epoch: 31700, Error: 0.00740948023142272
Epoch: 31800, Error: 0.007370261675862891
Epoch: 31900, Error: 0.007362789581924263
Epoch: 32000, Error: 0.0073540599205100645
Epoch: 32100, Error: 0.007324234212036107
Epoch: 32200, Error: 0.007325804832676179
Epoch: 32300, Error: 0.0073628993818843635
Epoch: 32400, Error: 0.007302435372200921
Epoch: 32500, Error: 0.007277872810819387
Epoch: 32600, Error: 0.007264139285021587
Epoch: 32700, Error: 0.007268346250825607
Epoch: 32800, Error: 0.007260009825210719
Epoch: 32900, Error: 0.0072264379233211475
Epoch: 33000, Error: 0.007212369623220815
Epoch: 33100, Error: 0.007204401080500336
Epoch: 33200, Error: 0.007179129430416484
Epoch: 33300, Error: 0.0072103270724712485
Epoch: 33400, Error: 0.00719669791147852
Epoch: 33500, Error: 0.007147567748396499
Epoch: 33600, Error: 0.007293410893340919
Epoch: 33700, Error: 0.007132206721837524
Epoch: 33800, Error: 0.007154476691194326
Epoch: 33900, Error: 0.00707912706517141
Epoch: 34000, Error: 0.007133744239376614
Epoch: 34100, Error: 0.007093749943184206
Epoch: 34200, Error: 0.007088517459028467
Epoch: 34300, Error: 0.007059767767401992
Epoch: 34400, Error: 0.0070148380174598806
Epoch: 34500, Error: 0.007015014243246112
Epoch: 34600, Error: 0.007036151420529128
Epoch: 34700, Error: 0.007025377779078199
Epoch: 34800, Error: 0.00711386793739639
Epoch: 34900, Error: 0.00702923334605779
Epoch: 35000, Error: 0.007007776939597573
Epoch: 35100, Error: 0.0069805710692465274
Epoch: 35200, Error: 0.006986765184086173
Epoch: 35300, Error: 0.00697636912008306
Epoch: 35400, Error: 0.006981256977616214
Epoch: 35500, Error: 0.006931748604314693
Epoch: 35600, Error: 0.006955619756662525
Epoch: 35700, Error: 0.006952750364512491
Epoch: 35800, Error: 0.006948755139271513
Epoch: 35900, Error: 0.007008977646277729
Epoch: 36000, Error: 0.006914973829945192
Epoch: 36100, Error: 0.006882501201379293
Epoch: 36200, Error: 0.006889553253623667
Epoch: 36300, Error: 0.006857796781967149
Epoch: 36400, Error: 0.0068468884228681725
Epoch: 36500, Error: 0.006857138279076789
Epoch: 36600, Error: 0.006984797090323486
Epoch: 36700, Error: 0.006819679426440471
Epoch: 36800, Error: 0.00681382108272497
Epoch: 36900, Error: 0.006811292245941203
Epoch: 37000, Error: 0.006780364236258783
Epoch: 37100, Error: 0.006765888472224303
Epoch: 37200, Error: 0.006794606432265399
Epoch: 37300, Error: 0.006763241599111607
Epoch: 37400, Error: 0.006745911496357618
Epoch: 37500, Error: 0.006723736379157488
Epoch: 37600, Error: 0.006702655633636478
Epoch: 37700, Error: 0.006728258696605184
Epoch: 37800, Error: 0.006743397476120892
Epoch: 37900, Error: 0.0066806220095083566
Epoch: 38000, Error: 0.006686390700383721
Epoch: 38100, Error: 0.006687691885481579
Epoch: 38200, Error: 0.006652204214010425
Epoch: 38300, Error: 0.006650614198168511
Epoch: 38400, Error: 0.006659221302496637
Epoch: 38500, Error: 0.006613740455360582
Epoch: 38600, Error: 0.006605170735899678
Epoch: 38700, Error: 0.006584180578330598
Epoch: 38800, Error: 0.006592458437824735
Epoch: 38900, Error: 0.006587691440380026
Epoch: 39000, Error: 0.006573459949901222
Epoch: 39100, Error: 0.0065574218485603035
Epoch: 39200, Error: 0.006560044657795986
Epoch: 39300, Error: 0.006517728463841196
Epoch: 39400, Error: 0.006518748259756207
Epoch: 39500, Error: 0.006496112296181154
Epoch: 39600, Error: 0.006526786376788451
Epoch: 39700, Error: 0.006490812879037533
Epoch: 39800, Error: 0.006461772613970996
Epoch: 39900, Error: 0.006454250773050144
Epoch: 40000, Error: 0.006500854007385016
Epoch: 40100, Error: 0.006490583046111702
Epoch: 40200, Error: 0.006408748561157605
Epoch: 40300, Error: 0.0063977110513958055
Epoch: 40400, Error: 0.0063980560346176335
Epoch: 40500, Error: 0.006329335783412222
Epoch: 40600, Error: 0.0063347915015454035
Epoch: 40700, Error: 0.006329897192081301
Epoch: 40800, Error: 0.006311275361419971
Epoch: 40900, Error: 0.006301403172640849
Epoch: 41000, Error: 0.006265813238452576
Epoch: 41100, Error: 0.006245196386345779
Epoch: 41200, Error: 0.0062296945855205
Epoch: 41300, Error: 0.006184863820598874
Epoch: 41400, Error: 0.0061681785603847645
Epoch: 41500, Error: 0.006183418816142249
Epoch: 41600, Error: 0.006138026579297361
Epoch: 41700, Error: 0.006131184580959252
Epoch: 41800, Error: 0.006100724919087832
Epoch: 41900, Error: 0.0061990951594273905
Epoch: 42000, Error: 0.006113745369640981
Epoch: 42100, Error: 0.006112936442270604
Epoch: 42200, Error: 0.0060545052415381965
Epoch: 42300, Error: 0.006077247094949194
Epoch: 42400, Error: 0.006018049130666635
Epoch: 42500, Error: 0.005992227619090092
Epoch: 42600, Error: 0.005954211826433432
Epoch: 42700, Error: 0.00597668772256844
Epoch: 42800, Error: 0.006134062000871366
Epoch: 42900, Error: 0.005934283061014719
Epoch: 43000, Error: 0.005898957169138641
Epoch: 43100, Error: 0.005917908894221231
Epoch: 43200, Error: 0.005954738388254003
Epoch: 43300, Error: 0.005927845252858238
Epoch: 43400, Error: 0.005885946330049788
Epoch: 43500, Error: 0.0059284582396185205
Epoch: 43600, Error: 0.00585642484030843
Epoch: 43700, Error: 0.005841538232160835
Epoch: 43800, Error: 0.005837440498798607
Epoch: 43900, Error: 0.005854289826155622
Epoch: 44000, Error: 0.005787303829477859
Epoch: 44100, Error: 0.005757861895762384
Epoch: 44200, Error: 0.005829552696604222
Epoch: 44300, Error: 0.005756674188260348
Epoch: 44400, Error: 0.00592308417271017
Epoch: 44500, Error: 0.0057301881384537665
Epoch: 44600, Error: 0.005738604471584463
Epoch: 44700, Error: 0.005705125499656545
Epoch: 44800, Error: 0.005731765766209167
Epoch: 44900, Error: 0.005703619933975368
Epoch: 45000, Error: 0.0056722537440604655
Epoch: 45100, Error: 0.005772168207951422
Epoch: 45200, Error: 0.005645112654230788
Epoch: 45300, Error: 0.005617228114708425
Epoch: 45400, Error: 0.0056198377527799095
Epoch: 45500, Error: 0.005609821247004966
Epoch: 45600, Error: 0.005609001129845636
Epoch: 45700, Error: 0.005637098649162604
Epoch: 45800, Error: 0.005609688498688333
Epoch: 45900, Error: 0.005570794004954505
Epoch: 46000, Error: 0.005569213528062027
Epoch: 46100, Error: 0.005597012614224542
Epoch: 46200, Error: 0.005587312626719776
Epoch: 46300, Error: 0.005577289934965012
Epoch: 46400, Error: 0.005577509011151729
Epoch: 46500, Error: 0.005556905818561088
Epoch: 46600, Error: 0.0055398960619648455
Epoch: 46700, Error: 0.005527841854605952
Epoch: 46800, Error: 0.005512651705061402
Epoch: 46900, Error: 0.0055248545585137275
Epoch: 47000, Error: 0.005503495221273543
Epoch: 47100, Error: 0.005487787908633188
Epoch: 47200, Error: 0.0054749514970280026
Epoch: 47300, Error: 0.005495545234612717
Epoch: 47400, Error: 0.0054534259843417405
Epoch: 47500, Error: 0.005445045071404505
Epoch: 47600, Error: 0.00539262342588059
Epoch: 47700, Error: 0.005384896163409593
Epoch: 47800, Error: 0.005361957279799209
Epoch: 47900, Error: 0.005375812516376027
Epoch: 48000, Error: 0.005374105076797513
Epoch: 48100, Error: 0.005376835643154683
Epoch: 48200, Error: 0.0053208193853299625
Epoch: 48300, Error: 0.005330928423954374
Epoch: 48400, Error: 0.005287254849739484
Epoch: 48500, Error: 0.005264858758521393
Epoch: 48600, Error: 0.005239254058770816
Epoch: 48700, Error: 0.0052350373170908645
Epoch: 48800, Error: 0.005219108478831248
Epoch: 48900, Error: 0.005243129277943368
Epoch: 49000, Error: 0.005219892553629251
Epoch: 49100, Error: 0.0051649096148455136
Epoch: 49200, Error: 0.005196286063902896
Epoch: 49300, Error: 0.00514132137414195
Epoch: 49400, Error: 0.00515458446383452
Epoch: 49500, Error: 0.005117878690619592
Epoch: 49600, Error: 0.005144002789990991
Epoch: 49700, Error: 0.005111730758522404
Epoch: 49800, Error: 0.005094362747106832
Epoch: 49900, Error: 0.0050721251188873264
Epoch: 50000, Error: 0.005096139506139642
Epoch: 50100, Error: 0.0050543211857026005
Epoch: 50200, Error: 0.005038080700423944
Epoch: 50300, Error: 0.005032092245692985
Epoch: 50400, Error: 0.005008498807156109
Epoch: 50500, Error: 0.004992794317154854
Epoch: 50600, Error: 0.0050289968688276105
Epoch: 50700, Error: 0.004991751436332202
Epoch: 50800, Error: 0.005032326225620875
Epoch: 50900, Error: 0.00502195436494254
Epoch: 51000, Error: 0.004977009315471787
Epoch: 51100, Error: 0.004901300925211449
Epoch: 51200, Error: 0.004899888122896232
Epoch: 51300, Error: 0.004872149528411598
Epoch: 51400, Error: 0.00485497099854042
Epoch: 51500, Error: 0.00485723931671187
Epoch: 51600, Error: 0.004819176892015811
Epoch: 51700, Error: 0.0048488630060327656
Epoch: 51800, Error: 0.0048485592444031675
Epoch: 51900, Error: 0.004801273598087917
Epoch: 52000, Error: 0.004812083871038048
Epoch: 52100, Error: 0.004741801968127495
Epoch: 52200, Error: 0.004743555389165263
Epoch: 52300, Error: 0.004750088471064761
Epoch: 52400, Error: 0.004715577412623437
Epoch: 52500, Error: 0.004686613496666828
Epoch: 52600, Error: 0.004670893272884432
Epoch: 52700, Error: 0.004678859949500671
Epoch: 52800, Error: 0.004655712898625713
Epoch: 52900, Error: 0.004620093093278387
Epoch: 53000, Error: 0.004673344417405121
Epoch: 53100, Error: 0.0046031144562574036
Epoch: 53200, Error: 0.0045799881103282414
Epoch: 53300, Error: 0.004579365374672766
Epoch: 53400, Error: 0.004541820410568697
Epoch: 53500, Error: 0.004564417057824947
Epoch: 53600, Error: 0.004484267580132559
Epoch: 53700, Error: 0.004481883022132046
Epoch: 53800, Error: 0.004463045085305378
Epoch: 53900, Error: 0.004411235770541397
Epoch: 54000, Error: 0.004380069651902285
Epoch: 54100, Error: 0.004369347579613673
Epoch: 54200, Error: 0.004351673825315172
Epoch: 54300, Error: 0.0043863855736136345
Epoch: 54400, Error: 0.004310517221282591
Epoch: 54500, Error: 0.004291712760429221
Epoch: 54600, Error: 0.004331204036234616
Epoch: 54700, Error: 0.0042356265551691695
Epoch: 54800, Error: 0.004192801572690756
Epoch: 54900, Error: 0.004270454562051406
Epoch: 55000, Error: 0.004397095406882311
Epoch: 55100, Error: 0.004109564257901396
Epoch: 55200, Error: 0.0040886190204745985
Epoch: 55300, Error: 0.004067986906348262
Epoch: 55400, Error: 0.0040683543888904005
Epoch: 55500, Error: 0.004007215989103235
Epoch: 55600, Error: 0.003958674873419461
Epoch: 55700, Error: 0.003923673900436776
Epoch: 55800, Error: 0.0038740363285905094
Epoch: 55900, Error: 0.0038391949404241836
Epoch: 56000, Error: 0.0038443412706357445
Epoch: 56100, Error: 0.0038937616175125727
Epoch: 56200, Error: 0.0038270280202636693
Epoch: 56300, Error: 0.0038540667063856186
Epoch: 56400, Error: 0.0036865076276692867
Epoch: 56500, Error: 0.0036720452624559646
Epoch: 56600, Error: 0.0036357371158300413
Epoch: 56700, Error: 0.0035653869966321204
Epoch: 56800, Error: 0.0035240318316922
Epoch: 56900, Error: 0.0035196212014167085
Epoch: 57000, Error: 0.0034414569545030923
Epoch: 57100, Error: 0.003436650817247411
Epoch: 57200, Error: 0.003391425495113365
Epoch: 57300, Error: 0.0036133802699695864
Epoch: 57400, Error: 0.0033608809510216704
Epoch: 57500, Error: 0.003294787806598382
Epoch: 57600, Error: 0.00336740275559292
Epoch: 57700, Error: 0.0037711246670628236
Epoch: 57800, Error: 0.0031981856224929544
Epoch: 57900, Error: 0.003279453495842805
Epoch: 58000, Error: 0.003198294091727724
Epoch: 58100, Error: 0.0032666435956170883
Epoch: 58200, Error: 0.0030898492005035382
Epoch: 58300, Error: 0.003049709021181075
Epoch: 58400, Error: 0.0031978887014933515
Epoch: 58500, Error: 0.0030508796314558345
Epoch: 58600, Error: 0.002957133776996672
Epoch: 58700, Error: 0.0029069396043765136
Epoch: 58800, Error: 0.0030217323000958246
Epoch: 58900, Error: 0.0028936221908244923
Epoch: 59000, Error: 0.0028392101913417987
Epoch: 59100, Error: 0.002847123099353796
Epoch: 59200, Error: 0.0028853619539960726
Epoch: 59300, Error: 0.002785536769166796
Epoch: 59400, Error: 0.0028695633535500554
Epoch: 59500, Error: 0.0027259679367540586
Epoch: 59600, Error: 0.002701825944510444
Epoch: 59700, Error: 0.0026851640161825417
Epoch: 59800, Error: 0.002651038722361594
Epoch: 59900, Error: 0.002734507896216588
Epoch: 60000, Error: 0.0026184311020226846
Epoch: 60100, Error: 0.002573374334028403
Epoch: 60200, Error: 0.002614680710630814
Epoch: 60300, Error: 0.002547781683567179
Epoch: 60400, Error: 0.0025358459805727733
Epoch: 60500, Error: 0.002553331869131852
Epoch: 60600, Error: 0.002497165858696846
Epoch: 60700, Error: 0.002469088190687276
Epoch: 60800, Error: 0.0024579184633076526
Epoch: 60900, Error: 0.0025452947288595886
Epoch: 61000, Error: 0.002486950884831034
Epoch: 61100, Error: 0.0024706035178725327
Epoch: 61200, Error: 0.002792235413386494
Epoch: 61300, Error: 0.002391256681308598
Epoch: 61400, Error: 0.0023506968615202043
Epoch: 61500, Error: 0.0024066036598110823
Epoch: 61600, Error: 0.0024228034412126787
Epoch: 61700, Error: 0.0023955206060774403
Epoch: 61800, Error: 0.0023204366301827644
Epoch: 61900, Error: 0.002379399563077273
Epoch: 62000, Error: 0.0022613532918713416
Epoch: 62100, Error: 0.0022559885083037468
Epoch: 62200, Error: 0.002281213751305251
Epoch: 62300, Error: 0.0022550671167533235
Epoch: 62400, Error: 0.002264170553367119
Epoch: 62500, Error: 0.0022019262868316755
Epoch: 62600, Error: 0.0022478787784235964
Epoch: 62700, Error: 0.002194864567611577
Epoch: 62800, Error: 0.002191186613682636
Epoch: 62900, Error: 0.002190233168940645
Epoch: 63000, Error: 0.002155477100844105
Epoch: 63100, Error: 0.0021889414091888094
Epoch: 63200, Error: 0.002158163600002687
Epoch: 63300, Error: 0.002120701964829126
Epoch: 63400, Error: 0.00209433479432458
Epoch: 63500, Error: 0.0021280851186142825
Epoch: 63600, Error: 0.0021868109127576663
Epoch: 63700, Error: 0.002045227508133507
Epoch: 63800, Error: 0.0020665277848815437
Epoch: 63900, Error: 0.0020548916159369357
Epoch: 64000, Error: 0.0020656896992867434
Epoch: 64100, Error: 0.0019768947770654037
Epoch: 64200, Error: 0.002040714325586814
Epoch: 64300, Error: 0.001961977200295757
Epoch: 64400, Error: 0.0020342359472561265
Epoch: 64500, Error: 0.0020036470910909368
Epoch: 64600, Error: 0.0019872957424988524
Epoch: 64700, Error: 0.002004045702300588
Epoch: 64800, Error: 0.0018863222684326207
Epoch: 64900, Error: 0.001895043220813824
Epoch: 65000, Error: 0.0019027708276008806
Epoch: 65100, Error: 0.0020153716025788923
Epoch: 65200, Error: 0.0018463576365662828
Epoch: 65300, Error: 0.0019062545126766316
Epoch: 65400, Error: 0.0018187396559144972
Epoch: 65500, Error: 0.001801644628653987
Epoch: 65600, Error: 0.0018268785795832083
Epoch: 65700, Error: 0.0017775539710540487
Epoch: 65800, Error: 0.0017666837484772858
Epoch: 65900, Error: 0.0017989476856194457
Epoch: 66000, Error: 0.0017460194200823956
Epoch: 66100, Error: 0.0017537095226869545
Epoch: 66200, Error: 0.0017162443227570063
Epoch: 66300, Error: 0.001715288612816608
Epoch: 66400, Error: 0.001766268371540702
Epoch: 66500, Error: 0.001742610246756598
Epoch: 66600, Error: 0.0019000434456431226
Epoch: 66700, Error: 0.0018020206299191634
Epoch: 66800, Error: 0.0016509403013296306
Epoch: 66900, Error: 0.0016421866468406836
Epoch: 67000, Error: 0.001648429303066063
Epoch: 67100, Error: 0.0016227541406168495
Epoch: 67200, Error: 0.0016155063244821324
Epoch: 67300, Error: 0.0016061245955143522
Epoch: 67400, Error: 0.0016017688330604524
Epoch: 67500, Error: 0.0016042791694868372
Epoch: 67600, Error: 0.0016064782043325664
Epoch: 67700, Error: 0.0015849770999873949
Epoch: 67800, Error: 0.0015376062493546705
Epoch: 67900, Error: 0.0015323836707897753
Epoch: 68000, Error: 0.0015417727307065546
Epoch: 68100, Error: 0.0015217405985839282
Epoch: 68200, Error: 0.001529352145939263
Epoch: 68300, Error: 0.0014957190840014008
Epoch: 68400, Error: 0.0017624945182828822
Epoch: 68500, Error: 0.0014700138784377943
Epoch: 68600, Error: 0.0014849049615303193
Epoch: 68700, Error: 0.0014596032081402458
Epoch: 68800, Error: 0.0016882927562449847
Epoch: 68900, Error: 0.0014328677239378977
Epoch: 69000, Error: 0.001440275029580693
Epoch: 69100, Error: 0.0014180283047687905
Epoch: 69200, Error: 0.0014169897503235691
Epoch: 69300, Error: 0.0013966664268146092
Epoch: 69400, Error: 0.001402064916750495
Epoch: 69500, Error: 0.001375699580916797
Epoch: 69600, Error: 0.0013624351218591982
Epoch: 69700, Error: 0.001372401162459822
Epoch: 69800, Error: 0.0013588067170683424
Epoch: 69900, Error: 0.0013309280682441678
Epoch: 70000, Error: 0.001332048479032851
Epoch: 70100, Error: 0.001317437138136157
Epoch: 70200, Error: 0.0013503413442275296
Epoch: 70300, Error: 0.0013255535318630416
Epoch: 70400, Error: 0.0013022254357918789
Epoch: 70500, Error: 0.0012856262096010863
Epoch: 70600, Error: 0.0012769432631039395
Epoch: 70700, Error: 0.0012569052739269879
Epoch: 70800, Error: 0.0012986886417947175
Epoch: 70900, Error: 0.0012406685872217542
Epoch: 71000, Error: 0.0013960492570601684
Epoch: 71100, Error: 0.0012282794017743944
Epoch: 71200, Error: 0.0012069027867860492
Epoch: 71300, Error: 0.001207253007375358
Epoch: 71400, Error: 0.001221300144591651
Epoch: 71500, Error: 0.001316071981544604
Epoch: 71600, Error: 0.0011926936885643942
Epoch: 71700, Error: 0.0011695929851087796
Epoch: 71800, Error: 0.0011608419914164517
Epoch: 71900, Error: 0.0011783706060028445
Epoch: 72000, Error: 0.0011679714711486143
Epoch: 72100, Error: 0.0011472832646642873
Epoch: 72200, Error: 0.0011416855343637578
Epoch: 72300, Error: 0.0011381248121688546
Epoch: 72400, Error: 0.0011488090164603186
Epoch: 72500, Error: 0.0011375818803540296
Epoch: 72600, Error: 0.0012005702876138186
Epoch: 72700, Error: 0.0011389103195495137
Epoch: 72800, Error: 0.0011138660323889184
Epoch: 72900, Error: 0.0011184847454835615
Epoch: 73000, Error: 0.001129227190126749
Epoch: 73100, Error: 0.0011754259341066264
Epoch: 73200, Error: 0.0011807966047856922
Epoch: 73300, Error: 0.0010997385033320079
Epoch: 73400, Error: 0.001093440594642885
Epoch: 73500, Error: 0.0010965952210476417
Epoch: 73600, Error: 0.0011123925388646246
Epoch: 73700, Error: 0.0011017755366620043
Epoch: 73800, Error: 0.0011030865662458938
Epoch: 73900, Error: 0.0011109093988108196
Epoch: 74000, Error: 0.0011020133140358032
Epoch: 74100, Error: 0.001102876156419371
Epoch: 74200, Error: 0.0010943542842196323
Epoch: 74300, Error: 0.00110499172344918
Epoch: 74400, Error: 0.0011079879908645145
Epoch: 74500, Error: 0.0010961635121480042
Epoch: 74600, Error: 0.001107830102451639
Epoch: 74700, Error: 0.001085893177393562
Epoch: 74800, Error: 0.001099776183733528
Epoch: 74900, Error: 0.0010724145548279126
Epoch: 75000, Error: 0.0010561735682112342
Epoch: 75100, Error: 0.0010445252983413192
Epoch: 75200, Error: 0.001066524622178265
Epoch: 75300, Error: 0.0011415402849372291
Epoch: 75400, Error: 0.0010353180540420208
Epoch: 75500, Error: 0.001038368411012323
Epoch: 75600, Error: 0.0010184183895350475
Epoch: 75700, Error: 0.0010324358622980589
Epoch: 75800, Error: 0.0010206718001373651
Epoch: 75900, Error: 0.0010159899864789538
Epoch: 76000, Error: 0.001017439631951244
Epoch: 76100, Error: 0.0010135577268380563
Epoch: 76200, Error: 0.0010192062587717743
Epoch: 76300, Error: 0.0010059205380507923
Epoch: 76400, Error: 9.974883949803786E-4
Epoch: 76500, Error: 0.0010212758748266
Epoch: 76600, Error: 0.001005855332470572
Epoch: 76700, Error: 0.0010386385897449117
Epoch: 76800, Error: 0.0010814578421137879
Epoch: 76900, Error: 9.891419972227645E-4
Epoch: 77000, Error: 9.810909678708928E-4
Epoch: 77100, Error: 9.79616558317709E-4
Epoch: 77200, Error: 9.86550654341492E-4
Epoch: 77300, Error: 9.930286050595723E-4
Epoch: 77400, Error: 0.00104414439853606
Epoch: 77500, Error: 9.751590369212583E-4
Epoch: 77600, Error: 9.742840936590833E-4
Epoch: 77700, Error: 9.544559322239126E-4
Epoch: 77800, Error: 9.576929939147592E-4
Epoch: 77900, Error: 9.694354261243078E-4
Epoch: 78000, Error: 9.816193667056207E-4
Epoch: 78100, Error: 9.380972746360971E-4
Epoch: 78200, Error: 9.434541468629589E-4
Epoch: 78300, Error: 9.410161479595994E-4
Epoch: 78400, Error: 9.466410733962716E-4
Epoch: 78500, Error: 9.36019257508193E-4
Epoch: 78600, Error: 9.29378925244226E-4
Epoch: 78700, Error: 9.255118515980518E-4
Epoch: 78800, Error: 9.403175940930557E-4
Epoch: 78900, Error: 9.209619132075956E-4
Epoch: 79000, Error: 9.199226285259204E-4
Epoch: 79100, Error: 9.169483746572628E-4
Epoch: 79200, Error: 9.434983456824043E-4
Epoch: 79300, Error: 9.182963986160527E-4
Epoch: 79400, Error: 9.587380423492833E-4
Finished
