Input Patterns
0.224 0.624 0.067 0.043 
0.11 0.502 0.051 0.043 
0.196 0.667 0.067 0.043 
0.055 0.584 0.067 0.082 
0.027 0.376 0.067 0.043 
0.306 0.71 0.086 0.043 
0.137 0.416 0.067 0.0 
0.416 0.831 0.035 0.043 
0.306 0.792 0.051 0.125 
0.388 0.749 0.118 0.082 
0.306 0.584 0.118 0.043 
0.082 0.667 0.0 0.043 
0.137 0.584 0.153 0.043 
0.196 0.584 0.102 0.125 
0.251 0.584 0.067 0.043 
0.137 0.459 0.102 0.043 
0.251 0.875 0.086 0.0 
0.165 0.459 0.086 0.043 
0.333 0.624 0.051 0.043 
0.027 0.416 0.051 0.043 
0.196 0.624 0.051 0.082 
0.027 0.502 0.051 0.043 
0.224 0.749 0.153 0.125 
0.224 0.749 0.102 0.043 
0.278 0.71 0.086 0.043 
0.165 0.416 0.067 0.043 
0.082 0.459 0.086 0.043 
0.306 0.792 0.118 0.125 
0.196 0.584 0.086 0.043 
0.165 0.459 0.086 0.0 
0.137 0.584 0.102 0.043 
0.0 0.416 0.016 0.0 
0.388 1.0 0.086 0.125 
0.224 0.624 0.067 0.082 
0.224 0.749 0.086 0.082 
0.224 0.71 0.086 0.125 
0.224 0.541 0.118 0.165 
0.196 0.416 0.102 0.043 
0.251 0.624 0.086 0.043 
0.11 0.502 0.102 0.043 
0.306 0.584 0.086 0.125 
0.333 0.918 0.067 0.043 
0.196 0.502 0.035 0.043 
0.165 0.667 0.067 0.0 
0.224 0.584 0.086 0.043 
0.055 0.125 0.051 0.082 
0.196 0.624 0.102 0.208 
0.137 0.416 0.067 0.082 
0.082 0.502 0.067 0.043 
0.196 0.541 0.067 0.043 
0.749 0.502 0.627 0.541 
0.722 0.459 0.663 0.584 
0.612 0.333 0.612 0.584 
0.557 0.541 0.627 0.624 
0.639 0.376 0.612 0.498 
0.196 0.0 0.424 0.376 
0.471 0.082 0.51 0.376 
0.361 0.376 0.439 0.498 
0.361 0.416 0.592 0.584 
0.529 0.082 0.592 0.584 
0.443 0.502 0.643 0.459 
0.557 0.208 0.663 0.584 
0.584 0.376 0.561 0.498 
0.694 0.333 0.643 0.541 
0.471 0.376 0.592 0.584 
0.333 0.169 0.475 0.416 
0.416 0.29 0.49 0.459 
0.306 0.416 0.592 0.584 
0.667 0.459 0.627 0.584 
0.361 0.416 0.525 0.498 
0.333 0.251 0.576 0.459 
0.416 0.251 0.51 0.459 
0.361 0.29 0.541 0.498 
0.388 0.376 0.541 0.498 
0.224 0.208 0.337 0.416 
0.584 0.502 0.592 0.584 
0.333 0.125 0.51 0.498 
0.388 0.333 0.592 0.498 
0.165 0.169 0.388 0.376 
0.251 0.29 0.49 0.541 
0.443 0.416 0.541 0.584 
0.498 0.376 0.627 0.541 
0.667 0.459 0.576 0.541 
0.416 0.29 0.525 0.376 
0.361 0.208 0.49 0.416 
0.498 0.333 0.51 0.498 
0.498 0.333 0.627 0.459 
0.639 0.416 0.576 0.541 
0.667 0.416 0.678 0.667 
0.388 0.251 0.424 0.376 
0.333 0.169 0.459 0.376 
0.471 0.29 0.694 0.624 
0.471 0.584 0.592 0.624 
0.557 0.125 0.576 0.498 
0.333 0.208 0.51 0.498 
0.498 0.416 0.612 0.541 
0.196 0.125 0.388 0.376 
0.388 0.416 0.541 0.459 
0.529 0.376 0.561 0.498 
0.388 0.333 0.525 0.498 
0.557 0.541 0.847 1.0 
0.776 0.416 0.831 0.831 
0.612 0.416 0.812 0.875 
0.165 0.208 0.592 0.667 
0.667 0.208 0.812 0.71 
0.612 0.502 0.694 0.792 
0.694 0.416 0.761 0.831 
0.416 0.333 0.694 0.957 
0.612 0.416 0.761 0.71 
0.945 0.251 1.0 0.918 
0.722 0.502 0.796 0.918 
0.945 0.333 0.965 0.792 
0.667 0.541 0.796 0.831 
0.529 0.333 0.643 0.71 
0.584 0.333 0.78 0.831 
0.863 0.333 0.863 0.749 
0.584 0.333 0.78 0.875 
0.498 0.251 0.78 0.541 
0.557 0.584 0.78 0.957 
0.471 0.416 0.643 0.71 
0.667 0.459 0.78 0.957 
0.416 0.29 0.694 0.749 
0.667 0.541 0.796 1.0 
0.557 0.208 0.678 0.749 
0.529 0.584 0.745 0.918 
0.416 0.29 0.694 0.749 
0.557 0.376 0.78 0.71 
0.918 0.416 0.949 0.831 
0.835 0.376 0.898 0.71 
0.804 0.667 0.863 1.0 
0.584 0.29 0.729 0.749 
0.388 0.208 0.678 0.792 
0.584 0.502 0.729 0.918 
0.945 0.749 0.965 0.875 
0.471 0.082 0.678 0.584 
0.361 0.333 0.663 0.792 
0.557 0.29 0.663 0.71 
0.804 0.502 0.847 0.71 
0.498 0.416 0.51 0.71 
0.804 0.416 0.812 0.624 
1.0 0.749 0.914 0.792 
0.557 0.333 0.694 0.584 
0.945 0.416 0.863 0.918 
0.584 0.459 0.761 0.71 
0.722 0.459 0.745 0.831 
0.722 0.459 0.694 0.918 
0.694 0.502 0.831 0.918 
0.667 0.416 0.714 0.918 
0.612 0.416 0.714 0.792 
0.443 0.416 0.694 0.71 
Teaching Patterns
1.0 0.0 0.0 
1.0 0.0 0.0 
1.0 0.0 0.0 
1.0 0.0 0.0 
1.0 0.0 0.0 
1.0 0.0 0.0 
1.0 0.0 0.0 
1.0 0.0 0.0 
1.0 0.0 0.0 
1.0 0.0 0.0 
1.0 0.0 0.0 
1.0 0.0 0.0 
1.0 0.0 0.0 
1.0 0.0 0.0 
1.0 0.0 0.0 
1.0 0.0 0.0 
1.0 0.0 0.0 
1.0 0.0 0.0 
1.0 0.0 0.0 
1.0 0.0 0.0 
1.0 0.0 0.0 
1.0 0.0 0.0 
1.0 0.0 0.0 
1.0 0.0 0.0 
1.0 0.0 0.0 
1.0 0.0 0.0 
1.0 0.0 0.0 
1.0 0.0 0.0 
1.0 0.0 0.0 
1.0 0.0 0.0 
1.0 0.0 0.0 
1.0 0.0 0.0 
1.0 0.0 0.0 
1.0 0.0 0.0 
1.0 0.0 0.0 
1.0 0.0 0.0 
1.0 0.0 0.0 
1.0 0.0 0.0 
1.0 0.0 0.0 
1.0 0.0 0.0 
1.0 0.0 0.0 
1.0 0.0 0.0 
1.0 0.0 0.0 
1.0 0.0 0.0 
1.0 0.0 0.0 
1.0 0.0 0.0 
1.0 0.0 0.0 
1.0 0.0 0.0 
1.0 0.0 0.0 
1.0 0.0 0.0 
0.0 1.0 0.0 
0.0 1.0 0.0 
0.0 1.0 0.0 
0.0 1.0 0.0 
0.0 1.0 0.0 
0.0 1.0 0.0 
0.0 1.0 0.0 
0.0 1.0 0.0 
0.0 1.0 0.0 
0.0 1.0 0.0 
0.0 1.0 0.0 
0.0 1.0 0.0 
0.0 1.0 0.0 
0.0 1.0 0.0 
0.0 1.0 0.0 
0.0 1.0 0.0 
0.0 1.0 0.0 
0.0 1.0 0.0 
0.0 1.0 0.0 
0.0 1.0 0.0 
0.0 1.0 0.0 
0.0 1.0 0.0 
0.0 1.0 0.0 
0.0 1.0 0.0 
0.0 1.0 0.0 
0.0 1.0 0.0 
0.0 1.0 0.0 
0.0 1.0 0.0 
0.0 1.0 0.0 
0.0 1.0 0.0 
0.0 1.0 0.0 
0.0 1.0 0.0 
0.0 1.0 0.0 
0.0 1.0 0.0 
0.0 1.0 0.0 
0.0 1.0 0.0 
0.0 1.0 0.0 
0.0 1.0 0.0 
0.0 1.0 0.0 
0.0 1.0 0.0 
0.0 1.0 0.0 
0.0 1.0 0.0 
0.0 1.0 0.0 
0.0 1.0 0.0 
0.0 1.0 0.0 
0.0 1.0 0.0 
0.0 1.0 0.0 
0.0 1.0 0.0 
0.0 1.0 0.0 
0.0 1.0 0.0 
0.0 0.0 1.0 
0.0 0.0 1.0 
0.0 0.0 1.0 
0.0 0.0 1.0 
0.0 0.0 1.0 
0.0 0.0 1.0 
0.0 0.0 1.0 
0.0 0.0 1.0 
0.0 0.0 1.0 
0.0 0.0 1.0 
0.0 0.0 1.0 
0.0 0.0 1.0 
0.0 0.0 1.0 
0.0 0.0 1.0 
0.0 0.0 1.0 
0.0 0.0 1.0 
0.0 0.0 1.0 
0.0 0.0 1.0 
0.0 0.0 1.0 
0.0 0.0 1.0 
0.0 0.0 1.0 
0.0 0.0 1.0 
0.0 0.0 1.0 
0.0 0.0 1.0 
0.0 0.0 1.0 
0.0 0.0 1.0 
0.0 0.0 1.0 
0.0 0.0 1.0 
0.0 0.0 1.0 
0.0 0.0 1.0 
0.0 0.0 1.0 
0.0 0.0 1.0 
0.0 0.0 1.0 
0.0 0.0 1.0 
0.0 0.0 1.0 
0.0 0.0 1.0 
0.0 0.0 1.0 
0.0 0.0 1.0 
0.0 0.0 1.0 
0.0 0.0 1.0 
0.0 0.0 1.0 
0.0 0.0 1.0 
0.0 0.0 1.0 
0.0 0.0 1.0 
0.0 0.0 1.0 
0.0 0.0 1.0 
0.0 0.0 1.0 
0.0 0.0 1.0 
0.0 0.0 1.0 
0.0 0.0 1.0 
Learning : 0.05
Momentum : 0.800000011920929
Epoch: 100, Error: 0.030937146222310512
Epoch: 200, Error: 0.017807950744414047
Epoch: 300, Error: 0.015207435079535274
Epoch: 400, Error: 0.01408101386462298
Epoch: 500, Error: 0.013550211621657544
Epoch: 600, Error: 0.013050854923851924
Epoch: 700, Error: 0.012694591375498495
Epoch: 800, Error: 0.012624063203684267
Epoch: 900, Error: 0.012440077785494075
Epoch: 1000, Error: 0.012293029313845922
Epoch: 1100, Error: 0.012401207210016321
Epoch: 1200, Error: 0.012188478212874873
Epoch: 1300, Error: 0.012133333968770255
Epoch: 1400, Error: 0.01215720801447953
Epoch: 1500, Error: 0.012078243711007393
Epoch: 1600, Error: 0.011999439784897217
Epoch: 1700, Error: 0.012015622421327145
Epoch: 1800, Error: 0.012024040165317636
Epoch: 1900, Error: 0.011963331399985932
Epoch: 2000, Error: 0.011931106599408724
Epoch: 2100, Error: 0.011901547017501011
Epoch: 2200, Error: 0.01188252268691625
Epoch: 2300, Error: 0.011848689542377057
Epoch: 2400, Error: 0.011866926047075772
Epoch: 2500, Error: 0.011946147021497388
Epoch: 2600, Error: 0.011818795503598493
Epoch: 2700, Error: 0.011957286905667676
Epoch: 2800, Error: 0.011828888350954966
Epoch: 2900, Error: 0.011874957504940048
Epoch: 3000, Error: 0.01177447221839203
Epoch: 3100, Error: 0.011797991618200422
Epoch: 3200, Error: 0.011781327553420755
Epoch: 3300, Error: 0.011749419750266468
Epoch: 3400, Error: 0.011762019200787625
Epoch: 3500, Error: 0.01180439107236756
Epoch: 3600, Error: 0.011779630825477424
Epoch: 3700, Error: 0.0118055813757463
Epoch: 3800, Error: 0.011760440879716063
Epoch: 3900, Error: 0.011782281833603008
Epoch: 4000, Error: 0.011769031307136682
Epoch: 4100, Error: 0.011751688591320138
Epoch: 4200, Error: 0.011760407188836324
Epoch: 4300, Error: 0.011734938979300717
Epoch: 4400, Error: 0.01199730181198416
Epoch: 4500, Error: 0.011755759639344877
Epoch: 4600, Error: 0.011722966250126312
Epoch: 4700, Error: 0.01179437841979859
Epoch: 4800, Error: 0.011746854552085162
Epoch: 4900, Error: 0.011751516209243027
Epoch: 5000, Error: 0.011724122734517381
Epoch: 5100, Error: 0.01173184016291282
Epoch: 5200, Error: 0.011717585281141746
Epoch: 5300, Error: 0.011900739923012342
Epoch: 5400, Error: 0.01173634551092449
Epoch: 5500, Error: 0.011709623739964084
Epoch: 5600, Error: 0.011695224157383851
Epoch: 5700, Error: 0.011689080482102005
Epoch: 5800, Error: 0.011653228713434508
Epoch: 5900, Error: 0.011667933328386813
Epoch: 6000, Error: 0.01176798005082991
Epoch: 6100, Error: 0.011762868696858634
Epoch: 6200, Error: 0.011639639883496112
Epoch: 6300, Error: 0.011717621965519554
Epoch: 6400, Error: 0.011645864957056763
Epoch: 6500, Error: 0.01159789704701854
Epoch: 6600, Error: 0.01162638743022927
Epoch: 6700, Error: 0.011643964759004049
Epoch: 6800, Error: 0.011623032127692366
Epoch: 6900, Error: 0.01164011245830641
Epoch: 7000, Error: 0.011577318079431674
Epoch: 7100, Error: 0.01154070552365346
Epoch: 7200, Error: 0.011613089838690655
Epoch: 7300, Error: 0.011501963749111653
Epoch: 7400, Error: 0.011507378520661258
Epoch: 7500, Error: 0.011536823248002464
Epoch: 7600, Error: 0.011498803227675927
Epoch: 7700, Error: 0.011518264475608575
Epoch: 7800, Error: 0.011540952895758167
Epoch: 7900, Error: 0.011617731840733505
Epoch: 8000, Error: 0.01154396695042596
Epoch: 8100, Error: 0.01152343136076411
Epoch: 8200, Error: 0.011574067887015984
Epoch: 8300, Error: 0.011496298685171824
Epoch: 8400, Error: 0.01150753304543691
Epoch: 8500, Error: 0.011462767684186763
Epoch: 8600, Error: 0.011437372112831298
Epoch: 8700, Error: 0.011465268874174732
Epoch: 8800, Error: 0.011393194737697407
Epoch: 8900, Error: 0.01138089486628054
Epoch: 9000, Error: 0.01135427296740089
Epoch: 9100, Error: 0.011333956141904467
Epoch: 9200, Error: 0.011310031402069189
Epoch: 9300, Error: 0.011314506633202721
Epoch: 9400, Error: 0.011228786727896598
Epoch: 9500, Error: 0.011214200082315303
Epoch: 9600, Error: 0.011203321387430923
Epoch: 9700, Error: 0.011177296571480122
Epoch: 9800, Error: 0.01115182074855207
Epoch: 9900, Error: 0.011136941188567423
Epoch: 10000, Error: 0.011170587375976749
Epoch: 10100, Error: 0.011094047483815803
Epoch: 10200, Error: 0.011166470790077517
Epoch: 10300, Error: 0.011008794949374462
Epoch: 10400, Error: 0.010991368558436248
Epoch: 10500, Error: 0.01097209727548191
Epoch: 10600, Error: 0.010964958687463154
Epoch: 10700, Error: 0.010900433725028065
Epoch: 10800, Error: 0.010888378369725298
Epoch: 10900, Error: 0.010836838298360442
Epoch: 11000, Error: 0.010877334389306981
Epoch: 11100, Error: 0.010792625730159036
Epoch: 11200, Error: 0.010768530835442987
Epoch: 11300, Error: 0.010717848252985931
Epoch: 11400, Error: 0.010714460030158112
Epoch: 11500, Error: 0.010633294578638762
Epoch: 11600, Error: 0.010578776027420862
Epoch: 11700, Error: 0.010528698263130926
Epoch: 11800, Error: 0.010473643696176482
Epoch: 11900, Error: 0.010437124428540705
Epoch: 12000, Error: 0.010384582575139502
Epoch: 12100, Error: 0.01035157771151326
Epoch: 12200, Error: 0.010267730643636614
Epoch: 12300, Error: 0.010174694326469707
Epoch: 12400, Error: 0.010141209097832084
Epoch: 12500, Error: 0.010079528227759649
Epoch: 12600, Error: 0.01001130333577273
Epoch: 12700, Error: 0.010016907025292152
Epoch: 12800, Error: 0.009913578863517613
Epoch: 12900, Error: 0.010027949899786868
Epoch: 13000, Error: 0.009813820522951938
Epoch: 13100, Error: 0.009722112441182446
Epoch: 13200, Error: 0.009705552801302164
Epoch: 13300, Error: 0.009586946024091204
Epoch: 13400, Error: 0.009749713248661494
Epoch: 13500, Error: 0.0094635136299008
Epoch: 13600, Error: 0.00938280564249271
Epoch: 13700, Error: 0.009307345175285735
Epoch: 13800, Error: 0.00926415907539877
Epoch: 13900, Error: 0.009201183141139317
Epoch: 14000, Error: 0.009072992896648964
Epoch: 14100, Error: 0.008972779896875255
Epoch: 14200, Error: 0.008927136203805992
Epoch: 14300, Error: 0.008784915870363577
Epoch: 14400, Error: 0.008832786559687559
Epoch: 14500, Error: 0.008538596281675
Epoch: 14600, Error: 0.008454597904135774
Epoch: 14700, Error: 0.008373073583744643
Epoch: 14800, Error: 0.008230983057329111
Epoch: 14900, Error: 0.008124351959195196
Epoch: 15000, Error: 0.008011452699465179
Epoch: 15100, Error: 0.007979897652880213
Epoch: 15200, Error: 0.007825782852783424
Epoch: 15300, Error: 0.007718239965738343
Epoch: 15400, Error: 0.007619364463196197
Epoch: 15500, Error: 0.007556842325353914
Epoch: 15600, Error: 0.0074170418360866444
Epoch: 15700, Error: 0.0073453864228216715
Epoch: 15800, Error: 0.007251200442253215
Epoch: 15900, Error: 0.007158609666842864
Epoch: 16000, Error: 0.007064020873855537
Epoch: 16100, Error: 0.006984289177742881
Epoch: 16200, Error: 0.0069068252522583515
Epoch: 16300, Error: 0.006851107450279566
Epoch: 16400, Error: 0.006776476669274721
Epoch: 16500, Error: 0.006733681160516866
Epoch: 16600, Error: 0.00665681103049758
Epoch: 16700, Error: 0.006589223402969269
Epoch: 16800, Error: 0.0066012921736841885
Epoch: 16900, Error: 0.006494041791988106
Epoch: 17000, Error: 0.006436777431972551
Epoch: 17100, Error: 0.0063834586305531295
Epoch: 17200, Error: 0.006373636827431094
Epoch: 17300, Error: 0.00632728519694532
Epoch: 17400, Error: 0.006294544795213532
Epoch: 17500, Error: 0.006233439917432098
Epoch: 17600, Error: 0.006226450057819906
Epoch: 17700, Error: 0.006162513609811792
Epoch: 17800, Error: 0.006114462540528836
Epoch: 17900, Error: 0.006080697174073053
Epoch: 18000, Error: 0.006062485081164058
Epoch: 18100, Error: 0.0060300761790973035
Epoch: 18200, Error: 0.006018956730031914
Epoch: 18300, Error: 0.005982083327538928
Epoch: 18400, Error: 0.005949622283983714
Epoch: 18500, Error: 0.005922965329861899
Epoch: 18600, Error: 0.00589760333847974
Epoch: 18700, Error: 0.005886809625841385
Epoch: 18800, Error: 0.005850636381438305
Epoch: 18900, Error: 0.005822600406779136
Epoch: 19000, Error: 0.005796627704742891
Epoch: 19100, Error: 0.005760790267711627
Epoch: 19200, Error: 0.005737872181422363
Epoch: 19300, Error: 0.005712037391976653
Epoch: 19400, Error: 0.005673327847259551
Epoch: 19500, Error: 0.005683288775003443
Epoch: 19600, Error: 0.005813884376156013
Epoch: 19700, Error: 0.005590058536353038
Epoch: 19800, Error: 0.005561430576494711
Epoch: 19900, Error: 0.005541544043602708
Epoch: 20000, Error: 0.005503871241563728
Epoch: 20100, Error: 0.005489758594262101
Epoch: 20200, Error: 0.0054604732655267225
Epoch: 20300, Error: 0.005440834274264885
Epoch: 20400, Error: 0.005420081364651089
Epoch: 20500, Error: 0.005393053356049613
Epoch: 20600, Error: 0.005403130528005173
Epoch: 20700, Error: 0.005376892722830741
Epoch: 20800, Error: 0.005344352254468549
Epoch: 20900, Error: 0.005319251559074019
Epoch: 21000, Error: 0.005358890466881627
Epoch: 21100, Error: 0.005286237583519136
Epoch: 21200, Error: 0.0052953568483860855
Epoch: 21300, Error: 0.0052490268440011315
Epoch: 21400, Error: 0.005218231984960662
Epoch: 21500, Error: 0.00520196257707866
Epoch: 21600, Error: 0.00517199678430136
Epoch: 21700, Error: 0.005164094424974847
Epoch: 21800, Error: 0.0051242201910614
Epoch: 21900, Error: 0.0051395419699326655
Epoch: 22000, Error: 0.005088521128527567
Epoch: 22100, Error: 0.005065761856924638
Epoch: 22200, Error: 0.005048699042543377
Epoch: 22300, Error: 0.005037691140191076
Epoch: 22400, Error: 0.005009655273900552
Epoch: 22500, Error: 0.005001086864089099
Epoch: 22600, Error: 0.005010665170550045
Epoch: 22700, Error: 0.004965141509926328
Epoch: 22800, Error: 0.004971565541725079
Epoch: 22900, Error: 0.004976955579725365
Epoch: 23000, Error: 0.004966378110477174
Epoch: 23100, Error: 0.004893689094438249
Epoch: 23200, Error: 0.004883344218620643
Epoch: 23300, Error: 0.0048844046931779
Epoch: 23400, Error: 0.00484093663741375
Epoch: 23500, Error: 0.004819570599358446
Epoch: 23600, Error: 0.0048079486880358005
Epoch: 23700, Error: 0.004772809490907851
Epoch: 23800, Error: 0.004761595434359018
Epoch: 23900, Error: 0.004827134346838875
Epoch: 24000, Error: 0.0047064733438719605
Epoch: 24100, Error: 0.004713877479321655
Epoch: 24200, Error: 0.004692229718754834
Epoch: 24300, Error: 0.004678344843077273
Epoch: 24400, Error: 0.00463426430730958
Epoch: 24500, Error: 0.004623736931569365
Epoch: 24600, Error: 0.0046218790510031485
Epoch: 24700, Error: 0.004580264269602295
Epoch: 24800, Error: 0.0045528503552290395
Epoch: 24900, Error: 0.004544276984671131
Epoch: 25000, Error: 0.004530471831784472
Epoch: 25100, Error: 0.004544894743374035
Epoch: 25200, Error: 0.004492646374452336
Epoch: 25300, Error: 0.004464048762908909
Epoch: 25400, Error: 0.004447287893074264
Epoch: 25500, Error: 0.004422351894992352
Epoch: 25600, Error: 0.004403044547798202
Epoch: 25700, Error: 0.004381204656281674
Epoch: 25800, Error: 0.004298806771176936
Epoch: 25900, Error: 0.004326589605120431
Epoch: 26000, Error: 0.004290500066173481
Epoch: 26100, Error: 0.004228377800415941
Epoch: 26200, Error: 0.004302049125401101
Epoch: 26300, Error: 0.004193908335712152
Epoch: 26400, Error: 0.004166381741309907
Epoch: 26500, Error: 0.004154692582713818
Epoch: 26600, Error: 0.004121245910373566
Epoch: 26700, Error: 0.0040742744888674345
Epoch: 26800, Error: 0.004048562902753488
Epoch: 26900, Error: 0.00403686432804786
Epoch: 27000, Error: 0.003995912968403337
Epoch: 27100, Error: 0.003974165714741145
Epoch: 27200, Error: 0.003940099179287838
Epoch: 27300, Error: 0.0039444644305914375
Epoch: 27400, Error: 0.003924905992091768
Epoch: 27500, Error: 0.0038757708175090723
Epoch: 27600, Error: 0.0038476791537018673
Epoch: 27700, Error: 0.0038380149213654274
Epoch: 27800, Error: 0.003786352620111045
Epoch: 27900, Error: 0.0037505944211160803
Epoch: 28000, Error: 0.003716153045172212
Epoch: 28100, Error: 0.003732219153346534
Epoch: 28200, Error: 0.003688263834237626
Epoch: 28300, Error: 0.0036534235860768796
Epoch: 28400, Error: 0.003680620692201163
Epoch: 28500, Error: 0.0036039258297995403
Epoch: 28600, Error: 0.003574283962197989
Epoch: 28700, Error: 0.0035844944308957775
Epoch: 28800, Error: 0.0035378337061227677
Epoch: 28900, Error: 0.003519801281244793
Epoch: 29000, Error: 0.003548927556445647
Epoch: 29100, Error: 0.0034748256173983893
Epoch: 29200, Error: 0.0034490488750142886
Epoch: 29300, Error: 0.0034105029699630614
Epoch: 29400, Error: 0.0033875566197997904
Epoch: 29500, Error: 0.003367032991551084
Epoch: 29600, Error: 0.0033424663571345312
Epoch: 29700, Error: 0.003331965037923814
Epoch: 29800, Error: 0.0033243015780500705
Epoch: 29900, Error: 0.0032880489550906784
Epoch: 30000, Error: 0.003251237531518658
Epoch: 30100, Error: 0.0032544595138839193
Epoch: 30200, Error: 0.0033899365763403965
Epoch: 30300, Error: 0.0032531371263793355
Epoch: 30400, Error: 0.003186401724826116
Epoch: 30500, Error: 0.003143318873691275
Epoch: 30600, Error: 0.0031338197978597543
Epoch: 30700, Error: 0.0030940957631289396
Epoch: 30800, Error: 0.0030786831467145563
Epoch: 30900, Error: 0.00306633459422851
Epoch: 31000, Error: 0.0030407726634110815
Epoch: 31100, Error: 0.0030058011516255847
Epoch: 31200, Error: 0.003018242860492567
Epoch: 31300, Error: 0.0029695484085701367
Epoch: 31400, Error: 0.0029484993850113564
Epoch: 31500, Error: 0.0029659074601864717
Epoch: 31600, Error: 0.0029157943839634107
Epoch: 31700, Error: 0.0029067509168260387
Epoch: 31800, Error: 0.0028783216539562478
Epoch: 31900, Error: 0.00287829234619262
Epoch: 32000, Error: 0.0030204262583120233
Epoch: 32100, Error: 0.0028202072204434195
Epoch: 32200, Error: 0.0028184723507554154
Epoch: 32300, Error: 0.002776784062491644
Epoch: 32400, Error: 0.002737601813708417
Epoch: 32500, Error: 0.00293678742198245
Epoch: 32600, Error: 0.002698098183865043
Epoch: 32700, Error: 0.0028335854002761044
Epoch: 32800, Error: 0.00271346017534158
Epoch: 32900, Error: 0.0026967306873029286
Epoch: 33000, Error: 0.002630954549512092
Epoch: 33100, Error: 0.0026603062380689195
Epoch: 33200, Error: 0.00264467199262431
Epoch: 33300, Error: 0.0025580281776648546
Epoch: 33400, Error: 0.0025351737625036504
Epoch: 33500, Error: 0.0025227399037557902
Epoch: 33600, Error: 0.0024955064221284066
Epoch: 33700, Error: 0.0025135754074109753
Epoch: 33800, Error: 0.0024825557274654095
Epoch: 33900, Error: 0.002530232668063671
Epoch: 34000, Error: 0.002469671891955596
Epoch: 34100, Error: 0.0024931436727967287
Epoch: 34200, Error: 0.0023835317758234453
Epoch: 34300, Error: 0.002395337469614695
Epoch: 34400, Error: 0.002345132566682426
Epoch: 34500, Error: 0.002334097588752464
Epoch: 34600, Error: 0.0023164881331378374
Epoch: 34700, Error: 0.002295917456090457
Epoch: 34800, Error: 0.0023267075143448674
Epoch: 34900, Error: 0.0023147072490163176
Epoch: 35000, Error: 0.00227777172570894
Epoch: 35100, Error: 0.002251746193062522
Epoch: 35200, Error: 0.002206639800759568
Epoch: 35300, Error: 0.0022302934421093
Epoch: 35400, Error: 0.0021809123332874746
Epoch: 35500, Error: 0.002183563303777597
Epoch: 35600, Error: 0.0021625481631839245
Epoch: 35700, Error: 0.0021323323029015327
Epoch: 35800, Error: 0.0021290045965640238
Epoch: 35900, Error: 0.002098571777164906
Epoch: 36000, Error: 0.0020814468320062758
Epoch: 36100, Error: 0.0020671035330569257
Epoch: 36200, Error: 0.0022994411984578445
Epoch: 36300, Error: 0.0021115424024534053
Epoch: 36400, Error: 0.002024972213624762
Epoch: 36500, Error: 0.0020226563759153295
Epoch: 36600, Error: 0.002029547780190831
Epoch: 36700, Error: 0.001983434563456771
Epoch: 36800, Error: 0.0019884236140353864
Epoch: 36900, Error: 0.0020344917168589674
Epoch: 37000, Error: 0.0019426920439776965
Epoch: 37100, Error: 0.002030071659480393
Epoch: 37200, Error: 0.001966004365499925
Epoch: 37300, Error: 0.0019371924411352712
Epoch: 37400, Error: 0.0019318208823568875
Epoch: 37500, Error: 0.0018932511296323893
Epoch: 37600, Error: 0.0018743734416185225
Epoch: 37700, Error: 0.0019452534508088064
Epoch: 37800, Error: 0.0018732311717442672
Epoch: 37900, Error: 0.0019403767619355144
Epoch: 38000, Error: 0.0018335266379947803
Epoch: 38100, Error: 0.0019940154271734897
Epoch: 38200, Error: 0.0018116923887003822
Epoch: 38300, Error: 0.0017944699286920594
Epoch: 38400, Error: 0.0018389652377505167
Epoch: 38500, Error: 0.0018558742800810037
Epoch: 38600, Error: 0.0018213678201513593
Epoch: 38700, Error: 0.001813137032414639
Epoch: 38800, Error: 0.0017450940182161367
Epoch: 38900, Error: 0.0017518606545159666
Epoch: 39000, Error: 0.0017280287381908651
Epoch: 39100, Error: 0.0017586370131859011
Epoch: 39200, Error: 0.0017123130689412765
Epoch: 39300, Error: 0.0017110810413480113
Epoch: 39400, Error: 0.001754916161303461
Epoch: 39500, Error: 0.0016923963838762766
Epoch: 39600, Error: 0.0016828086259970956
Epoch: 39700, Error: 0.0016958443214358913
Epoch: 39800, Error: 0.0016665992289985497
Epoch: 39900, Error: 0.0016779485312129784
Epoch: 40000, Error: 0.0016771684950217637
Epoch: 40100, Error: 0.001657277176756896
Epoch: 40200, Error: 0.0016518769822288686
Epoch: 40300, Error: 0.001717634718263295
Epoch: 40400, Error: 0.0016355948862847869
Epoch: 40500, Error: 0.0016476633732127582
Epoch: 40600, Error: 0.0016515589166785248
Epoch: 40700, Error: 0.001647992331349022
Epoch: 40800, Error: 0.0016365515107981878
Epoch: 40900, Error: 0.001599598847364835
Epoch: 41000, Error: 0.001618672112611932
Epoch: 41100, Error: 0.001593072192796965
Epoch: 41200, Error: 0.0016424922621726084
Epoch: 41300, Error: 0.001588054588123174
Epoch: 41400, Error: 0.0015833234139157248
Epoch: 41500, Error: 0.001565691526361206
Epoch: 41600, Error: 0.0015785814902487094
Epoch: 41700, Error: 0.0015858016831151853
Epoch: 41800, Error: 0.0015873852029431746
Epoch: 41900, Error: 0.0015807584344426499
Epoch: 42000, Error: 0.0015839201407901687
Epoch: 42100, Error: 0.001575540251998828
Epoch: 42200, Error: 0.0015691379178581527
Epoch: 42300, Error: 0.001537657162050724
Epoch: 42400, Error: 0.0015238930007207675
Epoch: 42500, Error: 0.0015471589078417923
Epoch: 42600, Error: 0.001564048225621572
Epoch: 42700, Error: 0.001533085377545013
Epoch: 42800, Error: 0.0014949636186115923
Epoch: 42900, Error: 0.0015051138019417255
Epoch: 43000, Error: 0.0015089344401635592
Epoch: 43100, Error: 0.0014735748165966617
Epoch: 43200, Error: 0.0014664155965373495
Epoch: 43300, Error: 0.0014851471202116534
Epoch: 43400, Error: 0.0014892167303727152
Epoch: 43500, Error: 0.0014852343231917936
Epoch: 43600, Error: 0.0015567196348698449
Epoch: 43700, Error: 0.0014711147909527262
Epoch: 43800, Error: 0.0014939720062928322
Epoch: 43900, Error: 0.001449774898429233
Epoch: 44000, Error: 0.0014349555038474491
Epoch: 44100, Error: 0.0014352103562991444
Epoch: 44200, Error: 0.0014354236057557812
Epoch: 44300, Error: 0.0014288643007435524
Epoch: 44400, Error: 0.0014265714404200268
Epoch: 44500, Error: 0.0014108324154117815
Epoch: 44600, Error: 0.0013917034859518534
Epoch: 44700, Error: 0.0014062403004251132
Epoch: 44800, Error: 0.0013999204389967225
Epoch: 44900, Error: 0.00139217213954317
Epoch: 45000, Error: 0.0013805490337667344
Epoch: 45100, Error: 0.0013976358239795325
Epoch: 45200, Error: 0.0013808125774967094
Epoch: 45300, Error: 0.0013733641346446118
Epoch: 45400, Error: 0.0014002369674336566
Epoch: 45500, Error: 0.0013655178909924492
Epoch: 45600, Error: 0.0013691480018757887
Finished
Input Patterns
0.224 0.624 0.067 0.043 
0.11 0.502 0.051 0.043 
0.196 0.667 0.067 0.043 
0.055 0.584 0.067 0.082 
0.027 0.376 0.067 0.043 
0.306 0.71 0.086 0.043 
0.137 0.416 0.067 0.0 
0.416 0.831 0.035 0.043 
0.306 0.792 0.051 0.125 
0.388 0.749 0.118 0.082 
0.306 0.584 0.118 0.043 
0.082 0.667 0.0 0.043 
0.137 0.584 0.153 0.043 
0.196 0.584 0.102 0.125 
0.251 0.584 0.067 0.043 
0.137 0.459 0.102 0.043 
0.251 0.875 0.086 0.0 
0.165 0.459 0.086 0.043 
0.333 0.624 0.051 0.043 
0.027 0.416 0.051 0.043 
0.196 0.624 0.051 0.082 
0.027 0.502 0.051 0.043 
0.224 0.749 0.153 0.125 
0.224 0.749 0.102 0.043 
0.278 0.71 0.086 0.043 
0.165 0.416 0.067 0.043 
0.082 0.459 0.086 0.043 
0.306 0.792 0.118 0.125 
0.196 0.584 0.086 0.043 
0.165 0.459 0.086 0.0 
0.137 0.584 0.102 0.043 
0.0 0.416 0.016 0.0 
0.388 1.0 0.086 0.125 
0.224 0.624 0.067 0.082 
0.224 0.749 0.086 0.082 
0.224 0.71 0.086 0.125 
0.224 0.541 0.118 0.165 
0.196 0.416 0.102 0.043 
0.251 0.624 0.086 0.043 
0.11 0.502 0.102 0.043 
0.306 0.584 0.086 0.125 
0.333 0.918 0.067 0.043 
0.196 0.502 0.035 0.043 
0.165 0.667 0.067 0.0 
0.224 0.584 0.086 0.043 
0.055 0.125 0.051 0.082 
0.196 0.624 0.102 0.208 
0.137 0.416 0.067 0.082 
0.082 0.502 0.067 0.043 
0.196 0.541 0.067 0.043 
0.749 0.502 0.627 0.541 
0.722 0.459 0.663 0.584 
0.612 0.333 0.612 0.584 
0.557 0.541 0.627 0.624 
0.639 0.376 0.612 0.498 
0.196 0.0 0.424 0.376 
0.471 0.082 0.51 0.376 
0.361 0.376 0.439 0.498 
0.361 0.416 0.592 0.584 
0.529 0.082 0.592 0.584 
0.443 0.502 0.643 0.459 
0.557 0.208 0.663 0.584 
0.584 0.376 0.561 0.498 
0.694 0.333 0.643 0.541 
0.471 0.376 0.592 0.584 
0.333 0.169 0.475 0.416 
0.416 0.29 0.49 0.459 
0.306 0.416 0.592 0.584 
0.667 0.459 0.627 0.584 
0.361 0.416 0.525 0.498 
0.333 0.251 0.576 0.459 
0.416 0.251 0.51 0.459 
0.361 0.29 0.541 0.498 
0.388 0.376 0.541 0.498 
0.224 0.208 0.337 0.416 
0.584 0.502 0.592 0.584 
0.333 0.125 0.51 0.498 
0.388 0.333 0.592 0.498 
0.165 0.169 0.388 0.376 
0.251 0.29 0.49 0.541 
0.443 0.416 0.541 0.584 
0.498 0.376 0.627 0.541 
0.667 0.459 0.576 0.541 
0.416 0.29 0.525 0.376 
0.361 0.208 0.49 0.416 
0.498 0.333 0.51 0.498 
0.498 0.333 0.627 0.459 
0.639 0.416 0.576 0.541 
0.667 0.416 0.678 0.667 
0.388 0.251 0.424 0.376 
0.333 0.169 0.459 0.376 
0.471 0.29 0.694 0.624 
0.471 0.584 0.592 0.624 
0.557 0.125 0.576 0.498 
0.333 0.208 0.51 0.498 
0.498 0.416 0.612 0.541 
0.196 0.125 0.388 0.376 
0.388 0.416 0.541 0.459 
0.529 0.376 0.561 0.498 
0.388 0.333 0.525 0.498 
0.557 0.541 0.847 1.0 
0.776 0.416 0.831 0.831 
0.612 0.416 0.812 0.875 
0.165 0.208 0.592 0.667 
0.667 0.208 0.812 0.71 
0.612 0.502 0.694 0.792 
0.694 0.416 0.761 0.831 
0.416 0.333 0.694 0.957 
0.612 0.416 0.761 0.71 
0.945 0.251 1.0 0.918 
0.722 0.502 0.796 0.918 
0.945 0.333 0.965 0.792 
0.667 0.541 0.796 0.831 
0.529 0.333 0.643 0.71 
0.584 0.333 0.78 0.831 
0.863 0.333 0.863 0.749 
0.584 0.333 0.78 0.875 
0.498 0.251 0.78 0.541 
0.557 0.584 0.78 0.957 
0.471 0.416 0.643 0.71 
0.667 0.459 0.78 0.957 
0.416 0.29 0.694 0.749 
0.667 0.541 0.796 1.0 
0.557 0.208 0.678 0.749 
0.529 0.584 0.745 0.918 
0.416 0.29 0.694 0.749 
0.557 0.376 0.78 0.71 
0.918 0.416 0.949 0.831 
0.835 0.376 0.898 0.71 
0.804 0.667 0.863 1.0 
0.584 0.29 0.729 0.749 
0.388 0.208 0.678 0.792 
0.584 0.502 0.729 0.918 
0.945 0.749 0.965 0.875 
0.471 0.082 0.678 0.584 
0.361 0.333 0.663 0.792 
0.557 0.29 0.663 0.71 
0.804 0.502 0.847 0.71 
0.498 0.416 0.51 0.71 
0.804 0.416 0.812 0.624 
1.0 0.749 0.914 0.792 
0.557 0.333 0.694 0.584 
0.945 0.416 0.863 0.918 
0.584 0.459 0.761 0.71 
0.722 0.459 0.745 0.831 
0.722 0.459 0.694 0.918 
0.694 0.502 0.831 0.918 
0.667 0.416 0.714 0.918 
0.612 0.416 0.714 0.792 
0.443 0.416 0.694 0.71 
Teaching Patterns
1.0 0.0 0.0 
1.0 0.0 0.0 
1.0 0.0 0.0 
1.0 0.0 0.0 
1.0 0.0 0.0 
1.0 0.0 0.0 
1.0 0.0 0.0 
1.0 0.0 0.0 
1.0 0.0 0.0 
1.0 0.0 0.0 
1.0 0.0 0.0 
1.0 0.0 0.0 
1.0 0.0 0.0 
1.0 0.0 0.0 
1.0 0.0 0.0 
1.0 0.0 0.0 
1.0 0.0 0.0 
1.0 0.0 0.0 
1.0 0.0 0.0 
1.0 0.0 0.0 
1.0 0.0 0.0 
1.0 0.0 0.0 
1.0 0.0 0.0 
1.0 0.0 0.0 
1.0 0.0 0.0 
1.0 0.0 0.0 
1.0 0.0 0.0 
1.0 0.0 0.0 
1.0 0.0 0.0 
1.0 0.0 0.0 
1.0 0.0 0.0 
1.0 0.0 0.0 
1.0 0.0 0.0 
1.0 0.0 0.0 
1.0 0.0 0.0 
1.0 0.0 0.0 
1.0 0.0 0.0 
1.0 0.0 0.0 
1.0 0.0 0.0 
1.0 0.0 0.0 
1.0 0.0 0.0 
1.0 0.0 0.0 
1.0 0.0 0.0 
1.0 0.0 0.0 
1.0 0.0 0.0 
1.0 0.0 0.0 
1.0 0.0 0.0 
1.0 0.0 0.0 
1.0 0.0 0.0 
1.0 0.0 0.0 
0.0 1.0 0.0 
0.0 1.0 0.0 
0.0 1.0 0.0 
0.0 1.0 0.0 
0.0 1.0 0.0 
0.0 1.0 0.0 
0.0 1.0 0.0 
0.0 1.0 0.0 
0.0 1.0 0.0 
0.0 1.0 0.0 
0.0 1.0 0.0 
0.0 1.0 0.0 
0.0 1.0 0.0 
0.0 1.0 0.0 
0.0 1.0 0.0 
0.0 1.0 0.0 
0.0 1.0 0.0 
0.0 1.0 0.0 
0.0 1.0 0.0 
0.0 1.0 0.0 
0.0 1.0 0.0 
0.0 1.0 0.0 
0.0 1.0 0.0 
0.0 1.0 0.0 
0.0 1.0 0.0 
0.0 1.0 0.0 
0.0 1.0 0.0 
0.0 1.0 0.0 
0.0 1.0 0.0 
0.0 1.0 0.0 
0.0 1.0 0.0 
0.0 1.0 0.0 
0.0 1.0 0.0 
0.0 1.0 0.0 
0.0 1.0 0.0 
0.0 1.0 0.0 
0.0 1.0 0.0 
0.0 1.0 0.0 
0.0 1.0 0.0 
0.0 1.0 0.0 
0.0 1.0 0.0 
0.0 1.0 0.0 
0.0 1.0 0.0 
0.0 1.0 0.0 
0.0 1.0 0.0 
0.0 1.0 0.0 
0.0 1.0 0.0 
0.0 1.0 0.0 
0.0 1.0 0.0 
0.0 1.0 0.0 
0.0 0.0 1.0 
0.0 0.0 1.0 
0.0 0.0 1.0 
0.0 0.0 1.0 
0.0 0.0 1.0 
0.0 0.0 1.0 
0.0 0.0 1.0 
0.0 0.0 1.0 
0.0 0.0 1.0 
0.0 0.0 1.0 
0.0 0.0 1.0 
0.0 0.0 1.0 
0.0 0.0 1.0 
0.0 0.0 1.0 
0.0 0.0 1.0 
0.0 0.0 1.0 
0.0 0.0 1.0 
0.0 0.0 1.0 
0.0 0.0 1.0 
0.0 0.0 1.0 
0.0 0.0 1.0 
0.0 0.0 1.0 
0.0 0.0 1.0 
0.0 0.0 1.0 
0.0 0.0 1.0 
0.0 0.0 1.0 
0.0 0.0 1.0 
0.0 0.0 1.0 
0.0 0.0 1.0 
0.0 0.0 1.0 
0.0 0.0 1.0 
0.0 0.0 1.0 
0.0 0.0 1.0 
0.0 0.0 1.0 
0.0 0.0 1.0 
0.0 0.0 1.0 
0.0 0.0 1.0 
0.0 0.0 1.0 
0.0 0.0 1.0 
0.0 0.0 1.0 
0.0 0.0 1.0 
0.0 0.0 1.0 
0.0 0.0 1.0 
0.0 0.0 1.0 
0.0 0.0 1.0 
0.0 0.0 1.0 
0.0 0.0 1.0 
0.0 0.0 1.0 
0.0 0.0 1.0 
0.0 0.0 1.0 
Learning : 0.05
Momentum : 0.800000011920929
Epoch: 100, Error: 0.02747277611849142
Epoch: 200, Error: 0.017974387591377143
Epoch: 300, Error: 0.015215702854528597
Epoch: 400, Error: 0.014133690428460872
Epoch: 500, Error: 0.013541608107252351
Epoch: 600, Error: 0.013184238395464603
Epoch: 700, Error: 0.012896178598714898
Epoch: 800, Error: 0.01263821050603342
Epoch: 900, Error: 0.012438915008302796
Epoch: 1000, Error: 0.012542886076873845
Epoch: 1100, Error: 0.012240182040972939
Epoch: 1200, Error: 0.012138098512497853
Epoch: 1300, Error: 0.012086226246192319
Epoch: 1400, Error: 0.012086283050379018
Epoch: 1500, Error: 0.012031236976431537
Epoch: 1600, Error: 0.012011721048765661
Epoch: 1700, Error: 0.011954297129331288
Epoch: 1800, Error: 0.011953490750731271
Epoch: 1900, Error: 0.011957018284579204
Epoch: 2000, Error: 0.011964046111770352
Epoch: 2100, Error: 0.012177037372760796
Epoch: 2200, Error: 0.01193607117553045
Epoch: 2300, Error: 0.011917056018968754
Epoch: 2400, Error: 0.011899319646054042
Epoch: 2500, Error: 0.01187690762167361
Epoch: 2600, Error: 0.011967250956058694
Epoch: 2700, Error: 0.011897192087146555
Epoch: 2800, Error: 0.011949399098789608
Epoch: 2900, Error: 0.011956457314875706
Epoch: 3000, Error: 0.011982270325568659
Epoch: 3100, Error: 0.011905812643176
Epoch: 3200, Error: 0.01192364356776962
Epoch: 3300, Error: 0.011865939823307517
Epoch: 3400, Error: 0.011973622524179574
Epoch: 3500, Error: 0.011892617835831865
Epoch: 3600, Error: 0.011932299827266776
Epoch: 3700, Error: 0.011907279338980978
Epoch: 3800, Error: 0.01182712634710707
Epoch: 3900, Error: 0.011826574247450195
Epoch: 4000, Error: 0.011807778663898144
Epoch: 4100, Error: 0.011814037542610881
Epoch: 4200, Error: 0.01181365418880118
Epoch: 4300, Error: 0.01187334412622194
Epoch: 4400, Error: 0.011876579368483887
Epoch: 4500, Error: 0.011783041482360807
Epoch: 4600, Error: 0.011832062940369101
Epoch: 4700, Error: 0.011757882790635483
Epoch: 4800, Error: 0.011738947449444639
Epoch: 4900, Error: 0.011750520324660903
Epoch: 5000, Error: 0.011718803866587722
Epoch: 5100, Error: 0.011675701497551328
Epoch: 5200, Error: 0.011658785474836165
Epoch: 5300, Error: 0.011639239134557857
Epoch: 5400, Error: 0.011678205171519596
Epoch: 5500, Error: 0.011627602199332626
Epoch: 5600, Error: 0.011628501515207116
Epoch: 5700, Error: 0.011690034284545767
Epoch: 5800, Error: 0.011600721832487539
Epoch: 5900, Error: 0.011624746500664208
Epoch: 6000, Error: 0.011631186918514905
Epoch: 6100, Error: 0.011583844304934757
Epoch: 6200, Error: 0.011567159582651174
Epoch: 6300, Error: 0.01157425719589763
Epoch: 6400, Error: 0.011540655736005644
Epoch: 6500, Error: 0.011584805783610678
Epoch: 6600, Error: 0.011562698137532978
Epoch: 6700, Error: 0.011932602523888645
Epoch: 6800, Error: 0.011469332704228615
Epoch: 6900, Error: 0.011463538770530845
Epoch: 7000, Error: 0.011465721540584123
Epoch: 7100, Error: 0.011508475189084372
Epoch: 7200, Error: 0.01146416676242123
Epoch: 7300, Error: 0.011413309155494473
Epoch: 7400, Error: 0.011381451219950867
Epoch: 7500, Error: 0.01147031154907877
Epoch: 7600, Error: 0.01141550009244637
Epoch: 7700, Error: 0.011367645949645105
Epoch: 7800, Error: 0.011276315864135307
Epoch: 7900, Error: 0.011257680815701882
Epoch: 8000, Error: 0.011237670123937428
Epoch: 8100, Error: 0.011218770652324505
Epoch: 8200, Error: 0.011192085337444788
Epoch: 8300, Error: 0.01123275807944576
Epoch: 8400, Error: 0.01113784297098791
Epoch: 8500, Error: 0.011176193704290968
Epoch: 8600, Error: 0.011076900519858596
Epoch: 8700, Error: 0.011032000379196124
Epoch: 8800, Error: 0.011000176564870397
Epoch: 8900, Error: 0.011016261290650085
Epoch: 9000, Error: 0.010892339394136022
Epoch: 9100, Error: 0.010849552670012828
Epoch: 9200, Error: 0.010837845021553718
Epoch: 9300, Error: 0.011092564809451736
Epoch: 9400, Error: 0.01071429968341965
Epoch: 9500, Error: 0.01064141772969252
Epoch: 9600, Error: 0.010585533026295087
Epoch: 9700, Error: 0.010502899415190054
Epoch: 9800, Error: 0.010480563902553523
Epoch: 9900, Error: 0.010399832309464542
Epoch: 10000, Error: 0.010256027880270642
Epoch: 10100, Error: 0.010167561710060365
Epoch: 10200, Error: 0.010102019019606235
Epoch: 10300, Error: 0.00997320475927256
Epoch: 10400, Error: 0.009927818191546835
Epoch: 10500, Error: 0.00975233699759365
Epoch: 10600, Error: 0.009653262270326394
Epoch: 10700, Error: 0.009533574011288288
Epoch: 10800, Error: 0.00945548064240736
Epoch: 10900, Error: 0.009320153243945507
Epoch: 11000, Error: 0.009227395360875633
Epoch: 11100, Error: 0.009137909413311978
Epoch: 11200, Error: 0.008981943591942033
Epoch: 11300, Error: 0.008859368320645272
Epoch: 11400, Error: 0.008769192208145857
Epoch: 11500, Error: 0.008632708779075382
Epoch: 11600, Error: 0.008529754171182565
Epoch: 11700, Error: 0.008415735738859112
Epoch: 11800, Error: 0.00829242274773246
Epoch: 11900, Error: 0.008184333565748042
Epoch: 12000, Error: 0.008104895610372458
Epoch: 12100, Error: 0.007990373556329826
Epoch: 12200, Error: 0.007906989674500547
Epoch: 12300, Error: 0.0078110021580528426
Epoch: 12400, Error: 0.007718851288994256
Epoch: 12500, Error: 0.007635263587666791
Epoch: 12600, Error: 0.007579798777115735
Epoch: 12700, Error: 0.0074891932441389
Epoch: 12800, Error: 0.007426590080985618
Epoch: 12900, Error: 0.007387397405919653
Epoch: 13000, Error: 0.007272571870861381
Epoch: 13100, Error: 0.007214158333352711
Epoch: 13200, Error: 0.007132356636735457
Epoch: 13300, Error: 0.007094641263891402
Epoch: 13400, Error: 0.007030428086835628
Epoch: 13500, Error: 0.006963612715298577
Epoch: 13600, Error: 0.006904970983560671
Epoch: 13700, Error: 0.0068545457930364075
Epoch: 13800, Error: 0.00681147165879586
Epoch: 13900, Error: 0.0067638563783299025
Epoch: 14000, Error: 0.006734854536362305
Epoch: 14100, Error: 0.006708112414628813
Epoch: 14200, Error: 0.006670768739122471
Epoch: 14300, Error: 0.006739438866958611
Epoch: 14400, Error: 0.006608375816578971
Epoch: 14500, Error: 0.006575517974625526
Epoch: 14600, Error: 0.006584651897098045
Epoch: 14700, Error: 0.006586568312529232
Epoch: 14800, Error: 0.006487619187835349
Epoch: 14900, Error: 0.006462047983074181
Epoch: 15000, Error: 0.006443316270307477
Epoch: 15100, Error: 0.006419727344886767
Epoch: 15200, Error: 0.00637824165429976
Epoch: 15300, Error: 0.006344214267098223
Epoch: 15400, Error: 0.0063339207981302804
Epoch: 15500, Error: 0.006387232458737416
Epoch: 15600, Error: 0.006260095222317449
Epoch: 15700, Error: 0.006266312514231356
Epoch: 15800, Error: 0.006249659562186736
Epoch: 15900, Error: 0.006208341753843697
Epoch: 16000, Error: 0.006174881307448371
Epoch: 16100, Error: 0.006149035131407641
Epoch: 16200, Error: 0.006149680975313677
Epoch: 16300, Error: 0.006130658634731956
Epoch: 16400, Error: 0.006156328080953918
Epoch: 16500, Error: 0.006094925312976134
Epoch: 16600, Error: 0.006121921855015709
Epoch: 16700, Error: 0.006064567993650051
Epoch: 16800, Error: 0.0060935471932875235
Epoch: 16900, Error: 0.006081671823865794
Epoch: 17000, Error: 0.006033931624028191
Epoch: 17100, Error: 0.006048904656456801
Epoch: 17200, Error: 0.006069933177226478
Epoch: 17300, Error: 0.006060324296525304
Epoch: 17400, Error: 0.006034491742073319
Epoch: 17500, Error: 0.00601594781680669
Epoch: 17600, Error: 0.006056582314306771
Epoch: 17700, Error: 0.006007515388435297
Epoch: 17800, Error: 0.006001456668968234
Epoch: 17900, Error: 0.005979809856784444
Epoch: 18000, Error: 0.0060165739115716375
Epoch: 18100, Error: 0.005979993579673863
Epoch: 18200, Error: 0.005950887886076881
Epoch: 18300, Error: 0.005944549519397748
Epoch: 18400, Error: 0.005887637288656179
Epoch: 18500, Error: 0.005852587903731406
Epoch: 18600, Error: 0.005933386743367822
Epoch: 18700, Error: 0.005868249120998565
Epoch: 18800, Error: 0.00586140725575697
Epoch: 18900, Error: 0.005831819991553547
Epoch: 19000, Error: 0.005799213512616806
Epoch: 19100, Error: 0.005795087850745061
Epoch: 19200, Error: 0.005741816974703759
Epoch: 19300, Error: 0.005777419477831658
Epoch: 19400, Error: 0.005706284578242225
Epoch: 19500, Error: 0.005701748879725875
Epoch: 19600, Error: 0.005724162719998821
Epoch: 19700, Error: 0.005653798144125132
Epoch: 19800, Error: 0.0055841168583370925
Epoch: 19900, Error: 0.005578492779344357
Epoch: 20000, Error: 0.005549744716572822
Epoch: 20100, Error: 0.005488200312027371
Epoch: 20200, Error: 0.00546480451651838
Epoch: 20300, Error: 0.005493823935052266
Epoch: 20400, Error: 0.005419650517592206
Epoch: 20500, Error: 0.005414905355162003
Epoch: 20600, Error: 0.005373552399276759
Epoch: 20700, Error: 0.005381578809816372
Epoch: 20800, Error: 0.005362289953931279
Epoch: 20900, Error: 0.005335675544561658
Epoch: 21000, Error: 0.005382328459138817
Epoch: 21100, Error: 0.0052974581527983206
Epoch: 21200, Error: 0.005400604245133451
Epoch: 21300, Error: 0.005250262717801658
Epoch: 21400, Error: 0.0052146053587074186
Epoch: 21500, Error: 0.005172395233510059
Epoch: 21600, Error: 0.005183658627842188
Epoch: 21700, Error: 0.005178449924666082
Epoch: 21800, Error: 0.0051917437097066576
Epoch: 21900, Error: 0.005123254770142268
Epoch: 22000, Error: 0.005161366926829171
Epoch: 22100, Error: 0.005124451689568335
Epoch: 22200, Error: 0.005066032218275388
Epoch: 22300, Error: 0.0050624174707575315
Epoch: 22400, Error: 0.005054867106658172
Epoch: 22500, Error: 0.004999559022310921
Epoch: 22600, Error: 0.005057357386404609
Epoch: 22700, Error: 0.004954880285692675
Epoch: 22800, Error: 0.004931602028626428
Epoch: 22900, Error: 0.004926338329024773
Epoch: 23000, Error: 0.004930906157657279
Epoch: 23100, Error: 0.004958437930688461
Epoch: 23200, Error: 0.004866569056488955
Epoch: 23300, Error: 0.004858688641049299
Epoch: 23400, Error: 0.00484898095041436
Epoch: 23500, Error: 0.00481736316111422
Epoch: 23600, Error: 0.004787094700655422
Epoch: 23700, Error: 0.0047875315742431975
Epoch: 23800, Error: 0.004774724828690466
Epoch: 23900, Error: 0.004735128789089704
Epoch: 24000, Error: 0.0046809614396177415
Epoch: 24100, Error: 0.00469058682328176
Epoch: 24200, Error: 0.004747024302010246
Epoch: 24300, Error: 0.004674153007357105
Epoch: 24400, Error: 0.004601172367647761
Epoch: 24500, Error: 0.0046249408950846446
Epoch: 24600, Error: 0.004662028262679527
Epoch: 24700, Error: 0.004627844125997768
Epoch: 24800, Error: 0.004514798247282616
Epoch: 24900, Error: 0.004483324756124924
Epoch: 25000, Error: 0.004474066499526574
Epoch: 25100, Error: 0.0044173433871546285
Epoch: 25200, Error: 0.004395691395198259
Epoch: 25300, Error: 0.004382984558102273
Epoch: 25400, Error: 0.004340540718058323
Epoch: 25500, Error: 0.004367490626942814
Epoch: 25600, Error: 0.004286708878065591
Epoch: 25700, Error: 0.004247932024569475
Epoch: 25800, Error: 0.0042398829527573794
Epoch: 25900, Error: 0.004231301419045058
Epoch: 26000, Error: 0.004255077293118176
Epoch: 26100, Error: 0.0041375740000787024
Epoch: 26200, Error: 0.004117466738875656
Epoch: 26300, Error: 0.004103972920987606
Epoch: 26400, Error: 0.004079824303493157
Epoch: 26500, Error: 0.004037361214365397
Epoch: 26600, Error: 0.004118220264004552
Epoch: 26700, Error: 0.003984459244480874
Epoch: 26800, Error: 0.0039719254459672235
Epoch: 26900, Error: 0.003959284125029857
Epoch: 27000, Error: 0.003911466379050936
Epoch: 27100, Error: 0.003898708234563978
Epoch: 27200, Error: 0.0038710410293894882
Epoch: 27300, Error: 0.0038502765467215054
Epoch: 27400, Error: 0.0038178126427565228
Epoch: 27500, Error: 0.0038341994220157734
Epoch: 27600, Error: 0.0037681165210167525
Epoch: 27700, Error: 0.0037687679144681784
Epoch: 27800, Error: 0.003796488013599008
Epoch: 27900, Error: 0.003735631136366969
Epoch: 28000, Error: 0.003686832067450679
Epoch: 28100, Error: 0.003688093618101067
Epoch: 28200, Error: 0.0036528490254948785
Epoch: 28300, Error: 0.003685800607380798
Epoch: 28400, Error: 0.0035917598051029695
Epoch: 28500, Error: 0.003588192263901497
Epoch: 28600, Error: 0.0035394536000318026
Epoch: 28700, Error: 0.0035290616953158466
Epoch: 28800, Error: 0.0035208849468785003
Epoch: 28900, Error: 0.0034727386866257866
Epoch: 29000, Error: 0.0034917415898025306
Epoch: 29100, Error: 0.0034755783249404474
Epoch: 29200, Error: 0.0034421239534167905
Epoch: 29300, Error: 0.003448074911555327
Epoch: 29400, Error: 0.0034323027144265417
Epoch: 29500, Error: 0.003405117303817254
Epoch: 29600, Error: 0.003340833876176808
Epoch: 29700, Error: 0.0033445244492356363
Epoch: 29800, Error: 0.0033378799892088223
Epoch: 29900, Error: 0.0033186216869920218
Epoch: 30000, Error: 0.003290646257731373
Epoch: 30100, Error: 0.003712365649805166
Epoch: 30200, Error: 0.0032714954684399853
Epoch: 30300, Error: 0.003234306357091389
Epoch: 30400, Error: 0.0034785110100721815
Epoch: 30500, Error: 0.003314999733228393
Epoch: 30600, Error: 0.0032019199614527582
Epoch: 30700, Error: 0.003167586942964834
Epoch: 30800, Error: 0.0032880618907862947
Epoch: 30900, Error: 0.003152699283528476
Epoch: 31000, Error: 0.0031285950488548543
Epoch: 31100, Error: 0.003108702577150498
Epoch: 31200, Error: 0.003123371824304821
Epoch: 31300, Error: 0.0031165002956689333
Epoch: 31400, Error: 0.0031171916477332885
Epoch: 31500, Error: 0.003125223523861173
Epoch: 31600, Error: 0.003105875160488123
Epoch: 31700, Error: 0.003071730273544259
Epoch: 31800, Error: 0.0030180368598981947
Epoch: 31900, Error: 0.003016586492001146
Epoch: 32000, Error: 0.0030224217099910863
Epoch: 32100, Error: 0.003012008579623012
Epoch: 32200, Error: 0.0030820839363628937
Epoch: 32300, Error: 0.0029384629145665295
Epoch: 32400, Error: 0.002952802903717088
Epoch: 32500, Error: 0.0030141758547903405
Epoch: 32600, Error: 0.0028956796573502766
Epoch: 32700, Error: 0.00294305100680145
Epoch: 32800, Error: 0.0029323282817127812
Epoch: 32900, Error: 0.002848764318525368
Epoch: 33000, Error: 0.0028707855403614
Epoch: 33100, Error: 0.0028029261080955866
Epoch: 33200, Error: 0.002836110674870822
Epoch: 33300, Error: 0.0027692716906377863
Epoch: 33400, Error: 0.002800402770621277
Epoch: 33500, Error: 0.0028235927124646387
Epoch: 33600, Error: 0.0027448584751436824
Epoch: 33700, Error: 0.002772935495957236
Epoch: 33800, Error: 0.0027271787058959344
Epoch: 33900, Error: 0.0027069713668440706
Epoch: 34000, Error: 0.002695463655788529
Epoch: 34100, Error: 0.0026510497645832625
Epoch: 34200, Error: 0.00265554557302197
Epoch: 34300, Error: 0.002620577947292189
Epoch: 34400, Error: 0.002584655150127917
Epoch: 34500, Error: 0.0025778298798565407
Epoch: 34600, Error: 0.002570067095686241
Epoch: 34700, Error: 0.002545220054218471
Epoch: 34800, Error: 0.002532343624588256
Epoch: 34900, Error: 0.002575012300606246
Epoch: 35000, Error: 0.0025385885960285772
Epoch: 35100, Error: 0.0025171529823078734
Epoch: 35200, Error: 0.002496759849256693
Epoch: 35300, Error: 0.002495508520477661
Epoch: 35400, Error: 0.0024847376691074373
Epoch: 35500, Error: 0.002422868558234521
Epoch: 35600, Error: 0.00242392967086474
Epoch: 35700, Error: 0.00241707754355059
Epoch: 35800, Error: 0.0023800015835482493
Epoch: 35900, Error: 0.002473969067780309
Epoch: 36000, Error: 0.0023676592432242036
Epoch: 36100, Error: 0.002349179310508365
Epoch: 36200, Error: 0.0023484698302807675
Epoch: 36300, Error: 0.0023726744311665217
Epoch: 36400, Error: 0.0023545646457730184
Epoch: 36500, Error: 0.002282751487196921
Epoch: 36600, Error: 0.0022800390791314407
Epoch: 36700, Error: 0.0022851003819419555
Epoch: 36800, Error: 0.0022478730025079306
Epoch: 36900, Error: 0.0022411503869754976
Epoch: 37000, Error: 0.0025438828071289396
Epoch: 37100, Error: 0.002203099131860162
Epoch: 37200, Error: 0.002249596310827347
Epoch: 37300, Error: 0.002207675626733477
Epoch: 37400, Error: 0.0021656968046991545
Epoch: 37500, Error: 0.0022074650174021574
Epoch: 37600, Error: 0.002150239763015686
Epoch: 37700, Error: 0.002140712998049937
Epoch: 37800, Error: 0.0021499240693205273
Epoch: 37900, Error: 0.0021291759717368274
Epoch: 38000, Error: 0.002200597547528436
Epoch: 38100, Error: 0.0021323596504514864
Epoch: 38200, Error: 0.0021113579293130227
Epoch: 38300, Error: 0.002080907702913766
Epoch: 38400, Error: 0.002076932372777154
Epoch: 38500, Error: 0.002073549463775633
Epoch: 38600, Error: 0.002083173212734673
Epoch: 38700, Error: 0.0020690344157785617
Epoch: 38800, Error: 0.002043544390358715
Epoch: 38900, Error: 0.0020553165063989464
Epoch: 39000, Error: 0.002034827235425417
Epoch: 39100, Error: 0.002033071069068176
Epoch: 39200, Error: 0.0020087804950622476
Epoch: 39300, Error: 0.002019062930131833
Epoch: 39400, Error: 0.0020263118742078735
Epoch: 39500, Error: 0.0020400710942487495
Epoch: 39600, Error: 0.00198131166486983
Epoch: 39700, Error: 0.0020119946556881093
Epoch: 39800, Error: 0.002016803232837854
Epoch: 39900, Error: 0.0019475761297582971
Epoch: 40000, Error: 0.001955255851729336
Epoch: 40100, Error: 0.0019365788701038997
Epoch: 40200, Error: 0.001927228320196897
Epoch: 40300, Error: 0.001960157509040655
Epoch: 40400, Error: 0.0019239965318621007
Epoch: 40500, Error: 0.0019133964399605057
Epoch: 40600, Error: 0.0018930571691092536
Epoch: 40700, Error: 0.0018970222554366087
Epoch: 40800, Error: 0.0018798702534660015
Epoch: 40900, Error: 0.0018693522636844255
Epoch: 41000, Error: 0.0019156448307574962
Epoch: 41100, Error: 0.0019076505833719394
Epoch: 41200, Error: 0.001857950567495031
Epoch: 41300, Error: 0.0018500747282520727
Epoch: 41400, Error: 0.0018354467163752184
Epoch: 41500, Error: 0.0018295257833919588
Epoch: 41600, Error: 0.001822828812727865
Epoch: 41700, Error: 0.001821275586613527
Epoch: 41800, Error: 0.0018978658747108162
Epoch: 41900, Error: 0.0018142833085903376
Epoch: 42000, Error: 0.0018012346996549493
Epoch: 42100, Error: 0.0017806273082479772
Epoch: 42200, Error: 0.001808986793568715
Epoch: 42300, Error: 0.0018013638558910096
Epoch: 42400, Error: 0.0018100209629961924
Epoch: 42500, Error: 0.001777724271887402
Epoch: 42600, Error: 0.0017708203786467864
Epoch: 42700, Error: 0.0017948033590533612
Epoch: 42800, Error: 0.0017562179944589447
Epoch: 42900, Error: 0.001772133209883671
Epoch: 43000, Error: 0.001766327245253177
Epoch: 43100, Error: 0.0017717066707571792
Epoch: 43200, Error: 0.0017348186154433286
Epoch: 43300, Error: 0.001728783975747
Epoch: 43400, Error: 0.0017271502434008507
Epoch: 43500, Error: 0.0017640584001436307
Epoch: 43600, Error: 0.0017296619853572673
Epoch: 43700, Error: 0.001715446685408066
Epoch: 43800, Error: 0.001765696585547259
Epoch: 43900, Error: 0.0017345843561105553
Epoch: 44000, Error: 0.0017186861673765207
Epoch: 44100, Error: 0.001708749928700026
Epoch: 44200, Error: 0.001700822806466024
Epoch: 44300, Error: 0.0016965448884131947
Epoch: 44400, Error: 0.0016868786364721586
Epoch: 44500, Error: 0.0016952664810257767
Epoch: 44600, Error: 0.0016828637959274272
Epoch: 44700, Error: 0.0017092838095098537
Epoch: 44800, Error: 0.001692900841173957
Epoch: 44900, Error: 0.0016933735390798031
Epoch: 45000, Error: 0.0016792554354128483
Epoch: 45100, Error: 0.001684771673994476
Epoch: 45200, Error: 0.0017878872521328623
Epoch: 45300, Error: 0.0016669338761622387
Epoch: 45400, Error: 0.0016545164496693861
Epoch: 45500, Error: 0.001676293385684773
Epoch: 45600, Error: 0.0016908113245506678
Epoch: 45700, Error: 0.0016731579866087936
Epoch: 45800, Error: 0.0016564520198420478
Epoch: 45900, Error: 0.001662694589890615
Epoch: 46000, Error: 0.0016523270102641301
Epoch: 46100, Error: 0.0016668459221471819
Epoch: 46200, Error: 0.0016442874534147523
Finished
