Input Patterns
0.224 0.624 0.067 0.043 
0.11 0.502 0.051 0.043 
0.196 0.667 0.067 0.043 
0.055 0.584 0.067 0.082 
0.027 0.376 0.067 0.043 
0.306 0.71 0.086 0.043 
0.137 0.416 0.067 0.0 
0.416 0.831 0.035 0.043 
0.306 0.792 0.051 0.125 
0.388 0.749 0.118 0.082 
0.306 0.584 0.118 0.043 
0.082 0.667 0.0 0.043 
0.137 0.584 0.153 0.043 
0.196 0.584 0.102 0.125 
0.251 0.584 0.067 0.043 
0.137 0.459 0.102 0.043 
0.251 0.875 0.086 0.0 
0.165 0.459 0.086 0.043 
0.333 0.624 0.051 0.043 
0.027 0.416 0.051 0.043 
0.196 0.624 0.051 0.082 
0.027 0.502 0.051 0.043 
0.224 0.749 0.153 0.125 
0.224 0.749 0.102 0.043 
0.278 0.71 0.086 0.043 
0.165 0.416 0.067 0.043 
0.082 0.459 0.086 0.043 
0.306 0.792 0.118 0.125 
0.196 0.584 0.086 0.043 
0.165 0.459 0.086 0.0 
0.137 0.584 0.102 0.043 
0.0 0.416 0.016 0.0 
0.388 1.0 0.086 0.125 
0.224 0.624 0.067 0.082 
0.224 0.749 0.086 0.082 
0.224 0.71 0.086 0.125 
0.224 0.541 0.118 0.165 
0.196 0.416 0.102 0.043 
0.251 0.624 0.086 0.043 
0.11 0.502 0.102 0.043 
0.306 0.584 0.086 0.125 
0.333 0.918 0.067 0.043 
0.196 0.502 0.035 0.043 
0.165 0.667 0.067 0.0 
0.224 0.584 0.086 0.043 
0.055 0.125 0.051 0.082 
0.196 0.624 0.102 0.208 
0.137 0.416 0.067 0.082 
0.082 0.502 0.067 0.043 
0.196 0.541 0.067 0.043 
0.749 0.502 0.627 0.541 
0.722 0.459 0.663 0.584 
0.612 0.333 0.612 0.584 
0.557 0.541 0.627 0.624 
0.639 0.376 0.612 0.498 
0.196 0.0 0.424 0.376 
0.471 0.082 0.51 0.376 
0.361 0.376 0.439 0.498 
0.361 0.416 0.592 0.584 
0.529 0.082 0.592 0.584 
0.443 0.502 0.643 0.459 
0.557 0.208 0.663 0.584 
0.584 0.376 0.561 0.498 
0.694 0.333 0.643 0.541 
0.471 0.376 0.592 0.584 
0.333 0.169 0.475 0.416 
0.416 0.29 0.49 0.459 
0.306 0.416 0.592 0.584 
0.667 0.459 0.627 0.584 
0.361 0.416 0.525 0.498 
0.333 0.251 0.576 0.459 
0.416 0.251 0.51 0.459 
0.361 0.29 0.541 0.498 
0.388 0.376 0.541 0.498 
0.224 0.208 0.337 0.416 
0.584 0.502 0.592 0.584 
0.333 0.125 0.51 0.498 
0.388 0.333 0.592 0.498 
0.165 0.169 0.388 0.376 
0.251 0.29 0.49 0.541 
0.443 0.416 0.541 0.584 
0.498 0.376 0.627 0.541 
0.667 0.459 0.576 0.541 
0.416 0.29 0.525 0.376 
0.361 0.208 0.49 0.416 
0.498 0.333 0.51 0.498 
0.498 0.333 0.627 0.459 
0.639 0.416 0.576 0.541 
0.667 0.416 0.678 0.667 
0.388 0.251 0.424 0.376 
0.333 0.169 0.459 0.376 
0.471 0.29 0.694 0.624 
0.471 0.584 0.592 0.624 
0.557 0.125 0.576 0.498 
0.333 0.208 0.51 0.498 
0.498 0.416 0.612 0.541 
0.196 0.125 0.388 0.376 
0.388 0.416 0.541 0.459 
0.529 0.376 0.561 0.498 
0.388 0.333 0.525 0.498 
0.557 0.541 0.847 1.0 
0.776 0.416 0.831 0.831 
0.612 0.416 0.812 0.875 
0.165 0.208 0.592 0.667 
0.667 0.208 0.812 0.71 
0.612 0.502 0.694 0.792 
0.694 0.416 0.761 0.831 
0.416 0.333 0.694 0.957 
0.612 0.416 0.761 0.71 
0.945 0.251 1.0 0.918 
0.722 0.502 0.796 0.918 
0.945 0.333 0.965 0.792 
0.667 0.541 0.796 0.831 
0.529 0.333 0.643 0.71 
0.584 0.333 0.78 0.831 
0.863 0.333 0.863 0.749 
0.584 0.333 0.78 0.875 
0.498 0.251 0.78 0.541 
0.557 0.584 0.78 0.957 
0.471 0.416 0.643 0.71 
0.667 0.459 0.78 0.957 
0.416 0.29 0.694 0.749 
0.667 0.541 0.796 1.0 
0.557 0.208 0.678 0.749 
0.529 0.584 0.745 0.918 
0.416 0.29 0.694 0.749 
0.557 0.376 0.78 0.71 
0.918 0.416 0.949 0.831 
0.835 0.376 0.898 0.71 
0.804 0.667 0.863 1.0 
0.584 0.29 0.729 0.749 
0.388 0.208 0.678 0.792 
0.584 0.502 0.729 0.918 
0.945 0.749 0.965 0.875 
0.471 0.082 0.678 0.584 
0.361 0.333 0.663 0.792 
0.557 0.29 0.663 0.71 
0.804 0.502 0.847 0.71 
0.498 0.416 0.51 0.71 
0.804 0.416 0.812 0.624 
1.0 0.749 0.914 0.792 
0.557 0.333 0.694 0.584 
0.945 0.416 0.863 0.918 
0.584 0.459 0.761 0.71 
0.722 0.459 0.745 0.831 
0.722 0.459 0.694 0.918 
0.694 0.502 0.831 0.918 
0.667 0.416 0.714 0.918 
0.612 0.416 0.714 0.792 
0.443 0.416 0.694 0.71 
Teaching Patterns
1.0 0.0 0.0 
1.0 0.0 0.0 
1.0 0.0 0.0 
1.0 0.0 0.0 
1.0 0.0 0.0 
1.0 0.0 0.0 
1.0 0.0 0.0 
1.0 0.0 0.0 
1.0 0.0 0.0 
1.0 0.0 0.0 
1.0 0.0 0.0 
1.0 0.0 0.0 
1.0 0.0 0.0 
1.0 0.0 0.0 
1.0 0.0 0.0 
1.0 0.0 0.0 
1.0 0.0 0.0 
1.0 0.0 0.0 
1.0 0.0 0.0 
1.0 0.0 0.0 
1.0 0.0 0.0 
1.0 0.0 0.0 
1.0 0.0 0.0 
1.0 0.0 0.0 
1.0 0.0 0.0 
1.0 0.0 0.0 
1.0 0.0 0.0 
1.0 0.0 0.0 
1.0 0.0 0.0 
1.0 0.0 0.0 
1.0 0.0 0.0 
1.0 0.0 0.0 
1.0 0.0 0.0 
1.0 0.0 0.0 
1.0 0.0 0.0 
1.0 0.0 0.0 
1.0 0.0 0.0 
1.0 0.0 0.0 
1.0 0.0 0.0 
1.0 0.0 0.0 
1.0 0.0 0.0 
1.0 0.0 0.0 
1.0 0.0 0.0 
1.0 0.0 0.0 
1.0 0.0 0.0 
1.0 0.0 0.0 
1.0 0.0 0.0 
1.0 0.0 0.0 
1.0 0.0 0.0 
1.0 0.0 0.0 
0.0 1.0 0.0 
0.0 1.0 0.0 
0.0 1.0 0.0 
0.0 1.0 0.0 
0.0 1.0 0.0 
0.0 1.0 0.0 
0.0 1.0 0.0 
0.0 1.0 0.0 
0.0 1.0 0.0 
0.0 1.0 0.0 
0.0 1.0 0.0 
0.0 1.0 0.0 
0.0 1.0 0.0 
0.0 1.0 0.0 
0.0 1.0 0.0 
0.0 1.0 0.0 
0.0 1.0 0.0 
0.0 1.0 0.0 
0.0 1.0 0.0 
0.0 1.0 0.0 
0.0 1.0 0.0 
0.0 1.0 0.0 
0.0 1.0 0.0 
0.0 1.0 0.0 
0.0 1.0 0.0 
0.0 1.0 0.0 
0.0 1.0 0.0 
0.0 1.0 0.0 
0.0 1.0 0.0 
0.0 1.0 0.0 
0.0 1.0 0.0 
0.0 1.0 0.0 
0.0 1.0 0.0 
0.0 1.0 0.0 
0.0 1.0 0.0 
0.0 1.0 0.0 
0.0 1.0 0.0 
0.0 1.0 0.0 
0.0 1.0 0.0 
0.0 1.0 0.0 
0.0 1.0 0.0 
0.0 1.0 0.0 
0.0 1.0 0.0 
0.0 1.0 0.0 
0.0 1.0 0.0 
0.0 1.0 0.0 
0.0 1.0 0.0 
0.0 1.0 0.0 
0.0 1.0 0.0 
0.0 1.0 0.0 
0.0 0.0 1.0 
0.0 0.0 1.0 
0.0 0.0 1.0 
0.0 0.0 1.0 
0.0 0.0 1.0 
0.0 0.0 1.0 
0.0 0.0 1.0 
0.0 0.0 1.0 
0.0 0.0 1.0 
0.0 0.0 1.0 
0.0 0.0 1.0 
0.0 0.0 1.0 
0.0 0.0 1.0 
0.0 0.0 1.0 
0.0 0.0 1.0 
0.0 0.0 1.0 
0.0 0.0 1.0 
0.0 0.0 1.0 
0.0 0.0 1.0 
0.0 0.0 1.0 
0.0 0.0 1.0 
0.0 0.0 1.0 
0.0 0.0 1.0 
0.0 0.0 1.0 
0.0 0.0 1.0 
0.0 0.0 1.0 
0.0 0.0 1.0 
0.0 0.0 1.0 
0.0 0.0 1.0 
0.0 0.0 1.0 
0.0 0.0 1.0 
0.0 0.0 1.0 
0.0 0.0 1.0 
0.0 0.0 1.0 
0.0 0.0 1.0 
0.0 0.0 1.0 
0.0 0.0 1.0 
0.0 0.0 1.0 
0.0 0.0 1.0 
0.0 0.0 1.0 
0.0 0.0 1.0 
0.0 0.0 1.0 
0.0 0.0 1.0 
0.0 0.0 1.0 
0.0 0.0 1.0 
0.0 0.0 1.0 
0.0 0.0 1.0 
0.0 0.0 1.0 
0.0 0.0 1.0 
0.0 0.0 1.0 
Learning : 0.05
Momentum : 0.6000000238418579
Epoch: 100, Error: 0.047077666380599605
Epoch: 200, Error: 0.019879209762643887
Epoch: 300, Error: 0.01599606449713444
Epoch: 400, Error: 0.014803048694175492
Epoch: 500, Error: 0.013968479460564263
Epoch: 600, Error: 0.01333607815739609
Epoch: 700, Error: 0.01300507911749044
Epoch: 800, Error: 0.012785736714669904
Epoch: 900, Error: 0.012647008726132013
Epoch: 1000, Error: 0.01254403990664143
Epoch: 1100, Error: 0.012424145130672023
Epoch: 1200, Error: 0.012376596642491296
Epoch: 1300, Error: 0.012285114302500287
Epoch: 1400, Error: 0.012299420903901832
Epoch: 1500, Error: 0.012198926717839943
Epoch: 1600, Error: 0.012161048662727244
Epoch: 1700, Error: 0.01214981890551465
Epoch: 1800, Error: 0.012133427784365491
Epoch: 1900, Error: 0.012093223578953054
Epoch: 2000, Error: 0.012083213582444739
Epoch: 2100, Error: 0.01205083673903508
Epoch: 2200, Error: 0.012048833277602925
Epoch: 2300, Error: 0.012037116554808415
Epoch: 2400, Error: 0.012132067512730785
Epoch: 2500, Error: 0.012012798174669796
Epoch: 2600, Error: 0.01202813530317301
Epoch: 2700, Error: 0.012040735347330743
Epoch: 2800, Error: 0.012044755256740113
Epoch: 2900, Error: 0.012027970532627495
Epoch: 3000, Error: 0.012012932607981633
Epoch: 3100, Error: 0.012021490893953529
Epoch: 3200, Error: 0.0120083342605455
Epoch: 3300, Error: 0.01201773567542979
Epoch: 3400, Error: 0.011968105744724416
Epoch: 3500, Error: 0.0119996908519491
Epoch: 3600, Error: 0.011976278706139052
Epoch: 3700, Error: 0.012003456037418203
Epoch: 3800, Error: 0.012032318458233621
Epoch: 3900, Error: 0.012029596490569377
Epoch: 4000, Error: 0.011967577238578206
Epoch: 4100, Error: 0.011973766780686644
Epoch: 4200, Error: 0.0120167883184088
Epoch: 4300, Error: 0.01197404311857202
Epoch: 4400, Error: 0.012094092064272777
Epoch: 4500, Error: 0.012099012274411536
Epoch: 4600, Error: 0.011958205811870308
Epoch: 4700, Error: 0.011977970127485053
Epoch: 4800, Error: 0.012040540948379372
Epoch: 4900, Error: 0.011973048493411782
Epoch: 5000, Error: 0.011959206529733639
Epoch: 5100, Error: 0.01193758844035313
Epoch: 5200, Error: 0.011988443714556691
Epoch: 5300, Error: 0.012103703958319332
Epoch: 5400, Error: 0.011961756024478068
Epoch: 5500, Error: 0.011951761290303604
Epoch: 5600, Error: 0.01192862187470501
Epoch: 5700, Error: 0.012028167577401187
Epoch: 5800, Error: 0.011937104385565209
Epoch: 5900, Error: 0.011947436601981281
Epoch: 6000, Error: 0.011933373119979255
Epoch: 6100, Error: 0.011893499236669535
Epoch: 6200, Error: 0.011925587461796736
Epoch: 6300, Error: 0.011899655308604989
Epoch: 6400, Error: 0.011911420690359298
Epoch: 6500, Error: 0.011889249787347919
Epoch: 6600, Error: 0.011891423210350398
Epoch: 6700, Error: 0.011943355685670088
Epoch: 6800, Error: 0.011864969976972502
Epoch: 6900, Error: 0.011867437977901327
Epoch: 7000, Error: 0.011845367298979538
Epoch: 7100, Error: 0.011878450643981853
Epoch: 7200, Error: 0.01183064944201445
Epoch: 7300, Error: 0.01183561269175134
Epoch: 7400, Error: 0.011806085787538056
Epoch: 7500, Error: 0.011808239629500648
Epoch: 7600, Error: 0.011808645061525338
Epoch: 7700, Error: 0.011786497960345999
Epoch: 7800, Error: 0.01179498544792617
Epoch: 7900, Error: 0.01187060890908916
Epoch: 8000, Error: 0.011835497244722751
Epoch: 8100, Error: 0.011721602137983114
Epoch: 8200, Error: 0.011719640203657681
Epoch: 8300, Error: 0.011674951250578616
Epoch: 8400, Error: 0.011645728805702098
Epoch: 8500, Error: 0.011714839388967441
Epoch: 8600, Error: 0.011709360317506233
Epoch: 8700, Error: 0.01162490475019962
Epoch: 8800, Error: 0.011614554766592997
Epoch: 8900, Error: 0.011607169425247886
Epoch: 9000, Error: 0.011667444181621765
Epoch: 9100, Error: 0.011580923133140186
Epoch: 9200, Error: 0.011495173940744167
Epoch: 9300, Error: 0.011522444820972881
Epoch: 9400, Error: 0.01150704040281872
Epoch: 9500, Error: 0.011402899598853058
Epoch: 9600, Error: 0.01142661533088742
Epoch: 9700, Error: 0.011327133862349851
Epoch: 9800, Error: 0.011296119547908837
Epoch: 9900, Error: 0.011354326059517448
Epoch: 10000, Error: 0.011205254265695448
Epoch: 10100, Error: 0.011159078535764942
Epoch: 10200, Error: 0.011181984075303408
Epoch: 10300, Error: 0.011089508857415156
Epoch: 10400, Error: 0.011040663435790982
Epoch: 10500, Error: 0.010980636607451516
Epoch: 10600, Error: 0.010923047272551212
Epoch: 10700, Error: 0.010875670356066286
Epoch: 10800, Error: 0.010765224320029385
Epoch: 10900, Error: 0.010763267420405793
Epoch: 11000, Error: 0.010777776100894589
Epoch: 11100, Error: 0.010520646804796705
Epoch: 11200, Error: 0.010426082918206995
Epoch: 11300, Error: 0.01030406938003074
Epoch: 11400, Error: 0.010374932930011082
Epoch: 11500, Error: 0.010122644433897538
Epoch: 11600, Error: 0.009968113156643697
Epoch: 11700, Error: 0.009812115473803198
Epoch: 11800, Error: 0.009685688436841032
Epoch: 11900, Error: 0.009582688303450921
Epoch: 12000, Error: 0.009387420548372464
Epoch: 12100, Error: 0.009252797133812649
Epoch: 12200, Error: 0.009089555294981287
Epoch: 12300, Error: 0.008936153047285268
Epoch: 12400, Error: 0.008804736891559223
Epoch: 12500, Error: 0.008639926106567759
Epoch: 12600, Error: 0.008522788167900015
Epoch: 12700, Error: 0.00834338383756192
Epoch: 12800, Error: 0.0081997178608136
Epoch: 12900, Error: 0.008109138587221811
Epoch: 13000, Error: 0.007976810792389398
Epoch: 13100, Error: 0.007814483885199825
Epoch: 13200, Error: 0.007667986715657277
Epoch: 13300, Error: 0.007562305262173423
Epoch: 13400, Error: 0.0074478573672806065
Epoch: 13500, Error: 0.007362859710787914
Epoch: 13600, Error: 0.007241035638248376
Epoch: 13700, Error: 0.007153345161297007
Epoch: 13800, Error: 0.007066260268654786
Epoch: 13900, Error: 0.006973787654420177
Epoch: 14000, Error: 0.006897993793076416
Epoch: 14100, Error: 0.0068208770889298725
Epoch: 14200, Error: 0.0067413557581536545
Epoch: 14300, Error: 0.006675726460365661
Epoch: 14400, Error: 0.006614166527459513
Epoch: 14500, Error: 0.006564303513605842
Epoch: 14600, Error: 0.006525321637170454
Epoch: 14700, Error: 0.006498410858609491
Epoch: 14800, Error: 0.006447734069406242
Epoch: 14900, Error: 0.006424432844713909
Epoch: 15000, Error: 0.006364956679068766
Epoch: 15100, Error: 0.006325741816419303
Epoch: 15200, Error: 0.006289121162703431
Epoch: 15300, Error: 0.006265541636268943
Epoch: 15400, Error: 0.006239238294215006
Epoch: 15500, Error: 0.006225311281318407
Epoch: 15600, Error: 0.006199886209210246
Epoch: 15700, Error: 0.0061764167439371685
Epoch: 15800, Error: 0.006152752204913989
Epoch: 15900, Error: 0.006145283068902183
Epoch: 16000, Error: 0.00609348143017041
Epoch: 16100, Error: 0.006094509843882495
Epoch: 16200, Error: 0.006050521881956039
Epoch: 16300, Error: 0.00602869152652636
Epoch: 16400, Error: 0.006013925206931266
Epoch: 16500, Error: 0.005972209439938451
Epoch: 16600, Error: 0.005956613482033216
Epoch: 16700, Error: 0.00601035461314201
Epoch: 16800, Error: 0.0058914659657279935
Epoch: 16900, Error: 0.005864608523492815
Epoch: 17000, Error: 0.005865165715004767
Epoch: 17100, Error: 0.0058461095220388275
Epoch: 17200, Error: 0.005805685030358217
Epoch: 17300, Error: 0.00579685419636355
Epoch: 17400, Error: 0.005756079077162047
Epoch: 17500, Error: 0.005715329764138032
Epoch: 17600, Error: 0.005689241437359179
Epoch: 17700, Error: 0.005681964272960285
Epoch: 17800, Error: 0.005636001113643943
Epoch: 17900, Error: 0.005646295785759468
Epoch: 18000, Error: 0.0056083646296741585
Epoch: 18100, Error: 0.005535646170875312
Epoch: 18200, Error: 0.0055026812435706035
Epoch: 18300, Error: 0.005485007904175277
Epoch: 18400, Error: 0.005454606448440401
Epoch: 18500, Error: 0.005464559193264337
Epoch: 18600, Error: 0.005416181077652234
Epoch: 18700, Error: 0.005389186908644785
Epoch: 18800, Error: 0.005376007140680474
Epoch: 18900, Error: 0.005338777062077048
Epoch: 19000, Error: 0.005327649493777023
Epoch: 19100, Error: 0.005295329485712049
Epoch: 19200, Error: 0.005299788237920381
Epoch: 19300, Error: 0.005238270375439073
Epoch: 19400, Error: 0.005230799618435901
Epoch: 19500, Error: 0.0052045749917167565
Epoch: 19600, Error: 0.005177100593620046
Epoch: 19700, Error: 0.005173452326504512
Epoch: 19800, Error: 0.005127206522063148
Epoch: 19900, Error: 0.005106477884489121
Epoch: 20000, Error: 0.005105790233304228
Epoch: 20100, Error: 0.0050767178841030864
Epoch: 20200, Error: 0.005080028582530826
Epoch: 20300, Error: 0.005039199220329062
Epoch: 20400, Error: 0.0050069512657594925
Epoch: 20500, Error: 0.004998210790452704
Epoch: 20600, Error: 0.004993523582927499
Epoch: 20700, Error: 0.004934727716400247
Epoch: 20800, Error: 0.004956984067990984
Epoch: 20900, Error: 0.0049143770822550744
Epoch: 21000, Error: 0.004868243611644322
Epoch: 21100, Error: 0.004852501994399227
Epoch: 21200, Error: 0.004825596735081344
Epoch: 21300, Error: 0.004815498717532861
Epoch: 21400, Error: 0.00478757229338218
Epoch: 21500, Error: 0.004768280640408663
Epoch: 21600, Error: 0.004735655898719033
Epoch: 21700, Error: 0.004718847486182925
Epoch: 21800, Error: 0.004746489974043828
Epoch: 21900, Error: 0.004687537910367745
Epoch: 22000, Error: 0.004712326087821924
Epoch: 22100, Error: 0.004642287435332948
Epoch: 22200, Error: 0.004653897715866781
Epoch: 22300, Error: 0.004645732089194115
Epoch: 22400, Error: 0.004586053486029647
Epoch: 22500, Error: 0.004568656249375756
Epoch: 22600, Error: 0.004574129809455083
Epoch: 22700, Error: 0.004544275596826438
Epoch: 22800, Error: 0.004539342826927225
Epoch: 22900, Error: 0.004518577619719077
Epoch: 23000, Error: 0.004500278541118077
Epoch: 23100, Error: 0.004465166345215154
Epoch: 23200, Error: 0.0044444199723368254
Epoch: 23300, Error: 0.004445402323028765
Epoch: 23400, Error: 0.0044040084154658475
Epoch: 23500, Error: 0.00443469066807836
Epoch: 23600, Error: 0.004379241725928276
Epoch: 23700, Error: 0.004354958797726582
Epoch: 23800, Error: 0.0043344881424638125
Epoch: 23900, Error: 0.004340723134421188
Epoch: 24000, Error: 0.004299753702016097
Epoch: 24100, Error: 0.004285136937879322
Epoch: 24200, Error: 0.004259797126398047
Epoch: 24300, Error: 0.004245981038842391
Epoch: 24400, Error: 0.00422491868967652
Epoch: 24500, Error: 0.004216521120941217
Epoch: 24600, Error: 0.004199222116939562
Epoch: 24700, Error: 0.004177038929693132
Epoch: 24800, Error: 0.0041749558499835455
Epoch: 24900, Error: 0.004137656508401723
Epoch: 25000, Error: 0.004174830731279106
Epoch: 25100, Error: 0.004094701763660527
Epoch: 25200, Error: 0.0042212015563393105
Epoch: 25300, Error: 0.004092489744485798
Epoch: 25400, Error: 0.004036307500210777
Epoch: 25500, Error: 0.004020825010945877
Epoch: 25600, Error: 0.004001738842037066
Epoch: 25700, Error: 0.003981731978127778
Epoch: 25800, Error: 0.003972397684788911
Epoch: 25900, Error: 0.003949121479997684
Epoch: 26000, Error: 0.003928603908296445
Epoch: 26100, Error: 0.003947317976427511
Epoch: 26200, Error: 0.0039050724733001303
Epoch: 26300, Error: 0.003924422857554348
Epoch: 26400, Error: 0.003874775755763382
Epoch: 26500, Error: 0.003886658440856828
Epoch: 26600, Error: 0.003868424855326329
Epoch: 26700, Error: 0.0038351863626027013
Epoch: 26800, Error: 0.003857433744982804
Epoch: 26900, Error: 0.0038240779992528267
Epoch: 27000, Error: 0.003783072502563805
Epoch: 27100, Error: 0.0037697308832238675
Epoch: 27200, Error: 0.0037837431625915396
Epoch: 27300, Error: 0.0037506802138585617
Epoch: 27400, Error: 0.003736701233079446
Epoch: 27500, Error: 0.0037227950448037975
Epoch: 27600, Error: 0.00371154484557941
Epoch: 27700, Error: 0.0036890910824675057
Epoch: 27800, Error: 0.0037229442779103633
Epoch: 27900, Error: 0.0036823722769908553
Epoch: 28000, Error: 0.0036934684560295445
Epoch: 28100, Error: 0.0037126018763396517
Epoch: 28200, Error: 0.0036913340054615194
Epoch: 28300, Error: 0.003669242873180984
Epoch: 28400, Error: 0.0036577881470185297
Epoch: 28500, Error: 0.0036517141811452675
Epoch: 28600, Error: 0.0036245200229419227
Epoch: 28700, Error: 0.00360778134048117
Epoch: 28800, Error: 0.003592958155057501
Epoch: 28900, Error: 0.003566160675462513
Epoch: 29000, Error: 0.0036121194856774115
Epoch: 29100, Error: 0.003550674242752225
Epoch: 29200, Error: 0.003579132418073468
Epoch: 29300, Error: 0.003559313323131387
Epoch: 29400, Error: 0.003512967862838605
Epoch: 29500, Error: 0.0036744609619241276
Epoch: 29600, Error: 0.0034951030312099715
Epoch: 29700, Error: 0.0035332942765637873
Epoch: 29800, Error: 0.003488159898023492
Epoch: 29900, Error: 0.0034624694768707535
Epoch: 30000, Error: 0.0034768658985893596
Epoch: 30100, Error: 0.0035053850493001804
Epoch: 30200, Error: 0.003465480207540926
Epoch: 30300, Error: 0.003433478502017584
Epoch: 30400, Error: 0.003427647962157296
Epoch: 30500, Error: 0.0034112741376846616
Epoch: 30600, Error: 0.0034320269994948215
Epoch: 30700, Error: 0.003395155603899922
Epoch: 30800, Error: 0.003356894170864557
Epoch: 30900, Error: 0.0034005535325615857
Epoch: 31000, Error: 0.0033101820207887497
Epoch: 31100, Error: 0.0033489112828135647
Epoch: 31200, Error: 0.003286574983114235
Epoch: 31300, Error: 0.0032889967651560876
Epoch: 31400, Error: 0.0033071094931006674
Epoch: 31500, Error: 0.003253415717140796
Epoch: 31600, Error: 0.0032363880707435627
Epoch: 31700, Error: 0.003175645206630043
Epoch: 31800, Error: 0.0031674819389456775
Epoch: 31900, Error: 0.0031747984200640026
Epoch: 32000, Error: 0.0031273522053038307
Epoch: 32100, Error: 0.0031105769496549375
Epoch: 32200, Error: 0.003079725030237532
Epoch: 32300, Error: 0.0031669938307863684
Epoch: 32400, Error: 0.0030436961137691415
Epoch: 32500, Error: 0.003051305009969803
Epoch: 32600, Error: 0.0030202658146064668
Epoch: 32700, Error: 0.0030344887085018584
Epoch: 32800, Error: 0.003065932227036035
Epoch: 32900, Error: 0.0029480519292652257
Epoch: 33000, Error: 0.0029421414884270884
Epoch: 33100, Error: 0.0029703337053309884
Epoch: 33200, Error: 0.0029297266481740237
Epoch: 33300, Error: 0.002882145027328051
Epoch: 33400, Error: 0.0028756927410352098
Epoch: 33500, Error: 0.002868711668640004
Epoch: 33600, Error: 0.0028401121477315376
Epoch: 33700, Error: 0.0028162353745614026
Epoch: 33800, Error: 0.002848329778732828
Epoch: 33900, Error: 0.0028058533293962777
Epoch: 34000, Error: 0.0027901968988186714
Epoch: 34100, Error: 0.002756933134020597
Epoch: 34200, Error: 0.002733224534971557
Epoch: 34300, Error: 0.0028413914420669212
Epoch: 34400, Error: 0.0027002478250466666
Epoch: 34500, Error: 0.0027880502668678805
Epoch: 34600, Error: 0.0026755119340506135
Epoch: 34700, Error: 0.002660117461343575
Epoch: 34800, Error: 0.0026364065004586632
Epoch: 34900, Error: 0.0026280656034521513
Epoch: 35000, Error: 0.0026223769675724606
Epoch: 35100, Error: 0.0026070457871707167
Epoch: 35200, Error: 0.0025795055360922203
Epoch: 35300, Error: 0.0025694425346766423
Epoch: 35400, Error: 0.002548599928983241
Epoch: 35500, Error: 0.0025308443846473647
Epoch: 35600, Error: 0.0025691438977296244
Epoch: 35700, Error: 0.0025482483968710884
Epoch: 35800, Error: 0.0024949313958849816
Epoch: 35900, Error: 0.002518339316510384
Epoch: 36000, Error: 0.00250196375654951
Epoch: 36100, Error: 0.002449413458080576
Epoch: 36200, Error: 0.002433258213022814
Epoch: 36300, Error: 0.0024331985355492526
Epoch: 36400, Error: 0.002409850744777015
Epoch: 36500, Error: 0.0024040008272364424
Epoch: 36600, Error: 0.0023889995268214373
Epoch: 36700, Error: 0.002385980966099453
Epoch: 36800, Error: 0.0023693695827490856
Epoch: 36900, Error: 0.002353323862264746
Epoch: 37000, Error: 0.0023499071969545543
Epoch: 37100, Error: 0.0023261563586288833
Epoch: 37200, Error: 0.0023418739003985213
Epoch: 37300, Error: 0.00239768379633786
Epoch: 37400, Error: 0.0023195095461238818
Epoch: 37500, Error: 0.002403567831568097
Epoch: 37600, Error: 0.0022527970622989164
Epoch: 37700, Error: 0.002270797637894671
Epoch: 37800, Error: 0.002228442287739882
Epoch: 37900, Error: 0.002246428055661535
Epoch: 38000, Error: 0.002223256869771494
Epoch: 38100, Error: 0.0022463179454218635
Epoch: 38200, Error: 0.002271532461921455
Epoch: 38300, Error: 0.0021945866321462304
Epoch: 38400, Error: 0.002162636924023873
Epoch: 38500, Error: 0.0021838635708813048
Epoch: 38600, Error: 0.002139314827906985
Epoch: 38700, Error: 0.0021279633646544985
Epoch: 38800, Error: 0.002123142552049177
Epoch: 38900, Error: 0.0021296094014584405
Epoch: 39000, Error: 0.0021386810472914953
Epoch: 39100, Error: 0.002098196714594725
Epoch: 39200, Error: 0.002086682379206732
Epoch: 39300, Error: 0.002074234628540169
Epoch: 39400, Error: 0.0021044361747928095
Epoch: 39500, Error: 0.0020717971963713166
Epoch: 39600, Error: 0.0020449014740115162
Epoch: 39700, Error: 0.002045977218745169
Epoch: 39800, Error: 0.0021224674840204134
Epoch: 39900, Error: 0.002023671322567123
Epoch: 40000, Error: 0.0020293941395700815
Epoch: 40100, Error: 0.002004204876835573
Epoch: 40200, Error: 0.002001324575902603
Epoch: 40300, Error: 0.0020104148664210858
Epoch: 40400, Error: 0.0020113311143759045
Epoch: 40500, Error: 0.001979152952118323
Epoch: 40600, Error: 0.001980556890420381
Epoch: 40700, Error: 0.0019677078747241143
Epoch: 40800, Error: 0.001958219107831243
Epoch: 40900, Error: 0.0019623480799333282
Epoch: 41000, Error: 0.0019580519525296196
Epoch: 41100, Error: 0.0019331009526537843
Epoch: 41200, Error: 0.0019938493958788443
Epoch: 41300, Error: 0.0019190484095001612
Epoch: 41400, Error: 0.0019452268165009697
Epoch: 41500, Error: 0.0019169839647158065
Epoch: 41600, Error: 0.001915744305108534
Epoch: 41700, Error: 0.0019049537438485407
Epoch: 41800, Error: 0.0019353521575271966
Epoch: 41900, Error: 0.00189534311213773
Epoch: 42000, Error: 0.001888538465914483
Epoch: 42100, Error: 0.0018811175991731684
Epoch: 42200, Error: 0.0018767298147858056
Epoch: 42300, Error: 0.0019103914445664522
Epoch: 42400, Error: 0.0018702617348779844
Epoch: 42500, Error: 0.0018939417442908513
Epoch: 42600, Error: 0.0018881894889843079
Epoch: 42700, Error: 0.0018761078343202588
Epoch: 42800, Error: 0.0018481076558980471
Epoch: 42900, Error: 0.001899478764433702
Epoch: 43000, Error: 0.0018347948180806677
Epoch: 43100, Error: 0.001837696952910101
Epoch: 43200, Error: 0.001834796207085831
Epoch: 43300, Error: 0.0018305767243517292
