Input Patterns
0.224 0.624 0.067 0.043 
0.11 0.502 0.051 0.043 
0.196 0.667 0.067 0.043 
0.055 0.584 0.067 0.082 
0.027 0.376 0.067 0.043 
0.306 0.71 0.086 0.043 
0.137 0.416 0.067 0.0 
0.416 0.831 0.035 0.043 
0.306 0.792 0.051 0.125 
0.388 0.749 0.118 0.082 
0.306 0.584 0.118 0.043 
0.082 0.667 0.0 0.043 
0.137 0.584 0.153 0.043 
0.196 0.584 0.102 0.125 
0.251 0.584 0.067 0.043 
0.137 0.459 0.102 0.043 
0.251 0.875 0.086 0.0 
0.165 0.459 0.086 0.043 
0.333 0.624 0.051 0.043 
0.027 0.416 0.051 0.043 
0.196 0.624 0.051 0.082 
0.027 0.502 0.051 0.043 
0.224 0.749 0.153 0.125 
0.224 0.749 0.102 0.043 
0.278 0.71 0.086 0.043 
0.165 0.416 0.067 0.043 
0.082 0.459 0.086 0.043 
0.306 0.792 0.118 0.125 
0.196 0.584 0.086 0.043 
0.165 0.459 0.086 0.0 
0.137 0.584 0.102 0.043 
0.0 0.416 0.016 0.0 
0.388 1.0 0.086 0.125 
0.224 0.624 0.067 0.082 
0.224 0.749 0.086 0.082 
0.224 0.71 0.086 0.125 
0.224 0.541 0.118 0.165 
0.196 0.416 0.102 0.043 
0.251 0.624 0.086 0.043 
0.11 0.502 0.102 0.043 
0.306 0.584 0.086 0.125 
0.333 0.918 0.067 0.043 
0.196 0.502 0.035 0.043 
0.165 0.667 0.067 0.0 
0.224 0.584 0.086 0.043 
0.055 0.125 0.051 0.082 
0.196 0.624 0.102 0.208 
0.137 0.416 0.067 0.082 
0.082 0.502 0.067 0.043 
0.196 0.541 0.067 0.043 
0.749 0.502 0.627 0.541 
0.722 0.459 0.663 0.584 
0.612 0.333 0.612 0.584 
0.557 0.541 0.627 0.624 
0.639 0.376 0.612 0.498 
0.196 0.0 0.424 0.376 
0.471 0.082 0.51 0.376 
0.361 0.376 0.439 0.498 
0.361 0.416 0.592 0.584 
0.529 0.082 0.592 0.584 
0.443 0.502 0.643 0.459 
0.557 0.208 0.663 0.584 
0.584 0.376 0.561 0.498 
0.694 0.333 0.643 0.541 
0.471 0.376 0.592 0.584 
0.333 0.169 0.475 0.416 
0.416 0.29 0.49 0.459 
0.306 0.416 0.592 0.584 
0.667 0.459 0.627 0.584 
0.361 0.416 0.525 0.498 
0.333 0.251 0.576 0.459 
0.416 0.251 0.51 0.459 
0.361 0.29 0.541 0.498 
0.388 0.376 0.541 0.498 
0.224 0.208 0.337 0.416 
0.584 0.502 0.592 0.584 
0.333 0.125 0.51 0.498 
0.388 0.333 0.592 0.498 
0.165 0.169 0.388 0.376 
0.251 0.29 0.49 0.541 
0.443 0.416 0.541 0.584 
0.498 0.376 0.627 0.541 
0.667 0.459 0.576 0.541 
0.416 0.29 0.525 0.376 
0.361 0.208 0.49 0.416 
0.498 0.333 0.51 0.498 
0.498 0.333 0.627 0.459 
0.639 0.416 0.576 0.541 
0.667 0.416 0.678 0.667 
0.388 0.251 0.424 0.376 
0.333 0.169 0.459 0.376 
0.471 0.29 0.694 0.624 
0.471 0.584 0.592 0.624 
0.557 0.125 0.576 0.498 
0.333 0.208 0.51 0.498 
0.498 0.416 0.612 0.541 
0.196 0.125 0.388 0.376 
0.388 0.416 0.541 0.459 
0.529 0.376 0.561 0.498 
0.388 0.333 0.525 0.498 
0.557 0.541 0.847 1.0 
0.776 0.416 0.831 0.831 
0.612 0.416 0.812 0.875 
0.165 0.208 0.592 0.667 
0.667 0.208 0.812 0.71 
0.612 0.502 0.694 0.792 
0.694 0.416 0.761 0.831 
0.416 0.333 0.694 0.957 
0.612 0.416 0.761 0.71 
0.945 0.251 1.0 0.918 
0.722 0.502 0.796 0.918 
0.945 0.333 0.965 0.792 
0.667 0.541 0.796 0.831 
0.529 0.333 0.643 0.71 
0.584 0.333 0.78 0.831 
0.863 0.333 0.863 0.749 
0.584 0.333 0.78 0.875 
0.498 0.251 0.78 0.541 
0.557 0.584 0.78 0.957 
0.471 0.416 0.643 0.71 
0.667 0.459 0.78 0.957 
0.416 0.29 0.694 0.749 
0.667 0.541 0.796 1.0 
0.557 0.208 0.678 0.749 
0.529 0.584 0.745 0.918 
0.416 0.29 0.694 0.749 
0.557 0.376 0.78 0.71 
0.918 0.416 0.949 0.831 
0.835 0.376 0.898 0.71 
0.804 0.667 0.863 1.0 
0.584 0.29 0.729 0.749 
0.388 0.208 0.678 0.792 
0.584 0.502 0.729 0.918 
0.945 0.749 0.965 0.875 
0.471 0.082 0.678 0.584 
0.361 0.333 0.663 0.792 
0.557 0.29 0.663 0.71 
0.804 0.502 0.847 0.71 
0.498 0.416 0.51 0.71 
0.804 0.416 0.812 0.624 
1.0 0.749 0.914 0.792 
0.557 0.333 0.694 0.584 
0.945 0.416 0.863 0.918 
0.584 0.459 0.761 0.71 
0.722 0.459 0.745 0.831 
0.722 0.459 0.694 0.918 
0.694 0.502 0.831 0.918 
0.667 0.416 0.714 0.918 
0.612 0.416 0.714 0.792 
0.443 0.416 0.694 0.71 
Teaching Patterns
1.0 0.0 0.0 
1.0 0.0 0.0 
1.0 0.0 0.0 
1.0 0.0 0.0 
1.0 0.0 0.0 
1.0 0.0 0.0 
1.0 0.0 0.0 
1.0 0.0 0.0 
1.0 0.0 0.0 
1.0 0.0 0.0 
1.0 0.0 0.0 
1.0 0.0 0.0 
1.0 0.0 0.0 
1.0 0.0 0.0 
1.0 0.0 0.0 
1.0 0.0 0.0 
1.0 0.0 0.0 
1.0 0.0 0.0 
1.0 0.0 0.0 
1.0 0.0 0.0 
1.0 0.0 0.0 
1.0 0.0 0.0 
1.0 0.0 0.0 
1.0 0.0 0.0 
1.0 0.0 0.0 
1.0 0.0 0.0 
1.0 0.0 0.0 
1.0 0.0 0.0 
1.0 0.0 0.0 
1.0 0.0 0.0 
1.0 0.0 0.0 
1.0 0.0 0.0 
1.0 0.0 0.0 
1.0 0.0 0.0 
1.0 0.0 0.0 
1.0 0.0 0.0 
1.0 0.0 0.0 
1.0 0.0 0.0 
1.0 0.0 0.0 
1.0 0.0 0.0 
1.0 0.0 0.0 
1.0 0.0 0.0 
1.0 0.0 0.0 
1.0 0.0 0.0 
1.0 0.0 0.0 
1.0 0.0 0.0 
1.0 0.0 0.0 
1.0 0.0 0.0 
1.0 0.0 0.0 
1.0 0.0 0.0 
0.0 1.0 0.0 
0.0 1.0 0.0 
0.0 1.0 0.0 
0.0 1.0 0.0 
0.0 1.0 0.0 
0.0 1.0 0.0 
0.0 1.0 0.0 
0.0 1.0 0.0 
0.0 1.0 0.0 
0.0 1.0 0.0 
0.0 1.0 0.0 
0.0 1.0 0.0 
0.0 1.0 0.0 
0.0 1.0 0.0 
0.0 1.0 0.0 
0.0 1.0 0.0 
0.0 1.0 0.0 
0.0 1.0 0.0 
0.0 1.0 0.0 
0.0 1.0 0.0 
0.0 1.0 0.0 
0.0 1.0 0.0 
0.0 1.0 0.0 
0.0 1.0 0.0 
0.0 1.0 0.0 
0.0 1.0 0.0 
0.0 1.0 0.0 
0.0 1.0 0.0 
0.0 1.0 0.0 
0.0 1.0 0.0 
0.0 1.0 0.0 
0.0 1.0 0.0 
0.0 1.0 0.0 
0.0 1.0 0.0 
0.0 1.0 0.0 
0.0 1.0 0.0 
0.0 1.0 0.0 
0.0 1.0 0.0 
0.0 1.0 0.0 
0.0 1.0 0.0 
0.0 1.0 0.0 
0.0 1.0 0.0 
0.0 1.0 0.0 
0.0 1.0 0.0 
0.0 1.0 0.0 
0.0 1.0 0.0 
0.0 1.0 0.0 
0.0 1.0 0.0 
0.0 1.0 0.0 
0.0 1.0 0.0 
0.0 0.0 1.0 
0.0 0.0 1.0 
0.0 0.0 1.0 
0.0 0.0 1.0 
0.0 0.0 1.0 
0.0 0.0 1.0 
0.0 0.0 1.0 
0.0 0.0 1.0 
0.0 0.0 1.0 
0.0 0.0 1.0 
0.0 0.0 1.0 
0.0 0.0 1.0 
0.0 0.0 1.0 
0.0 0.0 1.0 
0.0 0.0 1.0 
0.0 0.0 1.0 
0.0 0.0 1.0 
0.0 0.0 1.0 
0.0 0.0 1.0 
0.0 0.0 1.0 
0.0 0.0 1.0 
0.0 0.0 1.0 
0.0 0.0 1.0 
0.0 0.0 1.0 
0.0 0.0 1.0 
0.0 0.0 1.0 
0.0 0.0 1.0 
0.0 0.0 1.0 
0.0 0.0 1.0 
0.0 0.0 1.0 
0.0 0.0 1.0 
0.0 0.0 1.0 
0.0 0.0 1.0 
0.0 0.0 1.0 
0.0 0.0 1.0 
0.0 0.0 1.0 
0.0 0.0 1.0 
0.0 0.0 1.0 
0.0 0.0 1.0 
0.0 0.0 1.0 
0.0 0.0 1.0 
0.0 0.0 1.0 
0.0 0.0 1.0 
0.0 0.0 1.0 
0.0 0.0 1.0 
0.0 0.0 1.0 
0.0 0.0 1.0 
0.0 0.0 1.0 
0.0 0.0 1.0 
0.0 0.0 1.0 
Learning : 0.75
Momentum : 0.9
Epoch: 100, Error: 0.017383370004369476
Epoch: 200, Error: 0.012343655758506102
Epoch: 300, Error: 0.02448225138775088
Epoch: 400, Error: 0.012902213342068362
Epoch: 500, Error: 0.012080870262731613
Epoch: 600, Error: 0.013660837397854647
Epoch: 700, Error: 0.012202516095146717
Epoch: 800, Error: 0.012206528174058102
Epoch: 900, Error: 0.012742209735728467
Epoch: 1000, Error: 0.012124427454741333
Epoch: 1100, Error: 0.011908366857765123
Epoch: 1200, Error: 0.011874773535754972
Epoch: 1300, Error: 0.011761963104705599
Epoch: 1400, Error: 0.011937641580403044
Epoch: 1500, Error: 0.01165386638708398
Epoch: 1600, Error: 0.01140451483058959
Epoch: 1700, Error: 0.011327089211401953
Epoch: 1800, Error: 0.011182065069973112
Epoch: 1900, Error: 0.014256642789423526
Epoch: 2000, Error: 0.0109946532146776
Epoch: 2100, Error: 0.010872705241542156
Epoch: 2200, Error: 0.011205880691345925
Epoch: 2300, Error: 0.00988576452486746
Epoch: 2400, Error: 0.009171488388862609
Epoch: 2500, Error: 0.00776893277831931
Epoch: 2600, Error: 0.006891832002593207
Epoch: 2700, Error: 0.007173555201381884
Epoch: 2800, Error: 0.006126216779591682
Epoch: 2900, Error: 0.00613123837789292
Epoch: 3000, Error: 0.005844093694205937
Epoch: 3100, Error: 0.005801216054656187
Epoch: 3200, Error: 0.005877408383510423
Epoch: 3300, Error: 0.005666064663680409
Epoch: 3400, Error: 0.005684027648993022
Epoch: 3500, Error: 0.005571786197176381
Epoch: 3600, Error: 0.005562615331377397
Epoch: 3700, Error: 0.005532793630072269
Epoch: 3800, Error: 0.005534143846429335
Epoch: 3900, Error: 0.005558918086831339
Epoch: 4000, Error: 0.005535741538697167
Epoch: 4100, Error: 0.0055231789653100655
Epoch: 4200, Error: 0.005478477372561968
Epoch: 4300, Error: 0.005498811753296388
Epoch: 4400, Error: 0.005456303315508163
Epoch: 4500, Error: 0.0054452806808004735
Epoch: 4600, Error: 0.005444060026970627
Epoch: 4700, Error: 0.005420497473099288
Epoch: 4800, Error: 0.00544856225839504
Epoch: 4900, Error: 0.005427254601746288
Epoch: 5000, Error: 0.0054015235937272706
Epoch: 5100, Error: 0.005389600080717184
Epoch: 5200, Error: 0.0054035099471601575
Epoch: 5300, Error: 0.005403519777734778
Epoch: 5400, Error: 0.005479604479317179
Epoch: 5500, Error: 0.005415373381601433
Epoch: 5600, Error: 0.005403454738617145
Epoch: 5700, Error: 0.0054360783985540435
Epoch: 5800, Error: 0.005432511342841348
Epoch: 5900, Error: 0.005617548604693444
Epoch: 6000, Error: 0.005422404367089502
Epoch: 6100, Error: 0.005368434645178223
Epoch: 6200, Error: 0.005493427272070814
Epoch: 6300, Error: 0.005494802466985952
Epoch: 6400, Error: 0.005447505845559188
Epoch: 6500, Error: 0.00536017290317307
Epoch: 6600, Error: 0.005378616987118753
Epoch: 6700, Error: 0.005379140933762595
Epoch: 6800, Error: 0.0055267668137544
Epoch: 6900, Error: 0.005360910214085853
Epoch: 7000, Error: 0.005259122189091839
Epoch: 7100, Error: 0.005363721666105155
Epoch: 7200, Error: 0.005136713332440379
Epoch: 7300, Error: 0.005223007356039139
Epoch: 7400, Error: 0.005274929526780596
Epoch: 7500, Error: 0.0050600492849297
Epoch: 7600, Error: 0.00486999553330372
Epoch: 7700, Error: 0.00498526046730832
Epoch: 7800, Error: 0.005057439903681011
Epoch: 7900, Error: 0.004884419498883097
Epoch: 8000, Error: 0.004605858362496198
Epoch: 8100, Error: 0.004174698064195319
Epoch: 8200, Error: 0.006351934608246941
Epoch: 8300, Error: 0.004747714898338041
Epoch: 8400, Error: 0.004291273331525307
Epoch: 8500, Error: 0.004882568959831493
Epoch: 8600, Error: 0.004825092062070144
Epoch: 8700, Error: 0.004627472340067495
Epoch: 8800, Error: 0.004260733165600515
Epoch: 8900, Error: 0.0033337057355097514
Epoch: 9000, Error: 0.0031671872578903464
Epoch: 9100, Error: 0.0045785925372477205
Epoch: 9200, Error: 0.004812329103892265
Epoch: 9300, Error: 0.003360494724978232
Epoch: 9400, Error: 0.003202399645240047
Epoch: 9500, Error: 0.004278892690040934
Epoch: 9600, Error: 0.003433906568784484
Epoch: 9700, Error: 0.0031311989570808945
Epoch: 9800, Error: 0.0022616121892915435
Epoch: 9900, Error: 0.009474834855919843
Epoch: 10000, Error: 0.0024431914567480313
Epoch: 10100, Error: 0.0055750102785107804
Epoch: 10200, Error: 0.006221012257112576
Epoch: 10300, Error: 0.0019866549541345015
Epoch: 10400, Error: 0.005232112998754211
Epoch: 10500, Error: 0.0023336254603550034
Epoch: 10600, Error: 0.0015327095343158799
Epoch: 10700, Error: 0.005585915166185042
Epoch: 10800, Error: 0.0048076436667625145
Epoch: 10900, Error: 0.0022968892864426763
Epoch: 11000, Error: 0.00232684065582605
Epoch: 11100, Error: 0.0011702723963189921
Epoch: 11200, Error: 0.0012016555200628175
Epoch: 11300, Error: 0.0011400728363543623
Epoch: 11400, Error: 0.0012181892308259202
Epoch: 11500, Error: 0.0011457043265146775
Epoch: 11600, Error: 0.001192959275190934
Epoch: 11700, Error: 0.0012008980080061603
Epoch: 11800, Error: 0.001163687571142281
Epoch: 11900, Error: 0.001313670905608684
Epoch: 12000, Error: 0.0012116430463665218
Epoch: 12100, Error: 0.0013743210993120525
Epoch: 12200, Error: 0.0012201572873774375
Epoch: 12300, Error: 0.0012556805813581072
Epoch: 12400, Error: 0.001224683640225427
Epoch: 12500, Error: 0.0012830969475710649
Epoch: 12600, Error: 0.0012020128309175057
Epoch: 12700, Error: 0.001306649299983809
Epoch: 12800, Error: 0.001370031450478106
Epoch: 12900, Error: 0.0012813237289920727
Epoch: 13000, Error: 0.0013615861163636007
Epoch: 13100, Error: 0.0013568595541391614
Epoch: 13200, Error: 0.0014028777704501996
Epoch: 13300, Error: 0.0016018713123362944
Epoch: 13400, Error: 0.0013086999160464277
Epoch: 13500, Error: 0.0014366432423624088
Epoch: 13600, Error: 0.0013463455322380992
Epoch: 13700, Error: 0.0014133963412545738
Epoch: 13800, Error: 0.0013880257299938579
Epoch: 13900, Error: 0.0013831787707217853
Epoch: 14000, Error: 0.0013621366072652413
Epoch: 14100, Error: 0.0013016173574254295
Epoch: 14200, Error: 0.001352814650731037
Epoch: 14300, Error: 0.0014038633411569007
Epoch: 14400, Error: 0.0014291971390328693
Epoch: 14500, Error: 0.001428592382523637
Epoch: 14600, Error: 0.0014142517577953677
Epoch: 14700, Error: 0.0014305828633552576
Epoch: 14800, Error: 0.0014084117838854273
Epoch: 14900, Error: 0.0013732952553874296
Epoch: 15000, Error: 0.0014619369567911553
Epoch: 15100, Error: 0.0013923974026174236
Epoch: 15200, Error: 0.0015105373268253645
Epoch: 15300, Error: 0.00151206823148954
Epoch: 15400, Error: 0.0014168125367767452
Epoch: 15500, Error: 0.001492460286421837
Epoch: 15600, Error: 0.001495021531804754
Epoch: 15700, Error: 0.0014896946830055802
Epoch: 15800, Error: 0.0014655960332385406
Epoch: 15900, Error: 0.0015019173122919182
Epoch: 16000, Error: 0.0015109643095925016
Epoch: 16100, Error: 0.0015597856807726984
Epoch: 16200, Error: 0.0014894894331973498
Epoch: 16300, Error: 0.0014473357760718777
Epoch: 16400, Error: 0.0014787064112738147
Epoch: 16500, Error: 0.0015326474142946715
Epoch: 16600, Error: 0.0014544808167940286
Epoch: 16700, Error: 0.0014699371715193091
Epoch: 16800, Error: 0.0014799798154339974
Epoch: 16900, Error: 0.0014886310185125685
Epoch: 17000, Error: 0.0015090579607862783
Epoch: 17100, Error: 0.00149827584742414
Epoch: 17200, Error: 0.0015377764250758628
Epoch: 17300, Error: 0.0015118924312458155
Epoch: 17400, Error: 0.0015180682826046019
Epoch: 17500, Error: 0.001537732886522126
Epoch: 17600, Error: 0.0015181149901227447
Epoch: 17700, Error: 0.0015238079841014254
Epoch: 17800, Error: 0.001555658736325233
Epoch: 17900, Error: 0.0015420507479484975
Finished
