Input Patterns
0.224 0.624 0.067 0.043 
0.11 0.502 0.051 0.043 
0.196 0.667 0.067 0.043 
0.055 0.584 0.067 0.082 
0.027 0.376 0.067 0.043 
0.306 0.71 0.086 0.043 
0.137 0.416 0.067 0.0 
0.416 0.831 0.035 0.043 
0.306 0.792 0.051 0.125 
0.388 0.749 0.118 0.082 
0.306 0.584 0.118 0.043 
0.082 0.667 0.0 0.043 
0.137 0.584 0.153 0.043 
0.196 0.584 0.102 0.125 
0.251 0.584 0.067 0.043 
0.137 0.459 0.102 0.043 
0.251 0.875 0.086 0.0 
0.165 0.459 0.086 0.043 
0.333 0.624 0.051 0.043 
0.027 0.416 0.051 0.043 
0.196 0.624 0.051 0.082 
0.027 0.502 0.051 0.043 
0.224 0.749 0.153 0.125 
0.224 0.749 0.102 0.043 
0.278 0.71 0.086 0.043 
0.165 0.416 0.067 0.043 
0.082 0.459 0.086 0.043 
0.306 0.792 0.118 0.125 
0.196 0.584 0.086 0.043 
0.165 0.459 0.086 0.0 
0.137 0.584 0.102 0.043 
0.0 0.416 0.016 0.0 
0.388 1.0 0.086 0.125 
0.224 0.624 0.067 0.082 
0.224 0.749 0.086 0.082 
0.224 0.71 0.086 0.125 
0.224 0.541 0.118 0.165 
0.196 0.416 0.102 0.043 
0.251 0.624 0.086 0.043 
0.11 0.502 0.102 0.043 
0.306 0.584 0.086 0.125 
0.333 0.918 0.067 0.043 
0.196 0.502 0.035 0.043 
0.165 0.667 0.067 0.0 
0.224 0.584 0.086 0.043 
0.055 0.125 0.051 0.082 
0.196 0.624 0.102 0.208 
0.137 0.416 0.067 0.082 
0.082 0.502 0.067 0.043 
0.196 0.541 0.067 0.043 
0.749 0.502 0.627 0.541 
0.722 0.459 0.663 0.584 
0.612 0.333 0.612 0.584 
0.557 0.541 0.627 0.624 
0.639 0.376 0.612 0.498 
0.196 0.0 0.424 0.376 
0.471 0.082 0.51 0.376 
0.361 0.376 0.439 0.498 
0.361 0.416 0.592 0.584 
0.529 0.082 0.592 0.584 
0.443 0.502 0.643 0.459 
0.557 0.208 0.663 0.584 
0.584 0.376 0.561 0.498 
0.694 0.333 0.643 0.541 
0.471 0.376 0.592 0.584 
0.333 0.169 0.475 0.416 
0.416 0.29 0.49 0.459 
0.306 0.416 0.592 0.584 
0.667 0.459 0.627 0.584 
0.361 0.416 0.525 0.498 
0.333 0.251 0.576 0.459 
0.416 0.251 0.51 0.459 
0.361 0.29 0.541 0.498 
0.388 0.376 0.541 0.498 
0.224 0.208 0.337 0.416 
0.584 0.502 0.592 0.584 
0.333 0.125 0.51 0.498 
0.388 0.333 0.592 0.498 
0.165 0.169 0.388 0.376 
0.251 0.29 0.49 0.541 
0.443 0.416 0.541 0.584 
0.498 0.376 0.627 0.541 
0.667 0.459 0.576 0.541 
0.416 0.29 0.525 0.376 
0.361 0.208 0.49 0.416 
0.498 0.333 0.51 0.498 
0.498 0.333 0.627 0.459 
0.639 0.416 0.576 0.541 
0.667 0.416 0.678 0.667 
0.388 0.251 0.424 0.376 
0.333 0.169 0.459 0.376 
0.471 0.29 0.694 0.624 
0.471 0.584 0.592 0.624 
0.557 0.125 0.576 0.498 
0.333 0.208 0.51 0.498 
0.498 0.416 0.612 0.541 
0.196 0.125 0.388 0.376 
0.388 0.416 0.541 0.459 
0.529 0.376 0.561 0.498 
0.388 0.333 0.525 0.498 
0.557 0.541 0.847 1.0 
0.776 0.416 0.831 0.831 
0.612 0.416 0.812 0.875 
0.165 0.208 0.592 0.667 
0.667 0.208 0.812 0.71 
0.612 0.502 0.694 0.792 
0.694 0.416 0.761 0.831 
0.416 0.333 0.694 0.957 
0.612 0.416 0.761 0.71 
0.945 0.251 1.0 0.918 
0.722 0.502 0.796 0.918 
0.945 0.333 0.965 0.792 
0.667 0.541 0.796 0.831 
0.529 0.333 0.643 0.71 
0.584 0.333 0.78 0.831 
0.863 0.333 0.863 0.749 
0.584 0.333 0.78 0.875 
0.498 0.251 0.78 0.541 
0.557 0.584 0.78 0.957 
0.471 0.416 0.643 0.71 
0.667 0.459 0.78 0.957 
0.416 0.29 0.694 0.749 
0.667 0.541 0.796 1.0 
0.557 0.208 0.678 0.749 
0.529 0.584 0.745 0.918 
0.416 0.29 0.694 0.749 
0.557 0.376 0.78 0.71 
0.918 0.416 0.949 0.831 
0.835 0.376 0.898 0.71 
0.804 0.667 0.863 1.0 
0.584 0.29 0.729 0.749 
0.388 0.208 0.678 0.792 
0.584 0.502 0.729 0.918 
0.945 0.749 0.965 0.875 
0.471 0.082 0.678 0.584 
0.361 0.333 0.663 0.792 
0.557 0.29 0.663 0.71 
0.804 0.502 0.847 0.71 
0.498 0.416 0.51 0.71 
0.804 0.416 0.812 0.624 
1.0 0.749 0.914 0.792 
0.557 0.333 0.694 0.584 
0.945 0.416 0.863 0.918 
0.584 0.459 0.761 0.71 
0.722 0.459 0.745 0.831 
0.722 0.459 0.694 0.918 
0.694 0.502 0.831 0.918 
0.667 0.416 0.714 0.918 
0.612 0.416 0.714 0.792 
0.443 0.416 0.694 0.71 
Teaching Patterns
1.0 0.0 0.0 
1.0 0.0 0.0 
1.0 0.0 0.0 
1.0 0.0 0.0 
1.0 0.0 0.0 
1.0 0.0 0.0 
1.0 0.0 0.0 
1.0 0.0 0.0 
1.0 0.0 0.0 
1.0 0.0 0.0 
1.0 0.0 0.0 
1.0 0.0 0.0 
1.0 0.0 0.0 
1.0 0.0 0.0 
1.0 0.0 0.0 
1.0 0.0 0.0 
1.0 0.0 0.0 
1.0 0.0 0.0 
1.0 0.0 0.0 
1.0 0.0 0.0 
1.0 0.0 0.0 
1.0 0.0 0.0 
1.0 0.0 0.0 
1.0 0.0 0.0 
1.0 0.0 0.0 
1.0 0.0 0.0 
1.0 0.0 0.0 
1.0 0.0 0.0 
1.0 0.0 0.0 
1.0 0.0 0.0 
1.0 0.0 0.0 
1.0 0.0 0.0 
1.0 0.0 0.0 
1.0 0.0 0.0 
1.0 0.0 0.0 
1.0 0.0 0.0 
1.0 0.0 0.0 
1.0 0.0 0.0 
1.0 0.0 0.0 
1.0 0.0 0.0 
1.0 0.0 0.0 
1.0 0.0 0.0 
1.0 0.0 0.0 
1.0 0.0 0.0 
1.0 0.0 0.0 
1.0 0.0 0.0 
1.0 0.0 0.0 
1.0 0.0 0.0 
1.0 0.0 0.0 
1.0 0.0 0.0 
0.0 1.0 0.0 
0.0 1.0 0.0 
0.0 1.0 0.0 
0.0 1.0 0.0 
0.0 1.0 0.0 
0.0 1.0 0.0 
0.0 1.0 0.0 
0.0 1.0 0.0 
0.0 1.0 0.0 
0.0 1.0 0.0 
0.0 1.0 0.0 
0.0 1.0 0.0 
0.0 1.0 0.0 
0.0 1.0 0.0 
0.0 1.0 0.0 
0.0 1.0 0.0 
0.0 1.0 0.0 
0.0 1.0 0.0 
0.0 1.0 0.0 
0.0 1.0 0.0 
0.0 1.0 0.0 
0.0 1.0 0.0 
0.0 1.0 0.0 
0.0 1.0 0.0 
0.0 1.0 0.0 
0.0 1.0 0.0 
0.0 1.0 0.0 
0.0 1.0 0.0 
0.0 1.0 0.0 
0.0 1.0 0.0 
0.0 1.0 0.0 
0.0 1.0 0.0 
0.0 1.0 0.0 
0.0 1.0 0.0 
0.0 1.0 0.0 
0.0 1.0 0.0 
0.0 1.0 0.0 
0.0 1.0 0.0 
0.0 1.0 0.0 
0.0 1.0 0.0 
0.0 1.0 0.0 
0.0 1.0 0.0 
0.0 1.0 0.0 
0.0 1.0 0.0 
0.0 1.0 0.0 
0.0 1.0 0.0 
0.0 1.0 0.0 
0.0 1.0 0.0 
0.0 1.0 0.0 
0.0 1.0 0.0 
0.0 0.0 1.0 
0.0 0.0 1.0 
0.0 0.0 1.0 
0.0 0.0 1.0 
0.0 0.0 1.0 
0.0 0.0 1.0 
0.0 0.0 1.0 
0.0 0.0 1.0 
0.0 0.0 1.0 
0.0 0.0 1.0 
0.0 0.0 1.0 
0.0 0.0 1.0 
0.0 0.0 1.0 
0.0 0.0 1.0 
0.0 0.0 1.0 
0.0 0.0 1.0 
0.0 0.0 1.0 
0.0 0.0 1.0 
0.0 0.0 1.0 
0.0 0.0 1.0 
0.0 0.0 1.0 
0.0 0.0 1.0 
0.0 0.0 1.0 
0.0 0.0 1.0 
0.0 0.0 1.0 
0.0 0.0 1.0 
0.0 0.0 1.0 
0.0 0.0 1.0 
0.0 0.0 1.0 
0.0 0.0 1.0 
0.0 0.0 1.0 
0.0 0.0 1.0 
0.0 0.0 1.0 
0.0 0.0 1.0 
0.0 0.0 1.0 
0.0 0.0 1.0 
0.0 0.0 1.0 
0.0 0.0 1.0 
0.0 0.0 1.0 
0.0 0.0 1.0 
0.0 0.0 1.0 
0.0 0.0 1.0 
0.0 0.0 1.0 
0.0 0.0 1.0 
0.0 0.0 1.0 
0.0 0.0 1.0 
0.0 0.0 1.0 
0.0 0.0 1.0 
0.0 0.0 1.0 
0.0 0.0 1.0 
Learning : 0.6499999761581421
Momentum : 0.9
Epoch: 100, Error: 0.014049295775085837
Epoch: 200, Error: 0.012271730782823244
Epoch: 300, Error: 0.016873151762997304
Epoch: 400, Error: 0.016910628811693487
Epoch: 500, Error: 0.0125333238820985
Epoch: 600, Error: 0.012212397212590641
Epoch: 700, Error: 0.013634094482603889
Epoch: 800, Error: 0.012984886247415658
Epoch: 900, Error: 0.01377478967308106
Epoch: 1000, Error: 0.01251544049956772
Epoch: 1100, Error: 0.013042607461910603
Epoch: 1200, Error: 0.01259561266768844
Epoch: 1300, Error: 0.012788700438551572
Epoch: 1400, Error: 0.012214429066315837
Epoch: 1500, Error: 0.012854080101092714
Epoch: 1600, Error: 0.016189445185950765
Epoch: 1700, Error: 0.011967721654739387
Epoch: 1800, Error: 0.012712690320175826
Epoch: 1900, Error: 0.01202334789616531
Epoch: 2000, Error: 0.011978718471270917
Epoch: 2100, Error: 0.012803944385836931
Epoch: 2200, Error: 0.011748632881119105
Epoch: 2300, Error: 0.014283735631804758
Epoch: 2400, Error: 0.017107546904486518
Epoch: 2500, Error: 0.01200991802521071
Epoch: 2600, Error: 0.012469656533423207
Epoch: 2700, Error: 0.011911060998999013
Epoch: 2800, Error: 0.011833116129879832
Epoch: 2900, Error: 0.013241463880107296
Epoch: 3000, Error: 0.011643983461945492
Epoch: 3100, Error: 0.02093602366776411
Epoch: 3200, Error: 0.011859416280481778
Epoch: 3300, Error: 0.011730398359790962
Epoch: 3400, Error: 0.01137516179905769
Epoch: 3500, Error: 0.011241756255480248
Epoch: 3600, Error: 0.01098635344701165
Epoch: 3700, Error: 0.01068467142950629
Epoch: 3800, Error: 0.010548370976434102
Epoch: 3900, Error: 0.010165225659741862
Epoch: 4000, Error: 0.01024871576461463
Epoch: 4100, Error: 0.009753505916064416
Epoch: 4200, Error: 0.011998218201161932
Epoch: 4300, Error: 0.008709829909429501
Epoch: 4400, Error: 0.009034601726592815
Epoch: 4500, Error: 0.008559111231014558
Epoch: 4600, Error: 0.007368345016669328
Epoch: 4700, Error: 0.0067871784514965125
Epoch: 4800, Error: 0.007471069028081471
Epoch: 4900, Error: 0.0067202536186522725
Epoch: 5000, Error: 0.006829240877265472
Epoch: 5100, Error: 0.005931865083444389
Epoch: 5200, Error: 0.005850568230726519
Epoch: 5300, Error: 0.0056147415059937126
Epoch: 5400, Error: 0.005839767611899458
Epoch: 5500, Error: 0.005304545548089631
Epoch: 5600, Error: 0.005492480101079508
Epoch: 5700, Error: 0.004996575280573839
Epoch: 5800, Error: 0.004928695814116084
Epoch: 5900, Error: 0.006131893270508843
Epoch: 6000, Error: 0.005116700025950818
Epoch: 6100, Error: 0.004544037663243662
Epoch: 6200, Error: 0.004518303381366175
Epoch: 6300, Error: 0.005277972549222073
Epoch: 6400, Error: 0.004384298435003145
Epoch: 6500, Error: 0.0042988930522241675
Epoch: 6600, Error: 0.004125136409650325
Epoch: 6700, Error: 0.003775636284873095
Epoch: 6800, Error: 0.005365106605673866
Epoch: 6900, Error: 0.004696410501479539
Epoch: 7000, Error: 0.0035019888582125997
Epoch: 7100, Error: 0.0031121479688286306
Epoch: 7200, Error: 0.0031557311884797034
Epoch: 7300, Error: 0.003498758572326475
Epoch: 7400, Error: 0.0026492575403520096
Epoch: 7500, Error: 0.003510292189305384
Epoch: 7600, Error: 0.003522248177352635
Epoch: 7700, Error: 0.003353406502891453
Epoch: 7800, Error: 0.00200378704929487
Epoch: 7900, Error: 0.002056105175398344
Epoch: 8000, Error: 0.0017502719909930223
Epoch: 8100, Error: 0.0021523876949948503
Epoch: 8200, Error: 0.0019078292322472902
Epoch: 8300, Error: 0.001525273227521828
Epoch: 8400, Error: 0.0013064826544236451
Epoch: 8500, Error: 0.001384780006634251
Epoch: 8600, Error: 0.0013430415223911756
Epoch: 8700, Error: 0.0011141546259797054
Epoch: 8800, Error: 0.001246852488373697
Epoch: 8900, Error: 0.0010709438314463655
Epoch: 9000, Error: 0.0010759080541697453
Epoch: 9100, Error: 0.0010253226733287835
Epoch: 9200, Error: 9.718464801229933E-4
Epoch: 9300, Error: 9.245104368190724E-4
Epoch: 9400, Error: 9.302935432673814E-4
Epoch: 9500, Error: 8.679892133626906E-4
Epoch: 9600, Error: 9.055188311923526E-4
Epoch: 9700, Error: 8.490586205837413E-4
Epoch: 9800, Error: 8.373289105534357E-4
Epoch: 9900, Error: 8.260961580649558E-4
Epoch: 10000, Error: 8.05732670102211E-4
Epoch: 10100, Error: 8.304125339158176E-4
Epoch: 10200, Error: 8.094803829562567E-4
Epoch: 10300, Error: 7.524614852885233E-4
Epoch: 10400, Error: 8.007335824141896E-4
Epoch: 10500, Error: 8.018731967719129E-4
Epoch: 10600, Error: 7.874904976343187E-4
Epoch: 10700, Error: 7.978150229367535E-4
Epoch: 10800, Error: 7.782452380026423E-4
Epoch: 10900, Error: 7.971103808297591E-4
Epoch: 11000, Error: 7.637051778826478E-4
Epoch: 11100, Error: 7.432583035197938E-4
Epoch: 11200, Error: 7.701096592534544E-4
finished
