Epoch: 9200, Error: 0.009423635268546386
Epoch: 11200, Error: 7.701096592534544E-4
Epoch: 7200, Error: 0.005344284559931427
Epoch: 5700, Error: 0.005562966968910873
Epoch: 17700, Error: 0.0010525360788142407
Epoch: 7100, Error: 0.004975448286733449
Epoch: 9700, Error: 0.009318527092114644
Epoch: 6200, Error: 0.004994295174925304
Epoch: 5300, Error: 0.005202781591844893
Epoch: 12100, Error: 0.00104973561740725
