Input Patterns
0.224 0.624 0.067 0.043 
0.11 0.502 0.051 0.043 
0.196 0.667 0.067 0.043 
0.055 0.584 0.067 0.082 
0.027 0.376 0.067 0.043 
0.306 0.71 0.086 0.043 
0.137 0.416 0.067 0.0 
0.416 0.831 0.035 0.043 
0.306 0.792 0.051 0.125 
0.388 0.749 0.118 0.082 
0.306 0.584 0.118 0.043 
0.082 0.667 0.0 0.043 
0.137 0.584 0.153 0.043 
0.196 0.584 0.102 0.125 
0.251 0.584 0.067 0.043 
0.137 0.459 0.102 0.043 
0.251 0.875 0.086 0.0 
0.165 0.459 0.086 0.043 
0.333 0.624 0.051 0.043 
0.027 0.416 0.051 0.043 
0.196 0.624 0.051 0.082 
0.027 0.502 0.051 0.043 
0.224 0.749 0.153 0.125 
0.224 0.749 0.102 0.043 
0.278 0.71 0.086 0.043 
0.165 0.416 0.067 0.043 
0.082 0.459 0.086 0.043 
0.306 0.792 0.118 0.125 
0.196 0.584 0.086 0.043 
0.165 0.459 0.086 0.0 
0.137 0.584 0.102 0.043 
0.0 0.416 0.016 0.0 
0.388 1.0 0.086 0.125 
0.224 0.624 0.067 0.082 
0.224 0.749 0.086 0.082 
0.224 0.71 0.086 0.125 
0.224 0.541 0.118 0.165 
0.196 0.416 0.102 0.043 
0.251 0.624 0.086 0.043 
0.11 0.502 0.102 0.043 
0.306 0.584 0.086 0.125 
0.333 0.918 0.067 0.043 
0.196 0.502 0.035 0.043 
0.165 0.667 0.067 0.0 
0.224 0.584 0.086 0.043 
0.055 0.125 0.051 0.082 
0.196 0.624 0.102 0.208 
0.137 0.416 0.067 0.082 
0.082 0.502 0.067 0.043 
0.196 0.541 0.067 0.043 
0.749 0.502 0.627 0.541 
0.722 0.459 0.663 0.584 
0.612 0.333 0.612 0.584 
0.557 0.541 0.627 0.624 
0.639 0.376 0.612 0.498 
0.196 0.0 0.424 0.376 
0.471 0.082 0.51 0.376 
0.361 0.376 0.439 0.498 
0.361 0.416 0.592 0.584 
0.529 0.082 0.592 0.584 
0.443 0.502 0.643 0.459 
0.557 0.208 0.663 0.584 
0.584 0.376 0.561 0.498 
0.694 0.333 0.643 0.541 
0.471 0.376 0.592 0.584 
0.333 0.169 0.475 0.416 
0.416 0.29 0.49 0.459 
0.306 0.416 0.592 0.584 
0.667 0.459 0.627 0.584 
0.361 0.416 0.525 0.498 
0.333 0.251 0.576 0.459 
0.416 0.251 0.51 0.459 
0.361 0.29 0.541 0.498 
0.388 0.376 0.541 0.498 
0.224 0.208 0.337 0.416 
0.584 0.502 0.592 0.584 
0.333 0.125 0.51 0.498 
0.388 0.333 0.592 0.498 
0.165 0.169 0.388 0.376 
0.251 0.29 0.49 0.541 
0.443 0.416 0.541 0.584 
0.498 0.376 0.627 0.541 
0.667 0.459 0.576 0.541 
0.416 0.29 0.525 0.376 
0.361 0.208 0.49 0.416 
0.498 0.333 0.51 0.498 
0.498 0.333 0.627 0.459 
0.639 0.416 0.576 0.541 
0.667 0.416 0.678 0.667 
0.388 0.251 0.424 0.376 
0.333 0.169 0.459 0.376 
0.471 0.29 0.694 0.624 
0.471 0.584 0.592 0.624 
0.557 0.125 0.576 0.498 
0.333 0.208 0.51 0.498 
0.498 0.416 0.612 0.541 
0.196 0.125 0.388 0.376 
0.388 0.416 0.541 0.459 
0.529 0.376 0.561 0.498 
0.388 0.333 0.525 0.498 
0.557 0.541 0.847 1.0 
0.776 0.416 0.831 0.831 
0.612 0.416 0.812 0.875 
0.165 0.208 0.592 0.667 
0.667 0.208 0.812 0.71 
0.612 0.502 0.694 0.792 
0.694 0.416 0.761 0.831 
0.416 0.333 0.694 0.957 
0.612 0.416 0.761 0.71 
0.945 0.251 1.0 0.918 
0.722 0.502 0.796 0.918 
0.945 0.333 0.965 0.792 
0.667 0.541 0.796 0.831 
0.529 0.333 0.643 0.71 
0.584 0.333 0.78 0.831 
0.863 0.333 0.863 0.749 
0.584 0.333 0.78 0.875 
0.498 0.251 0.78 0.541 
0.557 0.584 0.78 0.957 
0.471 0.416 0.643 0.71 
0.667 0.459 0.78 0.957 
0.416 0.29 0.694 0.749 
0.667 0.541 0.796 1.0 
0.557 0.208 0.678 0.749 
0.529 0.584 0.745 0.918 
0.416 0.29 0.694 0.749 
0.557 0.376 0.78 0.71 
0.918 0.416 0.949 0.831 
0.835 0.376 0.898 0.71 
0.804 0.667 0.863 1.0 
0.584 0.29 0.729 0.749 
0.388 0.208 0.678 0.792 
0.584 0.502 0.729 0.918 
0.945 0.749 0.965 0.875 
0.471 0.082 0.678 0.584 
0.361 0.333 0.663 0.792 
0.557 0.29 0.663 0.71 
0.804 0.502 0.847 0.71 
0.498 0.416 0.51 0.71 
0.804 0.416 0.812 0.624 
1.0 0.749 0.914 0.792 
0.557 0.333 0.694 0.584 
0.945 0.416 0.863 0.918 
0.584 0.459 0.761 0.71 
0.722 0.459 0.745 0.831 
0.722 0.459 0.694 0.918 
0.694 0.502 0.831 0.918 
0.667 0.416 0.714 0.918 
0.612 0.416 0.714 0.792 
0.443 0.416 0.694 0.71 
Teaching Patterns
1.0 0.0 0.0 
1.0 0.0 0.0 
1.0 0.0 0.0 
1.0 0.0 0.0 
1.0 0.0 0.0 
1.0 0.0 0.0 
1.0 0.0 0.0 
1.0 0.0 0.0 
1.0 0.0 0.0 
1.0 0.0 0.0 
1.0 0.0 0.0 
1.0 0.0 0.0 
1.0 0.0 0.0 
1.0 0.0 0.0 
1.0 0.0 0.0 
1.0 0.0 0.0 
1.0 0.0 0.0 
1.0 0.0 0.0 
1.0 0.0 0.0 
1.0 0.0 0.0 
1.0 0.0 0.0 
1.0 0.0 0.0 
1.0 0.0 0.0 
1.0 0.0 0.0 
1.0 0.0 0.0 
1.0 0.0 0.0 
1.0 0.0 0.0 
1.0 0.0 0.0 
1.0 0.0 0.0 
1.0 0.0 0.0 
1.0 0.0 0.0 
1.0 0.0 0.0 
1.0 0.0 0.0 
1.0 0.0 0.0 
1.0 0.0 0.0 
1.0 0.0 0.0 
1.0 0.0 0.0 
1.0 0.0 0.0 
1.0 0.0 0.0 
1.0 0.0 0.0 
1.0 0.0 0.0 
1.0 0.0 0.0 
1.0 0.0 0.0 
1.0 0.0 0.0 
1.0 0.0 0.0 
1.0 0.0 0.0 
1.0 0.0 0.0 
1.0 0.0 0.0 
1.0 0.0 0.0 
1.0 0.0 0.0 
0.0 1.0 0.0 
0.0 1.0 0.0 
0.0 1.0 0.0 
0.0 1.0 0.0 
0.0 1.0 0.0 
0.0 1.0 0.0 
0.0 1.0 0.0 
0.0 1.0 0.0 
0.0 1.0 0.0 
0.0 1.0 0.0 
0.0 1.0 0.0 
0.0 1.0 0.0 
0.0 1.0 0.0 
0.0 1.0 0.0 
0.0 1.0 0.0 
0.0 1.0 0.0 
0.0 1.0 0.0 
0.0 1.0 0.0 
0.0 1.0 0.0 
0.0 1.0 0.0 
0.0 1.0 0.0 
0.0 1.0 0.0 
0.0 1.0 0.0 
0.0 1.0 0.0 
0.0 1.0 0.0 
0.0 1.0 0.0 
0.0 1.0 0.0 
0.0 1.0 0.0 
0.0 1.0 0.0 
0.0 1.0 0.0 
0.0 1.0 0.0 
0.0 1.0 0.0 
0.0 1.0 0.0 
0.0 1.0 0.0 
0.0 1.0 0.0 
0.0 1.0 0.0 
0.0 1.0 0.0 
0.0 1.0 0.0 
0.0 1.0 0.0 
0.0 1.0 0.0 
0.0 1.0 0.0 
0.0 1.0 0.0 
0.0 1.0 0.0 
0.0 1.0 0.0 
0.0 1.0 0.0 
0.0 1.0 0.0 
0.0 1.0 0.0 
0.0 1.0 0.0 
0.0 1.0 0.0 
0.0 1.0 0.0 
0.0 0.0 1.0 
0.0 0.0 1.0 
0.0 0.0 1.0 
0.0 0.0 1.0 
0.0 0.0 1.0 
0.0 0.0 1.0 
0.0 0.0 1.0 
0.0 0.0 1.0 
0.0 0.0 1.0 
0.0 0.0 1.0 
0.0 0.0 1.0 
0.0 0.0 1.0 
0.0 0.0 1.0 
0.0 0.0 1.0 
0.0 0.0 1.0 
0.0 0.0 1.0 
0.0 0.0 1.0 
0.0 0.0 1.0 
0.0 0.0 1.0 
0.0 0.0 1.0 
0.0 0.0 1.0 
0.0 0.0 1.0 
0.0 0.0 1.0 
0.0 0.0 1.0 
0.0 0.0 1.0 
0.0 0.0 1.0 
0.0 0.0 1.0 
0.0 0.0 1.0 
0.0 0.0 1.0 
0.0 0.0 1.0 
0.0 0.0 1.0 
0.0 0.0 1.0 
0.0 0.0 1.0 
0.0 0.0 1.0 
0.0 0.0 1.0 
0.0 0.0 1.0 
0.0 0.0 1.0 
0.0 0.0 1.0 
0.0 0.0 1.0 
0.0 0.0 1.0 
0.0 0.0 1.0 
0.0 0.0 1.0 
0.0 0.0 1.0 
0.0 0.0 1.0 
0.0 0.0 1.0 
0.0 0.0 1.0 
0.0 0.0 1.0 
0.0 0.0 1.0 
0.0 0.0 1.0 
0.0 0.0 1.0 
Learning : 0.05
Momentum : 0.20000000298023224
Epoch: 100, Error: 0.08928847217040749
Epoch: 200, Error: 0.030555184677326337
Epoch: 300, Error: 0.019387096641001272
Epoch: 400, Error: 0.01685459731724312
Epoch: 500, Error: 0.015055600462577812
Epoch: 600, Error: 0.01424041095094565
Epoch: 700, Error: 0.013810094508926724
Epoch: 800, Error: 0.013395893661113286
Epoch: 900, Error: 0.013172137628232576
Epoch: 1000, Error: 0.013246664571726505
Epoch: 1100, Error: 0.012966582790593522
Epoch: 1200, Error: 0.012761780445187425
Epoch: 1300, Error: 0.012773425744983257
Epoch: 1400, Error: 0.012785914683972117
Epoch: 1500, Error: 0.012633744991840343
Epoch: 1600, Error: 0.012627459322071004
Epoch: 1700, Error: 0.012583773246027968
Epoch: 1800, Error: 0.01262705786043777
Epoch: 1900, Error: 0.012649052430846854
Epoch: 2000, Error: 0.012664517259040208
Epoch: 2100, Error: 0.012656258851356806
Epoch: 2200, Error: 0.012644768649149015
Epoch: 2300, Error: 0.012711150862869053
Epoch: 2400, Error: 0.01272897760817189
Epoch: 2500, Error: 0.012724271694762536
Epoch: 2600, Error: 0.012744843544202182
Epoch: 2700, Error: 0.012768257514333171
Epoch: 2800, Error: 0.012718679793732706
Epoch: 2900, Error: 0.012703219932044693
Epoch: 3000, Error: 0.012640037390251501
Epoch: 3100, Error: 0.01265528654581348
Epoch: 3200, Error: 0.01269534539623612
Epoch: 3300, Error: 0.012623077786771127
Epoch: 3400, Error: 0.012569517476313026
Epoch: 3500, Error: 0.012465476163435423
Epoch: 3600, Error: 0.012402058788970582
Epoch: 3700, Error: 0.012380562948856358
Epoch: 3800, Error: 0.012353893555996127
Epoch: 3900, Error: 0.012325913797075837
Epoch: 4000, Error: 0.012308796174693142
Epoch: 4100, Error: 0.012288313492211832
Epoch: 4200, Error: 0.012268279751420938
Epoch: 4300, Error: 0.01225888869421422
Epoch: 4400, Error: 0.01222879589493992
Epoch: 4500, Error: 0.012222859116485994
Epoch: 4600, Error: 0.012210547346577215
Epoch: 4700, Error: 0.01222988602018707
Epoch: 4800, Error: 0.012228966349668274
Epoch: 4900, Error: 0.012199863274883873
Epoch: 5000, Error: 0.012217693801417443
Epoch: 5100, Error: 0.012175250403021795
Epoch: 5200, Error: 0.01216443106726908
Epoch: 5300, Error: 0.012183059151535674
Epoch: 5400, Error: 0.012161993560252243
Epoch: 5500, Error: 0.012149613562049143
Epoch: 5600, Error: 0.012271412877995205
Epoch: 5700, Error: 0.012111696723680064
Epoch: 5800, Error: 0.012112489403590361
Epoch: 5900, Error: 0.012127689239491984
Epoch: 6000, Error: 0.012097049167529138
Epoch: 6100, Error: 0.012094745644963281
Epoch: 6200, Error: 0.012090211468918215
Epoch: 6300, Error: 0.012092444821941536
Epoch: 6400, Error: 0.012050989121734855
Epoch: 6500, Error: 0.012085384463956917
Epoch: 6600, Error: 0.01203405305289099
Epoch: 6700, Error: 0.012036445225065721
Epoch: 6800, Error: 0.012022157373068191
Epoch: 6900, Error: 0.012014473786302212
Epoch: 7000, Error: 0.012001786673794014
Epoch: 7100, Error: 0.012005523894631817
Epoch: 7200, Error: 0.012050266638319075
Epoch: 7300, Error: 0.011999137016113435
Epoch: 7400, Error: 0.011967524527035839
Epoch: 7500, Error: 0.011955610803602761
Epoch: 7600, Error: 0.011946957139100347
Epoch: 7700, Error: 0.011934222174745676
Epoch: 7800, Error: 0.011927384045693405
Epoch: 7900, Error: 0.011920762349201261
Epoch: 8000, Error: 0.011898062397218677
Epoch: 8100, Error: 0.011932454270238391
Epoch: 8200, Error: 0.011889577881267247
Epoch: 8300, Error: 0.011855688410726975
Epoch: 8400, Error: 0.011843967495235228
Epoch: 8500, Error: 0.01183320464744943
Epoch: 8600, Error: 0.011840252770522053
Epoch: 8700, Error: 0.011786805411107696
Epoch: 8800, Error: 0.011779317714393132
Epoch: 8900, Error: 0.01174234178574003
Epoch: 9000, Error: 0.011721784095319958
Epoch: 9100, Error: 0.011699298051096416
Epoch: 9200, Error: 0.011659064090151083
Epoch: 9300, Error: 0.01167149373626935
Epoch: 9400, Error: 0.011655008206543582
Epoch: 9500, Error: 0.011600682838910699
Epoch: 9600, Error: 0.011596289854334823
Epoch: 9700, Error: 0.011510009023289905
Epoch: 9800, Error: 0.011494869080635442
Epoch: 9900, Error: 0.011448053855351322
Epoch: 10000, Error: 0.011457415167499943
Epoch: 10100, Error: 0.011376924000950474
Epoch: 10200, Error: 0.0112713713882451
Epoch: 10300, Error: 0.011207328243626333
Epoch: 10400, Error: 0.011137691554650693
Epoch: 10500, Error: 0.011059699568420053
Epoch: 10600, Error: 0.010954936280183738
Epoch: 10700, Error: 0.010935590357453081
Epoch: 10800, Error: 0.010839753302319594
Epoch: 10900, Error: 0.01072668981196166
Epoch: 11000, Error: 0.010567854957216774
Epoch: 11100, Error: 0.010443437926347643
Epoch: 11200, Error: 0.01035238616437926
Epoch: 11300, Error: 0.010191180686664861
Epoch: 11400, Error: 0.010034837307342776
Epoch: 11500, Error: 0.009918038798902835
Epoch: 11600, Error: 0.00980291062867169
Epoch: 11700, Error: 0.009628885840596901
Epoch: 11800, Error: 0.00946664722723744
Epoch: 11900, Error: 0.009338212866656564
Epoch: 12000, Error: 0.009159555003376922
Epoch: 12100, Error: 0.009026307376866377
Epoch: 12200, Error: 0.008877280807670829
Epoch: 12300, Error: 0.008771750028430099
Epoch: 12400, Error: 0.0086263624054251
Epoch: 12500, Error: 0.008514419946924234
Epoch: 12600, Error: 0.00843295660062025
Epoch: 12700, Error: 0.008291733273073107
Epoch: 12800, Error: 0.008189359466592246
Epoch: 12900, Error: 0.008119709571159144
Epoch: 13000, Error: 0.008012875113275801
Epoch: 13100, Error: 0.007925140904900424
Epoch: 13200, Error: 0.00785257187342675
Epoch: 13300, Error: 0.007761712201550057
Epoch: 13400, Error: 0.007693394017838517
Epoch: 13500, Error: 0.007617929152984088
Epoch: 13600, Error: 0.007551778875516436
Epoch: 13700, Error: 0.007491868297633552
Epoch: 13800, Error: 0.007440612134170483
Epoch: 13900, Error: 0.0073800475329618516
Epoch: 14000, Error: 0.007325946791545106
Epoch: 14100, Error: 0.007280499096370873
Epoch: 14200, Error: 0.007231589532035019
Epoch: 14300, Error: 0.007187295020262169
Epoch: 14400, Error: 0.007143111200870671
Epoch: 14500, Error: 0.007097777954071185
Epoch: 14600, Error: 0.007060893980540934
Epoch: 14700, Error: 0.007028979895349003
Epoch: 14800, Error: 0.006997344169622528
Epoch: 14900, Error: 0.006971677822148225
Epoch: 15000, Error: 0.0069457060160595845
Epoch: 15100, Error: 0.006925416894114172
Epoch: 15200, Error: 0.006893704449471449
Epoch: 15300, Error: 0.006870018659603177
Epoch: 15400, Error: 0.0068424300059756905
Epoch: 15500, Error: 0.006818982683760017
Epoch: 15600, Error: 0.006791363633248251
Epoch: 15700, Error: 0.006768417468386328
Epoch: 15800, Error: 0.0067509845899292814
Epoch: 15900, Error: 0.006702614735055341
Epoch: 16000, Error: 0.006685155500517933
Epoch: 16100, Error: 0.006672663566012551
Epoch: 16200, Error: 0.006649866132951281
Epoch: 16300, Error: 0.006629000660535136
Epoch: 16400, Error: 0.006603679204858924
Epoch: 16500, Error: 0.006584445800328151
Epoch: 16600, Error: 0.006584496473846825
Epoch: 16700, Error: 0.00657302085168076
Epoch: 16800, Error: 0.006569370116256827
Epoch: 16900, Error: 0.006545778487528486
Epoch: 17000, Error: 0.006547691949550772
Epoch: 17100, Error: 0.006512802861098248
Epoch: 17200, Error: 0.006483819196792886
Epoch: 17300, Error: 0.006473406030895416
Epoch: 17400, Error: 0.006457808851398948
Epoch: 17500, Error: 0.006459067492426632
Epoch: 17600, Error: 0.006427405831277582
Epoch: 17700, Error: 0.006401457165803867
Epoch: 17800, Error: 0.0063768009260199475
Epoch: 17900, Error: 0.006330497235656903
Epoch: 18000, Error: 0.006306716360653609
Epoch: 18100, Error: 0.0062818514985639555
Epoch: 18200, Error: 0.0062632354675258755
Epoch: 18300, Error: 0.006217070156277564
Epoch: 18400, Error: 0.006172886790212718
Epoch: 18500, Error: 0.006174555186663624
Epoch: 18600, Error: 0.006154786337036264
Epoch: 18700, Error: 0.006138989788222564
Epoch: 18800, Error: 0.006123648523822212
Epoch: 18900, Error: 0.006097180153723712
Epoch: 19000, Error: 0.006080503517844259
Epoch: 19100, Error: 0.006069265067771491
Epoch: 19200, Error: 0.006047207809889562
Epoch: 19300, Error: 0.0060364208585886175
Epoch: 19400, Error: 0.006026377603362364
Epoch: 19500, Error: 0.006002251873355031
Epoch: 19600, Error: 0.006003187473606814
Epoch: 19700, Error: 0.005972769815502365
Epoch: 19800, Error: 0.005954922960269068
Epoch: 19900, Error: 0.005962052330175332
Epoch: 20000, Error: 0.005951163248754525
Epoch: 20100, Error: 0.0059330085417997275
Epoch: 20200, Error: 0.005905806267239202
Epoch: 20300, Error: 0.005888933628750433
Epoch: 20400, Error: 0.0058689715289243416
Epoch: 20500, Error: 0.005856996048913073
Epoch: 20600, Error: 0.005862291622230202
Epoch: 20700, Error: 0.005841275286136976
Epoch: 20800, Error: 0.005814307222732096
Epoch: 20900, Error: 0.005801228838082091
Epoch: 21000, Error: 0.005797154221297047
Epoch: 21100, Error: 0.005775451088313279
Epoch: 21200, Error: 0.005764249088183396
Epoch: 21300, Error: 0.005750235834897832
Epoch: 21400, Error: 0.005749135275277248
Epoch: 21500, Error: 0.0057278004927982075
Epoch: 21600, Error: 0.005713883438250001
Epoch: 21700, Error: 0.005711599074127283
Epoch: 21800, Error: 0.005698715895576097
Epoch: 21900, Error: 0.005697500225395722
Epoch: 22000, Error: 0.005672360412885628
Epoch: 22100, Error: 0.005657595543541729
Epoch: 22200, Error: 0.005647860670051687
Epoch: 22300, Error: 0.00564490346950576
Epoch: 22400, Error: 0.005612130205628001
Epoch: 22500, Error: 0.005600861206538779
Epoch: 22600, Error: 0.005591803578472025
Epoch: 22700, Error: 0.005568640170795977
Epoch: 22800, Error: 0.005564494789231533
Epoch: 22900, Error: 0.005555273110084938
Epoch: 23000, Error: 0.0055289800432949
Epoch: 23100, Error: 0.0055170434425437275
Epoch: 23200, Error: 0.005496082206482641
Epoch: 23300, Error: 0.00548159300740263
Epoch: 23400, Error: 0.005481432117809523
Epoch: 23500, Error: 0.005455111218438226
Epoch: 23600, Error: 0.005459431993217882
Epoch: 23700, Error: 0.005455009928113944
Epoch: 23800, Error: 0.005414502705437414
Epoch: 23900, Error: 0.00540355607787975
Epoch: 24000, Error: 0.005380725161518743
Epoch: 24100, Error: 0.005359751553387258
Epoch: 24200, Error: 0.005344846005444066
Epoch: 24300, Error: 0.005326946809165611
Epoch: 24400, Error: 0.005320987573326604
Epoch: 24500, Error: 0.005301277778373019
Epoch: 24600, Error: 0.0052748974505618575
Epoch: 24700, Error: 0.005259104361774408
Epoch: 24800, Error: 0.005248666821380316
Epoch: 24900, Error: 0.005230846192421679
Epoch: 25000, Error: 0.005206294294468554
Epoch: 25100, Error: 0.0051820759160290724
Epoch: 25200, Error: 0.005149760624048764
Epoch: 25300, Error: 0.005126528295075425
Epoch: 25400, Error: 0.005109560866201607
Epoch: 25500, Error: 0.005113865908735849
Epoch: 25600, Error: 0.005107133011269885
Epoch: 25700, Error: 0.005050942507864078
Epoch: 25800, Error: 0.005039287704657389
Epoch: 25900, Error: 0.005009793334259175
Epoch: 26000, Error: 0.004998232865197835
Epoch: 26100, Error: 0.004969006996286462
Epoch: 26200, Error: 0.0049812902054050265
Epoch: 26300, Error: 0.004925794611854863
Epoch: 26400, Error: 0.004915094913312217
Epoch: 26500, Error: 0.004894184218109811
Epoch: 26600, Error: 0.004876420596234726
Epoch: 26700, Error: 0.004867783824232657
Epoch: 26800, Error: 0.004845270882079256
Epoch: 26900, Error: 0.00482869941716386
Epoch: 27000, Error: 0.004802063701447125
Epoch: 27100, Error: 0.00478808029009047
Epoch: 27200, Error: 0.0047697795633192125
Epoch: 27300, Error: 0.004748452377504499
Epoch: 27400, Error: 0.0047367177833152335
Epoch: 27500, Error: 0.004718807154816661
Epoch: 27600, Error: 0.004703730023915012
Epoch: 27700, Error: 0.004691594531833958
Epoch: 27800, Error: 0.004703249684271696
Epoch: 27900, Error: 0.004656338369420199
Epoch: 28000, Error: 0.004638751532041484
Epoch: 28100, Error: 0.004627629918119129
Epoch: 28200, Error: 0.0046225651516272935
Epoch: 28300, Error: 0.004594695623159401
Epoch: 28400, Error: 0.004578758939758487
Epoch: 28500, Error: 0.004588124008154506
Epoch: 28600, Error: 0.00455108656623812
Epoch: 28700, Error: 0.004536205742300336
Epoch: 28800, Error: 0.00451650610796867
Epoch: 28900, Error: 0.004510796193588295
Epoch: 29000, Error: 0.004502367953018998
Epoch: 29100, Error: 0.00449950507910952
Epoch: 29200, Error: 0.0044985820164724286
Epoch: 29300, Error: 0.004500416930713976
Epoch: 29400, Error: 0.004494158044887872
Epoch: 29500, Error: 0.004489015378721673
Finished
