Input Patterns
0.224 0.624 0.067 0.043 
0.11 0.502 0.051 0.043 
0.196 0.667 0.067 0.043 
0.055 0.584 0.067 0.082 
0.027 0.376 0.067 0.043 
0.306 0.71 0.086 0.043 
0.137 0.416 0.067 0.0 
0.416 0.831 0.035 0.043 
0.306 0.792 0.051 0.125 
0.388 0.749 0.118 0.082 
0.306 0.584 0.118 0.043 
0.082 0.667 0.0 0.043 
0.137 0.584 0.153 0.043 
0.196 0.584 0.102 0.125 
0.251 0.584 0.067 0.043 
0.137 0.459 0.102 0.043 
0.251 0.875 0.086 0.0 
0.165 0.459 0.086 0.043 
0.333 0.624 0.051 0.043 
0.027 0.416 0.051 0.043 
0.196 0.624 0.051 0.082 
0.027 0.502 0.051 0.043 
0.224 0.749 0.153 0.125 
0.224 0.749 0.102 0.043 
0.278 0.71 0.086 0.043 
0.165 0.416 0.067 0.043 
0.082 0.459 0.086 0.043 
0.306 0.792 0.118 0.125 
0.196 0.584 0.086 0.043 
0.165 0.459 0.086 0.0 
0.137 0.584 0.102 0.043 
0.0 0.416 0.016 0.0 
0.388 1.0 0.086 0.125 
0.224 0.624 0.067 0.082 
0.224 0.749 0.086 0.082 
0.224 0.71 0.086 0.125 
0.224 0.541 0.118 0.165 
0.196 0.416 0.102 0.043 
0.251 0.624 0.086 0.043 
0.11 0.502 0.102 0.043 
0.306 0.584 0.086 0.125 
0.333 0.918 0.067 0.043 
0.196 0.502 0.035 0.043 
0.165 0.667 0.067 0.0 
0.224 0.584 0.086 0.043 
0.055 0.125 0.051 0.082 
0.196 0.624 0.102 0.208 
0.137 0.416 0.067 0.082 
0.082 0.502 0.067 0.043 
0.196 0.541 0.067 0.043 
0.749 0.502 0.627 0.541 
0.722 0.459 0.663 0.584 
0.612 0.333 0.612 0.584 
0.557 0.541 0.627 0.624 
0.639 0.376 0.612 0.498 
0.196 0.0 0.424 0.376 
0.471 0.082 0.51 0.376 
0.361 0.376 0.439 0.498 
0.361 0.416 0.592 0.584 
0.529 0.082 0.592 0.584 
0.443 0.502 0.643 0.459 
0.557 0.208 0.663 0.584 
0.584 0.376 0.561 0.498 
0.694 0.333 0.643 0.541 
0.471 0.376 0.592 0.584 
0.333 0.169 0.475 0.416 
0.416 0.29 0.49 0.459 
0.306 0.416 0.592 0.584 
0.667 0.459 0.627 0.584 
0.361 0.416 0.525 0.498 
0.333 0.251 0.576 0.459 
0.416 0.251 0.51 0.459 
0.361 0.29 0.541 0.498 
0.388 0.376 0.541 0.498 
0.224 0.208 0.337 0.416 
0.584 0.502 0.592 0.584 
0.333 0.125 0.51 0.498 
0.388 0.333 0.592 0.498 
0.165 0.169 0.388 0.376 
0.251 0.29 0.49 0.541 
0.443 0.416 0.541 0.584 
0.498 0.376 0.627 0.541 
0.667 0.459 0.576 0.541 
0.416 0.29 0.525 0.376 
0.361 0.208 0.49 0.416 
0.498 0.333 0.51 0.498 
0.498 0.333 0.627 0.459 
0.639 0.416 0.576 0.541 
0.667 0.416 0.678 0.667 
0.388 0.251 0.424 0.376 
0.333 0.169 0.459 0.376 
0.471 0.29 0.694 0.624 
0.471 0.584 0.592 0.624 
0.557 0.125 0.576 0.498 
0.333 0.208 0.51 0.498 
0.498 0.416 0.612 0.541 
0.196 0.125 0.388 0.376 
0.388 0.416 0.541 0.459 
0.529 0.376 0.561 0.498 
0.388 0.333 0.525 0.498 
0.557 0.541 0.847 1.0 
0.776 0.416 0.831 0.831 
0.612 0.416 0.812 0.875 
0.165 0.208 0.592 0.667 
0.667 0.208 0.812 0.71 
0.612 0.502 0.694 0.792 
0.694 0.416 0.761 0.831 
0.416 0.333 0.694 0.957 
0.612 0.416 0.761 0.71 
0.945 0.251 1.0 0.918 
0.722 0.502 0.796 0.918 
0.945 0.333 0.965 0.792 
0.667 0.541 0.796 0.831 
0.529 0.333 0.643 0.71 
0.584 0.333 0.78 0.831 
0.863 0.333 0.863 0.749 
0.584 0.333 0.78 0.875 
0.498 0.251 0.78 0.541 
0.557 0.584 0.78 0.957 
0.471 0.416 0.643 0.71 
0.667 0.459 0.78 0.957 
0.416 0.29 0.694 0.749 
0.667 0.541 0.796 1.0 
0.557 0.208 0.678 0.749 
0.529 0.584 0.745 0.918 
0.416 0.29 0.694 0.749 
0.557 0.376 0.78 0.71 
0.918 0.416 0.949 0.831 
0.835 0.376 0.898 0.71 
0.804 0.667 0.863 1.0 
0.584 0.29 0.729 0.749 
0.388 0.208 0.678 0.792 
0.584 0.502 0.729 0.918 
0.945 0.749 0.965 0.875 
0.471 0.082 0.678 0.584 
0.361 0.333 0.663 0.792 
0.557 0.29 0.663 0.71 
0.804 0.502 0.847 0.71 
0.498 0.416 0.51 0.71 
0.804 0.416 0.812 0.624 
1.0 0.749 0.914 0.792 
0.557 0.333 0.694 0.584 
0.945 0.416 0.863 0.918 
0.584 0.459 0.761 0.71 
0.722 0.459 0.745 0.831 
0.722 0.459 0.694 0.918 
0.694 0.502 0.831 0.918 
0.667 0.416 0.714 0.918 
0.612 0.416 0.714 0.792 
0.443 0.416 0.694 0.71 
Teaching Patterns
1.0 0.0 0.0 
1.0 0.0 0.0 
1.0 0.0 0.0 
1.0 0.0 0.0 
1.0 0.0 0.0 
1.0 0.0 0.0 
1.0 0.0 0.0 
1.0 0.0 0.0 
1.0 0.0 0.0 
1.0 0.0 0.0 
1.0 0.0 0.0 
1.0 0.0 0.0 
1.0 0.0 0.0 
1.0 0.0 0.0 
1.0 0.0 0.0 
1.0 0.0 0.0 
1.0 0.0 0.0 
1.0 0.0 0.0 
1.0 0.0 0.0 
1.0 0.0 0.0 
1.0 0.0 0.0 
1.0 0.0 0.0 
1.0 0.0 0.0 
1.0 0.0 0.0 
1.0 0.0 0.0 
1.0 0.0 0.0 
1.0 0.0 0.0 
1.0 0.0 0.0 
1.0 0.0 0.0 
1.0 0.0 0.0 
1.0 0.0 0.0 
1.0 0.0 0.0 
1.0 0.0 0.0 
1.0 0.0 0.0 
1.0 0.0 0.0 
1.0 0.0 0.0 
1.0 0.0 0.0 
1.0 0.0 0.0 
1.0 0.0 0.0 
1.0 0.0 0.0 
1.0 0.0 0.0 
1.0 0.0 0.0 
1.0 0.0 0.0 
1.0 0.0 0.0 
1.0 0.0 0.0 
1.0 0.0 0.0 
1.0 0.0 0.0 
1.0 0.0 0.0 
1.0 0.0 0.0 
1.0 0.0 0.0 
0.0 1.0 0.0 
0.0 1.0 0.0 
0.0 1.0 0.0 
0.0 1.0 0.0 
0.0 1.0 0.0 
0.0 1.0 0.0 
0.0 1.0 0.0 
0.0 1.0 0.0 
0.0 1.0 0.0 
0.0 1.0 0.0 
0.0 1.0 0.0 
0.0 1.0 0.0 
0.0 1.0 0.0 
0.0 1.0 0.0 
0.0 1.0 0.0 
0.0 1.0 0.0 
0.0 1.0 0.0 
0.0 1.0 0.0 
0.0 1.0 0.0 
0.0 1.0 0.0 
0.0 1.0 0.0 
0.0 1.0 0.0 
0.0 1.0 0.0 
0.0 1.0 0.0 
0.0 1.0 0.0 
0.0 1.0 0.0 
0.0 1.0 0.0 
0.0 1.0 0.0 
0.0 1.0 0.0 
0.0 1.0 0.0 
0.0 1.0 0.0 
0.0 1.0 0.0 
0.0 1.0 0.0 
0.0 1.0 0.0 
0.0 1.0 0.0 
0.0 1.0 0.0 
0.0 1.0 0.0 
0.0 1.0 0.0 
0.0 1.0 0.0 
0.0 1.0 0.0 
0.0 1.0 0.0 
0.0 1.0 0.0 
0.0 1.0 0.0 
0.0 1.0 0.0 
0.0 1.0 0.0 
0.0 1.0 0.0 
0.0 1.0 0.0 
0.0 1.0 0.0 
0.0 1.0 0.0 
0.0 1.0 0.0 
0.0 0.0 1.0 
0.0 0.0 1.0 
0.0 0.0 1.0 
0.0 0.0 1.0 
0.0 0.0 1.0 
0.0 0.0 1.0 
0.0 0.0 1.0 
0.0 0.0 1.0 
0.0 0.0 1.0 
0.0 0.0 1.0 
0.0 0.0 1.0 
0.0 0.0 1.0 
0.0 0.0 1.0 
0.0 0.0 1.0 
0.0 0.0 1.0 
0.0 0.0 1.0 
0.0 0.0 1.0 
0.0 0.0 1.0 
0.0 0.0 1.0 
0.0 0.0 1.0 
0.0 0.0 1.0 
0.0 0.0 1.0 
0.0 0.0 1.0 
0.0 0.0 1.0 
0.0 0.0 1.0 
0.0 0.0 1.0 
0.0 0.0 1.0 
0.0 0.0 1.0 
0.0 0.0 1.0 
0.0 0.0 1.0 
0.0 0.0 1.0 
0.0 0.0 1.0 
0.0 0.0 1.0 
0.0 0.0 1.0 
0.0 0.0 1.0 
0.0 0.0 1.0 
0.0 0.0 1.0 
0.0 0.0 1.0 
0.0 0.0 1.0 
0.0 0.0 1.0 
0.0 0.0 1.0 
0.0 0.0 1.0 
0.0 0.0 1.0 
0.0 0.0 1.0 
0.0 0.0 1.0 
0.0 0.0 1.0 
0.0 0.0 1.0 
0.0 0.0 1.0 
0.0 0.0 1.0 
0.0 0.0 1.0 
Learning : 0.05
Momentum : 0.20000000298023224
Epoch: 100, Error: 0.0844083223751788
Epoch: 200, Error: 0.029390248144724403
Epoch: 300, Error: 0.01934854016641054
Epoch: 400, Error: 0.016269112362506857
Epoch: 500, Error: 0.014904266651115012
Epoch: 600, Error: 0.01418161240838762
Epoch: 700, Error: 0.013828822779517191
Epoch: 800, Error: 0.013325432431073815
Epoch: 900, Error: 0.012981716404472423
Epoch: 1000, Error: 0.01276967690025393
Epoch: 1100, Error: 0.012653514164798372
Epoch: 1200, Error: 0.01249574965244803
Epoch: 1300, Error: 0.012388264528800963
Epoch: 1400, Error: 0.01230390848005264
Epoch: 1500, Error: 0.012227588327470838
Epoch: 1600, Error: 0.012263436538732582
Epoch: 1700, Error: 0.01216285891017371
Epoch: 1800, Error: 0.012202574884101524
Epoch: 1900, Error: 0.01221192016835275
Epoch: 2000, Error: 0.012113277498372243
Epoch: 2100, Error: 0.012106848572327376
Epoch: 2200, Error: 0.012086469190727955
Epoch: 2300, Error: 0.01207593374894998
Epoch: 2400, Error: 0.012057038631110977
Epoch: 2500, Error: 0.01206806129727375
Epoch: 2600, Error: 0.012091258699267122
Epoch: 2700, Error: 0.01208493576880152
Epoch: 2800, Error: 0.012033931897691617
Epoch: 2900, Error: 0.012119220039687044
Epoch: 3000, Error: 0.012027606886894604
Epoch: 3100, Error: 0.012016308929259447
Epoch: 3200, Error: 0.01202409664414158
Epoch: 3300, Error: 0.012020732104064763
Epoch: 3400, Error: 0.012018702357725307
Epoch: 3500, Error: 0.012010327796666278
Epoch: 3600, Error: 0.012015297436562258
Epoch: 3700, Error: 0.012005032668980432
Epoch: 3800, Error: 0.012018756424615367
Epoch: 3900, Error: 0.011999277971839058
Epoch: 4000, Error: 0.012010145474299919
Epoch: 4100, Error: 0.012006869268414502
Epoch: 4200, Error: 0.011999270338797408
Epoch: 4300, Error: 0.011987053220314244
Epoch: 4400, Error: 0.011977613258383278
Epoch: 4500, Error: 0.01198166646135015
Epoch: 4600, Error: 0.012083989454914696
Epoch: 4700, Error: 0.011992944435735753
Epoch: 4800, Error: 0.012038856665460342
Epoch: 4900, Error: 0.011988687681235196
Epoch: 5000, Error: 0.011963230457988992
Epoch: 5100, Error: 0.012001517376325498
Epoch: 5200, Error: 0.011941167571394623
Epoch: 5300, Error: 0.01193633646620734
Epoch: 5400, Error: 0.01191941925479925
Epoch: 5500, Error: 0.011961938108701392
Epoch: 5600, Error: 0.011910471834365149
Epoch: 5700, Error: 0.011925520762475264
Epoch: 5800, Error: 0.01192411981483509
Epoch: 5900, Error: 0.011872461545909842
Epoch: 6000, Error: 0.0118604064763845
Epoch: 6100, Error: 0.011863120768498383
Epoch: 6200, Error: 0.011861701437118122
Epoch: 6300, Error: 0.01183125528512392
Epoch: 6400, Error: 0.011837603750275873
Epoch: 6500, Error: 0.01182581263613339
Epoch: 6600, Error: 0.011809257387076064
Epoch: 6700, Error: 0.011830449915125314
Epoch: 6800, Error: 0.011788677356273354
Epoch: 6900, Error: 0.011803322769651518
Epoch: 7000, Error: 0.0117750744819717
Epoch: 7100, Error: 0.011767683980696936
Epoch: 7200, Error: 0.011748790545360998
Epoch: 7300, Error: 0.011735748154703133
Epoch: 7400, Error: 0.011710214263889985
Epoch: 7500, Error: 0.011701417903168313
Epoch: 7600, Error: 0.01173220843404581
Epoch: 7700, Error: 0.011676191828046547
Epoch: 7800, Error: 0.01166562843931974
Epoch: 7900, Error: 0.01167984901107917
Epoch: 8000, Error: 0.011648657089335747
Epoch: 8100, Error: 0.011631276960953276
Epoch: 8200, Error: 0.01169069291983212
Epoch: 8300, Error: 0.01160079277284788
Epoch: 8400, Error: 0.011600133349934748
Epoch: 8500, Error: 0.011580959736396697
Epoch: 8600, Error: 0.011567532352889107
Epoch: 8700, Error: 0.011539988958737677
Epoch: 8800, Error: 0.011541544980699977
Epoch: 8900, Error: 0.011509504870955936
Epoch: 9000, Error: 0.011506243763531687
Epoch: 9100, Error: 0.011488601078188696
Epoch: 9200, Error: 0.011450818004000695
Epoch: 9300, Error: 0.01150644261820502
Epoch: 9400, Error: 0.011449263922808685
Epoch: 9500, Error: 0.011423280996287992
Epoch: 9600, Error: 0.011385468528712556
Epoch: 9700, Error: 0.011364684112797133
Epoch: 9800, Error: 0.011364680436443711
Epoch: 9900, Error: 0.01137065621695632
Epoch: 10000, Error: 0.011335354937358646
Epoch: 10100, Error: 0.011286001881549724
Epoch: 10200, Error: 0.011266558745218648
Epoch: 10300, Error: 0.011243912404340773
Epoch: 10400, Error: 0.01122620483167198
Epoch: 10500, Error: 0.011207306504879945
Epoch: 10600, Error: 0.01116998982220734
Epoch: 10700, Error: 0.011152068876245426
Epoch: 10800, Error: 0.011137646785018357
Epoch: 10900, Error: 0.011093238021382257
Epoch: 11000, Error: 0.011075302281079363
Epoch: 11100, Error: 0.011112415343143093
Epoch: 11200, Error: 0.011011910574497432
Epoch: 11300, Error: 0.011038253567860201
Epoch: 11400, Error: 0.010952315304421006
Epoch: 11500, Error: 0.010909060651110386
Epoch: 11600, Error: 0.01086838937400805
Epoch: 11700, Error: 0.010850290448291737
Epoch: 11800, Error: 0.010805703742490496
Epoch: 11900, Error: 0.010735431905251974
Epoch: 12000, Error: 0.010690880217290779
Epoch: 12100, Error: 0.010658068252397323
Epoch: 12200, Error: 0.01058031157054593
Epoch: 12300, Error: 0.010553495721231118
Epoch: 12400, Error: 0.010567443066377791
Epoch: 12500, Error: 0.010408307150816358
Epoch: 12600, Error: 0.010300806835739185
Epoch: 12700, Error: 0.010214485791940488
Epoch: 12800, Error: 0.010146789263628745
Epoch: 12900, Error: 0.010052790858068532
Epoch: 13000, Error: 0.009972453276731755
Epoch: 13100, Error: 0.009846246743273142
Epoch: 13200, Error: 0.009740819103373991
Epoch: 13300, Error: 0.009635993647617306
Epoch: 13400, Error: 0.009549593273513358
Epoch: 13500, Error: 0.009421363254823043
Epoch: 13600, Error: 0.009400298383120159
Epoch: 13700, Error: 0.009201859686853844
Epoch: 13800, Error: 0.009121606807145006
Epoch: 13900, Error: 0.00896563246470596
Epoch: 14000, Error: 0.008827061220070851
Epoch: 14100, Error: 0.008717358744606066
Epoch: 14200, Error: 0.00859643640826872
Epoch: 14300, Error: 0.008485137274930043
Epoch: 14400, Error: 0.008369699998850864
Epoch: 14500, Error: 0.00828622505009451
Epoch: 14600, Error: 0.008137716532282725
Epoch: 14700, Error: 0.008044433983187408
Epoch: 14800, Error: 0.007961458026012275
Epoch: 14900, Error: 0.007841487230695492
Epoch: 15000, Error: 0.007714459298115469
Epoch: 15100, Error: 0.007637372523938365
Epoch: 15200, Error: 0.007547508469263697
Epoch: 15300, Error: 0.007453499833284132
Epoch: 15400, Error: 0.00736816941219668
Epoch: 15500, Error: 0.007276577966866784
Epoch: 15600, Error: 0.007255960626664492
Epoch: 15700, Error: 0.007145223159191296
Epoch: 15800, Error: 0.0070601927829042795
Epoch: 15900, Error: 0.006994003435017997
Epoch: 16000, Error: 0.0069255845907445586
Epoch: 16100, Error: 0.006863987787325941
Epoch: 16200, Error: 0.006792278992565367
Epoch: 16300, Error: 0.006731990785659643
Epoch: 16400, Error: 0.006678875982701105
Epoch: 16500, Error: 0.006635560706620107
Epoch: 16600, Error: 0.006564026283067782
Epoch: 16700, Error: 0.006527311961025325
Epoch: 16800, Error: 0.0064612227585047685
Epoch: 16900, Error: 0.0064209961783161405
Epoch: 17000, Error: 0.006369228328978004
Epoch: 17100, Error: 0.0063233117943028916
Epoch: 17200, Error: 0.00628237370739662
Epoch: 17300, Error: 0.00624733054850228
Epoch: 17400, Error: 0.006205980202961594
Epoch: 17500, Error: 0.006183681509876995
Epoch: 17600, Error: 0.006145918697820471
Epoch: 17700, Error: 0.006104067726044325
Epoch: 17800, Error: 0.006061638842053363
Epoch: 17900, Error: 0.006035534365818512
Epoch: 18000, Error: 0.005996013158858457
Epoch: 18100, Error: 0.005973273718567604
Epoch: 18200, Error: 0.0059453046787218255
Epoch: 18300, Error: 0.005951954303266377
Epoch: 18400, Error: 0.005883305298928757
Epoch: 18500, Error: 0.005888333465668109
Epoch: 18600, Error: 0.005849739992264499
Epoch: 18700, Error: 0.005806985823046168
Epoch: 18800, Error: 0.005778110799197782
Epoch: 18900, Error: 0.005771480714153892
Epoch: 19000, Error: 0.005757434916254336
Epoch: 19100, Error: 0.005712604110751828
Epoch: 19200, Error: 0.005688824213061709
Epoch: 19300, Error: 0.005667418748057811
Epoch: 19400, Error: 0.005643297404118936
Epoch: 19500, Error: 0.005632431151838309
Epoch: 19600, Error: 0.005659347793932888
Epoch: 19700, Error: 0.005630328732997992
Epoch: 19800, Error: 0.00557018296730078
Epoch: 19900, Error: 0.005565480663309677
Epoch: 20000, Error: 0.0055489616152597275
Epoch: 20100, Error: 0.005530593812771081
Epoch: 20200, Error: 0.005523030399259349
Epoch: 20300, Error: 0.0054957928766634434
Epoch: 20400, Error: 0.005524999443158529
Epoch: 20500, Error: 0.00545380464450523
Epoch: 20600, Error: 0.005445903698980051
Epoch: 20700, Error: 0.005448635717910918
Epoch: 20800, Error: 0.005413524077629519
Epoch: 20900, Error: 0.005396546933013618
Epoch: 21000, Error: 0.005386539013264795
Epoch: 21100, Error: 0.00536463426263397
Epoch: 21200, Error: 0.005358263198546683
Epoch: 21300, Error: 0.005342763929668189
Epoch: 21400, Error: 0.005301444795915958
Epoch: 21500, Error: 0.005277991478831213
Epoch: 21600, Error: 0.005264517297069586
Epoch: 21700, Error: 0.0052406568053837265
Epoch: 21800, Error: 0.005226488931784789
Epoch: 21900, Error: 0.005199417567784574
Epoch: 22000, Error: 0.005179719577861658
Epoch: 22100, Error: 0.005158068819894072
Epoch: 22200, Error: 0.005133950809966181
Epoch: 22300, Error: 0.005122138961171928
Epoch: 22400, Error: 0.0051206979288257355
Epoch: 22500, Error: 0.0050974172199075955
Epoch: 22600, Error: 0.0050823319515935945
Epoch: 22700, Error: 0.00504862236156932
Epoch: 22800, Error: 0.005044364381691781
Epoch: 22900, Error: 0.005035141579236871
Epoch: 23000, Error: 0.005008413805133165
Epoch: 23100, Error: 0.004993500046369545
Epoch: 23200, Error: 0.004992501910092799
Epoch: 23300, Error: 0.004986094521039697
Epoch: 23400, Error: 0.004941316284071598
Epoch: 23500, Error: 0.004937051770397887
Epoch: 23600, Error: 0.004922014135854608
Epoch: 23700, Error: 0.004911426470402646
Epoch: 23800, Error: 0.0049191787891707415
Epoch: 23900, Error: 0.004882559594526123
Epoch: 24000, Error: 0.004900268847359132
Epoch: 24100, Error: 0.004850685215758935
Epoch: 24200, Error: 0.004851880333391595
Epoch: 24300, Error: 0.004822344206785244
Epoch: 24400, Error: 0.004803188598007715
Epoch: 24500, Error: 0.004780232979489869
Epoch: 24600, Error: 0.004763481879614236
Epoch: 24700, Error: 0.0047503347692795985
Epoch: 24800, Error: 0.004748346405367263
Epoch: 24900, Error: 0.0047099284822447185
Epoch: 25000, Error: 0.00470312812792181
Epoch: 25100, Error: 0.004697942041220698
Epoch: 25200, Error: 0.004676209647884474
Epoch: 25300, Error: 0.0046499481207811465
Epoch: 25400, Error: 0.004629576122383235
Epoch: 25500, Error: 0.004614911065496556
Epoch: 25600, Error: 0.004581955014278786
Epoch: 25700, Error: 0.004569956231865024
Epoch: 25800, Error: 0.004537315794619592
Epoch: 25900, Error: 0.004520279647869577
Epoch: 26000, Error: 0.004507398541810813
Epoch: 26100, Error: 0.004486127740474169
Epoch: 26200, Error: 0.0044805703254551
Epoch: 26300, Error: 0.00445058199528479
Epoch: 26400, Error: 0.004438874739791374
Epoch: 26500, Error: 0.004413606095784914
Epoch: 26600, Error: 0.004422392947721803
Epoch: 26700, Error: 0.0043731619959168
Epoch: 26800, Error: 0.004330240505779564
Epoch: 26900, Error: 0.004327852798789526
Epoch: 27000, Error: 0.004316416511786547
Epoch: 27100, Error: 0.004252303116414555
Epoch: 27200, Error: 0.00424734396864569
Epoch: 27300, Error: 0.004204331505105748
Epoch: 27400, Error: 0.0041879528024860255
Epoch: 27500, Error: 0.004163797146010793
Epoch: 27600, Error: 0.004124183522693565
Epoch: 27700, Error: 0.004102944883924178
Epoch: 27800, Error: 0.004078129737972757
Epoch: 27900, Error: 0.004048909604107651
Epoch: 28000, Error: 0.004024094255317655
Epoch: 28100, Error: 0.004001820709928979
Epoch: 28200, Error: 0.004017009393696895
Epoch: 28300, Error: 0.003957644638966658
Epoch: 28400, Error: 0.0039341904967119725
Epoch: 28500, Error: 0.003915675014048601
Epoch: 28600, Error: 0.0038983836881627937
Epoch: 28700, Error: 0.0038824995012871526
Epoch: 28800, Error: 0.003840783297146558
Epoch: 28900, Error: 0.0038233812275393414
Epoch: 29000, Error: 0.003838124408785991
Epoch: 29100, Error: 0.0037769563804687803
Epoch: 29200, Error: 0.0037896465404773844
Epoch: 29300, Error: 0.003735467744948323
Epoch: 29400, Error: 0.0037270335325478104
Epoch: 29500, Error: 0.0036915749219643625
Epoch: 29600, Error: 0.003690364049861643
Epoch: 29700, Error: 0.0036493876844262947
Epoch: 29800, Error: 0.0036262454879818213
Epoch: 29900, Error: 0.0036463250565774937
Epoch: 30000, Error: 0.0036459672976512274
Epoch: 30100, Error: 0.0035840636951242773
Epoch: 30200, Error: 0.003551177293296735
Epoch: 30300, Error: 0.0035473411691958924
Epoch: 30400, Error: 0.0035057357488501696
Epoch: 30500, Error: 0.0035003482272200387
Epoch: 30600, Error: 0.0034977702177833433
Epoch: 30700, Error: 0.0034475919398420127
Epoch: 30800, Error: 0.0035055503193470276
Epoch: 30900, Error: 0.0034751700465929887
Epoch: 31000, Error: 0.0034021658045017295
Epoch: 31100, Error: 0.0033899115091567283
Epoch: 31200, Error: 0.0034123526142628615
Epoch: 31300, Error: 0.0033629146340153236
Epoch: 31400, Error: 0.00330694335367424
Epoch: 31500, Error: 0.0032925995427109385
Epoch: 31600, Error: 0.003294412593474599
Epoch: 31700, Error: 0.0032595879072328036
Epoch: 31800, Error: 0.003278468925507793
Epoch: 31900, Error: 0.003233123272417068
Epoch: 32000, Error: 0.003251350602335258
Epoch: 32100, Error: 0.003252951374962118
Epoch: 32200, Error: 0.003201897991825299
Epoch: 32300, Error: 0.0031495542137769117
Epoch: 32400, Error: 0.003238705223842423
Epoch: 32500, Error: 0.0031949279305963233
Epoch: 32600, Error: 0.003097870939331965
Epoch: 32700, Error: 0.003111764070617981
Epoch: 32800, Error: 0.0030871756623559927
Epoch: 32900, Error: 0.003038506179644002
Epoch: 33000, Error: 0.003070519543869975
Epoch: 33100, Error: 0.003027585915041829
Epoch: 33200, Error: 0.0030160834013964665
Epoch: 33300, Error: 0.003060204285198297
Epoch: 33400, Error: 0.0030088527027709315
Epoch: 33500, Error: 0.002942967724405584
Epoch: 33600, Error: 0.002929269355497092
Epoch: 33700, Error: 0.002905434667107342
Epoch: 33800, Error: 0.002957610339052799
Epoch: 33900, Error: 0.0029172906671979396
Epoch: 34000, Error: 0.0028583166494513
Epoch: 34100, Error: 0.0028522362415180262
Epoch: 34200, Error: 0.0028062200714736446
Epoch: 34300, Error: 0.002792879080819452
Epoch: 34400, Error: 0.0027772757386493627
Epoch: 34500, Error: 0.002757603759376992
Epoch: 34600, Error: 0.002749792544975251
Epoch: 34700, Error: 0.0028202597756064466
Epoch: 34800, Error: 0.002710469788574121
Epoch: 34900, Error: 0.0027295497981922093
Epoch: 35000, Error: 0.0027451673643061132
Epoch: 35100, Error: 0.002696846359225672
Epoch: 35200, Error: 0.0026556191823658448
Epoch: 35300, Error: 0.0026684742156615313
Epoch: 35400, Error: 0.0026558889260404396
Epoch: 35500, Error: 0.00265467047135361
Epoch: 35600, Error: 0.002615548540856815
Epoch: 35700, Error: 0.0026533270536500896
Epoch: 35800, Error: 0.0026336193654494452
Epoch: 35900, Error: 0.002576114878930137
Epoch: 36000, Error: 0.002611907356384574
Epoch: 36100, Error: 0.0025539140324583685
Epoch: 36200, Error: 0.0025240225187527924
Epoch: 36300, Error: 0.0025148701939406515
Epoch: 36400, Error: 0.0024929154372374585
Epoch: 36500, Error: 0.0024932395699639297
Epoch: 36600, Error: 0.002491295163930221
Epoch: 36700, Error: 0.0024464053057687866
Epoch: 36800, Error: 0.0024533855200602017
Epoch: 36900, Error: 0.002463306145356538
Epoch: 37000, Error: 0.0024570818694318614
Epoch: 37100, Error: 0.002497419507858391
Epoch: 37200, Error: 0.0024182141309148078
Epoch: 37300, Error: 0.002384573220839778
Epoch: 37400, Error: 0.0023947456820238118
Epoch: 37500, Error: 0.002384579811592794
Epoch: 37600, Error: 0.0023477073976297252
Epoch: 37700, Error: 0.002373080105902358
Epoch: 37800, Error: 0.0023866883951556162
Epoch: 37900, Error: 0.0023172682556089007
Epoch: 38000, Error: 0.0022937003971007807
Epoch: 38100, Error: 0.00228605066427272
Epoch: 38200, Error: 0.0022966792967569244
Epoch: 38300, Error: 0.002275273131135555
Epoch: 38400, Error: 0.0022548525656944903
Epoch: 38500, Error: 0.0022820556044330018
Epoch: 38600, Error: 0.002240225869075549
Epoch: 38700, Error: 0.002255953579080878
Epoch: 38800, Error: 0.0022134596614098033
Epoch: 38900, Error: 0.002255692805977035
Epoch: 39000, Error: 0.0022094180329127098
Epoch: 39100, Error: 0.00220981320850858
Epoch: 39200, Error: 0.0021862919369910645
Epoch: 39300, Error: 0.002170163551232343
Epoch: 39400, Error: 0.0021775680055449915
Epoch: 39500, Error: 0.0021478301572237235
Epoch: 39600, Error: 0.0021441434291243093
Epoch: 39700, Error: 0.002205471458181841
Epoch: 39800, Error: 0.002139701603393268
Epoch: 39900, Error: 0.002147987956952834
Epoch: 40000, Error: 0.0021247429736409433
Epoch: 40100, Error: 0.0021153625087766566
Epoch: 40200, Error: 0.0020841276942065515
Epoch: 40300, Error: 0.002142878457166889
Epoch: 40400, Error: 0.0020930739166647146
Epoch: 40500, Error: 0.00205318406526406
Epoch: 40600, Error: 0.0020813745186913806
Epoch: 40700, Error: 0.0021114968048929874
Epoch: 40800, Error: 0.002070996012632236
Epoch: 40900, Error: 0.002080289835986552
Epoch: 41000, Error: 0.0020919261893298582
Epoch: 41100, Error: 0.002064908987926912
Epoch: 41200, Error: 0.0020055240787261843
Epoch: 41300, Error: 0.0019943281098932283
Epoch: 41400, Error: 0.0020272859350778287
Finished
