Input Patterns
0.224 0.624 0.067 0.043 
0.11 0.502 0.051 0.043 
0.196 0.667 0.067 0.043 
0.055 0.584 0.067 0.082 
0.027 0.376 0.067 0.043 
0.306 0.71 0.086 0.043 
0.137 0.416 0.067 0.0 
0.416 0.831 0.035 0.043 
0.306 0.792 0.051 0.125 
0.388 0.749 0.118 0.082 
0.306 0.584 0.118 0.043 
0.082 0.667 0.0 0.043 
0.137 0.584 0.153 0.043 
0.196 0.584 0.102 0.125 
0.251 0.584 0.067 0.043 
0.137 0.459 0.102 0.043 
0.251 0.875 0.086 0.0 
0.165 0.459 0.086 0.043 
0.333 0.624 0.051 0.043 
0.027 0.416 0.051 0.043 
0.196 0.624 0.051 0.082 
0.027 0.502 0.051 0.043 
0.224 0.749 0.153 0.125 
0.224 0.749 0.102 0.043 
0.278 0.71 0.086 0.043 
0.165 0.416 0.067 0.043 
0.082 0.459 0.086 0.043 
0.306 0.792 0.118 0.125 
0.196 0.584 0.086 0.043 
0.165 0.459 0.086 0.0 
0.137 0.584 0.102 0.043 
0.0 0.416 0.016 0.0 
0.388 1.0 0.086 0.125 
0.224 0.624 0.067 0.082 
0.224 0.749 0.086 0.082 
0.224 0.71 0.086 0.125 
0.224 0.541 0.118 0.165 
0.196 0.416 0.102 0.043 
0.251 0.624 0.086 0.043 
0.11 0.502 0.102 0.043 
0.306 0.584 0.086 0.125 
0.333 0.918 0.067 0.043 
0.196 0.502 0.035 0.043 
0.165 0.667 0.067 0.0 
0.224 0.584 0.086 0.043 
0.055 0.125 0.051 0.082 
0.196 0.624 0.102 0.208 
0.137 0.416 0.067 0.082 
0.082 0.502 0.067 0.043 
0.196 0.541 0.067 0.043 
0.749 0.502 0.627 0.541 
0.722 0.459 0.663 0.584 
0.612 0.333 0.612 0.584 
0.557 0.541 0.627 0.624 
0.639 0.376 0.612 0.498 
0.196 0.0 0.424 0.376 
0.471 0.082 0.51 0.376 
0.361 0.376 0.439 0.498 
0.361 0.416 0.592 0.584 
0.529 0.082 0.592 0.584 
0.443 0.502 0.643 0.459 
0.557 0.208 0.663 0.584 
0.584 0.376 0.561 0.498 
0.694 0.333 0.643 0.541 
0.471 0.376 0.592 0.584 
0.333 0.169 0.475 0.416 
0.416 0.29 0.49 0.459 
0.306 0.416 0.592 0.584 
0.667 0.459 0.627 0.584 
0.361 0.416 0.525 0.498 
0.333 0.251 0.576 0.459 
0.416 0.251 0.51 0.459 
0.361 0.29 0.541 0.498 
0.388 0.376 0.541 0.498 
0.224 0.208 0.337 0.416 
0.584 0.502 0.592 0.584 
0.333 0.125 0.51 0.498 
0.388 0.333 0.592 0.498 
0.165 0.169 0.388 0.376 
0.251 0.29 0.49 0.541 
0.443 0.416 0.541 0.584 
0.498 0.376 0.627 0.541 
0.667 0.459 0.576 0.541 
0.416 0.29 0.525 0.376 
0.361 0.208 0.49 0.416 
0.498 0.333 0.51 0.498 
0.498 0.333 0.627 0.459 
0.639 0.416 0.576 0.541 
0.667 0.416 0.678 0.667 
0.388 0.251 0.424 0.376 
0.333 0.169 0.459 0.376 
0.471 0.29 0.694 0.624 
0.471 0.584 0.592 0.624 
0.557 0.125 0.576 0.498 
0.333 0.208 0.51 0.498 
0.498 0.416 0.612 0.541 
0.196 0.125 0.388 0.376 
0.388 0.416 0.541 0.459 
0.529 0.376 0.561 0.498 
0.388 0.333 0.525 0.498 
0.557 0.541 0.847 1.0 
0.776 0.416 0.831 0.831 
0.612 0.416 0.812 0.875 
0.165 0.208 0.592 0.667 
0.667 0.208 0.812 0.71 
0.612 0.502 0.694 0.792 
0.694 0.416 0.761 0.831 
0.416 0.333 0.694 0.957 
0.612 0.416 0.761 0.71 
0.945 0.251 1.0 0.918 
0.722 0.502 0.796 0.918 
0.945 0.333 0.965 0.792 
0.667 0.541 0.796 0.831 
0.529 0.333 0.643 0.71 
0.584 0.333 0.78 0.831 
0.863 0.333 0.863 0.749 
0.584 0.333 0.78 0.875 
0.498 0.251 0.78 0.541 
0.557 0.584 0.78 0.957 
0.471 0.416 0.643 0.71 
0.667 0.459 0.78 0.957 
0.416 0.29 0.694 0.749 
0.667 0.541 0.796 1.0 
0.557 0.208 0.678 0.749 
0.529 0.584 0.745 0.918 
0.416 0.29 0.694 0.749 
0.557 0.376 0.78 0.71 
0.918 0.416 0.949 0.831 
0.835 0.376 0.898 0.71 
0.804 0.667 0.863 1.0 
0.584 0.29 0.729 0.749 
0.388 0.208 0.678 0.792 
0.584 0.502 0.729 0.918 
0.945 0.749 0.965 0.875 
0.471 0.082 0.678 0.584 
0.361 0.333 0.663 0.792 
0.557 0.29 0.663 0.71 
0.804 0.502 0.847 0.71 
0.498 0.416 0.51 0.71 
0.804 0.416 0.812 0.624 
1.0 0.749 0.914 0.792 
0.557 0.333 0.694 0.584 
0.945 0.416 0.863 0.918 
0.584 0.459 0.761 0.71 
0.722 0.459 0.745 0.831 
0.722 0.459 0.694 0.918 
0.694 0.502 0.831 0.918 
0.667 0.416 0.714 0.918 
0.612 0.416 0.714 0.792 
0.443 0.416 0.694 0.71 
Teaching Patterns
1.0 0.0 0.0 
1.0 0.0 0.0 
1.0 0.0 0.0 
1.0 0.0 0.0 
1.0 0.0 0.0 
1.0 0.0 0.0 
1.0 0.0 0.0 
1.0 0.0 0.0 
1.0 0.0 0.0 
1.0 0.0 0.0 
1.0 0.0 0.0 
1.0 0.0 0.0 
1.0 0.0 0.0 
1.0 0.0 0.0 
1.0 0.0 0.0 
1.0 0.0 0.0 
1.0 0.0 0.0 
1.0 0.0 0.0 
1.0 0.0 0.0 
1.0 0.0 0.0 
1.0 0.0 0.0 
1.0 0.0 0.0 
1.0 0.0 0.0 
1.0 0.0 0.0 
1.0 0.0 0.0 
1.0 0.0 0.0 
1.0 0.0 0.0 
1.0 0.0 0.0 
1.0 0.0 0.0 
1.0 0.0 0.0 
1.0 0.0 0.0 
1.0 0.0 0.0 
1.0 0.0 0.0 
1.0 0.0 0.0 
1.0 0.0 0.0 
1.0 0.0 0.0 
1.0 0.0 0.0 
1.0 0.0 0.0 
1.0 0.0 0.0 
1.0 0.0 0.0 
1.0 0.0 0.0 
1.0 0.0 0.0 
1.0 0.0 0.0 
1.0 0.0 0.0 
1.0 0.0 0.0 
1.0 0.0 0.0 
1.0 0.0 0.0 
1.0 0.0 0.0 
1.0 0.0 0.0 
1.0 0.0 0.0 
0.0 1.0 0.0 
0.0 1.0 0.0 
0.0 1.0 0.0 
0.0 1.0 0.0 
0.0 1.0 0.0 
0.0 1.0 0.0 
0.0 1.0 0.0 
0.0 1.0 0.0 
0.0 1.0 0.0 
0.0 1.0 0.0 
0.0 1.0 0.0 
0.0 1.0 0.0 
0.0 1.0 0.0 
0.0 1.0 0.0 
0.0 1.0 0.0 
0.0 1.0 0.0 
0.0 1.0 0.0 
0.0 1.0 0.0 
0.0 1.0 0.0 
0.0 1.0 0.0 
0.0 1.0 0.0 
0.0 1.0 0.0 
0.0 1.0 0.0 
0.0 1.0 0.0 
0.0 1.0 0.0 
0.0 1.0 0.0 
0.0 1.0 0.0 
0.0 1.0 0.0 
0.0 1.0 0.0 
0.0 1.0 0.0 
0.0 1.0 0.0 
0.0 1.0 0.0 
0.0 1.0 0.0 
0.0 1.0 0.0 
0.0 1.0 0.0 
0.0 1.0 0.0 
0.0 1.0 0.0 
0.0 1.0 0.0 
0.0 1.0 0.0 
0.0 1.0 0.0 
0.0 1.0 0.0 
0.0 1.0 0.0 
0.0 1.0 0.0 
0.0 1.0 0.0 
0.0 1.0 0.0 
0.0 1.0 0.0 
0.0 1.0 0.0 
0.0 1.0 0.0 
0.0 1.0 0.0 
0.0 1.0 0.0 
0.0 0.0 1.0 
0.0 0.0 1.0 
0.0 0.0 1.0 
0.0 0.0 1.0 
0.0 0.0 1.0 
0.0 0.0 1.0 
0.0 0.0 1.0 
0.0 0.0 1.0 
0.0 0.0 1.0 
0.0 0.0 1.0 
0.0 0.0 1.0 
0.0 0.0 1.0 
0.0 0.0 1.0 
0.0 0.0 1.0 
0.0 0.0 1.0 
0.0 0.0 1.0 
0.0 0.0 1.0 
0.0 0.0 1.0 
0.0 0.0 1.0 
0.0 0.0 1.0 
0.0 0.0 1.0 
0.0 0.0 1.0 
0.0 0.0 1.0 
0.0 0.0 1.0 
0.0 0.0 1.0 
0.0 0.0 1.0 
0.0 0.0 1.0 
0.0 0.0 1.0 
0.0 0.0 1.0 
0.0 0.0 1.0 
0.0 0.0 1.0 
0.0 0.0 1.0 
0.0 0.0 1.0 
0.0 0.0 1.0 
0.0 0.0 1.0 
0.0 0.0 1.0 
0.0 0.0 1.0 
0.0 0.0 1.0 
0.0 0.0 1.0 
0.0 0.0 1.0 
0.0 0.0 1.0 
0.0 0.0 1.0 
0.0 0.0 1.0 
0.0 0.0 1.0 
0.0 0.0 1.0 
0.0 0.0 1.0 
0.0 0.0 1.0 
0.0 0.0 1.0 
0.0 0.0 1.0 
0.0 0.0 1.0 
Learning : 0.05
Momentum : 0.20000000298023224
Epoch: 100, Error: 0.08514653634063946
Epoch: 200, Error: 0.032113968205939245
Epoch: 300, Error: 0.01975174532141673
Epoch: 400, Error: 0.016390816275077234
Epoch: 500, Error: 0.014991018891976009
Epoch: 600, Error: 0.014118842516431255
Epoch: 700, Error: 0.013674939138328252
Epoch: 800, Error: 0.013304816747568999
Epoch: 900, Error: 0.01297960747999235
Epoch: 1000, Error: 0.012767033521359657
Epoch: 1100, Error: 0.012670646088157262
Epoch: 1200, Error: 0.012545804930457332
Epoch: 1300, Error: 0.012462103957294362
Epoch: 1400, Error: 0.01239385600464675
Epoch: 1500, Error: 0.012405199834144504
Epoch: 1600, Error: 0.012279439243535669
Epoch: 1700, Error: 0.012213874812215668
Epoch: 1800, Error: 0.01219020064697176
Epoch: 1900, Error: 0.012152233069268102
Epoch: 2000, Error: 0.012315150881753448
Epoch: 2100, Error: 0.01210319633837749
Epoch: 2200, Error: 0.012075471040420038
Epoch: 2300, Error: 0.012059027068222027
Epoch: 2400, Error: 0.012063719341756074
Epoch: 2500, Error: 0.012023982707487656
Epoch: 2600, Error: 0.012020606035335437
Epoch: 2700, Error: 0.012001198817064487
Epoch: 2800, Error: 0.011992763010613142
Epoch: 2900, Error: 0.012021229229833088
Epoch: 3000, Error: 0.011972946611297981
Epoch: 3100, Error: 0.011972809202383255
Epoch: 3200, Error: 0.012025155936331135
Epoch: 3300, Error: 0.011949525559816954
Epoch: 3400, Error: 0.011938005530983849
Epoch: 3500, Error: 0.011933662281441272
Epoch: 3600, Error: 0.011923013331762938
Epoch: 3700, Error: 0.011942807188912335
Epoch: 3800, Error: 0.011950774457457488
Epoch: 3900, Error: 0.011938813007699722
Epoch: 4000, Error: 0.011946494867298086
Epoch: 4100, Error: 0.011947347710940692
Epoch: 4200, Error: 0.011937010641675006
Epoch: 4300, Error: 0.011934794143966337
Epoch: 4400, Error: 0.011959918985365017
Epoch: 4500, Error: 0.011940084918733976
Epoch: 4600, Error: 0.01209761680583596
Epoch: 4700, Error: 0.011933456515821807
Epoch: 4800, Error: 0.011930179338510975
Epoch: 4900, Error: 0.01195111750892335
Epoch: 5000, Error: 0.011939116386749913
Epoch: 5100, Error: 0.011929577518628234
Epoch: 5200, Error: 0.011968393120680494
Epoch: 5300, Error: 0.011936997718658568
Epoch: 5400, Error: 0.011945787548587107
Epoch: 5500, Error: 0.011942097295648773
Epoch: 5600, Error: 0.011931014382516566
Epoch: 5700, Error: 0.011917696636139195
Epoch: 5800, Error: 0.011908444233915518
Epoch: 5900, Error: 0.011900599873146431
Epoch: 6000, Error: 0.011891457509153441
Epoch: 6100, Error: 0.011879819065183065
Epoch: 6200, Error: 0.011886947905971237
Epoch: 6300, Error: 0.011878603561005825
Epoch: 6400, Error: 0.011855021732712719
Epoch: 6500, Error: 0.011839096196125557
Epoch: 6600, Error: 0.011830408597606434
Epoch: 6700, Error: 0.011816203732661047
Epoch: 6800, Error: 0.011817846763800372
Epoch: 6900, Error: 0.011801182148641455
Epoch: 7000, Error: 0.01178467782526084
Epoch: 7100, Error: 0.011770341172122003
Epoch: 7200, Error: 0.011787005253447395
Epoch: 7300, Error: 0.011749974193141739
Epoch: 7400, Error: 0.011739945717959062
Epoch: 7500, Error: 0.011732129149832713
Epoch: 7600, Error: 0.011732531964445635
Epoch: 7700, Error: 0.011712114794363248
Epoch: 7800, Error: 0.011697885772126297
Epoch: 7900, Error: 0.011688613212043503
Epoch: 8000, Error: 0.011677208821964697
Epoch: 8100, Error: 0.011682659485471305
Epoch: 8200, Error: 0.01164313331817638
Epoch: 8300, Error: 0.01162647794769117
Epoch: 8400, Error: 0.0116110764316721
Epoch: 8500, Error: 0.011596379267811102
Epoch: 8600, Error: 0.01158570517906104
Epoch: 8700, Error: 0.01157475067383799
Epoch: 8800, Error: 0.011593328847275049
Epoch: 8900, Error: 0.01153511048913536
Epoch: 9000, Error: 0.011517273985575989
Epoch: 9100, Error: 0.011509960005098133
Epoch: 9200, Error: 0.011481545309557646
Epoch: 9300, Error: 0.011455191851904276
Epoch: 9400, Error: 0.011435302332557734
Epoch: 9500, Error: 0.011418727915403834
Epoch: 9600, Error: 0.011435423300953857
Epoch: 9700, Error: 0.011361514859920074
Epoch: 9800, Error: 0.01133967869636088
Epoch: 9900, Error: 0.011343897829964296
Epoch: 10000, Error: 0.011295570300159324
Epoch: 10100, Error: 0.011257703744221088
Epoch: 10200, Error: 0.011235071021051575
Epoch: 10300, Error: 0.011242649368979856
Epoch: 10400, Error: 0.011160453091368695
Epoch: 10500, Error: 0.01113498707674858
Epoch: 10600, Error: 0.011112632698646457
Epoch: 10700, Error: 0.01104996057619914
Epoch: 10800, Error: 0.010999840048582043
Epoch: 10900, Error: 0.010976695212800489
Epoch: 11000, Error: 0.0109094085596554
Epoch: 11100, Error: 0.010877499707663486
Epoch: 11200, Error: 0.010862416856880688
Epoch: 11300, Error: 0.010796436908178051
Epoch: 11400, Error: 0.010713625784888317
Epoch: 11500, Error: 0.010699721836028618
Epoch: 11600, Error: 0.010599583747321057
Epoch: 11700, Error: 0.010532755514340181
Epoch: 11800, Error: 0.01047492203384714
Epoch: 11900, Error: 0.010407482323218219
Epoch: 12000, Error: 0.010382558823567672
Epoch: 12100, Error: 0.010285234218340659
Epoch: 12200, Error: 0.010236994525347359
Epoch: 12300, Error: 0.010175216815671339
Epoch: 12400, Error: 0.010094106314576688
Epoch: 12500, Error: 0.010024221356911224
Epoch: 12600, Error: 0.009947270219703718
Epoch: 12700, Error: 0.00987330593337091
Epoch: 12800, Error: 0.009786648937693074
Epoch: 12900, Error: 0.009685712771483493
Epoch: 13000, Error: 0.009580100250620251
Epoch: 13100, Error: 0.009487655797254179
Epoch: 13200, Error: 0.00938759380110856
Epoch: 13300, Error: 0.009272450989210316
Epoch: 13400, Error: 0.00917840020023005
Epoch: 13500, Error: 0.009074655807785865
Epoch: 13600, Error: 0.008976062336694983
Epoch: 13700, Error: 0.0088578221359082
Epoch: 13800, Error: 0.00875473337230961
Epoch: 13900, Error: 0.008629357220394436
Epoch: 14000, Error: 0.008508695392479167
Epoch: 14100, Error: 0.008425893946941142
Epoch: 14200, Error: 0.008279194027134592
Epoch: 14300, Error: 0.008177205458920192
Epoch: 14400, Error: 0.008067189060549755
Epoch: 14500, Error: 0.007963749287174889
Epoch: 14600, Error: 0.007870648299718364
Epoch: 14700, Error: 0.0077758906794657585
Epoch: 14800, Error: 0.007693622227089146
Epoch: 14900, Error: 0.007609551398252082
Epoch: 15000, Error: 0.0075298078827650775
Epoch: 15100, Error: 0.0074513373529988824
Epoch: 15200, Error: 0.007375863687408801
Epoch: 15300, Error: 0.0073158361716116685
Epoch: 15400, Error: 0.007239800494866064
Epoch: 15500, Error: 0.00716678809451213
Epoch: 15600, Error: 0.007112155417005628
Epoch: 15700, Error: 0.007063097374702079
Epoch: 15800, Error: 0.006988668220408232
Epoch: 15900, Error: 0.006916982783001812
Epoch: 16000, Error: 0.006863990437600361
Epoch: 16100, Error: 0.006813016030449692
Epoch: 16200, Error: 0.00676481324600506
Epoch: 16300, Error: 0.006718168303934675
Epoch: 16400, Error: 0.006668415237984795
Epoch: 16500, Error: 0.00662923264870625
Epoch: 16600, Error: 0.006586854086613062
Epoch: 16700, Error: 0.006554564108761679
Epoch: 16800, Error: 0.0065185844786292265
Epoch: 16900, Error: 0.006505462811883594
Epoch: 17000, Error: 0.006493152048065339
Epoch: 17100, Error: 0.006429054181294735
Epoch: 17200, Error: 0.006405247519735348
Epoch: 17300, Error: 0.006397319442514295
Epoch: 17400, Error: 0.0063915396428474045
Epoch: 17500, Error: 0.006346021456656692
Epoch: 17600, Error: 0.006334365242931416
Epoch: 17700, Error: 0.006349278701622468
Epoch: 17800, Error: 0.006286674239945462
Epoch: 17900, Error: 0.0062246404404669945
Epoch: 18000, Error: 0.006193516758185034
Epoch: 18100, Error: 0.00615384306276768
Epoch: 18200, Error: 0.006124146177125826
Epoch: 18300, Error: 0.006084885012503349
Epoch: 18400, Error: 0.006066600846071846
Epoch: 18500, Error: 0.00602455496087096
Epoch: 18600, Error: 0.006021700623116955
Epoch: 18700, Error: 0.005982447385281142
Epoch: 18800, Error: 0.005985973874505629
Epoch: 18900, Error: 0.005941676941289015
Epoch: 19000, Error: 0.0059237711577742255
Epoch: 19100, Error: 0.0059127197364170795
Epoch: 19200, Error: 0.005920669065017741
Epoch: 19300, Error: 0.00588736941153174
Epoch: 19400, Error: 0.005864155090379689
Epoch: 19500, Error: 0.005835962762093357
Epoch: 19600, Error: 0.005824551959832317
Epoch: 19700, Error: 0.005794446534237626
Epoch: 19800, Error: 0.005782222745856624
Epoch: 19900, Error: 0.005775551284831613
Epoch: 20000, Error: 0.0057427519861140185
Epoch: 20100, Error: 0.005713522695308727
Epoch: 20200, Error: 0.005697116391365724
Epoch: 20300, Error: 0.005698293607877588
Epoch: 20400, Error: 0.005649416932830219
Epoch: 20500, Error: 0.005636657765883436
Epoch: 20600, Error: 0.0056503123804810635
Epoch: 20700, Error: 0.005609862156713275
Epoch: 20800, Error: 0.005554304415237354
Epoch: 20900, Error: 0.005550916298107591
Epoch: 21000, Error: 0.0055049727370439375
Epoch: 21100, Error: 0.0054659084139882545
Epoch: 21200, Error: 0.00546831395373298
Epoch: 21300, Error: 0.005424745458119936
Epoch: 21400, Error: 0.005382570987868819
Epoch: 21500, Error: 0.005346914843257817
Epoch: 21600, Error: 0.005325936546358258
Epoch: 21700, Error: 0.005292346177497851
Epoch: 21800, Error: 0.00527615780472413
Epoch: 21900, Error: 0.005265772695943264
Epoch: 22000, Error: 0.005224561712234435
Epoch: 22100, Error: 0.005223747196503347
Epoch: 22200, Error: 0.0051621106364570166
Epoch: 22300, Error: 0.0051532675236463646
Epoch: 22400, Error: 0.005131000956855617
Epoch: 22500, Error: 0.005100684138677656
Epoch: 22600, Error: 0.005080104838671431
Epoch: 22700, Error: 0.00504085529443419
Epoch: 22800, Error: 0.005019156213597781
Epoch: 22900, Error: 0.00500082007957851
Epoch: 23000, Error: 0.004973556983860474
Epoch: 23100, Error: 0.004953361361828195
Epoch: 23200, Error: 0.004929876638593227
Epoch: 23300, Error: 0.004913974487093352
Epoch: 23400, Error: 0.00488735523285479
Epoch: 23500, Error: 0.0049048436760430695
Epoch: 23600, Error: 0.0048447593591798045
Epoch: 23700, Error: 0.004843774888553386
Epoch: 23800, Error: 0.004846163965240638
Epoch: 23900, Error: 0.0047701136721518145
Epoch: 24000, Error: 0.00474803448896976
Epoch: 24100, Error: 0.004721897211371941
Epoch: 24200, Error: 0.004711231109075944
Epoch: 24300, Error: 0.004703458203863788
Epoch: 24400, Error: 0.004670668998064181
Epoch: 24500, Error: 0.004651415880942567
Epoch: 24600, Error: 0.004624758694364643
Epoch: 24700, Error: 0.004598013323128997
Epoch: 24800, Error: 0.004592411584998426
Epoch: 24900, Error: 0.004554902428989127
Epoch: 25000, Error: 0.004527526502432601
Epoch: 25100, Error: 0.004499556758022528
Epoch: 25200, Error: 0.004470355172533745
Epoch: 25300, Error: 0.004461070157055118
Epoch: 25400, Error: 0.004451949624680313
Epoch: 25500, Error: 0.004396777612837035
Epoch: 25600, Error: 0.004375083187287576
Epoch: 25700, Error: 0.004362721052153183
Epoch: 25800, Error: 0.004353431794814724
Epoch: 25900, Error: 0.004329336661339479
Epoch: 26000, Error: 0.004287367042733461
Epoch: 26100, Error: 0.004268335514858889
Epoch: 26200, Error: 0.004252600850862777
Epoch: 26300, Error: 0.00423140942349572
Epoch: 26400, Error: 0.004222947309823838
Epoch: 26500, Error: 0.004234270759963223
Epoch: 26600, Error: 0.004174014384057432
Epoch: 26700, Error: 0.004156891719087532
Epoch: 26800, Error: 0.004138915368470305
Epoch: 26900, Error: 0.004122982722459863
Epoch: 27000, Error: 0.004125397929733503
Epoch: 27100, Error: 0.004096317510613457
Epoch: 27200, Error: 0.004096448358163365
Epoch: 27300, Error: 0.004057708051794387
Epoch: 27400, Error: 0.004049028611418171
Epoch: 27500, Error: 0.004017925136144975
Epoch: 27600, Error: 0.00396126924737433
Epoch: 27700, Error: 0.003931539283151426
Epoch: 27800, Error: 0.003971437251768715
Epoch: 27900, Error: 0.003892758115253527
Epoch: 28000, Error: 0.003866057857910076
Epoch: 28100, Error: 0.0038344357590644872
Epoch: 28200, Error: 0.0038062252776899217
Epoch: 28300, Error: 0.0037673683110145233
Epoch: 28400, Error: 0.0037408930389782416
Epoch: 28500, Error: 0.0037257912579648053
Epoch: 28600, Error: 0.003723265583755819
Epoch: 28700, Error: 0.0036636139716994098
Epoch: 28800, Error: 0.0037051843802149136
Epoch: 28900, Error: 0.0036326487448808237
Epoch: 29000, Error: 0.0035905414411696733
Epoch: 29100, Error: 0.0035708789915267986
Epoch: 29200, Error: 0.0035632264855641497
Epoch: 29300, Error: 0.00351113935938431
Epoch: 29400, Error: 0.003487533077534332
Epoch: 29500, Error: 0.003479611224040651
Epoch: 29600, Error: 0.0034418317739905568
Epoch: 29700, Error: 0.0034128529824094143
Epoch: 29800, Error: 0.003397589104857819
Epoch: 29900, Error: 0.003429850190849571
Epoch: 30000, Error: 0.003338238745207279
Epoch: 30100, Error: 0.003339983279647718
Epoch: 30200, Error: 0.0033330253822556346
Epoch: 30300, Error: 0.0032858352005138594
Epoch: 30400, Error: 0.003249829048787522
Epoch: 30500, Error: 0.0032433411517708037
Epoch: 30600, Error: 0.003213836127724963
Epoch: 30700, Error: 0.0032289233771245706
Epoch: 30800, Error: 0.003154812170789237
Epoch: 30900, Error: 0.003119586902211558
Epoch: 31000, Error: 0.003106138668975262
Epoch: 31100, Error: 0.003074101263269349
Epoch: 31200, Error: 0.003072819771724464
Epoch: 31300, Error: 0.0030797012964098288
Epoch: 31400, Error: 0.0030216266362477952
Epoch: 31500, Error: 0.0029828615913968953
Epoch: 31600, Error: 0.0029585078548441447
Epoch: 31700, Error: 0.00297441829453203
Epoch: 31800, Error: 0.002918256675149495
Epoch: 31900, Error: 0.002925102673339808
Epoch: 32000, Error: 0.002867619446499681
Epoch: 32100, Error: 0.0029278873315734134
Epoch: 32200, Error: 0.002838443122817601
Epoch: 32300, Error: 0.0028037112078511677
Epoch: 32400, Error: 0.0027816748480111037
Epoch: 32500, Error: 0.0027779811450853475
Epoch: 32600, Error: 0.0027416159730195926
Epoch: 32700, Error: 0.002717832431725172
Epoch: 32800, Error: 0.0027132798443926663
Epoch: 32900, Error: 0.002682206880458734
Epoch: 33000, Error: 0.0026824114250308412
Epoch: 33100, Error: 0.002647976944309878
Epoch: 33200, Error: 0.002649213465685957
Epoch: 33300, Error: 0.0026640564068265895
Epoch: 33400, Error: 0.0025900803374013246
Epoch: 33500, Error: 0.0026235439200538754
Epoch: 33600, Error: 0.0026185403681886267
Epoch: 33700, Error: 0.002535774222716924
Epoch: 33800, Error: 0.002560418930295513
Epoch: 33900, Error: 0.0025574728005162764
Epoch: 34000, Error: 0.002484330457117095
Epoch: 34100, Error: 0.002509455463825222
Epoch: 34200, Error: 0.002454268965558907
Epoch: 34300, Error: 0.0024438944708574774
Epoch: 34400, Error: 0.002484578013846336
Epoch: 34500, Error: 0.002418480501628321
Epoch: 34600, Error: 0.002444742742866971
Epoch: 34700, Error: 0.002422737085420976
Epoch: 34800, Error: 0.002443883952214352
Epoch: 34900, Error: 0.002451639860189666
Epoch: 35000, Error: 0.0024029790753425664
Epoch: 35100, Error: 0.0024130023830592584
Epoch: 35200, Error: 0.002461890782128664
Epoch: 35300, Error: 0.002433525341946116
Epoch: 35400, Error: 0.0024277877630517275
Epoch: 35500, Error: 0.0024168212823581373
Epoch: 35600, Error: 0.00243756162365142
Epoch: 35700, Error: 0.0024491775888620597
Epoch: 35800, Error: 0.0023847719709259663
Epoch: 35900, Error: 0.002396672913074801
Epoch: 36000, Error: 0.002368264826121302
Epoch: 36100, Error: 0.0023634347790331247
Epoch: 36200, Error: 0.002406110141257672
Epoch: 36300, Error: 0.002362826579783863
Epoch: 36400, Error: 0.002441762987068035
Epoch: 36500, Error: 0.002337603316661364
Epoch: 36600, Error: 0.002354283069896946
Epoch: 36700, Error: 0.002321731303663421
Epoch: 36800, Error: 0.0023117592203956896
Epoch: 36900, Error: 0.0023725434311806536
Epoch: 37000, Error: 0.0023414368618728254
Epoch: 37100, Error: 0.0023814251933671256
Epoch: 37200, Error: 0.0023010573864880764
Epoch: 37300, Error: 0.0022648277566497477
Epoch: 37400, Error: 0.0022857801528153848
Epoch: 37500, Error: 0.0022750954607474974
Epoch: 37600, Error: 0.002227462832044211
Epoch: 37700, Error: 0.0022708993565894865
Epoch: 37800, Error: 0.0022409446850554923
Epoch: 37900, Error: 0.002206151002663845
Epoch: 38000, Error: 0.002217886108226182
Epoch: 38100, Error: 0.0022049648835875115
Finished
