Input Patterns
0.224 0.624 0.067 0.043 
0.11 0.502 0.051 0.043 
0.196 0.667 0.067 0.043 
0.055 0.584 0.067 0.082 
0.027 0.376 0.067 0.043 
0.306 0.71 0.086 0.043 
0.137 0.416 0.067 0.0 
0.416 0.831 0.035 0.043 
0.306 0.792 0.051 0.125 
0.388 0.749 0.118 0.082 
0.306 0.584 0.118 0.043 
0.082 0.667 0.0 0.043 
0.137 0.584 0.153 0.043 
0.196 0.584 0.102 0.125 
0.251 0.584 0.067 0.043 
0.137 0.459 0.102 0.043 
0.251 0.875 0.086 0.0 
0.165 0.459 0.086 0.043 
0.333 0.624 0.051 0.043 
0.027 0.416 0.051 0.043 
0.196 0.624 0.051 0.082 
0.027 0.502 0.051 0.043 
0.224 0.749 0.153 0.125 
0.224 0.749 0.102 0.043 
0.278 0.71 0.086 0.043 
0.165 0.416 0.067 0.043 
0.082 0.459 0.086 0.043 
0.306 0.792 0.118 0.125 
0.196 0.584 0.086 0.043 
0.165 0.459 0.086 0.0 
0.137 0.584 0.102 0.043 
0.0 0.416 0.016 0.0 
0.388 1.0 0.086 0.125 
0.224 0.624 0.067 0.082 
0.224 0.749 0.086 0.082 
0.224 0.71 0.086 0.125 
0.224 0.541 0.118 0.165 
0.196 0.416 0.102 0.043 
0.251 0.624 0.086 0.043 
0.11 0.502 0.102 0.043 
0.306 0.584 0.086 0.125 
0.333 0.918 0.067 0.043 
0.196 0.502 0.035 0.043 
0.165 0.667 0.067 0.0 
0.224 0.584 0.086 0.043 
0.055 0.125 0.051 0.082 
0.196 0.624 0.102 0.208 
0.137 0.416 0.067 0.082 
0.082 0.502 0.067 0.043 
0.196 0.541 0.067 0.043 
0.749 0.502 0.627 0.541 
0.722 0.459 0.663 0.584 
0.612 0.333 0.612 0.584 
0.557 0.541 0.627 0.624 
0.639 0.376 0.612 0.498 
0.196 0.0 0.424 0.376 
0.471 0.082 0.51 0.376 
0.361 0.376 0.439 0.498 
0.361 0.416 0.592 0.584 
0.529 0.082 0.592 0.584 
0.443 0.502 0.643 0.459 
0.557 0.208 0.663 0.584 
0.584 0.376 0.561 0.498 
0.694 0.333 0.643 0.541 
0.471 0.376 0.592 0.584 
0.333 0.169 0.475 0.416 
0.416 0.29 0.49 0.459 
0.306 0.416 0.592 0.584 
0.667 0.459 0.627 0.584 
0.361 0.416 0.525 0.498 
0.333 0.251 0.576 0.459 
0.416 0.251 0.51 0.459 
0.361 0.29 0.541 0.498 
0.388 0.376 0.541 0.498 
0.224 0.208 0.337 0.416 
0.584 0.502 0.592 0.584 
0.333 0.125 0.51 0.498 
0.388 0.333 0.592 0.498 
0.165 0.169 0.388 0.376 
0.251 0.29 0.49 0.541 
0.443 0.416 0.541 0.584 
0.498 0.376 0.627 0.541 
0.667 0.459 0.576 0.541 
0.416 0.29 0.525 0.376 
0.361 0.208 0.49 0.416 
0.498 0.333 0.51 0.498 
0.498 0.333 0.627 0.459 
0.639 0.416 0.576 0.541 
0.667 0.416 0.678 0.667 
0.388 0.251 0.424 0.376 
0.333 0.169 0.459 0.376 
0.471 0.29 0.694 0.624 
0.471 0.584 0.592 0.624 
0.557 0.125 0.576 0.498 
0.333 0.208 0.51 0.498 
0.498 0.416 0.612 0.541 
0.196 0.125 0.388 0.376 
0.388 0.416 0.541 0.459 
0.529 0.376 0.561 0.498 
0.388 0.333 0.525 0.498 
0.557 0.541 0.847 1.0 
0.776 0.416 0.831 0.831 
0.612 0.416 0.812 0.875 
0.165 0.208 0.592 0.667 
0.667 0.208 0.812 0.71 
0.612 0.502 0.694 0.792 
0.694 0.416 0.761 0.831 
0.416 0.333 0.694 0.957 
0.612 0.416 0.761 0.71 
0.945 0.251 1.0 0.918 
0.722 0.502 0.796 0.918 
0.945 0.333 0.965 0.792 
0.667 0.541 0.796 0.831 
0.529 0.333 0.643 0.71 
0.584 0.333 0.78 0.831 
0.863 0.333 0.863 0.749 
0.584 0.333 0.78 0.875 
0.498 0.251 0.78 0.541 
0.557 0.584 0.78 0.957 
0.471 0.416 0.643 0.71 
0.667 0.459 0.78 0.957 
0.416 0.29 0.694 0.749 
0.667 0.541 0.796 1.0 
0.557 0.208 0.678 0.749 
0.529 0.584 0.745 0.918 
0.416 0.29 0.694 0.749 
0.557 0.376 0.78 0.71 
0.918 0.416 0.949 0.831 
0.835 0.376 0.898 0.71 
0.804 0.667 0.863 1.0 
0.584 0.29 0.729 0.749 
0.388 0.208 0.678 0.792 
0.584 0.502 0.729 0.918 
0.945 0.749 0.965 0.875 
0.471 0.082 0.678 0.584 
0.361 0.333 0.663 0.792 
0.557 0.29 0.663 0.71 
0.804 0.502 0.847 0.71 
0.498 0.416 0.51 0.71 
0.804 0.416 0.812 0.624 
1.0 0.749 0.914 0.792 
0.557 0.333 0.694 0.584 
0.945 0.416 0.863 0.918 
0.584 0.459 0.761 0.71 
0.722 0.459 0.745 0.831 
0.722 0.459 0.694 0.918 
0.694 0.502 0.831 0.918 
0.667 0.416 0.714 0.918 
0.612 0.416 0.714 0.792 
0.443 0.416 0.694 0.71 
Teaching Patterns
1.0 0.0 0.0 
1.0 0.0 0.0 
1.0 0.0 0.0 
1.0 0.0 0.0 
1.0 0.0 0.0 
1.0 0.0 0.0 
1.0 0.0 0.0 
1.0 0.0 0.0 
1.0 0.0 0.0 
1.0 0.0 0.0 
1.0 0.0 0.0 
1.0 0.0 0.0 
1.0 0.0 0.0 
1.0 0.0 0.0 
1.0 0.0 0.0 
1.0 0.0 0.0 
1.0 0.0 0.0 
1.0 0.0 0.0 
1.0 0.0 0.0 
1.0 0.0 0.0 
1.0 0.0 0.0 
1.0 0.0 0.0 
1.0 0.0 0.0 
1.0 0.0 0.0 
1.0 0.0 0.0 
1.0 0.0 0.0 
1.0 0.0 0.0 
1.0 0.0 0.0 
1.0 0.0 0.0 
1.0 0.0 0.0 
1.0 0.0 0.0 
1.0 0.0 0.0 
1.0 0.0 0.0 
1.0 0.0 0.0 
1.0 0.0 0.0 
1.0 0.0 0.0 
1.0 0.0 0.0 
1.0 0.0 0.0 
1.0 0.0 0.0 
1.0 0.0 0.0 
1.0 0.0 0.0 
1.0 0.0 0.0 
1.0 0.0 0.0 
1.0 0.0 0.0 
1.0 0.0 0.0 
1.0 0.0 0.0 
1.0 0.0 0.0 
1.0 0.0 0.0 
1.0 0.0 0.0 
1.0 0.0 0.0 
0.0 1.0 0.0 
0.0 1.0 0.0 
0.0 1.0 0.0 
0.0 1.0 0.0 
0.0 1.0 0.0 
0.0 1.0 0.0 
0.0 1.0 0.0 
0.0 1.0 0.0 
0.0 1.0 0.0 
0.0 1.0 0.0 
0.0 1.0 0.0 
0.0 1.0 0.0 
0.0 1.0 0.0 
0.0 1.0 0.0 
0.0 1.0 0.0 
0.0 1.0 0.0 
0.0 1.0 0.0 
0.0 1.0 0.0 
0.0 1.0 0.0 
0.0 1.0 0.0 
0.0 1.0 0.0 
0.0 1.0 0.0 
0.0 1.0 0.0 
0.0 1.0 0.0 
0.0 1.0 0.0 
0.0 1.0 0.0 
0.0 1.0 0.0 
0.0 1.0 0.0 
0.0 1.0 0.0 
0.0 1.0 0.0 
0.0 1.0 0.0 
0.0 1.0 0.0 
0.0 1.0 0.0 
0.0 1.0 0.0 
0.0 1.0 0.0 
0.0 1.0 0.0 
0.0 1.0 0.0 
0.0 1.0 0.0 
0.0 1.0 0.0 
0.0 1.0 0.0 
0.0 1.0 0.0 
0.0 1.0 0.0 
0.0 1.0 0.0 
0.0 1.0 0.0 
0.0 1.0 0.0 
0.0 1.0 0.0 
0.0 1.0 0.0 
0.0 1.0 0.0 
0.0 1.0 0.0 
0.0 1.0 0.0 
0.0 0.0 1.0 
0.0 0.0 1.0 
0.0 0.0 1.0 
0.0 0.0 1.0 
0.0 0.0 1.0 
0.0 0.0 1.0 
0.0 0.0 1.0 
0.0 0.0 1.0 
0.0 0.0 1.0 
0.0 0.0 1.0 
0.0 0.0 1.0 
0.0 0.0 1.0 
0.0 0.0 1.0 
0.0 0.0 1.0 
0.0 0.0 1.0 
0.0 0.0 1.0 
0.0 0.0 1.0 
0.0 0.0 1.0 
0.0 0.0 1.0 
0.0 0.0 1.0 
0.0 0.0 1.0 
0.0 0.0 1.0 
0.0 0.0 1.0 
0.0 0.0 1.0 
0.0 0.0 1.0 
0.0 0.0 1.0 
0.0 0.0 1.0 
0.0 0.0 1.0 
0.0 0.0 1.0 
0.0 0.0 1.0 
0.0 0.0 1.0 
0.0 0.0 1.0 
0.0 0.0 1.0 
0.0 0.0 1.0 
0.0 0.0 1.0 
0.0 0.0 1.0 
0.0 0.0 1.0 
0.0 0.0 1.0 
0.0 0.0 1.0 
0.0 0.0 1.0 
0.0 0.0 1.0 
0.0 0.0 1.0 
0.0 0.0 1.0 
0.0 0.0 1.0 
0.0 0.0 1.0 
0.0 0.0 1.0 
0.0 0.0 1.0 
0.0 0.0 1.0 
0.0 0.0 1.0 
0.0 0.0 1.0 
Learning : 0.05
Momentum : 0.20000000298023224
Epoch: 100, Error: 0.09336029661179118
Epoch: 200, Error: 0.05953088177412538
Epoch: 300, Error: 0.02501185704666891
Epoch: 400, Error: 0.018237923808807788
Epoch: 500, Error: 0.015953896635092692
Epoch: 600, Error: 0.014879586628477435
Epoch: 700, Error: 0.014203424251052468
Epoch: 800, Error: 0.013765325377206136
Epoch: 900, Error: 0.013408551394140713
Epoch: 1000, Error: 0.013168234369411785
Epoch: 1100, Error: 0.01292372358380475
Epoch: 1200, Error: 0.012746237781622061
Epoch: 1300, Error: 0.012687360697017732
Epoch: 1400, Error: 0.012582705769808597
Epoch: 1500, Error: 0.012449586778299142
Epoch: 1600, Error: 0.01239490151712627
Epoch: 1700, Error: 0.012452148042785204
Epoch: 1800, Error: 0.012326849897753246
Epoch: 1900, Error: 0.012311878025057036
Epoch: 2000, Error: 0.012340772571073815
Epoch: 2100, Error: 0.012356137098411393
Epoch: 2200, Error: 0.012325316307833503
Epoch: 2300, Error: 0.012261093424545932
Epoch: 2400, Error: 0.012260366953807637
Epoch: 2500, Error: 0.01225964337309851
Epoch: 2600, Error: 0.012254517344673846
Epoch: 2700, Error: 0.012241424336701381
Epoch: 2800, Error: 0.012246073094157197
Epoch: 2900, Error: 0.012225679452251004
Epoch: 3000, Error: 0.012219048840308507
Epoch: 3100, Error: 0.012247532097664991
Epoch: 3200, Error: 0.01224583294134061
Epoch: 3300, Error: 0.012213503064196428
Epoch: 3400, Error: 0.012204374660063124
Epoch: 3500, Error: 0.012200758753206179
Epoch: 3600, Error: 0.012195908228716572
Epoch: 3700, Error: 0.012193282158957512
Epoch: 3800, Error: 0.012191649763681948
Epoch: 3900, Error: 0.012210729480010335
Epoch: 4000, Error: 0.012182543133778138
Epoch: 4100, Error: 0.012175657051556266
Epoch: 4200, Error: 0.012164431625830233
Epoch: 4300, Error: 0.012149330125237152
Epoch: 4400, Error: 0.01215181659390091
Epoch: 4500, Error: 0.01215072798358691
Epoch: 4600, Error: 0.012138416880482445
Epoch: 4700, Error: 0.012117933947220381
Epoch: 4800, Error: 0.01211829625926201
Epoch: 4900, Error: 0.012117540516466766
Epoch: 5000, Error: 0.012110411922359243
Epoch: 5100, Error: 0.012116926904592144
Epoch: 5200, Error: 0.0120961186155155
Epoch: 5300, Error: 0.012093858599349127
Epoch: 5400, Error: 0.01208075185544587
Epoch: 5500, Error: 0.012070642922264499
Epoch: 5600, Error: 0.012137014329617425
Epoch: 5700, Error: 0.01206319335838871
Epoch: 5800, Error: 0.012107765492394505
Epoch: 5900, Error: 0.012058905636913867
Epoch: 6000, Error: 0.012061319092098524
Epoch: 6100, Error: 0.012056976724331824
Epoch: 6200, Error: 0.012061758613231416
Epoch: 6300, Error: 0.01205581224638214
Epoch: 6400, Error: 0.01206874556553284
Epoch: 6500, Error: 0.012057375889626683
Epoch: 6600, Error: 0.012064322285956853
Epoch: 6700, Error: 0.012094662941145803
Epoch: 6800, Error: 0.012083603649947273
Epoch: 6900, Error: 0.012070507192502657
Epoch: 7000, Error: 0.012083510684474358
Epoch: 7100, Error: 0.012104010775134717
Epoch: 7200, Error: 0.012105597896393304
Epoch: 7300, Error: 0.012132983559803525
Epoch: 7400, Error: 0.012123124987445251
Epoch: 7500, Error: 0.012125750295713335
Epoch: 7600, Error: 0.012174091485182392
Epoch: 7700, Error: 0.012166288938014944
Epoch: 7800, Error: 0.012146345877435955
Epoch: 7900, Error: 0.012149465598717038
Epoch: 8000, Error: 0.012157204536312425
Epoch: 8100, Error: 0.012186119140010008
Epoch: 8200, Error: 0.012195338996588484
Epoch: 8300, Error: 0.01220511242687836
Epoch: 8400, Error: 0.012232041123225932
Epoch: 8500, Error: 0.012177116608583262
Epoch: 8600, Error: 0.01218421414886825
Epoch: 8700, Error: 0.012188945328557648
Epoch: 8800, Error: 0.01217084312201926
Epoch: 8900, Error: 0.012200519486232814
Epoch: 9000, Error: 0.012193420969135312
Epoch: 9100, Error: 0.01226697252277172
Epoch: 9200, Error: 0.012170007656110482
Epoch: 9300, Error: 0.012204092777486051
Epoch: 9400, Error: 0.012205586135845634
Epoch: 9500, Error: 0.012198199995267297
Epoch: 9600, Error: 0.012250164632887448
Epoch: 9700, Error: 0.012251135889737988
Epoch: 9800, Error: 0.012250800556069273
Epoch: 9900, Error: 0.012251259181298981
Epoch: 10000, Error: 0.012266497212779334
Epoch: 10100, Error: 0.012263784468243255
Epoch: 10200, Error: 0.012428948563010899
Epoch: 10300, Error: 0.012249025257438591
Epoch: 10400, Error: 0.01224536135481472
Epoch: 10500, Error: 0.012312024885868347
Epoch: 10600, Error: 0.012285804446410444
Epoch: 10700, Error: 0.01225049568677689
Epoch: 10800, Error: 0.012249367811961712
Epoch: 10900, Error: 0.012246895954234649
Epoch: 11000, Error: 0.012327904900959927
Epoch: 11100, Error: 0.012236455034187108
Epoch: 11200, Error: 0.012245621261917026
Epoch: 11300, Error: 0.012237985517998071
Epoch: 11400, Error: 0.012215205151907967
Epoch: 11500, Error: 0.01221584415483821
Epoch: 11600, Error: 0.01221146816709544
Epoch: 11700, Error: 0.01233722528502358
Epoch: 11800, Error: 0.012339761811797537
Epoch: 11900, Error: 0.012229441628725747
Epoch: 12000, Error: 0.012220903886665885
Epoch: 12100, Error: 0.012191156299001903
Epoch: 12200, Error: 0.012188355382752255
Epoch: 12300, Error: 0.01217921892049006
Epoch: 12400, Error: 0.012175363902813558
Epoch: 12500, Error: 0.01218011354864884
Epoch: 12600, Error: 0.012171349002250833
Epoch: 12700, Error: 0.012206837476861791
Epoch: 12800, Error: 0.012170587471832271
Epoch: 12900, Error: 0.012157631120861018
Epoch: 13000, Error: 0.012149443335124362
Epoch: 13100, Error: 0.01221133821679255
Epoch: 13200, Error: 0.012127920759628845
Epoch: 13300, Error: 0.012234740803859119
Epoch: 13400, Error: 0.012182093106438027
Epoch: 13500, Error: 0.012198161513809305
Epoch: 13600, Error: 0.012229688778838128
Epoch: 13700, Error: 0.012138196281881052
Epoch: 13800, Error: 0.012160910040686193
Epoch: 13900, Error: 0.012152576033161984
Epoch: 14000, Error: 0.012149306543724796
Epoch: 14100, Error: 0.012146202376649899
Epoch: 14200, Error: 0.012191427427809192
Epoch: 14300, Error: 0.012139730634703288
Epoch: 14400, Error: 0.012150105133482999
Epoch: 14500, Error: 0.012225472920748728
Epoch: 14600, Error: 0.01214885974277882
Epoch: 14700, Error: 0.012144296489893826
Epoch: 14800, Error: 0.012148498747186445
Epoch: 14900, Error: 0.012141306978570741
Epoch: 15000, Error: 0.01216875084988783
Epoch: 15100, Error: 0.012118152611465184
Epoch: 15200, Error: 0.012144421887680333
Epoch: 15300, Error: 0.01220078823239277
Epoch: 15400, Error: 0.012111789773352423
Epoch: 15500, Error: 0.012119205643548856
Epoch: 15600, Error: 0.01209100569170344
Epoch: 15700, Error: 0.012141029112443873
Epoch: 15800, Error: 0.012083366882047824
Epoch: 15900, Error: 0.012107192316715424
Epoch: 16000, Error: 0.01208521115702455
Epoch: 16100, Error: 0.01213402574210885
Epoch: 16200, Error: 0.012096798219589717
Epoch: 16300, Error: 0.012087521520324577
Epoch: 16400, Error: 0.012107127587818872
Epoch: 16500, Error: 0.012103105313486016
Epoch: 16600, Error: 0.012119582389088928
Epoch: 16700, Error: 0.012065167376638063
Epoch: 16800, Error: 0.012129077420310929
Epoch: 16900, Error: 0.012074818415953861
Epoch: 17000, Error: 0.012071276879250392
Epoch: 17100, Error: 0.012055395683909809
Epoch: 17200, Error: 0.012110489503430131
Epoch: 17300, Error: 0.012046927282569895
Epoch: 17400, Error: 0.012083778591916916
Epoch: 17500, Error: 0.012034475609519354
Epoch: 17600, Error: 0.012072949645196616
Epoch: 17700, Error: 0.012027226420093904
Epoch: 17800, Error: 0.012059495707158157
Epoch: 17900, Error: 0.012075081214132893
Epoch: 18000, Error: 0.012052082835679661
Epoch: 18100, Error: 0.012029220718195512
Epoch: 18200, Error: 0.012090655758633764
Epoch: 18300, Error: 0.01207367078602321
Epoch: 18400, Error: 0.012031390583414663
Epoch: 18500, Error: 0.012067500322477925
Epoch: 18600, Error: 0.01199848159376055
Epoch: 18700, Error: 0.012049813341563138
Epoch: 18800, Error: 0.01208704642504295
Epoch: 18900, Error: 0.012024569090957423
Epoch: 19000, Error: 0.012037477831402122
Epoch: 19100, Error: 0.012039489453371516
Epoch: 19200, Error: 0.012042406928582942
Epoch: 19300, Error: 0.012034610041471008
Epoch: 19400, Error: 0.012022286658418771
Epoch: 19500, Error: 0.012013487083267436
Epoch: 19600, Error: 0.012028703481765884
Epoch: 19700, Error: 0.012007957430594497
Epoch: 19800, Error: 0.012025943972125924
Epoch: 19900, Error: 0.012020603940569669
Epoch: 20000, Error: 0.012008476169797848
Epoch: 20100, Error: 0.01206437282177118
Epoch: 20200, Error: 0.012003719714845418
Epoch: 20300, Error: 0.012020818471422138
Epoch: 20400, Error: 0.01202377917060721
Epoch: 20500, Error: 0.012050594184073407
Epoch: 20600, Error: 0.011979481175786717
Epoch: 20700, Error: 0.012003391026038531
Epoch: 20800, Error: 0.011999990776383923
Epoch: 20900, Error: 0.011992674368271021
Epoch: 21000, Error: 0.011973636235372532
Epoch: 21100, Error: 0.012019014111338946
Epoch: 21200, Error: 0.011986182920283908
Epoch: 21300, Error: 0.011993359074175822
Epoch: 21400, Error: 0.011964012675645907
Epoch: 21500, Error: 0.01198786653667552
Epoch: 21600, Error: 0.011998122377678833
Epoch: 21700, Error: 0.011989500629430794
Finished
