Input Patterns
0.224 0.624 0.067 0.043 
0.11 0.502 0.051 0.043 
0.196 0.667 0.067 0.043 
0.055 0.584 0.067 0.082 
0.027 0.376 0.067 0.043 
0.306 0.71 0.086 0.043 
0.137 0.416 0.067 0.0 
0.416 0.831 0.035 0.043 
0.306 0.792 0.051 0.125 
0.388 0.749 0.118 0.082 
0.306 0.584 0.118 0.043 
0.082 0.667 0.0 0.043 
0.137 0.584 0.153 0.043 
0.196 0.584 0.102 0.125 
0.251 0.584 0.067 0.043 
0.137 0.459 0.102 0.043 
0.251 0.875 0.086 0.0 
0.165 0.459 0.086 0.043 
0.333 0.624 0.051 0.043 
0.027 0.416 0.051 0.043 
0.196 0.624 0.051 0.082 
0.027 0.502 0.051 0.043 
0.224 0.749 0.153 0.125 
0.224 0.749 0.102 0.043 
0.278 0.71 0.086 0.043 
0.165 0.416 0.067 0.043 
0.082 0.459 0.086 0.043 
0.306 0.792 0.118 0.125 
0.196 0.584 0.086 0.043 
0.165 0.459 0.086 0.0 
0.137 0.584 0.102 0.043 
0.0 0.416 0.016 0.0 
0.388 1.0 0.086 0.125 
0.224 0.624 0.067 0.082 
0.224 0.749 0.086 0.082 
0.224 0.71 0.086 0.125 
0.224 0.541 0.118 0.165 
0.196 0.416 0.102 0.043 
0.251 0.624 0.086 0.043 
0.11 0.502 0.102 0.043 
0.306 0.584 0.086 0.125 
0.333 0.918 0.067 0.043 
0.196 0.502 0.035 0.043 
0.165 0.667 0.067 0.0 
0.224 0.584 0.086 0.043 
0.055 0.125 0.051 0.082 
0.196 0.624 0.102 0.208 
0.137 0.416 0.067 0.082 
0.082 0.502 0.067 0.043 
0.196 0.541 0.067 0.043 
0.749 0.502 0.627 0.541 
0.722 0.459 0.663 0.584 
0.612 0.333 0.612 0.584 
0.557 0.541 0.627 0.624 
0.639 0.376 0.612 0.498 
0.196 0.0 0.424 0.376 
0.471 0.082 0.51 0.376 
0.361 0.376 0.439 0.498 
0.361 0.416 0.592 0.584 
0.529 0.082 0.592 0.584 
0.443 0.502 0.643 0.459 
0.557 0.208 0.663 0.584 
0.584 0.376 0.561 0.498 
0.694 0.333 0.643 0.541 
0.471 0.376 0.592 0.584 
0.333 0.169 0.475 0.416 
0.416 0.29 0.49 0.459 
0.306 0.416 0.592 0.584 
0.667 0.459 0.627 0.584 
0.361 0.416 0.525 0.498 
0.333 0.251 0.576 0.459 
0.416 0.251 0.51 0.459 
0.361 0.29 0.541 0.498 
0.388 0.376 0.541 0.498 
0.224 0.208 0.337 0.416 
0.584 0.502 0.592 0.584 
0.333 0.125 0.51 0.498 
0.388 0.333 0.592 0.498 
0.165 0.169 0.388 0.376 
0.251 0.29 0.49 0.541 
0.443 0.416 0.541 0.584 
0.498 0.376 0.627 0.541 
0.667 0.459 0.576 0.541 
0.416 0.29 0.525 0.376 
0.361 0.208 0.49 0.416 
0.498 0.333 0.51 0.498 
0.498 0.333 0.627 0.459 
0.639 0.416 0.576 0.541 
0.667 0.416 0.678 0.667 
0.388 0.251 0.424 0.376 
0.333 0.169 0.459 0.376 
0.471 0.29 0.694 0.624 
0.471 0.584 0.592 0.624 
0.557 0.125 0.576 0.498 
0.333 0.208 0.51 0.498 
0.498 0.416 0.612 0.541 
0.196 0.125 0.388 0.376 
0.388 0.416 0.541 0.459 
0.529 0.376 0.561 0.498 
0.388 0.333 0.525 0.498 
0.557 0.541 0.847 1.0 
0.776 0.416 0.831 0.831 
0.612 0.416 0.812 0.875 
0.165 0.208 0.592 0.667 
0.667 0.208 0.812 0.71 
0.612 0.502 0.694 0.792 
0.694 0.416 0.761 0.831 
0.416 0.333 0.694 0.957 
0.612 0.416 0.761 0.71 
0.945 0.251 1.0 0.918 
0.722 0.502 0.796 0.918 
0.945 0.333 0.965 0.792 
0.667 0.541 0.796 0.831 
0.529 0.333 0.643 0.71 
0.584 0.333 0.78 0.831 
0.863 0.333 0.863 0.749 
0.584 0.333 0.78 0.875 
0.498 0.251 0.78 0.541 
0.557 0.584 0.78 0.957 
0.471 0.416 0.643 0.71 
0.667 0.459 0.78 0.957 
0.416 0.29 0.694 0.749 
0.667 0.541 0.796 1.0 
0.557 0.208 0.678 0.749 
0.529 0.584 0.745 0.918 
0.416 0.29 0.694 0.749 
0.557 0.376 0.78 0.71 
0.918 0.416 0.949 0.831 
0.835 0.376 0.898 0.71 
0.804 0.667 0.863 1.0 
0.584 0.29 0.729 0.749 
0.388 0.208 0.678 0.792 
0.584 0.502 0.729 0.918 
0.945 0.749 0.965 0.875 
0.471 0.082 0.678 0.584 
0.361 0.333 0.663 0.792 
0.557 0.29 0.663 0.71 
0.804 0.502 0.847 0.71 
0.498 0.416 0.51 0.71 
0.804 0.416 0.812 0.624 
1.0 0.749 0.914 0.792 
0.557 0.333 0.694 0.584 
0.945 0.416 0.863 0.918 
0.584 0.459 0.761 0.71 
0.722 0.459 0.745 0.831 
0.722 0.459 0.694 0.918 
0.694 0.502 0.831 0.918 
0.667 0.416 0.714 0.918 
0.612 0.416 0.714 0.792 
0.443 0.416 0.694 0.71 
Teaching Patterns
1.0 0.0 0.0 
1.0 0.0 0.0 
1.0 0.0 0.0 
1.0 0.0 0.0 
1.0 0.0 0.0 
1.0 0.0 0.0 
1.0 0.0 0.0 
1.0 0.0 0.0 
1.0 0.0 0.0 
1.0 0.0 0.0 
1.0 0.0 0.0 
1.0 0.0 0.0 
1.0 0.0 0.0 
1.0 0.0 0.0 
1.0 0.0 0.0 
1.0 0.0 0.0 
1.0 0.0 0.0 
1.0 0.0 0.0 
1.0 0.0 0.0 
1.0 0.0 0.0 
1.0 0.0 0.0 
1.0 0.0 0.0 
1.0 0.0 0.0 
1.0 0.0 0.0 
1.0 0.0 0.0 
1.0 0.0 0.0 
1.0 0.0 0.0 
1.0 0.0 0.0 
1.0 0.0 0.0 
1.0 0.0 0.0 
1.0 0.0 0.0 
1.0 0.0 0.0 
1.0 0.0 0.0 
1.0 0.0 0.0 
1.0 0.0 0.0 
1.0 0.0 0.0 
1.0 0.0 0.0 
1.0 0.0 0.0 
1.0 0.0 0.0 
1.0 0.0 0.0 
1.0 0.0 0.0 
1.0 0.0 0.0 
1.0 0.0 0.0 
1.0 0.0 0.0 
1.0 0.0 0.0 
1.0 0.0 0.0 
1.0 0.0 0.0 
1.0 0.0 0.0 
1.0 0.0 0.0 
1.0 0.0 0.0 
0.0 1.0 0.0 
0.0 1.0 0.0 
0.0 1.0 0.0 
0.0 1.0 0.0 
0.0 1.0 0.0 
0.0 1.0 0.0 
0.0 1.0 0.0 
0.0 1.0 0.0 
0.0 1.0 0.0 
0.0 1.0 0.0 
0.0 1.0 0.0 
0.0 1.0 0.0 
0.0 1.0 0.0 
0.0 1.0 0.0 
0.0 1.0 0.0 
0.0 1.0 0.0 
0.0 1.0 0.0 
0.0 1.0 0.0 
0.0 1.0 0.0 
0.0 1.0 0.0 
0.0 1.0 0.0 
0.0 1.0 0.0 
0.0 1.0 0.0 
0.0 1.0 0.0 
0.0 1.0 0.0 
0.0 1.0 0.0 
0.0 1.0 0.0 
0.0 1.0 0.0 
0.0 1.0 0.0 
0.0 1.0 0.0 
0.0 1.0 0.0 
0.0 1.0 0.0 
0.0 1.0 0.0 
0.0 1.0 0.0 
0.0 1.0 0.0 
0.0 1.0 0.0 
0.0 1.0 0.0 
0.0 1.0 0.0 
0.0 1.0 0.0 
0.0 1.0 0.0 
0.0 1.0 0.0 
0.0 1.0 0.0 
0.0 1.0 0.0 
0.0 1.0 0.0 
0.0 1.0 0.0 
0.0 1.0 0.0 
0.0 1.0 0.0 
0.0 1.0 0.0 
0.0 1.0 0.0 
0.0 1.0 0.0 
0.0 0.0 1.0 
0.0 0.0 1.0 
0.0 0.0 1.0 
0.0 0.0 1.0 
0.0 0.0 1.0 
0.0 0.0 1.0 
0.0 0.0 1.0 
0.0 0.0 1.0 
0.0 0.0 1.0 
0.0 0.0 1.0 
0.0 0.0 1.0 
0.0 0.0 1.0 
0.0 0.0 1.0 
0.0 0.0 1.0 
0.0 0.0 1.0 
0.0 0.0 1.0 
0.0 0.0 1.0 
0.0 0.0 1.0 
0.0 0.0 1.0 
0.0 0.0 1.0 
0.0 0.0 1.0 
0.0 0.0 1.0 
0.0 0.0 1.0 
0.0 0.0 1.0 
0.0 0.0 1.0 
0.0 0.0 1.0 
0.0 0.0 1.0 
0.0 0.0 1.0 
0.0 0.0 1.0 
0.0 0.0 1.0 
0.0 0.0 1.0 
0.0 0.0 1.0 
0.0 0.0 1.0 
0.0 0.0 1.0 
0.0 0.0 1.0 
0.0 0.0 1.0 
0.0 0.0 1.0 
0.0 0.0 1.0 
0.0 0.0 1.0 
0.0 0.0 1.0 
0.0 0.0 1.0 
0.0 0.0 1.0 
0.0 0.0 1.0 
0.0 0.0 1.0 
0.0 0.0 1.0 
0.0 0.0 1.0 
0.0 0.0 1.0 
0.0 0.0 1.0 
0.0 0.0 1.0 
0.0 0.0 1.0 
Learning : 0.05
Momentum : 0.20000000298023224
Epoch: 100, Error: 0.08846635670581372
Epoch: 200, Error: 0.035498543923152374
Epoch: 300, Error: 0.02130080518313617
Epoch: 400, Error: 0.017542437303784814
Epoch: 500, Error: 0.016016139322843244
Epoch: 600, Error: 0.01514060320848891
Epoch: 700, Error: 0.014541350520976744
Epoch: 800, Error: 0.014151596674389966
Epoch: 900, Error: 0.013885775891804052
Epoch: 1000, Error: 0.013767277055082615
Epoch: 1100, Error: 0.01353405940573821
Epoch: 1200, Error: 0.013361544541891241
Epoch: 1300, Error: 0.013499619452089434
Epoch: 1400, Error: 0.013139848558471707
Epoch: 1500, Error: 0.012991982353122128
Epoch: 1600, Error: 0.012910968417835499
Epoch: 1700, Error: 0.01286563720106361
Epoch: 1800, Error: 0.012811763759513517
Epoch: 1900, Error: 0.012652757376087133
Epoch: 2000, Error: 0.012592842741156348
Epoch: 2100, Error: 0.012524432126210015
Epoch: 2200, Error: 0.012422393165466268
Epoch: 2300, Error: 0.012425979557952637
Epoch: 2400, Error: 0.012363919336479982
Epoch: 2500, Error: 0.012332730249632577
Epoch: 2600, Error: 0.012331795676974172
Epoch: 2700, Error: 0.012327098047272535
Epoch: 2800, Error: 0.012243738696119298
Epoch: 2900, Error: 0.012223371669672571
Epoch: 3000, Error: 0.012192262119676963
Epoch: 3100, Error: 0.01214513600502448
Epoch: 3200, Error: 0.012141399124240473
Epoch: 3300, Error: 0.01211122886874407
Epoch: 3400, Error: 0.012107991050881284
Epoch: 3500, Error: 0.012074943750420425
Epoch: 3600, Error: 0.012055763751117403
Epoch: 3700, Error: 0.012023944674492602
Epoch: 3800, Error: 0.012053846547105798
Epoch: 3900, Error: 0.012002143742245416
Epoch: 4000, Error: 0.011962334004048518
Epoch: 4100, Error: 0.011944611910046726
Epoch: 4200, Error: 0.011943421311959952
Epoch: 4300, Error: 0.01191950423293429
Epoch: 4400, Error: 0.012024361999877426
Epoch: 4500, Error: 0.011906889528112032
Epoch: 4600, Error: 0.011906388822368642
Epoch: 4700, Error: 0.011906703195555458
Epoch: 4800, Error: 0.011881142470423404
Epoch: 4900, Error: 0.011870210947082804
Epoch: 5000, Error: 0.01192820953925616
Epoch: 5100, Error: 0.011876244546864347
Epoch: 5200, Error: 0.011919316258839246
Epoch: 5300, Error: 0.0118596571533906
Epoch: 5400, Error: 0.011856290485885285
Epoch: 5500, Error: 0.01186455507130254
Epoch: 5600, Error: 0.011910048423790533
Epoch: 5700, Error: 0.011810090532620051
Epoch: 5800, Error: 0.011804142337081124
Epoch: 5900, Error: 0.011802342202296284
Epoch: 6000, Error: 0.011810963693128325
Epoch: 6100, Error: 0.011802285660729911
Epoch: 6200, Error: 0.011788687817924796
Epoch: 6300, Error: 0.011809966079933282
Epoch: 6400, Error: 0.011821157688265456
Epoch: 6500, Error: 0.011813363799778487
Epoch: 6600, Error: 0.011768900211165067
Epoch: 6700, Error: 0.011770318530306587
Epoch: 6800, Error: 0.011763194927109357
Epoch: 6900, Error: 0.011775754418760309
Epoch: 7000, Error: 0.011744750288316676
Epoch: 7100, Error: 0.011787214545681046
Epoch: 7200, Error: 0.011732041823303816
Epoch: 7300, Error: 0.011727530760798124
Epoch: 7400, Error: 0.011728681949114712
Epoch: 7500, Error: 0.011710590192737768
Epoch: 7600, Error: 0.011703514592539196
Epoch: 7700, Error: 0.01175260053454822
Epoch: 7800, Error: 0.011692539049968908
Epoch: 7900, Error: 0.01168444836280355
Epoch: 8000, Error: 0.011692241180414923
Epoch: 8100, Error: 0.011665927841853966
Epoch: 8200, Error: 0.011666808513445912
Epoch: 8300, Error: 0.01167046893296746
Epoch: 8400, Error: 0.011645756443066875
Epoch: 8500, Error: 0.011643050763401455
Epoch: 8600, Error: 0.011631519174346877
Epoch: 8700, Error: 0.011630910886689251
Epoch: 8800, Error: 0.011621993638100302
Epoch: 8900, Error: 0.011625848838098505
Epoch: 9000, Error: 0.011611515144992531
Epoch: 9100, Error: 0.011603272521326834
Epoch: 9200, Error: 0.011590960334819843
Epoch: 9300, Error: 0.011585828323126143
Epoch: 9400, Error: 0.011572141934411175
Epoch: 9500, Error: 0.01156222483347166
Epoch: 9600, Error: 0.011529346238266604
Epoch: 9700, Error: 0.011551789732657662
Epoch: 9800, Error: 0.011551901095078218
Epoch: 9900, Error: 0.011555161027024948
Epoch: 10000, Error: 0.011537948794126727
Epoch: 10100, Error: 0.011506446526751365
Epoch: 10200, Error: 0.011477785428119783
Epoch: 10300, Error: 0.01145626405531241
Epoch: 10400, Error: 0.011439364054321622
Epoch: 10500, Error: 0.011423530155291663
Epoch: 10600, Error: 0.01140482014230599
Epoch: 10700, Error: 0.011373331538081732
Epoch: 10800, Error: 0.011335869278091023
Epoch: 10900, Error: 0.011313802104090697
Epoch: 11000, Error: 0.011278683678759442
Epoch: 11100, Error: 0.011262483949930813
Epoch: 11200, Error: 0.01122961179864667
Epoch: 11300, Error: 0.011198366909025552
Epoch: 11400, Error: 0.011159468756877382
Epoch: 11500, Error: 0.01121505158167545
Epoch: 11600, Error: 0.011085352566945351
Epoch: 11700, Error: 0.011049276150137698
Epoch: 11800, Error: 0.011034620393961591
Epoch: 11900, Error: 0.010986122621418482
Epoch: 12000, Error: 0.010917996791999498
Epoch: 12100, Error: 0.01086795684522211
Epoch: 12200, Error: 0.010839361882789361
Epoch: 12300, Error: 0.010784855072894372
Epoch: 12400, Error: 0.010741645540751897
Epoch: 12500, Error: 0.010705180149785736
Epoch: 12600, Error: 0.010614696262053766
Epoch: 12700, Error: 0.010591205223800412
Epoch: 12800, Error: 0.010541675411878837
Epoch: 12900, Error: 0.010463279445783685
Epoch: 13000, Error: 0.010405152418486208
Epoch: 13100, Error: 0.010323748785896304
Epoch: 13200, Error: 0.010318187087836245
Epoch: 13300, Error: 0.01020241472929581
Epoch: 13400, Error: 0.010181723269738012
Epoch: 13500, Error: 0.010079327663323154
Epoch: 13600, Error: 0.01002614957509222
Epoch: 13700, Error: 0.009958068836028622
Epoch: 13800, Error: 0.00988564390810218
Epoch: 13900, Error: 0.009821009824787603
Epoch: 14000, Error: 0.00975076186641879
Epoch: 14100, Error: 0.009681260893579917
Epoch: 14200, Error: 0.009636945412390971
Epoch: 14300, Error: 0.009589257029753941
Epoch: 14400, Error: 0.009477129163223725
Epoch: 14500, Error: 0.009384744537289727
Epoch: 14600, Error: 0.009298133155418595
Epoch: 14700, Error: 0.009240067287894758
Epoch: 14800, Error: 0.009167801899489354
Epoch: 14900, Error: 0.009107522387249396
Epoch: 15000, Error: 0.00903464822484159
Epoch: 15100, Error: 0.008984179367622401
Epoch: 15200, Error: 0.008903298484910298
Epoch: 15300, Error: 0.008844368162990559
Epoch: 15400, Error: 0.00881876040625779
Epoch: 15500, Error: 0.008703594326644044
Epoch: 15600, Error: 0.008619741422005634
Epoch: 15700, Error: 0.008556726462411906
Epoch: 15800, Error: 0.008487765925791544
Epoch: 15900, Error: 0.008424241198551402
Epoch: 16000, Error: 0.008370475333314217
Epoch: 16100, Error: 0.008304804014756768
Epoch: 16200, Error: 0.008227465713218078
Epoch: 16300, Error: 0.008154783619740692
Epoch: 16400, Error: 0.008078773422326959
Epoch: 16500, Error: 0.008053425680330377
Epoch: 16600, Error: 0.007972336857715078
Epoch: 16700, Error: 0.00791371135800544
Epoch: 16800, Error: 0.007852869603208284
Epoch: 16900, Error: 0.007800589692629482
Epoch: 17000, Error: 0.007739911237748553
Epoch: 17100, Error: 0.0076796186198461935
Epoch: 17200, Error: 0.007620552150014172
Epoch: 17300, Error: 0.007575485172450023
Epoch: 17400, Error: 0.007518715400956967
Epoch: 17500, Error: 0.007470349423930667
Epoch: 17600, Error: 0.00741734751035604
Epoch: 17700, Error: 0.007362518413467937
Epoch: 17800, Error: 0.0073214566840035765
Epoch: 17900, Error: 0.007280568966209524
Epoch: 18000, Error: 0.007244248677169354
Epoch: 18100, Error: 0.007207905038002032
Epoch: 18200, Error: 0.007165661123823126
Epoch: 18300, Error: 0.007166988263819515
Epoch: 18400, Error: 0.007158484612286354
Epoch: 18500, Error: 0.007167010664980363
Epoch: 18600, Error: 0.007124500898647277
Epoch: 18700, Error: 0.007102947308054414
Epoch: 18800, Error: 0.007091811395502514
Epoch: 18900, Error: 0.0070460152604457146
Epoch: 19000, Error: 0.007045465506711915
Epoch: 19100, Error: 0.007009507099456771
Epoch: 19200, Error: 0.006993849991580103
Epoch: 19300, Error: 0.006997763385113051
Epoch: 19400, Error: 0.007020304103537818
Epoch: 19500, Error: 0.006964910806840306
Epoch: 19600, Error: 0.006940475839365611
Epoch: 19700, Error: 0.006917224048160111
Epoch: 19800, Error: 0.006897159147817717
Epoch: 19900, Error: 0.006871850951036372
Epoch: 20000, Error: 0.006835716665728967
Epoch: 20100, Error: 0.006822035409047686
Epoch: 20200, Error: 0.0067926692201454525
Epoch: 20300, Error: 0.006751373158353249
Epoch: 20400, Error: 0.006730090668430433
Epoch: 20500, Error: 0.006730170021362889
Epoch: 20600, Error: 0.00670219262189223
Epoch: 20700, Error: 0.006688339015812034
Epoch: 20800, Error: 0.0066854192640479
Epoch: 20900, Error: 0.006681483994266642
Epoch: 21000, Error: 0.0066538970874669996
Epoch: 21100, Error: 0.006658937603584294
Epoch: 21200, Error: 0.006647481447698103
Epoch: 21300, Error: 0.006621138596510866
Epoch: 21400, Error: 0.006594077599912278
Epoch: 21500, Error: 0.006578664106726575
Epoch: 21600, Error: 0.006560860258438078
Epoch: 21700, Error: 0.006528842671692619
Epoch: 21800, Error: 0.0065012316822103036
Epoch: 21900, Error: 0.00647820532861848
Epoch: 22000, Error: 0.006447152662332918
Epoch: 22100, Error: 0.006418287255071661
Epoch: 22200, Error: 0.006407799765805257
Epoch: 22300, Error: 0.00639342974556686
Epoch: 22400, Error: 0.006347032030230052
Epoch: 22500, Error: 0.006327117975171355
Epoch: 22600, Error: 0.006303068313152753
Epoch: 22700, Error: 0.006301560671448403
Epoch: 22800, Error: 0.006283056939150602
Epoch: 22900, Error: 0.006294283831342395
Epoch: 23000, Error: 0.00629602857514155
Epoch: 23100, Error: 0.006323774053851728
Epoch: 23200, Error: 0.006323336981190914
Epoch: 23300, Error: 0.006333041001164575
Epoch: 23400, Error: 0.006328234465801429
Epoch: 23500, Error: 0.006312330996936832
Finished
