Input Patterns
0.224 0.624 0.067 0.043 
0.11 0.502 0.051 0.043 
0.196 0.667 0.067 0.043 
0.055 0.584 0.067 0.082 
0.027 0.376 0.067 0.043 
0.306 0.71 0.086 0.043 
0.137 0.416 0.067 0.0 
0.416 0.831 0.035 0.043 
0.306 0.792 0.051 0.125 
0.388 0.749 0.118 0.082 
0.306 0.584 0.118 0.043 
0.082 0.667 0.0 0.043 
0.137 0.584 0.153 0.043 
0.196 0.584 0.102 0.125 
0.251 0.584 0.067 0.043 
0.137 0.459 0.102 0.043 
0.251 0.875 0.086 0.0 
0.165 0.459 0.086 0.043 
0.333 0.624 0.051 0.043 
0.027 0.416 0.051 0.043 
0.196 0.624 0.051 0.082 
0.027 0.502 0.051 0.043 
0.224 0.749 0.153 0.125 
0.224 0.749 0.102 0.043 
0.278 0.71 0.086 0.043 
0.165 0.416 0.067 0.043 
0.082 0.459 0.086 0.043 
0.306 0.792 0.118 0.125 
0.196 0.584 0.086 0.043 
0.165 0.459 0.086 0.0 
0.137 0.584 0.102 0.043 
0.0 0.416 0.016 0.0 
0.388 1.0 0.086 0.125 
0.224 0.624 0.067 0.082 
0.224 0.749 0.086 0.082 
0.224 0.71 0.086 0.125 
0.224 0.541 0.118 0.165 
0.196 0.416 0.102 0.043 
0.251 0.624 0.086 0.043 
0.11 0.502 0.102 0.043 
0.306 0.584 0.086 0.125 
0.333 0.918 0.067 0.043 
0.196 0.502 0.035 0.043 
0.165 0.667 0.067 0.0 
0.224 0.584 0.086 0.043 
0.055 0.125 0.051 0.082 
0.196 0.624 0.102 0.208 
0.137 0.416 0.067 0.082 
0.082 0.502 0.067 0.043 
0.196 0.541 0.067 0.043 
0.749 0.502 0.627 0.541 
0.722 0.459 0.663 0.584 
0.612 0.333 0.612 0.584 
0.557 0.541 0.627 0.624 
0.639 0.376 0.612 0.498 
0.196 0.0 0.424 0.376 
0.471 0.082 0.51 0.376 
0.361 0.376 0.439 0.498 
0.361 0.416 0.592 0.584 
0.529 0.082 0.592 0.584 
0.443 0.502 0.643 0.459 
0.557 0.208 0.663 0.584 
0.584 0.376 0.561 0.498 
0.694 0.333 0.643 0.541 
0.471 0.376 0.592 0.584 
0.333 0.169 0.475 0.416 
0.416 0.29 0.49 0.459 
0.306 0.416 0.592 0.584 
0.667 0.459 0.627 0.584 
0.361 0.416 0.525 0.498 
0.333 0.251 0.576 0.459 
0.416 0.251 0.51 0.459 
0.361 0.29 0.541 0.498 
0.388 0.376 0.541 0.498 
0.224 0.208 0.337 0.416 
0.584 0.502 0.592 0.584 
0.333 0.125 0.51 0.498 
0.388 0.333 0.592 0.498 
0.165 0.169 0.388 0.376 
0.251 0.29 0.49 0.541 
0.443 0.416 0.541 0.584 
0.498 0.376 0.627 0.541 
0.667 0.459 0.576 0.541 
0.416 0.29 0.525 0.376 
0.361 0.208 0.49 0.416 
0.498 0.333 0.51 0.498 
0.498 0.333 0.627 0.459 
0.639 0.416 0.576 0.541 
0.667 0.416 0.678 0.667 
0.388 0.251 0.424 0.376 
0.333 0.169 0.459 0.376 
0.471 0.29 0.694 0.624 
0.471 0.584 0.592 0.624 
0.557 0.125 0.576 0.498 
0.333 0.208 0.51 0.498 
0.498 0.416 0.612 0.541 
0.196 0.125 0.388 0.376 
0.388 0.416 0.541 0.459 
0.529 0.376 0.561 0.498 
0.388 0.333 0.525 0.498 
0.557 0.541 0.847 1.0 
0.776 0.416 0.831 0.831 
0.612 0.416 0.812 0.875 
0.165 0.208 0.592 0.667 
0.667 0.208 0.812 0.71 
0.612 0.502 0.694 0.792 
0.694 0.416 0.761 0.831 
0.416 0.333 0.694 0.957 
0.612 0.416 0.761 0.71 
0.945 0.251 1.0 0.918 
0.722 0.502 0.796 0.918 
0.945 0.333 0.965 0.792 
0.667 0.541 0.796 0.831 
0.529 0.333 0.643 0.71 
0.584 0.333 0.78 0.831 
0.863 0.333 0.863 0.749 
0.584 0.333 0.78 0.875 
0.498 0.251 0.78 0.541 
0.557 0.584 0.78 0.957 
0.471 0.416 0.643 0.71 
0.667 0.459 0.78 0.957 
0.416 0.29 0.694 0.749 
0.667 0.541 0.796 1.0 
0.557 0.208 0.678 0.749 
0.529 0.584 0.745 0.918 
0.416 0.29 0.694 0.749 
0.557 0.376 0.78 0.71 
0.918 0.416 0.949 0.831 
0.835 0.376 0.898 0.71 
0.804 0.667 0.863 1.0 
0.584 0.29 0.729 0.749 
0.388 0.208 0.678 0.792 
0.584 0.502 0.729 0.918 
0.945 0.749 0.965 0.875 
0.471 0.082 0.678 0.584 
0.361 0.333 0.663 0.792 
0.557 0.29 0.663 0.71 
0.804 0.502 0.847 0.71 
0.498 0.416 0.51 0.71 
0.804 0.416 0.812 0.624 
1.0 0.749 0.914 0.792 
0.557 0.333 0.694 0.584 
0.945 0.416 0.863 0.918 
0.584 0.459 0.761 0.71 
0.722 0.459 0.745 0.831 
0.722 0.459 0.694 0.918 
0.694 0.502 0.831 0.918 
0.667 0.416 0.714 0.918 
0.612 0.416 0.714 0.792 
0.443 0.416 0.694 0.71 
Teaching Patterns
1.0 0.0 0.0 
1.0 0.0 0.0 
1.0 0.0 0.0 
1.0 0.0 0.0 
1.0 0.0 0.0 
1.0 0.0 0.0 
1.0 0.0 0.0 
1.0 0.0 0.0 
1.0 0.0 0.0 
1.0 0.0 0.0 
1.0 0.0 0.0 
1.0 0.0 0.0 
1.0 0.0 0.0 
1.0 0.0 0.0 
1.0 0.0 0.0 
1.0 0.0 0.0 
1.0 0.0 0.0 
1.0 0.0 0.0 
1.0 0.0 0.0 
1.0 0.0 0.0 
1.0 0.0 0.0 
1.0 0.0 0.0 
1.0 0.0 0.0 
1.0 0.0 0.0 
1.0 0.0 0.0 
1.0 0.0 0.0 
1.0 0.0 0.0 
1.0 0.0 0.0 
1.0 0.0 0.0 
1.0 0.0 0.0 
1.0 0.0 0.0 
1.0 0.0 0.0 
1.0 0.0 0.0 
1.0 0.0 0.0 
1.0 0.0 0.0 
1.0 0.0 0.0 
1.0 0.0 0.0 
1.0 0.0 0.0 
1.0 0.0 0.0 
1.0 0.0 0.0 
1.0 0.0 0.0 
1.0 0.0 0.0 
1.0 0.0 0.0 
1.0 0.0 0.0 
1.0 0.0 0.0 
1.0 0.0 0.0 
1.0 0.0 0.0 
1.0 0.0 0.0 
1.0 0.0 0.0 
1.0 0.0 0.0 
0.0 1.0 0.0 
0.0 1.0 0.0 
0.0 1.0 0.0 
0.0 1.0 0.0 
0.0 1.0 0.0 
0.0 1.0 0.0 
0.0 1.0 0.0 
0.0 1.0 0.0 
0.0 1.0 0.0 
0.0 1.0 0.0 
0.0 1.0 0.0 
0.0 1.0 0.0 
0.0 1.0 0.0 
0.0 1.0 0.0 
0.0 1.0 0.0 
0.0 1.0 0.0 
0.0 1.0 0.0 
0.0 1.0 0.0 
0.0 1.0 0.0 
0.0 1.0 0.0 
0.0 1.0 0.0 
0.0 1.0 0.0 
0.0 1.0 0.0 
0.0 1.0 0.0 
0.0 1.0 0.0 
0.0 1.0 0.0 
0.0 1.0 0.0 
0.0 1.0 0.0 
0.0 1.0 0.0 
0.0 1.0 0.0 
0.0 1.0 0.0 
0.0 1.0 0.0 
0.0 1.0 0.0 
0.0 1.0 0.0 
0.0 1.0 0.0 
0.0 1.0 0.0 
0.0 1.0 0.0 
0.0 1.0 0.0 
0.0 1.0 0.0 
0.0 1.0 0.0 
0.0 1.0 0.0 
0.0 1.0 0.0 
0.0 1.0 0.0 
0.0 1.0 0.0 
0.0 1.0 0.0 
0.0 1.0 0.0 
0.0 1.0 0.0 
0.0 1.0 0.0 
0.0 1.0 0.0 
0.0 1.0 0.0 
0.0 0.0 1.0 
0.0 0.0 1.0 
0.0 0.0 1.0 
0.0 0.0 1.0 
0.0 0.0 1.0 
0.0 0.0 1.0 
0.0 0.0 1.0 
0.0 0.0 1.0 
0.0 0.0 1.0 
0.0 0.0 1.0 
0.0 0.0 1.0 
0.0 0.0 1.0 
0.0 0.0 1.0 
0.0 0.0 1.0 
0.0 0.0 1.0 
0.0 0.0 1.0 
0.0 0.0 1.0 
0.0 0.0 1.0 
0.0 0.0 1.0 
0.0 0.0 1.0 
0.0 0.0 1.0 
0.0 0.0 1.0 
0.0 0.0 1.0 
0.0 0.0 1.0 
0.0 0.0 1.0 
0.0 0.0 1.0 
0.0 0.0 1.0 
0.0 0.0 1.0 
0.0 0.0 1.0 
0.0 0.0 1.0 
0.0 0.0 1.0 
0.0 0.0 1.0 
0.0 0.0 1.0 
0.0 0.0 1.0 
0.0 0.0 1.0 
0.0 0.0 1.0 
0.0 0.0 1.0 
0.0 0.0 1.0 
0.0 0.0 1.0 
0.0 0.0 1.0 
0.0 0.0 1.0 
0.0 0.0 1.0 
0.0 0.0 1.0 
0.0 0.0 1.0 
0.0 0.0 1.0 
0.0 0.0 1.0 
0.0 0.0 1.0 
0.0 0.0 1.0 
0.0 0.0 1.0 
0.0 0.0 1.0 
Learning : 0.05
Momentum : 0.20000000298023224
Epoch: 100, Error: 0.08802022750103636
Epoch: 200, Error: 0.03176412904638617
Epoch: 300, Error: 0.020026652701671716
Epoch: 400, Error: 0.016788720002121876
Epoch: 500, Error: 0.01527272030110568
Epoch: 600, Error: 0.014390084064433973
Epoch: 700, Error: 0.013839978409521106
Epoch: 800, Error: 0.013415333908072603
Epoch: 900, Error: 0.013149318619145388
Epoch: 1000, Error: 0.012951910767107739
Epoch: 1100, Error: 0.012809162918074516
Epoch: 1200, Error: 0.012746943691817864
Epoch: 1300, Error: 0.012543974041470039
Epoch: 1400, Error: 0.012469313087473068
Epoch: 1500, Error: 0.012354569014225278
Epoch: 1600, Error: 0.012334083842209699
Epoch: 1700, Error: 0.01224695059284954
Epoch: 1800, Error: 0.012229777885438348
Epoch: 1900, Error: 0.012257768809077599
Epoch: 2000, Error: 0.012170015448366918
Epoch: 2100, Error: 0.012144084138024761
Epoch: 2200, Error: 0.012174511689389407
Epoch: 2300, Error: 0.012104866230007052
Epoch: 2400, Error: 0.012163593741024494
Epoch: 2500, Error: 0.012070777555086053
Epoch: 2600, Error: 0.012107859772822013
Epoch: 2700, Error: 0.01205571171507657
Epoch: 2800, Error: 0.012042763366222196
Epoch: 2900, Error: 0.01201736990580142
Epoch: 3000, Error: 0.012017418546626638
Epoch: 3100, Error: 0.012005879000042106
Epoch: 3200, Error: 0.012021853434106567
Epoch: 3300, Error: 0.01201909325509482
Epoch: 3400, Error: 0.01199694872100909
Epoch: 3500, Error: 0.011962945514461497
Epoch: 3600, Error: 0.011954946393181535
Epoch: 3700, Error: 0.01195340967016004
Epoch: 3800, Error: 0.011963361940564214
Epoch: 3900, Error: 0.011951324600356812
Epoch: 4000, Error: 0.011942499564785058
Epoch: 4100, Error: 0.011938495119152953
Epoch: 4200, Error: 0.011933594524049719
Epoch: 4300, Error: 0.011919192750357792
Epoch: 4400, Error: 0.01192038395618713
Epoch: 4500, Error: 0.011908121810773819
Epoch: 4600, Error: 0.01192635238899717
Epoch: 4700, Error: 0.011879642644352432
Epoch: 4800, Error: 0.011880311126201547
Epoch: 4900, Error: 0.011874643412985462
Epoch: 5000, Error: 0.011867644396083234
Epoch: 5100, Error: 0.011861986642221356
Epoch: 5200, Error: 0.011945798623103219
Epoch: 5300, Error: 0.011841341130629832
Epoch: 5400, Error: 0.011844768164555732
Epoch: 5500, Error: 0.01184927615647934
Epoch: 5600, Error: 0.011861070918831993
Epoch: 5700, Error: 0.011856250083879473
Epoch: 5800, Error: 0.01185002143536737
Epoch: 5900, Error: 0.01181956487553348
Epoch: 6000, Error: 0.011815947774488397
Epoch: 6100, Error: 0.011789335578980644
Epoch: 6200, Error: 0.011785225438823899
Epoch: 6300, Error: 0.011777892843042814
Epoch: 6400, Error: 0.011771467364891808
Epoch: 6500, Error: 0.011793724057972807
Epoch: 6600, Error: 0.011750250367059463
Epoch: 6700, Error: 0.011724364976349246
Epoch: 6800, Error: 0.011717803739726983
Epoch: 6900, Error: 0.011761257735419414
Epoch: 7000, Error: 0.01167660431044345
Epoch: 7100, Error: 0.011658774819464143
Epoch: 7200, Error: 0.011609395781802768
Epoch: 7300, Error: 0.011583517630449942
Epoch: 7400, Error: 0.011573495109829446
Epoch: 7500, Error: 0.01154708117723341
Epoch: 7600, Error: 0.011530596395226926
Epoch: 7700, Error: 0.011480185048045129
Epoch: 7800, Error: 0.011454149891487665
Epoch: 7900, Error: 0.011443520446950366
Epoch: 8000, Error: 0.0113857487004777
Epoch: 8100, Error: 0.011353038361869357
Epoch: 8200, Error: 0.011326487661818731
Epoch: 8300, Error: 0.011273146872281526
Epoch: 8400, Error: 0.01122265730089791
Epoch: 8500, Error: 0.01117923352939305
Epoch: 8600, Error: 0.011151964707251483
Epoch: 8700, Error: 0.011091575842372914
Epoch: 8800, Error: 0.011044517358330438
Epoch: 8900, Error: 0.010984013054221446
Epoch: 9000, Error: 0.01094782850173245
Epoch: 9100, Error: 0.01099620076925725
Epoch: 9200, Error: 0.010808452858733955
Epoch: 9300, Error: 0.010752898297046143
Epoch: 9400, Error: 0.010689784889593785
Epoch: 9500, Error: 0.010659153169732002
Epoch: 9600, Error: 0.010533905759390371
Epoch: 9700, Error: 0.010474698608420761
Epoch: 9800, Error: 0.01038329624663842
Epoch: 9900, Error: 0.010294363230221886
Epoch: 10000, Error: 0.010270943004761411
Epoch: 10100, Error: 0.010131401865795354
Epoch: 10200, Error: 0.010036695475449482
Epoch: 10300, Error: 0.009981667977078085
Epoch: 10400, Error: 0.009840837942218133
Epoch: 10500, Error: 0.009766596064861355
Epoch: 10600, Error: 0.009656327267096351
Epoch: 10700, Error: 0.00954643474522628
Epoch: 10800, Error: 0.009437509567839423
Epoch: 10900, Error: 0.009331468596307851
Epoch: 11000, Error: 0.00922849292926972
Epoch: 11100, Error: 0.009135565122791053
Epoch: 11200, Error: 0.009014331648356378
Epoch: 11300, Error: 0.008909142419951699
Epoch: 11400, Error: 0.008810480432053817
Epoch: 11500, Error: 0.008700430115609873
Epoch: 11600, Error: 0.008597954283351686
Epoch: 11700, Error: 0.008501188092233282
Epoch: 11800, Error: 0.008470779829558926
Epoch: 11900, Error: 0.00838420623380344
Epoch: 12000, Error: 0.00828502135134612
Epoch: 12100, Error: 0.008131801046202302
Epoch: 12200, Error: 0.00804088997414745
Epoch: 12300, Error: 0.00794129660260449
Epoch: 12400, Error: 0.007862748235816333
Epoch: 12500, Error: 0.0077723435149493845
Epoch: 12600, Error: 0.007704142148654685
Epoch: 12700, Error: 0.0076195843401204956
Epoch: 12800, Error: 0.007547982935511838
Epoch: 12900, Error: 0.007481528550473043
Epoch: 13000, Error: 0.007404807721337772
Epoch: 13100, Error: 0.007352064535611919
Epoch: 13200, Error: 0.007279100905189964
Epoch: 13300, Error: 0.007212490046843221
Epoch: 13400, Error: 0.0071531971023630625
Epoch: 13500, Error: 0.007097919368871674
Epoch: 13600, Error: 0.007072323205731842
Epoch: 13700, Error: 0.006999871862917279
Epoch: 13800, Error: 0.006939211801427041
Epoch: 13900, Error: 0.006887058042792758
Epoch: 14000, Error: 0.00684912637355477
Epoch: 14100, Error: 0.0068020575282902555
Epoch: 14200, Error: 0.006750740398847905
Epoch: 14300, Error: 0.006729760933594452
Epoch: 14400, Error: 0.006672843268626054
Epoch: 14500, Error: 0.006642771039380933
Epoch: 14600, Error: 0.006609366625466848
Epoch: 14700, Error: 0.006571860198603004
Epoch: 14800, Error: 0.006564760050597248
Epoch: 14900, Error: 0.006526584196696986
Epoch: 15000, Error: 0.006514248861872695
Epoch: 15100, Error: 0.006483020338879558
Epoch: 15200, Error: 0.0064758155614629
Epoch: 15300, Error: 0.006443885142019111
Epoch: 15400, Error: 0.006425170964172571
Epoch: 15500, Error: 0.0064097659680813004
Epoch: 15600, Error: 0.0063836414225522265
Epoch: 15700, Error: 0.006363178613213744
Epoch: 15800, Error: 0.0063433024868913635
Epoch: 15900, Error: 0.006334659982512273
Epoch: 16000, Error: 0.006303390645437925
Epoch: 16100, Error: 0.0062913883041892625
Epoch: 16200, Error: 0.006268034738976562
Epoch: 16300, Error: 0.006276946161060709
Epoch: 16400, Error: 0.006245103971187575
Epoch: 16500, Error: 0.00623039762950794
Epoch: 16600, Error: 0.006193139497880383
Epoch: 16700, Error: 0.006183656284330436
Epoch: 16800, Error: 0.00619179824824743
Epoch: 16900, Error: 0.006144913866632766
Epoch: 17000, Error: 0.006138285657327562
Epoch: 17100, Error: 0.006126793318046821
Epoch: 17200, Error: 0.0061169008690640314
Epoch: 17300, Error: 0.006105032642353909
Epoch: 17400, Error: 0.006107208825617368
Epoch: 17500, Error: 0.006113373985834537
Epoch: 17600, Error: 0.006085172208543773
Epoch: 17700, Error: 0.0060631832360899685
Epoch: 17800, Error: 0.00605028247118777
Epoch: 17900, Error: 0.006046370018691544
Epoch: 18000, Error: 0.006063490781257544
Epoch: 18100, Error: 0.0060755103424128855
Epoch: 18200, Error: 0.006028552055413876
Epoch: 18300, Error: 0.006008711023144406
Epoch: 18400, Error: 0.005995556067503223
Epoch: 18500, Error: 0.005989704198030078
Epoch: 18600, Error: 0.005986168099335223
Epoch: 18700, Error: 0.005985360495111655
Epoch: 18800, Error: 0.005951319089170833
Epoch: 18900, Error: 0.005931489409565104
Epoch: 19000, Error: 0.0059041231772102775
Epoch: 19100, Error: 0.0058968675805795715
Epoch: 19200, Error: 0.005886764850019304
Epoch: 19300, Error: 0.005866043440332806
Epoch: 19400, Error: 0.005857246926545023
Epoch: 19500, Error: 0.005843497597133275
Epoch: 19600, Error: 0.00582123790381592
Epoch: 19700, Error: 0.005802417709095245
Epoch: 19800, Error: 0.005770922782208579
Epoch: 19900, Error: 0.005758036518529995
Epoch: 20000, Error: 0.005759039139821069
Epoch: 20100, Error: 0.0057295136589657234
Epoch: 20200, Error: 0.005709851137050411
Epoch: 20300, Error: 0.00570337671642305
Epoch: 20400, Error: 0.005665730919072514
Epoch: 20500, Error: 0.005662319069342322
Epoch: 20600, Error: 0.00563063485678377
Epoch: 20700, Error: 0.005622326368543921
Epoch: 20800, Error: 0.0055931441574863855
Epoch: 20900, Error: 0.005579730620783223
Epoch: 21000, Error: 0.005573224659256011
Epoch: 21100, Error: 0.005550311046189155
Epoch: 21200, Error: 0.0055343423489830155
Epoch: 21300, Error: 0.005522724384104769
Epoch: 21400, Error: 0.0055168599309913385
Epoch: 21500, Error: 0.005507052574288266
Epoch: 21600, Error: 0.0054958744357703065
Epoch: 21700, Error: 0.005492421744364762
Epoch: 21800, Error: 0.0054691960927496595
Epoch: 21900, Error: 0.00547461406627348
Epoch: 22000, Error: 0.005445155497712397
Epoch: 22100, Error: 0.00541727715290835
Epoch: 22200, Error: 0.005414487834300393
Epoch: 22300, Error: 0.005415086117489112
Epoch: 22400, Error: 0.005386481630169687
Epoch: 22500, Error: 0.0053577047766903045
Epoch: 22600, Error: 0.005357608348918761
Epoch: 22700, Error: 0.0053358235499613525
Epoch: 22800, Error: 0.005317100984084228
Epoch: 22900, Error: 0.005302322360929874
Epoch: 23000, Error: 0.005269742384244811
Epoch: 23100, Error: 0.005256142980111705
Epoch: 23200, Error: 0.005240922435787722
Epoch: 23300, Error: 0.005229418284657854
Epoch: 23400, Error: 0.005197851133548231
Epoch: 23500, Error: 0.0051930039640595786
Epoch: 23600, Error: 0.00516391085391199
Epoch: 23700, Error: 0.0051514094274672855
Epoch: 23800, Error: 0.005140990488155179
Epoch: 23900, Error: 0.0051236218921408005
Epoch: 24000, Error: 0.005107770432699931
Epoch: 24100, Error: 0.005128027321197385
Epoch: 24200, Error: 0.005082778423225222
Epoch: 24300, Error: 0.00505595536111054
Epoch: 24400, Error: 0.005034852156837715
Epoch: 24500, Error: 0.005025305429442147
Epoch: 24600, Error: 0.005003641399702983
Epoch: 24700, Error: 0.00496575302745658
Epoch: 24800, Error: 0.004988888654637387
Epoch: 24900, Error: 0.0049484457119183724
Epoch: 25000, Error: 0.004920804197031613
Epoch: 25100, Error: 0.004874426233873989
Epoch: 25200, Error: 0.00483975734183143
Epoch: 25300, Error: 0.00481299424884495
Epoch: 25400, Error: 0.004778659786537473
Epoch: 25500, Error: 0.004742609915325186
Epoch: 25600, Error: 0.004701880277161389
Epoch: 25700, Error: 0.004673500548238907
Epoch: 25800, Error: 0.004623082030879979
Epoch: 25900, Error: 0.004578291760572797
Epoch: 26000, Error: 0.004538406451303024
Epoch: 26100, Error: 0.004525345526210177
Epoch: 26200, Error: 0.004471658473406097
Epoch: 26300, Error: 0.0044567716137422905
Epoch: 26400, Error: 0.004419709320452052
Epoch: 26500, Error: 0.004401530928636071
Epoch: 26600, Error: 0.004365818711327698
Epoch: 26700, Error: 0.004368639066537193
Epoch: 26800, Error: 0.004340260776194304
Epoch: 26900, Error: 0.004330630431354726
Epoch: 27000, Error: 0.004266814163053156
Epoch: 27100, Error: 0.004240927198346962
Epoch: 27200, Error: 0.004219800531964373
Epoch: 27300, Error: 0.004221076498345436
Epoch: 27400, Error: 0.00415782683585638
Epoch: 27500, Error: 0.004137804265815412
Epoch: 27600, Error: 0.004118215286133854
Epoch: 27700, Error: 0.0040956921001779785
Epoch: 27800, Error: 0.0040825077134841944
Epoch: 27900, Error: 0.004042601392948911
Epoch: 28000, Error: 0.0040127925196310876
Epoch: 28100, Error: 0.004026219222703898
Epoch: 28200, Error: 0.004007464264052563
Epoch: 28300, Error: 0.003960575400539794
Epoch: 28400, Error: 0.0039353097454215115
Epoch: 28500, Error: 0.00390666441818545
Epoch: 28600, Error: 0.003957942648449967
Epoch: 28700, Error: 0.0038878544054106014
Epoch: 28800, Error: 0.0038435994000495196
Epoch: 28900, Error: 0.003806861562029371
Epoch: 29000, Error: 0.0038037238823199503
Epoch: 29100, Error: 0.0038133797931118566
Epoch: 29200, Error: 0.0037366442041671657
Epoch: 29300, Error: 0.0037305839913446192
Epoch: 29400, Error: 0.0037182474073895896
Epoch: 29500, Error: 0.003719654019175973
Epoch: 29600, Error: 0.0036577868135889043
Epoch: 29700, Error: 0.003658963358900676
Epoch: 29800, Error: 0.0036270658800378512
Epoch: 29900, Error: 0.0035910310538914943
Epoch: 30000, Error: 0.0035953223284789977
Epoch: 30100, Error: 0.0035588827893466065
Epoch: 30200, Error: 0.0035316289493091827
Epoch: 30300, Error: 0.003553249150313508
Epoch: 30400, Error: 0.003508703021896657
Epoch: 30500, Error: 0.003465907082125628
Epoch: 30600, Error: 0.0034825552999056693
Epoch: 30700, Error: 0.0034276207747471364
Epoch: 30800, Error: 0.003529615414620466
Epoch: 30900, Error: 0.0034443328615856735
Epoch: 31000, Error: 0.003371758208952553
Epoch: 31100, Error: 0.003337050885807616
Epoch: 31200, Error: 0.00339323058700539
Epoch: 31300, Error: 0.003311476356033966
Epoch: 31400, Error: 0.0032706814864195306
Epoch: 31500, Error: 0.0032443475994671377
Epoch: 31600, Error: 0.0032766019308663246
Epoch: 31700, Error: 0.0032261616937742646
Epoch: 31800, Error: 0.0032390262978260545
Epoch: 31900, Error: 0.003195701269115615
Epoch: 32000, Error: 0.0032019334703450764
Epoch: 32100, Error: 0.0031875982239169018
Epoch: 32200, Error: 0.0032142777151185475
Epoch: 32300, Error: 0.0032632634826673525
Epoch: 32400, Error: 0.003195017339717355
Epoch: 32500, Error: 0.0032144556617465718
Epoch: 32600, Error: 0.0031766968910467036
Epoch: 32700, Error: 0.0032516974422817815
Epoch: 32800, Error: 0.0031434701283838532
Epoch: 32900, Error: 0.0031195663770956887
Epoch: 33000, Error: 0.003107885343503002
Epoch: 33100, Error: 0.0030726830854736985
Epoch: 33200, Error: 0.003057272200345316
Epoch: 33300, Error: 0.0031246113022421677
Epoch: 33400, Error: 0.003005473901987555
Epoch: 33500, Error: 0.0029931274588479084
Epoch: 33600, Error: 0.0030168729885266645
Epoch: 33700, Error: 0.0029456203882315224
Epoch: 33800, Error: 0.0029437128940122915
Epoch: 33900, Error: 0.0029039781329605182
Epoch: 34000, Error: 0.002899701580612867
Epoch: 34100, Error: 0.0028814630797192476
Epoch: 34200, Error: 0.0029487317159002523
Epoch: 34300, Error: 0.00283564357791538
Epoch: 34400, Error: 0.0028475069520378393
Epoch: 34500, Error: 0.0028002679343279743
Epoch: 34600, Error: 0.0027791146162890177
Epoch: 34700, Error: 0.0027874482769524
Epoch: 34800, Error: 0.002794126698074755
Epoch: 34900, Error: 0.002794509149093008
Epoch: 35000, Error: 0.002722344064011661
Epoch: 35100, Error: 0.0028193338241521305
Epoch: 35200, Error: 0.0026821197989905852
Epoch: 35300, Error: 0.002662363854599329
Epoch: 35400, Error: 0.0026534416149684085
Epoch: 35500, Error: 0.0027350877689084735
Epoch: 35600, Error: 0.002620319800432189
Epoch: 35700, Error: 0.002587153311825889
Epoch: 35800, Error: 0.002630532196193369
Epoch: 35900, Error: 0.0025642367056969034
Epoch: 36000, Error: 0.0026117353743479225
Epoch: 36100, Error: 0.0025289123381575687
Epoch: 36200, Error: 0.0025326144072480364
Epoch: 36300, Error: 0.0025389836801154183
Epoch: 36400, Error: 0.002530143538673086
Epoch: 36500, Error: 0.002473929502719372
Epoch: 36600, Error: 0.002450216589227708
Epoch: 36700, Error: 0.002478299444987749
Epoch: 36800, Error: 0.0024259629719650313
Epoch: 36900, Error: 0.002434584198247859
Epoch: 37000, Error: 0.0024424167637682776
Epoch: 37100, Error: 0.002440485274741742
Epoch: 37200, Error: 0.002372045948710409
Epoch: 37300, Error: 0.0023624805820625307
Epoch: 37400, Error: 0.002378827382359762
Epoch: 37500, Error: 0.0023576252589795907
Epoch: 37600, Error: 0.002327945626840157
Epoch: 37700, Error: 0.002338186290257082
Epoch: 37800, Error: 0.002351589684121565
Epoch: 37900, Error: 0.0023279041065255674
Epoch: 38000, Error: 0.002358456741133779
Epoch: 38100, Error: 0.0022920091540343307
Epoch: 38200, Error: 0.0022659035895371115
Epoch: 38300, Error: 0.0022849994230737082
Epoch: 38400, Error: 0.0022881719650993146
Epoch: 38500, Error: 0.002221642699966412
Epoch: 38600, Error: 0.002237264109819902
Epoch: 38700, Error: 0.002201199629562387
Epoch: 38800, Error: 0.002192081044113126
Epoch: 38900, Error: 0.0022475042516252705
Epoch: 39000, Error: 0.002173298845703762
Epoch: 39100, Error: 0.002191722482362858
Epoch: 39200, Error: 0.002153125871849382
Epoch: 39300, Error: 0.002159721928067383
Epoch: 39400, Error: 0.002144261488020671
Epoch: 39500, Error: 0.0021300723513758063
Epoch: 39600, Error: 0.002129247559306013
Epoch: 39700, Error: 0.002114817473449503
Epoch: 39800, Error: 0.002108316667078281
Epoch: 39900, Error: 0.002108750667177505
Epoch: 40000, Error: 0.0020955220696355793
Epoch: 40100, Error: 0.002142751671730403
Epoch: 40200, Error: 0.0021437115837005744
Epoch: 40300, Error: 0.002066332254291804
Epoch: 40400, Error: 0.002054219417585441
Finished
