Input Patterns
0.224 0.624 0.067 0.043 
0.11 0.502 0.051 0.043 
0.196 0.667 0.067 0.043 
0.055 0.584 0.067 0.082 
0.027 0.376 0.067 0.043 
0.306 0.71 0.086 0.043 
0.137 0.416 0.067 0.0 
0.416 0.831 0.035 0.043 
0.306 0.792 0.051 0.125 
0.388 0.749 0.118 0.082 
0.306 0.584 0.118 0.043 
0.082 0.667 0.0 0.043 
0.137 0.584 0.153 0.043 
0.196 0.584 0.102 0.125 
0.251 0.584 0.067 0.043 
0.137 0.459 0.102 0.043 
0.251 0.875 0.086 0.0 
0.165 0.459 0.086 0.043 
0.333 0.624 0.051 0.043 
0.027 0.416 0.051 0.043 
0.196 0.624 0.051 0.082 
0.027 0.502 0.051 0.043 
0.224 0.749 0.153 0.125 
0.224 0.749 0.102 0.043 
0.278 0.71 0.086 0.043 
0.165 0.416 0.067 0.043 
0.082 0.459 0.086 0.043 
0.306 0.792 0.118 0.125 
0.196 0.584 0.086 0.043 
0.165 0.459 0.086 0.0 
0.137 0.584 0.102 0.043 
0.0 0.416 0.016 0.0 
0.388 1.0 0.086 0.125 
0.224 0.624 0.067 0.082 
0.224 0.749 0.086 0.082 
0.224 0.71 0.086 0.125 
0.224 0.541 0.118 0.165 
0.196 0.416 0.102 0.043 
0.251 0.624 0.086 0.043 
0.11 0.502 0.102 0.043 
0.306 0.584 0.086 0.125 
0.333 0.918 0.067 0.043 
0.196 0.502 0.035 0.043 
0.165 0.667 0.067 0.0 
0.224 0.584 0.086 0.043 
0.055 0.125 0.051 0.082 
0.196 0.624 0.102 0.208 
0.137 0.416 0.067 0.082 
0.082 0.502 0.067 0.043 
0.196 0.541 0.067 0.043 
0.749 0.502 0.627 0.541 
0.722 0.459 0.663 0.584 
0.612 0.333 0.612 0.584 
0.557 0.541 0.627 0.624 
0.639 0.376 0.612 0.498 
0.196 0.0 0.424 0.376 
0.471 0.082 0.51 0.376 
0.361 0.376 0.439 0.498 
0.361 0.416 0.592 0.584 
0.529 0.082 0.592 0.584 
0.443 0.502 0.643 0.459 
0.557 0.208 0.663 0.584 
0.584 0.376 0.561 0.498 
0.694 0.333 0.643 0.541 
0.471 0.376 0.592 0.584 
0.333 0.169 0.475 0.416 
0.416 0.29 0.49 0.459 
0.306 0.416 0.592 0.584 
0.667 0.459 0.627 0.584 
0.361 0.416 0.525 0.498 
0.333 0.251 0.576 0.459 
0.416 0.251 0.51 0.459 
0.361 0.29 0.541 0.498 
0.388 0.376 0.541 0.498 
0.224 0.208 0.337 0.416 
0.584 0.502 0.592 0.584 
0.333 0.125 0.51 0.498 
0.388 0.333 0.592 0.498 
0.165 0.169 0.388 0.376 
0.251 0.29 0.49 0.541 
0.443 0.416 0.541 0.584 
0.498 0.376 0.627 0.541 
0.667 0.459 0.576 0.541 
0.416 0.29 0.525 0.376 
0.361 0.208 0.49 0.416 
0.498 0.333 0.51 0.498 
0.498 0.333 0.627 0.459 
0.639 0.416 0.576 0.541 
0.667 0.416 0.678 0.667 
0.388 0.251 0.424 0.376 
0.333 0.169 0.459 0.376 
0.471 0.29 0.694 0.624 
0.471 0.584 0.592 0.624 
0.557 0.125 0.576 0.498 
0.333 0.208 0.51 0.498 
0.498 0.416 0.612 0.541 
0.196 0.125 0.388 0.376 
0.388 0.416 0.541 0.459 
0.529 0.376 0.561 0.498 
0.388 0.333 0.525 0.498 
0.557 0.541 0.847 1.0 
0.776 0.416 0.831 0.831 
0.612 0.416 0.812 0.875 
0.165 0.208 0.592 0.667 
0.667 0.208 0.812 0.71 
0.612 0.502 0.694 0.792 
0.694 0.416 0.761 0.831 
0.416 0.333 0.694 0.957 
0.612 0.416 0.761 0.71 
0.945 0.251 1.0 0.918 
0.722 0.502 0.796 0.918 
0.945 0.333 0.965 0.792 
0.667 0.541 0.796 0.831 
0.529 0.333 0.643 0.71 
0.584 0.333 0.78 0.831 
0.863 0.333 0.863 0.749 
0.584 0.333 0.78 0.875 
0.498 0.251 0.78 0.541 
0.557 0.584 0.78 0.957 
0.471 0.416 0.643 0.71 
0.667 0.459 0.78 0.957 
0.416 0.29 0.694 0.749 
0.667 0.541 0.796 1.0 
0.557 0.208 0.678 0.749 
0.529 0.584 0.745 0.918 
0.416 0.29 0.694 0.749 
0.557 0.376 0.78 0.71 
0.918 0.416 0.949 0.831 
0.835 0.376 0.898 0.71 
0.804 0.667 0.863 1.0 
0.584 0.29 0.729 0.749 
0.388 0.208 0.678 0.792 
0.584 0.502 0.729 0.918 
0.945 0.749 0.965 0.875 
0.471 0.082 0.678 0.584 
0.361 0.333 0.663 0.792 
0.557 0.29 0.663 0.71 
0.804 0.502 0.847 0.71 
0.498 0.416 0.51 0.71 
0.804 0.416 0.812 0.624 
1.0 0.749 0.914 0.792 
0.557 0.333 0.694 0.584 
0.945 0.416 0.863 0.918 
0.584 0.459 0.761 0.71 
0.722 0.459 0.745 0.831 
0.722 0.459 0.694 0.918 
0.694 0.502 0.831 0.918 
0.667 0.416 0.714 0.918 
0.612 0.416 0.714 0.792 
0.443 0.416 0.694 0.71 
Teaching Patterns
1.0 0.0 0.0 
1.0 0.0 0.0 
1.0 0.0 0.0 
1.0 0.0 0.0 
1.0 0.0 0.0 
1.0 0.0 0.0 
1.0 0.0 0.0 
1.0 0.0 0.0 
1.0 0.0 0.0 
1.0 0.0 0.0 
1.0 0.0 0.0 
1.0 0.0 0.0 
1.0 0.0 0.0 
1.0 0.0 0.0 
1.0 0.0 0.0 
1.0 0.0 0.0 
1.0 0.0 0.0 
1.0 0.0 0.0 
1.0 0.0 0.0 
1.0 0.0 0.0 
1.0 0.0 0.0 
1.0 0.0 0.0 
1.0 0.0 0.0 
1.0 0.0 0.0 
1.0 0.0 0.0 
1.0 0.0 0.0 
1.0 0.0 0.0 
1.0 0.0 0.0 
1.0 0.0 0.0 
1.0 0.0 0.0 
1.0 0.0 0.0 
1.0 0.0 0.0 
1.0 0.0 0.0 
1.0 0.0 0.0 
1.0 0.0 0.0 
1.0 0.0 0.0 
1.0 0.0 0.0 
1.0 0.0 0.0 
1.0 0.0 0.0 
1.0 0.0 0.0 
1.0 0.0 0.0 
1.0 0.0 0.0 
1.0 0.0 0.0 
1.0 0.0 0.0 
1.0 0.0 0.0 
1.0 0.0 0.0 
1.0 0.0 0.0 
1.0 0.0 0.0 
1.0 0.0 0.0 
1.0 0.0 0.0 
0.0 1.0 0.0 
0.0 1.0 0.0 
0.0 1.0 0.0 
0.0 1.0 0.0 
0.0 1.0 0.0 
0.0 1.0 0.0 
0.0 1.0 0.0 
0.0 1.0 0.0 
0.0 1.0 0.0 
0.0 1.0 0.0 
0.0 1.0 0.0 
0.0 1.0 0.0 
0.0 1.0 0.0 
0.0 1.0 0.0 
0.0 1.0 0.0 
0.0 1.0 0.0 
0.0 1.0 0.0 
0.0 1.0 0.0 
0.0 1.0 0.0 
0.0 1.0 0.0 
0.0 1.0 0.0 
0.0 1.0 0.0 
0.0 1.0 0.0 
0.0 1.0 0.0 
0.0 1.0 0.0 
0.0 1.0 0.0 
0.0 1.0 0.0 
0.0 1.0 0.0 
0.0 1.0 0.0 
0.0 1.0 0.0 
0.0 1.0 0.0 
0.0 1.0 0.0 
0.0 1.0 0.0 
0.0 1.0 0.0 
0.0 1.0 0.0 
0.0 1.0 0.0 
0.0 1.0 0.0 
0.0 1.0 0.0 
0.0 1.0 0.0 
0.0 1.0 0.0 
0.0 1.0 0.0 
0.0 1.0 0.0 
0.0 1.0 0.0 
0.0 1.0 0.0 
0.0 1.0 0.0 
0.0 1.0 0.0 
0.0 1.0 0.0 
0.0 1.0 0.0 
0.0 1.0 0.0 
0.0 1.0 0.0 
0.0 0.0 1.0 
0.0 0.0 1.0 
0.0 0.0 1.0 
0.0 0.0 1.0 
0.0 0.0 1.0 
0.0 0.0 1.0 
0.0 0.0 1.0 
0.0 0.0 1.0 
0.0 0.0 1.0 
0.0 0.0 1.0 
0.0 0.0 1.0 
0.0 0.0 1.0 
0.0 0.0 1.0 
0.0 0.0 1.0 
0.0 0.0 1.0 
0.0 0.0 1.0 
0.0 0.0 1.0 
0.0 0.0 1.0 
0.0 0.0 1.0 
0.0 0.0 1.0 
0.0 0.0 1.0 
0.0 0.0 1.0 
0.0 0.0 1.0 
0.0 0.0 1.0 
0.0 0.0 1.0 
0.0 0.0 1.0 
0.0 0.0 1.0 
0.0 0.0 1.0 
0.0 0.0 1.0 
0.0 0.0 1.0 
0.0 0.0 1.0 
0.0 0.0 1.0 
0.0 0.0 1.0 
0.0 0.0 1.0 
0.0 0.0 1.0 
0.0 0.0 1.0 
0.0 0.0 1.0 
0.0 0.0 1.0 
0.0 0.0 1.0 
0.0 0.0 1.0 
0.0 0.0 1.0 
0.0 0.0 1.0 
0.0 0.0 1.0 
0.0 0.0 1.0 
0.0 0.0 1.0 
0.0 0.0 1.0 
0.0 0.0 1.0 
0.0 0.0 1.0 
0.0 0.0 1.0 
0.0 0.0 1.0 
Learning : 0.05
Momentum : 0.20000000298023224
Epoch: 100, Error: 0.08953175013053255
Epoch: 200, Error: 0.0365489335592826
Epoch: 300, Error: 0.020748565259948053
Epoch: 400, Error: 0.016862319689600936
Epoch: 500, Error: 0.015087614500637803
Epoch: 600, Error: 0.014179123346341211
Epoch: 700, Error: 0.013645980292556504
Epoch: 800, Error: 0.01322934118071372
Epoch: 900, Error: 0.0129566707205103
Epoch: 1000, Error: 0.012755057856540323
Epoch: 1100, Error: 0.012600552944957625
Epoch: 1200, Error: 0.01249852302959509
Epoch: 1300, Error: 0.012427790778340027
Epoch: 1400, Error: 0.012331197977397994
Epoch: 1500, Error: 0.012290249262093121
Epoch: 1600, Error: 0.012430017381630357
Epoch: 1700, Error: 0.012243046636649681
Epoch: 1800, Error: 0.012266131976329923
Epoch: 1900, Error: 0.012308868359616284
Epoch: 2000, Error: 0.012231214190883999
Epoch: 2100, Error: 0.012293427163886964
Epoch: 2200, Error: 0.012218625084208052
Epoch: 2300, Error: 0.012211258639629559
Epoch: 2400, Error: 0.012208661837847126
Epoch: 2500, Error: 0.01221181553673027
Epoch: 2600, Error: 0.012209089266330419
Epoch: 2700, Error: 0.01220917314629773
Epoch: 2800, Error: 0.01222251968948597
Epoch: 2900, Error: 0.01215138229242731
Epoch: 3000, Error: 0.012177999708016777
Epoch: 3100, Error: 0.012162744873661225
Epoch: 3200, Error: 0.012132952624158316
Epoch: 3300, Error: 0.012136179940493017
Epoch: 3400, Error: 0.012193219661871497
Epoch: 3500, Error: 0.012191063755815551
Epoch: 3600, Error: 0.012201627012213787
Epoch: 3700, Error: 0.01215884456499012
Epoch: 3800, Error: 0.0121257259590344
Epoch: 3900, Error: 0.01213260141241329
Epoch: 4000, Error: 0.01212334228005798
Epoch: 4100, Error: 0.012144530199150141
Epoch: 4200, Error: 0.01215846445359557
Epoch: 4300, Error: 0.012190636109248622
Epoch: 4400, Error: 0.012132251789462749
Epoch: 4500, Error: 0.012127197810855162
Epoch: 4600, Error: 0.01216971685416893
Epoch: 4700, Error: 0.012140003307312366
Epoch: 4800, Error: 0.012147706358232518
Epoch: 4900, Error: 0.012131198014984107
Epoch: 5000, Error: 0.01215192847728698
Epoch: 5100, Error: 0.012172288542886146
Epoch: 5200, Error: 0.012132833124305449
Epoch: 5300, Error: 0.012116563433575046
Epoch: 5400, Error: 0.012143610398884624
Epoch: 5500, Error: 0.012129660430011837
Epoch: 5600, Error: 0.012133292426226266
Epoch: 5700, Error: 0.01212961808868743
Epoch: 5800, Error: 0.012114793616619768
Epoch: 5900, Error: 0.01211416479202866
Epoch: 6000, Error: 0.012118063070443863
Epoch: 6100, Error: 0.012095653220376475
Epoch: 6200, Error: 0.01210868317405201
Epoch: 6300, Error: 0.012137110348446369
Epoch: 6400, Error: 0.012117495082893654
Epoch: 6500, Error: 0.012152078251307465
Epoch: 6600, Error: 0.012072784591137945
Epoch: 6700, Error: 0.012078066082276052
Epoch: 6800, Error: 0.012075946697395399
Epoch: 6900, Error: 0.012080378955837816
Epoch: 7000, Error: 0.012032793975260745
Epoch: 7100, Error: 0.0120078397339844
Epoch: 7200, Error: 0.012016946958030858
Epoch: 7300, Error: 0.011992000727282518
Epoch: 7400, Error: 0.01198221041504716
Epoch: 7500, Error: 0.011982899162426883
Epoch: 7600, Error: 0.011946562427154849
Epoch: 7700, Error: 0.011927477921453385
Epoch: 7800, Error: 0.011917075781201046
Epoch: 7900, Error: 0.011896463710572682
Epoch: 8000, Error: 0.011977060649643895
Epoch: 8100, Error: 0.011909474649188878
Epoch: 8200, Error: 0.011861744274580813
Epoch: 8300, Error: 0.011855732680511788
Epoch: 8400, Error: 0.011939722566922288
Epoch: 8500, Error: 0.011821737871530534
Epoch: 8600, Error: 0.011814660247049705
Epoch: 8700, Error: 0.011789227600568686
Epoch: 8800, Error: 0.011803286206351416
Epoch: 8900, Error: 0.011819958980684026
Epoch: 9000, Error: 0.011746852079849494
Epoch: 9100, Error: 0.011728863519509719
Epoch: 9200, Error: 0.011728635954934471
Epoch: 9300, Error: 0.011731002977689366
Epoch: 9400, Error: 0.01167784248109129
Epoch: 9500, Error: 0.011661723164369257
Epoch: 9600, Error: 0.011652148099188287
Epoch: 9700, Error: 0.011669097221960524
Epoch: 9800, Error: 0.011626780507970749
Epoch: 9900, Error: 0.011620308653620282
Epoch: 10000, Error: 0.011577432717168677
Epoch: 10100, Error: 0.011564718546469272
Epoch: 10200, Error: 0.011557485204110452
Epoch: 10300, Error: 0.011523740972728588
Epoch: 10400, Error: 0.011498868551481621
Epoch: 10500, Error: 0.011477248674563003
Epoch: 10600, Error: 0.011463850996032553
Epoch: 10700, Error: 0.011507085193855134
Epoch: 10800, Error: 0.011437882839752445
Epoch: 10900, Error: 0.01139242862951982
Epoch: 11000, Error: 0.011357119821450021
Epoch: 11100, Error: 0.01134490739630439
Epoch: 11200, Error: 0.011302444956308286
Epoch: 11300, Error: 0.011269261375910894
Epoch: 11400, Error: 0.01124074523429729
Epoch: 11500, Error: 0.01118601173288271
Epoch: 11600, Error: 0.011141890223154545
Epoch: 11700, Error: 0.011174723857444153
Epoch: 11800, Error: 0.01105364061255116
Epoch: 11900, Error: 0.011034952230254526
Epoch: 12000, Error: 0.010952637065626054
Epoch: 12100, Error: 0.010904102389251123
Epoch: 12200, Error: 0.010845898637874638
Epoch: 12300, Error: 0.010784795842682974
Epoch: 12400, Error: 0.010771566297003923
Epoch: 12500, Error: 0.010664762572435173
Epoch: 12600, Error: 0.010568290587327906
Epoch: 12700, Error: 0.0105325190972595
Epoch: 12800, Error: 0.010431143086428988
Epoch: 12900, Error: 0.01035795825522664
Epoch: 13000, Error: 0.010211218951239831
Epoch: 13100, Error: 0.010111963694345145
Epoch: 13200, Error: 0.010006525606687525
Epoch: 13300, Error: 0.009918866841827021
Epoch: 13400, Error: 0.009775814569224259
Epoch: 13500, Error: 0.009699539633239997
Epoch: 13600, Error: 0.009573794642505296
Epoch: 13700, Error: 0.009447949784864908
Epoch: 13800, Error: 0.009324254392412582
Epoch: 13900, Error: 0.009217543766962355
Epoch: 14000, Error: 0.0090992839595903
Epoch: 14100, Error: 0.008990510806810787
Epoch: 14200, Error: 0.008857789293579204
Epoch: 14300, Error: 0.008745032787509224
Epoch: 14400, Error: 0.00863211878594195
Epoch: 14500, Error: 0.008508867068510078
Epoch: 14600, Error: 0.008389060901714615
Epoch: 14700, Error: 0.008285114749425575
Epoch: 14800, Error: 0.008190735862847928
Epoch: 14900, Error: 0.008058141201594173
Epoch: 15000, Error: 0.00795189251347103
Epoch: 15100, Error: 0.007847356930675802
Epoch: 15200, Error: 0.007749311763109391
Epoch: 15300, Error: 0.007663274908884185
Epoch: 15400, Error: 0.007557340133325978
Epoch: 15500, Error: 0.007474595107386871
Epoch: 15600, Error: 0.0074060844117775125
Epoch: 15700, Error: 0.007337594060100309
Epoch: 15800, Error: 0.007252802428525339
Epoch: 15900, Error: 0.007190135691248195
Epoch: 16000, Error: 0.0071261100408244816
Epoch: 16100, Error: 0.007057963165051505
Epoch: 16200, Error: 0.006995389867726067
Epoch: 16300, Error: 0.006925708909445772
Epoch: 16400, Error: 0.0068915169590169
Epoch: 16500, Error: 0.006803791289727899
Epoch: 16600, Error: 0.006751855008865444
Epoch: 16700, Error: 0.006691919107522829
Epoch: 16800, Error: 0.006635694121146084
Epoch: 16900, Error: 0.006584307432305522
Epoch: 17000, Error: 0.006580861408753431
Epoch: 17100, Error: 0.006491251567212255
Epoch: 17200, Error: 0.006454957252108508
Epoch: 17300, Error: 0.0064061044783053946
Epoch: 17400, Error: 0.006377628326029501
Epoch: 17500, Error: 0.006346715007608952
Epoch: 17600, Error: 0.006316633566888571
Epoch: 17700, Error: 0.006292659428265477
Epoch: 17800, Error: 0.006251764532731408
Epoch: 17900, Error: 0.006231656485859109
Epoch: 18000, Error: 0.006217452784916621
Epoch: 18100, Error: 0.006214141028526762
Epoch: 18200, Error: 0.00619759523708523
Epoch: 18300, Error: 0.006153472282772272
Epoch: 18400, Error: 0.00614952702056495
Epoch: 18500, Error: 0.006148008603335163
Epoch: 18600, Error: 0.00612418532570275
Epoch: 18700, Error: 0.006094107308196051
Epoch: 18800, Error: 0.006070683394743681
Epoch: 18900, Error: 0.00606443446839694
Epoch: 19000, Error: 0.006073058105041448
Epoch: 19100, Error: 0.006045315518428397
Epoch: 19200, Error: 0.006029007417197685
Epoch: 19300, Error: 0.006001601800924234
Epoch: 19400, Error: 0.006001558890633639
Epoch: 19500, Error: 0.005980532094077431
Epoch: 19600, Error: 0.005962115131120867
Epoch: 19700, Error: 0.005933181552285495
Epoch: 19800, Error: 0.0058988391104271625
Epoch: 19900, Error: 0.005883238030909673
Epoch: 20000, Error: 0.005864930909761559
Epoch: 20100, Error: 0.005858058750903393
Epoch: 20200, Error: 0.005845028576582283
Epoch: 20300, Error: 0.005825894428432679
Epoch: 20400, Error: 0.005813894635848894
Epoch: 20500, Error: 0.00576543548696408
Epoch: 20600, Error: 0.0057779489111117145
Epoch: 20700, Error: 0.0057676177710972686
Epoch: 20800, Error: 0.005717540700361477
Epoch: 20900, Error: 0.005702940007197304
Epoch: 21000, Error: 0.005689895556285799
Epoch: 21100, Error: 0.005679484665127278
Epoch: 21200, Error: 0.005657159281447172
Epoch: 21300, Error: 0.005643811846508383
Epoch: 21400, Error: 0.005639033951461132
Epoch: 21500, Error: 0.005622837214182302
Epoch: 21600, Error: 0.0055902023540821
Epoch: 21700, Error: 0.005569889775704487
Epoch: 21800, Error: 0.00554320431697641
Epoch: 21900, Error: 0.005542151459616264
Epoch: 22000, Error: 0.005523121625701469
Epoch: 22100, Error: 0.005474085490834171
Epoch: 22200, Error: 0.005474813054226419
Epoch: 22300, Error: 0.005438717925303052
Epoch: 22400, Error: 0.005394529326029998
Epoch: 22500, Error: 0.005331940826291305
Epoch: 22600, Error: 0.0052909324071611025
Epoch: 22700, Error: 0.0052713141578515695
Epoch: 22800, Error: 0.005234216190075402
Epoch: 22900, Error: 0.0052062508917845775
Epoch: 23000, Error: 0.005172750512654259
Epoch: 23100, Error: 0.005155903108815279
Epoch: 23200, Error: 0.005125581699318837
Epoch: 23300, Error: 0.005121492595924658
Epoch: 23400, Error: 0.005074144217364739
Epoch: 23500, Error: 0.0050753825132906095
Epoch: 23600, Error: 0.005030044865803559
Epoch: 23700, Error: 0.005008616057645588
Epoch: 23800, Error: 0.004992129814191143
Epoch: 23900, Error: 0.004966763337831381
Epoch: 24000, Error: 0.004972032326338302
Epoch: 24100, Error: 0.004928454662337039
Epoch: 24200, Error: 0.004916105266607665
Epoch: 24300, Error: 0.004916688722697712
Epoch: 24400, Error: 0.004905135090229319
Epoch: 24500, Error: 0.0048631575623356346
Epoch: 24600, Error: 0.004857817473032884
Epoch: 24700, Error: 0.004821296765698892
Epoch: 24800, Error: 0.004805222238662699
Epoch: 24900, Error: 0.004806883756482161
Epoch: 25000, Error: 0.0047758286779778815
Epoch: 25100, Error: 0.004760870341236219
Epoch: 25200, Error: 0.0047570357904905165
Epoch: 25300, Error: 0.004730276025982888
Epoch: 25400, Error: 0.004715834140663133
Epoch: 25500, Error: 0.004715288353095203
Epoch: 25600, Error: 0.004685202011109007
Epoch: 25700, Error: 0.004676703903239889
Epoch: 25800, Error: 0.004658801372846924
Epoch: 25900, Error: 0.004647970564860479
Epoch: 26000, Error: 0.004647451758748307
Epoch: 26100, Error: 0.004641113960974101
Epoch: 26200, Error: 0.00461994994356751
Epoch: 26300, Error: 0.004600648269478453
Epoch: 26400, Error: 0.004606717892974925
Epoch: 26500, Error: 0.004589704018197745
Epoch: 26600, Error: 0.004561580215303904
Epoch: 26700, Error: 0.004556196184964108
Epoch: 26800, Error: 0.004539025472450587
Epoch: 26900, Error: 0.004549964020238856
Epoch: 27000, Error: 0.0045038832844977806
Epoch: 27100, Error: 0.004491261825142037
Epoch: 27200, Error: 0.004461887764697104
Epoch: 27300, Error: 0.004479521915561122
Epoch: 27400, Error: 0.004418056204609774
Epoch: 27500, Error: 0.004401912940920389
Epoch: 27600, Error: 0.004367314475574617
Epoch: 27700, Error: 0.00435117395226899
Epoch: 27800, Error: 0.004377317189312929
Epoch: 27900, Error: 0.004314606157729695
Epoch: 28000, Error: 0.004270768350210339
Epoch: 28100, Error: 0.004268301040397958
Epoch: 28200, Error: 0.004250574481912767
Epoch: 28300, Error: 0.004206196750423772
Epoch: 28400, Error: 0.004216546583757063
Epoch: 28500, Error: 0.004152947455042628
Epoch: 28600, Error: 0.004138653773545559
Epoch: 28700, Error: 0.0041010876900931985
Epoch: 28800, Error: 0.004080024988624946
Epoch: 28900, Error: 0.00405518144899179
Epoch: 29000, Error: 0.004033856945974586
Epoch: 29100, Error: 0.004007332160099877
Epoch: 29200, Error: 0.003986588029771876
Epoch: 29300, Error: 0.003971692246266445
Epoch: 29400, Error: 0.00393750476109358
Epoch: 29500, Error: 0.003907799433896655
Epoch: 29600, Error: 0.003909172189911245
Epoch: 29700, Error: 0.0038541535470773287
Epoch: 29800, Error: 0.003835312600120525
Epoch: 29900, Error: 0.003850219473777657
Epoch: 30000, Error: 0.0037919506259439977
Epoch: 30100, Error: 0.0037808133935103897
Epoch: 30200, Error: 0.0037613835308445273
Epoch: 30300, Error: 0.0037154631888913488
Epoch: 30400, Error: 0.003759598878225944
Epoch: 30500, Error: 0.0036589177854618993
Epoch: 30600, Error: 0.003640137496977892
Epoch: 30700, Error: 0.0036223714562703736
Epoch: 30800, Error: 0.0036002158332726036
Epoch: 30900, Error: 0.0035631879516180645
Epoch: 31000, Error: 0.003538873550482739
Epoch: 31100, Error: 0.003545158069861878
Epoch: 31200, Error: 0.003522741174644856
Epoch: 31300, Error: 0.0034785365151610006
Epoch: 31400, Error: 0.0034620108210298727
Epoch: 31500, Error: 0.0034211262587328863
Epoch: 31600, Error: 0.0033944611341347845
Epoch: 31700, Error: 0.0033799957036706315
Epoch: 31800, Error: 0.0033715606740093024
Epoch: 31900, Error: 0.0033574596553567777
Epoch: 32000, Error: 0.003321271978305515
Epoch: 32100, Error: 0.0032773540683707363
Epoch: 32200, Error: 0.0032811674122971966
Epoch: 32300, Error: 0.0032270236748349404
Epoch: 32400, Error: 0.0032375173891002152
Epoch: 32500, Error: 0.003195653436517297
Epoch: 32600, Error: 0.003167697973994688
Epoch: 32700, Error: 0.0031840822907265778
Epoch: 32800, Error: 0.0031270379939827516
Epoch: 32900, Error: 0.0031046146861896415
Epoch: 33000, Error: 0.003081756701705139
Epoch: 33100, Error: 0.0030821943763249884
Epoch: 33200, Error: 0.0030375781814643565
Epoch: 33300, Error: 0.0030476693769548023
Epoch: 33400, Error: 0.003003858317896524
Epoch: 33500, Error: 0.0030137283133564664
Epoch: 33600, Error: 0.002950105045912463
Epoch: 33700, Error: 0.0029172376016845373
Epoch: 33800, Error: 0.0029779465448420833
Epoch: 33900, Error: 0.002890607525492598
Epoch: 34000, Error: 0.002860087412992399
Epoch: 34100, Error: 0.0028695445627969886
Epoch: 34200, Error: 0.002822227221369796
Epoch: 34300, Error: 0.002791844415023437
Epoch: 34400, Error: 0.002771692600650661
Epoch: 34500, Error: 0.0028388209558416334
Epoch: 34600, Error: 0.002740992721485589
Epoch: 34700, Error: 0.002755190302931137
Epoch: 34800, Error: 0.0026984543652727893
Epoch: 34900, Error: 0.002732187525562471
Epoch: 35000, Error: 0.0026727411910752
Epoch: 35100, Error: 0.0026461890626321132
Epoch: 35200, Error: 0.0026634727312381183
Epoch: 35300, Error: 0.002683339781073855
Epoch: 35400, Error: 0.002663573214894459
Epoch: 35500, Error: 0.0026383002684207558
Epoch: 35600, Error: 0.0025882254021349295
Epoch: 35700, Error: 0.002611860122504941
Epoch: 35800, Error: 0.002538100959435382
Epoch: 35900, Error: 0.002518065329970616
Epoch: 36000, Error: 0.0024829188053675437
Epoch: 36100, Error: 0.002486653754692402
Epoch: 36200, Error: 0.0024820235097254917
Epoch: 36300, Error: 0.0024760596115555207
Epoch: 36400, Error: 0.00242212012884821
Epoch: 36500, Error: 0.0024032631334578026
Epoch: 36600, Error: 0.002382248823216289
Epoch: 36700, Error: 0.002408120596453364
Epoch: 36800, Error: 0.0023530285241880923
Epoch: 36900, Error: 0.0023473782792388345
Epoch: 37000, Error: 0.002343059154307543
Epoch: 37100, Error: 0.0023063903131578063
Epoch: 37200, Error: 0.0023584895907346466
Epoch: 37300, Error: 0.00233383011945031
Epoch: 37400, Error: 0.0022631970875340184
Epoch: 37500, Error: 0.0022703841950187857
Epoch: 37600, Error: 0.0022959391145112853
Epoch: 37700, Error: 0.0022637575327713955
Epoch: 37800, Error: 0.0022376063791815677
Epoch: 37900, Error: 0.0022266139668413003
Epoch: 38000, Error: 0.0022287121660760152
Epoch: 38100, Error: 0.0021761024182136925
Epoch: 38200, Error: 0.0021550815524481993
Epoch: 38300, Error: 0.002139569461254268
Epoch: 38400, Error: 0.0021285179572602068
Epoch: 38500, Error: 0.0021241506275690427
Epoch: 38600, Error: 0.002107686758442819
Epoch: 38700, Error: 0.0020913392279867152
Epoch: 38800, Error: 0.002137867499870696
Epoch: 38900, Error: 0.002140166332237772
Epoch: 39000, Error: 0.00206082872588276
Epoch: 39100, Error: 0.0020835613220970203
Epoch: 39200, Error: 0.0020614928755992965
Epoch: 39300, Error: 0.0020327853795720067
Epoch: 39400, Error: 0.002033758529555587
Epoch: 39500, Error: 0.0020491500714888864
Epoch: 39600, Error: 0.0020030468140401756
Epoch: 39700, Error: 0.0020331263192365735
Epoch: 39800, Error: 0.0019865256033404855
Epoch: 39900, Error: 0.0020418121051174925
Epoch: 40000, Error: 0.0019908396695805107
Epoch: 40100, Error: 0.001980381749071524
Epoch: 40200, Error: 0.001984458494608712
Epoch: 40300, Error: 0.0019552476996566918
Epoch: 40400, Error: 0.0019718885304606405
Epoch: 40500, Error: 0.0019836753755141175
Epoch: 40600, Error: 0.001944235301434648
Finished
