Input Patterns
0.224 0.624 0.067 0.043 
0.11 0.502 0.051 0.043 
0.196 0.667 0.067 0.043 
0.055 0.584 0.067 0.082 
0.027 0.376 0.067 0.043 
0.306 0.71 0.086 0.043 
0.137 0.416 0.067 0.0 
0.416 0.831 0.035 0.043 
0.306 0.792 0.051 0.125 
0.388 0.749 0.118 0.082 
0.306 0.584 0.118 0.043 
0.082 0.667 0.0 0.043 
0.137 0.584 0.153 0.043 
0.196 0.584 0.102 0.125 
0.251 0.584 0.067 0.043 
0.137 0.459 0.102 0.043 
0.251 0.875 0.086 0.0 
0.165 0.459 0.086 0.043 
0.333 0.624 0.051 0.043 
0.027 0.416 0.051 0.043 
0.196 0.624 0.051 0.082 
0.027 0.502 0.051 0.043 
0.224 0.749 0.153 0.125 
0.224 0.749 0.102 0.043 
0.278 0.71 0.086 0.043 
0.165 0.416 0.067 0.043 
0.082 0.459 0.086 0.043 
0.306 0.792 0.118 0.125 
0.196 0.584 0.086 0.043 
0.165 0.459 0.086 0.0 
0.137 0.584 0.102 0.043 
0.0 0.416 0.016 0.0 
0.388 1.0 0.086 0.125 
0.224 0.624 0.067 0.082 
0.224 0.749 0.086 0.082 
0.224 0.71 0.086 0.125 
0.224 0.541 0.118 0.165 
0.196 0.416 0.102 0.043 
0.251 0.624 0.086 0.043 
0.11 0.502 0.102 0.043 
0.306 0.584 0.086 0.125 
0.333 0.918 0.067 0.043 
0.196 0.502 0.035 0.043 
0.165 0.667 0.067 0.0 
0.224 0.584 0.086 0.043 
0.055 0.125 0.051 0.082 
0.196 0.624 0.102 0.208 
0.137 0.416 0.067 0.082 
0.082 0.502 0.067 0.043 
0.196 0.541 0.067 0.043 
0.749 0.502 0.627 0.541 
0.722 0.459 0.663 0.584 
0.612 0.333 0.612 0.584 
0.557 0.541 0.627 0.624 
0.639 0.376 0.612 0.498 
0.196 0.0 0.424 0.376 
0.471 0.082 0.51 0.376 
0.361 0.376 0.439 0.498 
0.361 0.416 0.592 0.584 
0.529 0.082 0.592 0.584 
0.443 0.502 0.643 0.459 
0.557 0.208 0.663 0.584 
0.584 0.376 0.561 0.498 
0.694 0.333 0.643 0.541 
0.471 0.376 0.592 0.584 
0.333 0.169 0.475 0.416 
0.416 0.29 0.49 0.459 
0.306 0.416 0.592 0.584 
0.667 0.459 0.627 0.584 
0.361 0.416 0.525 0.498 
0.333 0.251 0.576 0.459 
0.416 0.251 0.51 0.459 
0.361 0.29 0.541 0.498 
0.388 0.376 0.541 0.498 
0.224 0.208 0.337 0.416 
0.584 0.502 0.592 0.584 
0.333 0.125 0.51 0.498 
0.388 0.333 0.592 0.498 
0.165 0.169 0.388 0.376 
0.251 0.29 0.49 0.541 
0.443 0.416 0.541 0.584 
0.498 0.376 0.627 0.541 
0.667 0.459 0.576 0.541 
0.416 0.29 0.525 0.376 
0.361 0.208 0.49 0.416 
0.498 0.333 0.51 0.498 
0.498 0.333 0.627 0.459 
0.639 0.416 0.576 0.541 
0.667 0.416 0.678 0.667 
0.388 0.251 0.424 0.376 
0.333 0.169 0.459 0.376 
0.471 0.29 0.694 0.624 
0.471 0.584 0.592 0.624 
0.557 0.125 0.576 0.498 
0.333 0.208 0.51 0.498 
0.498 0.416 0.612 0.541 
0.196 0.125 0.388 0.376 
0.388 0.416 0.541 0.459 
0.529 0.376 0.561 0.498 
0.388 0.333 0.525 0.498 
0.557 0.541 0.847 1.0 
0.776 0.416 0.831 0.831 
0.612 0.416 0.812 0.875 
0.165 0.208 0.592 0.667 
0.667 0.208 0.812 0.71 
0.612 0.502 0.694 0.792 
0.694 0.416 0.761 0.831 
0.416 0.333 0.694 0.957 
0.612 0.416 0.761 0.71 
0.945 0.251 1.0 0.918 
0.722 0.502 0.796 0.918 
0.945 0.333 0.965 0.792 
0.667 0.541 0.796 0.831 
0.529 0.333 0.643 0.71 
0.584 0.333 0.78 0.831 
0.863 0.333 0.863 0.749 
0.584 0.333 0.78 0.875 
0.498 0.251 0.78 0.541 
0.557 0.584 0.78 0.957 
0.471 0.416 0.643 0.71 
0.667 0.459 0.78 0.957 
0.416 0.29 0.694 0.749 
0.667 0.541 0.796 1.0 
0.557 0.208 0.678 0.749 
0.529 0.584 0.745 0.918 
0.416 0.29 0.694 0.749 
0.557 0.376 0.78 0.71 
0.918 0.416 0.949 0.831 
0.835 0.376 0.898 0.71 
0.804 0.667 0.863 1.0 
0.584 0.29 0.729 0.749 
0.388 0.208 0.678 0.792 
0.584 0.502 0.729 0.918 
0.945 0.749 0.965 0.875 
0.471 0.082 0.678 0.584 
0.361 0.333 0.663 0.792 
0.557 0.29 0.663 0.71 
0.804 0.502 0.847 0.71 
0.498 0.416 0.51 0.71 
0.804 0.416 0.812 0.624 
1.0 0.749 0.914 0.792 
0.557 0.333 0.694 0.584 
0.945 0.416 0.863 0.918 
0.584 0.459 0.761 0.71 
0.722 0.459 0.745 0.831 
0.722 0.459 0.694 0.918 
0.694 0.502 0.831 0.918 
0.667 0.416 0.714 0.918 
0.612 0.416 0.714 0.792 
0.443 0.416 0.694 0.71 
Teaching Patterns
1.0 0.0 0.0 
1.0 0.0 0.0 
1.0 0.0 0.0 
1.0 0.0 0.0 
1.0 0.0 0.0 
1.0 0.0 0.0 
1.0 0.0 0.0 
1.0 0.0 0.0 
1.0 0.0 0.0 
1.0 0.0 0.0 
1.0 0.0 0.0 
1.0 0.0 0.0 
1.0 0.0 0.0 
1.0 0.0 0.0 
1.0 0.0 0.0 
1.0 0.0 0.0 
1.0 0.0 0.0 
1.0 0.0 0.0 
1.0 0.0 0.0 
1.0 0.0 0.0 
1.0 0.0 0.0 
1.0 0.0 0.0 
1.0 0.0 0.0 
1.0 0.0 0.0 
1.0 0.0 0.0 
1.0 0.0 0.0 
1.0 0.0 0.0 
1.0 0.0 0.0 
1.0 0.0 0.0 
1.0 0.0 0.0 
1.0 0.0 0.0 
1.0 0.0 0.0 
1.0 0.0 0.0 
1.0 0.0 0.0 
1.0 0.0 0.0 
1.0 0.0 0.0 
1.0 0.0 0.0 
1.0 0.0 0.0 
1.0 0.0 0.0 
1.0 0.0 0.0 
1.0 0.0 0.0 
1.0 0.0 0.0 
1.0 0.0 0.0 
1.0 0.0 0.0 
1.0 0.0 0.0 
1.0 0.0 0.0 
1.0 0.0 0.0 
1.0 0.0 0.0 
1.0 0.0 0.0 
1.0 0.0 0.0 
0.0 1.0 0.0 
0.0 1.0 0.0 
0.0 1.0 0.0 
0.0 1.0 0.0 
0.0 1.0 0.0 
0.0 1.0 0.0 
0.0 1.0 0.0 
0.0 1.0 0.0 
0.0 1.0 0.0 
0.0 1.0 0.0 
0.0 1.0 0.0 
0.0 1.0 0.0 
0.0 1.0 0.0 
0.0 1.0 0.0 
0.0 1.0 0.0 
0.0 1.0 0.0 
0.0 1.0 0.0 
0.0 1.0 0.0 
0.0 1.0 0.0 
0.0 1.0 0.0 
0.0 1.0 0.0 
0.0 1.0 0.0 
0.0 1.0 0.0 
0.0 1.0 0.0 
0.0 1.0 0.0 
0.0 1.0 0.0 
0.0 1.0 0.0 
0.0 1.0 0.0 
0.0 1.0 0.0 
0.0 1.0 0.0 
0.0 1.0 0.0 
0.0 1.0 0.0 
0.0 1.0 0.0 
0.0 1.0 0.0 
0.0 1.0 0.0 
0.0 1.0 0.0 
0.0 1.0 0.0 
0.0 1.0 0.0 
0.0 1.0 0.0 
0.0 1.0 0.0 
0.0 1.0 0.0 
0.0 1.0 0.0 
0.0 1.0 0.0 
0.0 1.0 0.0 
0.0 1.0 0.0 
0.0 1.0 0.0 
0.0 1.0 0.0 
0.0 1.0 0.0 
0.0 1.0 0.0 
0.0 1.0 0.0 
0.0 0.0 1.0 
0.0 0.0 1.0 
0.0 0.0 1.0 
0.0 0.0 1.0 
0.0 0.0 1.0 
0.0 0.0 1.0 
0.0 0.0 1.0 
0.0 0.0 1.0 
0.0 0.0 1.0 
0.0 0.0 1.0 
0.0 0.0 1.0 
0.0 0.0 1.0 
0.0 0.0 1.0 
0.0 0.0 1.0 
0.0 0.0 1.0 
0.0 0.0 1.0 
0.0 0.0 1.0 
0.0 0.0 1.0 
0.0 0.0 1.0 
0.0 0.0 1.0 
0.0 0.0 1.0 
0.0 0.0 1.0 
0.0 0.0 1.0 
0.0 0.0 1.0 
0.0 0.0 1.0 
0.0 0.0 1.0 
0.0 0.0 1.0 
0.0 0.0 1.0 
0.0 0.0 1.0 
0.0 0.0 1.0 
0.0 0.0 1.0 
0.0 0.0 1.0 
0.0 0.0 1.0 
0.0 0.0 1.0 
0.0 0.0 1.0 
0.0 0.0 1.0 
0.0 0.0 1.0 
0.0 0.0 1.0 
0.0 0.0 1.0 
0.0 0.0 1.0 
0.0 0.0 1.0 
0.0 0.0 1.0 
0.0 0.0 1.0 
0.0 0.0 1.0 
0.0 0.0 1.0 
0.0 0.0 1.0 
0.0 0.0 1.0 
0.0 0.0 1.0 
0.0 0.0 1.0 
0.0 0.0 1.0 
Learning : 0.44999998807907104
Momentum : 0.9
Epoch: 100, Error: 0.015572948102661792
Epoch: 200, Error: 0.01232214009185298
Epoch: 300, Error: 0.012426413313103948
Epoch: 400, Error: 0.013442870400300745
Epoch: 500, Error: 0.011989370955320176
Epoch: 600, Error: 0.011999326906063139
Epoch: 700, Error: 0.012046103417330244
Epoch: 800, Error: 0.012318477522219227
Epoch: 900, Error: 0.01621488461775346
Epoch: 1000, Error: 0.012560344082677827
Epoch: 1100, Error: 0.012013849037933283
Epoch: 1200, Error: 0.01234506460834295
Epoch: 1300, Error: 0.012398204124754578
Epoch: 1400, Error: 0.013678713764072226
Epoch: 1500, Error: 0.011840047353463107
Epoch: 1600, Error: 0.011871747957517236
Epoch: 1700, Error: 0.012091405477881397
Epoch: 1800, Error: 0.012480951671645521
Epoch: 1900, Error: 0.012005201884470722
Epoch: 2000, Error: 0.011818237694882813
Epoch: 2100, Error: 0.012867134306475405
Epoch: 2200, Error: 0.012071116018073145
Epoch: 2300, Error: 0.012389771226889917
Epoch: 2400, Error: 0.012279651168800393
Epoch: 2500, Error: 0.01163516427393959
Epoch: 2600, Error: 0.012172045595071592
Epoch: 2700, Error: 0.011670610814774928
Epoch: 2800, Error: 0.013397771591166964
Epoch: 2900, Error: 0.011787196539727082
Epoch: 3000, Error: 0.012118222628293325
Epoch: 3100, Error: 0.011477907344375463
Epoch: 3200, Error: 0.011863397246363776
Epoch: 3300, Error: 0.011326343922382503
Epoch: 3400, Error: 0.01156971803192554
Epoch: 3500, Error: 0.011285329227463604
Epoch: 3600, Error: 0.011181637462542558
Epoch: 3700, Error: 0.011547257867256014
Epoch: 3800, Error: 0.011062217867068687
Epoch: 3900, Error: 0.011385088903016103
Epoch: 4000, Error: 0.011243660151885656
Epoch: 4100, Error: 0.010797767434407805
Epoch: 4200, Error: 0.010721632670795796
Epoch: 4300, Error: 0.011347582374165594
Epoch: 4400, Error: 0.010979087612827294
Epoch: 4500, Error: 0.010724018486608863
Epoch: 4600, Error: 0.010558819880675486
Epoch: 4700, Error: 0.011443671935436649
Epoch: 4800, Error: 0.010180235193372487
Epoch: 4900, Error: 0.010220553212649315
Epoch: 5000, Error: 0.010227731538328306
Epoch: 5100, Error: 0.010314268382891111
Epoch: 5200, Error: 0.010089019135924169
Epoch: 5300, Error: 0.010711192333198399
Epoch: 5400, Error: 0.010006032281338008
Epoch: 5500, Error: 0.00978208925942694
Epoch: 5600, Error: 0.009626312798090748
Epoch: 5700, Error: 0.00948694148179977
Epoch: 5800, Error: 0.009433136556060156
Epoch: 5900, Error: 0.009108835596000248
Epoch: 6000, Error: 0.009221327221189925
Epoch: 6100, Error: 0.00889446340701195
Epoch: 6200, Error: 0.00884485160879547
Epoch: 6300, Error: 0.008317307700717712
Epoch: 6400, Error: 0.00984197196959506
Epoch: 6500, Error: 0.007957830409016715
Epoch: 6600, Error: 0.007943811152354032
Epoch: 6700, Error: 0.0076169433268785895
Epoch: 6800, Error: 0.007362955129773895
Epoch: 6900, Error: 0.007448987378103626
Epoch: 7000, Error: 0.007489219481776686
Epoch: 7100, Error: 0.007677424968784313
Epoch: 7200, Error: 0.007443953432931104
Epoch: 7300, Error: 0.008155004002444418
Epoch: 7400, Error: 0.00691578753991412
Epoch: 7500, Error: 0.006910641144723634
Epoch: 7600, Error: 0.0063931577882326745
Epoch: 7700, Error: 0.006259008487539713
Epoch: 7800, Error: 0.006088491959415677
Epoch: 7900, Error: 0.005987581672146879
Epoch: 8000, Error: 0.005845182657609777
Epoch: 8100, Error: 0.005870057987846986
Epoch: 8200, Error: 0.005780582738602598
Epoch: 8300, Error: 0.005680424991676968
Epoch: 8400, Error: 0.005653424707422772
Epoch: 8500, Error: 0.005794401136895416
Epoch: 8600, Error: 0.005659052020980031
Epoch: 8700, Error: 0.005578697384716235
Epoch: 8800, Error: 0.005682699939647468
Epoch: 8900, Error: 0.0055684356943057674
Epoch: 9000, Error: 0.005543101638549543
Epoch: 9100, Error: 0.005505314825077367
Epoch: 9200, Error: 0.005527301474991299
Epoch: 9300, Error: 0.005451547287373376
Epoch: 9400, Error: 0.005420976386768486
Epoch: 9500, Error: 0.0054280788676962875
Epoch: 9600, Error: 0.005410114536971319
Epoch: 9700, Error: 0.005373728758157641
Epoch: 9800, Error: 0.005420258263979504
Epoch: 9900, Error: 0.0053344418167973915
Epoch: 10000, Error: 0.005342326320684992
Epoch: 10100, Error: 0.005322878008314176
Epoch: 10200, Error: 0.005382225829537901
Epoch: 10300, Error: 0.005295424622448916
Epoch: 10400, Error: 0.0052977877909039395
Epoch: 10500, Error: 0.005301064970635017
Epoch: 10600, Error: 0.005293732852377984
Epoch: 10700, Error: 0.00524973203218543
Epoch: 10800, Error: 0.005255585076822561
Epoch: 10900, Error: 0.0052508297478839425
Epoch: 11000, Error: 0.005211127041745031
Epoch: 11100, Error: 0.005139104251007099
Epoch: 11200, Error: 0.005120615115761467
Epoch: 11300, Error: 0.005112299285581334
Epoch: 11400, Error: 0.005085928500575584
Epoch: 11500, Error: 0.0050926139604063865
Epoch: 11600, Error: 0.00508938154871059
Epoch: 11700, Error: 0.005067760785826947
Epoch: 11800, Error: 0.005073859852835682
Epoch: 11900, Error: 0.0050656129833694845
Epoch: 12000, Error: 0.005063230595856189
Epoch: 12100, Error: 0.005072813737997222
Finished
