Input Patterns
0.224 0.624 0.067 0.043 
0.11 0.502 0.051 0.043 
0.196 0.667 0.067 0.043 
0.055 0.584 0.067 0.082 
0.027 0.376 0.067 0.043 
0.306 0.71 0.086 0.043 
0.137 0.416 0.067 0.0 
0.416 0.831 0.035 0.043 
0.306 0.792 0.051 0.125 
0.388 0.749 0.118 0.082 
0.306 0.584 0.118 0.043 
0.082 0.667 0.0 0.043 
0.137 0.584 0.153 0.043 
0.196 0.584 0.102 0.125 
0.251 0.584 0.067 0.043 
0.137 0.459 0.102 0.043 
0.251 0.875 0.086 0.0 
0.165 0.459 0.086 0.043 
0.333 0.624 0.051 0.043 
0.027 0.416 0.051 0.043 
0.196 0.624 0.051 0.082 
0.027 0.502 0.051 0.043 
0.224 0.749 0.153 0.125 
0.224 0.749 0.102 0.043 
0.278 0.71 0.086 0.043 
0.165 0.416 0.067 0.043 
0.082 0.459 0.086 0.043 
0.306 0.792 0.118 0.125 
0.196 0.584 0.086 0.043 
0.165 0.459 0.086 0.0 
0.137 0.584 0.102 0.043 
0.0 0.416 0.016 0.0 
0.388 1.0 0.086 0.125 
0.224 0.624 0.067 0.082 
0.224 0.749 0.086 0.082 
0.224 0.71 0.086 0.125 
0.224 0.541 0.118 0.165 
0.196 0.416 0.102 0.043 
0.251 0.624 0.086 0.043 
0.11 0.502 0.102 0.043 
0.306 0.584 0.086 0.125 
0.333 0.918 0.067 0.043 
0.196 0.502 0.035 0.043 
0.165 0.667 0.067 0.0 
0.224 0.584 0.086 0.043 
0.055 0.125 0.051 0.082 
0.196 0.624 0.102 0.208 
0.137 0.416 0.067 0.082 
0.082 0.502 0.067 0.043 
0.196 0.541 0.067 0.043 
0.749 0.502 0.627 0.541 
0.722 0.459 0.663 0.584 
0.612 0.333 0.612 0.584 
0.557 0.541 0.627 0.624 
0.639 0.376 0.612 0.498 
0.196 0.0 0.424 0.376 
0.471 0.082 0.51 0.376 
0.361 0.376 0.439 0.498 
0.361 0.416 0.592 0.584 
0.529 0.082 0.592 0.584 
0.443 0.502 0.643 0.459 
0.557 0.208 0.663 0.584 
0.584 0.376 0.561 0.498 
0.694 0.333 0.643 0.541 
0.471 0.376 0.592 0.584 
0.333 0.169 0.475 0.416 
0.416 0.29 0.49 0.459 
0.306 0.416 0.592 0.584 
0.667 0.459 0.627 0.584 
0.361 0.416 0.525 0.498 
0.333 0.251 0.576 0.459 
0.416 0.251 0.51 0.459 
0.361 0.29 0.541 0.498 
0.388 0.376 0.541 0.498 
0.224 0.208 0.337 0.416 
0.584 0.502 0.592 0.584 
0.333 0.125 0.51 0.498 
0.388 0.333 0.592 0.498 
0.165 0.169 0.388 0.376 
0.251 0.29 0.49 0.541 
0.443 0.416 0.541 0.584 
0.498 0.376 0.627 0.541 
0.667 0.459 0.576 0.541 
0.416 0.29 0.525 0.376 
0.361 0.208 0.49 0.416 
0.498 0.333 0.51 0.498 
0.498 0.333 0.627 0.459 
0.639 0.416 0.576 0.541 
0.667 0.416 0.678 0.667 
0.388 0.251 0.424 0.376 
0.333 0.169 0.459 0.376 
0.471 0.29 0.694 0.624 
0.471 0.584 0.592 0.624 
0.557 0.125 0.576 0.498 
0.333 0.208 0.51 0.498 
0.498 0.416 0.612 0.541 
0.196 0.125 0.388 0.376 
0.388 0.416 0.541 0.459 
0.529 0.376 0.561 0.498 
0.388 0.333 0.525 0.498 
0.557 0.541 0.847 1.0 
0.776 0.416 0.831 0.831 
0.612 0.416 0.812 0.875 
0.165 0.208 0.592 0.667 
0.667 0.208 0.812 0.71 
0.612 0.502 0.694 0.792 
0.694 0.416 0.761 0.831 
0.416 0.333 0.694 0.957 
0.612 0.416 0.761 0.71 
0.945 0.251 1.0 0.918 
0.722 0.502 0.796 0.918 
0.945 0.333 0.965 0.792 
0.667 0.541 0.796 0.831 
0.529 0.333 0.643 0.71 
0.584 0.333 0.78 0.831 
0.863 0.333 0.863 0.749 
0.584 0.333 0.78 0.875 
0.498 0.251 0.78 0.541 
0.557 0.584 0.78 0.957 
0.471 0.416 0.643 0.71 
0.667 0.459 0.78 0.957 
0.416 0.29 0.694 0.749 
0.667 0.541 0.796 1.0 
0.557 0.208 0.678 0.749 
0.529 0.584 0.745 0.918 
0.416 0.29 0.694 0.749 
0.557 0.376 0.78 0.71 
0.918 0.416 0.949 0.831 
0.835 0.376 0.898 0.71 
0.804 0.667 0.863 1.0 
0.584 0.29 0.729 0.749 
0.388 0.208 0.678 0.792 
0.584 0.502 0.729 0.918 
0.945 0.749 0.965 0.875 
0.471 0.082 0.678 0.584 
0.361 0.333 0.663 0.792 
0.557 0.29 0.663 0.71 
0.804 0.502 0.847 0.71 
0.498 0.416 0.51 0.71 
0.804 0.416 0.812 0.624 
1.0 0.749 0.914 0.792 
0.557 0.333 0.694 0.584 
0.945 0.416 0.863 0.918 
0.584 0.459 0.761 0.71 
0.722 0.459 0.745 0.831 
0.722 0.459 0.694 0.918 
0.694 0.502 0.831 0.918 
0.667 0.416 0.714 0.918 
0.612 0.416 0.714 0.792 
0.443 0.416 0.694 0.71 
Teaching Patterns
1.0 0.0 0.0 
1.0 0.0 0.0 
1.0 0.0 0.0 
1.0 0.0 0.0 
1.0 0.0 0.0 
1.0 0.0 0.0 
1.0 0.0 0.0 
1.0 0.0 0.0 
1.0 0.0 0.0 
1.0 0.0 0.0 
1.0 0.0 0.0 
1.0 0.0 0.0 
1.0 0.0 0.0 
1.0 0.0 0.0 
1.0 0.0 0.0 
1.0 0.0 0.0 
1.0 0.0 0.0 
1.0 0.0 0.0 
1.0 0.0 0.0 
1.0 0.0 0.0 
1.0 0.0 0.0 
1.0 0.0 0.0 
1.0 0.0 0.0 
1.0 0.0 0.0 
1.0 0.0 0.0 
1.0 0.0 0.0 
1.0 0.0 0.0 
1.0 0.0 0.0 
1.0 0.0 0.0 
1.0 0.0 0.0 
1.0 0.0 0.0 
1.0 0.0 0.0 
1.0 0.0 0.0 
1.0 0.0 0.0 
1.0 0.0 0.0 
1.0 0.0 0.0 
1.0 0.0 0.0 
1.0 0.0 0.0 
1.0 0.0 0.0 
1.0 0.0 0.0 
1.0 0.0 0.0 
1.0 0.0 0.0 
1.0 0.0 0.0 
1.0 0.0 0.0 
1.0 0.0 0.0 
1.0 0.0 0.0 
1.0 0.0 0.0 
1.0 0.0 0.0 
1.0 0.0 0.0 
1.0 0.0 0.0 
0.0 1.0 0.0 
0.0 1.0 0.0 
0.0 1.0 0.0 
0.0 1.0 0.0 
0.0 1.0 0.0 
0.0 1.0 0.0 
0.0 1.0 0.0 
0.0 1.0 0.0 
0.0 1.0 0.0 
0.0 1.0 0.0 
0.0 1.0 0.0 
0.0 1.0 0.0 
0.0 1.0 0.0 
0.0 1.0 0.0 
0.0 1.0 0.0 
0.0 1.0 0.0 
0.0 1.0 0.0 
0.0 1.0 0.0 
0.0 1.0 0.0 
0.0 1.0 0.0 
0.0 1.0 0.0 
0.0 1.0 0.0 
0.0 1.0 0.0 
0.0 1.0 0.0 
0.0 1.0 0.0 
0.0 1.0 0.0 
0.0 1.0 0.0 
0.0 1.0 0.0 
0.0 1.0 0.0 
0.0 1.0 0.0 
0.0 1.0 0.0 
0.0 1.0 0.0 
0.0 1.0 0.0 
0.0 1.0 0.0 
0.0 1.0 0.0 
0.0 1.0 0.0 
0.0 1.0 0.0 
0.0 1.0 0.0 
0.0 1.0 0.0 
0.0 1.0 0.0 
0.0 1.0 0.0 
0.0 1.0 0.0 
0.0 1.0 0.0 
0.0 1.0 0.0 
0.0 1.0 0.0 
0.0 1.0 0.0 
0.0 1.0 0.0 
0.0 1.0 0.0 
0.0 1.0 0.0 
0.0 1.0 0.0 
0.0 0.0 1.0 
0.0 0.0 1.0 
0.0 0.0 1.0 
0.0 0.0 1.0 
0.0 0.0 1.0 
0.0 0.0 1.0 
0.0 0.0 1.0 
0.0 0.0 1.0 
0.0 0.0 1.0 
0.0 0.0 1.0 
0.0 0.0 1.0 
0.0 0.0 1.0 
0.0 0.0 1.0 
0.0 0.0 1.0 
0.0 0.0 1.0 
0.0 0.0 1.0 
0.0 0.0 1.0 
0.0 0.0 1.0 
0.0 0.0 1.0 
0.0 0.0 1.0 
0.0 0.0 1.0 
0.0 0.0 1.0 
0.0 0.0 1.0 
0.0 0.0 1.0 
0.0 0.0 1.0 
0.0 0.0 1.0 
0.0 0.0 1.0 
0.0 0.0 1.0 
0.0 0.0 1.0 
0.0 0.0 1.0 
0.0 0.0 1.0 
0.0 0.0 1.0 
0.0 0.0 1.0 
0.0 0.0 1.0 
0.0 0.0 1.0 
0.0 0.0 1.0 
0.0 0.0 1.0 
0.0 0.0 1.0 
0.0 0.0 1.0 
0.0 0.0 1.0 
0.0 0.0 1.0 
0.0 0.0 1.0 
0.0 0.0 1.0 
0.0 0.0 1.0 
0.0 0.0 1.0 
0.0 0.0 1.0 
0.0 0.0 1.0 
0.0 0.0 1.0 
0.0 0.0 1.0 
0.0 0.0 1.0 
Learning : 0.44999998807907104
Momentum : 0.9
Epoch: 100, Error: 0.015076500762141573
Epoch: 200, Error: 0.01234347630308943
Epoch: 300, Error: 0.012071541888326119
Epoch: 400, Error: 0.013719046548436467
Epoch: 500, Error: 0.014227522081368854
Epoch: 600, Error: 0.012299458243348256
Epoch: 700, Error: 0.012820769748317142
Epoch: 800, Error: 0.01305249340895992
Epoch: 900, Error: 0.012679837512778241
Epoch: 1000, Error: 0.012334841291690978
Epoch: 1100, Error: 0.012844748080651993
Epoch: 1200, Error: 0.012427707068699381
Epoch: 1300, Error: 0.013428624152469464
Epoch: 1400, Error: 0.012453880234686424
Epoch: 1500, Error: 0.012327738957457108
Epoch: 1600, Error: 0.012219223538712973
Epoch: 1700, Error: 0.013041112390459896
Epoch: 1800, Error: 0.012584390809476148
Epoch: 1900, Error: 0.012468158864471278
Epoch: 2000, Error: 0.012332385808276815
Epoch: 2100, Error: 0.012220955073761761
Epoch: 2200, Error: 0.012209998345425039
Epoch: 2300, Error: 0.013127336523370885
Epoch: 2400, Error: 0.012235163485328864
Epoch: 2500, Error: 0.01229526623142289
Epoch: 2600, Error: 0.015437518424039768
Epoch: 2700, Error: 0.012480600023507343
Epoch: 2800, Error: 0.012165131796371834
Epoch: 2900, Error: 0.012284694907310444
Epoch: 3000, Error: 0.013284655735097423
Epoch: 3100, Error: 0.012176266308345458
Epoch: 3200, Error: 0.012306079529564844
Epoch: 3300, Error: 0.012136102906294383
Epoch: 3400, Error: 0.012096268196212437
Epoch: 3500, Error: 0.01205365672961112
Epoch: 3600, Error: 0.012230708637818787
Epoch: 3700, Error: 0.012741943667259063
Epoch: 3800, Error: 0.012219298315946588
Epoch: 3900, Error: 0.012069328943699293
Epoch: 4000, Error: 0.012085743609657525
Epoch: 4100, Error: 0.01222433099726212
Epoch: 4200, Error: 0.01218394430834225
Epoch: 4300, Error: 0.012552570498423964
Epoch: 4400, Error: 0.011951178025160429
Epoch: 4500, Error: 0.011895459620725597
Epoch: 4600, Error: 0.011986960326185295
Epoch: 4700, Error: 0.012083917344514437
Epoch: 4800, Error: 0.011917983749270026
Epoch: 4900, Error: 0.012737456088264404
Epoch: 5000, Error: 0.011803272520989883
Epoch: 5100, Error: 0.012761041704875454
Epoch: 5200, Error: 0.011808891822971216
Epoch: 5300, Error: 0.01164596726530154
Epoch: 5400, Error: 0.01176638337319499
Epoch: 5500, Error: 0.011797666279774011
Epoch: 5600, Error: 0.011827223269026847
Epoch: 5700, Error: 0.011646698641322659
Epoch: 5800, Error: 0.012031112869182747
Epoch: 5900, Error: 0.011499072695207497
Epoch: 6000, Error: 0.011908278138621685
Epoch: 6100, Error: 0.011498706605599289
Epoch: 6200, Error: 0.01190558030848068
Epoch: 6300, Error: 0.01126880972346067
Epoch: 6400, Error: 0.011194579057185973
Epoch: 6500, Error: 0.011333567107025122
Epoch: 6600, Error: 0.011180049429753057
Epoch: 6700, Error: 0.0110948686748526
Epoch: 6800, Error: 0.01095331891201219
Epoch: 6900, Error: 0.010827062716563193
Epoch: 7000, Error: 0.011075086175649104
Epoch: 7100, Error: 0.01074198906077016
Epoch: 7200, Error: 0.010715186329426534
Epoch: 7300, Error: 0.010604478111629446
Epoch: 7400, Error: 0.010504480369552174
Epoch: 7500, Error: 0.010796560222811752
Epoch: 7600, Error: 0.010426907830953654
Epoch: 7700, Error: 0.010622951349898789
Epoch: 7800, Error: 0.010537770965169146
Epoch: 7900, Error: 0.010370604867831867
Epoch: 8000, Error: 0.010441344317751913
Epoch: 8100, Error: 0.010453962780039537
Epoch: 8200, Error: 0.010145541408925915
Epoch: 8300, Error: 0.010113200884766005
Epoch: 8400, Error: 0.010106496749160294
Epoch: 8500, Error: 0.010188915127042092
Epoch: 8600, Error: 0.010036908217118291
Epoch: 8700, Error: 0.009993551750585047
Epoch: 8800, Error: 0.010093368188248308
Epoch: 8900, Error: 0.010029101074274108
Epoch: 9000, Error: 0.009949994747376659
Epoch: 9100, Error: 0.009966707694883406
Epoch: 9200, Error: 0.009888441880616602
Epoch: 9300, Error: 0.009976789637404454
Epoch: 9400, Error: 0.009858655629078124
Epoch: 9500, Error: 0.009898770211661943
Epoch: 9600, Error: 0.00986664648329289
Epoch: 9700, Error: 0.009870161706856449
Epoch: 9800, Error: 0.00985158262912738
Epoch: 9900, Error: 0.009834168751912805
Epoch: 10000, Error: 0.00982023665931043
Epoch: 10100, Error: 0.009848264058009808
Epoch: 10200, Error: 0.009825924453120154
Epoch: 10300, Error: 0.00984945378450981
Epoch: 10400, Error: 0.009796047122581931
Epoch: 10500, Error: 0.009821650536133538
Epoch: 10600, Error: 0.00981458491994877
Epoch: 10700, Error: 0.009793082576488116
Epoch: 10800, Error: 0.009806503805173929
Epoch: 10900, Error: 0.00982583196877437
Epoch: 11000, Error: 0.009796065088604752
Epoch: 11100, Error: 0.009820337177207367
Epoch: 11200, Error: 0.009772259450936932
Epoch: 11300, Error: 0.009790540289223725
Epoch: 11400, Error: 0.009798083513953133
Epoch: 11500, Error: 0.009762526038030121
Epoch: 11600, Error: 0.009793754509058873
Epoch: 11700, Error: 0.009773606458688602
Epoch: 11800, Error: 0.009762347528005163
Epoch: 11900, Error: 0.009806204109149381
Epoch: 12000, Error: 0.009755695123343802
Epoch: 12100, Error: 0.009761221831980057
Epoch: 12200, Error: 0.009754494908337229
Finished
