Input Patterns
0.224 0.624 0.067 0.043 
0.11 0.502 0.051 0.043 
0.196 0.667 0.067 0.043 
0.055 0.584 0.067 0.082 
0.027 0.376 0.067 0.043 
0.306 0.71 0.086 0.043 
0.137 0.416 0.067 0.0 
0.416 0.831 0.035 0.043 
0.306 0.792 0.051 0.125 
0.388 0.749 0.118 0.082 
0.306 0.584 0.118 0.043 
0.082 0.667 0.0 0.043 
0.137 0.584 0.153 0.043 
0.196 0.584 0.102 0.125 
0.251 0.584 0.067 0.043 
0.137 0.459 0.102 0.043 
0.251 0.875 0.086 0.0 
0.165 0.459 0.086 0.043 
0.333 0.624 0.051 0.043 
0.027 0.416 0.051 0.043 
0.196 0.624 0.051 0.082 
0.027 0.502 0.051 0.043 
0.224 0.749 0.153 0.125 
0.224 0.749 0.102 0.043 
0.278 0.71 0.086 0.043 
0.165 0.416 0.067 0.043 
0.082 0.459 0.086 0.043 
0.306 0.792 0.118 0.125 
0.196 0.584 0.086 0.043 
0.165 0.459 0.086 0.0 
0.137 0.584 0.102 0.043 
0.0 0.416 0.016 0.0 
0.388 1.0 0.086 0.125 
0.224 0.624 0.067 0.082 
0.224 0.749 0.086 0.082 
0.224 0.71 0.086 0.125 
0.224 0.541 0.118 0.165 
0.196 0.416 0.102 0.043 
0.251 0.624 0.086 0.043 
0.11 0.502 0.102 0.043 
0.306 0.584 0.086 0.125 
0.333 0.918 0.067 0.043 
0.196 0.502 0.035 0.043 
0.165 0.667 0.067 0.0 
0.224 0.584 0.086 0.043 
0.055 0.125 0.051 0.082 
0.196 0.624 0.102 0.208 
0.137 0.416 0.067 0.082 
0.082 0.502 0.067 0.043 
0.196 0.541 0.067 0.043 
0.749 0.502 0.627 0.541 
0.722 0.459 0.663 0.584 
0.612 0.333 0.612 0.584 
0.557 0.541 0.627 0.624 
0.639 0.376 0.612 0.498 
0.196 0.0 0.424 0.376 
0.471 0.082 0.51 0.376 
0.361 0.376 0.439 0.498 
0.361 0.416 0.592 0.584 
0.529 0.082 0.592 0.584 
0.443 0.502 0.643 0.459 
0.557 0.208 0.663 0.584 
0.584 0.376 0.561 0.498 
0.694 0.333 0.643 0.541 
0.471 0.376 0.592 0.584 
0.333 0.169 0.475 0.416 
0.416 0.29 0.49 0.459 
0.306 0.416 0.592 0.584 
0.667 0.459 0.627 0.584 
0.361 0.416 0.525 0.498 
0.333 0.251 0.576 0.459 
0.416 0.251 0.51 0.459 
0.361 0.29 0.541 0.498 
0.388 0.376 0.541 0.498 
0.224 0.208 0.337 0.416 
0.584 0.502 0.592 0.584 
0.333 0.125 0.51 0.498 
0.388 0.333 0.592 0.498 
0.165 0.169 0.388 0.376 
0.251 0.29 0.49 0.541 
0.443 0.416 0.541 0.584 
0.498 0.376 0.627 0.541 
0.667 0.459 0.576 0.541 
0.416 0.29 0.525 0.376 
0.361 0.208 0.49 0.416 
0.498 0.333 0.51 0.498 
0.498 0.333 0.627 0.459 
0.639 0.416 0.576 0.541 
0.667 0.416 0.678 0.667 
0.388 0.251 0.424 0.376 
0.333 0.169 0.459 0.376 
0.471 0.29 0.694 0.624 
0.471 0.584 0.592 0.624 
0.557 0.125 0.576 0.498 
0.333 0.208 0.51 0.498 
0.498 0.416 0.612 0.541 
0.196 0.125 0.388 0.376 
0.388 0.416 0.541 0.459 
0.529 0.376 0.561 0.498 
0.388 0.333 0.525 0.498 
0.557 0.541 0.847 1.0 
0.776 0.416 0.831 0.831 
0.612 0.416 0.812 0.875 
0.165 0.208 0.592 0.667 
0.667 0.208 0.812 0.71 
0.612 0.502 0.694 0.792 
0.694 0.416 0.761 0.831 
0.416 0.333 0.694 0.957 
0.612 0.416 0.761 0.71 
0.945 0.251 1.0 0.918 
0.722 0.502 0.796 0.918 
0.945 0.333 0.965 0.792 
0.667 0.541 0.796 0.831 
0.529 0.333 0.643 0.71 
0.584 0.333 0.78 0.831 
0.863 0.333 0.863 0.749 
0.584 0.333 0.78 0.875 
0.498 0.251 0.78 0.541 
0.557 0.584 0.78 0.957 
0.471 0.416 0.643 0.71 
0.667 0.459 0.78 0.957 
0.416 0.29 0.694 0.749 
0.667 0.541 0.796 1.0 
0.557 0.208 0.678 0.749 
0.529 0.584 0.745 0.918 
0.416 0.29 0.694 0.749 
0.557 0.376 0.78 0.71 
0.918 0.416 0.949 0.831 
0.835 0.376 0.898 0.71 
0.804 0.667 0.863 1.0 
0.584 0.29 0.729 0.749 
0.388 0.208 0.678 0.792 
0.584 0.502 0.729 0.918 
0.945 0.749 0.965 0.875 
0.471 0.082 0.678 0.584 
0.361 0.333 0.663 0.792 
0.557 0.29 0.663 0.71 
0.804 0.502 0.847 0.71 
0.498 0.416 0.51 0.71 
0.804 0.416 0.812 0.624 
1.0 0.749 0.914 0.792 
0.557 0.333 0.694 0.584 
0.945 0.416 0.863 0.918 
0.584 0.459 0.761 0.71 
0.722 0.459 0.745 0.831 
0.722 0.459 0.694 0.918 
0.694 0.502 0.831 0.918 
0.667 0.416 0.714 0.918 
0.612 0.416 0.714 0.792 
0.443 0.416 0.694 0.71 
Teaching Patterns
1.0 0.0 0.0 
1.0 0.0 0.0 
1.0 0.0 0.0 
1.0 0.0 0.0 
1.0 0.0 0.0 
1.0 0.0 0.0 
1.0 0.0 0.0 
1.0 0.0 0.0 
1.0 0.0 0.0 
1.0 0.0 0.0 
1.0 0.0 0.0 
1.0 0.0 0.0 
1.0 0.0 0.0 
1.0 0.0 0.0 
1.0 0.0 0.0 
1.0 0.0 0.0 
1.0 0.0 0.0 
1.0 0.0 0.0 
1.0 0.0 0.0 
1.0 0.0 0.0 
1.0 0.0 0.0 
1.0 0.0 0.0 
1.0 0.0 0.0 
1.0 0.0 0.0 
1.0 0.0 0.0 
1.0 0.0 0.0 
1.0 0.0 0.0 
1.0 0.0 0.0 
1.0 0.0 0.0 
1.0 0.0 0.0 
1.0 0.0 0.0 
1.0 0.0 0.0 
1.0 0.0 0.0 
1.0 0.0 0.0 
1.0 0.0 0.0 
1.0 0.0 0.0 
1.0 0.0 0.0 
1.0 0.0 0.0 
1.0 0.0 0.0 
1.0 0.0 0.0 
1.0 0.0 0.0 
1.0 0.0 0.0 
1.0 0.0 0.0 
1.0 0.0 0.0 
1.0 0.0 0.0 
1.0 0.0 0.0 
1.0 0.0 0.0 
1.0 0.0 0.0 
1.0 0.0 0.0 
1.0 0.0 0.0 
0.0 1.0 0.0 
0.0 1.0 0.0 
0.0 1.0 0.0 
0.0 1.0 0.0 
0.0 1.0 0.0 
0.0 1.0 0.0 
0.0 1.0 0.0 
0.0 1.0 0.0 
0.0 1.0 0.0 
0.0 1.0 0.0 
0.0 1.0 0.0 
0.0 1.0 0.0 
0.0 1.0 0.0 
0.0 1.0 0.0 
0.0 1.0 0.0 
0.0 1.0 0.0 
0.0 1.0 0.0 
0.0 1.0 0.0 
0.0 1.0 0.0 
0.0 1.0 0.0 
0.0 1.0 0.0 
0.0 1.0 0.0 
0.0 1.0 0.0 
0.0 1.0 0.0 
0.0 1.0 0.0 
0.0 1.0 0.0 
0.0 1.0 0.0 
0.0 1.0 0.0 
0.0 1.0 0.0 
0.0 1.0 0.0 
0.0 1.0 0.0 
0.0 1.0 0.0 
0.0 1.0 0.0 
0.0 1.0 0.0 
0.0 1.0 0.0 
0.0 1.0 0.0 
0.0 1.0 0.0 
0.0 1.0 0.0 
0.0 1.0 0.0 
0.0 1.0 0.0 
0.0 1.0 0.0 
0.0 1.0 0.0 
0.0 1.0 0.0 
0.0 1.0 0.0 
0.0 1.0 0.0 
0.0 1.0 0.0 
0.0 1.0 0.0 
0.0 1.0 0.0 
0.0 1.0 0.0 
0.0 1.0 0.0 
0.0 0.0 1.0 
0.0 0.0 1.0 
0.0 0.0 1.0 
0.0 0.0 1.0 
0.0 0.0 1.0 
0.0 0.0 1.0 
0.0 0.0 1.0 
0.0 0.0 1.0 
0.0 0.0 1.0 
0.0 0.0 1.0 
0.0 0.0 1.0 
0.0 0.0 1.0 
0.0 0.0 1.0 
0.0 0.0 1.0 
0.0 0.0 1.0 
0.0 0.0 1.0 
0.0 0.0 1.0 
0.0 0.0 1.0 
0.0 0.0 1.0 
0.0 0.0 1.0 
0.0 0.0 1.0 
0.0 0.0 1.0 
0.0 0.0 1.0 
0.0 0.0 1.0 
0.0 0.0 1.0 
0.0 0.0 1.0 
0.0 0.0 1.0 
0.0 0.0 1.0 
0.0 0.0 1.0 
0.0 0.0 1.0 
0.0 0.0 1.0 
0.0 0.0 1.0 
0.0 0.0 1.0 
0.0 0.0 1.0 
0.0 0.0 1.0 
0.0 0.0 1.0 
0.0 0.0 1.0 
0.0 0.0 1.0 
0.0 0.0 1.0 
0.0 0.0 1.0 
0.0 0.0 1.0 
0.0 0.0 1.0 
0.0 0.0 1.0 
0.0 0.0 1.0 
0.0 0.0 1.0 
0.0 0.0 1.0 
0.0 0.0 1.0 
0.0 0.0 1.0 
0.0 0.0 1.0 
0.0 0.0 1.0 
Learning : 0.44999998807907104
Momentum : 0.9
Epoch: 100, Error: 0.01329727437108357
Epoch: 200, Error: 0.012301975857332727
Epoch: 300, Error: 0.012593757352211911
Epoch: 400, Error: 0.01207324247238645
Epoch: 500, Error: 0.012237293388830239
Epoch: 600, Error: 0.012118148492399177
Epoch: 700, Error: 0.012244972307937257
Epoch: 800, Error: 0.01641386393307321
Epoch: 900, Error: 0.012094816918491385
Epoch: 1000, Error: 0.013172647924709834
Epoch: 1100, Error: 0.012476021480258632
Epoch: 1200, Error: 0.011959369894104656
Epoch: 1300, Error: 0.011965013413085503
Epoch: 1400, Error: 0.013291010680211029
Epoch: 1500, Error: 0.011763306018857467
Epoch: 1600, Error: 0.01267222587115317
Epoch: 1700, Error: 0.012158055847685412
Epoch: 1800, Error: 0.016906734994428862
Epoch: 1900, Error: 0.011261430138131235
Epoch: 2000, Error: 0.012240257232213395
Epoch: 2100, Error: 0.01096156401088309
Epoch: 2200, Error: 0.010687049676210689
Epoch: 2300, Error: 0.010842166770839781
Epoch: 2400, Error: 0.010482767897499327
Epoch: 2500, Error: 0.009234059065935203
Epoch: 2600, Error: 0.008588357716120711
Epoch: 2700, Error: 0.010460630759393009
Epoch: 2800, Error: 0.0063370312266608384
Epoch: 2900, Error: 0.006397367451235651
Epoch: 3000, Error: 0.005594134600662227
Epoch: 3100, Error: 0.005450164223316039
Epoch: 3200, Error: 0.005517865785366499
Epoch: 3300, Error: 0.005333797118741619
Epoch: 3400, Error: 0.005297678762297391
Epoch: 3500, Error: 0.005269602413721994
Epoch: 3600, Error: 0.005215703982057727
Epoch: 3700, Error: 0.00520332719040512
Epoch: 3800, Error: 0.005200423683653539
Epoch: 3900, Error: 0.005182385312369668
Epoch: 4000, Error: 0.005152677514706789
Epoch: 4100, Error: 0.005222655456605547
Epoch: 4200, Error: 0.005089426959382044
Epoch: 4300, Error: 0.005087945068453859
Epoch: 4400, Error: 0.005064477895721392
Epoch: 4500, Error: 0.0050607071239601375
Epoch: 4600, Error: 0.004976351136848988
Epoch: 4700, Error: 0.005013853563732244
Epoch: 4800, Error: 0.004934176712392908
Epoch: 4900, Error: 0.004779826405565801
Epoch: 5000, Error: 0.0047401269989970065
Epoch: 5100, Error: 0.00468301876079377
Epoch: 5200, Error: 0.004601988179560195
Epoch: 5300, Error: 0.0046839809635174905
Epoch: 5400, Error: 0.004717477518368379
Epoch: 5500, Error: 0.0044288145861384074
Epoch: 5600, Error: 0.004548968591162411
Epoch: 5700, Error: 0.00462727022616398
Epoch: 5800, Error: 0.004309767820024633
Epoch: 5900, Error: 0.004195562040186819
Epoch: 6000, Error: 0.0041405042831860065
Epoch: 6100, Error: 0.003983341959809552
Epoch: 6200, Error: 0.003867151093553346
Epoch: 6300, Error: 0.0038495018811729163
Epoch: 6400, Error: 0.004305565381471255
Epoch: 6500, Error: 0.0035688240906420515
Epoch: 6600, Error: 0.003945869696270535
Epoch: 6700, Error: 0.004254244031315197
Epoch: 6800, Error: 0.0035782240093581523
Epoch: 6900, Error: 0.0034709944337847237
Epoch: 7000, Error: 0.0037505833924563977
Epoch: 7100, Error: 0.0034002905225260054
Epoch: 7200, Error: 0.003739924405306512
Epoch: 7300, Error: 0.002584164849890984
Epoch: 7400, Error: 0.003981788322922545
Epoch: 7500, Error: 0.0031561917643255655
Epoch: 7600, Error: 0.007568870760129922
Epoch: 7700, Error: 0.0030220061049968223
Epoch: 7800, Error: 0.002076290997670983
Epoch: 7900, Error: 0.0024382324904768035
Epoch: 8000, Error: 0.0033112280926090414
Epoch: 8100, Error: 0.0032769863853099605
Epoch: 8200, Error: 0.002771345718019593
Epoch: 8300, Error: 0.0024393202136250482
Epoch: 8400, Error: 0.005173563633229495
Epoch: 8500, Error: 0.001631317750392597
Epoch: 8600, Error: 0.0022165838032401513
Epoch: 8700, Error: 0.0045561758854237985
Epoch: 8800, Error: 0.0013943290396777792
Epoch: 8900, Error: 0.003276566061089268
Epoch: 9000, Error: 0.002522913103931679
Epoch: 9100, Error: 0.0034640984999825255
Epoch: 9200, Error: 0.002886439124950829
Epoch: 9300, Error: 0.004819524877117325
Epoch: 9400, Error: 0.0015801589987109919
Epoch: 9500, Error: 0.0012615276015203783
Epoch: 9600, Error: 0.001262097519797226
Epoch: 9700, Error: 0.001495807975472547
Epoch: 9800, Error: 9.612202590065425E-4
Epoch: 9900, Error: 0.0011473709909532767
Epoch: 10000, Error: 9.335129223151106E-4
Epoch: 10100, Error: 0.001518574038102503
Epoch: 10200, Error: 0.0010322324390332417
Epoch: 10300, Error: 0.001082032752951766
Epoch: 10400, Error: 9.656338693675108E-4
Epoch: 10500, Error: 9.768416554515674E-4
Epoch: 10600, Error: 0.0010679920045463082
Epoch: 10700, Error: 0.0010378456398374017
Epoch: 10800, Error: 8.50255709340723E-4
Epoch: 10900, Error: 9.769542560781523E-4
Epoch: 11000, Error: 9.539036748578718E-4
Epoch: 11100, Error: 8.069180657056164E-4
Epoch: 11200, Error: 7.963700022709316E-4
Epoch: 11300, Error: 8.424811791963544E-4
Epoch: 11400, Error: 7.983385901378684E-4
Epoch: 11500, Error: 7.924298220134406E-4
Epoch: 11600, Error: 8.34244038307297E-4
Epoch: 11700, Error: 8.319293918129168E-4
Epoch: 11800, Error: 8.340818373359696E-4
Epoch: 11900, Error: 8.305911401584439E-4
Epoch: 12000, Error: 7.765433286601526E-4
Epoch: 12100, Error: 8.092739843413689E-4
Epoch: 12200, Error: 7.905300373265533E-4
Epoch: 12300, Error: 7.884390129662748E-4
Epoch: 12400, Error: 7.810149581686963E-4
Epoch: 12500, Error: 8.137327416024087E-4
Epoch: 12600, Error: 7.801482224265826E-4
Epoch: 12700, Error: 7.912619992658994E-4
Epoch: 12800, Error: 7.951306042220618E-4
Epoch: 12900, Error: 7.925973348878745E-4
Epoch: 13000, Error: 7.840475318297847E-4
Epoch: 13100, Error: 7.665544965667956E-4
Epoch: 13200, Error: 7.569275427506156E-4
Epoch: 13300, Error: 7.382802583094743E-4
Epoch: 13400, Error: 7.423276591049139E-4
Epoch: 13500, Error: 7.486125988549324E-4
Epoch: 13600, Error: 7.569846499519736E-4
Epoch: 13700, Error: 7.449106758323848E-4
Epoch: 13800, Error: 7.363854628311485E-4
Epoch: 13900, Error: 7.342554646252355E-4
Epoch: 14000, Error: 7.650007944971596E-4
Epoch: 14100, Error: 8.246502724591625E-4
Epoch: 14200, Error: 8.029227397442677E-4
Epoch: 14300, Error: 7.886081615053212E-4
Epoch: 14400, Error: 7.965040665743918E-4
Epoch: 14500, Error: 8.23509773323967E-4
Epoch: 14600, Error: 8.157476297121673E-4
Epoch: 14700, Error: 8.051777383026712E-4
Epoch: 14800, Error: 8.089343510071254E-4
Epoch: 14900, Error: 8.380924851844252E-4
Epoch: 15000, Error: 8.294660955662199E-4
Epoch: 15100, Error: 8.299104853110646E-4
Epoch: 15200, Error: 8.486141599541292E-4
Epoch: 15300, Error: 8.393517389909626E-4
Epoch: 15400, Error: 8.175957505206675E-4
Finished
