Input Patterns
0.224 0.624 0.067 0.043 
0.11 0.502 0.051 0.043 
0.196 0.667 0.067 0.043 
0.055 0.584 0.067 0.082 
0.027 0.376 0.067 0.043 
0.306 0.71 0.086 0.043 
0.137 0.416 0.067 0.0 
0.416 0.831 0.035 0.043 
0.306 0.792 0.051 0.125 
0.388 0.749 0.118 0.082 
0.306 0.584 0.118 0.043 
0.082 0.667 0.0 0.043 
0.137 0.584 0.153 0.043 
0.196 0.584 0.102 0.125 
0.251 0.584 0.067 0.043 
0.137 0.459 0.102 0.043 
0.251 0.875 0.086 0.0 
0.165 0.459 0.086 0.043 
0.333 0.624 0.051 0.043 
0.027 0.416 0.051 0.043 
0.196 0.624 0.051 0.082 
0.027 0.502 0.051 0.043 
0.224 0.749 0.153 0.125 
0.224 0.749 0.102 0.043 
0.278 0.71 0.086 0.043 
0.165 0.416 0.067 0.043 
0.082 0.459 0.086 0.043 
0.306 0.792 0.118 0.125 
0.196 0.584 0.086 0.043 
0.165 0.459 0.086 0.0 
0.137 0.584 0.102 0.043 
0.0 0.416 0.016 0.0 
0.388 1.0 0.086 0.125 
0.224 0.624 0.067 0.082 
0.224 0.749 0.086 0.082 
0.224 0.71 0.086 0.125 
0.224 0.541 0.118 0.165 
0.196 0.416 0.102 0.043 
0.251 0.624 0.086 0.043 
0.11 0.502 0.102 0.043 
0.306 0.584 0.086 0.125 
0.333 0.918 0.067 0.043 
0.196 0.502 0.035 0.043 
0.165 0.667 0.067 0.0 
0.224 0.584 0.086 0.043 
0.055 0.125 0.051 0.082 
0.196 0.624 0.102 0.208 
0.137 0.416 0.067 0.082 
0.082 0.502 0.067 0.043 
0.196 0.541 0.067 0.043 
0.749 0.502 0.627 0.541 
0.722 0.459 0.663 0.584 
0.612 0.333 0.612 0.584 
0.557 0.541 0.627 0.624 
0.639 0.376 0.612 0.498 
0.196 0.0 0.424 0.376 
0.471 0.082 0.51 0.376 
0.361 0.376 0.439 0.498 
0.361 0.416 0.592 0.584 
0.529 0.082 0.592 0.584 
0.443 0.502 0.643 0.459 
0.557 0.208 0.663 0.584 
0.584 0.376 0.561 0.498 
0.694 0.333 0.643 0.541 
0.471 0.376 0.592 0.584 
0.333 0.169 0.475 0.416 
0.416 0.29 0.49 0.459 
0.306 0.416 0.592 0.584 
0.667 0.459 0.627 0.584 
0.361 0.416 0.525 0.498 
0.333 0.251 0.576 0.459 
0.416 0.251 0.51 0.459 
0.361 0.29 0.541 0.498 
0.388 0.376 0.541 0.498 
0.224 0.208 0.337 0.416 
0.584 0.502 0.592 0.584 
0.333 0.125 0.51 0.498 
0.388 0.333 0.592 0.498 
0.165 0.169 0.388 0.376 
0.251 0.29 0.49 0.541 
0.443 0.416 0.541 0.584 
0.498 0.376 0.627 0.541 
0.667 0.459 0.576 0.541 
0.416 0.29 0.525 0.376 
0.361 0.208 0.49 0.416 
0.498 0.333 0.51 0.498 
0.498 0.333 0.627 0.459 
0.639 0.416 0.576 0.541 
0.667 0.416 0.678 0.667 
0.388 0.251 0.424 0.376 
0.333 0.169 0.459 0.376 
0.471 0.29 0.694 0.624 
0.471 0.584 0.592 0.624 
0.557 0.125 0.576 0.498 
0.333 0.208 0.51 0.498 
0.498 0.416 0.612 0.541 
0.196 0.125 0.388 0.376 
0.388 0.416 0.541 0.459 
0.529 0.376 0.561 0.498 
0.388 0.333 0.525 0.498 
0.557 0.541 0.847 1.0 
0.776 0.416 0.831 0.831 
0.612 0.416 0.812 0.875 
0.165 0.208 0.592 0.667 
0.667 0.208 0.812 0.71 
0.612 0.502 0.694 0.792 
0.694 0.416 0.761 0.831 
0.416 0.333 0.694 0.957 
0.612 0.416 0.761 0.71 
0.945 0.251 1.0 0.918 
0.722 0.502 0.796 0.918 
0.945 0.333 0.965 0.792 
0.667 0.541 0.796 0.831 
0.529 0.333 0.643 0.71 
0.584 0.333 0.78 0.831 
0.863 0.333 0.863 0.749 
0.584 0.333 0.78 0.875 
0.498 0.251 0.78 0.541 
0.557 0.584 0.78 0.957 
0.471 0.416 0.643 0.71 
0.667 0.459 0.78 0.957 
0.416 0.29 0.694 0.749 
0.667 0.541 0.796 1.0 
0.557 0.208 0.678 0.749 
0.529 0.584 0.745 0.918 
0.416 0.29 0.694 0.749 
0.557 0.376 0.78 0.71 
0.918 0.416 0.949 0.831 
0.835 0.376 0.898 0.71 
0.804 0.667 0.863 1.0 
0.584 0.29 0.729 0.749 
0.388 0.208 0.678 0.792 
0.584 0.502 0.729 0.918 
0.945 0.749 0.965 0.875 
0.471 0.082 0.678 0.584 
0.361 0.333 0.663 0.792 
0.557 0.29 0.663 0.71 
0.804 0.502 0.847 0.71 
0.498 0.416 0.51 0.71 
0.804 0.416 0.812 0.624 
1.0 0.749 0.914 0.792 
0.557 0.333 0.694 0.584 
0.945 0.416 0.863 0.918 
0.584 0.459 0.761 0.71 
0.722 0.459 0.745 0.831 
0.722 0.459 0.694 0.918 
0.694 0.502 0.831 0.918 
0.667 0.416 0.714 0.918 
0.612 0.416 0.714 0.792 
0.443 0.416 0.694 0.71 
Teaching Patterns
1.0 0.0 0.0 
1.0 0.0 0.0 
1.0 0.0 0.0 
1.0 0.0 0.0 
1.0 0.0 0.0 
1.0 0.0 0.0 
1.0 0.0 0.0 
1.0 0.0 0.0 
1.0 0.0 0.0 
1.0 0.0 0.0 
1.0 0.0 0.0 
1.0 0.0 0.0 
1.0 0.0 0.0 
1.0 0.0 0.0 
1.0 0.0 0.0 
1.0 0.0 0.0 
1.0 0.0 0.0 
1.0 0.0 0.0 
1.0 0.0 0.0 
1.0 0.0 0.0 
1.0 0.0 0.0 
1.0 0.0 0.0 
1.0 0.0 0.0 
1.0 0.0 0.0 
1.0 0.0 0.0 
1.0 0.0 0.0 
1.0 0.0 0.0 
1.0 0.0 0.0 
1.0 0.0 0.0 
1.0 0.0 0.0 
1.0 0.0 0.0 
1.0 0.0 0.0 
1.0 0.0 0.0 
1.0 0.0 0.0 
1.0 0.0 0.0 
1.0 0.0 0.0 
1.0 0.0 0.0 
1.0 0.0 0.0 
1.0 0.0 0.0 
1.0 0.0 0.0 
1.0 0.0 0.0 
1.0 0.0 0.0 
1.0 0.0 0.0 
1.0 0.0 0.0 
1.0 0.0 0.0 
1.0 0.0 0.0 
1.0 0.0 0.0 
1.0 0.0 0.0 
1.0 0.0 0.0 
1.0 0.0 0.0 
0.0 1.0 0.0 
0.0 1.0 0.0 
0.0 1.0 0.0 
0.0 1.0 0.0 
0.0 1.0 0.0 
0.0 1.0 0.0 
0.0 1.0 0.0 
0.0 1.0 0.0 
0.0 1.0 0.0 
0.0 1.0 0.0 
0.0 1.0 0.0 
0.0 1.0 0.0 
0.0 1.0 0.0 
0.0 1.0 0.0 
0.0 1.0 0.0 
0.0 1.0 0.0 
0.0 1.0 0.0 
0.0 1.0 0.0 
0.0 1.0 0.0 
0.0 1.0 0.0 
0.0 1.0 0.0 
0.0 1.0 0.0 
0.0 1.0 0.0 
0.0 1.0 0.0 
0.0 1.0 0.0 
0.0 1.0 0.0 
0.0 1.0 0.0 
0.0 1.0 0.0 
0.0 1.0 0.0 
0.0 1.0 0.0 
0.0 1.0 0.0 
0.0 1.0 0.0 
0.0 1.0 0.0 
0.0 1.0 0.0 
0.0 1.0 0.0 
0.0 1.0 0.0 
0.0 1.0 0.0 
0.0 1.0 0.0 
0.0 1.0 0.0 
0.0 1.0 0.0 
0.0 1.0 0.0 
0.0 1.0 0.0 
0.0 1.0 0.0 
0.0 1.0 0.0 
0.0 1.0 0.0 
0.0 1.0 0.0 
0.0 1.0 0.0 
0.0 1.0 0.0 
0.0 1.0 0.0 
0.0 1.0 0.0 
0.0 0.0 1.0 
0.0 0.0 1.0 
0.0 0.0 1.0 
0.0 0.0 1.0 
0.0 0.0 1.0 
0.0 0.0 1.0 
0.0 0.0 1.0 
0.0 0.0 1.0 
0.0 0.0 1.0 
0.0 0.0 1.0 
0.0 0.0 1.0 
0.0 0.0 1.0 
0.0 0.0 1.0 
0.0 0.0 1.0 
0.0 0.0 1.0 
0.0 0.0 1.0 
0.0 0.0 1.0 
0.0 0.0 1.0 
0.0 0.0 1.0 
0.0 0.0 1.0 
0.0 0.0 1.0 
0.0 0.0 1.0 
0.0 0.0 1.0 
0.0 0.0 1.0 
0.0 0.0 1.0 
0.0 0.0 1.0 
0.0 0.0 1.0 
0.0 0.0 1.0 
0.0 0.0 1.0 
0.0 0.0 1.0 
0.0 0.0 1.0 
0.0 0.0 1.0 
0.0 0.0 1.0 
0.0 0.0 1.0 
0.0 0.0 1.0 
0.0 0.0 1.0 
0.0 0.0 1.0 
0.0 0.0 1.0 
0.0 0.0 1.0 
0.0 0.0 1.0 
0.0 0.0 1.0 
0.0 0.0 1.0 
0.0 0.0 1.0 
0.0 0.0 1.0 
0.0 0.0 1.0 
0.0 0.0 1.0 
0.0 0.0 1.0 
0.0 0.0 1.0 
0.0 0.0 1.0 
0.0 0.0 1.0 
Learning : 0.44999998807907104
Momentum : 0.9
Epoch: 100, Error: 0.01585977615653128
Epoch: 200, Error: 0.01301677053234807
Epoch: 300, Error: 0.011904413159369421
Epoch: 400, Error: 0.016970810975097655
Epoch: 500, Error: 0.013757318070183168
Epoch: 600, Error: 0.012675884679333076
Epoch: 700, Error: 0.013784400388536965
Epoch: 800, Error: 0.012364406857665124
Epoch: 900, Error: 0.011955116209044521
Epoch: 1000, Error: 0.01196535233951308
Epoch: 1100, Error: 0.01209910343860393
Epoch: 1200, Error: 0.012674114287881014
Epoch: 1300, Error: 0.012732353421157574
Epoch: 1400, Error: 0.011932927490366315
Epoch: 1500, Error: 0.0124497787653605
Epoch: 1600, Error: 0.012125853840573894
Epoch: 1700, Error: 0.012691808445146103
Epoch: 1800, Error: 0.012241434251036092
Epoch: 1900, Error: 0.012005968687596687
Epoch: 2000, Error: 0.011904552971797704
Epoch: 2100, Error: 0.012100667141157016
Epoch: 2200, Error: 0.01181932208050453
Epoch: 2300, Error: 0.01427589044182112
Epoch: 2400, Error: 0.013099077950069378
Epoch: 2500, Error: 0.01179692193814169
Epoch: 2600, Error: 0.012384045355576728
Epoch: 2700, Error: 0.011884973256090274
Epoch: 2800, Error: 0.011896917092347898
Epoch: 2900, Error: 0.011694214044550212
Epoch: 3000, Error: 0.011759428745710924
Epoch: 3100, Error: 0.011457045528733141
Epoch: 3200, Error: 0.011594584311795197
Epoch: 3300, Error: 0.012276249775590584
Epoch: 3400, Error: 0.01152044338064197
Epoch: 3500, Error: 0.011993299896470775
Epoch: 3600, Error: 0.01206374954562767
Epoch: 3700, Error: 0.011433765586910154
Epoch: 3800, Error: 0.01105366263316737
Epoch: 3900, Error: 0.011541860361460515
Epoch: 4000, Error: 0.011384628100233878
Epoch: 4100, Error: 0.011035558916767215
Epoch: 4200, Error: 0.012397321737185598
Epoch: 4300, Error: 0.011094928426547248
Epoch: 4400, Error: 0.010861800551050991
Epoch: 4500, Error: 0.011313948201806633
Epoch: 4600, Error: 0.010536523882297427
Epoch: 4700, Error: 0.010477737377681191
Epoch: 4800, Error: 0.01040062570089977
Epoch: 4900, Error: 0.010646498019691928
Epoch: 5000, Error: 0.010053991579211134
Epoch: 5100, Error: 0.00989421938014748
Epoch: 5200, Error: 0.011082046811093208
Epoch: 5300, Error: 0.009831681603515146
Epoch: 5400, Error: 0.009725702406376324
Epoch: 5500, Error: 0.009839079196814416
Epoch: 5600, Error: 0.009309378735956348
Epoch: 5700, Error: 0.010043417554710027
Epoch: 5800, Error: 0.00912425399921459
Epoch: 5900, Error: 0.009176500036038659
Epoch: 6000, Error: 0.009629606515124367
Epoch: 6100, Error: 0.009456244276427495
Epoch: 6200, Error: 0.008798681109093707
Epoch: 6300, Error: 0.008090284103135734
Epoch: 6400, Error: 0.008265285663821715
Epoch: 6500, Error: 0.009091854832185432
Epoch: 6600, Error: 0.00787710422978534
Epoch: 6700, Error: 0.007348607010114255
Epoch: 6800, Error: 0.007289064316745781
Epoch: 6900, Error: 0.007106134155165448
Epoch: 7000, Error: 0.0074964480015011275
Epoch: 7100, Error: 0.007006799114016846
Epoch: 7200, Error: 0.006988501189513478
Epoch: 7300, Error: 0.006831639406145581
Epoch: 7400, Error: 0.007014930543597728
Epoch: 7500, Error: 0.0064783153778426635
Epoch: 7600, Error: 0.005971199923416959
Epoch: 7700, Error: 0.006093889731369748
Epoch: 7800, Error: 0.005829815478954016
Epoch: 7900, Error: 0.0057168999991688
Epoch: 8000, Error: 0.005523497568791425
Epoch: 8100, Error: 0.005525209681979608
Epoch: 8200, Error: 0.005526029865626408
Epoch: 8300, Error: 0.005395360142858558
Epoch: 8400, Error: 0.005367082135070606
Epoch: 8500, Error: 0.005401740189869307
Epoch: 8600, Error: 0.005286633551598503
Epoch: 8700, Error: 0.0053021082282877574
Epoch: 8800, Error: 0.005269626596342732
Epoch: 8900, Error: 0.005306908214393175
Epoch: 9000, Error: 0.005795202653073034
Epoch: 9100, Error: 0.00524511687624694
Epoch: 9200, Error: 0.005243714801050323
Epoch: 9300, Error: 0.005323073222392202
Epoch: 9400, Error: 0.0053020822828677636
Epoch: 9500, Error: 0.00533077204347578
Epoch: 9600, Error: 0.005332423803594139
Epoch: 9700, Error: 0.005563433425936471
Epoch: 9800, Error: 0.005308510479134896
Epoch: 9900, Error: 0.00523683657819311
Epoch: 10000, Error: 0.0052795642453745606
Epoch: 10100, Error: 0.005271065809385832
Epoch: 10200, Error: 0.005204009790243879
Epoch: 10300, Error: 0.005185506915249162
Epoch: 10400, Error: 0.005196527501735697
Epoch: 10500, Error: 0.005200064279752237
Epoch: 10600, Error: 0.005175263645951153
Epoch: 10700, Error: 0.005136630820604821
Epoch: 10800, Error: 0.005125971679273398
Epoch: 10900, Error: 0.005085830137273392
Epoch: 11000, Error: 0.0049769457967461005
Epoch: 11100, Error: 0.004942569015577996
Epoch: 11200, Error: 0.004949216464356704
Epoch: 11300, Error: 0.004940091849158577
Epoch: 11400, Error: 0.004936449489613725
Epoch: 11500, Error: 0.004947683315495942
Epoch: 11600, Error: 0.004953196062523128
Epoch: 11700, Error: 0.0049470115491547055
Epoch: 11800, Error: 0.004943068210018686
Epoch: 11900, Error: 0.004937131864608965
Finished
