Input Patterns
0.224 0.624 0.067 0.043 
0.11 0.502 0.051 0.043 
0.196 0.667 0.067 0.043 
0.055 0.584 0.067 0.082 
0.027 0.376 0.067 0.043 
0.306 0.71 0.086 0.043 
0.137 0.416 0.067 0.0 
0.416 0.831 0.035 0.043 
0.306 0.792 0.051 0.125 
0.388 0.749 0.118 0.082 
0.306 0.584 0.118 0.043 
0.082 0.667 0.0 0.043 
0.137 0.584 0.153 0.043 
0.196 0.584 0.102 0.125 
0.251 0.584 0.067 0.043 
0.137 0.459 0.102 0.043 
0.251 0.875 0.086 0.0 
0.165 0.459 0.086 0.043 
0.333 0.624 0.051 0.043 
0.027 0.416 0.051 0.043 
0.196 0.624 0.051 0.082 
0.027 0.502 0.051 0.043 
0.224 0.749 0.153 0.125 
0.224 0.749 0.102 0.043 
0.278 0.71 0.086 0.043 
0.165 0.416 0.067 0.043 
0.082 0.459 0.086 0.043 
0.306 0.792 0.118 0.125 
0.196 0.584 0.086 0.043 
0.165 0.459 0.086 0.0 
0.137 0.584 0.102 0.043 
0.0 0.416 0.016 0.0 
0.388 1.0 0.086 0.125 
0.224 0.624 0.067 0.082 
0.224 0.749 0.086 0.082 
0.224 0.71 0.086 0.125 
0.224 0.541 0.118 0.165 
0.196 0.416 0.102 0.043 
0.251 0.624 0.086 0.043 
0.11 0.502 0.102 0.043 
0.306 0.584 0.086 0.125 
0.333 0.918 0.067 0.043 
0.196 0.502 0.035 0.043 
0.165 0.667 0.067 0.0 
0.224 0.584 0.086 0.043 
0.055 0.125 0.051 0.082 
0.196 0.624 0.102 0.208 
0.137 0.416 0.067 0.082 
0.082 0.502 0.067 0.043 
0.196 0.541 0.067 0.043 
0.749 0.502 0.627 0.541 
0.722 0.459 0.663 0.584 
0.612 0.333 0.612 0.584 
0.557 0.541 0.627 0.624 
0.639 0.376 0.612 0.498 
0.196 0.0 0.424 0.376 
0.471 0.082 0.51 0.376 
0.361 0.376 0.439 0.498 
0.361 0.416 0.592 0.584 
0.529 0.082 0.592 0.584 
0.443 0.502 0.643 0.459 
0.557 0.208 0.663 0.584 
0.584 0.376 0.561 0.498 
0.694 0.333 0.643 0.541 
0.471 0.376 0.592 0.584 
0.333 0.169 0.475 0.416 
0.416 0.29 0.49 0.459 
0.306 0.416 0.592 0.584 
0.667 0.459 0.627 0.584 
0.361 0.416 0.525 0.498 
0.333 0.251 0.576 0.459 
0.416 0.251 0.51 0.459 
0.361 0.29 0.541 0.498 
0.388 0.376 0.541 0.498 
0.224 0.208 0.337 0.416 
0.584 0.502 0.592 0.584 
0.333 0.125 0.51 0.498 
0.388 0.333 0.592 0.498 
0.165 0.169 0.388 0.376 
0.251 0.29 0.49 0.541 
0.443 0.416 0.541 0.584 
0.498 0.376 0.627 0.541 
0.667 0.459 0.576 0.541 
0.416 0.29 0.525 0.376 
0.361 0.208 0.49 0.416 
0.498 0.333 0.51 0.498 
0.498 0.333 0.627 0.459 
0.639 0.416 0.576 0.541 
0.667 0.416 0.678 0.667 
0.388 0.251 0.424 0.376 
0.333 0.169 0.459 0.376 
0.471 0.29 0.694 0.624 
0.471 0.584 0.592 0.624 
0.557 0.125 0.576 0.498 
0.333 0.208 0.51 0.498 
0.498 0.416 0.612 0.541 
0.196 0.125 0.388 0.376 
0.388 0.416 0.541 0.459 
0.529 0.376 0.561 0.498 
0.388 0.333 0.525 0.498 
0.557 0.541 0.847 1.0 
0.776 0.416 0.831 0.831 
0.612 0.416 0.812 0.875 
0.165 0.208 0.592 0.667 
0.667 0.208 0.812 0.71 
0.612 0.502 0.694 0.792 
0.694 0.416 0.761 0.831 
0.416 0.333 0.694 0.957 
0.612 0.416 0.761 0.71 
0.945 0.251 1.0 0.918 
0.722 0.502 0.796 0.918 
0.945 0.333 0.965 0.792 
0.667 0.541 0.796 0.831 
0.529 0.333 0.643 0.71 
0.584 0.333 0.78 0.831 
0.863 0.333 0.863 0.749 
0.584 0.333 0.78 0.875 
0.498 0.251 0.78 0.541 
0.557 0.584 0.78 0.957 
0.471 0.416 0.643 0.71 
0.667 0.459 0.78 0.957 
0.416 0.29 0.694 0.749 
0.667 0.541 0.796 1.0 
0.557 0.208 0.678 0.749 
0.529 0.584 0.745 0.918 
0.416 0.29 0.694 0.749 
0.557 0.376 0.78 0.71 
0.918 0.416 0.949 0.831 
0.835 0.376 0.898 0.71 
0.804 0.667 0.863 1.0 
0.584 0.29 0.729 0.749 
0.388 0.208 0.678 0.792 
0.584 0.502 0.729 0.918 
0.945 0.749 0.965 0.875 
0.471 0.082 0.678 0.584 
0.361 0.333 0.663 0.792 
0.557 0.29 0.663 0.71 
0.804 0.502 0.847 0.71 
0.498 0.416 0.51 0.71 
0.804 0.416 0.812 0.624 
1.0 0.749 0.914 0.792 
0.557 0.333 0.694 0.584 
0.945 0.416 0.863 0.918 
0.584 0.459 0.761 0.71 
0.722 0.459 0.745 0.831 
0.722 0.459 0.694 0.918 
0.694 0.502 0.831 0.918 
0.667 0.416 0.714 0.918 
0.612 0.416 0.714 0.792 
0.443 0.416 0.694 0.71 
Teaching Patterns
1.0 0.0 0.0 
1.0 0.0 0.0 
1.0 0.0 0.0 
1.0 0.0 0.0 
1.0 0.0 0.0 
1.0 0.0 0.0 
1.0 0.0 0.0 
1.0 0.0 0.0 
1.0 0.0 0.0 
1.0 0.0 0.0 
1.0 0.0 0.0 
1.0 0.0 0.0 
1.0 0.0 0.0 
1.0 0.0 0.0 
1.0 0.0 0.0 
1.0 0.0 0.0 
1.0 0.0 0.0 
1.0 0.0 0.0 
1.0 0.0 0.0 
1.0 0.0 0.0 
1.0 0.0 0.0 
1.0 0.0 0.0 
1.0 0.0 0.0 
1.0 0.0 0.0 
1.0 0.0 0.0 
1.0 0.0 0.0 
1.0 0.0 0.0 
1.0 0.0 0.0 
1.0 0.0 0.0 
1.0 0.0 0.0 
1.0 0.0 0.0 
1.0 0.0 0.0 
1.0 0.0 0.0 
1.0 0.0 0.0 
1.0 0.0 0.0 
1.0 0.0 0.0 
1.0 0.0 0.0 
1.0 0.0 0.0 
1.0 0.0 0.0 
1.0 0.0 0.0 
1.0 0.0 0.0 
1.0 0.0 0.0 
1.0 0.0 0.0 
1.0 0.0 0.0 
1.0 0.0 0.0 
1.0 0.0 0.0 
1.0 0.0 0.0 
1.0 0.0 0.0 
1.0 0.0 0.0 
1.0 0.0 0.0 
0.0 1.0 0.0 
0.0 1.0 0.0 
0.0 1.0 0.0 
0.0 1.0 0.0 
0.0 1.0 0.0 
0.0 1.0 0.0 
0.0 1.0 0.0 
0.0 1.0 0.0 
0.0 1.0 0.0 
0.0 1.0 0.0 
0.0 1.0 0.0 
0.0 1.0 0.0 
0.0 1.0 0.0 
0.0 1.0 0.0 
0.0 1.0 0.0 
0.0 1.0 0.0 
0.0 1.0 0.0 
0.0 1.0 0.0 
0.0 1.0 0.0 
0.0 1.0 0.0 
0.0 1.0 0.0 
0.0 1.0 0.0 
0.0 1.0 0.0 
0.0 1.0 0.0 
0.0 1.0 0.0 
0.0 1.0 0.0 
0.0 1.0 0.0 
0.0 1.0 0.0 
0.0 1.0 0.0 
0.0 1.0 0.0 
0.0 1.0 0.0 
0.0 1.0 0.0 
0.0 1.0 0.0 
0.0 1.0 0.0 
0.0 1.0 0.0 
0.0 1.0 0.0 
0.0 1.0 0.0 
0.0 1.0 0.0 
0.0 1.0 0.0 
0.0 1.0 0.0 
0.0 1.0 0.0 
0.0 1.0 0.0 
0.0 1.0 0.0 
0.0 1.0 0.0 
0.0 1.0 0.0 
0.0 1.0 0.0 
0.0 1.0 0.0 
0.0 1.0 0.0 
0.0 1.0 0.0 
0.0 1.0 0.0 
0.0 0.0 1.0 
0.0 0.0 1.0 
0.0 0.0 1.0 
0.0 0.0 1.0 
0.0 0.0 1.0 
0.0 0.0 1.0 
0.0 0.0 1.0 
0.0 0.0 1.0 
0.0 0.0 1.0 
0.0 0.0 1.0 
0.0 0.0 1.0 
0.0 0.0 1.0 
0.0 0.0 1.0 
0.0 0.0 1.0 
0.0 0.0 1.0 
0.0 0.0 1.0 
0.0 0.0 1.0 
0.0 0.0 1.0 
0.0 0.0 1.0 
0.0 0.0 1.0 
0.0 0.0 1.0 
0.0 0.0 1.0 
0.0 0.0 1.0 
0.0 0.0 1.0 
0.0 0.0 1.0 
0.0 0.0 1.0 
0.0 0.0 1.0 
0.0 0.0 1.0 
0.0 0.0 1.0 
0.0 0.0 1.0 
0.0 0.0 1.0 
0.0 0.0 1.0 
0.0 0.0 1.0 
0.0 0.0 1.0 
0.0 0.0 1.0 
0.0 0.0 1.0 
0.0 0.0 1.0 
0.0 0.0 1.0 
0.0 0.0 1.0 
0.0 0.0 1.0 
0.0 0.0 1.0 
0.0 0.0 1.0 
0.0 0.0 1.0 
0.0 0.0 1.0 
0.0 0.0 1.0 
0.0 0.0 1.0 
0.0 0.0 1.0 
0.0 0.0 1.0 
0.0 0.0 1.0 
0.0 0.0 1.0 
Learning : 0.44999998807907104
Momentum : 0.9
Epoch: 100, Error: 0.013385295433745914
Epoch: 200, Error: 0.013152068804438451
Epoch: 300, Error: 0.01482594269663354
Epoch: 400, Error: 0.012320202299755428
Epoch: 500, Error: 0.01245066457624175
Epoch: 600, Error: 0.012674871643967722
Epoch: 700, Error: 0.01564145945004021
Epoch: 800, Error: 0.012450120143566907
Epoch: 900, Error: 0.01306621208804505
Epoch: 1000, Error: 0.012358739420733553
Epoch: 1100, Error: 0.01248227087752684
Epoch: 1200, Error: 0.013740654189717275
Epoch: 1300, Error: 0.012430691922292498
Epoch: 1400, Error: 0.012539899536790805
Epoch: 1500, Error: 0.012997957520923952
Epoch: 1600, Error: 0.014727086660491884
Epoch: 1700, Error: 0.01270120270395146
Epoch: 1800, Error: 0.012516047107522039
Epoch: 1900, Error: 0.012360418826813074
Epoch: 2000, Error: 0.012170081456718428
Epoch: 2100, Error: 0.012240245505499295
Epoch: 2200, Error: 0.012228342086466068
Epoch: 2300, Error: 0.01223280522903549
Epoch: 2400, Error: 0.012201010874449272
Epoch: 2500, Error: 0.012180132028147316
Epoch: 2600, Error: 0.01207407351239644
Epoch: 2700, Error: 0.01394164884251174
Epoch: 2800, Error: 0.012383637179270953
Epoch: 2900, Error: 0.012196396753434693
Epoch: 3000, Error: 0.012335405314223719
Epoch: 3100, Error: 0.012692420978270278
Epoch: 3200, Error: 0.012104796864189393
Epoch: 3300, Error: 0.012398058205191189
Epoch: 3400, Error: 0.012006691251795695
Epoch: 3500, Error: 0.012200485766987653
Epoch: 3600, Error: 0.013218665544879467
Epoch: 3700, Error: 0.012133195251247378
Epoch: 3800, Error: 0.01205233251566594
Epoch: 3900, Error: 0.01210192598177826
Epoch: 4000, Error: 0.012703672152778124
Epoch: 4100, Error: 0.012046822228754693
Epoch: 4200, Error: 0.012083528528966459
Epoch: 4300, Error: 0.012019238275436916
Epoch: 4400, Error: 0.012381754758602788
Epoch: 4500, Error: 0.011877369563025268
Epoch: 4600, Error: 0.01186106173440481
Epoch: 4700, Error: 0.012121578299979929
Epoch: 4800, Error: 0.011900425044599091
Epoch: 4900, Error: 0.011935836066884637
Epoch: 5000, Error: 0.01183647835295836
Epoch: 5100, Error: 0.011970480171563795
Epoch: 5200, Error: 0.011915191000804693
Epoch: 5300, Error: 0.01181488054348811
Epoch: 5400, Error: 0.01359019500728662
Epoch: 5500, Error: 0.011807652708820249
Epoch: 5600, Error: 0.011817415518033536
Epoch: 5700, Error: 0.011212538724682801
Epoch: 5800, Error: 0.010568624899607285
Epoch: 5900, Error: 0.00916117216532005
Epoch: 6000, Error: 0.008405938993950582
Epoch: 6100, Error: 0.007947225651824376
Epoch: 6200, Error: 0.00843825759818699
Epoch: 6300, Error: 0.007426624747089174
Epoch: 6400, Error: 0.007032551986246715
Epoch: 6500, Error: 0.006899468958287975
Epoch: 6600, Error: 0.006756507472969714
Epoch: 6700, Error: 0.0067363039237047255
Epoch: 6800, Error: 0.0065378504764359675
Epoch: 6900, Error: 0.007221906066247766
Epoch: 7000, Error: 0.0065379013600785265
Epoch: 7100, Error: 0.006277218834766782
Epoch: 7200, Error: 0.0062414965430726155
Epoch: 7300, Error: 0.006819285634030876
Epoch: 7400, Error: 0.0060209240791793345
Epoch: 7500, Error: 0.0060526472609046195
Epoch: 7600, Error: 0.006100800333649084
Epoch: 7700, Error: 0.00588834192673033
Epoch: 7800, Error: 0.006108352518679716
Epoch: 7900, Error: 0.005767906351536983
Epoch: 8000, Error: 0.006225296155818124
Epoch: 8100, Error: 0.005890625510861716
Epoch: 8200, Error: 0.005649511713060114
Epoch: 8300, Error: 0.00576391868418624
Epoch: 8400, Error: 0.005842556090018787
Epoch: 8500, Error: 0.006195593636709846
Epoch: 8600, Error: 0.005772377219059961
Epoch: 8700, Error: 0.0059624795325298125
Epoch: 8800, Error: 0.005654572912775694
Epoch: 8900, Error: 0.0055870108237875546
Epoch: 9000, Error: 0.0055274658565654415
Epoch: 9100, Error: 0.005563226053972135
Epoch: 9200, Error: 0.005503532325787308
Epoch: 9300, Error: 0.005478654448480747
Epoch: 9400, Error: 0.005405641952772659
Epoch: 9500, Error: 0.005476527412091391
Epoch: 9600, Error: 0.005369581487173939
Epoch: 9700, Error: 0.005322594136899395
Epoch: 9800, Error: 0.005402639603689078
Epoch: 9900, Error: 0.005200490301052953
Epoch: 10000, Error: 0.005179228737252179
Epoch: 10100, Error: 0.005149379088500419
Epoch: 10200, Error: 0.005096245648150028
Epoch: 10300, Error: 0.005010114649294102
Epoch: 10400, Error: 0.004929346686695509
Epoch: 10500, Error: 0.004922710548863014
Epoch: 10600, Error: 0.004854902259568724
Epoch: 10700, Error: 0.004845951919481272
Epoch: 10800, Error: 0.004940952868421125
Epoch: 10900, Error: 0.004858988570810727
Epoch: 11000, Error: 0.004751375761734595
Epoch: 11100, Error: 0.0047413621801224316
Epoch: 11200, Error: 0.004707617586438995
Epoch: 11300, Error: 0.004720825809986403
Epoch: 11400, Error: 0.004726300761299852
Epoch: 11500, Error: 0.004695156952446532
Epoch: 11600, Error: 0.0046137226275659
Epoch: 11700, Error: 0.004679984419800967
Epoch: 11800, Error: 0.004596065772299896
Epoch: 11900, Error: 0.004545794567349173
Epoch: 12000, Error: 0.0044490843368902785
Epoch: 12100, Error: 0.004405490411363122
Epoch: 12200, Error: 0.004429029379067197
Epoch: 12300, Error: 0.004105851244284992
Epoch: 12400, Error: 0.003945255916098241
Epoch: 12500, Error: 0.0038987314411136763
Epoch: 12600, Error: 0.0037383788425323144
Epoch: 12700, Error: 0.0036401562090302925
Epoch: 12800, Error: 0.003492311314429853
Epoch: 12900, Error: 0.003871883658309858
Epoch: 13000, Error: 0.0030407177441365498
Epoch: 13100, Error: 0.003013899962074476
Epoch: 13200, Error: 0.0027598092311068353
Epoch: 13300, Error: 0.0037180399220480107
Epoch: 13400, Error: 0.0020857657564487034
Epoch: 13500, Error: 0.002078114355302462
Epoch: 13600, Error: 0.0017629411436745686
Epoch: 13700, Error: 0.0017885631046837558
Epoch: 13800, Error: 0.0025890043158837833
Epoch: 13900, Error: 0.0013067367228317254
Epoch: 14000, Error: 0.0014078406972082328
Epoch: 14100, Error: 0.001240802143419235
Epoch: 14200, Error: 0.0011382625163821052
Epoch: 14300, Error: 0.0010341323272606304
Epoch: 14400, Error: 0.001055172307048779
Epoch: 14500, Error: 9.435546638257019E-4
Epoch: 14600, Error: 8.612551763000987E-4
Epoch: 14700, Error: 8.128168964336999E-4
Epoch: 14800, Error: 8.86315322672091E-4
Epoch: 14900, Error: 7.702183645049792E-4
Epoch: 15000, Error: 8.256005702356528E-4
Epoch: 15100, Error: 7.34802841407015E-4
Epoch: 15200, Error: 7.162897806694459E-4
Epoch: 15300, Error: 6.805535108821703E-4
Epoch: 15400, Error: 6.852463154613606E-4
Epoch: 15500, Error: 6.621627698861425E-4
Epoch: 15600, Error: 6.436210214044669E-4
Epoch: 15700, Error: 6.260040459177764E-4
Epoch: 15800, Error: 6.26264192474412E-4
Epoch: 15900, Error: 6.664579643945267E-4
Epoch: 16000, Error: 6.295900474501807E-4
Epoch: 16100, Error: 6.775060972698975E-4
Epoch: 16200, Error: 6.716226811019461E-4
Epoch: 16300, Error: 6.1992202566475E-4
Epoch: 16400, Error: 6.178480698219009E-4
Epoch: 16500, Error: 6.102600925570692E-4
Epoch: 16600, Error: 6.238022438334496E-4
Epoch: 16700, Error: 6.310948840440428E-4
Epoch: 16800, Error: 6.434934393430602E-4
Epoch: 16900, Error: 6.37451667324823E-4
Epoch: 17000, Error: 6.489592772802164E-4
Epoch: 17100, Error: 6.154063592474454E-4
Epoch: 17200, Error: 5.822200155298681E-4
Epoch: 17300, Error: 5.843680868284678E-4
Epoch: 17400, Error: 5.504679901620729E-4
Epoch: 17500, Error: 5.55909398386877E-4
Epoch: 17600, Error: 5.959326967802971E-4
Epoch: 17700, Error: 6.107150012274531E-4
Epoch: 17800, Error: 6.342480713186089E-4
Epoch: 17900, Error: 6.604210374426032E-4
Epoch: 18000, Error: 6.665027861856392E-4
Epoch: 18100, Error: 6.582060869845604E-4
Epoch: 18200, Error: 6.690336956895438E-4
Epoch: 18300, Error: 6.693919992071764E-4
Epoch: 18400, Error: 6.466295055744379E-4
Epoch: 18500, Error: 6.558361186483371E-4
Epoch: 18600, Error: 6.216718994585855E-4
Epoch: 18700, Error: 6.164420720813558E-4
Epoch: 18800, Error: 6.085485459841861E-4
Epoch: 18900, Error: 6.042519064909482E-4
Epoch: 19000, Error: 6.027100255860783E-4
Epoch: 19100, Error: 5.957991529345819E-4
Epoch: 19200, Error: 6.100117441921711E-4
Epoch: 19300, Error: 5.924620768345876E-4
Epoch: 19400, Error: 6.069941458326235E-4
Epoch: 19500, Error: 6.001936269088422E-4
Epoch: 19600, Error: 5.762227121595053E-4
Epoch: 19700, Error: 5.923899954514576E-4
Epoch: 19800, Error: 5.662846664539781E-4
Finished
