Input Patterns
0.224 0.624 0.067 0.043 
0.11 0.502 0.051 0.043 
0.196 0.667 0.067 0.043 
0.055 0.584 0.067 0.082 
0.027 0.376 0.067 0.043 
0.306 0.71 0.086 0.043 
0.137 0.416 0.067 0.0 
0.416 0.831 0.035 0.043 
0.306 0.792 0.051 0.125 
0.388 0.749 0.118 0.082 
0.306 0.584 0.118 0.043 
0.082 0.667 0.0 0.043 
0.137 0.584 0.153 0.043 
0.196 0.584 0.102 0.125 
0.251 0.584 0.067 0.043 
0.137 0.459 0.102 0.043 
0.251 0.875 0.086 0.0 
0.165 0.459 0.086 0.043 
0.333 0.624 0.051 0.043 
0.027 0.416 0.051 0.043 
0.196 0.624 0.051 0.082 
0.027 0.502 0.051 0.043 
0.224 0.749 0.153 0.125 
0.224 0.749 0.102 0.043 
0.278 0.71 0.086 0.043 
0.165 0.416 0.067 0.043 
0.082 0.459 0.086 0.043 
0.306 0.792 0.118 0.125 
0.196 0.584 0.086 0.043 
0.165 0.459 0.086 0.0 
0.137 0.584 0.102 0.043 
0.0 0.416 0.016 0.0 
0.388 1.0 0.086 0.125 
0.224 0.624 0.067 0.082 
0.224 0.749 0.086 0.082 
0.224 0.71 0.086 0.125 
0.224 0.541 0.118 0.165 
0.196 0.416 0.102 0.043 
0.251 0.624 0.086 0.043 
0.11 0.502 0.102 0.043 
0.306 0.584 0.086 0.125 
0.333 0.918 0.067 0.043 
0.196 0.502 0.035 0.043 
0.165 0.667 0.067 0.0 
0.224 0.584 0.086 0.043 
0.055 0.125 0.051 0.082 
0.196 0.624 0.102 0.208 
0.137 0.416 0.067 0.082 
0.082 0.502 0.067 0.043 
0.196 0.541 0.067 0.043 
0.749 0.502 0.627 0.541 
0.722 0.459 0.663 0.584 
0.612 0.333 0.612 0.584 
0.557 0.541 0.627 0.624 
0.639 0.376 0.612 0.498 
0.196 0.0 0.424 0.376 
0.471 0.082 0.51 0.376 
0.361 0.376 0.439 0.498 
0.361 0.416 0.592 0.584 
0.529 0.082 0.592 0.584 
0.443 0.502 0.643 0.459 
0.557 0.208 0.663 0.584 
0.584 0.376 0.561 0.498 
0.694 0.333 0.643 0.541 
0.471 0.376 0.592 0.584 
0.333 0.169 0.475 0.416 
0.416 0.29 0.49 0.459 
0.306 0.416 0.592 0.584 
0.667 0.459 0.627 0.584 
0.361 0.416 0.525 0.498 
0.333 0.251 0.576 0.459 
0.416 0.251 0.51 0.459 
0.361 0.29 0.541 0.498 
0.388 0.376 0.541 0.498 
0.224 0.208 0.337 0.416 
0.584 0.502 0.592 0.584 
0.333 0.125 0.51 0.498 
0.388 0.333 0.592 0.498 
0.165 0.169 0.388 0.376 
0.251 0.29 0.49 0.541 
0.443 0.416 0.541 0.584 
0.498 0.376 0.627 0.541 
0.667 0.459 0.576 0.541 
0.416 0.29 0.525 0.376 
0.361 0.208 0.49 0.416 
0.498 0.333 0.51 0.498 
0.498 0.333 0.627 0.459 
0.639 0.416 0.576 0.541 
0.667 0.416 0.678 0.667 
0.388 0.251 0.424 0.376 
0.333 0.169 0.459 0.376 
0.471 0.29 0.694 0.624 
0.471 0.584 0.592 0.624 
0.557 0.125 0.576 0.498 
0.333 0.208 0.51 0.498 
0.498 0.416 0.612 0.541 
0.196 0.125 0.388 0.376 
0.388 0.416 0.541 0.459 
0.529 0.376 0.561 0.498 
0.388 0.333 0.525 0.498 
0.557 0.541 0.847 1.0 
0.776 0.416 0.831 0.831 
0.612 0.416 0.812 0.875 
0.165 0.208 0.592 0.667 
0.667 0.208 0.812 0.71 
0.612 0.502 0.694 0.792 
0.694 0.416 0.761 0.831 
0.416 0.333 0.694 0.957 
0.612 0.416 0.761 0.71 
0.945 0.251 1.0 0.918 
0.722 0.502 0.796 0.918 
0.945 0.333 0.965 0.792 
0.667 0.541 0.796 0.831 
0.529 0.333 0.643 0.71 
0.584 0.333 0.78 0.831 
0.863 0.333 0.863 0.749 
0.584 0.333 0.78 0.875 
0.498 0.251 0.78 0.541 
0.557 0.584 0.78 0.957 
0.471 0.416 0.643 0.71 
0.667 0.459 0.78 0.957 
0.416 0.29 0.694 0.749 
0.667 0.541 0.796 1.0 
0.557 0.208 0.678 0.749 
0.529 0.584 0.745 0.918 
0.416 0.29 0.694 0.749 
0.557 0.376 0.78 0.71 
0.918 0.416 0.949 0.831 
0.835 0.376 0.898 0.71 
0.804 0.667 0.863 1.0 
0.584 0.29 0.729 0.749 
0.388 0.208 0.678 0.792 
0.584 0.502 0.729 0.918 
0.945 0.749 0.965 0.875 
0.471 0.082 0.678 0.584 
0.361 0.333 0.663 0.792 
0.557 0.29 0.663 0.71 
0.804 0.502 0.847 0.71 
0.498 0.416 0.51 0.71 
0.804 0.416 0.812 0.624 
1.0 0.749 0.914 0.792 
0.557 0.333 0.694 0.584 
0.945 0.416 0.863 0.918 
0.584 0.459 0.761 0.71 
0.722 0.459 0.745 0.831 
0.722 0.459 0.694 0.918 
0.694 0.502 0.831 0.918 
0.667 0.416 0.714 0.918 
0.612 0.416 0.714 0.792 
0.443 0.416 0.694 0.71 
Teaching Patterns
1.0 0.0 0.0 
1.0 0.0 0.0 
1.0 0.0 0.0 
1.0 0.0 0.0 
1.0 0.0 0.0 
1.0 0.0 0.0 
1.0 0.0 0.0 
1.0 0.0 0.0 
1.0 0.0 0.0 
1.0 0.0 0.0 
1.0 0.0 0.0 
1.0 0.0 0.0 
1.0 0.0 0.0 
1.0 0.0 0.0 
1.0 0.0 0.0 
1.0 0.0 0.0 
1.0 0.0 0.0 
1.0 0.0 0.0 
1.0 0.0 0.0 
1.0 0.0 0.0 
1.0 0.0 0.0 
1.0 0.0 0.0 
1.0 0.0 0.0 
1.0 0.0 0.0 
1.0 0.0 0.0 
1.0 0.0 0.0 
1.0 0.0 0.0 
1.0 0.0 0.0 
1.0 0.0 0.0 
1.0 0.0 0.0 
1.0 0.0 0.0 
1.0 0.0 0.0 
1.0 0.0 0.0 
1.0 0.0 0.0 
1.0 0.0 0.0 
1.0 0.0 0.0 
1.0 0.0 0.0 
1.0 0.0 0.0 
1.0 0.0 0.0 
1.0 0.0 0.0 
1.0 0.0 0.0 
1.0 0.0 0.0 
1.0 0.0 0.0 
1.0 0.0 0.0 
1.0 0.0 0.0 
1.0 0.0 0.0 
1.0 0.0 0.0 
1.0 0.0 0.0 
1.0 0.0 0.0 
1.0 0.0 0.0 
0.0 1.0 0.0 
0.0 1.0 0.0 
0.0 1.0 0.0 
0.0 1.0 0.0 
0.0 1.0 0.0 
0.0 1.0 0.0 
0.0 1.0 0.0 
0.0 1.0 0.0 
0.0 1.0 0.0 
0.0 1.0 0.0 
0.0 1.0 0.0 
0.0 1.0 0.0 
0.0 1.0 0.0 
0.0 1.0 0.0 
0.0 1.0 0.0 
0.0 1.0 0.0 
0.0 1.0 0.0 
0.0 1.0 0.0 
0.0 1.0 0.0 
0.0 1.0 0.0 
0.0 1.0 0.0 
0.0 1.0 0.0 
0.0 1.0 0.0 
0.0 1.0 0.0 
0.0 1.0 0.0 
0.0 1.0 0.0 
0.0 1.0 0.0 
0.0 1.0 0.0 
0.0 1.0 0.0 
0.0 1.0 0.0 
0.0 1.0 0.0 
0.0 1.0 0.0 
0.0 1.0 0.0 
0.0 1.0 0.0 
0.0 1.0 0.0 
0.0 1.0 0.0 
0.0 1.0 0.0 
0.0 1.0 0.0 
0.0 1.0 0.0 
0.0 1.0 0.0 
0.0 1.0 0.0 
0.0 1.0 0.0 
0.0 1.0 0.0 
0.0 1.0 0.0 
0.0 1.0 0.0 
0.0 1.0 0.0 
0.0 1.0 0.0 
0.0 1.0 0.0 
0.0 1.0 0.0 
0.0 1.0 0.0 
0.0 0.0 1.0 
0.0 0.0 1.0 
0.0 0.0 1.0 
0.0 0.0 1.0 
0.0 0.0 1.0 
0.0 0.0 1.0 
0.0 0.0 1.0 
0.0 0.0 1.0 
0.0 0.0 1.0 
0.0 0.0 1.0 
0.0 0.0 1.0 
0.0 0.0 1.0 
0.0 0.0 1.0 
0.0 0.0 1.0 
0.0 0.0 1.0 
0.0 0.0 1.0 
0.0 0.0 1.0 
0.0 0.0 1.0 
0.0 0.0 1.0 
0.0 0.0 1.0 
0.0 0.0 1.0 
0.0 0.0 1.0 
0.0 0.0 1.0 
0.0 0.0 1.0 
0.0 0.0 1.0 
0.0 0.0 1.0 
0.0 0.0 1.0 
0.0 0.0 1.0 
0.0 0.0 1.0 
0.0 0.0 1.0 
0.0 0.0 1.0 
0.0 0.0 1.0 
0.0 0.0 1.0 
0.0 0.0 1.0 
0.0 0.0 1.0 
0.0 0.0 1.0 
0.0 0.0 1.0 
0.0 0.0 1.0 
0.0 0.0 1.0 
0.0 0.0 1.0 
0.0 0.0 1.0 
0.0 0.0 1.0 
0.0 0.0 1.0 
0.0 0.0 1.0 
0.0 0.0 1.0 
0.0 0.0 1.0 
0.0 0.0 1.0 
0.0 0.0 1.0 
0.0 0.0 1.0 
0.0 0.0 1.0 
Learning : 0.550000011920929
Momentum : 0.9
Epoch: 100, Error: 0.013210253163841093
Epoch: 200, Error: 0.012274097893633746
Epoch: 300, Error: 0.016887134730459087
Epoch: 400, Error: 0.012437837684767465
Epoch: 500, Error: 0.013488941945698323
Epoch: 600, Error: 0.012410367905507353
Epoch: 700, Error: 0.012735943779678108
Epoch: 800, Error: 0.012514904117296569
Epoch: 900, Error: 0.01200235306031278
Epoch: 1000, Error: 0.013600901244787123
Epoch: 1100, Error: 0.0121786779823372
Epoch: 1200, Error: 0.011834410585237064
Epoch: 1300, Error: 0.011776140384294122
Epoch: 1400, Error: 0.011759640955758289
Epoch: 1500, Error: 0.011723236768775501
Epoch: 1600, Error: 0.012458598619651031
Epoch: 1700, Error: 0.013128945054199566
Epoch: 1800, Error: 0.011482821395784432
Epoch: 1900, Error: 0.011552041071148543
Epoch: 2000, Error: 0.012093494200942972
Epoch: 2100, Error: 0.011874503064939182
Epoch: 2200, Error: 0.011145410824805892
Epoch: 2300, Error: 0.011199364607166947
Epoch: 2400, Error: 0.010540759991764102
Epoch: 2500, Error: 0.010656958501745153
Epoch: 2600, Error: 0.00966649358008065
Epoch: 2700, Error: 0.008507447758925075
Epoch: 2800, Error: 0.00795211383078865
Epoch: 2900, Error: 0.008124666525798985
Epoch: 3000, Error: 0.006356331983653401
Epoch: 3100, Error: 0.006608061894868767
Epoch: 3200, Error: 0.005849026111314073
Epoch: 3300, Error: 0.0058569955367373
Epoch: 3400, Error: 0.00555692561091868
Epoch: 3500, Error: 0.005518709826464291
Epoch: 3600, Error: 0.0056671959872811465
Epoch: 3700, Error: 0.005538211440837637
Epoch: 3800, Error: 0.005408029990299096
Epoch: 3900, Error: 0.005443252331195995
Epoch: 4000, Error: 0.005379609177366908
Epoch: 4100, Error: 0.005370886766084181
Epoch: 4200, Error: 0.005352041662615722
Epoch: 4300, Error: 0.005322114485122466
Epoch: 4400, Error: 0.005308918156332016
Epoch: 4500, Error: 0.005372038076960337
Epoch: 4600, Error: 0.005296125068731995
Epoch: 4700, Error: 0.005322697847132539
Epoch: 4800, Error: 0.005343037440080117
Epoch: 4900, Error: 0.005267577673673079
Epoch: 5000, Error: 0.005274936531799566
Epoch: 5100, Error: 0.005302117608546726
Epoch: 5200, Error: 0.0052783255915402495
Epoch: 5300, Error: 0.005235629362716521
Epoch: 5400, Error: 0.005239814694155737
Epoch: 5500, Error: 0.005220287600555286
Epoch: 5600, Error: 0.005243467164225387
Epoch: 5700, Error: 0.005234497798486682
Epoch: 5800, Error: 0.00521679398378829
Epoch: 5900, Error: 0.00522736687089942
Epoch: 6000, Error: 0.005236648568561321
Epoch: 6100, Error: 0.00519017142834822
Epoch: 6200, Error: 0.005246226154126506
Epoch: 6300, Error: 0.005184043827480602
Epoch: 6400, Error: 0.0052236634727618764
Epoch: 6500, Error: 0.005229739319507452
Epoch: 6600, Error: 0.005193285779560517
Epoch: 6700, Error: 0.005157944379364617
Epoch: 6800, Error: 0.005093645820456614
Epoch: 6900, Error: 0.005225393459743978
Epoch: 7000, Error: 0.005121538542054854
Epoch: 7100, Error: 0.005275370644734794
Epoch: 7200, Error: 0.00510168152072459
Epoch: 7300, Error: 0.005020417896499625
Epoch: 7400, Error: 0.005250990097596715
Epoch: 7500, Error: 0.005154285152551349
Epoch: 7600, Error: 0.005025762379237261
Epoch: 7700, Error: 0.004908080606967015
Epoch: 7800, Error: 0.0057067306714721645
Epoch: 7900, Error: 0.0047015202536367755
Epoch: 8000, Error: 0.004742280863493912
Epoch: 8100, Error: 0.005055788634296405
Epoch: 8200, Error: 0.0045213571972729715
Epoch: 8300, Error: 0.0048688537566962484
Epoch: 8400, Error: 0.0045660452446848855
Epoch: 8500, Error: 0.004634604643891268
Epoch: 8600, Error: 0.0038933886194832314
Epoch: 8700, Error: 0.003904656650185103
Epoch: 8800, Error: 0.005682424621400079
Epoch: 8900, Error: 0.004347940358790246
Epoch: 9000, Error: 0.005844912726767064
Epoch: 9100, Error: 0.004266405397231346
Epoch: 9200, Error: 0.0033685872678529214
Epoch: 9300, Error: 0.0035841487172090687
Epoch: 9400, Error: 0.006663133387548361
Epoch: 9500, Error: 0.007377847281274164
Epoch: 9600, Error: 0.005345572778511836
Epoch: 9700, Error: 0.00396978103110031
Epoch: 9800, Error: 0.0054733648146489166
Epoch: 9900, Error: 0.004241906860095313
Epoch: 10000, Error: 0.002457037607905133
Epoch: 10100, Error: 0.002221890454597942
Epoch: 10200, Error: 0.002575572192017117
Epoch: 10300, Error: 0.0022243797416538705
Epoch: 10400, Error: 0.0025731688961623264
Epoch: 10500, Error: 0.0052807033858067905
Epoch: 10600, Error: 0.0033999267928651496
Epoch: 10700, Error: 0.0066653043766910025
Epoch: 10800, Error: 0.0060344419239025835
Epoch: 10900, Error: 0.0031558519222733396
Epoch: 11000, Error: 0.0015720295388532788
Epoch: 11100, Error: 0.0017883453834973589
Epoch: 11200, Error: 0.0017310145744652784
Epoch: 11300, Error: 0.001476515819107964
Epoch: 11400, Error: 0.0014679856904688821
Epoch: 11500, Error: 0.0015228070732129849
Epoch: 11600, Error: 0.00147826032964608
Epoch: 11700, Error: 0.0014441578964946786
Epoch: 11800, Error: 0.0015480314576856113
Epoch: 11900, Error: 0.0015007460132743346
Epoch: 12000, Error: 0.0014011940251627386
Epoch: 12100, Error: 0.0013735347478545225
Epoch: 12200, Error: 0.001372405635102276
Epoch: 12300, Error: 0.0013806706652622668
Epoch: 12400, Error: 0.0014003430852466434
Epoch: 12500, Error: 0.0014472410853942127
Epoch: 12600, Error: 0.0014456940997998715
Epoch: 12700, Error: 0.0014437124399672638
Epoch: 12800, Error: 0.001463134928738201
Epoch: 12900, Error: 0.001447895356311407
Epoch: 13000, Error: 0.0014233682238809782
Epoch: 13100, Error: 0.001426903119888341
Epoch: 13200, Error: 0.0014123144496064803
Epoch: 13300, Error: 0.001400624968301898
Epoch: 13400, Error: 0.0014009449824406496
Epoch: 13500, Error: 0.001378709159563219
Epoch: 13600, Error: 0.0014355921064148004
Epoch: 13700, Error: 0.0013892406263503873
Epoch: 13800, Error: 0.0013124677686222105
Epoch: 13900, Error: 0.0013093734226295205
Epoch: 14000, Error: 0.0013077714783259029
Epoch: 14100, Error: 0.0012892865139902691
Epoch: 14200, Error: 0.0012699877069653374
Epoch: 14300, Error: 0.0012521491218722505
Epoch: 14400, Error: 0.0012673882150589194
Epoch: 14500, Error: 0.0012512750309234036
Epoch: 14600, Error: 0.0012751685010934845
Epoch: 14700, Error: 0.001205773904885362
Epoch: 14800, Error: 0.0012223094756432036
Epoch: 14900, Error: 0.0012162020141061383
Epoch: 15000, Error: 0.0012360317925706249
Epoch: 15100, Error: 0.001244134425191272
Epoch: 15200, Error: 0.0012678115283288795
Epoch: 15300, Error: 0.0012842232348747513
Epoch: 15400, Error: 0.0012816712878658497
Epoch: 15500, Error: 0.0012788759031534
Epoch: 15600, Error: 0.001252407990015632
Epoch: 15700, Error: 0.00128147501206664
Epoch: 15800, Error: 0.0012679870553217855
Epoch: 15900, Error: 0.001239379722304526
Epoch: 16000, Error: 0.0012336842152477223
Epoch: 16100, Error: 0.0012393303526558245
Epoch: 16200, Error: 0.0012064027541618058
Epoch: 16300, Error: 0.0011987923392190332
Epoch: 16400, Error: 0.0012044736213550854
Epoch: 16500, Error: 0.0012678505956997984
Epoch: 16600, Error: 0.0011449203046668775
Epoch: 16700, Error: 0.0011346207002940199
Epoch: 16800, Error: 0.001115520878762755
Epoch: 16900, Error: 0.0011013840243580904
Epoch: 17000, Error: 0.0011024958592989183
Epoch: 17100, Error: 0.001117067540602167
Epoch: 17200, Error: 0.0011058865487479242
Epoch: 17300, Error: 0.0010995663909358008
Epoch: 17400, Error: 0.001113349908325617
Epoch: 17500, Error: 0.0011132713152546777
Epoch: 17600, Error: 0.0010800578595719867
Epoch: 17700, Error: 0.0010888875794954672
Epoch: 17800, Error: 0.0010849211185607161
Epoch: 17900, Error: 0.0010693701164547831
Epoch: 18000, Error: 0.0010375885774870637
Epoch: 18100, Error: 0.0010488324665669491
Epoch: 18200, Error: 0.0010612531061634743
Finished
