Input Patterns
0.224 0.624 0.067 0.043 
0.11 0.502 0.051 0.043 
0.196 0.667 0.067 0.043 
0.055 0.584 0.067 0.082 
0.027 0.376 0.067 0.043 
0.306 0.71 0.086 0.043 
0.137 0.416 0.067 0.0 
0.416 0.831 0.035 0.043 
0.306 0.792 0.051 0.125 
0.388 0.749 0.118 0.082 
0.306 0.584 0.118 0.043 
0.082 0.667 0.0 0.043 
0.137 0.584 0.153 0.043 
0.196 0.584 0.102 0.125 
0.251 0.584 0.067 0.043 
0.137 0.459 0.102 0.043 
0.251 0.875 0.086 0.0 
0.165 0.459 0.086 0.043 
0.333 0.624 0.051 0.043 
0.027 0.416 0.051 0.043 
0.196 0.624 0.051 0.082 
0.027 0.502 0.051 0.043 
0.224 0.749 0.153 0.125 
0.224 0.749 0.102 0.043 
0.278 0.71 0.086 0.043 
0.165 0.416 0.067 0.043 
0.082 0.459 0.086 0.043 
0.306 0.792 0.118 0.125 
0.196 0.584 0.086 0.043 
0.165 0.459 0.086 0.0 
0.137 0.584 0.102 0.043 
0.0 0.416 0.016 0.0 
0.388 1.0 0.086 0.125 
0.224 0.624 0.067 0.082 
0.224 0.749 0.086 0.082 
0.224 0.71 0.086 0.125 
0.224 0.541 0.118 0.165 
0.196 0.416 0.102 0.043 
0.251 0.624 0.086 0.043 
0.11 0.502 0.102 0.043 
0.306 0.584 0.086 0.125 
0.333 0.918 0.067 0.043 
0.196 0.502 0.035 0.043 
0.165 0.667 0.067 0.0 
0.224 0.584 0.086 0.043 
0.055 0.125 0.051 0.082 
0.196 0.624 0.102 0.208 
0.137 0.416 0.067 0.082 
0.082 0.502 0.067 0.043 
0.196 0.541 0.067 0.043 
0.749 0.502 0.627 0.541 
0.722 0.459 0.663 0.584 
0.612 0.333 0.612 0.584 
0.557 0.541 0.627 0.624 
0.639 0.376 0.612 0.498 
0.196 0.0 0.424 0.376 
0.471 0.082 0.51 0.376 
0.361 0.376 0.439 0.498 
0.361 0.416 0.592 0.584 
0.529 0.082 0.592 0.584 
0.443 0.502 0.643 0.459 
0.557 0.208 0.663 0.584 
0.584 0.376 0.561 0.498 
0.694 0.333 0.643 0.541 
0.471 0.376 0.592 0.584 
0.333 0.169 0.475 0.416 
0.416 0.29 0.49 0.459 
0.306 0.416 0.592 0.584 
0.667 0.459 0.627 0.584 
0.361 0.416 0.525 0.498 
0.333 0.251 0.576 0.459 
0.416 0.251 0.51 0.459 
0.361 0.29 0.541 0.498 
0.388 0.376 0.541 0.498 
0.224 0.208 0.337 0.416 
0.584 0.502 0.592 0.584 
0.333 0.125 0.51 0.498 
0.388 0.333 0.592 0.498 
0.165 0.169 0.388 0.376 
0.251 0.29 0.49 0.541 
0.443 0.416 0.541 0.584 
0.498 0.376 0.627 0.541 
0.667 0.459 0.576 0.541 
0.416 0.29 0.525 0.376 
0.361 0.208 0.49 0.416 
0.498 0.333 0.51 0.498 
0.498 0.333 0.627 0.459 
0.639 0.416 0.576 0.541 
0.667 0.416 0.678 0.667 
0.388 0.251 0.424 0.376 
0.333 0.169 0.459 0.376 
0.471 0.29 0.694 0.624 
0.471 0.584 0.592 0.624 
0.557 0.125 0.576 0.498 
0.333 0.208 0.51 0.498 
0.498 0.416 0.612 0.541 
0.196 0.125 0.388 0.376 
0.388 0.416 0.541 0.459 
0.529 0.376 0.561 0.498 
0.388 0.333 0.525 0.498 
0.557 0.541 0.847 1.0 
0.776 0.416 0.831 0.831 
0.612 0.416 0.812 0.875 
0.165 0.208 0.592 0.667 
0.667 0.208 0.812 0.71 
0.612 0.502 0.694 0.792 
0.694 0.416 0.761 0.831 
0.416 0.333 0.694 0.957 
0.612 0.416 0.761 0.71 
0.945 0.251 1.0 0.918 
0.722 0.502 0.796 0.918 
0.945 0.333 0.965 0.792 
0.667 0.541 0.796 0.831 
0.529 0.333 0.643 0.71 
0.584 0.333 0.78 0.831 
0.863 0.333 0.863 0.749 
0.584 0.333 0.78 0.875 
0.498 0.251 0.78 0.541 
0.557 0.584 0.78 0.957 
0.471 0.416 0.643 0.71 
0.667 0.459 0.78 0.957 
0.416 0.29 0.694 0.749 
0.667 0.541 0.796 1.0 
0.557 0.208 0.678 0.749 
0.529 0.584 0.745 0.918 
0.416 0.29 0.694 0.749 
0.557 0.376 0.78 0.71 
0.918 0.416 0.949 0.831 
0.835 0.376 0.898 0.71 
0.804 0.667 0.863 1.0 
0.584 0.29 0.729 0.749 
0.388 0.208 0.678 0.792 
0.584 0.502 0.729 0.918 
0.945 0.749 0.965 0.875 
0.471 0.082 0.678 0.584 
0.361 0.333 0.663 0.792 
0.557 0.29 0.663 0.71 
0.804 0.502 0.847 0.71 
0.498 0.416 0.51 0.71 
0.804 0.416 0.812 0.624 
1.0 0.749 0.914 0.792 
0.557 0.333 0.694 0.584 
0.945 0.416 0.863 0.918 
0.584 0.459 0.761 0.71 
0.722 0.459 0.745 0.831 
0.722 0.459 0.694 0.918 
0.694 0.502 0.831 0.918 
0.667 0.416 0.714 0.918 
0.612 0.416 0.714 0.792 
0.443 0.416 0.694 0.71 
Teaching Patterns
1.0 0.0 0.0 
1.0 0.0 0.0 
1.0 0.0 0.0 
1.0 0.0 0.0 
1.0 0.0 0.0 
1.0 0.0 0.0 
1.0 0.0 0.0 
1.0 0.0 0.0 
1.0 0.0 0.0 
1.0 0.0 0.0 
1.0 0.0 0.0 
1.0 0.0 0.0 
1.0 0.0 0.0 
1.0 0.0 0.0 
1.0 0.0 0.0 
1.0 0.0 0.0 
1.0 0.0 0.0 
1.0 0.0 0.0 
1.0 0.0 0.0 
1.0 0.0 0.0 
1.0 0.0 0.0 
1.0 0.0 0.0 
1.0 0.0 0.0 
1.0 0.0 0.0 
1.0 0.0 0.0 
1.0 0.0 0.0 
1.0 0.0 0.0 
1.0 0.0 0.0 
1.0 0.0 0.0 
1.0 0.0 0.0 
1.0 0.0 0.0 
1.0 0.0 0.0 
1.0 0.0 0.0 
1.0 0.0 0.0 
1.0 0.0 0.0 
1.0 0.0 0.0 
1.0 0.0 0.0 
1.0 0.0 0.0 
1.0 0.0 0.0 
1.0 0.0 0.0 
1.0 0.0 0.0 
1.0 0.0 0.0 
1.0 0.0 0.0 
1.0 0.0 0.0 
1.0 0.0 0.0 
1.0 0.0 0.0 
1.0 0.0 0.0 
1.0 0.0 0.0 
1.0 0.0 0.0 
1.0 0.0 0.0 
0.0 1.0 0.0 
0.0 1.0 0.0 
0.0 1.0 0.0 
0.0 1.0 0.0 
0.0 1.0 0.0 
0.0 1.0 0.0 
0.0 1.0 0.0 
0.0 1.0 0.0 
0.0 1.0 0.0 
0.0 1.0 0.0 
0.0 1.0 0.0 
0.0 1.0 0.0 
0.0 1.0 0.0 
0.0 1.0 0.0 
0.0 1.0 0.0 
0.0 1.0 0.0 
0.0 1.0 0.0 
0.0 1.0 0.0 
0.0 1.0 0.0 
0.0 1.0 0.0 
0.0 1.0 0.0 
0.0 1.0 0.0 
0.0 1.0 0.0 
0.0 1.0 0.0 
0.0 1.0 0.0 
0.0 1.0 0.0 
0.0 1.0 0.0 
0.0 1.0 0.0 
0.0 1.0 0.0 
0.0 1.0 0.0 
0.0 1.0 0.0 
0.0 1.0 0.0 
0.0 1.0 0.0 
0.0 1.0 0.0 
0.0 1.0 0.0 
0.0 1.0 0.0 
0.0 1.0 0.0 
0.0 1.0 0.0 
0.0 1.0 0.0 
0.0 1.0 0.0 
0.0 1.0 0.0 
0.0 1.0 0.0 
0.0 1.0 0.0 
0.0 1.0 0.0 
0.0 1.0 0.0 
0.0 1.0 0.0 
0.0 1.0 0.0 
0.0 1.0 0.0 
0.0 1.0 0.0 
0.0 1.0 0.0 
0.0 0.0 1.0 
0.0 0.0 1.0 
0.0 0.0 1.0 
0.0 0.0 1.0 
0.0 0.0 1.0 
0.0 0.0 1.0 
0.0 0.0 1.0 
0.0 0.0 1.0 
0.0 0.0 1.0 
0.0 0.0 1.0 
0.0 0.0 1.0 
0.0 0.0 1.0 
0.0 0.0 1.0 
0.0 0.0 1.0 
0.0 0.0 1.0 
0.0 0.0 1.0 
0.0 0.0 1.0 
0.0 0.0 1.0 
0.0 0.0 1.0 
0.0 0.0 1.0 
0.0 0.0 1.0 
0.0 0.0 1.0 
0.0 0.0 1.0 
0.0 0.0 1.0 
0.0 0.0 1.0 
0.0 0.0 1.0 
0.0 0.0 1.0 
0.0 0.0 1.0 
0.0 0.0 1.0 
0.0 0.0 1.0 
0.0 0.0 1.0 
0.0 0.0 1.0 
0.0 0.0 1.0 
0.0 0.0 1.0 
0.0 0.0 1.0 
0.0 0.0 1.0 
0.0 0.0 1.0 
0.0 0.0 1.0 
0.0 0.0 1.0 
0.0 0.0 1.0 
0.0 0.0 1.0 
0.0 0.0 1.0 
0.0 0.0 1.0 
0.0 0.0 1.0 
0.0 0.0 1.0 
0.0 0.0 1.0 
0.0 0.0 1.0 
0.0 0.0 1.0 
0.0 0.0 1.0 
0.0 0.0 1.0 
Learning : 0.550000011920929
Momentum : 0.9
Epoch: 100, Error: 0.013928231867467158
Epoch: 200, Error: 0.011943706814794971
Epoch: 300, Error: 0.011904176355297471
Epoch: 400, Error: 0.012028006816690922
Epoch: 500, Error: 0.01202701190347594
Epoch: 600, Error: 0.012460043791482618
Epoch: 700, Error: 0.011787113087183257
Epoch: 800, Error: 0.012101241791687211
Epoch: 900, Error: 0.012010647156103626
Epoch: 1000, Error: 0.013649702879504365
Epoch: 1100, Error: 0.012192543444608066
Epoch: 1200, Error: 0.011949445770841957
Epoch: 1300, Error: 0.011974689167130875
Epoch: 1400, Error: 0.013137222376070018
Epoch: 1500, Error: 0.01181019599941089
Epoch: 1600, Error: 0.012183602714139789
Epoch: 1700, Error: 0.01195532825492941
Epoch: 1800, Error: 0.012153785209487778
Epoch: 1900, Error: 0.01306110638540161
Epoch: 2000, Error: 0.012010431061165642
Epoch: 2100, Error: 0.011268767095979623
Epoch: 2200, Error: 0.01351936684642426
Epoch: 2300, Error: 0.012038105134067622
Epoch: 2400, Error: 0.011552523590705003
Epoch: 2500, Error: 0.011312189863490313
Epoch: 2600, Error: 0.011374734658307965
Epoch: 2700, Error: 0.011257829267605242
Epoch: 2800, Error: 0.01090148743963415
Epoch: 2900, Error: 0.010840318490568544
Epoch: 3000, Error: 0.010900485047572787
Epoch: 3100, Error: 0.010365805984422204
Epoch: 3200, Error: 0.011877380687124227
Epoch: 3300, Error: 0.01029268737156672
Epoch: 3400, Error: 0.00951317398167028
Epoch: 3500, Error: 0.009754358618262089
Epoch: 3600, Error: 0.009644040340225934
Epoch: 3700, Error: 0.00787943031336212
Epoch: 3800, Error: 0.008605139234202924
Epoch: 3900, Error: 0.007409715120518915
Epoch: 4000, Error: 0.006811786219938518
Epoch: 4100, Error: 0.006822228337589928
Epoch: 4200, Error: 0.006606617227777452
Epoch: 4300, Error: 0.0062333112001892125
Epoch: 4400, Error: 0.005975258995528965
Epoch: 4500, Error: 0.005939984709913933
Epoch: 4600, Error: 0.005685462438456154
Epoch: 4700, Error: 0.005760864966454298
Epoch: 4800, Error: 0.005720328153483632
Epoch: 4900, Error: 0.005367630403175848
Epoch: 5000, Error: 0.01107623242490022
Epoch: 5100, Error: 0.00529379859118753
Epoch: 5200, Error: 0.0058992637589371675
Epoch: 5300, Error: 0.0056908654114523624
Epoch: 5400, Error: 0.005045922927585823
Epoch: 5500, Error: 0.006318329773141218
Epoch: 5600, Error: 0.0050946978410361535
Epoch: 5700, Error: 0.004915908383526375
Epoch: 5800, Error: 0.004552761166282483
Epoch: 5900, Error: 0.004354600521842801
Epoch: 6000, Error: 0.005450638218317003
Epoch: 6100, Error: 0.0043162300654886335
Epoch: 6200, Error: 0.003921653417796447
Epoch: 6300, Error: 0.0037300555576391123
Epoch: 6400, Error: 0.005055285932670781
Epoch: 6500, Error: 0.003932986801181344
Epoch: 6600, Error: 0.003522944789102685
Epoch: 6700, Error: 0.004213275015745205
Epoch: 6800, Error: 0.004687959534106353
Epoch: 6900, Error: 0.004005806752967939
Epoch: 7000, Error: 0.003066175525336511
Epoch: 7100, Error: 0.00296604556553436
Epoch: 7200, Error: 0.003101985351240478
Epoch: 7300, Error: 0.002745334210456715
Epoch: 7400, Error: 0.00625533837912962
Epoch: 7500, Error: 0.0029918776546839026
Epoch: 7600, Error: 0.0022946023629294206
Epoch: 7700, Error: 0.0036870921292643595
Epoch: 7800, Error: 0.004253989818378668
Epoch: 7900, Error: 0.002835713227273607
Epoch: 8000, Error: 0.002876123389937325
Epoch: 8100, Error: 0.002953809178321045
Epoch: 8200, Error: 0.002490660528893227
Epoch: 8300, Error: 0.003030097272751576
Epoch: 8400, Error: 0.0027206955261873315
Epoch: 8500, Error: 0.0024356477366364814
Epoch: 8600, Error: 0.0015031718490701276
Epoch: 8700, Error: 0.0014878098170758346
Epoch: 8800, Error: 0.002038906760570738
Epoch: 8900, Error: 0.0010600669103659342
Epoch: 9000, Error: 0.004204411452199424
Epoch: 9100, Error: 9.291161678545523E-4
Epoch: 9200, Error: 0.001225981992548404
Epoch: 9300, Error: 0.0013304976549842018
Epoch: 9400, Error: 7.72048208730124E-4
Epoch: 9500, Error: 0.002177245832853709
Epoch: 9600, Error: 0.0019188031362536045
Epoch: 9700, Error: 8.493001246495253E-4
Epoch: 9800, Error: 7.87374684144071E-4
Epoch: 9900, Error: 6.878509747600568E-4
Epoch: 10000, Error: 7.069776392085645E-4
Epoch: 10100, Error: 6.302619230319281E-4
Epoch: 10200, Error: 0.001267939516971999
Epoch: 10300, Error: 7.080732664231094E-4
Epoch: 10400, Error: 7.204998593466074E-4
Epoch: 10500, Error: 6.609092218499693E-4
Epoch: 10600, Error: 6.824291508310895E-4
Epoch: 10700, Error: 6.524734533893934E-4
Epoch: 10800, Error: 6.002409115213057E-4
Epoch: 10900, Error: 6.292682946417708E-4
Epoch: 11000, Error: 5.574757542201161E-4
Epoch: 11100, Error: 6.40097092594989E-4
Epoch: 11200, Error: 6.09072468742089E-4
Epoch: 11300, Error: 6.29156038671027E-4
Epoch: 11400, Error: 5.935538534737334E-4
Epoch: 11500, Error: 6.073887458649931E-4
Epoch: 11600, Error: 5.630794818936176E-4
Epoch: 11700, Error: 6.112072752972214E-4
Epoch: 11800, Error: 5.502947164845167E-4
Epoch: 11900, Error: 5.661889907751041E-4
Epoch: 12000, Error: 5.65853737388976E-4
Epoch: 12100, Error: 5.54893595049289E-4
Epoch: 12200, Error: 5.218486115756195E-4
Epoch: 12300, Error: 5.084380934850935E-4
Epoch: 12400, Error: 5.024776810349826E-4
Epoch: 12500, Error: 4.8488851186341466E-4
Epoch: 12600, Error: 4.4696507725120474E-4
Epoch: 12700, Error: 4.088190305845482E-4
Epoch: 12800, Error: 3.9476153965486E-4
Epoch: 12900, Error: 3.721423060192039E-4
Epoch: 13000, Error: 3.5308029730239795E-4
Epoch: 13100, Error: 3.2659614924416245E-4
Epoch: 13200, Error: 2.8631549851851465E-4
Epoch: 13300, Error: 2.733211223593054E-4
Epoch: 13400, Error: 2.5706837019527824E-4
Epoch: 13500, Error: 2.511991048253384E-4
Epoch: 13600, Error: 2.446579322233081E-4
Epoch: 13700, Error: 2.4530105260972063E-4
Epoch: 13800, Error: 2.3971449591736227E-4
Epoch: 13900, Error: 2.3850835023778928E-4
Epoch: 14000, Error: 2.4179072711897327E-4
Epoch: 14100, Error: 2.325021228517864E-4
Epoch: 14200, Error: 2.3341862440872887E-4
Epoch: 14300, Error: 2.2935798335515693E-4
Epoch: 14400, Error: 2.2776794189374098E-4
Finished
