Input Patterns
0.224 0.624 0.067 0.043 
0.11 0.502 0.051 0.043 
0.196 0.667 0.067 0.043 
0.055 0.584 0.067 0.082 
0.027 0.376 0.067 0.043 
0.306 0.71 0.086 0.043 
0.137 0.416 0.067 0.0 
0.416 0.831 0.035 0.043 
0.306 0.792 0.051 0.125 
0.388 0.749 0.118 0.082 
0.306 0.584 0.118 0.043 
0.082 0.667 0.0 0.043 
0.137 0.584 0.153 0.043 
0.196 0.584 0.102 0.125 
0.251 0.584 0.067 0.043 
0.137 0.459 0.102 0.043 
0.251 0.875 0.086 0.0 
0.165 0.459 0.086 0.043 
0.333 0.624 0.051 0.043 
0.027 0.416 0.051 0.043 
0.196 0.624 0.051 0.082 
0.027 0.502 0.051 0.043 
0.224 0.749 0.153 0.125 
0.224 0.749 0.102 0.043 
0.278 0.71 0.086 0.043 
0.165 0.416 0.067 0.043 
0.082 0.459 0.086 0.043 
0.306 0.792 0.118 0.125 
0.196 0.584 0.086 0.043 
0.165 0.459 0.086 0.0 
0.137 0.584 0.102 0.043 
0.0 0.416 0.016 0.0 
0.388 1.0 0.086 0.125 
0.224 0.624 0.067 0.082 
0.224 0.749 0.086 0.082 
0.224 0.71 0.086 0.125 
0.224 0.541 0.118 0.165 
0.196 0.416 0.102 0.043 
0.251 0.624 0.086 0.043 
0.11 0.502 0.102 0.043 
0.306 0.584 0.086 0.125 
0.333 0.918 0.067 0.043 
0.196 0.502 0.035 0.043 
0.165 0.667 0.067 0.0 
0.224 0.584 0.086 0.043 
0.055 0.125 0.051 0.082 
0.196 0.624 0.102 0.208 
0.137 0.416 0.067 0.082 
0.082 0.502 0.067 0.043 
0.196 0.541 0.067 0.043 
0.749 0.502 0.627 0.541 
0.722 0.459 0.663 0.584 
0.612 0.333 0.612 0.584 
0.557 0.541 0.627 0.624 
0.639 0.376 0.612 0.498 
0.196 0.0 0.424 0.376 
0.471 0.082 0.51 0.376 
0.361 0.376 0.439 0.498 
0.361 0.416 0.592 0.584 
0.529 0.082 0.592 0.584 
0.443 0.502 0.643 0.459 
0.557 0.208 0.663 0.584 
0.584 0.376 0.561 0.498 
0.694 0.333 0.643 0.541 
0.471 0.376 0.592 0.584 
0.333 0.169 0.475 0.416 
0.416 0.29 0.49 0.459 
0.306 0.416 0.592 0.584 
0.667 0.459 0.627 0.584 
0.361 0.416 0.525 0.498 
0.333 0.251 0.576 0.459 
0.416 0.251 0.51 0.459 
0.361 0.29 0.541 0.498 
0.388 0.376 0.541 0.498 
0.224 0.208 0.337 0.416 
0.584 0.502 0.592 0.584 
0.333 0.125 0.51 0.498 
0.388 0.333 0.592 0.498 
0.165 0.169 0.388 0.376 
0.251 0.29 0.49 0.541 
0.443 0.416 0.541 0.584 
0.498 0.376 0.627 0.541 
0.667 0.459 0.576 0.541 
0.416 0.29 0.525 0.376 
0.361 0.208 0.49 0.416 
0.498 0.333 0.51 0.498 
0.498 0.333 0.627 0.459 
0.639 0.416 0.576 0.541 
0.667 0.416 0.678 0.667 
0.388 0.251 0.424 0.376 
0.333 0.169 0.459 0.376 
0.471 0.29 0.694 0.624 
0.471 0.584 0.592 0.624 
0.557 0.125 0.576 0.498 
0.333 0.208 0.51 0.498 
0.498 0.416 0.612 0.541 
0.196 0.125 0.388 0.376 
0.388 0.416 0.541 0.459 
0.529 0.376 0.561 0.498 
0.388 0.333 0.525 0.498 
0.557 0.541 0.847 1.0 
0.776 0.416 0.831 0.831 
0.612 0.416 0.812 0.875 
0.165 0.208 0.592 0.667 
0.667 0.208 0.812 0.71 
0.612 0.502 0.694 0.792 
0.694 0.416 0.761 0.831 
0.416 0.333 0.694 0.957 
0.612 0.416 0.761 0.71 
0.945 0.251 1.0 0.918 
0.722 0.502 0.796 0.918 
0.945 0.333 0.965 0.792 
0.667 0.541 0.796 0.831 
0.529 0.333 0.643 0.71 
0.584 0.333 0.78 0.831 
0.863 0.333 0.863 0.749 
0.584 0.333 0.78 0.875 
0.498 0.251 0.78 0.541 
0.557 0.584 0.78 0.957 
0.471 0.416 0.643 0.71 
0.667 0.459 0.78 0.957 
0.416 0.29 0.694 0.749 
0.667 0.541 0.796 1.0 
0.557 0.208 0.678 0.749 
0.529 0.584 0.745 0.918 
0.416 0.29 0.694 0.749 
0.557 0.376 0.78 0.71 
0.918 0.416 0.949 0.831 
0.835 0.376 0.898 0.71 
0.804 0.667 0.863 1.0 
0.584 0.29 0.729 0.749 
0.388 0.208 0.678 0.792 
0.584 0.502 0.729 0.918 
0.945 0.749 0.965 0.875 
0.471 0.082 0.678 0.584 
0.361 0.333 0.663 0.792 
0.557 0.29 0.663 0.71 
0.804 0.502 0.847 0.71 
0.498 0.416 0.51 0.71 
0.804 0.416 0.812 0.624 
1.0 0.749 0.914 0.792 
0.557 0.333 0.694 0.584 
0.945 0.416 0.863 0.918 
0.584 0.459 0.761 0.71 
0.722 0.459 0.745 0.831 
0.722 0.459 0.694 0.918 
0.694 0.502 0.831 0.918 
0.667 0.416 0.714 0.918 
0.612 0.416 0.714 0.792 
0.443 0.416 0.694 0.71 
Teaching Patterns
1.0 0.0 0.0 
1.0 0.0 0.0 
1.0 0.0 0.0 
1.0 0.0 0.0 
1.0 0.0 0.0 
1.0 0.0 0.0 
1.0 0.0 0.0 
1.0 0.0 0.0 
1.0 0.0 0.0 
1.0 0.0 0.0 
1.0 0.0 0.0 
1.0 0.0 0.0 
1.0 0.0 0.0 
1.0 0.0 0.0 
1.0 0.0 0.0 
1.0 0.0 0.0 
1.0 0.0 0.0 
1.0 0.0 0.0 
1.0 0.0 0.0 
1.0 0.0 0.0 
1.0 0.0 0.0 
1.0 0.0 0.0 
1.0 0.0 0.0 
1.0 0.0 0.0 
1.0 0.0 0.0 
1.0 0.0 0.0 
1.0 0.0 0.0 
1.0 0.0 0.0 
1.0 0.0 0.0 
1.0 0.0 0.0 
1.0 0.0 0.0 
1.0 0.0 0.0 
1.0 0.0 0.0 
1.0 0.0 0.0 
1.0 0.0 0.0 
1.0 0.0 0.0 
1.0 0.0 0.0 
1.0 0.0 0.0 
1.0 0.0 0.0 
1.0 0.0 0.0 
1.0 0.0 0.0 
1.0 0.0 0.0 
1.0 0.0 0.0 
1.0 0.0 0.0 
1.0 0.0 0.0 
1.0 0.0 0.0 
1.0 0.0 0.0 
1.0 0.0 0.0 
1.0 0.0 0.0 
1.0 0.0 0.0 
0.0 1.0 0.0 
0.0 1.0 0.0 
0.0 1.0 0.0 
0.0 1.0 0.0 
0.0 1.0 0.0 
0.0 1.0 0.0 
0.0 1.0 0.0 
0.0 1.0 0.0 
0.0 1.0 0.0 
0.0 1.0 0.0 
0.0 1.0 0.0 
0.0 1.0 0.0 
0.0 1.0 0.0 
0.0 1.0 0.0 
0.0 1.0 0.0 
0.0 1.0 0.0 
0.0 1.0 0.0 
0.0 1.0 0.0 
0.0 1.0 0.0 
0.0 1.0 0.0 
0.0 1.0 0.0 
0.0 1.0 0.0 
0.0 1.0 0.0 
0.0 1.0 0.0 
0.0 1.0 0.0 
0.0 1.0 0.0 
0.0 1.0 0.0 
0.0 1.0 0.0 
0.0 1.0 0.0 
0.0 1.0 0.0 
0.0 1.0 0.0 
0.0 1.0 0.0 
0.0 1.0 0.0 
0.0 1.0 0.0 
0.0 1.0 0.0 
0.0 1.0 0.0 
0.0 1.0 0.0 
0.0 1.0 0.0 
0.0 1.0 0.0 
0.0 1.0 0.0 
0.0 1.0 0.0 
0.0 1.0 0.0 
0.0 1.0 0.0 
0.0 1.0 0.0 
0.0 1.0 0.0 
0.0 1.0 0.0 
0.0 1.0 0.0 
0.0 1.0 0.0 
0.0 1.0 0.0 
0.0 1.0 0.0 
0.0 0.0 1.0 
0.0 0.0 1.0 
0.0 0.0 1.0 
0.0 0.0 1.0 
0.0 0.0 1.0 
0.0 0.0 1.0 
0.0 0.0 1.0 
0.0 0.0 1.0 
0.0 0.0 1.0 
0.0 0.0 1.0 
0.0 0.0 1.0 
0.0 0.0 1.0 
0.0 0.0 1.0 
0.0 0.0 1.0 
0.0 0.0 1.0 
0.0 0.0 1.0 
0.0 0.0 1.0 
0.0 0.0 1.0 
0.0 0.0 1.0 
0.0 0.0 1.0 
0.0 0.0 1.0 
0.0 0.0 1.0 
0.0 0.0 1.0 
0.0 0.0 1.0 
0.0 0.0 1.0 
0.0 0.0 1.0 
0.0 0.0 1.0 
0.0 0.0 1.0 
0.0 0.0 1.0 
0.0 0.0 1.0 
0.0 0.0 1.0 
0.0 0.0 1.0 
0.0 0.0 1.0 
0.0 0.0 1.0 
0.0 0.0 1.0 
0.0 0.0 1.0 
0.0 0.0 1.0 
0.0 0.0 1.0 
0.0 0.0 1.0 
0.0 0.0 1.0 
0.0 0.0 1.0 
0.0 0.0 1.0 
0.0 0.0 1.0 
0.0 0.0 1.0 
0.0 0.0 1.0 
0.0 0.0 1.0 
0.0 0.0 1.0 
0.0 0.0 1.0 
0.0 0.0 1.0 
0.0 0.0 1.0 
Learning : 0.550000011920929
Momentum : 0.9
Epoch: 100, Error: 0.018872350251688538
Epoch: 200, Error: 0.012662354243932241
Epoch: 300, Error: 0.012714496285347028
Epoch: 400, Error: 0.012536380830351914
Epoch: 500, Error: 0.012038216817883477
Epoch: 600, Error: 0.012262821470617464
Epoch: 700, Error: 0.012041620691253233
Epoch: 800, Error: 0.013276515555125788
Epoch: 900, Error: 0.01278970748173758
Epoch: 1000, Error: 0.012659537462114182
Epoch: 1100, Error: 0.011683359866227176
Epoch: 1200, Error: 0.011685310537349688
Epoch: 1300, Error: 0.011769780273000404
Epoch: 1400, Error: 0.011842533602357168
Epoch: 1500, Error: 0.011112486828512116
Epoch: 1600, Error: 0.011120711725255177
Epoch: 1700, Error: 0.011787215086827282
Epoch: 1800, Error: 0.011041037109723055
Epoch: 1900, Error: 0.010871940831212618
Epoch: 2000, Error: 0.010868280639239124
Epoch: 2100, Error: 0.010604013860293493
Epoch: 2200, Error: 0.010257000380897089
Epoch: 2300, Error: 0.010029345085008164
Epoch: 2400, Error: 0.008771909981929407
Epoch: 2500, Error: 0.00758442368134267
Epoch: 2600, Error: 0.007101200797771867
Epoch: 2700, Error: 0.006799239022143644
Epoch: 2800, Error: 0.0060759851267597744
Epoch: 2900, Error: 0.005661009490826638
Epoch: 3000, Error: 0.00568540238801055
Epoch: 3100, Error: 0.005225102056868438
Epoch: 3200, Error: 0.0052065611337498065
Epoch: 3300, Error: 0.00504445530051652
Epoch: 3400, Error: 0.005007641753846389
Epoch: 3500, Error: 0.004991343656698226
Epoch: 3600, Error: 0.004998704836868912
Epoch: 3700, Error: 0.004941021344018607
Epoch: 3800, Error: 0.004955908743940155
Epoch: 3900, Error: 0.004970357562194218
Epoch: 4000, Error: 0.0049370292888222915
Epoch: 4100, Error: 0.00490936922440473
Epoch: 4200, Error: 0.004913952994967468
Epoch: 4300, Error: 0.004909838936623623
Epoch: 4400, Error: 0.004907580084195711
Epoch: 4500, Error: 0.0049137907066124226
Epoch: 4600, Error: 0.004891170333205683
Epoch: 4700, Error: 0.004882672318900339
Epoch: 4800, Error: 0.004879778598240411
Epoch: 4900, Error: 0.004847298900160529
Epoch: 5000, Error: 0.004868556677706206
Epoch: 5100, Error: 0.004824807913802163
Epoch: 5200, Error: 0.004838217009666336
Epoch: 5300, Error: 0.004839336309746087
Epoch: 5400, Error: 0.004809354725702111
Epoch: 5500, Error: 0.0048081969473747115
Epoch: 5600, Error: 0.004780004421212694
Epoch: 5700, Error: 0.0047581525211837184
Epoch: 5800, Error: 0.004747168495863856
Epoch: 5900, Error: 0.004766941750827082
Epoch: 6000, Error: 0.004738651471546189
Epoch: 6100, Error: 0.004736626795664043
Epoch: 6200, Error: 0.0048685488780910325
Epoch: 6300, Error: 0.004726067314259334
Epoch: 6400, Error: 0.004729268160267241
Epoch: 6500, Error: 0.004842283199492548
Epoch: 6600, Error: 0.0047776347579879695
Epoch: 6700, Error: 0.004603050787721693
Epoch: 6800, Error: 0.004789384237765144
Epoch: 6900, Error: 0.004573110173227643
Epoch: 7000, Error: 0.0047310552538001255
Epoch: 7100, Error: 0.004554384403680661
Epoch: 7200, Error: 0.004703123246863661
Epoch: 7300, Error: 0.0044742443333330465
Epoch: 7400, Error: 0.004668156685510929
Epoch: 7500, Error: 0.004255480289836825
Epoch: 7600, Error: 0.003871484728082962
Epoch: 7700, Error: 0.00433160882363489
Epoch: 7800, Error: 0.004023879380008467
Epoch: 7900, Error: 0.0038691332010011925
Epoch: 8000, Error: 0.004226398985392943
Epoch: 8100, Error: 0.0032948251084563944
Epoch: 8200, Error: 0.006302727574910563
Epoch: 8300, Error: 0.003604467876883165
Epoch: 8400, Error: 0.003579265756167956
Epoch: 8500, Error: 0.002741380599721432
Epoch: 8600, Error: 0.0034258901832951807
Epoch: 8700, Error: 0.0026813478937573834
Epoch: 8800, Error: 0.005274876142692059
Epoch: 8900, Error: 0.0028325973179146842
Epoch: 9000, Error: 0.0019429150836838916
Epoch: 9100, Error: 0.002098357069503252
Epoch: 9200, Error: 0.0025390299888540476
Epoch: 9300, Error: 0.004362248591043199
Epoch: 9400, Error: 0.002866019906876574
Epoch: 9500, Error: 0.0029801960307229538
Epoch: 9600, Error: 0.005439224119266326
Epoch: 9700, Error: 0.0013665481169901621
Epoch: 9800, Error: 0.0017573716052746696
Epoch: 9900, Error: 0.003026946187109183
Epoch: 10000, Error: 0.0014276424549035695
Epoch: 10100, Error: 0.003809273513260278
Epoch: 10200, Error: 0.0013788243719800894
Epoch: 10300, Error: 0.004937701128276473
Epoch: 10400, Error: 0.003587617100990231
Epoch: 10500, Error: 0.0033114960454650997
Epoch: 10600, Error: 0.0017429892598813028
Epoch: 10700, Error: 9.022152981060309E-4
Epoch: 10800, Error: 0.0029296860335745615
Epoch: 10900, Error: 9.894570830132374E-4
Epoch: 11000, Error: 0.0011160427108565577
Epoch: 11100, Error: 9.208024782574553E-4
Epoch: 11200, Error: 0.001022718217178738
Epoch: 11300, Error: 7.925707783260194E-4
Epoch: 11400, Error: 7.254784121937008E-4
Epoch: 11500, Error: 7.263490804172087E-4
Epoch: 11600, Error: 0.0012544682482008497
Epoch: 11700, Error: 7.399216590801121E-4
Epoch: 11800, Error: 7.530895228092577E-4
Epoch: 11900, Error: 7.737090354027505E-4
Epoch: 12000, Error: 7.220014952034435E-4
Epoch: 12100, Error: 7.617874304497826E-4
Epoch: 12200, Error: 7.510223430641876E-4
Epoch: 12300, Error: 7.198118603926107E-4
Epoch: 12400, Error: 7.35773706802858E-4
Epoch: 12500, Error: 7.275499570687654E-4
Epoch: 12600, Error: 6.905350348132382E-4
Epoch: 12700, Error: 6.597378028655478E-4
Epoch: 12800, Error: 6.343614806411753E-4
Epoch: 12900, Error: 6.170803124585016E-4
Epoch: 13000, Error: 6.183605886590949E-4
Epoch: 13100, Error: 5.967588547413716E-4
Epoch: 13200, Error: 5.748971886529174E-4
Epoch: 13300, Error: 5.797567457780196E-4
Epoch: 13400, Error: 5.396004586665657E-4
Epoch: 13500, Error: 5.318353453451339E-4
Epoch: 13600, Error: 5.773521567587237E-4
Epoch: 13700, Error: 5.299196536704253E-4
Epoch: 13800, Error: 5.809791387823581E-4
Epoch: 13900, Error: 5.209184732004787E-4
Epoch: 14000, Error: 5.185874838029611E-4
Epoch: 14100, Error: 5.415504860965389E-4
Epoch: 14200, Error: 5.013801546977551E-4
Epoch: 14300, Error: 4.905552129951166E-4
Epoch: 14400, Error: 4.905239954944295E-4
Finished
