Input Patterns
0.224 0.624 0.067 0.043 
0.11 0.502 0.051 0.043 
0.196 0.667 0.067 0.043 
0.055 0.584 0.067 0.082 
0.027 0.376 0.067 0.043 
0.306 0.71 0.086 0.043 
0.137 0.416 0.067 0.0 
0.416 0.831 0.035 0.043 
0.306 0.792 0.051 0.125 
0.388 0.749 0.118 0.082 
0.306 0.584 0.118 0.043 
0.082 0.667 0.0 0.043 
0.137 0.584 0.153 0.043 
0.196 0.584 0.102 0.125 
0.251 0.584 0.067 0.043 
0.137 0.459 0.102 0.043 
0.251 0.875 0.086 0.0 
0.165 0.459 0.086 0.043 
0.333 0.624 0.051 0.043 
0.027 0.416 0.051 0.043 
0.196 0.624 0.051 0.082 
0.027 0.502 0.051 0.043 
0.224 0.749 0.153 0.125 
0.224 0.749 0.102 0.043 
0.278 0.71 0.086 0.043 
0.165 0.416 0.067 0.043 
0.082 0.459 0.086 0.043 
0.306 0.792 0.118 0.125 
0.196 0.584 0.086 0.043 
0.165 0.459 0.086 0.0 
0.137 0.584 0.102 0.043 
0.0 0.416 0.016 0.0 
0.388 1.0 0.086 0.125 
0.224 0.624 0.067 0.082 
0.224 0.749 0.086 0.082 
0.224 0.71 0.086 0.125 
0.224 0.541 0.118 0.165 
0.196 0.416 0.102 0.043 
0.251 0.624 0.086 0.043 
0.11 0.502 0.102 0.043 
0.306 0.584 0.086 0.125 
0.333 0.918 0.067 0.043 
0.196 0.502 0.035 0.043 
0.165 0.667 0.067 0.0 
0.224 0.584 0.086 0.043 
0.055 0.125 0.051 0.082 
0.196 0.624 0.102 0.208 
0.137 0.416 0.067 0.082 
0.082 0.502 0.067 0.043 
0.196 0.541 0.067 0.043 
0.749 0.502 0.627 0.541 
0.722 0.459 0.663 0.584 
0.612 0.333 0.612 0.584 
0.557 0.541 0.627 0.624 
0.639 0.376 0.612 0.498 
0.196 0.0 0.424 0.376 
0.471 0.082 0.51 0.376 
0.361 0.376 0.439 0.498 
0.361 0.416 0.592 0.584 
0.529 0.082 0.592 0.584 
0.443 0.502 0.643 0.459 
0.557 0.208 0.663 0.584 
0.584 0.376 0.561 0.498 
0.694 0.333 0.643 0.541 
0.471 0.376 0.592 0.584 
0.333 0.169 0.475 0.416 
0.416 0.29 0.49 0.459 
0.306 0.416 0.592 0.584 
0.667 0.459 0.627 0.584 
0.361 0.416 0.525 0.498 
0.333 0.251 0.576 0.459 
0.416 0.251 0.51 0.459 
0.361 0.29 0.541 0.498 
0.388 0.376 0.541 0.498 
0.224 0.208 0.337 0.416 
0.584 0.502 0.592 0.584 
0.333 0.125 0.51 0.498 
0.388 0.333 0.592 0.498 
0.165 0.169 0.388 0.376 
0.251 0.29 0.49 0.541 
0.443 0.416 0.541 0.584 
0.498 0.376 0.627 0.541 
0.667 0.459 0.576 0.541 
0.416 0.29 0.525 0.376 
0.361 0.208 0.49 0.416 
0.498 0.333 0.51 0.498 
0.498 0.333 0.627 0.459 
0.639 0.416 0.576 0.541 
0.667 0.416 0.678 0.667 
0.388 0.251 0.424 0.376 
0.333 0.169 0.459 0.376 
0.471 0.29 0.694 0.624 
0.471 0.584 0.592 0.624 
0.557 0.125 0.576 0.498 
0.333 0.208 0.51 0.498 
0.498 0.416 0.612 0.541 
0.196 0.125 0.388 0.376 
0.388 0.416 0.541 0.459 
0.529 0.376 0.561 0.498 
0.388 0.333 0.525 0.498 
0.557 0.541 0.847 1.0 
0.776 0.416 0.831 0.831 
0.612 0.416 0.812 0.875 
0.165 0.208 0.592 0.667 
0.667 0.208 0.812 0.71 
0.612 0.502 0.694 0.792 
0.694 0.416 0.761 0.831 
0.416 0.333 0.694 0.957 
0.612 0.416 0.761 0.71 
0.945 0.251 1.0 0.918 
0.722 0.502 0.796 0.918 
0.945 0.333 0.965 0.792 
0.667 0.541 0.796 0.831 
0.529 0.333 0.643 0.71 
0.584 0.333 0.78 0.831 
0.863 0.333 0.863 0.749 
0.584 0.333 0.78 0.875 
0.498 0.251 0.78 0.541 
0.557 0.584 0.78 0.957 
0.471 0.416 0.643 0.71 
0.667 0.459 0.78 0.957 
0.416 0.29 0.694 0.749 
0.667 0.541 0.796 1.0 
0.557 0.208 0.678 0.749 
0.529 0.584 0.745 0.918 
0.416 0.29 0.694 0.749 
0.557 0.376 0.78 0.71 
0.918 0.416 0.949 0.831 
0.835 0.376 0.898 0.71 
0.804 0.667 0.863 1.0 
0.584 0.29 0.729 0.749 
0.388 0.208 0.678 0.792 
0.584 0.502 0.729 0.918 
0.945 0.749 0.965 0.875 
0.471 0.082 0.678 0.584 
0.361 0.333 0.663 0.792 
0.557 0.29 0.663 0.71 
0.804 0.502 0.847 0.71 
0.498 0.416 0.51 0.71 
0.804 0.416 0.812 0.624 
1.0 0.749 0.914 0.792 
0.557 0.333 0.694 0.584 
0.945 0.416 0.863 0.918 
0.584 0.459 0.761 0.71 
0.722 0.459 0.745 0.831 
0.722 0.459 0.694 0.918 
0.694 0.502 0.831 0.918 
0.667 0.416 0.714 0.918 
0.612 0.416 0.714 0.792 
0.443 0.416 0.694 0.71 
Teaching Patterns
1.0 0.0 0.0 
1.0 0.0 0.0 
1.0 0.0 0.0 
1.0 0.0 0.0 
1.0 0.0 0.0 
1.0 0.0 0.0 
1.0 0.0 0.0 
1.0 0.0 0.0 
1.0 0.0 0.0 
1.0 0.0 0.0 
1.0 0.0 0.0 
1.0 0.0 0.0 
1.0 0.0 0.0 
1.0 0.0 0.0 
1.0 0.0 0.0 
1.0 0.0 0.0 
1.0 0.0 0.0 
1.0 0.0 0.0 
1.0 0.0 0.0 
1.0 0.0 0.0 
1.0 0.0 0.0 
1.0 0.0 0.0 
1.0 0.0 0.0 
1.0 0.0 0.0 
1.0 0.0 0.0 
1.0 0.0 0.0 
1.0 0.0 0.0 
1.0 0.0 0.0 
1.0 0.0 0.0 
1.0 0.0 0.0 
1.0 0.0 0.0 
1.0 0.0 0.0 
1.0 0.0 0.0 
1.0 0.0 0.0 
1.0 0.0 0.0 
1.0 0.0 0.0 
1.0 0.0 0.0 
1.0 0.0 0.0 
1.0 0.0 0.0 
1.0 0.0 0.0 
1.0 0.0 0.0 
1.0 0.0 0.0 
1.0 0.0 0.0 
1.0 0.0 0.0 
1.0 0.0 0.0 
1.0 0.0 0.0 
1.0 0.0 0.0 
1.0 0.0 0.0 
1.0 0.0 0.0 
1.0 0.0 0.0 
0.0 1.0 0.0 
0.0 1.0 0.0 
0.0 1.0 0.0 
0.0 1.0 0.0 
0.0 1.0 0.0 
0.0 1.0 0.0 
0.0 1.0 0.0 
0.0 1.0 0.0 
0.0 1.0 0.0 
0.0 1.0 0.0 
0.0 1.0 0.0 
0.0 1.0 0.0 
0.0 1.0 0.0 
0.0 1.0 0.0 
0.0 1.0 0.0 
0.0 1.0 0.0 
0.0 1.0 0.0 
0.0 1.0 0.0 
0.0 1.0 0.0 
0.0 1.0 0.0 
0.0 1.0 0.0 
0.0 1.0 0.0 
0.0 1.0 0.0 
0.0 1.0 0.0 
0.0 1.0 0.0 
0.0 1.0 0.0 
0.0 1.0 0.0 
0.0 1.0 0.0 
0.0 1.0 0.0 
0.0 1.0 0.0 
0.0 1.0 0.0 
0.0 1.0 0.0 
0.0 1.0 0.0 
0.0 1.0 0.0 
0.0 1.0 0.0 
0.0 1.0 0.0 
0.0 1.0 0.0 
0.0 1.0 0.0 
0.0 1.0 0.0 
0.0 1.0 0.0 
0.0 1.0 0.0 
0.0 1.0 0.0 
0.0 1.0 0.0 
0.0 1.0 0.0 
0.0 1.0 0.0 
0.0 1.0 0.0 
0.0 1.0 0.0 
0.0 1.0 0.0 
0.0 1.0 0.0 
0.0 1.0 0.0 
0.0 0.0 1.0 
0.0 0.0 1.0 
0.0 0.0 1.0 
0.0 0.0 1.0 
0.0 0.0 1.0 
0.0 0.0 1.0 
0.0 0.0 1.0 
0.0 0.0 1.0 
0.0 0.0 1.0 
0.0 0.0 1.0 
0.0 0.0 1.0 
0.0 0.0 1.0 
0.0 0.0 1.0 
0.0 0.0 1.0 
0.0 0.0 1.0 
0.0 0.0 1.0 
0.0 0.0 1.0 
0.0 0.0 1.0 
0.0 0.0 1.0 
0.0 0.0 1.0 
0.0 0.0 1.0 
0.0 0.0 1.0 
0.0 0.0 1.0 
0.0 0.0 1.0 
0.0 0.0 1.0 
0.0 0.0 1.0 
0.0 0.0 1.0 
0.0 0.0 1.0 
0.0 0.0 1.0 
0.0 0.0 1.0 
0.0 0.0 1.0 
0.0 0.0 1.0 
0.0 0.0 1.0 
0.0 0.0 1.0 
0.0 0.0 1.0 
0.0 0.0 1.0 
0.0 0.0 1.0 
0.0 0.0 1.0 
0.0 0.0 1.0 
0.0 0.0 1.0 
0.0 0.0 1.0 
0.0 0.0 1.0 
0.0 0.0 1.0 
0.0 0.0 1.0 
0.0 0.0 1.0 
0.0 0.0 1.0 
0.0 0.0 1.0 
0.0 0.0 1.0 
0.0 0.0 1.0 
0.0 0.0 1.0 
Learning : 0.8999999761581421
Momentum : 0.9
Epoch: 100, Error: 0.013117452338143272
Epoch: 200, Error: 0.012050932638582961
Epoch: 300, Error: 0.01199407129954336
Epoch: 400, Error: 0.011922043922193622
Epoch: 500, Error: 0.012356865462427676
Epoch: 600, Error: 0.01738049516479776
Epoch: 700, Error: 0.012311229404329757
Epoch: 800, Error: 0.012015596587734654
Epoch: 900, Error: 0.01215309355720373
Epoch: 1000, Error: 0.011668433130555392
Epoch: 1100, Error: 0.012355630573751485
Epoch: 1200, Error: 0.01095442362297074
Epoch: 1300, Error: 0.012893125450493481
Epoch: 1400, Error: 0.010267539439176646
Epoch: 1500, Error: 0.009759971870790089
Epoch: 1600, Error: 0.009001198498326337
Epoch: 1700, Error: 0.008241414472483392
Epoch: 1800, Error: 0.007649578058843573
Epoch: 1900, Error: 0.007186249566385172
Epoch: 2000, Error: 0.006648662221535271
Epoch: 2100, Error: 0.0062243804106398536
Epoch: 2200, Error: 0.005974848228558046
Epoch: 2300, Error: 0.0060956432027960685
Epoch: 2400, Error: 0.00543008604092721
Epoch: 2500, Error: 0.00555257651054587
Epoch: 2600, Error: 0.005734225320276768
Epoch: 2700, Error: 0.005433953354367829
Epoch: 2800, Error: 0.005246435505179639
Epoch: 2900, Error: 0.005199533226285244
Epoch: 3000, Error: 0.005124105058635271
Epoch: 3100, Error: 0.0050853868775351885
Epoch: 3200, Error: 0.005119432281766599
Epoch: 3300, Error: 0.005052698121359256
Epoch: 3400, Error: 0.0050718104292655965
Epoch: 3500, Error: 0.005079065567797105
Epoch: 3600, Error: 0.005007501155423352
Epoch: 3700, Error: 0.0049888705747314225
Epoch: 3800, Error: 0.004937903146654104
Epoch: 3900, Error: 0.004981620225975828
Epoch: 4000, Error: 0.004926851780919361
Epoch: 4100, Error: 0.004960437236000411
Epoch: 4200, Error: 0.005017329180028424
Epoch: 4300, Error: 0.0049227210554374035
Epoch: 4400, Error: 0.004971730321306759
Epoch: 4500, Error: 0.004940831923393927
Epoch: 4600, Error: 0.004898265628301493
Epoch: 4700, Error: 0.004914548406393531
Epoch: 4800, Error: 0.004890169204859748
Epoch: 4900, Error: 0.004874818857008152
Epoch: 5000, Error: 0.004868759642569017
Epoch: 5100, Error: 0.004882135796405712
Epoch: 5200, Error: 0.004826365197022077
Epoch: 5300, Error: 0.004847394831921938
Epoch: 5400, Error: 0.004853771356759807
Epoch: 5500, Error: 0.004792070739925856
Epoch: 5600, Error: 0.004791661185575907
Epoch: 5700, Error: 0.004765741829307127
Epoch: 5800, Error: 0.004785459922898502
Epoch: 5900, Error: 0.004728295590747882
Epoch: 6000, Error: 0.004732765894745462
Epoch: 6100, Error: 0.004685821849595905
Epoch: 6200, Error: 0.004762540545105529
Epoch: 6300, Error: 0.004711140815743735
Epoch: 6400, Error: 0.004740915219946781
Epoch: 6500, Error: 0.004693303430784595
Epoch: 6600, Error: 0.004749678194917745
Epoch: 6700, Error: 0.004795009737504132
Epoch: 6800, Error: 0.0046416467753352866
Epoch: 6900, Error: 0.004644713433221381
Epoch: 7000, Error: 0.004863986277902642
Epoch: 7100, Error: 0.004833500288805739
Epoch: 7200, Error: 0.004657556150235652
Epoch: 7300, Error: 0.004711861768909882
Epoch: 7400, Error: 0.004697829712595439
Epoch: 7500, Error: 0.004605786175617679
Epoch: 7600, Error: 0.004594442442240745
Epoch: 7700, Error: 0.004683890243130742
Epoch: 7800, Error: 0.004495321627909391
Epoch: 7900, Error: 0.004622381372695991
Epoch: 8000, Error: 0.004673592521797385
Epoch: 8100, Error: 0.004645266968206343
Epoch: 8200, Error: 0.004895428735511093
Epoch: 8300, Error: 0.004571156723909273
Epoch: 8400, Error: 0.004656215739233325
Epoch: 8500, Error: 0.005487086130071365
Epoch: 8600, Error: 0.004430048187463094
Epoch: 8700, Error: 0.004049934739674789
Epoch: 8800, Error: 0.004275571944576362
Epoch: 8900, Error: 0.0045974333561751065
Epoch: 9000, Error: 0.008677815466264373
Epoch: 9100, Error: 0.0038129267871119007
Epoch: 9200, Error: 0.007557937316044324
Epoch: 9300, Error: 0.004514053344770801
Epoch: 9400, Error: 0.009495341052511673
Epoch: 9500, Error: 0.00420964345385212
Epoch: 9600, Error: 0.00419554327302454
Epoch: 9700, Error: 0.008101817643618548
Epoch: 9800, Error: 0.0024955619862747397
Epoch: 9900, Error: 0.007169867419306925
Epoch: 10000, Error: 0.004112831853875864
Epoch: 10100, Error: 0.004242338864890665
Epoch: 10200, Error: 0.002641598759109586
Epoch: 10300, Error: 0.004720095678248306
Epoch: 10400, Error: 0.002836555568326113
Epoch: 10500, Error: 0.001437309111629256
Epoch: 10600, Error: 0.0013885999021690468
Epoch: 10700, Error: 0.0019400036855853112
Epoch: 10800, Error: 0.003603413626350879
Epoch: 10900, Error: 0.0014182427083851313
Epoch: 11000, Error: 0.0011565414517158716
Epoch: 11100, Error: 0.0013430194666656083
Epoch: 11200, Error: 0.004379944833097959
Epoch: 11300, Error: 0.0013369633137587634
Epoch: 11400, Error: 0.0027923826398374785
Epoch: 11500, Error: 0.0019591852038321777
Epoch: 11600, Error: 8.648984465530157E-4
Epoch: 11700, Error: 0.0014205372774357026
Epoch: 11800, Error: 7.067314732776911E-4
Epoch: 11900, Error: 6.738380842803642E-4
Epoch: 12000, Error: 7.062366780528513E-4
Epoch: 12100, Error: 6.99130380225725E-4
Epoch: 12200, Error: 7.083789367653078E-4
Epoch: 12300, Error: 7.220014138468341E-4
Epoch: 12400, Error: 7.763898861506323E-4
Epoch: 12500, Error: 7.514459389893665E-4
Epoch: 12600, Error: 8.131099649650392E-4
Epoch: 12700, Error: 7.042576942262171E-4
Epoch: 12800, Error: 6.573903361592222E-4
Epoch: 12900, Error: 6.146681270713402E-4
Epoch: 13000, Error: 5.838791289855886E-4
Epoch: 13100, Error: 5.718574495967587E-4
Epoch: 13200, Error: 5.559091299200643E-4
Epoch: 13300, Error: 5.451703686911208E-4
Epoch: 13400, Error: 5.416266256789155E-4
Epoch: 13500, Error: 5.223454791549644E-4
Epoch: 13600, Error: 5.176820981409374E-4
Epoch: 13700, Error: 5.212648431345059E-4
Epoch: 13800, Error: 5.341248387245122E-4
Epoch: 13900, Error: 5.255533637619867E-4
Epoch: 14000, Error: 5.346458558818028E-4
Epoch: 14100, Error: 5.240920548084091E-4
Epoch: 14200, Error: 5.167652388240601E-4
Epoch: 14300, Error: 5.226124096063435E-4
Epoch: 14400, Error: 5.372060024799975E-4
Epoch: 14500, Error: 5.144969910024456E-4
Epoch: 14600, Error: 5.141884727661387E-4
Epoch: 14700, Error: 5.140537582075888E-4
Epoch: 14800, Error: 5.099515127183605E-4
Epoch: 14900, Error: 5.061838641837611E-4
Epoch: 15000, Error: 5.054734799798338E-4
Epoch: 15100, Error: 5.032604436736172E-4
Epoch: 15200, Error: 5.042957101279558E-4
Finished
