Input Patterns
0.224 0.624 0.067 0.043 
0.11 0.502 0.051 0.043 
0.196 0.667 0.067 0.043 
0.055 0.584 0.067 0.082 
0.027 0.376 0.067 0.043 
0.306 0.71 0.086 0.043 
0.137 0.416 0.067 0.0 
0.416 0.831 0.035 0.043 
0.306 0.792 0.051 0.125 
0.388 0.749 0.118 0.082 
0.306 0.584 0.118 0.043 
0.082 0.667 0.0 0.043 
0.137 0.584 0.153 0.043 
0.196 0.584 0.102 0.125 
0.251 0.584 0.067 0.043 
0.137 0.459 0.102 0.043 
0.251 0.875 0.086 0.0 
0.165 0.459 0.086 0.043 
0.333 0.624 0.051 0.043 
0.027 0.416 0.051 0.043 
0.196 0.624 0.051 0.082 
0.027 0.502 0.051 0.043 
0.224 0.749 0.153 0.125 
0.224 0.749 0.102 0.043 
0.278 0.71 0.086 0.043 
0.165 0.416 0.067 0.043 
0.082 0.459 0.086 0.043 
0.306 0.792 0.118 0.125 
0.196 0.584 0.086 0.043 
0.165 0.459 0.086 0.0 
0.137 0.584 0.102 0.043 
0.0 0.416 0.016 0.0 
0.388 1.0 0.086 0.125 
0.224 0.624 0.067 0.082 
0.224 0.749 0.086 0.082 
0.224 0.71 0.086 0.125 
0.224 0.541 0.118 0.165 
0.196 0.416 0.102 0.043 
0.251 0.624 0.086 0.043 
0.11 0.502 0.102 0.043 
0.306 0.584 0.086 0.125 
0.333 0.918 0.067 0.043 
0.196 0.502 0.035 0.043 
0.165 0.667 0.067 0.0 
0.224 0.584 0.086 0.043 
0.055 0.125 0.051 0.082 
0.196 0.624 0.102 0.208 
0.137 0.416 0.067 0.082 
0.082 0.502 0.067 0.043 
0.196 0.541 0.067 0.043 
0.749 0.502 0.627 0.541 
0.722 0.459 0.663 0.584 
0.612 0.333 0.612 0.584 
0.557 0.541 0.627 0.624 
0.639 0.376 0.612 0.498 
0.196 0.0 0.424 0.376 
0.471 0.082 0.51 0.376 
0.361 0.376 0.439 0.498 
0.361 0.416 0.592 0.584 
0.529 0.082 0.592 0.584 
0.443 0.502 0.643 0.459 
0.557 0.208 0.663 0.584 
0.584 0.376 0.561 0.498 
0.694 0.333 0.643 0.541 
0.471 0.376 0.592 0.584 
0.333 0.169 0.475 0.416 
0.416 0.29 0.49 0.459 
0.306 0.416 0.592 0.584 
0.667 0.459 0.627 0.584 
0.361 0.416 0.525 0.498 
0.333 0.251 0.576 0.459 
0.416 0.251 0.51 0.459 
0.361 0.29 0.541 0.498 
0.388 0.376 0.541 0.498 
0.224 0.208 0.337 0.416 
0.584 0.502 0.592 0.584 
0.333 0.125 0.51 0.498 
0.388 0.333 0.592 0.498 
0.165 0.169 0.388 0.376 
0.251 0.29 0.49 0.541 
0.443 0.416 0.541 0.584 
0.498 0.376 0.627 0.541 
0.667 0.459 0.576 0.541 
0.416 0.29 0.525 0.376 
0.361 0.208 0.49 0.416 
0.498 0.333 0.51 0.498 
0.498 0.333 0.627 0.459 
0.639 0.416 0.576 0.541 
0.667 0.416 0.678 0.667 
0.388 0.251 0.424 0.376 
0.333 0.169 0.459 0.376 
0.471 0.29 0.694 0.624 
0.471 0.584 0.592 0.624 
0.557 0.125 0.576 0.498 
0.333 0.208 0.51 0.498 
0.498 0.416 0.612 0.541 
0.196 0.125 0.388 0.376 
0.388 0.416 0.541 0.459 
0.529 0.376 0.561 0.498 
0.388 0.333 0.525 0.498 
0.557 0.541 0.847 1.0 
0.776 0.416 0.831 0.831 
0.612 0.416 0.812 0.875 
0.165 0.208 0.592 0.667 
0.667 0.208 0.812 0.71 
0.612 0.502 0.694 0.792 
0.694 0.416 0.761 0.831 
0.416 0.333 0.694 0.957 
0.612 0.416 0.761 0.71 
0.945 0.251 1.0 0.918 
0.722 0.502 0.796 0.918 
0.945 0.333 0.965 0.792 
0.667 0.541 0.796 0.831 
0.529 0.333 0.643 0.71 
0.584 0.333 0.78 0.831 
0.863 0.333 0.863 0.749 
0.584 0.333 0.78 0.875 
0.498 0.251 0.78 0.541 
0.557 0.584 0.78 0.957 
0.471 0.416 0.643 0.71 
0.667 0.459 0.78 0.957 
0.416 0.29 0.694 0.749 
0.667 0.541 0.796 1.0 
0.557 0.208 0.678 0.749 
0.529 0.584 0.745 0.918 
0.416 0.29 0.694 0.749 
0.557 0.376 0.78 0.71 
0.918 0.416 0.949 0.831 
0.835 0.376 0.898 0.71 
0.804 0.667 0.863 1.0 
0.584 0.29 0.729 0.749 
0.388 0.208 0.678 0.792 
0.584 0.502 0.729 0.918 
0.945 0.749 0.965 0.875 
0.471 0.082 0.678 0.584 
0.361 0.333 0.663 0.792 
0.557 0.29 0.663 0.71 
0.804 0.502 0.847 0.71 
0.498 0.416 0.51 0.71 
0.804 0.416 0.812 0.624 
1.0 0.749 0.914 0.792 
0.557 0.333 0.694 0.584 
0.945 0.416 0.863 0.918 
0.584 0.459 0.761 0.71 
0.722 0.459 0.745 0.831 
0.722 0.459 0.694 0.918 
0.694 0.502 0.831 0.918 
0.667 0.416 0.714 0.918 
0.612 0.416 0.714 0.792 
0.443 0.416 0.694 0.71 
Teaching Patterns
1.0 0.0 0.0 
1.0 0.0 0.0 
1.0 0.0 0.0 
1.0 0.0 0.0 
1.0 0.0 0.0 
1.0 0.0 0.0 
1.0 0.0 0.0 
1.0 0.0 0.0 
1.0 0.0 0.0 
1.0 0.0 0.0 
1.0 0.0 0.0 
1.0 0.0 0.0 
1.0 0.0 0.0 
1.0 0.0 0.0 
1.0 0.0 0.0 
1.0 0.0 0.0 
1.0 0.0 0.0 
1.0 0.0 0.0 
1.0 0.0 0.0 
1.0 0.0 0.0 
1.0 0.0 0.0 
1.0 0.0 0.0 
1.0 0.0 0.0 
1.0 0.0 0.0 
1.0 0.0 0.0 
1.0 0.0 0.0 
1.0 0.0 0.0 
1.0 0.0 0.0 
1.0 0.0 0.0 
1.0 0.0 0.0 
1.0 0.0 0.0 
1.0 0.0 0.0 
1.0 0.0 0.0 
1.0 0.0 0.0 
1.0 0.0 0.0 
1.0 0.0 0.0 
1.0 0.0 0.0 
1.0 0.0 0.0 
1.0 0.0 0.0 
1.0 0.0 0.0 
1.0 0.0 0.0 
1.0 0.0 0.0 
1.0 0.0 0.0 
1.0 0.0 0.0 
1.0 0.0 0.0 
1.0 0.0 0.0 
1.0 0.0 0.0 
1.0 0.0 0.0 
1.0 0.0 0.0 
1.0 0.0 0.0 
0.0 1.0 0.0 
0.0 1.0 0.0 
0.0 1.0 0.0 
0.0 1.0 0.0 
0.0 1.0 0.0 
0.0 1.0 0.0 
0.0 1.0 0.0 
0.0 1.0 0.0 
0.0 1.0 0.0 
0.0 1.0 0.0 
0.0 1.0 0.0 
0.0 1.0 0.0 
0.0 1.0 0.0 
0.0 1.0 0.0 
0.0 1.0 0.0 
0.0 1.0 0.0 
0.0 1.0 0.0 
0.0 1.0 0.0 
0.0 1.0 0.0 
0.0 1.0 0.0 
0.0 1.0 0.0 
0.0 1.0 0.0 
0.0 1.0 0.0 
0.0 1.0 0.0 
0.0 1.0 0.0 
0.0 1.0 0.0 
0.0 1.0 0.0 
0.0 1.0 0.0 
0.0 1.0 0.0 
0.0 1.0 0.0 
0.0 1.0 0.0 
0.0 1.0 0.0 
0.0 1.0 0.0 
0.0 1.0 0.0 
0.0 1.0 0.0 
0.0 1.0 0.0 
0.0 1.0 0.0 
0.0 1.0 0.0 
0.0 1.0 0.0 
0.0 1.0 0.0 
0.0 1.0 0.0 
0.0 1.0 0.0 
0.0 1.0 0.0 
0.0 1.0 0.0 
0.0 1.0 0.0 
0.0 1.0 0.0 
0.0 1.0 0.0 
0.0 1.0 0.0 
0.0 1.0 0.0 
0.0 1.0 0.0 
0.0 0.0 1.0 
0.0 0.0 1.0 
0.0 0.0 1.0 
0.0 0.0 1.0 
0.0 0.0 1.0 
0.0 0.0 1.0 
0.0 0.0 1.0 
0.0 0.0 1.0 
0.0 0.0 1.0 
0.0 0.0 1.0 
0.0 0.0 1.0 
0.0 0.0 1.0 
0.0 0.0 1.0 
0.0 0.0 1.0 
0.0 0.0 1.0 
0.0 0.0 1.0 
0.0 0.0 1.0 
0.0 0.0 1.0 
0.0 0.0 1.0 
0.0 0.0 1.0 
0.0 0.0 1.0 
0.0 0.0 1.0 
0.0 0.0 1.0 
0.0 0.0 1.0 
0.0 0.0 1.0 
0.0 0.0 1.0 
0.0 0.0 1.0 
0.0 0.0 1.0 
0.0 0.0 1.0 
0.0 0.0 1.0 
0.0 0.0 1.0 
0.0 0.0 1.0 
0.0 0.0 1.0 
0.0 0.0 1.0 
0.0 0.0 1.0 
0.0 0.0 1.0 
0.0 0.0 1.0 
0.0 0.0 1.0 
0.0 0.0 1.0 
0.0 0.0 1.0 
0.0 0.0 1.0 
0.0 0.0 1.0 
0.0 0.0 1.0 
0.0 0.0 1.0 
0.0 0.0 1.0 
0.0 0.0 1.0 
0.0 0.0 1.0 
0.0 0.0 1.0 
0.0 0.0 1.0 
0.0 0.0 1.0 
Learning : 0.8999999761581421
Momentum : 0.9
Epoch: 100, Error: 0.015466177888559
Epoch: 200, Error: 0.012159903122470846
Epoch: 300, Error: 0.01905347939836147
Epoch: 400, Error: 0.011772470549411555
Epoch: 500, Error: 0.011938276876475288
Epoch: 600, Error: 0.011679471745150383
Epoch: 700, Error: 0.011814123192030627
Epoch: 800, Error: 0.017616826855633202
Epoch: 900, Error: 0.012029117964440193
Epoch: 1000, Error: 0.011686702602574818
Epoch: 1100, Error: 0.011965275770224026
Epoch: 1200, Error: 0.011663011887033989
Epoch: 1300, Error: 0.01160024176975389
Epoch: 1400, Error: 0.012588085088573805
Epoch: 1500, Error: 0.011812001043351438
Epoch: 1600, Error: 0.012079087445290492
Epoch: 1700, Error: 0.010694870665843658
Epoch: 1800, Error: 0.010515293145181232
Epoch: 1900, Error: 0.011185376244567728
Epoch: 2000, Error: 0.010952299674415333
Epoch: 2100, Error: 0.01031924016373726
Epoch: 2200, Error: 0.009234600521837694
Epoch: 2300, Error: 0.008739517768187061
Epoch: 2400, Error: 0.009081340937027137
Epoch: 2500, Error: 0.007724819825748509
Epoch: 2600, Error: 0.0067617923719042695
Epoch: 2700, Error: 0.006751936245916031
Epoch: 2800, Error: 0.005826379628726771
Epoch: 2900, Error: 0.0060277406847131666
Epoch: 3000, Error: 0.005504565850760968
Epoch: 3100, Error: 0.005277256795546479
Epoch: 3200, Error: 0.005213584036243296
Epoch: 3300, Error: 0.005196725678695435
Epoch: 3400, Error: 0.005353722630771091
Epoch: 3500, Error: 0.005266282738993414
Epoch: 3600, Error: 0.005380425553046625
Epoch: 3700, Error: 0.005406944263814776
Epoch: 3800, Error: 0.0054024388202190375
Epoch: 3900, Error: 0.005407677430663878
Epoch: 4000, Error: 0.005385399099675651
Epoch: 4100, Error: 0.005356785001575452
Epoch: 4200, Error: 0.005347459916994567
Epoch: 4300, Error: 0.005300762542727011
Epoch: 4400, Error: 0.00533479899088567
Epoch: 4500, Error: 0.005325432776862486
Epoch: 4600, Error: 0.005290237098453119
Epoch: 4700, Error: 0.005270148534308825
Epoch: 4800, Error: 0.0052643545764167075
Epoch: 4900, Error: 0.005224580378273366
Epoch: 5000, Error: 0.005183193112000269
Epoch: 5100, Error: 0.005180078761466987
Epoch: 5200, Error: 0.005148490834632487
Epoch: 5300, Error: 0.005121520124287666
Epoch: 5400, Error: 0.005169615109803385
Epoch: 5500, Error: 0.005163655211776127
Epoch: 5600, Error: 0.00510815363960968
Epoch: 5700, Error: 0.005225770063038191
Epoch: 5800, Error: 0.0050516256529550985
Epoch: 5900, Error: 0.00510556732202931
Epoch: 6000, Error: 0.004886847630969898
Epoch: 6100, Error: 0.00494753954242543
Epoch: 6200, Error: 0.005910606979822143
Epoch: 6300, Error: 0.004986678765404643
Epoch: 6400, Error: 0.004976576285001235
Epoch: 6500, Error: 0.004614637989838126
Epoch: 6600, Error: 0.004822758567464228
Epoch: 6700, Error: 0.004983642772499726
Epoch: 6800, Error: 0.004176532174751759
Epoch: 6900, Error: 0.004175269771158721
Epoch: 7000, Error: 0.004926021307494834
Epoch: 7100, Error: 0.004413351455608622
Epoch: 7200, Error: 0.003635890906045757
Epoch: 7300, Error: 0.003898306222693548
Epoch: 7400, Error: 0.0034714753184647298
Epoch: 7500, Error: 0.004235555262270809
Epoch: 7600, Error: 0.00426827966900537
Epoch: 7700, Error: 0.003089097381401889
Epoch: 7800, Error: 0.004089789121258548
Epoch: 7900, Error: 0.0043275798082310305
Epoch: 8000, Error: 0.004882047105802361
Epoch: 8100, Error: 0.004750266773381287
Epoch: 8200, Error: 0.002400982668604367
Epoch: 8300, Error: 0.003047994566563355
Epoch: 8400, Error: 0.002672648653024304
Epoch: 8500, Error: 0.004102640139612613
Epoch: 8600, Error: 0.002423858636628853
Epoch: 8700, Error: 0.0025051400682810712
Epoch: 8800, Error: 0.003869336633458026
Epoch: 8900, Error: 0.006417223894239511
Epoch: 9000, Error: 0.0020941242019394323
Epoch: 9100, Error: 0.002945881513880328
Epoch: 9200, Error: 0.0016408797507275858
Epoch: 9300, Error: 0.0028389356192262106
Epoch: 9400, Error: 0.005774459370252941
Epoch: 9500, Error: 0.0020826691215106805
Epoch: 9600, Error: 0.0026799750860126517
Epoch: 9700, Error: 0.0011641169870956073
Epoch: 9800, Error: 0.001761696675318768
Epoch: 9900, Error: 0.003061634380792658
Epoch: 10000, Error: 0.0013233919412238909
Epoch: 10100, Error: 0.001200631629888217
Epoch: 10200, Error: 0.0010617743123704606
Epoch: 10300, Error: 0.0010481520571568612
Epoch: 10400, Error: 0.0010267058048893001
Epoch: 10500, Error: 0.0010315076832756896
Epoch: 10600, Error: 0.001016653492287992
Epoch: 10700, Error: 0.0010227499268217093
Epoch: 10800, Error: 0.0010084310928964678
Epoch: 10900, Error: 0.0010218892182782232
Epoch: 11000, Error: 0.0010166873706517212
Epoch: 11100, Error: 0.00103398918417004
Epoch: 11200, Error: 0.0010207235671596062
Epoch: 11300, Error: 0.0010132366346510854
Epoch: 11400, Error: 0.0010426010783151317
Epoch: 11500, Error: 0.0010259228012165632
Finished
