Input Patterns
0.224 0.624 0.067 0.043 
0.11 0.502 0.051 0.043 
0.196 0.667 0.067 0.043 
0.055 0.584 0.067 0.082 
0.027 0.376 0.067 0.043 
0.306 0.71 0.086 0.043 
0.137 0.416 0.067 0.0 
0.416 0.831 0.035 0.043 
0.306 0.792 0.051 0.125 
0.388 0.749 0.118 0.082 
0.306 0.584 0.118 0.043 
0.082 0.667 0.0 0.043 
0.137 0.584 0.153 0.043 
0.196 0.584 0.102 0.125 
0.251 0.584 0.067 0.043 
0.137 0.459 0.102 0.043 
0.251 0.875 0.086 0.0 
0.165 0.459 0.086 0.043 
0.333 0.624 0.051 0.043 
0.027 0.416 0.051 0.043 
0.196 0.624 0.051 0.082 
0.027 0.502 0.051 0.043 
0.224 0.749 0.153 0.125 
0.224 0.749 0.102 0.043 
0.278 0.71 0.086 0.043 
0.165 0.416 0.067 0.043 
0.082 0.459 0.086 0.043 
0.306 0.792 0.118 0.125 
0.196 0.584 0.086 0.043 
0.165 0.459 0.086 0.0 
0.137 0.584 0.102 0.043 
0.0 0.416 0.016 0.0 
0.388 1.0 0.086 0.125 
0.224 0.624 0.067 0.082 
0.224 0.749 0.086 0.082 
0.224 0.71 0.086 0.125 
0.224 0.541 0.118 0.165 
0.196 0.416 0.102 0.043 
0.251 0.624 0.086 0.043 
0.11 0.502 0.102 0.043 
0.306 0.584 0.086 0.125 
0.333 0.918 0.067 0.043 
0.196 0.502 0.035 0.043 
0.165 0.667 0.067 0.0 
0.224 0.584 0.086 0.043 
0.055 0.125 0.051 0.082 
0.196 0.624 0.102 0.208 
0.137 0.416 0.067 0.082 
0.082 0.502 0.067 0.043 
0.196 0.541 0.067 0.043 
0.749 0.502 0.627 0.541 
0.722 0.459 0.663 0.584 
0.612 0.333 0.612 0.584 
0.557 0.541 0.627 0.624 
0.639 0.376 0.612 0.498 
0.196 0.0 0.424 0.376 
0.471 0.082 0.51 0.376 
0.361 0.376 0.439 0.498 
0.361 0.416 0.592 0.584 
0.529 0.082 0.592 0.584 
0.443 0.502 0.643 0.459 
0.557 0.208 0.663 0.584 
0.584 0.376 0.561 0.498 
0.694 0.333 0.643 0.541 
0.471 0.376 0.592 0.584 
0.333 0.169 0.475 0.416 
0.416 0.29 0.49 0.459 
0.306 0.416 0.592 0.584 
0.667 0.459 0.627 0.584 
0.361 0.416 0.525 0.498 
0.333 0.251 0.576 0.459 
0.416 0.251 0.51 0.459 
0.361 0.29 0.541 0.498 
0.388 0.376 0.541 0.498 
0.224 0.208 0.337 0.416 
0.584 0.502 0.592 0.584 
0.333 0.125 0.51 0.498 
0.388 0.333 0.592 0.498 
0.165 0.169 0.388 0.376 
0.251 0.29 0.49 0.541 
0.443 0.416 0.541 0.584 
0.498 0.376 0.627 0.541 
0.667 0.459 0.576 0.541 
0.416 0.29 0.525 0.376 
0.361 0.208 0.49 0.416 
0.498 0.333 0.51 0.498 
0.498 0.333 0.627 0.459 
0.639 0.416 0.576 0.541 
0.667 0.416 0.678 0.667 
0.388 0.251 0.424 0.376 
0.333 0.169 0.459 0.376 
0.471 0.29 0.694 0.624 
0.471 0.584 0.592 0.624 
0.557 0.125 0.576 0.498 
0.333 0.208 0.51 0.498 
0.498 0.416 0.612 0.541 
0.196 0.125 0.388 0.376 
0.388 0.416 0.541 0.459 
0.529 0.376 0.561 0.498 
0.388 0.333 0.525 0.498 
0.557 0.541 0.847 1.0 
0.776 0.416 0.831 0.831 
0.612 0.416 0.812 0.875 
0.165 0.208 0.592 0.667 
0.667 0.208 0.812 0.71 
0.612 0.502 0.694 0.792 
0.694 0.416 0.761 0.831 
0.416 0.333 0.694 0.957 
0.612 0.416 0.761 0.71 
0.945 0.251 1.0 0.918 
0.722 0.502 0.796 0.918 
0.945 0.333 0.965 0.792 
0.667 0.541 0.796 0.831 
0.529 0.333 0.643 0.71 
0.584 0.333 0.78 0.831 
0.863 0.333 0.863 0.749 
0.584 0.333 0.78 0.875 
0.498 0.251 0.78 0.541 
0.557 0.584 0.78 0.957 
0.471 0.416 0.643 0.71 
0.667 0.459 0.78 0.957 
0.416 0.29 0.694 0.749 
0.667 0.541 0.796 1.0 
0.557 0.208 0.678 0.749 
0.529 0.584 0.745 0.918 
0.416 0.29 0.694 0.749 
0.557 0.376 0.78 0.71 
0.918 0.416 0.949 0.831 
0.835 0.376 0.898 0.71 
0.804 0.667 0.863 1.0 
0.584 0.29 0.729 0.749 
0.388 0.208 0.678 0.792 
0.584 0.502 0.729 0.918 
0.945 0.749 0.965 0.875 
0.471 0.082 0.678 0.584 
0.361 0.333 0.663 0.792 
0.557 0.29 0.663 0.71 
0.804 0.502 0.847 0.71 
0.498 0.416 0.51 0.71 
0.804 0.416 0.812 0.624 
1.0 0.749 0.914 0.792 
0.557 0.333 0.694 0.584 
0.945 0.416 0.863 0.918 
0.584 0.459 0.761 0.71 
0.722 0.459 0.745 0.831 
0.722 0.459 0.694 0.918 
0.694 0.502 0.831 0.918 
0.667 0.416 0.714 0.918 
0.612 0.416 0.714 0.792 
0.443 0.416 0.694 0.71 
Teaching Patterns
1.0 0.0 0.0 
1.0 0.0 0.0 
1.0 0.0 0.0 
1.0 0.0 0.0 
1.0 0.0 0.0 
1.0 0.0 0.0 
1.0 0.0 0.0 
1.0 0.0 0.0 
1.0 0.0 0.0 
1.0 0.0 0.0 
1.0 0.0 0.0 
1.0 0.0 0.0 
1.0 0.0 0.0 
1.0 0.0 0.0 
1.0 0.0 0.0 
1.0 0.0 0.0 
1.0 0.0 0.0 
1.0 0.0 0.0 
1.0 0.0 0.0 
1.0 0.0 0.0 
1.0 0.0 0.0 
1.0 0.0 0.0 
1.0 0.0 0.0 
1.0 0.0 0.0 
1.0 0.0 0.0 
1.0 0.0 0.0 
1.0 0.0 0.0 
1.0 0.0 0.0 
1.0 0.0 0.0 
1.0 0.0 0.0 
1.0 0.0 0.0 
1.0 0.0 0.0 
1.0 0.0 0.0 
1.0 0.0 0.0 
1.0 0.0 0.0 
1.0 0.0 0.0 
1.0 0.0 0.0 
1.0 0.0 0.0 
1.0 0.0 0.0 
1.0 0.0 0.0 
1.0 0.0 0.0 
1.0 0.0 0.0 
1.0 0.0 0.0 
1.0 0.0 0.0 
1.0 0.0 0.0 
1.0 0.0 0.0 
1.0 0.0 0.0 
1.0 0.0 0.0 
1.0 0.0 0.0 
1.0 0.0 0.0 
0.0 1.0 0.0 
0.0 1.0 0.0 
0.0 1.0 0.0 
0.0 1.0 0.0 
0.0 1.0 0.0 
0.0 1.0 0.0 
0.0 1.0 0.0 
0.0 1.0 0.0 
0.0 1.0 0.0 
0.0 1.0 0.0 
0.0 1.0 0.0 
0.0 1.0 0.0 
0.0 1.0 0.0 
0.0 1.0 0.0 
0.0 1.0 0.0 
0.0 1.0 0.0 
0.0 1.0 0.0 
0.0 1.0 0.0 
0.0 1.0 0.0 
0.0 1.0 0.0 
0.0 1.0 0.0 
0.0 1.0 0.0 
0.0 1.0 0.0 
0.0 1.0 0.0 
0.0 1.0 0.0 
0.0 1.0 0.0 
0.0 1.0 0.0 
0.0 1.0 0.0 
0.0 1.0 0.0 
0.0 1.0 0.0 
0.0 1.0 0.0 
0.0 1.0 0.0 
0.0 1.0 0.0 
0.0 1.0 0.0 
0.0 1.0 0.0 
0.0 1.0 0.0 
0.0 1.0 0.0 
0.0 1.0 0.0 
0.0 1.0 0.0 
0.0 1.0 0.0 
0.0 1.0 0.0 
0.0 1.0 0.0 
0.0 1.0 0.0 
0.0 1.0 0.0 
0.0 1.0 0.0 
0.0 1.0 0.0 
0.0 1.0 0.0 
0.0 1.0 0.0 
0.0 1.0 0.0 
0.0 1.0 0.0 
0.0 0.0 1.0 
0.0 0.0 1.0 
0.0 0.0 1.0 
0.0 0.0 1.0 
0.0 0.0 1.0 
0.0 0.0 1.0 
0.0 0.0 1.0 
0.0 0.0 1.0 
0.0 0.0 1.0 
0.0 0.0 1.0 
0.0 0.0 1.0 
0.0 0.0 1.0 
0.0 0.0 1.0 
0.0 0.0 1.0 
0.0 0.0 1.0 
0.0 0.0 1.0 
0.0 0.0 1.0 
0.0 0.0 1.0 
0.0 0.0 1.0 
0.0 0.0 1.0 
0.0 0.0 1.0 
0.0 0.0 1.0 
0.0 0.0 1.0 
0.0 0.0 1.0 
0.0 0.0 1.0 
0.0 0.0 1.0 
0.0 0.0 1.0 
0.0 0.0 1.0 
0.0 0.0 1.0 
0.0 0.0 1.0 
0.0 0.0 1.0 
0.0 0.0 1.0 
0.0 0.0 1.0 
0.0 0.0 1.0 
0.0 0.0 1.0 
0.0 0.0 1.0 
0.0 0.0 1.0 
0.0 0.0 1.0 
0.0 0.0 1.0 
0.0 0.0 1.0 
0.0 0.0 1.0 
0.0 0.0 1.0 
0.0 0.0 1.0 
0.0 0.0 1.0 
0.0 0.0 1.0 
0.0 0.0 1.0 
0.0 0.0 1.0 
0.0 0.0 1.0 
0.0 0.0 1.0 
0.0 0.0 1.0 
Learning : 0.8999999761581421
Momentum : 0.9
Epoch: 100, Error: 0.012656247179833947
Epoch: 200, Error: 0.012308595995339348
Epoch: 300, Error: 0.012743896885484794
Epoch: 400, Error: 0.01398192857377574
Epoch: 500, Error: 0.012506171828628398
Epoch: 600, Error: 0.013156200185198861
Epoch: 700, Error: 0.012758443331907005
Epoch: 800, Error: 0.012715210516208487
Epoch: 900, Error: 0.012856611427873806
Epoch: 1000, Error: 0.012800890933470232
Epoch: 1100, Error: 0.012589422700979212
Epoch: 1200, Error: 0.01229639913551992
Epoch: 1300, Error: 0.012609760840630426
Epoch: 1400, Error: 0.013209510681646362
Epoch: 1500, Error: 0.012851722897247498
Epoch: 1600, Error: 0.01180992795829711
Epoch: 1700, Error: 0.011725106057561259
Epoch: 1800, Error: 0.011478469954560446
Epoch: 1900, Error: 0.011365565400259518
Epoch: 2000, Error: 0.011091208914380752
Epoch: 2100, Error: 0.011475290421224386
Epoch: 2200, Error: 0.011199059795858734
Epoch: 2300, Error: 0.011194319845667334
Epoch: 2400, Error: 0.011088196934150679
Epoch: 2500, Error: 0.010540420272913872
Epoch: 2600, Error: 0.009663801400884617
Epoch: 2700, Error: 0.009683515678002982
Epoch: 2800, Error: 0.0076985025259635005
Epoch: 2900, Error: 0.0076682825994307206
Epoch: 3000, Error: 0.007370109874451024
Epoch: 3100, Error: 0.007473783868347598
Epoch: 3200, Error: 0.007024308401672033
Epoch: 3300, Error: 0.006666026137142292
Epoch: 3400, Error: 0.006306751831417782
Epoch: 3500, Error: 0.006424698828885204
Epoch: 3600, Error: 0.005899173807140522
Epoch: 3700, Error: 0.00601014482478412
Epoch: 3800, Error: 0.006593750153835359
Epoch: 3900, Error: 0.006382853170951697
Epoch: 4000, Error: 0.005750619552926899
Epoch: 4100, Error: 0.005468785535971172
Epoch: 4200, Error: 0.0055479091189277515
Epoch: 4300, Error: 0.005609952126916209
Epoch: 4400, Error: 0.005389426606704901
Epoch: 4500, Error: 0.005647016810156612
Epoch: 4600, Error: 0.005302635077093546
Epoch: 4700, Error: 0.0053303281809819756
Epoch: 4800, Error: 0.005458487559590819
Epoch: 4900, Error: 0.005350026791580649
Epoch: 5000, Error: 0.0053866699929260384
Epoch: 5100, Error: 0.005356087331582343
Epoch: 5200, Error: 0.005473301755580887
Epoch: 5300, Error: 0.005493789289135118
Epoch: 5400, Error: 0.005449200677358371
Epoch: 5500, Error: 0.0053995335538523535
Epoch: 5600, Error: 0.005436176892618196
Epoch: 5700, Error: 0.0054683651242161836
Epoch: 5800, Error: 0.005490518822334139
Epoch: 5900, Error: 0.005404502423044046
Epoch: 6000, Error: 0.00548320835077268
Epoch: 6100, Error: 0.005563810671651861
Epoch: 6200, Error: 0.005559857178577107
Epoch: 6300, Error: 0.005498895356326822
Epoch: 6400, Error: 0.005317741072335169
Epoch: 6500, Error: 0.005262793663062466
Epoch: 6600, Error: 0.005250885744262845
Epoch: 6700, Error: 0.005274912088711034
Epoch: 6800, Error: 0.00567594745321611
Epoch: 6900, Error: 0.005856814629601653
Epoch: 7000, Error: 0.005238053244033283
Epoch: 7100, Error: 0.005561696239673703
Epoch: 7200, Error: 0.005235173600896939
Epoch: 7300, Error: 0.005168788277037336
Epoch: 7400, Error: 0.005231333231684696
Epoch: 7500, Error: 0.005361870216266946
Epoch: 7600, Error: 0.00535824984355087
Epoch: 7700, Error: 0.005161098119447505
Epoch: 7800, Error: 0.005298034298484181
Epoch: 7900, Error: 0.005176840548980901
Epoch: 8000, Error: 0.005153099862716604
Epoch: 8100, Error: 0.0051687562259633965
Epoch: 8200, Error: 0.00529063953190865
Epoch: 8300, Error: 0.0051419545350751055
Epoch: 8400, Error: 0.004854920463138089
Epoch: 8500, Error: 0.005023956501624043
Epoch: 8600, Error: 0.004689357401492
Epoch: 8700, Error: 0.003973916303840739
Epoch: 8800, Error: 0.0037096682206872187
Epoch: 8900, Error: 0.003409506154010849
Epoch: 9000, Error: 0.004451962397083087
Epoch: 9100, Error: 0.0027680702880883735
Epoch: 9200, Error: 0.002573004311294058
Epoch: 9300, Error: 0.0022229686454083163
Epoch: 9400, Error: 0.002865122409875822
Epoch: 9500, Error: 0.0017748982044484827
Epoch: 9600, Error: 0.001544851659513603
Epoch: 9700, Error: 0.0015228717229537976
Epoch: 9800, Error: 0.0016429783385743244
Epoch: 9900, Error: 0.0015071314668926724
Epoch: 10000, Error: 0.001344253131166041
Epoch: 10100, Error: 0.0013140706847992293
Epoch: 10200, Error: 0.001254862620091608
Epoch: 10300, Error: 0.0012400204858894447
Epoch: 10400, Error: 0.0012091646127410777
Epoch: 10500, Error: 0.0011998952912606684
Epoch: 10600, Error: 0.0011842762890737898
Epoch: 10700, Error: 0.0011894670328376747
Epoch: 10800, Error: 0.001140468889107138
Epoch: 10900, Error: 0.0011366840263869304
Epoch: 11000, Error: 0.0011559572713126908
Epoch: 11100, Error: 0.0011188650838936296
Epoch: 11200, Error: 0.0011035349705150598
Epoch: 11300, Error: 0.001084893112611039
Epoch: 11400, Error: 0.0011089408799621902
Epoch: 11500, Error: 0.0010820908603993977
Epoch: 11600, Error: 0.0010570075681121639
Epoch: 11700, Error: 0.001052170623495394
Epoch: 11800, Error: 0.0010524003473382645
Epoch: 11900, Error: 0.0010376285376042305
Finished
