Input Patterns
0.224 0.624 0.067 0.043 
0.11 0.502 0.051 0.043 
0.196 0.667 0.067 0.043 
0.055 0.584 0.067 0.082 
0.027 0.376 0.067 0.043 
0.306 0.71 0.086 0.043 
0.137 0.416 0.067 0.0 
0.416 0.831 0.035 0.043 
0.306 0.792 0.051 0.125 
0.388 0.749 0.118 0.082 
0.306 0.584 0.118 0.043 
0.082 0.667 0.0 0.043 
0.137 0.584 0.153 0.043 
0.196 0.584 0.102 0.125 
0.251 0.584 0.067 0.043 
0.137 0.459 0.102 0.043 
0.251 0.875 0.086 0.0 
0.165 0.459 0.086 0.043 
0.333 0.624 0.051 0.043 
0.027 0.416 0.051 0.043 
0.196 0.624 0.051 0.082 
0.027 0.502 0.051 0.043 
0.224 0.749 0.153 0.125 
0.224 0.749 0.102 0.043 
0.278 0.71 0.086 0.043 
0.165 0.416 0.067 0.043 
0.082 0.459 0.086 0.043 
0.306 0.792 0.118 0.125 
0.196 0.584 0.086 0.043 
0.165 0.459 0.086 0.0 
0.137 0.584 0.102 0.043 
0.0 0.416 0.016 0.0 
0.388 1.0 0.086 0.125 
0.224 0.624 0.067 0.082 
0.224 0.749 0.086 0.082 
0.224 0.71 0.086 0.125 
0.224 0.541 0.118 0.165 
0.196 0.416 0.102 0.043 
0.251 0.624 0.086 0.043 
0.11 0.502 0.102 0.043 
0.306 0.584 0.086 0.125 
0.333 0.918 0.067 0.043 
0.196 0.502 0.035 0.043 
0.165 0.667 0.067 0.0 
0.224 0.584 0.086 0.043 
0.055 0.125 0.051 0.082 
0.196 0.624 0.102 0.208 
0.137 0.416 0.067 0.082 
0.082 0.502 0.067 0.043 
0.196 0.541 0.067 0.043 
0.749 0.502 0.627 0.541 
0.722 0.459 0.663 0.584 
0.612 0.333 0.612 0.584 
0.557 0.541 0.627 0.624 
0.639 0.376 0.612 0.498 
0.196 0.0 0.424 0.376 
0.471 0.082 0.51 0.376 
0.361 0.376 0.439 0.498 
0.361 0.416 0.592 0.584 
0.529 0.082 0.592 0.584 
0.443 0.502 0.643 0.459 
0.557 0.208 0.663 0.584 
0.584 0.376 0.561 0.498 
0.694 0.333 0.643 0.541 
0.471 0.376 0.592 0.584 
0.333 0.169 0.475 0.416 
0.416 0.29 0.49 0.459 
0.306 0.416 0.592 0.584 
0.667 0.459 0.627 0.584 
0.361 0.416 0.525 0.498 
0.333 0.251 0.576 0.459 
0.416 0.251 0.51 0.459 
0.361 0.29 0.541 0.498 
0.388 0.376 0.541 0.498 
0.224 0.208 0.337 0.416 
0.584 0.502 0.592 0.584 
0.333 0.125 0.51 0.498 
0.388 0.333 0.592 0.498 
0.165 0.169 0.388 0.376 
0.251 0.29 0.49 0.541 
0.443 0.416 0.541 0.584 
0.498 0.376 0.627 0.541 
0.667 0.459 0.576 0.541 
0.416 0.29 0.525 0.376 
0.361 0.208 0.49 0.416 
0.498 0.333 0.51 0.498 
0.498 0.333 0.627 0.459 
0.639 0.416 0.576 0.541 
0.667 0.416 0.678 0.667 
0.388 0.251 0.424 0.376 
0.333 0.169 0.459 0.376 
0.471 0.29 0.694 0.624 
0.471 0.584 0.592 0.624 
0.557 0.125 0.576 0.498 
0.333 0.208 0.51 0.498 
0.498 0.416 0.612 0.541 
0.196 0.125 0.388 0.376 
0.388 0.416 0.541 0.459 
0.529 0.376 0.561 0.498 
0.388 0.333 0.525 0.498 
0.557 0.541 0.847 1.0 
0.776 0.416 0.831 0.831 
0.612 0.416 0.812 0.875 
0.165 0.208 0.592 0.667 
0.667 0.208 0.812 0.71 
0.612 0.502 0.694 0.792 
0.694 0.416 0.761 0.831 
0.416 0.333 0.694 0.957 
0.612 0.416 0.761 0.71 
0.945 0.251 1.0 0.918 
0.722 0.502 0.796 0.918 
0.945 0.333 0.965 0.792 
0.667 0.541 0.796 0.831 
0.529 0.333 0.643 0.71 
0.584 0.333 0.78 0.831 
0.863 0.333 0.863 0.749 
0.584 0.333 0.78 0.875 
0.498 0.251 0.78 0.541 
0.557 0.584 0.78 0.957 
0.471 0.416 0.643 0.71 
0.667 0.459 0.78 0.957 
0.416 0.29 0.694 0.749 
0.667 0.541 0.796 1.0 
0.557 0.208 0.678 0.749 
0.529 0.584 0.745 0.918 
0.416 0.29 0.694 0.749 
0.557 0.376 0.78 0.71 
0.918 0.416 0.949 0.831 
0.835 0.376 0.898 0.71 
0.804 0.667 0.863 1.0 
0.584 0.29 0.729 0.749 
0.388 0.208 0.678 0.792 
0.584 0.502 0.729 0.918 
0.945 0.749 0.965 0.875 
0.471 0.082 0.678 0.584 
0.361 0.333 0.663 0.792 
0.557 0.29 0.663 0.71 
0.804 0.502 0.847 0.71 
0.498 0.416 0.51 0.71 
0.804 0.416 0.812 0.624 
1.0 0.749 0.914 0.792 
0.557 0.333 0.694 0.584 
0.945 0.416 0.863 0.918 
0.584 0.459 0.761 0.71 
0.722 0.459 0.745 0.831 
0.722 0.459 0.694 0.918 
0.694 0.502 0.831 0.918 
0.667 0.416 0.714 0.918 
0.612 0.416 0.714 0.792 
0.443 0.416 0.694 0.71 
Teaching Patterns
1.0 0.0 0.0 
1.0 0.0 0.0 
1.0 0.0 0.0 
1.0 0.0 0.0 
1.0 0.0 0.0 
1.0 0.0 0.0 
1.0 0.0 0.0 
1.0 0.0 0.0 
1.0 0.0 0.0 
1.0 0.0 0.0 
1.0 0.0 0.0 
1.0 0.0 0.0 
1.0 0.0 0.0 
1.0 0.0 0.0 
1.0 0.0 0.0 
1.0 0.0 0.0 
1.0 0.0 0.0 
1.0 0.0 0.0 
1.0 0.0 0.0 
1.0 0.0 0.0 
1.0 0.0 0.0 
1.0 0.0 0.0 
1.0 0.0 0.0 
1.0 0.0 0.0 
1.0 0.0 0.0 
1.0 0.0 0.0 
1.0 0.0 0.0 
1.0 0.0 0.0 
1.0 0.0 0.0 
1.0 0.0 0.0 
1.0 0.0 0.0 
1.0 0.0 0.0 
1.0 0.0 0.0 
1.0 0.0 0.0 
1.0 0.0 0.0 
1.0 0.0 0.0 
1.0 0.0 0.0 
1.0 0.0 0.0 
1.0 0.0 0.0 
1.0 0.0 0.0 
1.0 0.0 0.0 
1.0 0.0 0.0 
1.0 0.0 0.0 
1.0 0.0 0.0 
1.0 0.0 0.0 
1.0 0.0 0.0 
1.0 0.0 0.0 
1.0 0.0 0.0 
1.0 0.0 0.0 
1.0 0.0 0.0 
0.0 1.0 0.0 
0.0 1.0 0.0 
0.0 1.0 0.0 
0.0 1.0 0.0 
0.0 1.0 0.0 
0.0 1.0 0.0 
0.0 1.0 0.0 
0.0 1.0 0.0 
0.0 1.0 0.0 
0.0 1.0 0.0 
0.0 1.0 0.0 
0.0 1.0 0.0 
0.0 1.0 0.0 
0.0 1.0 0.0 
0.0 1.0 0.0 
0.0 1.0 0.0 
0.0 1.0 0.0 
0.0 1.0 0.0 
0.0 1.0 0.0 
0.0 1.0 0.0 
0.0 1.0 0.0 
0.0 1.0 0.0 
0.0 1.0 0.0 
0.0 1.0 0.0 
0.0 1.0 0.0 
0.0 1.0 0.0 
0.0 1.0 0.0 
0.0 1.0 0.0 
0.0 1.0 0.0 
0.0 1.0 0.0 
0.0 1.0 0.0 
0.0 1.0 0.0 
0.0 1.0 0.0 
0.0 1.0 0.0 
0.0 1.0 0.0 
0.0 1.0 0.0 
0.0 1.0 0.0 
0.0 1.0 0.0 
0.0 1.0 0.0 
0.0 1.0 0.0 
0.0 1.0 0.0 
0.0 1.0 0.0 
0.0 1.0 0.0 
0.0 1.0 0.0 
0.0 1.0 0.0 
0.0 1.0 0.0 
0.0 1.0 0.0 
0.0 1.0 0.0 
0.0 1.0 0.0 
0.0 1.0 0.0 
0.0 0.0 1.0 
0.0 0.0 1.0 
0.0 0.0 1.0 
0.0 0.0 1.0 
0.0 0.0 1.0 
0.0 0.0 1.0 
0.0 0.0 1.0 
0.0 0.0 1.0 
0.0 0.0 1.0 
0.0 0.0 1.0 
0.0 0.0 1.0 
0.0 0.0 1.0 
0.0 0.0 1.0 
0.0 0.0 1.0 
0.0 0.0 1.0 
0.0 0.0 1.0 
0.0 0.0 1.0 
0.0 0.0 1.0 
0.0 0.0 1.0 
0.0 0.0 1.0 
0.0 0.0 1.0 
0.0 0.0 1.0 
0.0 0.0 1.0 
0.0 0.0 1.0 
0.0 0.0 1.0 
0.0 0.0 1.0 
0.0 0.0 1.0 
0.0 0.0 1.0 
0.0 0.0 1.0 
0.0 0.0 1.0 
0.0 0.0 1.0 
0.0 0.0 1.0 
0.0 0.0 1.0 
0.0 0.0 1.0 
0.0 0.0 1.0 
0.0 0.0 1.0 
0.0 0.0 1.0 
0.0 0.0 1.0 
0.0 0.0 1.0 
0.0 0.0 1.0 
0.0 0.0 1.0 
0.0 0.0 1.0 
0.0 0.0 1.0 
0.0 0.0 1.0 
0.0 0.0 1.0 
0.0 0.0 1.0 
0.0 0.0 1.0 
0.0 0.0 1.0 
0.0 0.0 1.0 
0.0 0.0 1.0 
Learning : 0.8999999761581421
Momentum : 0.9
Epoch: 100, Error: 0.01244064128131706
Epoch: 200, Error: 0.012888257050579622
Epoch: 300, Error: 0.014270176234074028
Epoch: 400, Error: 0.012756750226701256
Epoch: 500, Error: 0.015079891500263199
Epoch: 600, Error: 0.012637502457424683
Epoch: 700, Error: 0.013969578146155546
Epoch: 800, Error: 0.013369618618387695
Epoch: 900, Error: 0.012515200776341771
Epoch: 1000, Error: 0.012279652754637924
Epoch: 1100, Error: 0.012180059544759737
Epoch: 1200, Error: 0.01208021180968418
Epoch: 1300, Error: 0.01546548030267734
Epoch: 1400, Error: 0.012026246614547558
Epoch: 1500, Error: 0.012196050017853031
Epoch: 1600, Error: 0.011945549929206701
Epoch: 1700, Error: 0.014030874513499261
Epoch: 1800, Error: 0.012075103686482805
Epoch: 1900, Error: 0.01136058708237334
Epoch: 2000, Error: 0.010932748232706511
Epoch: 2100, Error: 0.008904284107946995
Epoch: 2200, Error: 0.007815881625427429
Epoch: 2300, Error: 0.007592178415261261
Epoch: 2400, Error: 0.008231083906744041
Epoch: 2500, Error: 0.006963231104802729
Epoch: 2600, Error: 0.0067245024492425505
Epoch: 2700, Error: 0.006978078819304567
Epoch: 2800, Error: 0.006396789129108529
Epoch: 2900, Error: 0.00839127873979543
Epoch: 3000, Error: 0.006218036412983218
Epoch: 3100, Error: 0.0062713261082266115
Epoch: 3200, Error: 0.005718668104213657
Epoch: 3300, Error: 0.006409574941048484
Epoch: 3400, Error: 0.00640337541342051
Epoch: 3500, Error: 0.0064864688616081325
Epoch: 3600, Error: 0.005439646544380621
Epoch: 3700, Error: 0.005299028830779195
Epoch: 3800, Error: 0.006078690289647998
Epoch: 3900, Error: 0.005708367420480559
Epoch: 4000, Error: 0.005231819137640097
Epoch: 4100, Error: 0.00526737555918474
Epoch: 4200, Error: 0.005239122274803809
Epoch: 4300, Error: 0.005165574301462435
Epoch: 4400, Error: 0.0052822321031118155
Epoch: 4500, Error: 0.0050516598455431425
Epoch: 4600, Error: 0.005201853402264064
Epoch: 4700, Error: 0.005193761807807687
Epoch: 4800, Error: 0.005116462604243782
Epoch: 4900, Error: 0.0050550579653617705
Epoch: 5000, Error: 0.005165831308618485
Epoch: 5100, Error: 0.004941931171679704
Epoch: 5200, Error: 0.004964971802966821
Epoch: 5300, Error: 0.005061951279329834
Epoch: 5400, Error: 0.004993854319969318
Epoch: 5500, Error: 0.00494602159357246
Epoch: 5600, Error: 0.004900155011457723
Epoch: 5700, Error: 0.00490809959247778
Epoch: 5800, Error: 0.00492358948725044
Epoch: 5900, Error: 0.004894128287621767
Epoch: 6000, Error: 0.004914022290012018
Epoch: 6100, Error: 0.004949941013004255
Epoch: 6200, Error: 0.004911362229648191
Epoch: 6300, Error: 0.005085101616702852
Epoch: 6400, Error: 0.004921331799402791
Epoch: 6500, Error: 0.004942664096266839
Epoch: 6600, Error: 0.004829696388131147
Epoch: 6700, Error: 0.004916452716127611
Epoch: 6800, Error: 0.0048062841986757825
Epoch: 6900, Error: 0.004889324144591783
Epoch: 7000, Error: 0.004851422096078352
Epoch: 7100, Error: 0.004808574556472585
Epoch: 7200, Error: 0.004873404395602779
Epoch: 7300, Error: 0.004828646861366117
Epoch: 7400, Error: 0.004939115171051821
Epoch: 7500, Error: 0.004815528725067557
Epoch: 7600, Error: 0.004885889370411926
Epoch: 7700, Error: 0.004874562167794712
Epoch: 7800, Error: 0.004849333348949815
Epoch: 7900, Error: 0.004829828270700932
Epoch: 8000, Error: 0.0047801528096637754
Epoch: 8100, Error: 0.004705151078930116
Epoch: 8200, Error: 0.004777321534883904
Epoch: 8300, Error: 0.004781023488363773
Epoch: 8400, Error: 0.004725689685890961
Epoch: 8500, Error: 0.0047983953274436855
Epoch: 8600, Error: 0.004722857258746951
Epoch: 8700, Error: 0.004753648950010762
Epoch: 8800, Error: 0.004804655524699307
Epoch: 8900, Error: 0.004773096543724588
Epoch: 9000, Error: 0.004712933107873779
Epoch: 9100, Error: 0.004706644848028921
Epoch: 9200, Error: 0.004838912315961675
Epoch: 9300, Error: 0.004805617757613278
Epoch: 9400, Error: 0.004721944921277819
Epoch: 9500, Error: 0.004768125842142804
Epoch: 9600, Error: 0.004649445425268582
Epoch: 9700, Error: 0.00469217855130111
Epoch: 9800, Error: 0.004753967473830155
Epoch: 9900, Error: 0.004818282184985148
Epoch: 10000, Error: 0.004760391645140304
Epoch: 10100, Error: 0.004667767594288146
Epoch: 10200, Error: 0.004674192836433198
Epoch: 10300, Error: 0.004744449559576456
Epoch: 10400, Error: 0.004724487693746904
Epoch: 10500, Error: 0.0046549883859220475
Epoch: 10600, Error: 0.004688880990481097
Epoch: 10700, Error: 0.004644441609120668
Epoch: 10800, Error: 0.004793905628418933
Epoch: 10900, Error: 0.00466298494879739
Epoch: 11000, Error: 0.004772460574333321
Epoch: 11100, Error: 0.004669159822265993
Epoch: 11200, Error: 0.004690401250363675
Epoch: 11300, Error: 0.004745897949043747
Epoch: 11400, Error: 0.004712501303774325
Epoch: 11500, Error: 0.004714662229698251
Epoch: 11600, Error: 0.004704716220351082
Epoch: 11700, Error: 0.004750707119191679
Epoch: 11800, Error: 0.004655214950420883
Epoch: 11900, Error: 0.004734747064259365
Epoch: 12000, Error: 0.004741418071006514
Epoch: 12100, Error: 0.004699729154114803
Epoch: 12200, Error: 0.0047695424050586905
Epoch: 12300, Error: 0.004733471482038576
Epoch: 12400, Error: 0.0046622985834604115
Epoch: 12500, Error: 0.0046959080373307465
Epoch: 12600, Error: 0.00462925149412296
Epoch: 12700, Error: 0.004647832226081962
Epoch: 12800, Error: 0.004696582473382193
Epoch: 12900, Error: 0.004668987075322733
Epoch: 13000, Error: 0.004739404946116436
Epoch: 13100, Error: 0.004751851407816191
Epoch: 13200, Error: 0.004626707087250076
Epoch: 13300, Error: 0.0047386636406906565
Epoch: 13400, Error: 0.004738824334132028
Epoch: 13500, Error: 0.004691095677876211
Epoch: 13600, Error: 0.004682492823951234
Epoch: 13700, Error: 0.004685042756910179
Epoch: 13800, Error: 0.004627298432840959
Epoch: 13900, Error: 0.0046420056652631105
Epoch: 14000, Error: 0.004711888379538006
Epoch: 14100, Error: 0.004633414817619609
Epoch: 14200, Error: 0.004633595884765391
Epoch: 14300, Error: 0.004717132840541204
Epoch: 14400, Error: 0.004715215593789298
Epoch: 14500, Error: 0.004658181201800759
Epoch: 14600, Error: 0.004617736505578639
Epoch: 14700, Error: 0.004676884203303206
Epoch: 14800, Error: 0.004764775740002706
Epoch: 14900, Error: 0.004669491073346413
Epoch: 15000, Error: 0.004606259378449458
Epoch: 15100, Error: 0.004678965961310668
Epoch: 15200, Error: 0.004612281266848441
Epoch: 15300, Error: 0.004661826135487708
Epoch: 15400, Error: 0.00462528071466684
Epoch: 15500, Error: 0.004730516240010634
Epoch: 15600, Error: 0.004638247986398013
Epoch: 15700, Error: 0.004619437388477128
Epoch: 15800, Error: 0.004638740739054445
Epoch: 15900, Error: 0.0047531437853730735
Epoch: 16000, Error: 0.004690435246672945
Epoch: 16100, Error: 0.004680024552337562
Epoch: 16200, Error: 0.004662257417038759
Epoch: 16300, Error: 0.004618946895186526
Epoch: 16400, Error: 0.0046228411604305325
Epoch: 16500, Error: 0.0045897553949731575
Epoch: 16600, Error: 0.004613883536354516
Epoch: 16700, Error: 0.004588351368550442
Epoch: 16800, Error: 0.004660574111078656
Epoch: 16900, Error: 0.004620879278608652
Epoch: 17000, Error: 0.004653626012555069
Epoch: 17100, Error: 0.004697583291447075
Epoch: 17200, Error: 0.004689774534950835
Epoch: 17300, Error: 0.004667667616918612
Epoch: 17400, Error: 0.004654476593090132
Epoch: 17500, Error: 0.004712881954569255
Epoch: 17600, Error: 0.004606608419710023
Epoch: 17700, Error: 0.004575926118178498
Epoch: 17800, Error: 0.004662255978953471
Epoch: 17900, Error: 0.004663516297995802
Epoch: 18000, Error: 0.004611116287266442
Epoch: 18100, Error: 0.004652912744952107
Epoch: 18200, Error: 0.004618951522642606
Epoch: 18300, Error: 0.0046971393558713865
Epoch: 18400, Error: 0.0046961297825696595
Epoch: 18500, Error: 0.004620630421384832
Epoch: 18600, Error: 0.004688230567397673
Epoch: 18700, Error: 0.004645251162104711
Epoch: 18800, Error: 0.004655390449254951
Epoch: 18900, Error: 0.004615446301775365
Epoch: 19000, Error: 0.004718095594638347
Epoch: 19100, Error: 0.004626065276252386
Epoch: 19200, Error: 0.004687718717595347
Epoch: 19300, Error: 0.00464937958623523
Epoch: 19400, Error: 0.004643250715151356
Epoch: 19500, Error: 0.004587761988991291
Epoch: 19600, Error: 0.00464718395476055
Epoch: 19700, Error: 0.004592760861247128
Epoch: 19800, Error: 0.004606647380708825
Epoch: 19900, Error: 0.00461996172733096
Epoch: 20000, Error: 0.004602670516924358
Epoch: 20100, Error: 0.004672336944908137
Epoch: 20200, Error: 0.004571492985262076
Epoch: 20300, Error: 0.004642087276224232
Epoch: 20400, Error: 0.004645905191907316
Epoch: 20500, Error: 0.0045820884212507225
Epoch: 20600, Error: 0.004577172036365732
Epoch: 20700, Error: 0.004565067180957564
Epoch: 20800, Error: 0.004674592458048283
Epoch: 20900, Error: 0.004690033671688815
Epoch: 21000, Error: 0.004757344423288039
Epoch: 21100, Error: 0.004603965746234496
Epoch: 21200, Error: 0.004600301055341699
Epoch: 21300, Error: 0.004464972188734799
Epoch: 21400, Error: 0.00441280303256364
Epoch: 21500, Error: 0.004321714282938145
Epoch: 21600, Error: 0.004263285831840504
Epoch: 21700, Error: 0.00429070599327251
Epoch: 21800, Error: 0.004002467827423571
Epoch: 21900, Error: 0.004079176379814698
Epoch: 22000, Error: 0.003929885451176712
Epoch: 22100, Error: 0.0035175333023463274
Epoch: 22200, Error: 0.0037246631057799434
Epoch: 22300, Error: 0.0030878518350827056
Epoch: 22400, Error: 0.0031267444982808366
Epoch: 22500, Error: 0.002883698757720347
Epoch: 22600, Error: 0.0042126710575633
Epoch: 22700, Error: 0.0016685049963961148
Epoch: 22800, Error: 0.0012917554507334852
Epoch: 22900, Error: 0.0014314599744874453
Epoch: 23000, Error: 0.0011054276806992313
Epoch: 23100, Error: 8.229648782036327E-4
Epoch: 23200, Error: 8.167105087641176E-4
Epoch: 23300, Error: 8.001387260725036E-4
Epoch: 23400, Error: 7.579166698025067E-4
Epoch: 23500, Error: 7.393123006990943E-4
Epoch: 23600, Error: 7.28168741067238E-4
Epoch: 23700, Error: 7.492703428072402E-4
Epoch: 23800, Error: 7.143170762573247E-4
Epoch: 23900, Error: 7.038147915868801E-4
Epoch: 24000, Error: 7.132921791725276E-4
Epoch: 24100, Error: 6.475430541023641E-4
Epoch: 24200, Error: 6.417142811742424E-4
Epoch: 24300, Error: 6.229819742685867E-4
Epoch: 24400, Error: 6.094488064204514E-4
Epoch: 24500, Error: 6.351140598485869E-4
Epoch: 24600, Error: 6.219202695808713E-4
Epoch: 24700, Error: 5.89498176288698E-4
Epoch: 24800, Error: 5.745278684021853E-4
Epoch: 24900, Error: 5.59180742120065E-4
Epoch: 25000, Error: 5.64207045450622E-4
Epoch: 25100, Error: 5.703897703067635E-4
Epoch: 25200, Error: 6.056570282581692E-4
Epoch: 25300, Error: 5.609954091589931E-4
Epoch: 25400, Error: 5.58372373106448E-4
Epoch: 25500, Error: 5.518417602092964E-4
Epoch: 25600, Error: 6.011627649167745E-4
Epoch: 25700, Error: 5.583661559270245E-4
Epoch: 25800, Error: 5.656312044144303E-4
Epoch: 25900, Error: 5.635392628214082E-4
Epoch: 26000, Error: 5.621344507672806E-4
Epoch: 26100, Error: 5.399935735095709E-4
Epoch: 26200, Error: 5.554675634428032E-4
Epoch: 26300, Error: 5.623859587873825E-4
Epoch: 26400, Error: 5.45624260266651E-4
Epoch: 26500, Error: 5.561476047154443E-4
Epoch: 26600, Error: 5.593365402214284E-4
Epoch: 26700, Error: 5.499170480299589E-4
Epoch: 26800, Error: 5.497805534704951E-4
Epoch: 26900, Error: 5.452661648582851E-4
Epoch: 27000, Error: 5.373777674542264E-4
Epoch: 27100, Error: 5.337887564762361E-4
Epoch: 27200, Error: 5.475556603317252E-4
Epoch: 27300, Error: 5.345618081631116E-4
Epoch: 27400, Error: 5.259060278463225E-4
Epoch: 27500, Error: 5.320423691153703E-4
Finished
