Input Patterns
0.224 0.624 0.067 0.043 
0.11 0.502 0.051 0.043 
0.196 0.667 0.067 0.043 
0.055 0.584 0.067 0.082 
0.027 0.376 0.067 0.043 
0.306 0.71 0.086 0.043 
0.137 0.416 0.067 0.0 
0.416 0.831 0.035 0.043 
0.306 0.792 0.051 0.125 
0.388 0.749 0.118 0.082 
0.306 0.584 0.118 0.043 
0.082 0.667 0.0 0.043 
0.137 0.584 0.153 0.043 
0.196 0.584 0.102 0.125 
0.251 0.584 0.067 0.043 
0.137 0.459 0.102 0.043 
0.251 0.875 0.086 0.0 
0.165 0.459 0.086 0.043 
0.333 0.624 0.051 0.043 
0.027 0.416 0.051 0.043 
0.196 0.624 0.051 0.082 
0.027 0.502 0.051 0.043 
0.224 0.749 0.153 0.125 
0.224 0.749 0.102 0.043 
0.278 0.71 0.086 0.043 
0.165 0.416 0.067 0.043 
0.082 0.459 0.086 0.043 
0.306 0.792 0.118 0.125 
0.196 0.584 0.086 0.043 
0.165 0.459 0.086 0.0 
0.137 0.584 0.102 0.043 
0.0 0.416 0.016 0.0 
0.388 1.0 0.086 0.125 
0.224 0.624 0.067 0.082 
0.224 0.749 0.086 0.082 
0.224 0.71 0.086 0.125 
0.224 0.541 0.118 0.165 
0.196 0.416 0.102 0.043 
0.251 0.624 0.086 0.043 
0.11 0.502 0.102 0.043 
0.306 0.584 0.086 0.125 
0.333 0.918 0.067 0.043 
0.196 0.502 0.035 0.043 
0.165 0.667 0.067 0.0 
0.224 0.584 0.086 0.043 
0.055 0.125 0.051 0.082 
0.196 0.624 0.102 0.208 
0.137 0.416 0.067 0.082 
0.082 0.502 0.067 0.043 
0.196 0.541 0.067 0.043 
0.749 0.502 0.627 0.541 
0.722 0.459 0.663 0.584 
0.612 0.333 0.612 0.584 
0.557 0.541 0.627 0.624 
0.639 0.376 0.612 0.498 
0.196 0.0 0.424 0.376 
0.471 0.082 0.51 0.376 
0.361 0.376 0.439 0.498 
0.361 0.416 0.592 0.584 
0.529 0.082 0.592 0.584 
0.443 0.502 0.643 0.459 
0.557 0.208 0.663 0.584 
0.584 0.376 0.561 0.498 
0.694 0.333 0.643 0.541 
0.471 0.376 0.592 0.584 
0.333 0.169 0.475 0.416 
0.416 0.29 0.49 0.459 
0.306 0.416 0.592 0.584 
0.667 0.459 0.627 0.584 
0.361 0.416 0.525 0.498 
0.333 0.251 0.576 0.459 
0.416 0.251 0.51 0.459 
0.361 0.29 0.541 0.498 
0.388 0.376 0.541 0.498 
0.224 0.208 0.337 0.416 
0.584 0.502 0.592 0.584 
0.333 0.125 0.51 0.498 
0.388 0.333 0.592 0.498 
0.165 0.169 0.388 0.376 
0.251 0.29 0.49 0.541 
0.443 0.416 0.541 0.584 
0.498 0.376 0.627 0.541 
0.667 0.459 0.576 0.541 
0.416 0.29 0.525 0.376 
0.361 0.208 0.49 0.416 
0.498 0.333 0.51 0.498 
0.498 0.333 0.627 0.459 
0.639 0.416 0.576 0.541 
0.667 0.416 0.678 0.667 
0.388 0.251 0.424 0.376 
0.333 0.169 0.459 0.376 
0.471 0.29 0.694 0.624 
0.471 0.584 0.592 0.624 
0.557 0.125 0.576 0.498 
0.333 0.208 0.51 0.498 
0.498 0.416 0.612 0.541 
0.196 0.125 0.388 0.376 
0.388 0.416 0.541 0.459 
0.529 0.376 0.561 0.498 
0.388 0.333 0.525 0.498 
0.557 0.541 0.847 1.0 
0.776 0.416 0.831 0.831 
0.612 0.416 0.812 0.875 
0.165 0.208 0.592 0.667 
0.667 0.208 0.812 0.71 
0.612 0.502 0.694 0.792 
0.694 0.416 0.761 0.831 
0.416 0.333 0.694 0.957 
0.612 0.416 0.761 0.71 
0.945 0.251 1.0 0.918 
0.722 0.502 0.796 0.918 
0.945 0.333 0.965 0.792 
0.667 0.541 0.796 0.831 
0.529 0.333 0.643 0.71 
0.584 0.333 0.78 0.831 
0.863 0.333 0.863 0.749 
0.584 0.333 0.78 0.875 
0.498 0.251 0.78 0.541 
0.557 0.584 0.78 0.957 
0.471 0.416 0.643 0.71 
0.667 0.459 0.78 0.957 
0.416 0.29 0.694 0.749 
0.667 0.541 0.796 1.0 
0.557 0.208 0.678 0.749 
0.529 0.584 0.745 0.918 
0.416 0.29 0.694 0.749 
0.557 0.376 0.78 0.71 
0.918 0.416 0.949 0.831 
0.835 0.376 0.898 0.71 
0.804 0.667 0.863 1.0 
0.584 0.29 0.729 0.749 
0.388 0.208 0.678 0.792 
0.584 0.502 0.729 0.918 
0.945 0.749 0.965 0.875 
0.471 0.082 0.678 0.584 
0.361 0.333 0.663 0.792 
0.557 0.29 0.663 0.71 
0.804 0.502 0.847 0.71 
0.498 0.416 0.51 0.71 
0.804 0.416 0.812 0.624 
1.0 0.749 0.914 0.792 
0.557 0.333 0.694 0.584 
0.945 0.416 0.863 0.918 
0.584 0.459 0.761 0.71 
0.722 0.459 0.745 0.831 
0.722 0.459 0.694 0.918 
0.694 0.502 0.831 0.918 
0.667 0.416 0.714 0.918 
0.612 0.416 0.714 0.792 
0.443 0.416 0.694 0.71 
Teaching Patterns
1.0 0.0 0.0 
1.0 0.0 0.0 
1.0 0.0 0.0 
1.0 0.0 0.0 
1.0 0.0 0.0 
1.0 0.0 0.0 
1.0 0.0 0.0 
1.0 0.0 0.0 
1.0 0.0 0.0 
1.0 0.0 0.0 
1.0 0.0 0.0 
1.0 0.0 0.0 
1.0 0.0 0.0 
1.0 0.0 0.0 
1.0 0.0 0.0 
1.0 0.0 0.0 
1.0 0.0 0.0 
1.0 0.0 0.0 
1.0 0.0 0.0 
1.0 0.0 0.0 
1.0 0.0 0.0 
1.0 0.0 0.0 
1.0 0.0 0.0 
1.0 0.0 0.0 
1.0 0.0 0.0 
1.0 0.0 0.0 
1.0 0.0 0.0 
1.0 0.0 0.0 
1.0 0.0 0.0 
1.0 0.0 0.0 
1.0 0.0 0.0 
1.0 0.0 0.0 
1.0 0.0 0.0 
1.0 0.0 0.0 
1.0 0.0 0.0 
1.0 0.0 0.0 
1.0 0.0 0.0 
1.0 0.0 0.0 
1.0 0.0 0.0 
1.0 0.0 0.0 
1.0 0.0 0.0 
1.0 0.0 0.0 
1.0 0.0 0.0 
1.0 0.0 0.0 
1.0 0.0 0.0 
1.0 0.0 0.0 
1.0 0.0 0.0 
1.0 0.0 0.0 
1.0 0.0 0.0 
1.0 0.0 0.0 
0.0 1.0 0.0 
0.0 1.0 0.0 
0.0 1.0 0.0 
0.0 1.0 0.0 
0.0 1.0 0.0 
0.0 1.0 0.0 
0.0 1.0 0.0 
0.0 1.0 0.0 
0.0 1.0 0.0 
0.0 1.0 0.0 
0.0 1.0 0.0 
0.0 1.0 0.0 
0.0 1.0 0.0 
0.0 1.0 0.0 
0.0 1.0 0.0 
0.0 1.0 0.0 
0.0 1.0 0.0 
0.0 1.0 0.0 
0.0 1.0 0.0 
0.0 1.0 0.0 
0.0 1.0 0.0 
0.0 1.0 0.0 
0.0 1.0 0.0 
0.0 1.0 0.0 
0.0 1.0 0.0 
0.0 1.0 0.0 
0.0 1.0 0.0 
0.0 1.0 0.0 
0.0 1.0 0.0 
0.0 1.0 0.0 
0.0 1.0 0.0 
0.0 1.0 0.0 
0.0 1.0 0.0 
0.0 1.0 0.0 
0.0 1.0 0.0 
0.0 1.0 0.0 
0.0 1.0 0.0 
0.0 1.0 0.0 
0.0 1.0 0.0 
0.0 1.0 0.0 
0.0 1.0 0.0 
0.0 1.0 0.0 
0.0 1.0 0.0 
0.0 1.0 0.0 
0.0 1.0 0.0 
0.0 1.0 0.0 
0.0 1.0 0.0 
0.0 1.0 0.0 
0.0 1.0 0.0 
0.0 1.0 0.0 
0.0 0.0 1.0 
0.0 0.0 1.0 
0.0 0.0 1.0 
0.0 0.0 1.0 
0.0 0.0 1.0 
0.0 0.0 1.0 
0.0 0.0 1.0 
0.0 0.0 1.0 
0.0 0.0 1.0 
0.0 0.0 1.0 
0.0 0.0 1.0 
0.0 0.0 1.0 
0.0 0.0 1.0 
0.0 0.0 1.0 
0.0 0.0 1.0 
0.0 0.0 1.0 
0.0 0.0 1.0 
0.0 0.0 1.0 
0.0 0.0 1.0 
0.0 0.0 1.0 
0.0 0.0 1.0 
0.0 0.0 1.0 
0.0 0.0 1.0 
0.0 0.0 1.0 
0.0 0.0 1.0 
0.0 0.0 1.0 
0.0 0.0 1.0 
0.0 0.0 1.0 
0.0 0.0 1.0 
0.0 0.0 1.0 
0.0 0.0 1.0 
0.0 0.0 1.0 
0.0 0.0 1.0 
0.0 0.0 1.0 
0.0 0.0 1.0 
0.0 0.0 1.0 
0.0 0.0 1.0 
0.0 0.0 1.0 
0.0 0.0 1.0 
0.0 0.0 1.0 
0.0 0.0 1.0 
0.0 0.0 1.0 
0.0 0.0 1.0 
0.0 0.0 1.0 
0.0 0.0 1.0 
0.0 0.0 1.0 
0.0 0.0 1.0 
0.0 0.0 1.0 
0.0 0.0 1.0 
0.0 0.0 1.0 
Learning : 0.8999999761581421
Momentum : 0.9
Epoch: 100, Error: 0.01379188478308101
Epoch: 200, Error: 0.011991516753293416
Epoch: 300, Error: 0.012626059330489728
Epoch: 400, Error: 0.01306388160041581
Epoch: 500, Error: 0.018561449174882488
Epoch: 600, Error: 0.01741067272347585
Epoch: 700, Error: 0.014836604979319004
Epoch: 800, Error: 0.012344540026949416
Epoch: 900, Error: 0.012457192958204957
Epoch: 1000, Error: 0.012053026168724796
Epoch: 1100, Error: 0.014792294116766035
Epoch: 1200, Error: 0.017415666717754453
Epoch: 1300, Error: 0.011594069620536574
Epoch: 1400, Error: 0.012183535769281077
Epoch: 1500, Error: 0.011615878809391564
Epoch: 1600, Error: 0.011647188407809454
Epoch: 1700, Error: 0.011196864114305092
Epoch: 1800, Error: 0.01134639917941032
Epoch: 1900, Error: 0.011159142871688855
Epoch: 2000, Error: 0.010788613019371724
Epoch: 2100, Error: 0.01000345617945851
Epoch: 2200, Error: 0.008903010548402196
Epoch: 2300, Error: 0.008238728594510407
Epoch: 2400, Error: 0.009591293259312942
Epoch: 2500, Error: 0.007164698971823112
Epoch: 2600, Error: 0.00730766320806592
Epoch: 2700, Error: 0.006115563803863645
Epoch: 2800, Error: 0.0058913010548780394
Epoch: 2900, Error: 0.005943724928739921
Epoch: 3000, Error: 0.005782028878319176
Epoch: 3100, Error: 0.005730190236959669
Epoch: 3200, Error: 0.005708579982343889
Epoch: 3300, Error: 0.005703125727338326
Epoch: 3400, Error: 0.00569832413596481
Epoch: 3500, Error: 0.005701437571536832
Epoch: 3600, Error: 0.005670694203601085
Epoch: 3700, Error: 0.005686257577195478
Epoch: 3800, Error: 0.005689820063413583
Epoch: 3900, Error: 0.0056915370265022
Epoch: 4000, Error: 0.005698435605003295
Epoch: 4100, Error: 0.005710884261447721
Epoch: 4200, Error: 0.005733625272777988
Epoch: 4300, Error: 0.005674984665032313
Epoch: 4400, Error: 0.005740518509673292
Epoch: 4500, Error: 0.005727782015739774
Epoch: 4600, Error: 0.005783680354928308
Epoch: 4700, Error: 0.0057049781462282095
Epoch: 4800, Error: 0.005748739210846699
Epoch: 4900, Error: 0.00574990751387202
Epoch: 5000, Error: 0.00577319969218816
Epoch: 5100, Error: 0.005735285842605672
Epoch: 5200, Error: 0.005846820487765205
Epoch: 5300, Error: 0.00572961696489445
Epoch: 5400, Error: 0.005750640991411506
Epoch: 5500, Error: 0.005814697264399987
Epoch: 5600, Error: 0.00577029247563978
Epoch: 5700, Error: 0.005737222847249137
Epoch: 5800, Error: 0.005876122456954897
Epoch: 5900, Error: 0.005719016210570324
Epoch: 6000, Error: 0.005718663074916843
Epoch: 6100, Error: 0.005790870788844683
Epoch: 6200, Error: 0.00565964576068494
Epoch: 6300, Error: 0.0058222831041687285
Epoch: 6400, Error: 0.0058298246535275315
Epoch: 6500, Error: 0.005609804119178397
Epoch: 6600, Error: 0.006323041494820861
Epoch: 6700, Error: 0.005355454243920725
Epoch: 6800, Error: 0.005514027652925121
Epoch: 6900, Error: 0.00538281840554478
Epoch: 7000, Error: 0.005405519761886244
Epoch: 7100, Error: 0.004834682198929862
Epoch: 7200, Error: 0.00531973708715974
Epoch: 7300, Error: 0.0046119528770618805
Epoch: 7400, Error: 0.0051868980362821965
Epoch: 7500, Error: 0.007844389369545155
Epoch: 7600, Error: 0.008833659471270511
Epoch: 7700, Error: 0.003973074851655772
Epoch: 7800, Error: 0.0050160750918440975
Epoch: 7900, Error: 0.0045893073071311425
Epoch: 8000, Error: 0.0031997908826922497
Epoch: 8100, Error: 0.003132451502089686
Epoch: 8200, Error: 0.0034695431272637758
Epoch: 8300, Error: 0.004887508894587088
Epoch: 8400, Error: 0.0032740035690928724
Epoch: 8500, Error: 0.0036552052345415562
Epoch: 8600, Error: 0.0025052347675153567
Epoch: 8700, Error: 0.004241050200414923
Epoch: 8800, Error: 0.007873514751868909
Epoch: 8900, Error: 0.0025398984402773372
Epoch: 9000, Error: 0.0026004102916157294
Epoch: 9100, Error: 0.003263685910387131
Epoch: 9200, Error: 0.002029269139643593
Epoch: 9300, Error: 0.0017404129039555083
Epoch: 9400, Error: 0.006450290728472605
Epoch: 9500, Error: 0.0021263049114085713
Epoch: 9600, Error: 0.0020085635096149827
Epoch: 9700, Error: 0.0018360921336731733
Epoch: 9800, Error: 0.005283349066491494
Epoch: 9900, Error: 0.0016851021636266074
Epoch: 10000, Error: 0.001532967838887077
Epoch: 10100, Error: 0.0021912840879341725
Epoch: 10200, Error: 0.0022974287806608084
Epoch: 10300, Error: 0.0013022959289644388
Epoch: 10400, Error: 0.0013794874157625546
Epoch: 10500, Error: 0.0013766976637372944
Epoch: 10600, Error: 0.001390867956017127
Epoch: 10700, Error: 0.0014179677935381994
Epoch: 10800, Error: 0.0014367211687207272
Epoch: 10900, Error: 0.0014191576786293807
Epoch: 11000, Error: 0.0013541378898562677
Epoch: 11100, Error: 0.0013361483252514314
Epoch: 11200, Error: 0.0012597272859888177
Epoch: 11300, Error: 0.0012675166480263353
Epoch: 11400, Error: 0.0012038976723691202
Epoch: 11500, Error: 0.0011670396284823585
Epoch: 11600, Error: 0.0011463215332925057
Epoch: 11700, Error: 0.001125563982561396
Epoch: 11800, Error: 0.0011169882445260133
Epoch: 11900, Error: 0.0011004262932606816
Epoch: 12000, Error: 0.0011050650528398
Epoch: 12100, Error: 0.0011024617896532097
Epoch: 12200, Error: 0.0011037023858225913
Epoch: 12300, Error: 0.001100969681525331
Epoch: 12400, Error: 0.0011108235544276352
Epoch: 12500, Error: 0.0011118916665795726
Finished
