Input Patterns
0.224 0.624 0.067 0.043 
0.11 0.502 0.051 0.043 
0.196 0.667 0.067 0.043 
0.055 0.584 0.067 0.082 
0.027 0.376 0.067 0.043 
0.306 0.71 0.086 0.043 
0.137 0.416 0.067 0.0 
0.416 0.831 0.035 0.043 
0.306 0.792 0.051 0.125 
0.388 0.749 0.118 0.082 
0.306 0.584 0.118 0.043 
0.082 0.667 0.0 0.043 
0.137 0.584 0.153 0.043 
0.196 0.584 0.102 0.125 
0.251 0.584 0.067 0.043 
0.137 0.459 0.102 0.043 
0.251 0.875 0.086 0.0 
0.165 0.459 0.086 0.043 
0.333 0.624 0.051 0.043 
0.027 0.416 0.051 0.043 
0.196 0.624 0.051 0.082 
0.027 0.502 0.051 0.043 
0.224 0.749 0.153 0.125 
0.224 0.749 0.102 0.043 
0.278 0.71 0.086 0.043 
0.165 0.416 0.067 0.043 
0.082 0.459 0.086 0.043 
0.306 0.792 0.118 0.125 
0.196 0.584 0.086 0.043 
0.165 0.459 0.086 0.0 
0.137 0.584 0.102 0.043 
0.0 0.416 0.016 0.0 
0.388 1.0 0.086 0.125 
0.224 0.624 0.067 0.082 
0.224 0.749 0.086 0.082 
0.224 0.71 0.086 0.125 
0.224 0.541 0.118 0.165 
0.196 0.416 0.102 0.043 
0.251 0.624 0.086 0.043 
0.11 0.502 0.102 0.043 
0.306 0.584 0.086 0.125 
0.333 0.918 0.067 0.043 
0.196 0.502 0.035 0.043 
0.165 0.667 0.067 0.0 
0.224 0.584 0.086 0.043 
0.055 0.125 0.051 0.082 
0.196 0.624 0.102 0.208 
0.137 0.416 0.067 0.082 
0.082 0.502 0.067 0.043 
0.196 0.541 0.067 0.043 
0.749 0.502 0.627 0.541 
0.722 0.459 0.663 0.584 
0.612 0.333 0.612 0.584 
0.557 0.541 0.627 0.624 
0.639 0.376 0.612 0.498 
0.196 0.0 0.424 0.376 
0.471 0.082 0.51 0.376 
0.361 0.376 0.439 0.498 
0.361 0.416 0.592 0.584 
0.529 0.082 0.592 0.584 
0.443 0.502 0.643 0.459 
0.557 0.208 0.663 0.584 
0.584 0.376 0.561 0.498 
0.694 0.333 0.643 0.541 
0.471 0.376 0.592 0.584 
0.333 0.169 0.475 0.416 
0.416 0.29 0.49 0.459 
0.306 0.416 0.592 0.584 
0.667 0.459 0.627 0.584 
0.361 0.416 0.525 0.498 
0.333 0.251 0.576 0.459 
0.416 0.251 0.51 0.459 
0.361 0.29 0.541 0.498 
0.388 0.376 0.541 0.498 
0.224 0.208 0.337 0.416 
0.584 0.502 0.592 0.584 
0.333 0.125 0.51 0.498 
0.388 0.333 0.592 0.498 
0.165 0.169 0.388 0.376 
0.251 0.29 0.49 0.541 
0.443 0.416 0.541 0.584 
0.498 0.376 0.627 0.541 
0.667 0.459 0.576 0.541 
0.416 0.29 0.525 0.376 
0.361 0.208 0.49 0.416 
0.498 0.333 0.51 0.498 
0.498 0.333 0.627 0.459 
0.639 0.416 0.576 0.541 
0.667 0.416 0.678 0.667 
0.388 0.251 0.424 0.376 
0.333 0.169 0.459 0.376 
0.471 0.29 0.694 0.624 
0.471 0.584 0.592 0.624 
0.557 0.125 0.576 0.498 
0.333 0.208 0.51 0.498 
0.498 0.416 0.612 0.541 
0.196 0.125 0.388 0.376 
0.388 0.416 0.541 0.459 
0.529 0.376 0.561 0.498 
0.388 0.333 0.525 0.498 
0.557 0.541 0.847 1.0 
0.776 0.416 0.831 0.831 
0.612 0.416 0.812 0.875 
0.165 0.208 0.592 0.667 
0.667 0.208 0.812 0.71 
0.612 0.502 0.694 0.792 
0.694 0.416 0.761 0.831 
0.416 0.333 0.694 0.957 
0.612 0.416 0.761 0.71 
0.945 0.251 1.0 0.918 
0.722 0.502 0.796 0.918 
0.945 0.333 0.965 0.792 
0.667 0.541 0.796 0.831 
0.529 0.333 0.643 0.71 
0.584 0.333 0.78 0.831 
0.863 0.333 0.863 0.749 
0.584 0.333 0.78 0.875 
0.498 0.251 0.78 0.541 
0.557 0.584 0.78 0.957 
0.471 0.416 0.643 0.71 
0.667 0.459 0.78 0.957 
0.416 0.29 0.694 0.749 
0.667 0.541 0.796 1.0 
0.557 0.208 0.678 0.749 
0.529 0.584 0.745 0.918 
0.416 0.29 0.694 0.749 
0.557 0.376 0.78 0.71 
0.918 0.416 0.949 0.831 
0.835 0.376 0.898 0.71 
0.804 0.667 0.863 1.0 
0.584 0.29 0.729 0.749 
0.388 0.208 0.678 0.792 
0.584 0.502 0.729 0.918 
0.945 0.749 0.965 0.875 
0.471 0.082 0.678 0.584 
0.361 0.333 0.663 0.792 
0.557 0.29 0.663 0.71 
0.804 0.502 0.847 0.71 
0.498 0.416 0.51 0.71 
0.804 0.416 0.812 0.624 
1.0 0.749 0.914 0.792 
0.557 0.333 0.694 0.584 
0.945 0.416 0.863 0.918 
0.584 0.459 0.761 0.71 
0.722 0.459 0.745 0.831 
0.722 0.459 0.694 0.918 
0.694 0.502 0.831 0.918 
0.667 0.416 0.714 0.918 
0.612 0.416 0.714 0.792 
0.443 0.416 0.694 0.71 
Teaching Patterns
1.0 0.0 0.0 
1.0 0.0 0.0 
1.0 0.0 0.0 
1.0 0.0 0.0 
1.0 0.0 0.0 
1.0 0.0 0.0 
1.0 0.0 0.0 
1.0 0.0 0.0 
1.0 0.0 0.0 
1.0 0.0 0.0 
1.0 0.0 0.0 
1.0 0.0 0.0 
1.0 0.0 0.0 
1.0 0.0 0.0 
1.0 0.0 0.0 
1.0 0.0 0.0 
1.0 0.0 0.0 
1.0 0.0 0.0 
1.0 0.0 0.0 
1.0 0.0 0.0 
1.0 0.0 0.0 
1.0 0.0 0.0 
1.0 0.0 0.0 
1.0 0.0 0.0 
1.0 0.0 0.0 
1.0 0.0 0.0 
1.0 0.0 0.0 
1.0 0.0 0.0 
1.0 0.0 0.0 
1.0 0.0 0.0 
1.0 0.0 0.0 
1.0 0.0 0.0 
1.0 0.0 0.0 
1.0 0.0 0.0 
1.0 0.0 0.0 
1.0 0.0 0.0 
1.0 0.0 0.0 
1.0 0.0 0.0 
1.0 0.0 0.0 
1.0 0.0 0.0 
1.0 0.0 0.0 
1.0 0.0 0.0 
1.0 0.0 0.0 
1.0 0.0 0.0 
1.0 0.0 0.0 
1.0 0.0 0.0 
1.0 0.0 0.0 
1.0 0.0 0.0 
1.0 0.0 0.0 
1.0 0.0 0.0 
0.0 1.0 0.0 
0.0 1.0 0.0 
0.0 1.0 0.0 
0.0 1.0 0.0 
0.0 1.0 0.0 
0.0 1.0 0.0 
0.0 1.0 0.0 
0.0 1.0 0.0 
0.0 1.0 0.0 
0.0 1.0 0.0 
0.0 1.0 0.0 
0.0 1.0 0.0 
0.0 1.0 0.0 
0.0 1.0 0.0 
0.0 1.0 0.0 
0.0 1.0 0.0 
0.0 1.0 0.0 
0.0 1.0 0.0 
0.0 1.0 0.0 
0.0 1.0 0.0 
0.0 1.0 0.0 
0.0 1.0 0.0 
0.0 1.0 0.0 
0.0 1.0 0.0 
0.0 1.0 0.0 
0.0 1.0 0.0 
0.0 1.0 0.0 
0.0 1.0 0.0 
0.0 1.0 0.0 
0.0 1.0 0.0 
0.0 1.0 0.0 
0.0 1.0 0.0 
0.0 1.0 0.0 
0.0 1.0 0.0 
0.0 1.0 0.0 
0.0 1.0 0.0 
0.0 1.0 0.0 
0.0 1.0 0.0 
0.0 1.0 0.0 
0.0 1.0 0.0 
0.0 1.0 0.0 
0.0 1.0 0.0 
0.0 1.0 0.0 
0.0 1.0 0.0 
0.0 1.0 0.0 
0.0 1.0 0.0 
0.0 1.0 0.0 
0.0 1.0 0.0 
0.0 1.0 0.0 
0.0 1.0 0.0 
0.0 0.0 1.0 
0.0 0.0 1.0 
0.0 0.0 1.0 
0.0 0.0 1.0 
0.0 0.0 1.0 
0.0 0.0 1.0 
0.0 0.0 1.0 
0.0 0.0 1.0 
0.0 0.0 1.0 
0.0 0.0 1.0 
0.0 0.0 1.0 
0.0 0.0 1.0 
0.0 0.0 1.0 
0.0 0.0 1.0 
0.0 0.0 1.0 
0.0 0.0 1.0 
0.0 0.0 1.0 
0.0 0.0 1.0 
0.0 0.0 1.0 
0.0 0.0 1.0 
0.0 0.0 1.0 
0.0 0.0 1.0 
0.0 0.0 1.0 
0.0 0.0 1.0 
0.0 0.0 1.0 
0.0 0.0 1.0 
0.0 0.0 1.0 
0.0 0.0 1.0 
0.0 0.0 1.0 
0.0 0.0 1.0 
0.0 0.0 1.0 
0.0 0.0 1.0 
0.0 0.0 1.0 
0.0 0.0 1.0 
0.0 0.0 1.0 
0.0 0.0 1.0 
0.0 0.0 1.0 
0.0 0.0 1.0 
0.0 0.0 1.0 
0.0 0.0 1.0 
0.0 0.0 1.0 
0.0 0.0 1.0 
0.0 0.0 1.0 
0.0 0.0 1.0 
0.0 0.0 1.0 
0.0 0.0 1.0 
0.0 0.0 1.0 
0.0 0.0 1.0 
0.0 0.0 1.0 
0.0 0.0 1.0 
Learning : 0.8999999761581421
Momentum : 0.9
Epoch: 100, Error: 0.019920989878707315
Epoch: 200, Error: 0.011646981431024536
Epoch: 300, Error: 0.011754091751141131
Epoch: 400, Error: 0.012677322132295438
Epoch: 500, Error: 0.012248857281113057
Epoch: 600, Error: 0.011968010164580257
Epoch: 700, Error: 0.011688904272413467
Epoch: 800, Error: 0.01168968882034005
Epoch: 900, Error: 0.011865294043329495
Epoch: 1000, Error: 0.011748117127636874
Epoch: 1100, Error: 0.011905977585121085
Epoch: 1200, Error: 0.011788777438895223
Epoch: 1300, Error: 0.011949962193918175
Epoch: 1400, Error: 0.01176655398559932
Epoch: 1500, Error: 0.011342602376727262
Epoch: 1600, Error: 0.011691320311485818
Epoch: 1700, Error: 0.01185437839621123
Epoch: 1800, Error: 0.010897003806527918
Epoch: 1900, Error: 0.011521785840061468
Epoch: 2000, Error: 0.010447952527479066
Epoch: 2100, Error: 0.010490010581479412
Epoch: 2200, Error: 0.010217689519315051
Epoch: 2300, Error: 0.009738429293883076
Epoch: 2400, Error: 0.009652056984531138
Epoch: 2500, Error: 0.007948479250619313
Epoch: 2600, Error: 0.007346710777635629
Epoch: 2700, Error: 0.006170057662866713
Epoch: 2800, Error: 0.005502839038262692
Epoch: 2900, Error: 0.005499042204108332
Epoch: 3000, Error: 0.005374001932304885
Epoch: 3100, Error: 0.005417870887999399
Epoch: 3200, Error: 0.005447270886108385
Epoch: 3300, Error: 0.005308799257719773
Epoch: 3400, Error: 0.005368753959049111
Epoch: 3500, Error: 0.0052324577503243055
Epoch: 3600, Error: 0.005327316413223671
Epoch: 3700, Error: 0.005160946290888653
Epoch: 3800, Error: 0.005139691922635078
Epoch: 3900, Error: 0.005103238991953242
Epoch: 4000, Error: 0.005094401261029639
Epoch: 4100, Error: 0.005139908296849951
Epoch: 4200, Error: 0.005033379314843557
Epoch: 4300, Error: 0.005139610791705919
Epoch: 4400, Error: 0.00519476845424758
Epoch: 4500, Error: 0.004978764104004579
Epoch: 4600, Error: 0.004969704093934651
Epoch: 4700, Error: 0.00501668478720735
Epoch: 4800, Error: 0.005039023975603131
Epoch: 4900, Error: 0.005151512440522704
Epoch: 5000, Error: 0.0049091385742511
Epoch: 5100, Error: 0.004872104656605917
Epoch: 5200, Error: 0.00509038734421195
Epoch: 5300, Error: 0.004960000760083863
Epoch: 5400, Error: 0.004693388761555531
Epoch: 5500, Error: 0.005378747591485531
Epoch: 5600, Error: 0.005086409650881162
Epoch: 5700, Error: 0.004541448642816231
Epoch: 5800, Error: 0.004318224226615104
Epoch: 5900, Error: 0.004641142959421135
Epoch: 6000, Error: 0.0050472753083632875
Epoch: 6100, Error: 0.004072492717081502
Epoch: 6200, Error: 0.004462699392226925
Epoch: 6300, Error: 0.0035920775119490348
Epoch: 6400, Error: 0.003886927142550818
Epoch: 6500, Error: 0.0041841592004355785
Epoch: 6600, Error: 0.0059410427034504686
Epoch: 6700, Error: 0.004464173630281794
Epoch: 6800, Error: 0.00425663526228138
Epoch: 6900, Error: 0.0037984065317221184
Epoch: 7000, Error: 0.008225109687987217
Epoch: 7100, Error: 0.0033264658969429125
Epoch: 7200, Error: 0.0034688880096243042
Epoch: 7300, Error: 0.003719362621335959
Epoch: 7400, Error: 0.0027792968631107965
Epoch: 7500, Error: 0.005218327269499071
Epoch: 7600, Error: 0.0031056182015549594
Epoch: 7700, Error: 0.0018665878135009054
Epoch: 7800, Error: 0.0031729784110646757
Epoch: 7900, Error: 0.001717442185347581
Epoch: 8000, Error: 0.0030468993683323126
Epoch: 8100, Error: 0.005687569431659712
Epoch: 8200, Error: 0.0015203008389132093
Epoch: 8300, Error: 0.0016384018881214837
Epoch: 8400, Error: 0.001700305714720552
Epoch: 8500, Error: 0.0014886430281864527
Epoch: 8600, Error: 0.002010962772498637
Epoch: 8700, Error: 0.0019022493251502485
Epoch: 8800, Error: 0.0033031170854693334
Epoch: 8900, Error: 0.0012249685444308156
Epoch: 9000, Error: 0.0010310255186526738
Epoch: 9100, Error: 0.0010600967139172864
Epoch: 9200, Error: 0.0010343496702301279
Epoch: 9300, Error: 9.716211081010444E-4
Epoch: 9400, Error: 9.384121282887245E-4
Epoch: 9500, Error: 9.50320631603847E-4
Epoch: 9600, Error: 9.440209935804322E-4
Epoch: 9700, Error: 9.495986496875521E-4
Epoch: 9800, Error: 9.665998947960289E-4
Epoch: 9900, Error: 9.337315450204527E-4
Epoch: 10000, Error: 9.687846230460077E-4
Epoch: 10100, Error: 9.13057040715145E-4
Epoch: 10200, Error: 9.231853665139923E-4
Epoch: 10300, Error: 9.160175057341114E-4
Epoch: 10400, Error: 9.190424389883331E-4
Epoch: 10500, Error: 9.211342773916521E-4
Epoch: 10600, Error: 8.981720870756389E-4
Epoch: 10700, Error: 8.955232664137121E-4
Epoch: 10800, Error: 9.118543560359048E-4
Epoch: 10900, Error: 8.966297475770756E-4
Epoch: 11000, Error: 9.041728321096527E-4
Epoch: 11100, Error: 8.853845308984971E-4
Epoch: 11200, Error: 8.785237218620601E-4
Epoch: 11300, Error: 8.84119795435899E-4
Epoch: 11400, Error: 8.923093483778273E-4
Epoch: 11500, Error: 8.865556881391296E-4
Finished
