Epoch: 14000, Error: 3.563836407207051E-4
Epoch: 11900, Error: 0.005732582189638915
Epoch: 13100, Error: 4.4179143086889923E-4
Epoch: 18400, Error: 4.3579902127288515E-4
Epoch: 6200, Error: 0.0052594557671263534
Epoch: 14400, Error: 0.0011512304673983436
Epoch: 18000, Error: 9.126357474195471E-4
Epoch: 10500, Error: 0.009373742799177196
Epoch: 11300, Error: 9.962357243241007E-4
Epoch: 11600, Error: 9.89391553905815E-4
Epoch: 4900, Error: 0.00519937944000183
Epoch: 4800, Error: 0.0053698564286274765
Epoch: 4300, Error: 0.005314970652066721
Epoch: 16000, Error: 9.158124485443243E-4
Epoch: 9400, Error: 6.230421812063402E-4
Epoch: 10300, Error: 7.051926324190933E-4
Epoch: 7800, Error: 0.00493248428071212
Epoch: 5200, Error: 0.005174055268705362
Epoch: 12100, Error: 0.009499878468389096
Epoch: 6500, Error: 0.0053758298082495545
Epoch: 14900, Error: 0.0011061128233036096
Epoch: 8700, Error: 0.005592392894143264
Epoch: 7200, Error: 0.005253376152063659
Epoch: 13800, Error: 9.168220726996047E-4
Epoch: 9400, Error: 0.009517122532020736
Epoch: 8800, Error: 0.009622708802429778
Epoch: 12400, Error: 0.0049005533930662854
Epoch: 5700, Error: 0.005029846229583763
Epoch: 18200, Error: 0.0011021476504693862
Epoch: 6500, Error: 0.005506301701930379
Epoch: 20500, Error: 6.741966935409807E-4
Epoch: 17100, Error: 7.284036576524938E-4
Epoch: 9500, Error: 0.009263464132993256
Epoch: 5500, Error: 0.005109240892904208
Epoch: 9500, Error: 0.005514673537426066
Epoch: 13500, Error: 9.135966881663538E-4
Epoch: 10200, Error: 0.009476781194421179
Epoch: 12700, Error: 6.096190343315533E-4
Epoch: 5400, Error: 0.005179742105248307
Epoch: 14500, Error: 7.172529292829544E-4
Epoch: 5000, Error: 0.00508684147759567
Epoch: 11200, Error: 7.293450245990517E-4
Epoch: 15000, Error: 4.264271113989657E-4
Epoch: 13800, Error: 6.092274624143174E-4
Epoch: 11700, Error: 6.363822787055896E-4
Epoch: 5100, Error: 0.005206478237217446
Epoch: 13800, Error: 6.247700823170291E-4
Epoch: 16000, Error: 8.637826536028322E-4
Epoch: 6500, Error: 0.005203784467117285
Epoch: 14600, Error: 9.776825837192905E-4
