Epoch: 14200, Error: 8.394810567393492E-4
Epoch: 69000, Error: 0.0010489090638572045
Epoch: 12500, Error: 7.863434115844054E-4
Epoch: 12600, Error: 0.0010466855072225904
Epoch: 14300, Error: 6.66839480550095E-4
Epoch: 11900, Error: 0.0010418641104061903
Epoch: 12800, Error: 5.600383137091573E-4
Epoch: 10700, Error: 7.416489601998149E-4
Epoch: 5000, Error: 0.005030468237950332
Epoch: 15100, Error: 4.754727483666596E-4
Epoch: 9200, Error: 6.959288822972736E-4
Epoch: 14500, Error: 0.0016024090753153396
Epoch: 14300, Error: 6.574585653109155E-4
Epoch: 12100, Error: 0.005593668468577786
Epoch: 10300, Error: 3.3835179941876374E-4
Epoch: 12100, Error: 0.0010499969534978908
Epoch: 12600, Error: 6.160165579764375E-4
Epoch: 12400, Error: 0.0010197000253561795
Epoch: 12400, Error: 0.001145878415753047
Epoch: 25000, Error: 0.005263750423428492
Epoch: 12400, Error: 6.503701596349649E-4
Epoch: 8500, Error: 0.001099096783345081
Epoch: 4500, Error: 0.005115934722111401
Epoch: 5000, Error: 0.005324325079593656
Epoch: 9000, Error: 6.942561597389347E-4
Epoch: 5100, Error: 0.005426736548388531
Epoch: 13500, Error: 0.005404146041356209
Epoch: 83900, Error: 0.0055050708492041115
Epoch: 4400, Error: 0.00560720351719797
Epoch: 18200, Error: 0.005059742922919817
Epoch: 5100, Error: 0.005464764580401624
Epoch: 8400, Error: 0.0053894344911264635
Epoch: 12800, Error: 5.50778294461205E-4
Epoch: 5900, Error: 0.005276466123517464
Epoch: 10000, Error: 0.0011413853070668134
Epoch: 6400, Error: 0.0052139191800344145
Epoch: 12000, Error: 9.11196740308812E-4
Epoch: 4300, Error: 0.004998073807634004
Epoch: 89400, Error: 8.84045109994051E-4
Epoch: 6800, Error: 0.005548828475894938
Epoch: 4600, Error: 0.005182776141750736
Epoch: 25900, Error: 0.005280737526557282
Epoch: 4500, Error: 0.005370720888736844
Epoch: 4900, Error: 0.005333449930323531
Epoch: 16700, Error: 7.278781749474433E-4
Epoch: 13900, Error: 9.447869318890599E-4
Epoch: 8000, Error: 0.0053888714852593465
Epoch: 4900, Error: 0.005211739739993079
Epoch: 11400, Error: 8.163768762785752E-4
Epoch: 9000, Error: 6.044188356131871E-4
