Input Patterns
0.224 0.624 0.067 0.043 
0.11 0.502 0.051 0.043 
0.196 0.667 0.067 0.043 
0.055 0.584 0.067 0.082 
0.027 0.376 0.067 0.043 
0.306 0.71 0.086 0.043 
0.137 0.416 0.067 0.0 
0.416 0.831 0.035 0.043 
0.306 0.792 0.051 0.125 
0.388 0.749 0.118 0.082 
0.306 0.584 0.118 0.043 
0.082 0.667 0.0 0.043 
0.137 0.584 0.153 0.043 
0.196 0.584 0.102 0.125 
0.251 0.584 0.067 0.043 
0.137 0.459 0.102 0.043 
0.251 0.875 0.086 0.0 
0.165 0.459 0.086 0.043 
0.333 0.624 0.051 0.043 
0.027 0.416 0.051 0.043 
0.196 0.624 0.051 0.082 
0.027 0.502 0.051 0.043 
0.224 0.749 0.153 0.125 
0.224 0.749 0.102 0.043 
0.278 0.71 0.086 0.043 
0.165 0.416 0.067 0.043 
0.082 0.459 0.086 0.043 
0.306 0.792 0.118 0.125 
0.196 0.584 0.086 0.043 
0.165 0.459 0.086 0.0 
0.137 0.584 0.102 0.043 
0.0 0.416 0.016 0.0 
0.388 1.0 0.086 0.125 
0.224 0.624 0.067 0.082 
0.224 0.749 0.086 0.082 
0.224 0.71 0.086 0.125 
0.224 0.541 0.118 0.165 
0.196 0.416 0.102 0.043 
0.251 0.624 0.086 0.043 
0.11 0.502 0.102 0.043 
0.306 0.584 0.086 0.125 
0.333 0.918 0.067 0.043 
0.196 0.502 0.035 0.043 
0.165 0.667 0.067 0.0 
0.224 0.584 0.086 0.043 
0.055 0.125 0.051 0.082 
0.196 0.624 0.102 0.208 
0.137 0.416 0.067 0.082 
0.082 0.502 0.067 0.043 
0.196 0.541 0.067 0.043 
0.749 0.502 0.627 0.541 
0.722 0.459 0.663 0.584 
0.612 0.333 0.612 0.584 
0.557 0.541 0.627 0.624 
0.639 0.376 0.612 0.498 
0.196 0.0 0.424 0.376 
0.471 0.082 0.51 0.376 
0.361 0.376 0.439 0.498 
0.361 0.416 0.592 0.584 
0.529 0.082 0.592 0.584 
0.443 0.502 0.643 0.459 
0.557 0.208 0.663 0.584 
0.584 0.376 0.561 0.498 
0.694 0.333 0.643 0.541 
0.471 0.376 0.592 0.584 
0.333 0.169 0.475 0.416 
0.416 0.29 0.49 0.459 
0.306 0.416 0.592 0.584 
0.667 0.459 0.627 0.584 
0.361 0.416 0.525 0.498 
0.333 0.251 0.576 0.459 
0.416 0.251 0.51 0.459 
0.361 0.29 0.541 0.498 
0.388 0.376 0.541 0.498 
0.224 0.208 0.337 0.416 
0.584 0.502 0.592 0.584 
0.333 0.125 0.51 0.498 
0.388 0.333 0.592 0.498 
0.165 0.169 0.388 0.376 
0.251 0.29 0.49 0.541 
0.443 0.416 0.541 0.584 
0.498 0.376 0.627 0.541 
0.667 0.459 0.576 0.541 
0.416 0.29 0.525 0.376 
0.361 0.208 0.49 0.416 
0.498 0.333 0.51 0.498 
0.498 0.333 0.627 0.459 
0.639 0.416 0.576 0.541 
0.667 0.416 0.678 0.667 
0.388 0.251 0.424 0.376 
0.333 0.169 0.459 0.376 
0.471 0.29 0.694 0.624 
0.471 0.584 0.592 0.624 
0.557 0.125 0.576 0.498 
0.333 0.208 0.51 0.498 
0.498 0.416 0.612 0.541 
0.196 0.125 0.388 0.376 
0.388 0.416 0.541 0.459 
0.529 0.376 0.561 0.498 
0.388 0.333 0.525 0.498 
0.557 0.541 0.847 1.0 
0.776 0.416 0.831 0.831 
0.612 0.416 0.812 0.875 
0.165 0.208 0.592 0.667 
0.667 0.208 0.812 0.71 
0.612 0.502 0.694 0.792 
0.694 0.416 0.761 0.831 
0.416 0.333 0.694 0.957 
0.612 0.416 0.761 0.71 
0.945 0.251 1.0 0.918 
0.722 0.502 0.796 0.918 
0.945 0.333 0.965 0.792 
0.667 0.541 0.796 0.831 
0.529 0.333 0.643 0.71 
0.584 0.333 0.78 0.831 
0.863 0.333 0.863 0.749 
0.584 0.333 0.78 0.875 
0.498 0.251 0.78 0.541 
0.557 0.584 0.78 0.957 
0.471 0.416 0.643 0.71 
0.667 0.459 0.78 0.957 
0.416 0.29 0.694 0.749 
0.667 0.541 0.796 1.0 
0.557 0.208 0.678 0.749 
0.529 0.584 0.745 0.918 
0.416 0.29 0.694 0.749 
0.557 0.376 0.78 0.71 
0.918 0.416 0.949 0.831 
0.835 0.376 0.898 0.71 
0.804 0.667 0.863 1.0 
0.584 0.29 0.729 0.749 
0.388 0.208 0.678 0.792 
0.584 0.502 0.729 0.918 
0.945 0.749 0.965 0.875 
0.471 0.082 0.678 0.584 
0.361 0.333 0.663 0.792 
0.557 0.29 0.663 0.71 
0.804 0.502 0.847 0.71 
0.498 0.416 0.51 0.71 
0.804 0.416 0.812 0.624 
1.0 0.749 0.914 0.792 
0.557 0.333 0.694 0.584 
0.945 0.416 0.863 0.918 
0.584 0.459 0.761 0.71 
0.722 0.459 0.745 0.831 
0.722 0.459 0.694 0.918 
0.694 0.502 0.831 0.918 
0.667 0.416 0.714 0.918 
0.612 0.416 0.714 0.792 
0.443 0.416 0.694 0.71 
Teaching Patterns
1.0 0.0 0.0 
1.0 0.0 0.0 
1.0 0.0 0.0 
1.0 0.0 0.0 
1.0 0.0 0.0 
1.0 0.0 0.0 
1.0 0.0 0.0 
1.0 0.0 0.0 
1.0 0.0 0.0 
1.0 0.0 0.0 
1.0 0.0 0.0 
1.0 0.0 0.0 
1.0 0.0 0.0 
1.0 0.0 0.0 
1.0 0.0 0.0 
1.0 0.0 0.0 
1.0 0.0 0.0 
1.0 0.0 0.0 
1.0 0.0 0.0 
1.0 0.0 0.0 
1.0 0.0 0.0 
1.0 0.0 0.0 
1.0 0.0 0.0 
1.0 0.0 0.0 
1.0 0.0 0.0 
1.0 0.0 0.0 
1.0 0.0 0.0 
1.0 0.0 0.0 
1.0 0.0 0.0 
1.0 0.0 0.0 
1.0 0.0 0.0 
1.0 0.0 0.0 
1.0 0.0 0.0 
1.0 0.0 0.0 
1.0 0.0 0.0 
1.0 0.0 0.0 
1.0 0.0 0.0 
1.0 0.0 0.0 
1.0 0.0 0.0 
1.0 0.0 0.0 
1.0 0.0 0.0 
1.0 0.0 0.0 
1.0 0.0 0.0 
1.0 0.0 0.0 
1.0 0.0 0.0 
1.0 0.0 0.0 
1.0 0.0 0.0 
1.0 0.0 0.0 
1.0 0.0 0.0 
1.0 0.0 0.0 
0.0 1.0 0.0 
0.0 1.0 0.0 
0.0 1.0 0.0 
0.0 1.0 0.0 
0.0 1.0 0.0 
0.0 1.0 0.0 
0.0 1.0 0.0 
0.0 1.0 0.0 
0.0 1.0 0.0 
0.0 1.0 0.0 
0.0 1.0 0.0 
0.0 1.0 0.0 
0.0 1.0 0.0 
0.0 1.0 0.0 
0.0 1.0 0.0 
0.0 1.0 0.0 
0.0 1.0 0.0 
0.0 1.0 0.0 
0.0 1.0 0.0 
0.0 1.0 0.0 
0.0 1.0 0.0 
0.0 1.0 0.0 
0.0 1.0 0.0 
0.0 1.0 0.0 
0.0 1.0 0.0 
0.0 1.0 0.0 
0.0 1.0 0.0 
0.0 1.0 0.0 
0.0 1.0 0.0 
0.0 1.0 0.0 
0.0 1.0 0.0 
0.0 1.0 0.0 
0.0 1.0 0.0 
0.0 1.0 0.0 
0.0 1.0 0.0 
0.0 1.0 0.0 
0.0 1.0 0.0 
0.0 1.0 0.0 
0.0 1.0 0.0 
0.0 1.0 0.0 
0.0 1.0 0.0 
0.0 1.0 0.0 
0.0 1.0 0.0 
0.0 1.0 0.0 
0.0 1.0 0.0 
0.0 1.0 0.0 
0.0 1.0 0.0 
0.0 1.0 0.0 
0.0 1.0 0.0 
0.0 1.0 0.0 
0.0 0.0 1.0 
0.0 0.0 1.0 
0.0 0.0 1.0 
0.0 0.0 1.0 
0.0 0.0 1.0 
0.0 0.0 1.0 
0.0 0.0 1.0 
0.0 0.0 1.0 
0.0 0.0 1.0 
0.0 0.0 1.0 
0.0 0.0 1.0 
0.0 0.0 1.0 
0.0 0.0 1.0 
0.0 0.0 1.0 
0.0 0.0 1.0 
0.0 0.0 1.0 
0.0 0.0 1.0 
0.0 0.0 1.0 
0.0 0.0 1.0 
0.0 0.0 1.0 
0.0 0.0 1.0 
0.0 0.0 1.0 
0.0 0.0 1.0 
0.0 0.0 1.0 
0.0 0.0 1.0 
0.0 0.0 1.0 
0.0 0.0 1.0 
0.0 0.0 1.0 
0.0 0.0 1.0 
0.0 0.0 1.0 
0.0 0.0 1.0 
0.0 0.0 1.0 
0.0 0.0 1.0 
0.0 0.0 1.0 
0.0 0.0 1.0 
0.0 0.0 1.0 
0.0 0.0 1.0 
0.0 0.0 1.0 
0.0 0.0 1.0 
0.0 0.0 1.0 
0.0 0.0 1.0 
0.0 0.0 1.0 
0.0 0.0 1.0 
0.0 0.0 1.0 
0.0 0.0 1.0 
0.0 0.0 1.0 
0.0 0.0 1.0 
0.0 0.0 1.0 
0.0 0.0 1.0 
0.0 0.0 1.0 
Learning : 0.6499999761581421
Momentum : 0.9
Epoch: 100, Error: 0.014718014962728834
Epoch: 200, Error: 0.011939946289635324
Epoch: 300, Error: 0.021338238291697873
Epoch: 400, Error: 0.01235933115269982
Epoch: 500, Error: 0.013084388557729153
Epoch: 600, Error: 0.017096143993566622
Epoch: 700, Error: 0.012555130215095108
Epoch: 800, Error: 0.012629554529662327
Epoch: 900, Error: 0.012256660651070029
Epoch: 1000, Error: 0.012344998852395912
Epoch: 1100, Error: 0.01213013859955133
Epoch: 1200, Error: 0.011721121514180937
Epoch: 1300, Error: 0.01214759260944496
Epoch: 1400, Error: 0.011510365979355874
Epoch: 1500, Error: 0.014287114426074297
Epoch: 1600, Error: 0.012039634151293088
Epoch: 1700, Error: 0.0113586752095125
Epoch: 1800, Error: 0.011233284614171545
Epoch: 1900, Error: 0.011590433560911797
Epoch: 2000, Error: 0.0112039171728953
Epoch: 2100, Error: 0.010029625843251982
Epoch: 2200, Error: 0.00876892376874583
Epoch: 2300, Error: 0.007656776197397401
Epoch: 2400, Error: 0.007212672104965786
Epoch: 2500, Error: 0.0064851437206424984
Epoch: 2600, Error: 0.005974070859895077
Epoch: 2700, Error: 0.0061791233013695525
Epoch: 2800, Error: 0.00535560088656267
Epoch: 2900, Error: 0.005294484237309723
Epoch: 3000, Error: 0.005368374435807847
Epoch: 3100, Error: 0.005122691111324836
Epoch: 3200, Error: 0.005115353641266029
Epoch: 3300, Error: 0.005104988180888747
Epoch: 3400, Error: 0.00511025940309988
Epoch: 3500, Error: 0.005077365090955664
Epoch: 3600, Error: 0.005092807389768243
Epoch: 3700, Error: 0.005076208715641558
Epoch: 3800, Error: 0.005085814739688114
Epoch: 3900, Error: 0.0050758445824881995
Epoch: 4000, Error: 0.005073450415318939
Epoch: 4100, Error: 0.005062743988889078
Epoch: 4200, Error: 0.005151381106510533
Epoch: 4300, Error: 0.0050905143422922345
Epoch: 4400, Error: 0.005057008076413284
Epoch: 4500, Error: 0.0050560016186572505
Epoch: 4600, Error: 0.00504712124921943
Epoch: 4700, Error: 0.005044380498607027
Epoch: 4800, Error: 0.00513581895766248
Epoch: 4900, Error: 0.005063828324355397
Epoch: 5000, Error: 0.005090115013593669
Epoch: 5100, Error: 0.0050247074981757045
Epoch: 5200, Error: 0.005044100291287557
Epoch: 5300, Error: 0.005106547160229903
Epoch: 5400, Error: 0.005039474639593625
Epoch: 5500, Error: 0.005104059479313145
Epoch: 5600, Error: 0.005029233229018431
Epoch: 5700, Error: 0.005075613957171181
Epoch: 5800, Error: 0.0051244394058231404
Epoch: 5900, Error: 0.005047640684232873
Epoch: 6000, Error: 0.005097636723656746
Epoch: 6100, Error: 0.005139701471537721
Epoch: 6200, Error: 0.00511331013628281
Epoch: 6300, Error: 0.005096303311973184
Epoch: 6400, Error: 0.005063559112833026
Epoch: 6500, Error: 0.004954184436896268
Epoch: 6600, Error: 0.004991643476584813
Epoch: 6700, Error: 0.00499249253847898
Epoch: 6800, Error: 0.00520625695292196
Epoch: 6900, Error: 0.004977843012230751
Epoch: 7000, Error: 0.004910225206563771
Epoch: 7100, Error: 0.004922180398606215
Epoch: 7200, Error: 0.004950535859064868
Epoch: 7300, Error: 0.004772034700299741
Epoch: 7400, Error: 0.005176145036617533
Epoch: 7500, Error: 0.004569847638067901
Epoch: 7600, Error: 0.004579452191223273
Epoch: 7700, Error: 0.004681272063202224
Epoch: 7800, Error: 0.0042920983818636555
Epoch: 7900, Error: 0.004712053863945413
Epoch: 8000, Error: 0.004814861996406716
Epoch: 8100, Error: 0.003999125388013383
Epoch: 8200, Error: 0.00442369176618979
Epoch: 8300, Error: 0.0036854415421335453
Epoch: 8400, Error: 0.00418023769961052
Epoch: 8500, Error: 0.003792502002238971
Epoch: 8600, Error: 0.003331531042429859
Epoch: 8700, Error: 0.006650700789643379
Epoch: 8800, Error: 0.0035638873516334025
Epoch: 8900, Error: 0.003993237764118111
Epoch: 9000, Error: 0.0031624417421941744
Epoch: 9100, Error: 0.0023300086192021593
Epoch: 9200, Error: 0.002334617030234452
Epoch: 9300, Error: 0.004893377944433493
Epoch: 9400, Error: 0.0037991172443149197
Epoch: 9500, Error: 0.0024958088232084367
Epoch: 9600, Error: 0.0026352813167576337
Epoch: 9700, Error: 0.002282406384197554
Epoch: 9800, Error: 0.0020113897735362122
Epoch: 9900, Error: 0.0021431786395103565
Epoch: 10000, Error: 0.005842056226208571
Epoch: 10100, Error: 0.0013550447894014606
Epoch: 10200, Error: 0.004153430211266061
Epoch: 10300, Error: 0.0067923821747345285
Epoch: 10400, Error: 0.0015601989775706534
Epoch: 10500, Error: 0.003450346519579146
Epoch: 10600, Error: 0.0011318717437288446
Epoch: 10700, Error: 0.0012688569758225745
Epoch: 10800, Error: 0.0011651661033918463
Epoch: 10900, Error: 0.003083954236005031
Epoch: 11000, Error: 0.0016118974931012802
Epoch: 11100, Error: 9.573318781011275E-4
Epoch: 11200, Error: 0.0011264231296254316
Epoch: 11300, Error: 8.95070198445422E-4
Epoch: 11400, Error: 0.0010252161279090315
Epoch: 11500, Error: 0.0010481669227393722
Epoch: 11600, Error: 0.001033536282556316
Epoch: 11700, Error: 0.0010374051786710109
Epoch: 11800, Error: 0.001003434194899286
Epoch: 11900, Error: 0.0010868418866129448
Epoch: 12000, Error: 9.801465272708263E-4
Epoch: 12100, Error: 9.547992433213261E-4
Epoch: 12200, Error: 9.009180267205824E-4
Epoch: 12300, Error: 8.359804672079456E-4
Epoch: 12400, Error: 8.115324237227554E-4
Epoch: 12500, Error: 7.610179388008456E-4
Epoch: 12600, Error: 7.47922920846684E-4
Epoch: 12700, Error: 7.11659959096289E-4
Epoch: 12800, Error: 7.109567260999006E-4
Epoch: 12900, Error: 7.039362271592525E-4
Epoch: 13000, Error: 7.165057967030568E-4
Epoch: 13100, Error: 7.089084120929935E-4
Epoch: 13200, Error: 6.934016355973518E-4
Epoch: 13300, Error: 6.886739752173023E-4
Epoch: 13400, Error: 6.873207352734911E-4
Epoch: 13500, Error: 6.873211197676126E-4
Epoch: 13600, Error: 6.869969924829058E-4
Epoch: 13700, Error: 6.85706846765501E-4
Epoch: 13800, Error: 7.091394145969504E-4
Epoch: 13900, Error: 6.80172248713947E-4
Epoch: 14000, Error: 6.793710285860708E-4
Epoch: 14100, Error: 6.801924539653381E-4
Epoch: 14200, Error: 6.908820888116384E-4
Epoch: 14300, Error: 6.805925679127675E-4
Finished
