Input Patterns
0.224 0.624 0.067 0.043 
0.11 0.502 0.051 0.043 
0.196 0.667 0.067 0.043 
0.055 0.584 0.067 0.082 
0.027 0.376 0.067 0.043 
0.306 0.71 0.086 0.043 
0.137 0.416 0.067 0.0 
0.416 0.831 0.035 0.043 
0.306 0.792 0.051 0.125 
0.388 0.749 0.118 0.082 
0.306 0.584 0.118 0.043 
0.082 0.667 0.0 0.043 
0.137 0.584 0.153 0.043 
0.196 0.584 0.102 0.125 
0.251 0.584 0.067 0.043 
0.137 0.459 0.102 0.043 
0.251 0.875 0.086 0.0 
0.165 0.459 0.086 0.043 
0.333 0.624 0.051 0.043 
0.027 0.416 0.051 0.043 
0.196 0.624 0.051 0.082 
0.027 0.502 0.051 0.043 
0.224 0.749 0.153 0.125 
0.224 0.749 0.102 0.043 
0.278 0.71 0.086 0.043 
0.165 0.416 0.067 0.043 
0.082 0.459 0.086 0.043 
0.306 0.792 0.118 0.125 
0.196 0.584 0.086 0.043 
0.165 0.459 0.086 0.0 
0.137 0.584 0.102 0.043 
0.0 0.416 0.016 0.0 
0.388 1.0 0.086 0.125 
0.224 0.624 0.067 0.082 
0.224 0.749 0.086 0.082 
0.224 0.71 0.086 0.125 
0.224 0.541 0.118 0.165 
0.196 0.416 0.102 0.043 
0.251 0.624 0.086 0.043 
0.11 0.502 0.102 0.043 
0.306 0.584 0.086 0.125 
0.333 0.918 0.067 0.043 
0.196 0.502 0.035 0.043 
0.165 0.667 0.067 0.0 
0.224 0.584 0.086 0.043 
0.055 0.125 0.051 0.082 
0.196 0.624 0.102 0.208 
0.137 0.416 0.067 0.082 
0.082 0.502 0.067 0.043 
0.196 0.541 0.067 0.043 
0.749 0.502 0.627 0.541 
0.722 0.459 0.663 0.584 
0.612 0.333 0.612 0.584 
0.557 0.541 0.627 0.624 
0.639 0.376 0.612 0.498 
0.196 0.0 0.424 0.376 
0.471 0.082 0.51 0.376 
0.361 0.376 0.439 0.498 
0.361 0.416 0.592 0.584 
0.529 0.082 0.592 0.584 
0.443 0.502 0.643 0.459 
0.557 0.208 0.663 0.584 
0.584 0.376 0.561 0.498 
0.694 0.333 0.643 0.541 
0.471 0.376 0.592 0.584 
0.333 0.169 0.475 0.416 
0.416 0.29 0.49 0.459 
0.306 0.416 0.592 0.584 
0.667 0.459 0.627 0.584 
0.361 0.416 0.525 0.498 
0.333 0.251 0.576 0.459 
0.416 0.251 0.51 0.459 
0.361 0.29 0.541 0.498 
0.388 0.376 0.541 0.498 
0.224 0.208 0.337 0.416 
0.584 0.502 0.592 0.584 
0.333 0.125 0.51 0.498 
0.388 0.333 0.592 0.498 
0.165 0.169 0.388 0.376 
0.251 0.29 0.49 0.541 
0.443 0.416 0.541 0.584 
0.498 0.376 0.627 0.541 
0.667 0.459 0.576 0.541 
0.416 0.29 0.525 0.376 
0.361 0.208 0.49 0.416 
0.498 0.333 0.51 0.498 
0.498 0.333 0.627 0.459 
0.639 0.416 0.576 0.541 
0.667 0.416 0.678 0.667 
0.388 0.251 0.424 0.376 
0.333 0.169 0.459 0.376 
0.471 0.29 0.694 0.624 
0.471 0.584 0.592 0.624 
0.557 0.125 0.576 0.498 
0.333 0.208 0.51 0.498 
0.498 0.416 0.612 0.541 
0.196 0.125 0.388 0.376 
0.388 0.416 0.541 0.459 
0.529 0.376 0.561 0.498 
0.388 0.333 0.525 0.498 
0.557 0.541 0.847 1.0 
0.776 0.416 0.831 0.831 
0.612 0.416 0.812 0.875 
0.165 0.208 0.592 0.667 
0.667 0.208 0.812 0.71 
0.612 0.502 0.694 0.792 
0.694 0.416 0.761 0.831 
0.416 0.333 0.694 0.957 
0.612 0.416 0.761 0.71 
0.945 0.251 1.0 0.918 
0.722 0.502 0.796 0.918 
0.945 0.333 0.965 0.792 
0.667 0.541 0.796 0.831 
0.529 0.333 0.643 0.71 
0.584 0.333 0.78 0.831 
0.863 0.333 0.863 0.749 
0.584 0.333 0.78 0.875 
0.498 0.251 0.78 0.541 
0.557 0.584 0.78 0.957 
0.471 0.416 0.643 0.71 
0.667 0.459 0.78 0.957 
0.416 0.29 0.694 0.749 
0.667 0.541 0.796 1.0 
0.557 0.208 0.678 0.749 
0.529 0.584 0.745 0.918 
0.416 0.29 0.694 0.749 
0.557 0.376 0.78 0.71 
0.918 0.416 0.949 0.831 
0.835 0.376 0.898 0.71 
0.804 0.667 0.863 1.0 
0.584 0.29 0.729 0.749 
0.388 0.208 0.678 0.792 
0.584 0.502 0.729 0.918 
0.945 0.749 0.965 0.875 
0.471 0.082 0.678 0.584 
0.361 0.333 0.663 0.792 
0.557 0.29 0.663 0.71 
0.804 0.502 0.847 0.71 
0.498 0.416 0.51 0.71 
0.804 0.416 0.812 0.624 
1.0 0.749 0.914 0.792 
0.557 0.333 0.694 0.584 
0.945 0.416 0.863 0.918 
0.584 0.459 0.761 0.71 
0.722 0.459 0.745 0.831 
0.722 0.459 0.694 0.918 
0.694 0.502 0.831 0.918 
0.667 0.416 0.714 0.918 
0.612 0.416 0.714 0.792 
0.443 0.416 0.694 0.71 
Teaching Patterns
1.0 0.0 0.0 
1.0 0.0 0.0 
1.0 0.0 0.0 
1.0 0.0 0.0 
1.0 0.0 0.0 
1.0 0.0 0.0 
1.0 0.0 0.0 
1.0 0.0 0.0 
1.0 0.0 0.0 
1.0 0.0 0.0 
1.0 0.0 0.0 
1.0 0.0 0.0 
1.0 0.0 0.0 
1.0 0.0 0.0 
1.0 0.0 0.0 
1.0 0.0 0.0 
1.0 0.0 0.0 
1.0 0.0 0.0 
1.0 0.0 0.0 
1.0 0.0 0.0 
1.0 0.0 0.0 
1.0 0.0 0.0 
1.0 0.0 0.0 
1.0 0.0 0.0 
1.0 0.0 0.0 
1.0 0.0 0.0 
1.0 0.0 0.0 
1.0 0.0 0.0 
1.0 0.0 0.0 
1.0 0.0 0.0 
1.0 0.0 0.0 
1.0 0.0 0.0 
1.0 0.0 0.0 
1.0 0.0 0.0 
1.0 0.0 0.0 
1.0 0.0 0.0 
1.0 0.0 0.0 
1.0 0.0 0.0 
1.0 0.0 0.0 
1.0 0.0 0.0 
1.0 0.0 0.0 
1.0 0.0 0.0 
1.0 0.0 0.0 
1.0 0.0 0.0 
1.0 0.0 0.0 
1.0 0.0 0.0 
1.0 0.0 0.0 
1.0 0.0 0.0 
1.0 0.0 0.0 
1.0 0.0 0.0 
0.0 1.0 0.0 
0.0 1.0 0.0 
0.0 1.0 0.0 
0.0 1.0 0.0 
0.0 1.0 0.0 
0.0 1.0 0.0 
0.0 1.0 0.0 
0.0 1.0 0.0 
0.0 1.0 0.0 
0.0 1.0 0.0 
0.0 1.0 0.0 
0.0 1.0 0.0 
0.0 1.0 0.0 
0.0 1.0 0.0 
0.0 1.0 0.0 
0.0 1.0 0.0 
0.0 1.0 0.0 
0.0 1.0 0.0 
0.0 1.0 0.0 
0.0 1.0 0.0 
0.0 1.0 0.0 
0.0 1.0 0.0 
0.0 1.0 0.0 
0.0 1.0 0.0 
0.0 1.0 0.0 
0.0 1.0 0.0 
0.0 1.0 0.0 
0.0 1.0 0.0 
0.0 1.0 0.0 
0.0 1.0 0.0 
0.0 1.0 0.0 
0.0 1.0 0.0 
0.0 1.0 0.0 
0.0 1.0 0.0 
0.0 1.0 0.0 
0.0 1.0 0.0 
0.0 1.0 0.0 
0.0 1.0 0.0 
0.0 1.0 0.0 
0.0 1.0 0.0 
0.0 1.0 0.0 
0.0 1.0 0.0 
0.0 1.0 0.0 
0.0 1.0 0.0 
0.0 1.0 0.0 
0.0 1.0 0.0 
0.0 1.0 0.0 
0.0 1.0 0.0 
0.0 1.0 0.0 
0.0 1.0 0.0 
0.0 0.0 1.0 
0.0 0.0 1.0 
0.0 0.0 1.0 
0.0 0.0 1.0 
0.0 0.0 1.0 
0.0 0.0 1.0 
0.0 0.0 1.0 
0.0 0.0 1.0 
0.0 0.0 1.0 
0.0 0.0 1.0 
0.0 0.0 1.0 
0.0 0.0 1.0 
0.0 0.0 1.0 
0.0 0.0 1.0 
0.0 0.0 1.0 
0.0 0.0 1.0 
0.0 0.0 1.0 
0.0 0.0 1.0 
0.0 0.0 1.0 
0.0 0.0 1.0 
0.0 0.0 1.0 
0.0 0.0 1.0 
0.0 0.0 1.0 
0.0 0.0 1.0 
0.0 0.0 1.0 
0.0 0.0 1.0 
0.0 0.0 1.0 
0.0 0.0 1.0 
0.0 0.0 1.0 
0.0 0.0 1.0 
0.0 0.0 1.0 
0.0 0.0 1.0 
0.0 0.0 1.0 
0.0 0.0 1.0 
0.0 0.0 1.0 
0.0 0.0 1.0 
0.0 0.0 1.0 
0.0 0.0 1.0 
0.0 0.0 1.0 
0.0 0.0 1.0 
0.0 0.0 1.0 
0.0 0.0 1.0 
0.0 0.0 1.0 
0.0 0.0 1.0 
0.0 0.0 1.0 
0.0 0.0 1.0 
0.0 0.0 1.0 
0.0 0.0 1.0 
0.0 0.0 1.0 
0.0 0.0 1.0 
Learning : 0.6499999761581421
Momentum : 0.9
Epoch: 100, Error: 0.013432201383040574
Epoch: 200, Error: 0.012457794320876809
Epoch: 300, Error: 0.012211146108277934
Epoch: 400, Error: 0.011944947655797969
Epoch: 500, Error: 0.01212798257144535
Epoch: 600, Error: 0.011956202894155724
Epoch: 700, Error: 0.016143775114530124
Epoch: 800, Error: 0.012097544099863104
Epoch: 900, Error: 0.012807565576750361
Epoch: 1000, Error: 0.012275658112536883
Epoch: 1100, Error: 0.013784230007239004
Epoch: 1200, Error: 0.012366478177021457
Epoch: 1300, Error: 0.012429409589237148
Epoch: 1400, Error: 0.014297822099112543
Epoch: 1500, Error: 0.012805095574622704
Epoch: 1600, Error: 0.01351215270018613
Epoch: 1700, Error: 0.012880083241464975
Epoch: 1800, Error: 0.011849177719152093
Epoch: 1900, Error: 0.011858962222014133
Epoch: 2000, Error: 0.011792527079355065
Epoch: 2100, Error: 0.012613842727228382
Epoch: 2200, Error: 0.011379173445027578
Epoch: 2300, Error: 0.011694828793656645
Epoch: 2400, Error: 0.01139197726219859
Epoch: 2500, Error: 0.012089194681755823
Epoch: 2600, Error: 0.011316133198217768
Epoch: 2700, Error: 0.012531546948662412
Epoch: 2800, Error: 0.011442785165049221
Epoch: 2900, Error: 0.01076437514521946
Epoch: 3000, Error: 0.011189336275683566
Epoch: 3100, Error: 0.011120933067829734
Epoch: 3200, Error: 0.010757978599486465
Epoch: 3300, Error: 0.011721598090274822
Epoch: 3400, Error: 0.010742845690306571
Epoch: 3500, Error: 0.011237962452695564
Epoch: 3600, Error: 0.01052510175367185
Epoch: 3700, Error: 0.010487938931021342
Epoch: 3800, Error: 0.010422455121423795
Epoch: 3900, Error: 0.01110894251227991
Epoch: 4000, Error: 0.010361609327443634
Epoch: 4100, Error: 0.011336481631354376
Epoch: 4200, Error: 0.01218301075114376
Epoch: 4300, Error: 0.010178939616460247
Epoch: 4400, Error: 0.011798660222902884
Epoch: 4500, Error: 0.009972346260765057
Epoch: 4600, Error: 0.009947253407787382
Epoch: 4700, Error: 0.009742092739269412
Epoch: 4800, Error: 0.011335489705382042
Epoch: 4900, Error: 0.009550610005291246
Epoch: 5000, Error: 0.009685927632551647
Epoch: 5100, Error: 0.009446400400909917
Epoch: 5200, Error: 0.009124511985199002
Epoch: 5300, Error: 0.008790349799468222
Epoch: 5400, Error: 0.009801963961827774
Epoch: 5500, Error: 0.00832911490738446
Epoch: 5600, Error: 0.009513771156422391
Epoch: 5700, Error: 0.008199648712475407
Epoch: 5800, Error: 0.008534456288374627
Epoch: 5900, Error: 0.008015653965176195
Epoch: 6000, Error: 0.00656698149301022
Epoch: 6100, Error: 0.006611618225509939
Epoch: 6200, Error: 0.006527927489650699
Epoch: 6300, Error: 0.007110366436352028
Epoch: 6400, Error: 0.0060011937281305
Epoch: 6500, Error: 0.005650319465330712
Epoch: 6600, Error: 0.005518491849699918
Epoch: 6700, Error: 0.005837603987678585
Epoch: 6800, Error: 0.005569397579452988
Epoch: 6900, Error: 0.005369446714778779
Epoch: 7000, Error: 0.005242862476085448
Epoch: 7100, Error: 0.005597628172624908
Epoch: 7200, Error: 0.005514567327146272
Epoch: 7300, Error: 0.005303476664164706
Epoch: 7400, Error: 0.004956650652446686
Epoch: 7500, Error: 0.004870344863745644
Epoch: 7600, Error: 0.005184111677164186
Epoch: 7700, Error: 0.0062073283672626515
Epoch: 7800, Error: 0.0043018731942648155
Epoch: 7900, Error: 0.0039940806793894775
Epoch: 8000, Error: 0.005276744310933926
Epoch: 8100, Error: 0.005403429978206727
Epoch: 8200, Error: 0.004769848599584072
Epoch: 8300, Error: 0.0031841280943135566
Epoch: 8400, Error: 0.0033985426477710344
Epoch: 8500, Error: 0.004484023529799298
Epoch: 8600, Error: 0.003003115337948718
Epoch: 8700, Error: 0.0026888619974823366
Epoch: 8800, Error: 0.0021389119797242686
Epoch: 8900, Error: 0.0030531050980928563
Epoch: 9000, Error: 0.0028849012371714848
Epoch: 9100, Error: 0.001711106649176143
Epoch: 9200, Error: 0.0013693627512280876
Epoch: 9300, Error: 0.0028048723865319414
Epoch: 9400, Error: 0.0011986527761024123
Epoch: 9500, Error: 0.001258000209140509
Epoch: 9600, Error: 0.001220978941668567
Epoch: 9700, Error: 0.001168845445386431
Epoch: 9800, Error: 0.001156435560478977
Epoch: 9900, Error: 0.0010998822550083859
Epoch: 10000, Error: 0.0010688386327661545
Epoch: 10100, Error: 0.001050134418770265
Epoch: 10200, Error: 0.0010075364348846535
Epoch: 10300, Error: 0.001025087391609546
Epoch: 10400, Error: 9.83790883341825E-4
Epoch: 10500, Error: 9.978697605652592E-4
Epoch: 10600, Error: 9.404580970057548E-4
Epoch: 10700, Error: 9.527719180743001E-4
Epoch: 10800, Error: 8.981576724290824E-4
Epoch: 10900, Error: 8.945198929372544E-4
Epoch: 11000, Error: 8.98406302180657E-4
Epoch: 11100, Error: 9.111748989562275E-4
Epoch: 11200, Error: 8.766372953542773E-4
Epoch: 11300, Error: 8.659572924822368E-4
Epoch: 11400, Error: 8.809853514064709E-4
Epoch: 11500, Error: 9.147698379516272E-4
Epoch: 11600, Error: 8.76521246020678E-4
Finished
