Input Patterns
0.224 0.624 0.067 0.043 
0.11 0.502 0.051 0.043 
0.196 0.667 0.067 0.043 
0.055 0.584 0.067 0.082 
0.027 0.376 0.067 0.043 
0.306 0.71 0.086 0.043 
0.137 0.416 0.067 0.0 
0.416 0.831 0.035 0.043 
0.306 0.792 0.051 0.125 
0.388 0.749 0.118 0.082 
0.306 0.584 0.118 0.043 
0.082 0.667 0.0 0.043 
0.137 0.584 0.153 0.043 
0.196 0.584 0.102 0.125 
0.251 0.584 0.067 0.043 
0.137 0.459 0.102 0.043 
0.251 0.875 0.086 0.0 
0.165 0.459 0.086 0.043 
0.333 0.624 0.051 0.043 
0.027 0.416 0.051 0.043 
0.196 0.624 0.051 0.082 
0.027 0.502 0.051 0.043 
0.224 0.749 0.153 0.125 
0.224 0.749 0.102 0.043 
0.278 0.71 0.086 0.043 
0.165 0.416 0.067 0.043 
0.082 0.459 0.086 0.043 
0.306 0.792 0.118 0.125 
0.196 0.584 0.086 0.043 
0.165 0.459 0.086 0.0 
0.137 0.584 0.102 0.043 
0.0 0.416 0.016 0.0 
0.388 1.0 0.086 0.125 
0.224 0.624 0.067 0.082 
0.224 0.749 0.086 0.082 
0.224 0.71 0.086 0.125 
0.224 0.541 0.118 0.165 
0.196 0.416 0.102 0.043 
0.251 0.624 0.086 0.043 
0.11 0.502 0.102 0.043 
0.306 0.584 0.086 0.125 
0.333 0.918 0.067 0.043 
0.196 0.502 0.035 0.043 
0.165 0.667 0.067 0.0 
0.224 0.584 0.086 0.043 
0.055 0.125 0.051 0.082 
0.196 0.624 0.102 0.208 
0.137 0.416 0.067 0.082 
0.082 0.502 0.067 0.043 
0.196 0.541 0.067 0.043 
0.749 0.502 0.627 0.541 
0.722 0.459 0.663 0.584 
0.612 0.333 0.612 0.584 
0.557 0.541 0.627 0.624 
0.639 0.376 0.612 0.498 
0.196 0.0 0.424 0.376 
0.471 0.082 0.51 0.376 
0.361 0.376 0.439 0.498 
0.361 0.416 0.592 0.584 
0.529 0.082 0.592 0.584 
0.443 0.502 0.643 0.459 
0.557 0.208 0.663 0.584 
0.584 0.376 0.561 0.498 
0.694 0.333 0.643 0.541 
0.471 0.376 0.592 0.584 
0.333 0.169 0.475 0.416 
0.416 0.29 0.49 0.459 
0.306 0.416 0.592 0.584 
0.667 0.459 0.627 0.584 
0.361 0.416 0.525 0.498 
0.333 0.251 0.576 0.459 
0.416 0.251 0.51 0.459 
0.361 0.29 0.541 0.498 
0.388 0.376 0.541 0.498 
0.224 0.208 0.337 0.416 
0.584 0.502 0.592 0.584 
0.333 0.125 0.51 0.498 
0.388 0.333 0.592 0.498 
0.165 0.169 0.388 0.376 
0.251 0.29 0.49 0.541 
0.443 0.416 0.541 0.584 
0.498 0.376 0.627 0.541 
0.667 0.459 0.576 0.541 
0.416 0.29 0.525 0.376 
0.361 0.208 0.49 0.416 
0.498 0.333 0.51 0.498 
0.498 0.333 0.627 0.459 
0.639 0.416 0.576 0.541 
0.667 0.416 0.678 0.667 
0.388 0.251 0.424 0.376 
0.333 0.169 0.459 0.376 
0.471 0.29 0.694 0.624 
0.471 0.584 0.592 0.624 
0.557 0.125 0.576 0.498 
0.333 0.208 0.51 0.498 
0.498 0.416 0.612 0.541 
0.196 0.125 0.388 0.376 
0.388 0.416 0.541 0.459 
0.529 0.376 0.561 0.498 
0.388 0.333 0.525 0.498 
0.557 0.541 0.847 1.0 
0.776 0.416 0.831 0.831 
0.612 0.416 0.812 0.875 
0.165 0.208 0.592 0.667 
0.667 0.208 0.812 0.71 
0.612 0.502 0.694 0.792 
0.694 0.416 0.761 0.831 
0.416 0.333 0.694 0.957 
0.612 0.416 0.761 0.71 
0.945 0.251 1.0 0.918 
0.722 0.502 0.796 0.918 
0.945 0.333 0.965 0.792 
0.667 0.541 0.796 0.831 
0.529 0.333 0.643 0.71 
0.584 0.333 0.78 0.831 
0.863 0.333 0.863 0.749 
0.584 0.333 0.78 0.875 
0.498 0.251 0.78 0.541 
0.557 0.584 0.78 0.957 
0.471 0.416 0.643 0.71 
0.667 0.459 0.78 0.957 
0.416 0.29 0.694 0.749 
0.667 0.541 0.796 1.0 
0.557 0.208 0.678 0.749 
0.529 0.584 0.745 0.918 
0.416 0.29 0.694 0.749 
0.557 0.376 0.78 0.71 
0.918 0.416 0.949 0.831 
0.835 0.376 0.898 0.71 
0.804 0.667 0.863 1.0 
0.584 0.29 0.729 0.749 
0.388 0.208 0.678 0.792 
0.584 0.502 0.729 0.918 
0.945 0.749 0.965 0.875 
0.471 0.082 0.678 0.584 
0.361 0.333 0.663 0.792 
0.557 0.29 0.663 0.71 
0.804 0.502 0.847 0.71 
0.498 0.416 0.51 0.71 
0.804 0.416 0.812 0.624 
1.0 0.749 0.914 0.792 
0.557 0.333 0.694 0.584 
0.945 0.416 0.863 0.918 
0.584 0.459 0.761 0.71 
0.722 0.459 0.745 0.831 
0.722 0.459 0.694 0.918 
0.694 0.502 0.831 0.918 
0.667 0.416 0.714 0.918 
0.612 0.416 0.714 0.792 
0.443 0.416 0.694 0.71 
Teaching Patterns
1.0 0.0 0.0 
1.0 0.0 0.0 
1.0 0.0 0.0 
1.0 0.0 0.0 
1.0 0.0 0.0 
1.0 0.0 0.0 
1.0 0.0 0.0 
1.0 0.0 0.0 
1.0 0.0 0.0 
1.0 0.0 0.0 
1.0 0.0 0.0 
1.0 0.0 0.0 
1.0 0.0 0.0 
1.0 0.0 0.0 
1.0 0.0 0.0 
1.0 0.0 0.0 
1.0 0.0 0.0 
1.0 0.0 0.0 
1.0 0.0 0.0 
1.0 0.0 0.0 
1.0 0.0 0.0 
1.0 0.0 0.0 
1.0 0.0 0.0 
1.0 0.0 0.0 
1.0 0.0 0.0 
1.0 0.0 0.0 
1.0 0.0 0.0 
1.0 0.0 0.0 
1.0 0.0 0.0 
1.0 0.0 0.0 
1.0 0.0 0.0 
1.0 0.0 0.0 
1.0 0.0 0.0 
1.0 0.0 0.0 
1.0 0.0 0.0 
1.0 0.0 0.0 
1.0 0.0 0.0 
1.0 0.0 0.0 
1.0 0.0 0.0 
1.0 0.0 0.0 
1.0 0.0 0.0 
1.0 0.0 0.0 
1.0 0.0 0.0 
1.0 0.0 0.0 
1.0 0.0 0.0 
1.0 0.0 0.0 
1.0 0.0 0.0 
1.0 0.0 0.0 
1.0 0.0 0.0 
1.0 0.0 0.0 
0.0 1.0 0.0 
0.0 1.0 0.0 
0.0 1.0 0.0 
0.0 1.0 0.0 
0.0 1.0 0.0 
0.0 1.0 0.0 
0.0 1.0 0.0 
0.0 1.0 0.0 
0.0 1.0 0.0 
0.0 1.0 0.0 
0.0 1.0 0.0 
0.0 1.0 0.0 
0.0 1.0 0.0 
0.0 1.0 0.0 
0.0 1.0 0.0 
0.0 1.0 0.0 
0.0 1.0 0.0 
0.0 1.0 0.0 
0.0 1.0 0.0 
0.0 1.0 0.0 
0.0 1.0 0.0 
0.0 1.0 0.0 
0.0 1.0 0.0 
0.0 1.0 0.0 
0.0 1.0 0.0 
0.0 1.0 0.0 
0.0 1.0 0.0 
0.0 1.0 0.0 
0.0 1.0 0.0 
0.0 1.0 0.0 
0.0 1.0 0.0 
0.0 1.0 0.0 
0.0 1.0 0.0 
0.0 1.0 0.0 
0.0 1.0 0.0 
0.0 1.0 0.0 
0.0 1.0 0.0 
0.0 1.0 0.0 
0.0 1.0 0.0 
0.0 1.0 0.0 
0.0 1.0 0.0 
0.0 1.0 0.0 
0.0 1.0 0.0 
0.0 1.0 0.0 
0.0 1.0 0.0 
0.0 1.0 0.0 
0.0 1.0 0.0 
0.0 1.0 0.0 
0.0 1.0 0.0 
0.0 1.0 0.0 
0.0 0.0 1.0 
0.0 0.0 1.0 
0.0 0.0 1.0 
0.0 0.0 1.0 
0.0 0.0 1.0 
0.0 0.0 1.0 
0.0 0.0 1.0 
0.0 0.0 1.0 
0.0 0.0 1.0 
0.0 0.0 1.0 
0.0 0.0 1.0 
0.0 0.0 1.0 
0.0 0.0 1.0 
0.0 0.0 1.0 
0.0 0.0 1.0 
0.0 0.0 1.0 
0.0 0.0 1.0 
0.0 0.0 1.0 
0.0 0.0 1.0 
0.0 0.0 1.0 
0.0 0.0 1.0 
0.0 0.0 1.0 
0.0 0.0 1.0 
0.0 0.0 1.0 
0.0 0.0 1.0 
0.0 0.0 1.0 
0.0 0.0 1.0 
0.0 0.0 1.0 
0.0 0.0 1.0 
0.0 0.0 1.0 
0.0 0.0 1.0 
0.0 0.0 1.0 
0.0 0.0 1.0 
0.0 0.0 1.0 
0.0 0.0 1.0 
0.0 0.0 1.0 
0.0 0.0 1.0 
0.0 0.0 1.0 
0.0 0.0 1.0 
0.0 0.0 1.0 
0.0 0.0 1.0 
0.0 0.0 1.0 
0.0 0.0 1.0 
0.0 0.0 1.0 
0.0 0.0 1.0 
0.0 0.0 1.0 
0.0 0.0 1.0 
0.0 0.0 1.0 
0.0 0.0 1.0 
0.0 0.0 1.0 
Learning : 0.6499999761581421
Momentum : 0.9
Epoch: 100, Error: 0.013958929621226144
Epoch: 200, Error: 0.011992421438002141
Epoch: 300, Error: 0.012677624122813458
Epoch: 400, Error: 0.013338193001811613
Epoch: 500, Error: 0.012356349945347277
Epoch: 600, Error: 0.012979111821583999
Epoch: 700, Error: 0.01377592472343716
Epoch: 800, Error: 0.013769548122383101
Epoch: 900, Error: 0.012620550753420815
Epoch: 1000, Error: 0.01185301087348079
Epoch: 1100, Error: 0.012030277001856797
Epoch: 1200, Error: 0.012919062447627009
Epoch: 1300, Error: 0.011630000254609621
Epoch: 1400, Error: 0.01231028395714168
Epoch: 1500, Error: 0.011664958070546814
Epoch: 1600, Error: 0.011396095564946765
Epoch: 1700, Error: 0.010956849443227815
Epoch: 1800, Error: 0.011290679272837778
Epoch: 1900, Error: 0.012817899189700862
Epoch: 2000, Error: 0.011410571166059112
Epoch: 2100, Error: 0.010782132947237242
Epoch: 2200, Error: 0.010134083004905661
Epoch: 2300, Error: 0.009675976459484672
Epoch: 2400, Error: 0.008500906288503309
Epoch: 2500, Error: 0.007513777210576637
Epoch: 2600, Error: 0.007116442490644565
Epoch: 2700, Error: 0.005856534792239421
Epoch: 2800, Error: 0.005761133751403984
Epoch: 2900, Error: 0.00558821116001778
Epoch: 3000, Error: 0.0053660838532928
Epoch: 3100, Error: 0.005187974054402379
Epoch: 3200, Error: 0.005169622543022966
Epoch: 3300, Error: 0.0051515376745129545
Epoch: 3400, Error: 0.005136006144400069
Epoch: 3500, Error: 0.005130533135351202
Epoch: 3600, Error: 0.005186671450745503
Epoch: 3700, Error: 0.005091476022408158
Epoch: 3800, Error: 0.0050651350797759976
Epoch: 3900, Error: 0.005082004344607256
Epoch: 4000, Error: 0.005056859773649574
Epoch: 4100, Error: 0.00502967870244312
Epoch: 4200, Error: 0.00496265018537702
Epoch: 4300, Error: 0.004949272888786695
Epoch: 4400, Error: 0.00493205276713971
Epoch: 4500, Error: 0.004869286461729962
Epoch: 4600, Error: 0.004843262178321236
Epoch: 4700, Error: 0.0048355127039878334
Epoch: 4800, Error: 0.0048503942489380525
Epoch: 4900, Error: 0.004763945556091561
Epoch: 5000, Error: 0.00468747211743418
Epoch: 5100, Error: 0.004703078087439032
Epoch: 5200, Error: 0.004728064119716266
Epoch: 5300, Error: 0.00477363804570526
Epoch: 5400, Error: 0.0045909121027373255
Epoch: 5500, Error: 0.004976041059158561
Epoch: 5600, Error: 0.0047718727128792104
Epoch: 5700, Error: 0.004508156385681701
Epoch: 5800, Error: 0.004327163675605696
Epoch: 5900, Error: 0.004189304695575751
Epoch: 6000, Error: 0.004284175998430088
Epoch: 6100, Error: 0.007607116161749286
Epoch: 6200, Error: 0.004002585859657571
Epoch: 6300, Error: 0.0036634654907974286
Epoch: 6400, Error: 0.004366771459088228
Epoch: 6500, Error: 0.003963171692220613
Epoch: 6600, Error: 0.00333533783648774
Epoch: 6700, Error: 0.003639339593274905
Epoch: 6800, Error: 0.0029988189312711963
Epoch: 6900, Error: 0.0034995406834769627
Epoch: 7000, Error: 0.0030363355000829428
Epoch: 7100, Error: 0.0034411853498243048
Epoch: 7200, Error: 0.003619932857956605
Epoch: 7300, Error: 0.002350108484975062
Epoch: 7400, Error: 0.003548636963642149
Epoch: 7500, Error: 0.0028317558779433222
Epoch: 7600, Error: 0.0022760969457951514
Epoch: 7700, Error: 0.0028462625533144667
Epoch: 7800, Error: 0.0018725922194912468
Epoch: 7900, Error: 0.004919067717395995
Epoch: 8000, Error: 0.0049786197021894785
Epoch: 8100, Error: 0.003033964016177947
Epoch: 8200, Error: 0.003814393000741114
Epoch: 8300, Error: 0.003115637303599973
Epoch: 8400, Error: 0.0029354547737276537
Epoch: 8500, Error: 0.0062948781163343764
Epoch: 8600, Error: 0.0012129100031067774
Epoch: 8700, Error: 0.002132136831382838
Epoch: 8800, Error: 0.0015802351068260729
Epoch: 8900, Error: 0.0012279057177344939
Epoch: 9000, Error: 0.002219613340593737
Epoch: 9100, Error: 0.0014237170264913273
Epoch: 9200, Error: 9.054396257328275E-4
Epoch: 9300, Error: 0.0016424129471502011
Epoch: 9400, Error: 0.001735954862720517
Epoch: 9500, Error: 8.755110766695533E-4
Epoch: 9600, Error: 9.74740367046166E-4
Epoch: 9700, Error: 8.011796806863472E-4
Epoch: 9800, Error: 8.713513444663952E-4
Epoch: 9900, Error: 0.001000852400282222
Epoch: 10000, Error: 7.905517714790367E-4
Epoch: 10100, Error: 7.93717778696291E-4
Epoch: 10200, Error: 8.008613790338322E-4
Epoch: 10300, Error: 7.817454901869756E-4
Epoch: 10400, Error: 8.072059961986275E-4
Epoch: 10500, Error: 7.805866223717124E-4
Epoch: 10600, Error: 7.887030397000479E-4
Epoch: 10700, Error: 7.635456664250673E-4
Epoch: 10800, Error: 7.669816296021802E-4
Epoch: 10900, Error: 7.626953749057184E-4
Epoch: 11000, Error: 7.405642506370229E-4
Epoch: 11100, Error: 7.159477341446475E-4
Epoch: 11200, Error: 6.542936469569907E-4
Epoch: 11300, Error: 6.162095688033854E-4
Epoch: 11400, Error: 6.30916512069551E-4
Epoch: 11500, Error: 6.578100765730022E-4
Epoch: 11600, Error: 6.394957409712938E-4
Epoch: 11700, Error: 5.902786148040323E-4
Epoch: 11800, Error: 5.239410099549242E-4
Epoch: 11900, Error: 5.44529124722851E-4
Epoch: 12000, Error: 5.216577211745966E-4
Epoch: 12100, Error: 4.919431924749114E-4
Epoch: 12200, Error: 4.7350238456541255E-4
Epoch: 12300, Error: 4.3991871699383396E-4
Epoch: 12400, Error: 4.284465976584221E-4
Epoch: 12500, Error: 4.209719211934527E-4
Epoch: 12600, Error: 4.219953740754332E-4
Epoch: 12700, Error: 4.087271084969864E-4
Epoch: 12800, Error: 3.9968789799206815E-4
Epoch: 12900, Error: 4.1918785727843954E-4
Epoch: 13000, Error: 3.958252260017233E-4
Epoch: 13100, Error: 3.9059380614358744E-4
Epoch: 13200, Error: 3.927796781957714E-4
Epoch: 13300, Error: 3.8897715241323816E-4
Epoch: 13400, Error: 3.88044325928365E-4
Epoch: 13500, Error: 3.9487554962262914E-4
Epoch: 13600, Error: 4.0118964250783723E-4
Epoch: 13700, Error: 3.8993456130892733E-4
Epoch: 13800, Error: 3.8403048063546686E-4
Epoch: 13900, Error: 3.806678889207924E-4
Epoch: 14000, Error: 3.8224019097747494E-4
Finished
