Input Patterns
0.224 0.624 0.067 0.043 
0.11 0.502 0.051 0.043 
0.196 0.667 0.067 0.043 
0.055 0.584 0.067 0.082 
0.027 0.376 0.067 0.043 
0.306 0.71 0.086 0.043 
0.137 0.416 0.067 0.0 
0.416 0.831 0.035 0.043 
0.306 0.792 0.051 0.125 
0.388 0.749 0.118 0.082 
0.306 0.584 0.118 0.043 
0.082 0.667 0.0 0.043 
0.137 0.584 0.153 0.043 
0.196 0.584 0.102 0.125 
0.251 0.584 0.067 0.043 
0.137 0.459 0.102 0.043 
0.251 0.875 0.086 0.0 
0.165 0.459 0.086 0.043 
0.333 0.624 0.051 0.043 
0.027 0.416 0.051 0.043 
0.196 0.624 0.051 0.082 
0.027 0.502 0.051 0.043 
0.224 0.749 0.153 0.125 
0.224 0.749 0.102 0.043 
0.278 0.71 0.086 0.043 
0.165 0.416 0.067 0.043 
0.082 0.459 0.086 0.043 
0.306 0.792 0.118 0.125 
0.196 0.584 0.086 0.043 
0.165 0.459 0.086 0.0 
0.137 0.584 0.102 0.043 
0.0 0.416 0.016 0.0 
0.388 1.0 0.086 0.125 
0.224 0.624 0.067 0.082 
0.224 0.749 0.086 0.082 
0.224 0.71 0.086 0.125 
0.224 0.541 0.118 0.165 
0.196 0.416 0.102 0.043 
0.251 0.624 0.086 0.043 
0.11 0.502 0.102 0.043 
0.306 0.584 0.086 0.125 
0.333 0.918 0.067 0.043 
0.196 0.502 0.035 0.043 
0.165 0.667 0.067 0.0 
0.224 0.584 0.086 0.043 
0.055 0.125 0.051 0.082 
0.196 0.624 0.102 0.208 
0.137 0.416 0.067 0.082 
0.082 0.502 0.067 0.043 
0.196 0.541 0.067 0.043 
0.749 0.502 0.627 0.541 
0.722 0.459 0.663 0.584 
0.612 0.333 0.612 0.584 
0.557 0.541 0.627 0.624 
0.639 0.376 0.612 0.498 
0.196 0.0 0.424 0.376 
0.471 0.082 0.51 0.376 
0.361 0.376 0.439 0.498 
0.361 0.416 0.592 0.584 
0.529 0.082 0.592 0.584 
0.443 0.502 0.643 0.459 
0.557 0.208 0.663 0.584 
0.584 0.376 0.561 0.498 
0.694 0.333 0.643 0.541 
0.471 0.376 0.592 0.584 
0.333 0.169 0.475 0.416 
0.416 0.29 0.49 0.459 
0.306 0.416 0.592 0.584 
0.667 0.459 0.627 0.584 
0.361 0.416 0.525 0.498 
0.333 0.251 0.576 0.459 
0.416 0.251 0.51 0.459 
0.361 0.29 0.541 0.498 
0.388 0.376 0.541 0.498 
0.224 0.208 0.337 0.416 
0.584 0.502 0.592 0.584 
0.333 0.125 0.51 0.498 
0.388 0.333 0.592 0.498 
0.165 0.169 0.388 0.376 
0.251 0.29 0.49 0.541 
0.443 0.416 0.541 0.584 
0.498 0.376 0.627 0.541 
0.667 0.459 0.576 0.541 
0.416 0.29 0.525 0.376 
0.361 0.208 0.49 0.416 
0.498 0.333 0.51 0.498 
0.498 0.333 0.627 0.459 
0.639 0.416 0.576 0.541 
0.667 0.416 0.678 0.667 
0.388 0.251 0.424 0.376 
0.333 0.169 0.459 0.376 
0.471 0.29 0.694 0.624 
0.471 0.584 0.592 0.624 
0.557 0.125 0.576 0.498 
0.333 0.208 0.51 0.498 
0.498 0.416 0.612 0.541 
0.196 0.125 0.388 0.376 
0.388 0.416 0.541 0.459 
0.529 0.376 0.561 0.498 
0.388 0.333 0.525 0.498 
0.557 0.541 0.847 1.0 
0.776 0.416 0.831 0.831 
0.612 0.416 0.812 0.875 
0.165 0.208 0.592 0.667 
0.667 0.208 0.812 0.71 
0.612 0.502 0.694 0.792 
0.694 0.416 0.761 0.831 
0.416 0.333 0.694 0.957 
0.612 0.416 0.761 0.71 
0.945 0.251 1.0 0.918 
0.722 0.502 0.796 0.918 
0.945 0.333 0.965 0.792 
0.667 0.541 0.796 0.831 
0.529 0.333 0.643 0.71 
0.584 0.333 0.78 0.831 
0.863 0.333 0.863 0.749 
0.584 0.333 0.78 0.875 
0.498 0.251 0.78 0.541 
0.557 0.584 0.78 0.957 
0.471 0.416 0.643 0.71 
0.667 0.459 0.78 0.957 
0.416 0.29 0.694 0.749 
0.667 0.541 0.796 1.0 
0.557 0.208 0.678 0.749 
0.529 0.584 0.745 0.918 
0.416 0.29 0.694 0.749 
0.557 0.376 0.78 0.71 
0.918 0.416 0.949 0.831 
0.835 0.376 0.898 0.71 
0.804 0.667 0.863 1.0 
0.584 0.29 0.729 0.749 
0.388 0.208 0.678 0.792 
0.584 0.502 0.729 0.918 
0.945 0.749 0.965 0.875 
0.471 0.082 0.678 0.584 
0.361 0.333 0.663 0.792 
0.557 0.29 0.663 0.71 
0.804 0.502 0.847 0.71 
0.498 0.416 0.51 0.71 
0.804 0.416 0.812 0.624 
1.0 0.749 0.914 0.792 
0.557 0.333 0.694 0.584 
0.945 0.416 0.863 0.918 
0.584 0.459 0.761 0.71 
0.722 0.459 0.745 0.831 
0.722 0.459 0.694 0.918 
0.694 0.502 0.831 0.918 
0.667 0.416 0.714 0.918 
0.612 0.416 0.714 0.792 
0.443 0.416 0.694 0.71 
Teaching Patterns
1.0 0.0 0.0 
1.0 0.0 0.0 
1.0 0.0 0.0 
1.0 0.0 0.0 
1.0 0.0 0.0 
1.0 0.0 0.0 
1.0 0.0 0.0 
1.0 0.0 0.0 
1.0 0.0 0.0 
1.0 0.0 0.0 
1.0 0.0 0.0 
1.0 0.0 0.0 
1.0 0.0 0.0 
1.0 0.0 0.0 
1.0 0.0 0.0 
1.0 0.0 0.0 
1.0 0.0 0.0 
1.0 0.0 0.0 
1.0 0.0 0.0 
1.0 0.0 0.0 
1.0 0.0 0.0 
1.0 0.0 0.0 
1.0 0.0 0.0 
1.0 0.0 0.0 
1.0 0.0 0.0 
1.0 0.0 0.0 
1.0 0.0 0.0 
1.0 0.0 0.0 
1.0 0.0 0.0 
1.0 0.0 0.0 
1.0 0.0 0.0 
1.0 0.0 0.0 
1.0 0.0 0.0 
1.0 0.0 0.0 
1.0 0.0 0.0 
1.0 0.0 0.0 
1.0 0.0 0.0 
1.0 0.0 0.0 
1.0 0.0 0.0 
1.0 0.0 0.0 
1.0 0.0 0.0 
1.0 0.0 0.0 
1.0 0.0 0.0 
1.0 0.0 0.0 
1.0 0.0 0.0 
1.0 0.0 0.0 
1.0 0.0 0.0 
1.0 0.0 0.0 
1.0 0.0 0.0 
1.0 0.0 0.0 
0.0 1.0 0.0 
0.0 1.0 0.0 
0.0 1.0 0.0 
0.0 1.0 0.0 
0.0 1.0 0.0 
0.0 1.0 0.0 
0.0 1.0 0.0 
0.0 1.0 0.0 
0.0 1.0 0.0 
0.0 1.0 0.0 
0.0 1.0 0.0 
0.0 1.0 0.0 
0.0 1.0 0.0 
0.0 1.0 0.0 
0.0 1.0 0.0 
0.0 1.0 0.0 
0.0 1.0 0.0 
0.0 1.0 0.0 
0.0 1.0 0.0 
0.0 1.0 0.0 
0.0 1.0 0.0 
0.0 1.0 0.0 
0.0 1.0 0.0 
0.0 1.0 0.0 
0.0 1.0 0.0 
0.0 1.0 0.0 
0.0 1.0 0.0 
0.0 1.0 0.0 
0.0 1.0 0.0 
0.0 1.0 0.0 
0.0 1.0 0.0 
0.0 1.0 0.0 
0.0 1.0 0.0 
0.0 1.0 0.0 
0.0 1.0 0.0 
0.0 1.0 0.0 
0.0 1.0 0.0 
0.0 1.0 0.0 
0.0 1.0 0.0 
0.0 1.0 0.0 
0.0 1.0 0.0 
0.0 1.0 0.0 
0.0 1.0 0.0 
0.0 1.0 0.0 
0.0 1.0 0.0 
0.0 1.0 0.0 
0.0 1.0 0.0 
0.0 1.0 0.0 
0.0 1.0 0.0 
0.0 1.0 0.0 
0.0 0.0 1.0 
0.0 0.0 1.0 
0.0 0.0 1.0 
0.0 0.0 1.0 
0.0 0.0 1.0 
0.0 0.0 1.0 
0.0 0.0 1.0 
0.0 0.0 1.0 
0.0 0.0 1.0 
0.0 0.0 1.0 
0.0 0.0 1.0 
0.0 0.0 1.0 
0.0 0.0 1.0 
0.0 0.0 1.0 
0.0 0.0 1.0 
0.0 0.0 1.0 
0.0 0.0 1.0 
0.0 0.0 1.0 
0.0 0.0 1.0 
0.0 0.0 1.0 
0.0 0.0 1.0 
0.0 0.0 1.0 
0.0 0.0 1.0 
0.0 0.0 1.0 
0.0 0.0 1.0 
0.0 0.0 1.0 
0.0 0.0 1.0 
0.0 0.0 1.0 
0.0 0.0 1.0 
0.0 0.0 1.0 
0.0 0.0 1.0 
0.0 0.0 1.0 
0.0 0.0 1.0 
0.0 0.0 1.0 
0.0 0.0 1.0 
0.0 0.0 1.0 
0.0 0.0 1.0 
0.0 0.0 1.0 
0.0 0.0 1.0 
0.0 0.0 1.0 
0.0 0.0 1.0 
0.0 0.0 1.0 
0.0 0.0 1.0 
0.0 0.0 1.0 
0.0 0.0 1.0 
0.0 0.0 1.0 
0.0 0.0 1.0 
0.0 0.0 1.0 
0.0 0.0 1.0 
0.0 0.0 1.0 
Learning : 0.05
Momentum : 0.699999988079071
Epoch: 100, Error: 0.03320670112390485
Epoch: 200, Error: 0.019166317537789093
Epoch: 300, Error: 0.016418346221568056
Epoch: 400, Error: 0.015718787529215704
Epoch: 500, Error: 0.014527231131644206
Epoch: 600, Error: 0.013998693473019352
Epoch: 700, Error: 0.013587551981690729
Epoch: 800, Error: 0.013313305745240657
Epoch: 900, Error: 0.013049164914574661
Epoch: 1000, Error: 0.012909993004808112
Epoch: 1100, Error: 0.012798070814869259
Epoch: 1200, Error: 0.012794179697204571
Epoch: 1300, Error: 0.012646318701013069
Epoch: 1400, Error: 0.012497293846019676
Epoch: 1500, Error: 0.012535677101108584
Epoch: 1600, Error: 0.012482098724606266
Epoch: 1700, Error: 0.012348500901947179
Epoch: 1800, Error: 0.012590005053101457
Epoch: 1900, Error: 0.012515923440647702
Epoch: 2000, Error: 0.012303512671621485
Epoch: 2100, Error: 0.012415518653018527
Epoch: 2200, Error: 0.012245729449260803
Epoch: 2300, Error: 0.012220196463330243
Epoch: 2400, Error: 0.012199192394517508
Epoch: 2500, Error: 0.012262828109789304
Epoch: 2600, Error: 0.012200087506809992
Epoch: 2700, Error: 0.01215655032673837
Epoch: 2800, Error: 0.012136506249118523
Epoch: 2900, Error: 0.012145960399722662
Epoch: 3000, Error: 0.012128698532529505
Epoch: 3100, Error: 0.012102146169534847
Epoch: 3200, Error: 0.012092285410008665
Epoch: 3300, Error: 0.01208112529373417
Epoch: 3400, Error: 0.01213034619855822
Epoch: 3500, Error: 0.01204029024770186
Epoch: 3600, Error: 0.012158633592839384
Epoch: 3700, Error: 0.012042820329269557
Epoch: 3800, Error: 0.012022970910344374
Epoch: 3900, Error: 0.011983264255981013
Epoch: 4000, Error: 0.01200310071445316
Epoch: 4100, Error: 0.012037023166947894
Epoch: 4200, Error: 0.012010853073721621
Epoch: 4300, Error: 0.011986947586852858
Epoch: 4400, Error: 0.011969728373265239
Epoch: 4500, Error: 0.012001674064778324
Epoch: 4600, Error: 0.012240173681009135
Epoch: 4700, Error: 0.01196432630124626
Epoch: 4800, Error: 0.011972300657653749
Epoch: 4900, Error: 0.012001386696611457
Epoch: 5000, Error: 0.011929410374777212
Epoch: 5100, Error: 0.011928966457403597
Epoch: 5200, Error: 0.011952679567318922
Epoch: 5300, Error: 0.011944039337220396
Epoch: 5400, Error: 0.011925287165584131
Epoch: 5500, Error: 0.01194962616287903
Epoch: 5600, Error: 0.011914235737820142
Epoch: 5700, Error: 0.011926927380052745
Epoch: 5800, Error: 0.011919079188098822
Epoch: 5900, Error: 0.012014132513187623
Epoch: 6000, Error: 0.011901636390091187
Epoch: 6100, Error: 0.011922201053542959
Epoch: 6200, Error: 0.011903310402959192
Epoch: 6300, Error: 0.011923534913046078
Epoch: 6400, Error: 0.011904269854806549
Epoch: 6500, Error: 0.011917299093406646
Epoch: 6600, Error: 0.011882699594439097
Epoch: 6700, Error: 0.011919450562314427
Epoch: 6800, Error: 0.01192892684841776
Epoch: 6900, Error: 0.011880894381763183
Epoch: 7000, Error: 0.011995334546154425
Epoch: 7100, Error: 0.011914145380262127
Epoch: 7200, Error: 0.012005828745980177
Epoch: 7300, Error: 0.01201832719434329
Epoch: 7400, Error: 0.011871838046262509
Epoch: 7500, Error: 0.011898289137032293
Epoch: 7600, Error: 0.012045347498373812
Epoch: 7700, Error: 0.011902603130759798
Epoch: 7800, Error: 0.011902015518516173
Epoch: 7900, Error: 0.011842822637550468
Epoch: 8000, Error: 0.011874221720516024
Epoch: 8100, Error: 0.011817529015522027
Epoch: 8200, Error: 0.01185045184527963
Epoch: 8300, Error: 0.011849447008963149
Epoch: 8400, Error: 0.011836989343277933
Epoch: 8500, Error: 0.011965550629849194
Epoch: 8600, Error: 0.011835153455831164
Epoch: 8700, Error: 0.011856168446572304
Epoch: 8800, Error: 0.011838509788935149
Epoch: 8900, Error: 0.011806449070586793
Epoch: 9000, Error: 0.01182920983092948
Epoch: 9100, Error: 0.011800662430301442
Epoch: 9200, Error: 0.011788940292613796
Epoch: 9300, Error: 0.011803317599684553
Epoch: 9400, Error: 0.0117436077092993
Epoch: 9500, Error: 0.011729529244094847
Epoch: 9600, Error: 0.011735556171897666
Epoch: 9700, Error: 0.011693960249671393
Epoch: 9800, Error: 0.01189034014405998
Epoch: 9900, Error: 0.011684017781478
Epoch: 10000, Error: 0.011634967565510086
Epoch: 10100, Error: 0.011618538559819964
Epoch: 10200, Error: 0.011627483819510329
Epoch: 10300, Error: 0.01157781536197099
Epoch: 10400, Error: 0.011601009041602902
Epoch: 10500, Error: 0.01152979740642588
Epoch: 10600, Error: 0.011521943284556413
Epoch: 10700, Error: 0.011460126182568852
Epoch: 10800, Error: 0.011431994500410516
Epoch: 10900, Error: 0.011478297695786571
Epoch: 11000, Error: 0.011403161327020059
Epoch: 11100, Error: 0.011358591435954855
Epoch: 11200, Error: 0.011314038488030156
Epoch: 11300, Error: 0.011323654914897863
Epoch: 11400, Error: 0.011236265463936511
Epoch: 11500, Error: 0.011140515754047762
Epoch: 11600, Error: 0.011074143266343693
Epoch: 11700, Error: 0.011047840314149893
Epoch: 11800, Error: 0.010998462402577255
Epoch: 11900, Error: 0.010854181371015275
Epoch: 12000, Error: 0.010777297241537509
Epoch: 12100, Error: 0.010696554713783286
Epoch: 12200, Error: 0.010619549050810707
Epoch: 12300, Error: 0.010496516047571089
Epoch: 12400, Error: 0.010364641000124299
Epoch: 12500, Error: 0.010222466233189401
Epoch: 12600, Error: 0.010125806364748554
Epoch: 12700, Error: 0.009980526810564324
Epoch: 12800, Error: 0.009919079633104337
Epoch: 12900, Error: 0.009705225143345021
Epoch: 13000, Error: 0.00951889668449809
Epoch: 13100, Error: 0.009429764388083295
Epoch: 13200, Error: 0.009283652590791216
Epoch: 13300, Error: 0.009055394913001709
Epoch: 13400, Error: 0.008933506721029313
Epoch: 13500, Error: 0.008772299355232629
Epoch: 13600, Error: 0.008596789339089856
Epoch: 13700, Error: 0.00843779312142513
Epoch: 13800, Error: 0.008355349040551406
Epoch: 13900, Error: 0.008205098834554805
Epoch: 14000, Error: 0.008085630581886636
Epoch: 14100, Error: 0.007973707892474358
Epoch: 14200, Error: 0.007876794979378139
Epoch: 14300, Error: 0.0078088181484624875
Epoch: 14400, Error: 0.007750724427760493
Epoch: 14500, Error: 0.0076634054164286735
Epoch: 14600, Error: 0.007629266312035197
Epoch: 14700, Error: 0.007556255107001275
Epoch: 14800, Error: 0.007473973486939158
Epoch: 14900, Error: 0.007404917214883593
Epoch: 15000, Error: 0.007301340818670629
Epoch: 15100, Error: 0.007248525470850453
Epoch: 15200, Error: 0.007206624307068834
Epoch: 15300, Error: 0.007146272015634756
Epoch: 15400, Error: 0.007100720711016107
Epoch: 15500, Error: 0.007052523792134861
Epoch: 15600, Error: 0.006991201082934185
Epoch: 15700, Error: 0.0069491770617974595
Epoch: 15800, Error: 0.006907517124809162
Epoch: 15900, Error: 0.006861452413739539
Epoch: 16000, Error: 0.0068166783577431
Epoch: 16100, Error: 0.006790118768020067
Epoch: 16200, Error: 0.006762862979027484
Epoch: 16300, Error: 0.006734999783021988
Epoch: 16400, Error: 0.006726241724279281
Epoch: 16500, Error: 0.006690042676563031
Epoch: 16600, Error: 0.0066623203529125145
Epoch: 16700, Error: 0.006663904869362722
Epoch: 16800, Error: 0.0066102453241123895
Epoch: 16900, Error: 0.006605767674723316
Epoch: 17000, Error: 0.0065839020066690845
Epoch: 17100, Error: 0.0065506439265553855
Epoch: 17200, Error: 0.006535852400372661
Epoch: 17300, Error: 0.006518900398697333
Epoch: 17400, Error: 0.0064968705242738406
Epoch: 17500, Error: 0.006474363155336662
Epoch: 17600, Error: 0.006443451342219742
Epoch: 17700, Error: 0.006409908767026434
Epoch: 17800, Error: 0.006359606278527424
Epoch: 17900, Error: 0.006325112693962535
Epoch: 18000, Error: 0.006303476797453577
Epoch: 18100, Error: 0.006262727556271285
Epoch: 18200, Error: 0.00622450937932835
Epoch: 18300, Error: 0.006178336390115564
Epoch: 18400, Error: 0.006141186748543105
Epoch: 18500, Error: 0.006109372678926451
Epoch: 18600, Error: 0.006100041396206159
Epoch: 18700, Error: 0.006042407134495596
Epoch: 18800, Error: 0.006027709136293471
Epoch: 18900, Error: 0.005983866095898142
Epoch: 19000, Error: 0.005973933627635338
Epoch: 19100, Error: 0.005941544762061004
Epoch: 19200, Error: 0.005914548848663152
Epoch: 19300, Error: 0.005900986541766995
Epoch: 19400, Error: 0.0058716896271359936
Epoch: 19500, Error: 0.005863211546783418
Epoch: 19600, Error: 0.00587762179491604
Epoch: 19700, Error: 0.005802261752184184
Epoch: 19800, Error: 0.0057838797678824
Epoch: 19900, Error: 0.005765607345515741
Epoch: 20000, Error: 0.0057461776336587955
Epoch: 20100, Error: 0.005719338220337411
Epoch: 20200, Error: 0.005698993699088686
Epoch: 20300, Error: 0.005690474599681104
Epoch: 20400, Error: 0.005660580503089005
Epoch: 20500, Error: 0.005631563363022178
Epoch: 20600, Error: 0.005607941559207821
Epoch: 20700, Error: 0.005577999522630474
Epoch: 20800, Error: 0.005567533090212905
Epoch: 20900, Error: 0.0055529044952596016
Epoch: 21000, Error: 0.00553305586548843
Epoch: 21100, Error: 0.005494909704027191
Epoch: 21200, Error: 0.005472193602228763
Epoch: 21300, Error: 0.005442704100344879
Epoch: 21400, Error: 0.005420367792385734
Epoch: 21500, Error: 0.005391472142850843
Epoch: 21600, Error: 0.005388261742572107
Epoch: 21700, Error: 0.00535309421939949
Epoch: 21800, Error: 0.00533038211547121
Epoch: 21900, Error: 0.005311598431053575
Epoch: 22000, Error: 0.005295554072804613
Epoch: 22100, Error: 0.005292657052084363
Epoch: 22200, Error: 0.005252582801356266
Epoch: 22300, Error: 0.005238821303772821
Epoch: 22400, Error: 0.0052128012359602925
Epoch: 22500, Error: 0.00518992042233418
Epoch: 22600, Error: 0.005174308375624211
Epoch: 22700, Error: 0.005148464999865003
Epoch: 22800, Error: 0.005122248516929503
Epoch: 22900, Error: 0.00510055881948611
Epoch: 23000, Error: 0.0050836296987239946
Epoch: 23100, Error: 0.005069890218446377
Epoch: 23200, Error: 0.005040330054492496
Epoch: 23300, Error: 0.005015405663722812
Epoch: 23400, Error: 0.00500226568173356
Epoch: 23500, Error: 0.004988346379317323
Epoch: 23600, Error: 0.004964976084575626
Epoch: 23700, Error: 0.004945320842748149
Epoch: 23800, Error: 0.004929702491523071
Epoch: 23900, Error: 0.004962811095956423
Epoch: 24000, Error: 0.004895299435532996
Epoch: 24100, Error: 0.004869765285180337
Epoch: 24200, Error: 0.00486039176554417
Epoch: 24300, Error: 0.004836594397907748
Epoch: 24400, Error: 0.004829462206436402
Epoch: 24500, Error: 0.0048578187621062165
Epoch: 24600, Error: 0.004789089213168922
Epoch: 24700, Error: 0.004768508510682848
Epoch: 24800, Error: 0.00479836933174644
Epoch: 24900, Error: 0.0047394894531755365
Epoch: 25000, Error: 0.004731109250850778
Epoch: 25100, Error: 0.004770593029122206
Epoch: 25200, Error: 0.004676332309355919
Epoch: 25300, Error: 0.004653063048264645
Epoch: 25400, Error: 0.004636765454804577
Epoch: 25500, Error: 0.004607549281126692
Epoch: 25600, Error: 0.0046058947621605145
Epoch: 25700, Error: 0.004566416595639152
Epoch: 25800, Error: 0.004571512967163608
Epoch: 25900, Error: 0.004512574270755005
Epoch: 26000, Error: 0.004549049862683343
Epoch: 26100, Error: 0.004521801371515135
Epoch: 26200, Error: 0.004463239621895599
Epoch: 26300, Error: 0.004455267645696475
Epoch: 26400, Error: 0.0044620723516565625
Epoch: 26500, Error: 0.004433978137813641
Epoch: 26600, Error: 0.004434724470804452
Epoch: 26700, Error: 0.00442250569673657
Epoch: 26800, Error: 0.004423970259118421
Epoch: 26900, Error: 0.004384513258608602
Epoch: 27000, Error: 0.0044046615274935495
Epoch: 27100, Error: 0.004411011191727986
Epoch: 27200, Error: 0.004357622349809195
Epoch: 27300, Error: 0.0043771719599919
Epoch: 27400, Error: 0.00433082218029043
Epoch: 27500, Error: 0.00433409440862976
Epoch: 27600, Error: 0.00431430135368201
Epoch: 27700, Error: 0.004317248290312559
Epoch: 27800, Error: 0.004278591145105768
Epoch: 27900, Error: 0.004272021073357851
Epoch: 28000, Error: 0.004284608820877997
Epoch: 28100, Error: 0.00425527669218175
Epoch: 28200, Error: 0.004254646312534297
Epoch: 28300, Error: 0.0042552034174003
Epoch: 28400, Error: 0.00423628416504547
Epoch: 28500, Error: 0.004280528109225227
Epoch: 28600, Error: 0.004243138981923016
Epoch: 28700, Error: 0.004234831474260797
Epoch: 28800, Error: 0.004215613108914486
Epoch: 28900, Error: 0.004227648276454267
Epoch: 29000, Error: 0.004212227522561227
Epoch: 29100, Error: 0.004206961289161872
Epoch: 29200, Error: 0.004241280802376869
Epoch: 29300, Error: 0.004143592248341679
Epoch: 29400, Error: 0.004112838835956413
Epoch: 29500, Error: 0.004099202734421192
Epoch: 29600, Error: 0.0040574469110379475
Epoch: 29700, Error: 0.004019909823773819
Epoch: 29800, Error: 0.0039873720851600555
Epoch: 29900, Error: 0.003979189860281873
Epoch: 30000, Error: 0.003934470408892912
Epoch: 30100, Error: 0.003903295354680712
Epoch: 30200, Error: 0.0038622843393558287
Epoch: 30300, Error: 0.003842931681654747
Epoch: 30400, Error: 0.0038199654474640665
Epoch: 30500, Error: 0.003791025226535397
Epoch: 30600, Error: 0.003816232380100576
Epoch: 30700, Error: 0.003737663057276925
Epoch: 30800, Error: 0.0036950119275637205
Epoch: 30900, Error: 0.0036661748631886468
Epoch: 31000, Error: 0.00365032107190266
Epoch: 31100, Error: 0.0036315023766525594
Epoch: 31200, Error: 0.003584387735136825
Epoch: 31300, Error: 0.003560207099571551
Epoch: 31400, Error: 0.003545011999770175
Epoch: 31500, Error: 0.0035342334076653836
Epoch: 31600, Error: 0.0034886041069478635
Epoch: 31700, Error: 0.0034796951644342302
Epoch: 31800, Error: 0.0034380149513922615
Epoch: 31900, Error: 0.003406885758410598
Epoch: 32000, Error: 0.0034177805459367954
Epoch: 32100, Error: 0.0033532139257715587
Epoch: 32200, Error: 0.0033803561610612847
Epoch: 32300, Error: 0.0033038159758247147
Epoch: 32400, Error: 0.0033169004110708326
Epoch: 32500, Error: 0.003295281415553715
Epoch: 32600, Error: 0.003240808798864044
Epoch: 32700, Error: 0.003218949330734834
Epoch: 32800, Error: 0.003183167740922696
Epoch: 32900, Error: 0.003262313969665009
Epoch: 33000, Error: 0.0031259965773107507
Epoch: 33100, Error: 0.0031060417187767624
Epoch: 33200, Error: 0.003125312027141357
Epoch: 33300, Error: 0.0030794865673266403
Epoch: 33400, Error: 0.0030447852115503514
Epoch: 33500, Error: 0.003031207786695382
Epoch: 33600, Error: 0.0029961903830142663
Epoch: 33700, Error: 0.003026821641303925
Epoch: 33800, Error: 0.0029584911221386613
Epoch: 33900, Error: 0.0029689913910469256
Epoch: 34000, Error: 0.002916771367098691
Epoch: 34100, Error: 0.002891745352013027
Epoch: 34200, Error: 0.0029197224331609104
Epoch: 34300, Error: 0.0028549518514798993
Epoch: 34400, Error: 0.0028598011813863117
Epoch: 34500, Error: 0.002824280847534038
Epoch: 34600, Error: 0.002816657554620917
Epoch: 34700, Error: 0.002794962796192469
Epoch: 34800, Error: 0.0027655072008074657
Epoch: 34900, Error: 0.002751903810969242
Epoch: 35000, Error: 0.00272373531030463
Epoch: 35100, Error: 0.0027120297651271105
Epoch: 35200, Error: 0.002731199795025344
Epoch: 35300, Error: 0.002696437107214007
Epoch: 35400, Error: 0.002649837263515109
Epoch: 35500, Error: 0.0026507678747628685
Epoch: 35600, Error: 0.002650898217436503
Epoch: 35700, Error: 0.0025892904134581004
Epoch: 35800, Error: 0.0026233949082905507
Epoch: 35900, Error: 0.002554255685481593
Epoch: 36000, Error: 0.0025334808598631224
Epoch: 36100, Error: 0.0025134012646256657
Epoch: 36200, Error: 0.002527355115240648
Epoch: 36300, Error: 0.0024846352641073586
Epoch: 36400, Error: 0.0024795284806876277
Epoch: 36500, Error: 0.002441337240067808
Epoch: 36600, Error: 0.0024379604588226967
Epoch: 36700, Error: 0.0024126886036551984
Epoch: 36800, Error: 0.0023994977271906
Epoch: 36900, Error: 0.002378580654851155
Epoch: 37000, Error: 0.002363551824593909
Epoch: 37100, Error: 0.0024772452183475283
Epoch: 37200, Error: 0.0023297195426268654
Epoch: 37300, Error: 0.0023188350306708513
Epoch: 37400, Error: 0.002298347106062298
Epoch: 37500, Error: 0.002549055545906419
Epoch: 37600, Error: 0.0022692275194770117
Epoch: 37700, Error: 0.0022812701521411865
Epoch: 37800, Error: 0.0022330450256773586
Epoch: 37900, Error: 0.0022467787997217828
Epoch: 38000, Error: 0.0022759799785751936
Epoch: 38100, Error: 0.002188243630990387
Epoch: 38200, Error: 0.0022780368483379648
Epoch: 38300, Error: 0.002209649194103954
Epoch: 38400, Error: 0.002151704859513995
Epoch: 38500, Error: 0.0021405419916308756
Epoch: 38600, Error: 0.00215652737219077
Epoch: 38700, Error: 0.0021006675680401705
Epoch: 38800, Error: 0.00209145223112131
Epoch: 38900, Error: 0.0020854888224645174
Epoch: 39000, Error: 0.002100648519744986
Epoch: 39100, Error: 0.002051771921397318
Epoch: 39200, Error: 0.002065881415802785
Epoch: 39300, Error: 0.002026041398282537
Epoch: 39400, Error: 0.0020224456149469053
Epoch: 39500, Error: 0.002048171042301122
Epoch: 39600, Error: 0.0020313879782071823
Epoch: 39700, Error: 0.0019833927832044753
Epoch: 39800, Error: 0.0020206736147158903
Epoch: 39900, Error: 0.0019966965939522403
Epoch: 40000, Error: 0.001940799508966996
Epoch: 40100, Error: 0.0019403406103266471
Epoch: 40200, Error: 0.002031605996229028
Epoch: 40300, Error: 0.0019249340852977711
Epoch: 40400, Error: 0.0019011742855421458
Epoch: 40500, Error: 0.0018925914417410425
Epoch: 40600, Error: 0.001890708210234091
Epoch: 40700, Error: 0.001893016254318583
Epoch: 40800, Error: 0.001868933004604268
Epoch: 40900, Error: 0.001864080355182549
Epoch: 41000, Error: 0.0018815980469592628
Epoch: 41100, Error: 0.0018481106415179534
Epoch: 41200, Error: 0.0018544229160656683
Epoch: 41300, Error: 0.0018168430479038097
Epoch: 41400, Error: 0.0017967923764280755
Epoch: 41500, Error: 0.0017908630012740314
Epoch: 41600, Error: 0.0017798813393729944
Epoch: 41700, Error: 0.001778331259588381
Epoch: 41800, Error: 0.001775475287121061
Epoch: 41900, Error: 0.001760013975640109
Epoch: 42000, Error: 0.001779700494498237
Epoch: 42100, Error: 0.00175123998625894
Epoch: 42200, Error: 0.0017239978540493364
Epoch: 42300, Error: 0.0017749440444890065
Epoch: 42400, Error: 0.0017535230773995482
Epoch: 42500, Error: 0.0017219924729269434
Epoch: 42600, Error: 0.0017031808066288315
Epoch: 42700, Error: 0.0016850642721323824
Epoch: 42800, Error: 0.0016750958324522132
Epoch: 42900, Error: 0.0016703532860344876
Epoch: 43000, Error: 0.001679952994177698
Epoch: 43100, Error: 0.0017605929550477608
Epoch: 43200, Error: 0.0016671390889638463
Epoch: 43300, Error: 0.0016380483257423476
Epoch: 43400, Error: 0.0016270139123377538
Epoch: 43500, Error: 0.0016249619473225525
Epoch: 43600, Error: 0.0016083336869057439
Epoch: 43700, Error: 0.0016027060358121945
Epoch: 43800, Error: 0.00161499391745106
Epoch: 43900, Error: 0.0015962234774539966
Epoch: 44000, Error: 0.0015761468924270312
Epoch: 44100, Error: 0.001591795345557919
Epoch: 44200, Error: 0.0015775440672842994
Epoch: 44300, Error: 0.0015715167852896532
Epoch: 44400, Error: 0.0015448596002552864
Epoch: 44500, Error: 0.0015344895135606888
Epoch: 44600, Error: 0.0015376446926636269
Epoch: 44700, Error: 0.0015204260080953107
Epoch: 44800, Error: 0.0015137859262974419
Epoch: 44900, Error: 0.0015187163250577425
Epoch: 45000, Error: 0.001520087145891209
Epoch: 45100, Error: 0.0014737178686559335
Epoch: 45200, Error: 0.0014675127445201504
Epoch: 45300, Error: 0.0014615400644936015
Epoch: 45400, Error: 0.0014444389968474073
Epoch: 45500, Error: 0.0014386483710227282
Epoch: 45600, Error: 0.0014478621893453084
Epoch: 45700, Error: 0.0014283038970164213
Finished
