Input Patterns
0.224 0.624 0.067 0.043 
0.11 0.502 0.051 0.043 
0.196 0.667 0.067 0.043 
0.055 0.584 0.067 0.082 
0.027 0.376 0.067 0.043 
0.306 0.71 0.086 0.043 
0.137 0.416 0.067 0.0 
0.416 0.831 0.035 0.043 
0.306 0.792 0.051 0.125 
0.388 0.749 0.118 0.082 
0.306 0.584 0.118 0.043 
0.082 0.667 0.0 0.043 
0.137 0.584 0.153 0.043 
0.196 0.584 0.102 0.125 
0.251 0.584 0.067 0.043 
0.137 0.459 0.102 0.043 
0.251 0.875 0.086 0.0 
0.165 0.459 0.086 0.043 
0.333 0.624 0.051 0.043 
0.027 0.416 0.051 0.043 
0.196 0.624 0.051 0.082 
0.027 0.502 0.051 0.043 
0.224 0.749 0.153 0.125 
0.224 0.749 0.102 0.043 
0.278 0.71 0.086 0.043 
0.165 0.416 0.067 0.043 
0.082 0.459 0.086 0.043 
0.306 0.792 0.118 0.125 
0.196 0.584 0.086 0.043 
0.165 0.459 0.086 0.0 
0.137 0.584 0.102 0.043 
0.0 0.416 0.016 0.0 
0.388 1.0 0.086 0.125 
0.224 0.624 0.067 0.082 
0.224 0.749 0.086 0.082 
0.224 0.71 0.086 0.125 
0.224 0.541 0.118 0.165 
0.196 0.416 0.102 0.043 
0.251 0.624 0.086 0.043 
0.11 0.502 0.102 0.043 
0.306 0.584 0.086 0.125 
0.333 0.918 0.067 0.043 
0.196 0.502 0.035 0.043 
0.165 0.667 0.067 0.0 
0.224 0.584 0.086 0.043 
0.055 0.125 0.051 0.082 
0.196 0.624 0.102 0.208 
0.137 0.416 0.067 0.082 
0.082 0.502 0.067 0.043 
0.196 0.541 0.067 0.043 
0.749 0.502 0.627 0.541 
0.722 0.459 0.663 0.584 
0.612 0.333 0.612 0.584 
0.557 0.541 0.627 0.624 
0.639 0.376 0.612 0.498 
0.196 0.0 0.424 0.376 
0.471 0.082 0.51 0.376 
0.361 0.376 0.439 0.498 
0.361 0.416 0.592 0.584 
0.529 0.082 0.592 0.584 
0.443 0.502 0.643 0.459 
0.557 0.208 0.663 0.584 
0.584 0.376 0.561 0.498 
0.694 0.333 0.643 0.541 
0.471 0.376 0.592 0.584 
0.333 0.169 0.475 0.416 
0.416 0.29 0.49 0.459 
0.306 0.416 0.592 0.584 
0.667 0.459 0.627 0.584 
0.361 0.416 0.525 0.498 
0.333 0.251 0.576 0.459 
0.416 0.251 0.51 0.459 
0.361 0.29 0.541 0.498 
0.388 0.376 0.541 0.498 
0.224 0.208 0.337 0.416 
0.584 0.502 0.592 0.584 
0.333 0.125 0.51 0.498 
0.388 0.333 0.592 0.498 
0.165 0.169 0.388 0.376 
0.251 0.29 0.49 0.541 
0.443 0.416 0.541 0.584 
0.498 0.376 0.627 0.541 
0.667 0.459 0.576 0.541 
0.416 0.29 0.525 0.376 
0.361 0.208 0.49 0.416 
0.498 0.333 0.51 0.498 
0.498 0.333 0.627 0.459 
0.639 0.416 0.576 0.541 
0.667 0.416 0.678 0.667 
0.388 0.251 0.424 0.376 
0.333 0.169 0.459 0.376 
0.471 0.29 0.694 0.624 
0.471 0.584 0.592 0.624 
0.557 0.125 0.576 0.498 
0.333 0.208 0.51 0.498 
0.498 0.416 0.612 0.541 
0.196 0.125 0.388 0.376 
0.388 0.416 0.541 0.459 
0.529 0.376 0.561 0.498 
0.388 0.333 0.525 0.498 
0.557 0.541 0.847 1.0 
0.776 0.416 0.831 0.831 
0.612 0.416 0.812 0.875 
0.165 0.208 0.592 0.667 
0.667 0.208 0.812 0.71 
0.612 0.502 0.694 0.792 
0.694 0.416 0.761 0.831 
0.416 0.333 0.694 0.957 
0.612 0.416 0.761 0.71 
0.945 0.251 1.0 0.918 
0.722 0.502 0.796 0.918 
0.945 0.333 0.965 0.792 
0.667 0.541 0.796 0.831 
0.529 0.333 0.643 0.71 
0.584 0.333 0.78 0.831 
0.863 0.333 0.863 0.749 
0.584 0.333 0.78 0.875 
0.498 0.251 0.78 0.541 
0.557 0.584 0.78 0.957 
0.471 0.416 0.643 0.71 
0.667 0.459 0.78 0.957 
0.416 0.29 0.694 0.749 
0.667 0.541 0.796 1.0 
0.557 0.208 0.678 0.749 
0.529 0.584 0.745 0.918 
0.416 0.29 0.694 0.749 
0.557 0.376 0.78 0.71 
0.918 0.416 0.949 0.831 
0.835 0.376 0.898 0.71 
0.804 0.667 0.863 1.0 
0.584 0.29 0.729 0.749 
0.388 0.208 0.678 0.792 
0.584 0.502 0.729 0.918 
0.945 0.749 0.965 0.875 
0.471 0.082 0.678 0.584 
0.361 0.333 0.663 0.792 
0.557 0.29 0.663 0.71 
0.804 0.502 0.847 0.71 
0.498 0.416 0.51 0.71 
0.804 0.416 0.812 0.624 
1.0 0.749 0.914 0.792 
0.557 0.333 0.694 0.584 
0.945 0.416 0.863 0.918 
0.584 0.459 0.761 0.71 
0.722 0.459 0.745 0.831 
0.722 0.459 0.694 0.918 
0.694 0.502 0.831 0.918 
0.667 0.416 0.714 0.918 
0.612 0.416 0.714 0.792 
0.443 0.416 0.694 0.71 
Teaching Patterns
1.0 0.0 0.0 
1.0 0.0 0.0 
1.0 0.0 0.0 
1.0 0.0 0.0 
1.0 0.0 0.0 
1.0 0.0 0.0 
1.0 0.0 0.0 
1.0 0.0 0.0 
1.0 0.0 0.0 
1.0 0.0 0.0 
1.0 0.0 0.0 
1.0 0.0 0.0 
1.0 0.0 0.0 
1.0 0.0 0.0 
1.0 0.0 0.0 
1.0 0.0 0.0 
1.0 0.0 0.0 
1.0 0.0 0.0 
1.0 0.0 0.0 
1.0 0.0 0.0 
1.0 0.0 0.0 
1.0 0.0 0.0 
1.0 0.0 0.0 
1.0 0.0 0.0 
1.0 0.0 0.0 
1.0 0.0 0.0 
1.0 0.0 0.0 
1.0 0.0 0.0 
1.0 0.0 0.0 
1.0 0.0 0.0 
1.0 0.0 0.0 
1.0 0.0 0.0 
1.0 0.0 0.0 
1.0 0.0 0.0 
1.0 0.0 0.0 
1.0 0.0 0.0 
1.0 0.0 0.0 
1.0 0.0 0.0 
1.0 0.0 0.0 
1.0 0.0 0.0 
1.0 0.0 0.0 
1.0 0.0 0.0 
1.0 0.0 0.0 
1.0 0.0 0.0 
1.0 0.0 0.0 
1.0 0.0 0.0 
1.0 0.0 0.0 
1.0 0.0 0.0 
1.0 0.0 0.0 
1.0 0.0 0.0 
0.0 1.0 0.0 
0.0 1.0 0.0 
0.0 1.0 0.0 
0.0 1.0 0.0 
0.0 1.0 0.0 
0.0 1.0 0.0 
0.0 1.0 0.0 
0.0 1.0 0.0 
0.0 1.0 0.0 
0.0 1.0 0.0 
0.0 1.0 0.0 
0.0 1.0 0.0 
0.0 1.0 0.0 
0.0 1.0 0.0 
0.0 1.0 0.0 
0.0 1.0 0.0 
0.0 1.0 0.0 
0.0 1.0 0.0 
0.0 1.0 0.0 
0.0 1.0 0.0 
0.0 1.0 0.0 
0.0 1.0 0.0 
0.0 1.0 0.0 
0.0 1.0 0.0 
0.0 1.0 0.0 
0.0 1.0 0.0 
0.0 1.0 0.0 
0.0 1.0 0.0 
0.0 1.0 0.0 
0.0 1.0 0.0 
0.0 1.0 0.0 
0.0 1.0 0.0 
0.0 1.0 0.0 
0.0 1.0 0.0 
0.0 1.0 0.0 
0.0 1.0 0.0 
0.0 1.0 0.0 
0.0 1.0 0.0 
0.0 1.0 0.0 
0.0 1.0 0.0 
0.0 1.0 0.0 
0.0 1.0 0.0 
0.0 1.0 0.0 
0.0 1.0 0.0 
0.0 1.0 0.0 
0.0 1.0 0.0 
0.0 1.0 0.0 
0.0 1.0 0.0 
0.0 1.0 0.0 
0.0 1.0 0.0 
0.0 0.0 1.0 
0.0 0.0 1.0 
0.0 0.0 1.0 
0.0 0.0 1.0 
0.0 0.0 1.0 
0.0 0.0 1.0 
0.0 0.0 1.0 
0.0 0.0 1.0 
0.0 0.0 1.0 
0.0 0.0 1.0 
0.0 0.0 1.0 
0.0 0.0 1.0 
0.0 0.0 1.0 
0.0 0.0 1.0 
0.0 0.0 1.0 
0.0 0.0 1.0 
0.0 0.0 1.0 
0.0 0.0 1.0 
0.0 0.0 1.0 
0.0 0.0 1.0 
0.0 0.0 1.0 
0.0 0.0 1.0 
0.0 0.0 1.0 
0.0 0.0 1.0 
0.0 0.0 1.0 
0.0 0.0 1.0 
0.0 0.0 1.0 
0.0 0.0 1.0 
0.0 0.0 1.0 
0.0 0.0 1.0 
0.0 0.0 1.0 
0.0 0.0 1.0 
0.0 0.0 1.0 
0.0 0.0 1.0 
0.0 0.0 1.0 
0.0 0.0 1.0 
0.0 0.0 1.0 
0.0 0.0 1.0 
0.0 0.0 1.0 
0.0 0.0 1.0 
0.0 0.0 1.0 
0.0 0.0 1.0 
0.0 0.0 1.0 
0.0 0.0 1.0 
0.0 0.0 1.0 
0.0 0.0 1.0 
0.0 0.0 1.0 
0.0 0.0 1.0 
0.0 0.0 1.0 
0.0 0.0 1.0 
Learning : 0.05
Momentum : 0.699999988079071
Epoch: 100, Error: 0.03775211834113464
Epoch: 200, Error: 0.019157333719635048
Epoch: 300, Error: 0.016869400422225633
Epoch: 400, Error: 0.015145444401894354
Epoch: 500, Error: 0.014391335846411654
Epoch: 600, Error: 0.013884736345595113
Epoch: 700, Error: 0.013632574067832621
Epoch: 800, Error: 0.0132822133308038
Epoch: 900, Error: 0.013123544178936065
Epoch: 1000, Error: 0.012949242179601366
Epoch: 1100, Error: 0.012819426604039738
Epoch: 1200, Error: 0.012704757172584746
Epoch: 1300, Error: 0.012707600466474183
Epoch: 1400, Error: 0.0126365572323474
Epoch: 1500, Error: 0.012615494399181386
Epoch: 1600, Error: 0.012452856823720734
Epoch: 1700, Error: 0.012557312572585487
Epoch: 1800, Error: 0.01280972247983612
Epoch: 1900, Error: 0.012459090402188231
Epoch: 2000, Error: 0.012355246334450098
Epoch: 2100, Error: 0.012382547886061432
Epoch: 2200, Error: 0.01236905104368094
Epoch: 2300, Error: 0.01238026975499946
Epoch: 2400, Error: 0.012276952432171861
Epoch: 2500, Error: 0.012262808951826574
Epoch: 2600, Error: 0.012313581525625172
Epoch: 2700, Error: 0.01233233520657258
Epoch: 2800, Error: 0.012400901083716451
Epoch: 2900, Error: 0.01222697124735246
Epoch: 3000, Error: 0.012303027272566679
Epoch: 3100, Error: 0.012331395928123566
Epoch: 3200, Error: 0.012341744973794613
Epoch: 3300, Error: 0.012267711877371504
Epoch: 3400, Error: 0.01231200954286488
Epoch: 3500, Error: 0.012278507978161601
Epoch: 3600, Error: 0.012280223267564682
Epoch: 3700, Error: 0.012240976552322726
Epoch: 3800, Error: 0.01235329238834574
Epoch: 3900, Error: 0.012467808157761481
Epoch: 4000, Error: 0.012293728587623775
Epoch: 4100, Error: 0.012347576240511231
Epoch: 4200, Error: 0.012360691698488354
Epoch: 4300, Error: 0.01231189566668669
Epoch: 4400, Error: 0.01238527555786927
Epoch: 4500, Error: 0.012187051004725339
Epoch: 4600, Error: 0.012155262147018566
Epoch: 4700, Error: 0.012142545058882594
Epoch: 4800, Error: 0.012140644079856915
Epoch: 4900, Error: 0.01217446643593178
Epoch: 5000, Error: 0.012186434666353774
Epoch: 5100, Error: 0.012147211759077627
Epoch: 5200, Error: 0.012125881453469958
Epoch: 5300, Error: 0.012136906056673846
Epoch: 5400, Error: 0.012174749877064878
Epoch: 5500, Error: 0.012180346894583367
Epoch: 5600, Error: 0.012148181342384216
Epoch: 5700, Error: 0.012145526267290676
Epoch: 5800, Error: 0.01220817084564107
Epoch: 5900, Error: 0.012073888921031818
Epoch: 6000, Error: 0.01228632187923168
Epoch: 6100, Error: 0.012042149576780447
Epoch: 6200, Error: 0.012092389985330073
Epoch: 6300, Error: 0.012095424298888133
Epoch: 6400, Error: 0.01202240549979018
Epoch: 6500, Error: 0.012025190122256547
Epoch: 6600, Error: 0.01198686316896921
Epoch: 6700, Error: 0.011985965674446057
Epoch: 6800, Error: 0.011996448890820076
Epoch: 6900, Error: 0.011977440242719975
Epoch: 7000, Error: 0.011954009570874523
Epoch: 7100, Error: 0.011935291127025604
Epoch: 7200, Error: 0.011933422436200469
Epoch: 7300, Error: 0.011910155523836797
Epoch: 7400, Error: 0.011890680709024654
Epoch: 7500, Error: 0.011894340984899065
Epoch: 7600, Error: 0.011866797855598424
Epoch: 7700, Error: 0.011860236711945544
Epoch: 7800, Error: 0.011837390232791616
Epoch: 7900, Error: 0.011844888045661537
Epoch: 8000, Error: 0.011826779549113027
Epoch: 8100, Error: 0.011826778625584747
Epoch: 8200, Error: 0.011891414825159397
Epoch: 8300, Error: 0.011791327698774822
Epoch: 8400, Error: 0.011800384626768709
Epoch: 8500, Error: 0.0117870764296557
Epoch: 8600, Error: 0.011796728513423884
Epoch: 8700, Error: 0.01177239189139406
Epoch: 8800, Error: 0.011766788680570498
Epoch: 8900, Error: 0.01182642556427682
Epoch: 9000, Error: 0.011705516818570337
Epoch: 9100, Error: 0.011717459482544067
Epoch: 9200, Error: 0.011695794875316587
Epoch: 9300, Error: 0.01169959962248559
Epoch: 9400, Error: 0.011648291530873192
Epoch: 9500, Error: 0.011651242897866943
Epoch: 9600, Error: 0.011609406948386981
Epoch: 9700, Error: 0.011595136865862991
Epoch: 9800, Error: 0.011575671568901368
Epoch: 9900, Error: 0.011572379580276439
Epoch: 10000, Error: 0.01156753288893283
Epoch: 10100, Error: 0.01152876122091267
Epoch: 10200, Error: 0.011512491241696262
Epoch: 10300, Error: 0.01150601325394158
Epoch: 10400, Error: 0.01142989286598433
Epoch: 10500, Error: 0.011399819879013463
Epoch: 10600, Error: 0.01135462068326535
Epoch: 10700, Error: 0.011322070472469817
Epoch: 10800, Error: 0.011324813352222775
Epoch: 10900, Error: 0.011277272485615431
Epoch: 11000, Error: 0.011200688647725726
Epoch: 11100, Error: 0.011170460184781496
Epoch: 11200, Error: 0.011111380502005764
Epoch: 11300, Error: 0.011109107559712894
Epoch: 11400, Error: 0.011031743637264241
Epoch: 11500, Error: 0.010929907450303774
Epoch: 11600, Error: 0.010904947166687632
Epoch: 11700, Error: 0.010841941427897659
Epoch: 11800, Error: 0.010781716485680352
Epoch: 11900, Error: 0.010635146307149616
Epoch: 12000, Error: 0.010608484143622424
Epoch: 12100, Error: 0.010481427872093819
Epoch: 12200, Error: 0.010455630240237159
Epoch: 12300, Error: 0.0103113723623366
Epoch: 12400, Error: 0.010195582173647478
Epoch: 12500, Error: 0.01011007733497093
Epoch: 12600, Error: 0.009994386428839012
Epoch: 12700, Error: 0.009883843956849306
Epoch: 12800, Error: 0.00979060785716297
Epoch: 12900, Error: 0.009787351525169076
Epoch: 13000, Error: 0.009590134467949886
Epoch: 13100, Error: 0.009443038373097646
Epoch: 13200, Error: 0.009328951126743763
Epoch: 13300, Error: 0.00923815353444905
Epoch: 13400, Error: 0.009119961501457033
Epoch: 13500, Error: 0.008999292861409299
Epoch: 13600, Error: 0.008901434500834636
Epoch: 13700, Error: 0.00883124954394708
Epoch: 13800, Error: 0.008677792687324985
Epoch: 13900, Error: 0.008576669204825246
Epoch: 14000, Error: 0.008475649760243007
Epoch: 14100, Error: 0.008410437853730711
Epoch: 14200, Error: 0.008293813278260181
Epoch: 14300, Error: 0.008211601722149306
Epoch: 14400, Error: 0.00815261785453684
Epoch: 14500, Error: 0.008075403163885917
Epoch: 14600, Error: 0.007991722746827957
Epoch: 14700, Error: 0.007902292631365024
Epoch: 14800, Error: 0.00782038939515649
Epoch: 14900, Error: 0.007737282061302219
Epoch: 15000, Error: 0.007673427208980421
Epoch: 15100, Error: 0.007592490955817792
Epoch: 15200, Error: 0.0075365033195753245
Epoch: 15300, Error: 0.007470247334220428
Epoch: 15400, Error: 0.007415282130004607
Epoch: 15500, Error: 0.0074609769579266775
Epoch: 15600, Error: 0.007265114986751963
Epoch: 15700, Error: 0.0072188273244629675
Epoch: 15800, Error: 0.007154599935790917
Epoch: 15900, Error: 0.007107906628939688
Epoch: 16000, Error: 0.007062682444495936
Epoch: 16100, Error: 0.006985440473628396
Epoch: 16200, Error: 0.006931623091953313
Epoch: 16300, Error: 0.006871558426891235
Epoch: 16400, Error: 0.0068325276116493455
Epoch: 16500, Error: 0.0067783245574184045
Epoch: 16600, Error: 0.006791943054513734
Epoch: 16700, Error: 0.006718724900758841
Epoch: 16800, Error: 0.006694231359891962
Epoch: 16900, Error: 0.00663499123582247
Epoch: 17000, Error: 0.0066212665050301035
Epoch: 17100, Error: 0.006594658435090764
Epoch: 17200, Error: 0.00660001070974743
Epoch: 17300, Error: 0.006519162290682367
Epoch: 17400, Error: 0.006490452336664511
Epoch: 17500, Error: 0.006466821262166501
Epoch: 17600, Error: 0.0064308181757364675
Epoch: 17700, Error: 0.006391043202988916
Epoch: 17800, Error: 0.006392751324050082
Epoch: 17900, Error: 0.006356692224452592
Epoch: 18000, Error: 0.00633926428278164
Epoch: 18100, Error: 0.006329270099017702
Epoch: 18200, Error: 0.006288272181210102
Epoch: 18300, Error: 0.00626790662943856
Epoch: 18400, Error: 0.006252937515250552
Epoch: 18500, Error: 0.00623976202973443
Epoch: 18600, Error: 0.006212379711740477
Epoch: 18700, Error: 0.0062292040216695085
Epoch: 18800, Error: 0.006196710747127727
Epoch: 18900, Error: 0.0061769963776877835
Epoch: 19000, Error: 0.006144447148186191
Epoch: 19100, Error: 0.006141985767410439
Epoch: 19200, Error: 0.006123078326572203
Epoch: 19300, Error: 0.00609221301006015
Epoch: 19400, Error: 0.006067453790131983
Epoch: 19500, Error: 0.0060496018372551575
Epoch: 19600, Error: 0.00603224826900622
Epoch: 19700, Error: 0.006038513936806978
Epoch: 19800, Error: 0.006027057858088442
Epoch: 19900, Error: 0.006014157391321465
Epoch: 20000, Error: 0.006027295579801714
Epoch: 20100, Error: 0.005996097198454809
Epoch: 20200, Error: 0.005994091139613894
Epoch: 20300, Error: 0.005984954528182622
Epoch: 20400, Error: 0.0059863523522383465
Epoch: 20500, Error: 0.005986331082294809
Epoch: 20600, Error: 0.005989449181183768
Epoch: 20700, Error: 0.005999092976033574
Epoch: 20800, Error: 0.005999750909145385
Epoch: 20900, Error: 0.006019250184596387
Epoch: 21000, Error: 0.005996644350902497
Epoch: 21100, Error: 0.006009449645487807
Epoch: 21200, Error: 0.005998717836882631
Epoch: 21300, Error: 0.006021947159853142
Finished
