Input Patterns
0.224 0.624 0.067 0.043 
0.11 0.502 0.051 0.043 
0.196 0.667 0.067 0.043 
0.055 0.584 0.067 0.082 
0.027 0.376 0.067 0.043 
0.306 0.71 0.086 0.043 
0.137 0.416 0.067 0.0 
0.416 0.831 0.035 0.043 
0.306 0.792 0.051 0.125 
0.388 0.749 0.118 0.082 
0.306 0.584 0.118 0.043 
0.082 0.667 0.0 0.043 
0.137 0.584 0.153 0.043 
0.196 0.584 0.102 0.125 
0.251 0.584 0.067 0.043 
0.137 0.459 0.102 0.043 
0.251 0.875 0.086 0.0 
0.165 0.459 0.086 0.043 
0.333 0.624 0.051 0.043 
0.027 0.416 0.051 0.043 
0.196 0.624 0.051 0.082 
0.027 0.502 0.051 0.043 
0.224 0.749 0.153 0.125 
0.224 0.749 0.102 0.043 
0.278 0.71 0.086 0.043 
0.165 0.416 0.067 0.043 
0.082 0.459 0.086 0.043 
0.306 0.792 0.118 0.125 
0.196 0.584 0.086 0.043 
0.165 0.459 0.086 0.0 
0.137 0.584 0.102 0.043 
0.0 0.416 0.016 0.0 
0.388 1.0 0.086 0.125 
0.224 0.624 0.067 0.082 
0.224 0.749 0.086 0.082 
0.224 0.71 0.086 0.125 
0.224 0.541 0.118 0.165 
0.196 0.416 0.102 0.043 
0.251 0.624 0.086 0.043 
0.11 0.502 0.102 0.043 
0.306 0.584 0.086 0.125 
0.333 0.918 0.067 0.043 
0.196 0.502 0.035 0.043 
0.165 0.667 0.067 0.0 
0.224 0.584 0.086 0.043 
0.055 0.125 0.051 0.082 
0.196 0.624 0.102 0.208 
0.137 0.416 0.067 0.082 
0.082 0.502 0.067 0.043 
0.196 0.541 0.067 0.043 
0.749 0.502 0.627 0.541 
0.722 0.459 0.663 0.584 
0.612 0.333 0.612 0.584 
0.557 0.541 0.627 0.624 
0.639 0.376 0.612 0.498 
0.196 0.0 0.424 0.376 
0.471 0.082 0.51 0.376 
0.361 0.376 0.439 0.498 
0.361 0.416 0.592 0.584 
0.529 0.082 0.592 0.584 
0.443 0.502 0.643 0.459 
0.557 0.208 0.663 0.584 
0.584 0.376 0.561 0.498 
0.694 0.333 0.643 0.541 
0.471 0.376 0.592 0.584 
0.333 0.169 0.475 0.416 
0.416 0.29 0.49 0.459 
0.306 0.416 0.592 0.584 
0.667 0.459 0.627 0.584 
0.361 0.416 0.525 0.498 
0.333 0.251 0.576 0.459 
0.416 0.251 0.51 0.459 
0.361 0.29 0.541 0.498 
0.388 0.376 0.541 0.498 
0.224 0.208 0.337 0.416 
0.584 0.502 0.592 0.584 
0.333 0.125 0.51 0.498 
0.388 0.333 0.592 0.498 
0.165 0.169 0.388 0.376 
0.251 0.29 0.49 0.541 
0.443 0.416 0.541 0.584 
0.498 0.376 0.627 0.541 
0.667 0.459 0.576 0.541 
0.416 0.29 0.525 0.376 
0.361 0.208 0.49 0.416 
0.498 0.333 0.51 0.498 
0.498 0.333 0.627 0.459 
0.639 0.416 0.576 0.541 
0.667 0.416 0.678 0.667 
0.388 0.251 0.424 0.376 
0.333 0.169 0.459 0.376 
0.471 0.29 0.694 0.624 
0.471 0.584 0.592 0.624 
0.557 0.125 0.576 0.498 
0.333 0.208 0.51 0.498 
0.498 0.416 0.612 0.541 
0.196 0.125 0.388 0.376 
0.388 0.416 0.541 0.459 
0.529 0.376 0.561 0.498 
0.388 0.333 0.525 0.498 
0.557 0.541 0.847 1.0 
0.776 0.416 0.831 0.831 
0.612 0.416 0.812 0.875 
0.165 0.208 0.592 0.667 
0.667 0.208 0.812 0.71 
0.612 0.502 0.694 0.792 
0.694 0.416 0.761 0.831 
0.416 0.333 0.694 0.957 
0.612 0.416 0.761 0.71 
0.945 0.251 1.0 0.918 
0.722 0.502 0.796 0.918 
0.945 0.333 0.965 0.792 
0.667 0.541 0.796 0.831 
0.529 0.333 0.643 0.71 
0.584 0.333 0.78 0.831 
0.863 0.333 0.863 0.749 
0.584 0.333 0.78 0.875 
0.498 0.251 0.78 0.541 
0.557 0.584 0.78 0.957 
0.471 0.416 0.643 0.71 
0.667 0.459 0.78 0.957 
0.416 0.29 0.694 0.749 
0.667 0.541 0.796 1.0 
0.557 0.208 0.678 0.749 
0.529 0.584 0.745 0.918 
0.416 0.29 0.694 0.749 
0.557 0.376 0.78 0.71 
0.918 0.416 0.949 0.831 
0.835 0.376 0.898 0.71 
0.804 0.667 0.863 1.0 
0.584 0.29 0.729 0.749 
0.388 0.208 0.678 0.792 
0.584 0.502 0.729 0.918 
0.945 0.749 0.965 0.875 
0.471 0.082 0.678 0.584 
0.361 0.333 0.663 0.792 
0.557 0.29 0.663 0.71 
0.804 0.502 0.847 0.71 
0.498 0.416 0.51 0.71 
0.804 0.416 0.812 0.624 
1.0 0.749 0.914 0.792 
0.557 0.333 0.694 0.584 
0.945 0.416 0.863 0.918 
0.584 0.459 0.761 0.71 
0.722 0.459 0.745 0.831 
0.722 0.459 0.694 0.918 
0.694 0.502 0.831 0.918 
0.667 0.416 0.714 0.918 
0.612 0.416 0.714 0.792 
0.443 0.416 0.694 0.71 
Teaching Patterns
1.0 0.0 0.0 
1.0 0.0 0.0 
1.0 0.0 0.0 
1.0 0.0 0.0 
1.0 0.0 0.0 
1.0 0.0 0.0 
1.0 0.0 0.0 
1.0 0.0 0.0 
1.0 0.0 0.0 
1.0 0.0 0.0 
1.0 0.0 0.0 
1.0 0.0 0.0 
1.0 0.0 0.0 
1.0 0.0 0.0 
1.0 0.0 0.0 
1.0 0.0 0.0 
1.0 0.0 0.0 
1.0 0.0 0.0 
1.0 0.0 0.0 
1.0 0.0 0.0 
1.0 0.0 0.0 
1.0 0.0 0.0 
1.0 0.0 0.0 
1.0 0.0 0.0 
1.0 0.0 0.0 
1.0 0.0 0.0 
1.0 0.0 0.0 
1.0 0.0 0.0 
1.0 0.0 0.0 
1.0 0.0 0.0 
1.0 0.0 0.0 
1.0 0.0 0.0 
1.0 0.0 0.0 
1.0 0.0 0.0 
1.0 0.0 0.0 
1.0 0.0 0.0 
1.0 0.0 0.0 
1.0 0.0 0.0 
1.0 0.0 0.0 
1.0 0.0 0.0 
1.0 0.0 0.0 
1.0 0.0 0.0 
1.0 0.0 0.0 
1.0 0.0 0.0 
1.0 0.0 0.0 
1.0 0.0 0.0 
1.0 0.0 0.0 
1.0 0.0 0.0 
1.0 0.0 0.0 
1.0 0.0 0.0 
0.0 1.0 0.0 
0.0 1.0 0.0 
0.0 1.0 0.0 
0.0 1.0 0.0 
0.0 1.0 0.0 
0.0 1.0 0.0 
0.0 1.0 0.0 
0.0 1.0 0.0 
0.0 1.0 0.0 
0.0 1.0 0.0 
0.0 1.0 0.0 
0.0 1.0 0.0 
0.0 1.0 0.0 
0.0 1.0 0.0 
0.0 1.0 0.0 
0.0 1.0 0.0 
0.0 1.0 0.0 
0.0 1.0 0.0 
0.0 1.0 0.0 
0.0 1.0 0.0 
0.0 1.0 0.0 
0.0 1.0 0.0 
0.0 1.0 0.0 
0.0 1.0 0.0 
0.0 1.0 0.0 
0.0 1.0 0.0 
0.0 1.0 0.0 
0.0 1.0 0.0 
0.0 1.0 0.0 
0.0 1.0 0.0 
0.0 1.0 0.0 
0.0 1.0 0.0 
0.0 1.0 0.0 
0.0 1.0 0.0 
0.0 1.0 0.0 
0.0 1.0 0.0 
0.0 1.0 0.0 
0.0 1.0 0.0 
0.0 1.0 0.0 
0.0 1.0 0.0 
0.0 1.0 0.0 
0.0 1.0 0.0 
0.0 1.0 0.0 
0.0 1.0 0.0 
0.0 1.0 0.0 
0.0 1.0 0.0 
0.0 1.0 0.0 
0.0 1.0 0.0 
0.0 1.0 0.0 
0.0 1.0 0.0 
0.0 0.0 1.0 
0.0 0.0 1.0 
0.0 0.0 1.0 
0.0 0.0 1.0 
0.0 0.0 1.0 
0.0 0.0 1.0 
0.0 0.0 1.0 
0.0 0.0 1.0 
0.0 0.0 1.0 
0.0 0.0 1.0 
0.0 0.0 1.0 
0.0 0.0 1.0 
0.0 0.0 1.0 
0.0 0.0 1.0 
0.0 0.0 1.0 
0.0 0.0 1.0 
0.0 0.0 1.0 
0.0 0.0 1.0 
0.0 0.0 1.0 
0.0 0.0 1.0 
0.0 0.0 1.0 
0.0 0.0 1.0 
0.0 0.0 1.0 
0.0 0.0 1.0 
0.0 0.0 1.0 
0.0 0.0 1.0 
0.0 0.0 1.0 
0.0 0.0 1.0 
0.0 0.0 1.0 
0.0 0.0 1.0 
0.0 0.0 1.0 
0.0 0.0 1.0 
0.0 0.0 1.0 
0.0 0.0 1.0 
0.0 0.0 1.0 
0.0 0.0 1.0 
0.0 0.0 1.0 
0.0 0.0 1.0 
0.0 0.0 1.0 
0.0 0.0 1.0 
0.0 0.0 1.0 
0.0 0.0 1.0 
0.0 0.0 1.0 
0.0 0.0 1.0 
0.0 0.0 1.0 
0.0 0.0 1.0 
0.0 0.0 1.0 
0.0 0.0 1.0 
0.0 0.0 1.0 
0.0 0.0 1.0 
Learning : 0.05
Momentum : 0.699999988079071
Epoch: 100, Error: 0.03392048223677451
Epoch: 200, Error: 0.019287689223805568
Epoch: 300, Error: 0.016690279334268844
Epoch: 400, Error: 0.015960135322110342
Epoch: 500, Error: 0.015006379477440256
Epoch: 600, Error: 0.014485708444473762
Epoch: 700, Error: 0.014285730306340297
Epoch: 800, Error: 0.013951623062966267
Epoch: 900, Error: 0.01377894613801993
Epoch: 1000, Error: 0.013818800779925674
Epoch: 1100, Error: 0.014082202880288544
Epoch: 1200, Error: 0.013270020567187074
Epoch: 1300, Error: 0.013217690519034713
Epoch: 1400, Error: 0.013130584103463445
Epoch: 1500, Error: 0.012969828459830376
Epoch: 1600, Error: 0.012846673653702846
Epoch: 1700, Error: 0.012811586246614682
Epoch: 1800, Error: 0.012733826944956303
Epoch: 1900, Error: 0.012631088398807245
Epoch: 2000, Error: 0.012510175845859268
Epoch: 2100, Error: 0.012513369932817387
Epoch: 2200, Error: 0.012449357228798459
Epoch: 2300, Error: 0.01237476371035298
Epoch: 2400, Error: 0.01258110591504145
Epoch: 2500, Error: 0.012293478722125977
Epoch: 2600, Error: 0.012299309677929554
Epoch: 2700, Error: 0.012254148034510961
Epoch: 2800, Error: 0.012321025485585287
Epoch: 2900, Error: 0.012306309965990747
Epoch: 3000, Error: 0.012187426480007526
Epoch: 3100, Error: 0.012195029306179548
Epoch: 3200, Error: 0.0121641205731918
Epoch: 3300, Error: 0.012120841334932173
Epoch: 3400, Error: 0.012145121735798679
Epoch: 3500, Error: 0.012156586789900701
Epoch: 3600, Error: 0.012175150176724712
Epoch: 3700, Error: 0.012137183576352238
Epoch: 3800, Error: 0.012117750427663436
Epoch: 3900, Error: 0.012114381893903459
Epoch: 4000, Error: 0.012139707103108462
Epoch: 4100, Error: 0.012252275741848903
Epoch: 4200, Error: 0.012144414549165776
Epoch: 4300, Error: 0.012126315164511499
Epoch: 4400, Error: 0.012106391947045702
Epoch: 4500, Error: 0.012103311554826836
Epoch: 4600, Error: 0.012109486344554672
Epoch: 4700, Error: 0.012104704036422448
Epoch: 4800, Error: 0.012113982629200961
Epoch: 4900, Error: 0.0121113521910722
Epoch: 5000, Error: 0.012110943042999683
Epoch: 5100, Error: 0.012060234376213739
Epoch: 5200, Error: 0.012059455367981496
Epoch: 5300, Error: 0.012110353450964015
Epoch: 5400, Error: 0.012068527183839422
Epoch: 5500, Error: 0.012062061259327251
Epoch: 5600, Error: 0.012111518879707397
Epoch: 5700, Error: 0.012078017451692279
Epoch: 5800, Error: 0.012105426146329267
Epoch: 5900, Error: 0.012040229679060271
Epoch: 6000, Error: 0.012015460775396683
Epoch: 6100, Error: 0.012082515458367166
Epoch: 6200, Error: 0.012012157000112234
Epoch: 6300, Error: 0.012012983042513053
Epoch: 6400, Error: 0.012021704215123887
Epoch: 6500, Error: 0.012017478164955046
Epoch: 6600, Error: 0.011973485290714805
Epoch: 6700, Error: 0.011962613057679448
Epoch: 6800, Error: 0.0119585757253303
Epoch: 6900, Error: 0.011925189991364242
Epoch: 7000, Error: 0.011916100848685615
Epoch: 7100, Error: 0.011891016517322597
Epoch: 7200, Error: 0.011890964041842823
Epoch: 7300, Error: 0.011862627344956158
Epoch: 7400, Error: 0.011878554745603249
Epoch: 7500, Error: 0.011844179353726675
Epoch: 7600, Error: 0.01181682268438892
Epoch: 7700, Error: 0.011809281351933706
Epoch: 7800, Error: 0.011784803144996699
Epoch: 7900, Error: 0.01177354017268115
Epoch: 8000, Error: 0.011746091880997515
Epoch: 8100, Error: 0.011751918266787072
Epoch: 8200, Error: 0.011758442362204675
Epoch: 8300, Error: 0.01173162745599999
Epoch: 8400, Error: 0.011708472658501836
Epoch: 8500, Error: 0.011640630506339665
Epoch: 8600, Error: 0.011656321837338841
Epoch: 8700, Error: 0.011595635056112781
Epoch: 8800, Error: 0.011572865817148234
Epoch: 8900, Error: 0.011556948914879727
Epoch: 9000, Error: 0.011535083769204837
Epoch: 9100, Error: 0.011498541338670858
Epoch: 9200, Error: 0.011525709831708997
Epoch: 9300, Error: 0.011437343314408354
Epoch: 9400, Error: 0.011401343458536412
Epoch: 9500, Error: 0.011361095170289295
Epoch: 9600, Error: 0.01133053766017058
Epoch: 9700, Error: 0.011317267943282706
Epoch: 9800, Error: 0.011252981162852204
Epoch: 9900, Error: 0.011234517954911621
Epoch: 10000, Error: 0.011184669101730963
Epoch: 10100, Error: 0.0111938974460307
Epoch: 10200, Error: 0.011108709710604387
Epoch: 10300, Error: 0.011027240772042674
Epoch: 10400, Error: 0.01097196565997575
Epoch: 10500, Error: 0.01092631839297263
Epoch: 10600, Error: 0.01084655595516421
Epoch: 10700, Error: 0.010798041305633627
Epoch: 10800, Error: 0.010752313295149836
Epoch: 10900, Error: 0.01071696078299384
Epoch: 11000, Error: 0.01059652850027324
Epoch: 11100, Error: 0.010561367215557633
Epoch: 11200, Error: 0.010446239901301873
Epoch: 11300, Error: 0.010396200072082142
Epoch: 11400, Error: 0.010287890854982247
Epoch: 11500, Error: 0.010203699061562928
Epoch: 11600, Error: 0.010106403161999893
Epoch: 11700, Error: 0.00998071825614437
Epoch: 11800, Error: 0.00988598970898679
Epoch: 11900, Error: 0.009795676937759797
Epoch: 12000, Error: 0.009687568406200525
Epoch: 12100, Error: 0.009602786633207898
Epoch: 12200, Error: 0.009440779863352402
Epoch: 12300, Error: 0.009339545299557645
Epoch: 12400, Error: 0.009259590278682978
Epoch: 12500, Error: 0.009135665714188073
Epoch: 12600, Error: 0.008989612694075907
Epoch: 12700, Error: 0.008866046840123768
Epoch: 12800, Error: 0.008738604855907306
Epoch: 12900, Error: 0.008627033679132532
Epoch: 13000, Error: 0.008532514717000107
Epoch: 13100, Error: 0.008401738382837228
Epoch: 13200, Error: 0.008298499542137903
Epoch: 13300, Error: 0.008176667140405405
Epoch: 13400, Error: 0.008071755982925328
Epoch: 13500, Error: 0.00795411994676887
Epoch: 13600, Error: 0.00785955182478871
Epoch: 13700, Error: 0.007776210331116119
Epoch: 13800, Error: 0.007671149326824552
Epoch: 13900, Error: 0.0075552823376569935
Epoch: 14000, Error: 0.007487862779085235
Epoch: 14100, Error: 0.007400983138085221
Epoch: 14200, Error: 0.007307413709599711
Epoch: 14300, Error: 0.007234358717963008
Epoch: 14400, Error: 0.0071446653579623305
Epoch: 14500, Error: 0.0070676734484677595
Epoch: 14600, Error: 0.00699011274232862
Epoch: 14700, Error: 0.006916639023438995
Epoch: 14800, Error: 0.006852881806052616
Epoch: 14900, Error: 0.0067935684632460394
Epoch: 15000, Error: 0.006704485817696812
Epoch: 15100, Error: 0.006637522242088275
Epoch: 15200, Error: 0.006579249585565751
Epoch: 15300, Error: 0.00651655228296054
Epoch: 15400, Error: 0.006513699518510052
Epoch: 15500, Error: 0.0064230596956437805
Epoch: 15600, Error: 0.006378457481343273
Epoch: 15700, Error: 0.006333746478416128
Epoch: 15800, Error: 0.006301754840195299
Epoch: 15900, Error: 0.006272502074264844
Epoch: 16000, Error: 0.006246472969307297
Epoch: 16100, Error: 0.006218067601691787
Epoch: 16200, Error: 0.0062069616137670576
Epoch: 16300, Error: 0.006192895372260891
Epoch: 16400, Error: 0.006158392802458767
Epoch: 16500, Error: 0.006133622667380292
Epoch: 16600, Error: 0.006127638793332047
Epoch: 16700, Error: 0.006096171342111545
Epoch: 16800, Error: 0.006087874848807565
Epoch: 16900, Error: 0.006070838004763113
Epoch: 17000, Error: 0.006127054321279423
Epoch: 17100, Error: 0.006047746839531185
Epoch: 17200, Error: 0.006041674756590453
Epoch: 17300, Error: 0.0059998685255292835
Epoch: 17400, Error: 0.005989117487060451
Epoch: 17500, Error: 0.005967617086875227
Epoch: 17600, Error: 0.005953164869719296
Epoch: 17700, Error: 0.005942887422469709
Epoch: 17800, Error: 0.005950039952359732
Epoch: 17900, Error: 0.0059175942337877955
Epoch: 18000, Error: 0.005940228637504247
Epoch: 18100, Error: 0.005881433022744909
Epoch: 18200, Error: 0.005865759420827833
Epoch: 18300, Error: 0.005894025591885008
Epoch: 18400, Error: 0.005864527741945664
Epoch: 18500, Error: 0.00586136753187292
Epoch: 18600, Error: 0.005867361771623027
Epoch: 18700, Error: 0.005875398092473511
Epoch: 18800, Error: 0.005850005613898899
Epoch: 18900, Error: 0.005842617353967399
Epoch: 19000, Error: 0.00584208724849984
Epoch: 19100, Error: 0.0058296750950397585
Finished
