Input Patterns
0.224 0.624 0.067 0.043 
0.11 0.502 0.051 0.043 
0.196 0.667 0.067 0.043 
0.055 0.584 0.067 0.082 
0.027 0.376 0.067 0.043 
0.306 0.71 0.086 0.043 
0.137 0.416 0.067 0.0 
0.416 0.831 0.035 0.043 
0.306 0.792 0.051 0.125 
0.388 0.749 0.118 0.082 
0.306 0.584 0.118 0.043 
0.082 0.667 0.0 0.043 
0.137 0.584 0.153 0.043 
0.196 0.584 0.102 0.125 
0.251 0.584 0.067 0.043 
0.137 0.459 0.102 0.043 
0.251 0.875 0.086 0.0 
0.165 0.459 0.086 0.043 
0.333 0.624 0.051 0.043 
0.027 0.416 0.051 0.043 
0.196 0.624 0.051 0.082 
0.027 0.502 0.051 0.043 
0.224 0.749 0.153 0.125 
0.224 0.749 0.102 0.043 
0.278 0.71 0.086 0.043 
0.165 0.416 0.067 0.043 
0.082 0.459 0.086 0.043 
0.306 0.792 0.118 0.125 
0.196 0.584 0.086 0.043 
0.165 0.459 0.086 0.0 
0.137 0.584 0.102 0.043 
0.0 0.416 0.016 0.0 
0.388 1.0 0.086 0.125 
0.224 0.624 0.067 0.082 
0.224 0.749 0.086 0.082 
0.224 0.71 0.086 0.125 
0.224 0.541 0.118 0.165 
0.196 0.416 0.102 0.043 
0.251 0.624 0.086 0.043 
0.11 0.502 0.102 0.043 
0.306 0.584 0.086 0.125 
0.333 0.918 0.067 0.043 
0.196 0.502 0.035 0.043 
0.165 0.667 0.067 0.0 
0.224 0.584 0.086 0.043 
0.055 0.125 0.051 0.082 
0.196 0.624 0.102 0.208 
0.137 0.416 0.067 0.082 
0.082 0.502 0.067 0.043 
0.196 0.541 0.067 0.043 
0.749 0.502 0.627 0.541 
0.722 0.459 0.663 0.584 
0.612 0.333 0.612 0.584 
0.557 0.541 0.627 0.624 
0.639 0.376 0.612 0.498 
0.196 0.0 0.424 0.376 
0.471 0.082 0.51 0.376 
0.361 0.376 0.439 0.498 
0.361 0.416 0.592 0.584 
0.529 0.082 0.592 0.584 
0.443 0.502 0.643 0.459 
0.557 0.208 0.663 0.584 
0.584 0.376 0.561 0.498 
0.694 0.333 0.643 0.541 
0.471 0.376 0.592 0.584 
0.333 0.169 0.475 0.416 
0.416 0.29 0.49 0.459 
0.306 0.416 0.592 0.584 
0.667 0.459 0.627 0.584 
0.361 0.416 0.525 0.498 
0.333 0.251 0.576 0.459 
0.416 0.251 0.51 0.459 
0.361 0.29 0.541 0.498 
0.388 0.376 0.541 0.498 
0.224 0.208 0.337 0.416 
0.584 0.502 0.592 0.584 
0.333 0.125 0.51 0.498 
0.388 0.333 0.592 0.498 
0.165 0.169 0.388 0.376 
0.251 0.29 0.49 0.541 
0.443 0.416 0.541 0.584 
0.498 0.376 0.627 0.541 
0.667 0.459 0.576 0.541 
0.416 0.29 0.525 0.376 
0.361 0.208 0.49 0.416 
0.498 0.333 0.51 0.498 
0.498 0.333 0.627 0.459 
0.639 0.416 0.576 0.541 
0.667 0.416 0.678 0.667 
0.388 0.251 0.424 0.376 
0.333 0.169 0.459 0.376 
0.471 0.29 0.694 0.624 
0.471 0.584 0.592 0.624 
0.557 0.125 0.576 0.498 
0.333 0.208 0.51 0.498 
0.498 0.416 0.612 0.541 
0.196 0.125 0.388 0.376 
0.388 0.416 0.541 0.459 
0.529 0.376 0.561 0.498 
0.388 0.333 0.525 0.498 
0.557 0.541 0.847 1.0 
0.776 0.416 0.831 0.831 
0.612 0.416 0.812 0.875 
0.165 0.208 0.592 0.667 
0.667 0.208 0.812 0.71 
0.612 0.502 0.694 0.792 
0.694 0.416 0.761 0.831 
0.416 0.333 0.694 0.957 
0.612 0.416 0.761 0.71 
0.945 0.251 1.0 0.918 
0.722 0.502 0.796 0.918 
0.945 0.333 0.965 0.792 
0.667 0.541 0.796 0.831 
0.529 0.333 0.643 0.71 
0.584 0.333 0.78 0.831 
0.863 0.333 0.863 0.749 
0.584 0.333 0.78 0.875 
0.498 0.251 0.78 0.541 
0.557 0.584 0.78 0.957 
0.471 0.416 0.643 0.71 
0.667 0.459 0.78 0.957 
0.416 0.29 0.694 0.749 
0.667 0.541 0.796 1.0 
0.557 0.208 0.678 0.749 
0.529 0.584 0.745 0.918 
0.416 0.29 0.694 0.749 
0.557 0.376 0.78 0.71 
0.918 0.416 0.949 0.831 
0.835 0.376 0.898 0.71 
0.804 0.667 0.863 1.0 
0.584 0.29 0.729 0.749 
0.388 0.208 0.678 0.792 
0.584 0.502 0.729 0.918 
0.945 0.749 0.965 0.875 
0.471 0.082 0.678 0.584 
0.361 0.333 0.663 0.792 
0.557 0.29 0.663 0.71 
0.804 0.502 0.847 0.71 
0.498 0.416 0.51 0.71 
0.804 0.416 0.812 0.624 
1.0 0.749 0.914 0.792 
0.557 0.333 0.694 0.584 
0.945 0.416 0.863 0.918 
0.584 0.459 0.761 0.71 
0.722 0.459 0.745 0.831 
0.722 0.459 0.694 0.918 
0.694 0.502 0.831 0.918 
0.667 0.416 0.714 0.918 
0.612 0.416 0.714 0.792 
0.443 0.416 0.694 0.71 
Teaching Patterns
1.0 0.0 0.0 
1.0 0.0 0.0 
1.0 0.0 0.0 
1.0 0.0 0.0 
1.0 0.0 0.0 
1.0 0.0 0.0 
1.0 0.0 0.0 
1.0 0.0 0.0 
1.0 0.0 0.0 
1.0 0.0 0.0 
1.0 0.0 0.0 
1.0 0.0 0.0 
1.0 0.0 0.0 
1.0 0.0 0.0 
1.0 0.0 0.0 
1.0 0.0 0.0 
1.0 0.0 0.0 
1.0 0.0 0.0 
1.0 0.0 0.0 
1.0 0.0 0.0 
1.0 0.0 0.0 
1.0 0.0 0.0 
1.0 0.0 0.0 
1.0 0.0 0.0 
1.0 0.0 0.0 
1.0 0.0 0.0 
1.0 0.0 0.0 
1.0 0.0 0.0 
1.0 0.0 0.0 
1.0 0.0 0.0 
1.0 0.0 0.0 
1.0 0.0 0.0 
1.0 0.0 0.0 
1.0 0.0 0.0 
1.0 0.0 0.0 
1.0 0.0 0.0 
1.0 0.0 0.0 
1.0 0.0 0.0 
1.0 0.0 0.0 
1.0 0.0 0.0 
1.0 0.0 0.0 
1.0 0.0 0.0 
1.0 0.0 0.0 
1.0 0.0 0.0 
1.0 0.0 0.0 
1.0 0.0 0.0 
1.0 0.0 0.0 
1.0 0.0 0.0 
1.0 0.0 0.0 
1.0 0.0 0.0 
0.0 1.0 0.0 
0.0 1.0 0.0 
0.0 1.0 0.0 
0.0 1.0 0.0 
0.0 1.0 0.0 
0.0 1.0 0.0 
0.0 1.0 0.0 
0.0 1.0 0.0 
0.0 1.0 0.0 
0.0 1.0 0.0 
0.0 1.0 0.0 
0.0 1.0 0.0 
0.0 1.0 0.0 
0.0 1.0 0.0 
0.0 1.0 0.0 
0.0 1.0 0.0 
0.0 1.0 0.0 
0.0 1.0 0.0 
0.0 1.0 0.0 
0.0 1.0 0.0 
0.0 1.0 0.0 
0.0 1.0 0.0 
0.0 1.0 0.0 
0.0 1.0 0.0 
0.0 1.0 0.0 
0.0 1.0 0.0 
0.0 1.0 0.0 
0.0 1.0 0.0 
0.0 1.0 0.0 
0.0 1.0 0.0 
0.0 1.0 0.0 
0.0 1.0 0.0 
0.0 1.0 0.0 
0.0 1.0 0.0 
0.0 1.0 0.0 
0.0 1.0 0.0 
0.0 1.0 0.0 
0.0 1.0 0.0 
0.0 1.0 0.0 
0.0 1.0 0.0 
0.0 1.0 0.0 
0.0 1.0 0.0 
0.0 1.0 0.0 
0.0 1.0 0.0 
0.0 1.0 0.0 
0.0 1.0 0.0 
0.0 1.0 0.0 
0.0 1.0 0.0 
0.0 1.0 0.0 
0.0 1.0 0.0 
0.0 0.0 1.0 
0.0 0.0 1.0 
0.0 0.0 1.0 
0.0 0.0 1.0 
0.0 0.0 1.0 
0.0 0.0 1.0 
0.0 0.0 1.0 
0.0 0.0 1.0 
0.0 0.0 1.0 
0.0 0.0 1.0 
0.0 0.0 1.0 
0.0 0.0 1.0 
0.0 0.0 1.0 
0.0 0.0 1.0 
0.0 0.0 1.0 
0.0 0.0 1.0 
0.0 0.0 1.0 
0.0 0.0 1.0 
0.0 0.0 1.0 
0.0 0.0 1.0 
0.0 0.0 1.0 
0.0 0.0 1.0 
0.0 0.0 1.0 
0.0 0.0 1.0 
0.0 0.0 1.0 
0.0 0.0 1.0 
0.0 0.0 1.0 
0.0 0.0 1.0 
0.0 0.0 1.0 
0.0 0.0 1.0 
0.0 0.0 1.0 
0.0 0.0 1.0 
0.0 0.0 1.0 
0.0 0.0 1.0 
0.0 0.0 1.0 
0.0 0.0 1.0 
0.0 0.0 1.0 
0.0 0.0 1.0 
0.0 0.0 1.0 
0.0 0.0 1.0 
0.0 0.0 1.0 
0.0 0.0 1.0 
0.0 0.0 1.0 
0.0 0.0 1.0 
0.0 0.0 1.0 
0.0 0.0 1.0 
0.0 0.0 1.0 
0.0 0.0 1.0 
0.0 0.0 1.0 
0.0 0.0 1.0 
Learning : 0.05
Momentum : 0.699999988079071
Epoch: 100, Error: 0.028811242094083492
Epoch: 200, Error: 0.018482706203929868
Epoch: 300, Error: 0.016125443253072667
Epoch: 400, Error: 0.015071986570647292
Epoch: 500, Error: 0.01449355628802726
Epoch: 600, Error: 0.014195609236853696
Epoch: 700, Error: 0.013674821489751405
Epoch: 800, Error: 0.013270139462461137
Epoch: 900, Error: 0.013168418335050435
Epoch: 1000, Error: 0.013037257254333617
Epoch: 1100, Error: 0.012817081141532459
Epoch: 1200, Error: 0.012733040163058755
Epoch: 1300, Error: 0.012897751165394393
Epoch: 1400, Error: 0.012660610881303396
Epoch: 1500, Error: 0.012601718043491129
Epoch: 1600, Error: 0.012611190132136473
Epoch: 1700, Error: 0.012527007332880678
Epoch: 1800, Error: 0.01249259609362085
Epoch: 1900, Error: 0.012419574951154613
Epoch: 2000, Error: 0.0124114368858855
Epoch: 2100, Error: 0.012439464282942623
Epoch: 2200, Error: 0.012325490294513762
Epoch: 2300, Error: 0.01235294342758289
Epoch: 2400, Error: 0.012419231048346854
Epoch: 2500, Error: 0.012241189298273957
Epoch: 2600, Error: 0.012301419063606996
Epoch: 2700, Error: 0.012272102168464829
Epoch: 2800, Error: 0.012237945552485906
Epoch: 2900, Error: 0.012196664129233679
Epoch: 3000, Error: 0.01218117391757259
Epoch: 3100, Error: 0.012233990614866073
Epoch: 3200, Error: 0.012186599621008324
Epoch: 3300, Error: 0.01214498495431427
Epoch: 3400, Error: 0.012164668255037618
Epoch: 3500, Error: 0.012184981336668855
Epoch: 3600, Error: 0.01225766103629528
Epoch: 3700, Error: 0.012141429912135888
Epoch: 3800, Error: 0.012069725142765768
Epoch: 3900, Error: 0.012067113379098307
Epoch: 4000, Error: 0.011998617373117386
Epoch: 4100, Error: 0.012034034417278945
Epoch: 4200, Error: 0.012011580379091497
Epoch: 4300, Error: 0.012028853209752407
Epoch: 4400, Error: 0.012048836419993929
Epoch: 4500, Error: 0.012060387888675719
Epoch: 4600, Error: 0.012008018003869136
Epoch: 4700, Error: 0.01206191135220092
Epoch: 4800, Error: 0.011933174111554694
Epoch: 4900, Error: 0.011926913875732623
Epoch: 5000, Error: 0.012104552184710262
Epoch: 5100, Error: 0.011921532356665302
Epoch: 5200, Error: 0.01189693169160429
Epoch: 5300, Error: 0.011932596589636038
Epoch: 5400, Error: 0.011888133220134052
Epoch: 5500, Error: 0.011943154652975954
Epoch: 5600, Error: 0.011877792433471406
Epoch: 5700, Error: 0.01184238396998827
Epoch: 5800, Error: 0.01183698900406758
Epoch: 5900, Error: 0.011857870606206921
Epoch: 6000, Error: 0.011799499736800067
Epoch: 6100, Error: 0.011790471991705184
Epoch: 6200, Error: 0.011823754542951401
Epoch: 6300, Error: 0.011801507721505088
Epoch: 6400, Error: 0.011792189712107692
Epoch: 6500, Error: 0.011777815692639549
Epoch: 6600, Error: 0.011753081539218595
Epoch: 6700, Error: 0.011741669974114409
Epoch: 6800, Error: 0.011849735620271562
Epoch: 6900, Error: 0.01169424756249187
Epoch: 7000, Error: 0.011735022436420857
Epoch: 7100, Error: 0.011671661143973286
Epoch: 7200, Error: 0.01176647129866585
Epoch: 7300, Error: 0.011643931697482785
Epoch: 7400, Error: 0.011625429858966738
Epoch: 7500, Error: 0.011656244845537938
Epoch: 7600, Error: 0.011601724399147355
Epoch: 7700, Error: 0.011624282042608779
Epoch: 7800, Error: 0.011544970792247112
Epoch: 7900, Error: 0.011532360280687902
Epoch: 8000, Error: 0.011522826581683526
Epoch: 8100, Error: 0.011484239805979133
Epoch: 8200, Error: 0.011488533266991912
Epoch: 8300, Error: 0.01147305882160721
Epoch: 8400, Error: 0.011457539502203674
Epoch: 8500, Error: 0.011418414020267713
Epoch: 8600, Error: 0.011433463248178887
Epoch: 8700, Error: 0.011342809995810263
Epoch: 8800, Error: 0.011351981816351291
Epoch: 8900, Error: 0.011305654393535047
Epoch: 9000, Error: 0.011334581494857636
Epoch: 9100, Error: 0.011218867399059062
Epoch: 9200, Error: 0.011185665483188998
Epoch: 9300, Error: 0.011130019048213084
Epoch: 9400, Error: 0.011210142560381487
Epoch: 9500, Error: 0.011054215080941279
Epoch: 9600, Error: 0.010965632184386925
Epoch: 9700, Error: 0.01094970024325463
Epoch: 9800, Error: 0.010869949735173664
Epoch: 9900, Error: 0.010796420261353941
Epoch: 10000, Error: 0.010740749945162227
Epoch: 10100, Error: 0.010676410909089436
Epoch: 10200, Error: 0.010637884978600272
Epoch: 10300, Error: 0.010574571995606371
Epoch: 10400, Error: 0.01048828202020019
Epoch: 10500, Error: 0.010381177486229626
Epoch: 10600, Error: 0.010289823750560404
Epoch: 10700, Error: 0.010194084250607518
Epoch: 10800, Error: 0.010101587395504793
Epoch: 10900, Error: 0.010078393667453287
Epoch: 11000, Error: 0.009892573769573181
Epoch: 11100, Error: 0.009813683615062678
Epoch: 11200, Error: 0.009701525225711492
Epoch: 11300, Error: 0.009591441046146228
Epoch: 11400, Error: 0.00950034534308348
Epoch: 11500, Error: 0.009503812304577353
Epoch: 11600, Error: 0.009293992632000222
Epoch: 11700, Error: 0.009180842835456723
Epoch: 11800, Error: 0.009065402368957844
Epoch: 11900, Error: 0.008971115701389325
Epoch: 12000, Error: 0.00889340446501957
Epoch: 12100, Error: 0.008763576710309444
Epoch: 12200, Error: 0.008684136326990891
Epoch: 12300, Error: 0.008622031592418429
Epoch: 12400, Error: 0.00849855003251747
Epoch: 12500, Error: 0.008436917293611054
Epoch: 12600, Error: 0.008350282234356944
Epoch: 12700, Error: 0.00824636342883465
Epoch: 12800, Error: 0.008182174683278975
Epoch: 12900, Error: 0.008094630917976057
Epoch: 13000, Error: 0.008023081464887769
Epoch: 13100, Error: 0.007959211479511223
Epoch: 13200, Error: 0.00797449350766705
Epoch: 13300, Error: 0.0077980024389663425
Epoch: 13400, Error: 0.007689983220778862
Epoch: 13500, Error: 0.00763135946108625
Epoch: 13600, Error: 0.0075777620465693075
Epoch: 13700, Error: 0.007558784181292964
Epoch: 13800, Error: 0.007483468610599044
Epoch: 13900, Error: 0.00743844678415054
Epoch: 14000, Error: 0.007383789703291731
Epoch: 14100, Error: 0.007337931777538519
Epoch: 14200, Error: 0.00731295554130143
Epoch: 14300, Error: 0.007244931299935188
Epoch: 14400, Error: 0.00716594619854773
Epoch: 14500, Error: 0.0071392739148233905
Epoch: 14600, Error: 0.007098601522495169
Epoch: 14700, Error: 0.007055105625449897
Epoch: 14800, Error: 0.007016850612921954
Epoch: 14900, Error: 0.006973909999182865
Epoch: 15000, Error: 0.006935436085111275
Epoch: 15100, Error: 0.006879411100286801
Epoch: 15200, Error: 0.0068484492671847955
Epoch: 15300, Error: 0.006815612364547421
Epoch: 15400, Error: 0.006813564020328097
Epoch: 15500, Error: 0.006737603473590325
Epoch: 15600, Error: 0.006703300234691212
Epoch: 15700, Error: 0.006702375454996782
Epoch: 15800, Error: 0.006640579404788143
Epoch: 15900, Error: 0.0066053238906862224
Epoch: 16000, Error: 0.006587382819850009
Epoch: 16100, Error: 0.006558166547054906
Epoch: 16200, Error: 0.006534301052675208
Epoch: 16300, Error: 0.006497979603799757
Epoch: 16400, Error: 0.006482253396111824
Epoch: 16500, Error: 0.006483835567992889
Epoch: 16600, Error: 0.006469166977849302
Epoch: 16700, Error: 0.006426566350392413
Epoch: 16800, Error: 0.0063793977377518
Epoch: 16900, Error: 0.006371414051827304
Epoch: 17000, Error: 0.00633053027830563
Epoch: 17100, Error: 0.006319011171234176
Epoch: 17200, Error: 0.006288693439197041
Epoch: 17300, Error: 0.006283317965718716
Epoch: 17400, Error: 0.006253284532979469
Epoch: 17500, Error: 0.006240976728353698
Epoch: 17600, Error: 0.006208702835787453
Epoch: 17700, Error: 0.006199352745953737
Epoch: 17800, Error: 0.00619585699219359
Epoch: 17900, Error: 0.006162608360492237
Epoch: 18000, Error: 0.0061684952099305326
Epoch: 18100, Error: 0.006122411077450413
Epoch: 18200, Error: 0.006097968102153176
Epoch: 18300, Error: 0.006096229062821259
Epoch: 18400, Error: 0.0060781975100219635
Epoch: 18500, Error: 0.006076215969565797
Epoch: 18600, Error: 0.006050753656817788
Epoch: 18700, Error: 0.006046529909942717
Epoch: 18800, Error: 0.006041089133069656
Epoch: 18900, Error: 0.006014141352967479
Epoch: 19000, Error: 0.00599649315067572
Epoch: 19100, Error: 0.0059946837278450175
Epoch: 19200, Error: 0.005984831149804287
Epoch: 19300, Error: 0.005977406517124313
Epoch: 19400, Error: 0.005949843785931206
Epoch: 19500, Error: 0.0059403627429431725
Epoch: 19600, Error: 0.0059807044736473886
Epoch: 19700, Error: 0.00594063081076445
Epoch: 19800, Error: 0.005932526256321614
Epoch: 19900, Error: 0.0059327862196549615
Epoch: 20000, Error: 0.006050482966232058
Epoch: 20100, Error: 0.005940830621136331
Epoch: 20200, Error: 0.005946469538243919
Epoch: 20300, Error: 0.0059280618624672115
Epoch: 20400, Error: 0.005925962234799077
Epoch: 20500, Error: 0.005951734379019841
Epoch: 20600, Error: 0.005960301058064986
Epoch: 20700, Error: 0.00594142407651478
Epoch: 20800, Error: 0.005938770169080881
Epoch: 20900, Error: 0.00592041562864725
Epoch: 21000, Error: 0.005918596956613051
Finished
