Input Patterns
0.224 0.624 0.067 0.043 
0.11 0.502 0.051 0.043 
0.196 0.667 0.067 0.043 
0.055 0.584 0.067 0.082 
0.027 0.376 0.067 0.043 
0.306 0.71 0.086 0.043 
0.137 0.416 0.067 0.0 
0.416 0.831 0.035 0.043 
0.306 0.792 0.051 0.125 
0.388 0.749 0.118 0.082 
0.306 0.584 0.118 0.043 
0.082 0.667 0.0 0.043 
0.137 0.584 0.153 0.043 
0.196 0.584 0.102 0.125 
0.251 0.584 0.067 0.043 
0.137 0.459 0.102 0.043 
0.251 0.875 0.086 0.0 
0.165 0.459 0.086 0.043 
0.333 0.624 0.051 0.043 
0.027 0.416 0.051 0.043 
0.196 0.624 0.051 0.082 
0.027 0.502 0.051 0.043 
0.224 0.749 0.153 0.125 
0.224 0.749 0.102 0.043 
0.278 0.71 0.086 0.043 
0.165 0.416 0.067 0.043 
0.082 0.459 0.086 0.043 
0.306 0.792 0.118 0.125 
0.196 0.584 0.086 0.043 
0.165 0.459 0.086 0.0 
0.137 0.584 0.102 0.043 
0.0 0.416 0.016 0.0 
0.388 1.0 0.086 0.125 
0.224 0.624 0.067 0.082 
0.224 0.749 0.086 0.082 
0.224 0.71 0.086 0.125 
0.224 0.541 0.118 0.165 
0.196 0.416 0.102 0.043 
0.251 0.624 0.086 0.043 
0.11 0.502 0.102 0.043 
0.306 0.584 0.086 0.125 
0.333 0.918 0.067 0.043 
0.196 0.502 0.035 0.043 
0.165 0.667 0.067 0.0 
0.224 0.584 0.086 0.043 
0.055 0.125 0.051 0.082 
0.196 0.624 0.102 0.208 
0.137 0.416 0.067 0.082 
0.082 0.502 0.067 0.043 
0.196 0.541 0.067 0.043 
0.749 0.502 0.627 0.541 
0.722 0.459 0.663 0.584 
0.612 0.333 0.612 0.584 
0.557 0.541 0.627 0.624 
0.639 0.376 0.612 0.498 
0.196 0.0 0.424 0.376 
0.471 0.082 0.51 0.376 
0.361 0.376 0.439 0.498 
0.361 0.416 0.592 0.584 
0.529 0.082 0.592 0.584 
0.443 0.502 0.643 0.459 
0.557 0.208 0.663 0.584 
0.584 0.376 0.561 0.498 
0.694 0.333 0.643 0.541 
0.471 0.376 0.592 0.584 
0.333 0.169 0.475 0.416 
0.416 0.29 0.49 0.459 
0.306 0.416 0.592 0.584 
0.667 0.459 0.627 0.584 
0.361 0.416 0.525 0.498 
0.333 0.251 0.576 0.459 
0.416 0.251 0.51 0.459 
0.361 0.29 0.541 0.498 
0.388 0.376 0.541 0.498 
0.224 0.208 0.337 0.416 
0.584 0.502 0.592 0.584 
0.333 0.125 0.51 0.498 
0.388 0.333 0.592 0.498 
0.165 0.169 0.388 0.376 
0.251 0.29 0.49 0.541 
0.443 0.416 0.541 0.584 
0.498 0.376 0.627 0.541 
0.667 0.459 0.576 0.541 
0.416 0.29 0.525 0.376 
0.361 0.208 0.49 0.416 
0.498 0.333 0.51 0.498 
0.498 0.333 0.627 0.459 
0.639 0.416 0.576 0.541 
0.667 0.416 0.678 0.667 
0.388 0.251 0.424 0.376 
0.333 0.169 0.459 0.376 
0.471 0.29 0.694 0.624 
0.471 0.584 0.592 0.624 
0.557 0.125 0.576 0.498 
0.333 0.208 0.51 0.498 
0.498 0.416 0.612 0.541 
0.196 0.125 0.388 0.376 
0.388 0.416 0.541 0.459 
0.529 0.376 0.561 0.498 
0.388 0.333 0.525 0.498 
0.557 0.541 0.847 1.0 
0.776 0.416 0.831 0.831 
0.612 0.416 0.812 0.875 
0.165 0.208 0.592 0.667 
0.667 0.208 0.812 0.71 
0.612 0.502 0.694 0.792 
0.694 0.416 0.761 0.831 
0.416 0.333 0.694 0.957 
0.612 0.416 0.761 0.71 
0.945 0.251 1.0 0.918 
0.722 0.502 0.796 0.918 
0.945 0.333 0.965 0.792 
0.667 0.541 0.796 0.831 
0.529 0.333 0.643 0.71 
0.584 0.333 0.78 0.831 
0.863 0.333 0.863 0.749 
0.584 0.333 0.78 0.875 
0.498 0.251 0.78 0.541 
0.557 0.584 0.78 0.957 
0.471 0.416 0.643 0.71 
0.667 0.459 0.78 0.957 
0.416 0.29 0.694 0.749 
0.667 0.541 0.796 1.0 
0.557 0.208 0.678 0.749 
0.529 0.584 0.745 0.918 
0.416 0.29 0.694 0.749 
0.557 0.376 0.78 0.71 
0.918 0.416 0.949 0.831 
0.835 0.376 0.898 0.71 
0.804 0.667 0.863 1.0 
0.584 0.29 0.729 0.749 
0.388 0.208 0.678 0.792 
0.584 0.502 0.729 0.918 
0.945 0.749 0.965 0.875 
0.471 0.082 0.678 0.584 
0.361 0.333 0.663 0.792 
0.557 0.29 0.663 0.71 
0.804 0.502 0.847 0.71 
0.498 0.416 0.51 0.71 
0.804 0.416 0.812 0.624 
1.0 0.749 0.914 0.792 
0.557 0.333 0.694 0.584 
0.945 0.416 0.863 0.918 
0.584 0.459 0.761 0.71 
0.722 0.459 0.745 0.831 
0.722 0.459 0.694 0.918 
0.694 0.502 0.831 0.918 
0.667 0.416 0.714 0.918 
0.612 0.416 0.714 0.792 
0.443 0.416 0.694 0.71 
Teaching Patterns
1.0 0.0 0.0 
1.0 0.0 0.0 
1.0 0.0 0.0 
1.0 0.0 0.0 
1.0 0.0 0.0 
1.0 0.0 0.0 
1.0 0.0 0.0 
1.0 0.0 0.0 
1.0 0.0 0.0 
1.0 0.0 0.0 
1.0 0.0 0.0 
1.0 0.0 0.0 
1.0 0.0 0.0 
1.0 0.0 0.0 
1.0 0.0 0.0 
1.0 0.0 0.0 
1.0 0.0 0.0 
1.0 0.0 0.0 
1.0 0.0 0.0 
1.0 0.0 0.0 
1.0 0.0 0.0 
1.0 0.0 0.0 
1.0 0.0 0.0 
1.0 0.0 0.0 
1.0 0.0 0.0 
1.0 0.0 0.0 
1.0 0.0 0.0 
1.0 0.0 0.0 
1.0 0.0 0.0 
1.0 0.0 0.0 
1.0 0.0 0.0 
1.0 0.0 0.0 
1.0 0.0 0.0 
1.0 0.0 0.0 
1.0 0.0 0.0 
1.0 0.0 0.0 
1.0 0.0 0.0 
1.0 0.0 0.0 
1.0 0.0 0.0 
1.0 0.0 0.0 
1.0 0.0 0.0 
1.0 0.0 0.0 
1.0 0.0 0.0 
1.0 0.0 0.0 
1.0 0.0 0.0 
1.0 0.0 0.0 
1.0 0.0 0.0 
1.0 0.0 0.0 
1.0 0.0 0.0 
1.0 0.0 0.0 
0.0 1.0 0.0 
0.0 1.0 0.0 
0.0 1.0 0.0 
0.0 1.0 0.0 
0.0 1.0 0.0 
0.0 1.0 0.0 
0.0 1.0 0.0 
0.0 1.0 0.0 
0.0 1.0 0.0 
0.0 1.0 0.0 
0.0 1.0 0.0 
0.0 1.0 0.0 
0.0 1.0 0.0 
0.0 1.0 0.0 
0.0 1.0 0.0 
0.0 1.0 0.0 
0.0 1.0 0.0 
0.0 1.0 0.0 
0.0 1.0 0.0 
0.0 1.0 0.0 
0.0 1.0 0.0 
0.0 1.0 0.0 
0.0 1.0 0.0 
0.0 1.0 0.0 
0.0 1.0 0.0 
0.0 1.0 0.0 
0.0 1.0 0.0 
0.0 1.0 0.0 
0.0 1.0 0.0 
0.0 1.0 0.0 
0.0 1.0 0.0 
0.0 1.0 0.0 
0.0 1.0 0.0 
0.0 1.0 0.0 
0.0 1.0 0.0 
0.0 1.0 0.0 
0.0 1.0 0.0 
0.0 1.0 0.0 
0.0 1.0 0.0 
0.0 1.0 0.0 
0.0 1.0 0.0 
0.0 1.0 0.0 
0.0 1.0 0.0 
0.0 1.0 0.0 
0.0 1.0 0.0 
0.0 1.0 0.0 
0.0 1.0 0.0 
0.0 1.0 0.0 
0.0 1.0 0.0 
0.0 1.0 0.0 
0.0 0.0 1.0 
0.0 0.0 1.0 
0.0 0.0 1.0 
0.0 0.0 1.0 
0.0 0.0 1.0 
0.0 0.0 1.0 
0.0 0.0 1.0 
0.0 0.0 1.0 
0.0 0.0 1.0 
0.0 0.0 1.0 
0.0 0.0 1.0 
0.0 0.0 1.0 
0.0 0.0 1.0 
0.0 0.0 1.0 
0.0 0.0 1.0 
0.0 0.0 1.0 
0.0 0.0 1.0 
0.0 0.0 1.0 
0.0 0.0 1.0 
0.0 0.0 1.0 
0.0 0.0 1.0 
0.0 0.0 1.0 
0.0 0.0 1.0 
0.0 0.0 1.0 
0.0 0.0 1.0 
0.0 0.0 1.0 
0.0 0.0 1.0 
0.0 0.0 1.0 
0.0 0.0 1.0 
0.0 0.0 1.0 
0.0 0.0 1.0 
0.0 0.0 1.0 
0.0 0.0 1.0 
0.0 0.0 1.0 
0.0 0.0 1.0 
0.0 0.0 1.0 
0.0 0.0 1.0 
0.0 0.0 1.0 
0.0 0.0 1.0 
0.0 0.0 1.0 
0.0 0.0 1.0 
0.0 0.0 1.0 
0.0 0.0 1.0 
0.0 0.0 1.0 
0.0 0.0 1.0 
0.0 0.0 1.0 
0.0 0.0 1.0 
0.0 0.0 1.0 
0.0 0.0 1.0 
0.0 0.0 1.0 
Learning : 0.05
Momentum : 0.699999988079071
Epoch: 100, Error: 0.031053943439342275
Epoch: 200, Error: 0.018814449434841004
Epoch: 300, Error: 0.01605081238860904
Epoch: 400, Error: 0.015000373405876182
Epoch: 500, Error: 0.014275686056674163
Epoch: 600, Error: 0.01364148568909915
Epoch: 700, Error: 0.013532192646918866
Epoch: 800, Error: 0.01315846153994583
Epoch: 900, Error: 0.012996006877664057
Epoch: 1000, Error: 0.013141635955364309
Epoch: 1100, Error: 0.012991234582621618
Epoch: 1200, Error: 0.012629708647819609
Epoch: 1300, Error: 0.01257601262723197
Epoch: 1400, Error: 0.012557614449808923
Epoch: 1500, Error: 0.012502370984895204
Epoch: 1600, Error: 0.012514972322109234
Epoch: 1700, Error: 0.012347180677381069
Epoch: 1800, Error: 0.01224888049426818
Epoch: 1900, Error: 0.01235997465231924
Epoch: 2000, Error: 0.012202179283638535
Epoch: 2100, Error: 0.012169007995743086
Epoch: 2200, Error: 0.012165123383350433
Epoch: 2300, Error: 0.012074987343146581
Epoch: 2400, Error: 0.012347500235627534
Epoch: 2500, Error: 0.012143705772128708
Epoch: 2600, Error: 0.01216632926616803
Epoch: 2700, Error: 0.012149818196569868
Epoch: 2800, Error: 0.012012400426555258
Epoch: 2900, Error: 0.012004882777167306
Epoch: 3000, Error: 0.012126078941819569
Epoch: 3100, Error: 0.011925823990106336
Epoch: 3200, Error: 0.011951414484663093
Epoch: 3300, Error: 0.012025044163801166
Epoch: 3400, Error: 0.012004206354204442
Epoch: 3500, Error: 0.011935348932442412
Epoch: 3600, Error: 0.011968720604026047
Epoch: 3700, Error: 0.011895659735369464
Epoch: 3800, Error: 0.011875039913272973
Epoch: 3900, Error: 0.011985414642729257
Epoch: 4000, Error: 0.011884472998053138
Epoch: 4100, Error: 0.011939096167669205
Epoch: 4200, Error: 0.011904908534459508
Epoch: 4300, Error: 0.011855201301035309
Epoch: 4400, Error: 0.011820582561510364
Epoch: 4500, Error: 0.011810811474414071
Epoch: 4600, Error: 0.011932059526175135
Epoch: 4700, Error: 0.011812144052056916
Epoch: 4800, Error: 0.011817312314674042
Epoch: 4900, Error: 0.011810083758584208
Epoch: 5000, Error: 0.01183897299725119
Epoch: 5100, Error: 0.011903797830300373
Epoch: 5200, Error: 0.011862624894158378
Epoch: 5300, Error: 0.011913433800348663
Epoch: 5400, Error: 0.011855009688971817
Epoch: 5500, Error: 0.011945056685767463
Epoch: 5600, Error: 0.011826109803001982
Epoch: 5700, Error: 0.01179712709422308
Epoch: 5800, Error: 0.01181168860567719
Epoch: 5900, Error: 0.011825583130187412
Epoch: 6000, Error: 0.011777325388807169
Epoch: 6100, Error: 0.0118303862234546
Epoch: 6200, Error: 0.011874211882631528
Epoch: 6300, Error: 0.011785497704923797
Epoch: 6400, Error: 0.011913743464318203
Epoch: 6500, Error: 0.011864274574791903
Epoch: 6600, Error: 0.011894705253502816
Epoch: 6700, Error: 0.011795566506674965
Epoch: 6800, Error: 0.011851247910001283
Epoch: 6900, Error: 0.011799273069740341
Epoch: 7000, Error: 0.011795170213584307
Epoch: 7100, Error: 0.011867058109036387
Epoch: 7200, Error: 0.01188180088199746
Epoch: 7300, Error: 0.011868165320951444
Epoch: 7400, Error: 0.01202492849116856
Epoch: 7500, Error: 0.01184184541163861
Epoch: 7600, Error: 0.011785936547300951
Epoch: 7700, Error: 0.011826382798380558
Epoch: 7800, Error: 0.011740293527587913
Epoch: 7900, Error: 0.011709637478479414
Epoch: 8000, Error: 0.011737304121969164
Epoch: 8100, Error: 0.011749227113287802
Epoch: 8200, Error: 0.011755807049366258
Epoch: 8300, Error: 0.011857658960225923
Epoch: 8400, Error: 0.011885882770425439
Epoch: 8500, Error: 0.011775345145535047
Epoch: 8600, Error: 0.01173817511909316
Epoch: 8700, Error: 0.011773387591288613
Epoch: 8800, Error: 0.011732711624803745
Epoch: 8900, Error: 0.011834997432381693
Epoch: 9000, Error: 0.011707856417111674
Epoch: 9100, Error: 0.01173960588604898
Epoch: 9200, Error: 0.011694168628920287
Epoch: 9300, Error: 0.011695833118244774
Epoch: 9400, Error: 0.011813599595040778
Epoch: 9500, Error: 0.011833296153187038
Epoch: 9600, Error: 0.01185106431578451
Epoch: 9700, Error: 0.011780469854629686
Epoch: 9800, Error: 0.011753635976608664
Epoch: 9900, Error: 0.011767332697862887
Epoch: 10000, Error: 0.011763781007892752
Epoch: 10100, Error: 0.011740369175464385
Epoch: 10200, Error: 0.011720272372765914
Epoch: 10300, Error: 0.01180439053009973
Epoch: 10400, Error: 0.011734509814358906
Epoch: 10500, Error: 0.011731313035552375
Epoch: 10600, Error: 0.011774942576868657
Epoch: 10700, Error: 0.011800683289434413
Epoch: 10800, Error: 0.011818869560157454
Epoch: 10900, Error: 0.011779298486254903
Epoch: 11000, Error: 0.01171219030530272
Epoch: 11100, Error: 0.011749962999537851
Epoch: 11200, Error: 0.01178618531828299
Epoch: 11300, Error: 0.011684433913634705
Epoch: 11400, Error: 0.011665709039116392
Epoch: 11500, Error: 0.011742933952277497
Epoch: 11600, Error: 0.011831636674228246
Epoch: 11700, Error: 0.011995397670747466
Epoch: 11800, Error: 0.011765526389662922
Epoch: 11900, Error: 0.011766184297610918
Epoch: 12000, Error: 0.011739852631811537
Epoch: 12100, Error: 0.011689719242330502
Epoch: 12200, Error: 0.011774286613126577
Epoch: 12300, Error: 0.011918481061434946
Epoch: 12400, Error: 0.011844751060922882
Epoch: 12500, Error: 0.011740350280480528
Epoch: 12600, Error: 0.011755437635884795
Epoch: 12700, Error: 0.01175741269164471
Epoch: 12800, Error: 0.01178474742898653
Epoch: 12900, Error: 0.011770951113284326
Epoch: 13000, Error: 0.01186201264060475
Epoch: 13100, Error: 0.011677307481062993
Epoch: 13200, Error: 0.011728756952617774
Epoch: 13300, Error: 0.01168761936240653
Epoch: 13400, Error: 0.011734217983480804
Epoch: 13500, Error: 0.011760738787124542
Epoch: 13600, Error: 0.0117701240622021
Epoch: 13700, Error: 0.01176441852994051
Epoch: 13800, Error: 0.011747994416925749
Epoch: 13900, Error: 0.011698865509668616
Epoch: 14000, Error: 0.01165952664850335
Epoch: 14100, Error: 0.011708893474640244
Epoch: 14200, Error: 0.011660968886813058
Epoch: 14300, Error: 0.011750132730505397
Epoch: 14400, Error: 0.011671076131650752
Epoch: 14500, Error: 0.011772970362619421
Epoch: 14600, Error: 0.011718449704692803
Epoch: 14700, Error: 0.011656987050529926
Epoch: 14800, Error: 0.011596983380504564
Epoch: 14900, Error: 0.011622813944796728
Epoch: 15000, Error: 0.011711376294373781
Epoch: 15100, Error: 0.011733161303224701
Epoch: 15200, Error: 0.011702387646509207
Epoch: 15300, Error: 0.011611584653565293
Epoch: 15400, Error: 0.01164750497601138
Epoch: 15500, Error: 0.01157020069703174
Epoch: 15600, Error: 0.011615340846788573
Epoch: 15700, Error: 0.011691281191106576
Epoch: 15800, Error: 0.011592922189243623
Epoch: 15900, Error: 0.011601121130421749
Epoch: 16000, Error: 0.011592039762465985
Epoch: 16100, Error: 0.01162240827442446
Epoch: 16200, Error: 0.011580528910494436
Epoch: 16300, Error: 0.011638521035352817
Epoch: 16400, Error: 0.011626107573848894
Epoch: 16500, Error: 0.011648108437777568
Epoch: 16600, Error: 0.011612345890353417
Epoch: 16700, Error: 0.011575514328106409
Epoch: 16800, Error: 0.011556208900072668
Epoch: 16900, Error: 0.01165792808234809
Epoch: 17000, Error: 0.011670064480056835
Epoch: 17100, Error: 0.011519872860717094
Epoch: 17200, Error: 0.011450967446695784
Epoch: 17300, Error: 0.011399644212018766
Epoch: 17400, Error: 0.011486368104367055
Epoch: 17500, Error: 0.011407955800232315
Epoch: 17600, Error: 0.011365647539623007
Epoch: 17700, Error: 0.011332601094364798
Epoch: 17800, Error: 0.01128214333668716
Epoch: 17900, Error: 0.011283212061723336
Epoch: 18000, Error: 0.01117365070848854
Epoch: 18100, Error: 0.011119953892427597
Epoch: 18200, Error: 0.011131591569504178
Epoch: 18300, Error: 0.011095583638205215
Epoch: 18400, Error: 0.011027795116427692
Epoch: 18500, Error: 0.010992546476306726
Epoch: 18600, Error: 0.01093139809687596
Epoch: 18700, Error: 0.010904949350672792
Epoch: 18800, Error: 0.010954947488797466
Epoch: 18900, Error: 0.010921520417070904
Epoch: 19000, Error: 0.010859084622120348
Epoch: 19100, Error: 0.010814811889820346
Epoch: 19200, Error: 0.010773327741757283
Epoch: 19300, Error: 0.010721837004877955
Epoch: 19400, Error: 0.010660910226175015
Epoch: 19500, Error: 0.010586715104196115
Epoch: 19600, Error: 0.010586916795593574
Epoch: 19700, Error: 0.010532252509065834
Epoch: 19800, Error: 0.010466642821034098
Epoch: 19900, Error: 0.010428671126856632
Epoch: 20000, Error: 0.010349257024573302
Epoch: 20100, Error: 0.010315615837104953
Epoch: 20200, Error: 0.010303082872361256
Epoch: 20300, Error: 0.010218438697739732
Epoch: 20400, Error: 0.01018482307924799
Epoch: 20500, Error: 0.010097075176995415
Epoch: 20600, Error: 0.010039106827964302
Epoch: 20700, Error: 0.009973124174133341
Epoch: 20800, Error: 0.009894220857340787
Epoch: 20900, Error: 0.009838422191229572
Epoch: 21000, Error: 0.0097959692381248
Epoch: 21100, Error: 0.009743775890408755
Epoch: 21200, Error: 0.009672327041029879
Epoch: 21300, Error: 0.009623765378770134
Epoch: 21400, Error: 0.009545982971146408
Epoch: 21500, Error: 0.009480795698480165
Epoch: 21600, Error: 0.009426080500460806
Epoch: 21700, Error: 0.009338530238158248
Epoch: 21800, Error: 0.009313242303664667
Epoch: 21900, Error: 0.009226067633449145
Epoch: 22000, Error: 0.009158949126456907
Epoch: 22100, Error: 0.009172076778550316
Epoch: 22200, Error: 0.009065970223611232
Epoch: 22300, Error: 0.009043563724977461
Epoch: 22400, Error: 0.008984316783675833
Epoch: 22500, Error: 0.008975551020355122
Epoch: 22600, Error: 0.00895684746585558
Epoch: 22700, Error: 0.008953639164498907
Epoch: 22800, Error: 0.008868578988551744
Epoch: 22900, Error: 0.008852038150717008
Epoch: 23000, Error: 0.008735039681128938
Epoch: 23100, Error: 0.008709283442465174
Epoch: 23200, Error: 0.008632156237600457
Epoch: 23300, Error: 0.00857368603341206
Epoch: 23400, Error: 0.00851101232200066
Epoch: 23500, Error: 0.008473776275073116
Epoch: 23600, Error: 0.008414210465330012
Epoch: 23700, Error: 0.008355445734111806
Epoch: 23800, Error: 0.008336615767367371
Epoch: 23900, Error: 0.00827248869330575
Epoch: 24000, Error: 0.008216002270711037
Epoch: 24100, Error: 0.008194293132992555
Epoch: 24200, Error: 0.00812487494739948
Epoch: 24300, Error: 0.008063959710431313
Epoch: 24400, Error: 0.008028527861139174
Epoch: 24500, Error: 0.007994158401348376
Epoch: 24600, Error: 0.007955767314177877
Epoch: 24700, Error: 0.007908797331426626
Epoch: 24800, Error: 0.007871628002079762
Epoch: 24900, Error: 0.007833129965489119
Epoch: 25000, Error: 0.007782014088271614
Epoch: 25100, Error: 0.007773699908965541
Epoch: 25200, Error: 0.007738319983811412
Epoch: 25300, Error: 0.0077520709414328984
Epoch: 25400, Error: 0.007787667585068287
Epoch: 25500, Error: 0.007727188145520811
Epoch: 25600, Error: 0.007691053646748204
Epoch: 25700, Error: 0.0077694951440575935
Epoch: 25800, Error: 0.007667019207048822
Epoch: 25900, Error: 0.007642749410132696
Epoch: 26000, Error: 0.007642254151602242
Epoch: 26100, Error: 0.00760358504602411
Epoch: 26200, Error: 0.0076111326709388276
Epoch: 26300, Error: 0.007586393289072227
Epoch: 26400, Error: 0.0075834528762814615
Epoch: 26500, Error: 0.007582913057165535
Epoch: 26600, Error: 0.007572082441443142
Epoch: 26700, Error: 0.007565243059833608
Epoch: 26800, Error: 0.0075483120243004884
Epoch: 26900, Error: 0.007522477228462249
Epoch: 27000, Error: 0.00758209710000065
Epoch: 27100, Error: 0.0075394256812822205
Epoch: 27200, Error: 0.0075708118865583955
Epoch: 27300, Error: 0.007570652705837042
Epoch: 27400, Error: 0.0075464092682883165
Epoch: 27500, Error: 0.0075611958404827855
Epoch: 27600, Error: 0.007577948494224009
Epoch: 27700, Error: 0.007572401663413964
Epoch: 27800, Error: 0.007578602193817931
Epoch: 27900, Error: 0.007610296190427525
Epoch: 28000, Error: 0.007582716210123953
Epoch: 28100, Error: 0.007582770109006744
Epoch: 28200, Error: 0.007589673345745044
Epoch: 28300, Error: 0.007558273861004514
Epoch: 28400, Error: 0.007544109416566849
Epoch: 28500, Error: 0.007562597317967479
Epoch: 28600, Error: 0.007542648676053513
Epoch: 28700, Error: 0.007540374269867264
Epoch: 28800, Error: 0.007532316024941025
Epoch: 28900, Error: 0.007528806291001248
Epoch: 29000, Error: 0.007526217907547785
Epoch: 29100, Error: 0.007471265764526248
Epoch: 29200, Error: 0.007446353361072786
Epoch: 29300, Error: 0.007507593989678063
Epoch: 29400, Error: 0.007403262225320729
Epoch: 29500, Error: 0.007392719834822646
Epoch: 29600, Error: 0.007359349281287755
Epoch: 29700, Error: 0.00736170363064346
Epoch: 29800, Error: 0.0073769039912726965
Epoch: 29900, Error: 0.007335700722642362
Epoch: 30000, Error: 0.007277783629938457
Epoch: 30100, Error: 0.007285874463132638
Epoch: 30200, Error: 0.007304915004235956
Epoch: 30300, Error: 0.007248166838478478
Epoch: 30400, Error: 0.007273572179615951
Epoch: 30500, Error: 0.007222676627111507
Epoch: 30600, Error: 0.007167441002935855
Epoch: 30700, Error: 0.007206540212699948
Epoch: 30800, Error: 0.00717076023593652
Epoch: 30900, Error: 0.007144588678566353
Epoch: 31000, Error: 0.007114330697975115
Epoch: 31100, Error: 0.0071256020608256735
Epoch: 31200, Error: 0.0071288241485924315
Epoch: 31300, Error: 0.007086381591073695
Epoch: 31400, Error: 0.0071100915691883464
Epoch: 31500, Error: 0.007078209969384505
Epoch: 31600, Error: 0.007074671064833868
Epoch: 31700, Error: 0.007024590252988732
Epoch: 31800, Error: 0.007053615830792777
Epoch: 31900, Error: 0.007025774880901714
Epoch: 32000, Error: 0.007001443594939145
Epoch: 32100, Error: 0.007009003926362103
Epoch: 32200, Error: 0.007018421199733693
Epoch: 32300, Error: 0.006993174724376305
Epoch: 32400, Error: 0.006992996067996522
Epoch: 32500, Error: 0.007022836829478491
Epoch: 32600, Error: 0.007002884314189179
Epoch: 32700, Error: 0.007007519325754297
Epoch: 32800, Error: 0.006996485497491824
Epoch: 32900, Error: 0.0069884268560160695
Epoch: 33000, Error: 0.006975459057206468
Epoch: 33100, Error: 0.0070028255224829266
Epoch: 33200, Error: 0.006976429942316715
Epoch: 33300, Error: 0.0069447416820464
Finished
