Input Patterns
0.224 0.624 0.067 0.043 
0.11 0.502 0.051 0.043 
0.196 0.667 0.067 0.043 
0.055 0.584 0.067 0.082 
0.027 0.376 0.067 0.043 
0.306 0.71 0.086 0.043 
0.137 0.416 0.067 0.0 
0.416 0.831 0.035 0.043 
0.306 0.792 0.051 0.125 
0.388 0.749 0.118 0.082 
0.306 0.584 0.118 0.043 
0.082 0.667 0.0 0.043 
0.137 0.584 0.153 0.043 
0.196 0.584 0.102 0.125 
0.251 0.584 0.067 0.043 
0.137 0.459 0.102 0.043 
0.251 0.875 0.086 0.0 
0.165 0.459 0.086 0.043 
0.333 0.624 0.051 0.043 
0.027 0.416 0.051 0.043 
0.196 0.624 0.051 0.082 
0.027 0.502 0.051 0.043 
0.224 0.749 0.153 0.125 
0.224 0.749 0.102 0.043 
0.278 0.71 0.086 0.043 
0.165 0.416 0.067 0.043 
0.082 0.459 0.086 0.043 
0.306 0.792 0.118 0.125 
0.196 0.584 0.086 0.043 
0.165 0.459 0.086 0.0 
0.137 0.584 0.102 0.043 
0.0 0.416 0.016 0.0 
0.388 1.0 0.086 0.125 
0.224 0.624 0.067 0.082 
0.224 0.749 0.086 0.082 
0.224 0.71 0.086 0.125 
0.224 0.541 0.118 0.165 
0.196 0.416 0.102 0.043 
0.251 0.624 0.086 0.043 
0.11 0.502 0.102 0.043 
0.306 0.584 0.086 0.125 
0.333 0.918 0.067 0.043 
0.196 0.502 0.035 0.043 
0.165 0.667 0.067 0.0 
0.224 0.584 0.086 0.043 
0.055 0.125 0.051 0.082 
0.196 0.624 0.102 0.208 
0.137 0.416 0.067 0.082 
0.082 0.502 0.067 0.043 
0.196 0.541 0.067 0.043 
0.749 0.502 0.627 0.541 
0.722 0.459 0.663 0.584 
0.612 0.333 0.612 0.584 
0.557 0.541 0.627 0.624 
0.639 0.376 0.612 0.498 
0.196 0.0 0.424 0.376 
0.471 0.082 0.51 0.376 
0.361 0.376 0.439 0.498 
0.361 0.416 0.592 0.584 
0.529 0.082 0.592 0.584 
0.443 0.502 0.643 0.459 
0.557 0.208 0.663 0.584 
0.584 0.376 0.561 0.498 
0.694 0.333 0.643 0.541 
0.471 0.376 0.592 0.584 
0.333 0.169 0.475 0.416 
0.416 0.29 0.49 0.459 
0.306 0.416 0.592 0.584 
0.667 0.459 0.627 0.584 
0.361 0.416 0.525 0.498 
0.333 0.251 0.576 0.459 
0.416 0.251 0.51 0.459 
0.361 0.29 0.541 0.498 
0.388 0.376 0.541 0.498 
0.224 0.208 0.337 0.416 
0.584 0.502 0.592 0.584 
0.333 0.125 0.51 0.498 
0.388 0.333 0.592 0.498 
0.165 0.169 0.388 0.376 
0.251 0.29 0.49 0.541 
0.443 0.416 0.541 0.584 
0.498 0.376 0.627 0.541 
0.667 0.459 0.576 0.541 
0.416 0.29 0.525 0.376 
0.361 0.208 0.49 0.416 
0.498 0.333 0.51 0.498 
0.498 0.333 0.627 0.459 
0.639 0.416 0.576 0.541 
0.667 0.416 0.678 0.667 
0.388 0.251 0.424 0.376 
0.333 0.169 0.459 0.376 
0.471 0.29 0.694 0.624 
0.471 0.584 0.592 0.624 
0.557 0.125 0.576 0.498 
0.333 0.208 0.51 0.498 
0.498 0.416 0.612 0.541 
0.196 0.125 0.388 0.376 
0.388 0.416 0.541 0.459 
0.529 0.376 0.561 0.498 
0.388 0.333 0.525 0.498 
0.557 0.541 0.847 1.0 
0.776 0.416 0.831 0.831 
0.612 0.416 0.812 0.875 
0.165 0.208 0.592 0.667 
0.667 0.208 0.812 0.71 
0.612 0.502 0.694 0.792 
0.694 0.416 0.761 0.831 
0.416 0.333 0.694 0.957 
0.612 0.416 0.761 0.71 
0.945 0.251 1.0 0.918 
0.722 0.502 0.796 0.918 
0.945 0.333 0.965 0.792 
0.667 0.541 0.796 0.831 
0.529 0.333 0.643 0.71 
0.584 0.333 0.78 0.831 
0.863 0.333 0.863 0.749 
0.584 0.333 0.78 0.875 
0.498 0.251 0.78 0.541 
0.557 0.584 0.78 0.957 
0.471 0.416 0.643 0.71 
0.667 0.459 0.78 0.957 
0.416 0.29 0.694 0.749 
0.667 0.541 0.796 1.0 
0.557 0.208 0.678 0.749 
0.529 0.584 0.745 0.918 
0.416 0.29 0.694 0.749 
0.557 0.376 0.78 0.71 
0.918 0.416 0.949 0.831 
0.835 0.376 0.898 0.71 
0.804 0.667 0.863 1.0 
0.584 0.29 0.729 0.749 
0.388 0.208 0.678 0.792 
0.584 0.502 0.729 0.918 
0.945 0.749 0.965 0.875 
0.471 0.082 0.678 0.584 
0.361 0.333 0.663 0.792 
0.557 0.29 0.663 0.71 
0.804 0.502 0.847 0.71 
0.498 0.416 0.51 0.71 
0.804 0.416 0.812 0.624 
1.0 0.749 0.914 0.792 
0.557 0.333 0.694 0.584 
0.945 0.416 0.863 0.918 
0.584 0.459 0.761 0.71 
0.722 0.459 0.745 0.831 
0.722 0.459 0.694 0.918 
0.694 0.502 0.831 0.918 
0.667 0.416 0.714 0.918 
0.612 0.416 0.714 0.792 
0.443 0.416 0.694 0.71 
Teaching Patterns
1.0 0.0 0.0 
1.0 0.0 0.0 
1.0 0.0 0.0 
1.0 0.0 0.0 
1.0 0.0 0.0 
1.0 0.0 0.0 
1.0 0.0 0.0 
1.0 0.0 0.0 
1.0 0.0 0.0 
1.0 0.0 0.0 
1.0 0.0 0.0 
1.0 0.0 0.0 
1.0 0.0 0.0 
1.0 0.0 0.0 
1.0 0.0 0.0 
1.0 0.0 0.0 
1.0 0.0 0.0 
1.0 0.0 0.0 
1.0 0.0 0.0 
1.0 0.0 0.0 
1.0 0.0 0.0 
1.0 0.0 0.0 
1.0 0.0 0.0 
1.0 0.0 0.0 
1.0 0.0 0.0 
1.0 0.0 0.0 
1.0 0.0 0.0 
1.0 0.0 0.0 
1.0 0.0 0.0 
1.0 0.0 0.0 
1.0 0.0 0.0 
1.0 0.0 0.0 
1.0 0.0 0.0 
1.0 0.0 0.0 
1.0 0.0 0.0 
1.0 0.0 0.0 
1.0 0.0 0.0 
1.0 0.0 0.0 
1.0 0.0 0.0 
1.0 0.0 0.0 
1.0 0.0 0.0 
1.0 0.0 0.0 
1.0 0.0 0.0 
1.0 0.0 0.0 
1.0 0.0 0.0 
1.0 0.0 0.0 
1.0 0.0 0.0 
1.0 0.0 0.0 
1.0 0.0 0.0 
1.0 0.0 0.0 
0.0 1.0 0.0 
0.0 1.0 0.0 
0.0 1.0 0.0 
0.0 1.0 0.0 
0.0 1.0 0.0 
0.0 1.0 0.0 
0.0 1.0 0.0 
0.0 1.0 0.0 
0.0 1.0 0.0 
0.0 1.0 0.0 
0.0 1.0 0.0 
0.0 1.0 0.0 
0.0 1.0 0.0 
0.0 1.0 0.0 
0.0 1.0 0.0 
0.0 1.0 0.0 
0.0 1.0 0.0 
0.0 1.0 0.0 
0.0 1.0 0.0 
0.0 1.0 0.0 
0.0 1.0 0.0 
0.0 1.0 0.0 
0.0 1.0 0.0 
0.0 1.0 0.0 
0.0 1.0 0.0 
0.0 1.0 0.0 
0.0 1.0 0.0 
0.0 1.0 0.0 
0.0 1.0 0.0 
0.0 1.0 0.0 
0.0 1.0 0.0 
0.0 1.0 0.0 
0.0 1.0 0.0 
0.0 1.0 0.0 
0.0 1.0 0.0 
0.0 1.0 0.0 
0.0 1.0 0.0 
0.0 1.0 0.0 
0.0 1.0 0.0 
0.0 1.0 0.0 
0.0 1.0 0.0 
0.0 1.0 0.0 
0.0 1.0 0.0 
0.0 1.0 0.0 
0.0 1.0 0.0 
0.0 1.0 0.0 
0.0 1.0 0.0 
0.0 1.0 0.0 
0.0 1.0 0.0 
0.0 1.0 0.0 
0.0 0.0 1.0 
0.0 0.0 1.0 
0.0 0.0 1.0 
0.0 0.0 1.0 
0.0 0.0 1.0 
0.0 0.0 1.0 
0.0 0.0 1.0 
0.0 0.0 1.0 
0.0 0.0 1.0 
0.0 0.0 1.0 
0.0 0.0 1.0 
0.0 0.0 1.0 
0.0 0.0 1.0 
0.0 0.0 1.0 
0.0 0.0 1.0 
0.0 0.0 1.0 
0.0 0.0 1.0 
0.0 0.0 1.0 
0.0 0.0 1.0 
0.0 0.0 1.0 
0.0 0.0 1.0 
0.0 0.0 1.0 
0.0 0.0 1.0 
0.0 0.0 1.0 
0.0 0.0 1.0 
0.0 0.0 1.0 
0.0 0.0 1.0 
0.0 0.0 1.0 
0.0 0.0 1.0 
0.0 0.0 1.0 
0.0 0.0 1.0 
0.0 0.0 1.0 
0.0 0.0 1.0 
0.0 0.0 1.0 
0.0 0.0 1.0 
0.0 0.0 1.0 
0.0 0.0 1.0 
0.0 0.0 1.0 
0.0 0.0 1.0 
0.0 0.0 1.0 
0.0 0.0 1.0 
0.0 0.0 1.0 
0.0 0.0 1.0 
0.0 0.0 1.0 
0.0 0.0 1.0 
0.0 0.0 1.0 
0.0 0.0 1.0 
0.0 0.0 1.0 
0.0 0.0 1.0 
0.0 0.0 1.0 
Learning : 0.05
Momentum : 0.699999988079071
Epoch: 100, Error: 0.03894045465887965
Epoch: 200, Error: 0.018660474021169295
Epoch: 300, Error: 0.01559349167989149
Epoch: 400, Error: 0.014235977487567181
Epoch: 500, Error: 0.013510277111891447
Epoch: 600, Error: 0.013052911008924441
Epoch: 700, Error: 0.012676410530167253
Epoch: 800, Error: 0.012722936426737422
Epoch: 900, Error: 0.012303202091556633
Epoch: 1000, Error: 0.012192158919033828
Epoch: 1100, Error: 0.012050533589480264
Epoch: 1200, Error: 0.011976947907942183
Epoch: 1300, Error: 0.01204433629450287
Epoch: 1400, Error: 0.0118645339351714
Epoch: 1500, Error: 0.011834278760462986
Epoch: 1600, Error: 0.011802579662723524
Epoch: 1700, Error: 0.011794181885040663
Epoch: 1800, Error: 0.011753358346592491
Epoch: 1900, Error: 0.0119627387707945
Epoch: 2000, Error: 0.01178160024651652
Epoch: 2100, Error: 0.011692102272169198
Epoch: 2200, Error: 0.011654766754594053
Epoch: 2300, Error: 0.011630050459539737
Epoch: 2400, Error: 0.01162954454945507
Epoch: 2500, Error: 0.011622986829968183
Epoch: 2600, Error: 0.011662125635898012
Epoch: 2700, Error: 0.011601456981581116
Epoch: 2800, Error: 0.011603310271838073
Epoch: 2900, Error: 0.011665271527965346
Epoch: 3000, Error: 0.011627741066007556
Epoch: 3100, Error: 0.011597408978160497
Epoch: 3200, Error: 0.011604410117766095
Epoch: 3300, Error: 0.011629702912184627
Epoch: 3400, Error: 0.011692639487133148
Epoch: 3500, Error: 0.011608861061975043
Epoch: 3600, Error: 0.011620082352767234
Epoch: 3700, Error: 0.011683733533602374
Epoch: 3800, Error: 0.011657866959938042
Epoch: 3900, Error: 0.011684489762566138
Epoch: 4000, Error: 0.011702134458926875
Epoch: 4100, Error: 0.011690889462192426
Epoch: 4200, Error: 0.01170168576330231
Epoch: 4300, Error: 0.011686501497755231
Epoch: 4400, Error: 0.01167948705691304
Epoch: 4500, Error: 0.01179765557091514
Epoch: 4600, Error: 0.011673570851889548
Epoch: 4700, Error: 0.011693727487572518
Epoch: 4800, Error: 0.011762798037417371
Epoch: 4900, Error: 0.011668319068727746
Epoch: 5000, Error: 0.011679107272121616
Epoch: 5100, Error: 0.011688630886787236
Epoch: 5200, Error: 0.011679495398691656
Epoch: 5300, Error: 0.011677649199545347
Epoch: 5400, Error: 0.011702410095422541
Epoch: 5500, Error: 0.011691570472748117
Epoch: 5600, Error: 0.011708180534702416
Epoch: 5700, Error: 0.011672111487599262
Epoch: 5800, Error: 0.011662050251692242
Epoch: 5900, Error: 0.011670131009636698
Epoch: 6000, Error: 0.011691890722424134
Epoch: 6100, Error: 0.011645861547460511
Epoch: 6200, Error: 0.012119723326547894
Epoch: 6300, Error: 0.011636032353530078
Epoch: 6400, Error: 0.011704473412216214
Epoch: 6500, Error: 0.011622625456975413
Epoch: 6600, Error: 0.011618756004763253
Epoch: 6700, Error: 0.01173065478298875
Epoch: 6800, Error: 0.011634088764660785
Epoch: 6900, Error: 0.01160216931457404
Epoch: 7000, Error: 0.011605080725596375
Epoch: 7100, Error: 0.011544193068578224
Epoch: 7200, Error: 0.011596462494324729
Epoch: 7300, Error: 0.011521399237497397
Epoch: 7400, Error: 0.011597501212657771
Epoch: 7500, Error: 0.01154825357133996
Epoch: 7600, Error: 0.011540691528892507
Epoch: 7700, Error: 0.011519194429196807
Epoch: 7800, Error: 0.011510254291066864
Epoch: 7900, Error: 0.011460375946772022
Epoch: 8000, Error: 0.011534869502377683
Epoch: 8100, Error: 0.01164707069150915
Epoch: 8200, Error: 0.011471830039245956
Epoch: 8300, Error: 0.011471273801282168
Epoch: 8400, Error: 0.011401096197199059
Epoch: 8500, Error: 0.011392793873695488
Epoch: 8600, Error: 0.011425259396026224
Epoch: 8700, Error: 0.011351713358895114
Epoch: 8800, Error: 0.0114379788753295
Epoch: 8900, Error: 0.011343030703129
Epoch: 9000, Error: 0.01129047443696136
Epoch: 9100, Error: 0.011260973880468959
Epoch: 9200, Error: 0.01132321653466045
Epoch: 9300, Error: 0.011198064785808643
Epoch: 9400, Error: 0.011230136103649634
Epoch: 9500, Error: 0.011161559542690706
Epoch: 9600, Error: 0.011007064672968596
Epoch: 9700, Error: 0.011049825378622752
Epoch: 9800, Error: 0.010891107217081258
Epoch: 9900, Error: 0.010839343806140628
Epoch: 10000, Error: 0.010854308988051927
Epoch: 10100, Error: 0.010627150198077232
Epoch: 10200, Error: 0.010576295258762395
Epoch: 10300, Error: 0.010430921166316715
Epoch: 10400, Error: 0.010347962656790291
Epoch: 10500, Error: 0.01016520199358457
Epoch: 10600, Error: 0.010323722176445102
Epoch: 10700, Error: 0.009914737721925682
Epoch: 10800, Error: 0.009810662932415748
Epoch: 10900, Error: 0.00960079733594537
Epoch: 11000, Error: 0.009420959594696795
Epoch: 11100, Error: 0.009271908797872838
Epoch: 11200, Error: 0.00908784064363849
Epoch: 11300, Error: 0.009000370526143569
Epoch: 11400, Error: 0.008780216594939726
Epoch: 11500, Error: 0.008616586513542981
Epoch: 11600, Error: 0.00848598357978811
Epoch: 11700, Error: 0.008333049360169974
Epoch: 11800, Error: 0.008202672218599593
Epoch: 11900, Error: 0.008109316413173744
Epoch: 12000, Error: 0.007956239609015285
Epoch: 12100, Error: 0.00783521789496341
Epoch: 12200, Error: 0.007767486420496762
Epoch: 12300, Error: 0.0076827809917666785
Epoch: 12400, Error: 0.007545964083941233
Epoch: 12500, Error: 0.007456700560315632
Epoch: 12600, Error: 0.007371906423596677
Epoch: 12700, Error: 0.0072920126286378515
Epoch: 12800, Error: 0.007207615924301784
Epoch: 12900, Error: 0.0071163061853532095
Epoch: 13000, Error: 0.007063157770180924
Epoch: 13100, Error: 0.007004199763210567
Epoch: 13200, Error: 0.00697293759287308
Epoch: 13300, Error: 0.006876942700942287
Epoch: 13400, Error: 0.006837416456117512
Epoch: 13500, Error: 0.006770435354026247
Epoch: 13600, Error: 0.006735856886808832
Epoch: 13700, Error: 0.006669970495895389
Epoch: 13800, Error: 0.006631137895389233
Epoch: 13900, Error: 0.006595829868358338
Epoch: 14000, Error: 0.006572225441011797
Epoch: 14100, Error: 0.006535838636320104
Epoch: 14200, Error: 0.006525864877049017
Epoch: 14300, Error: 0.0064896610450163456
Epoch: 14400, Error: 0.00649699300502218
Epoch: 14500, Error: 0.006447392710335624
Epoch: 14600, Error: 0.006433838643368476
Epoch: 14700, Error: 0.006414274776955511
Epoch: 14800, Error: 0.0064061493090763165
Epoch: 14900, Error: 0.006386995036585957
Epoch: 15000, Error: 0.006352028570453867
Epoch: 15100, Error: 0.006332468997160096
Epoch: 15200, Error: 0.006328643674119755
Epoch: 15300, Error: 0.0063376803649583795
Epoch: 15400, Error: 0.006290441139645052
Epoch: 15500, Error: 0.006280447091627508
Epoch: 15600, Error: 0.006385378506791236
Epoch: 15700, Error: 0.006241829325401105
Epoch: 15800, Error: 0.006265181474585662
Epoch: 15900, Error: 0.006244504578924741
Epoch: 16000, Error: 0.006194147186453883
Epoch: 16100, Error: 0.006159860906879316
Epoch: 16200, Error: 0.006148446247164773
Epoch: 16300, Error: 0.006121913593905769
Epoch: 16400, Error: 0.0060859351882533224
Epoch: 16500, Error: 0.006077054696927953
Epoch: 16600, Error: 0.006053148925318148
Epoch: 16700, Error: 0.0060404711554463445
Epoch: 16800, Error: 0.005998598290197319
Epoch: 16900, Error: 0.0059810001289020915
Epoch: 17000, Error: 0.005946959770259033
Epoch: 17100, Error: 0.005917244815142132
Epoch: 17200, Error: 0.005881709785507414
Epoch: 17300, Error: 0.005873271506788995
Epoch: 17400, Error: 0.0058454547884524395
Epoch: 17500, Error: 0.005817664152321391
Epoch: 17600, Error: 0.00580008720800014
Epoch: 17700, Error: 0.005770415079425082
Epoch: 17800, Error: 0.005763214420857599
Epoch: 17900, Error: 0.005772782986652344
Epoch: 18000, Error: 0.005756156212183555
Epoch: 18100, Error: 0.005720163021660293
Epoch: 18200, Error: 0.005714669308576295
Epoch: 18300, Error: 0.005662089846707758
Epoch: 18400, Error: 0.005654587379950612
Epoch: 18500, Error: 0.0056662740571635515
Epoch: 18600, Error: 0.0056234895659553405
Epoch: 18700, Error: 0.005602214422270747
Epoch: 18800, Error: 0.005678632559346282
Epoch: 18900, Error: 0.0055559029971668185
Epoch: 19000, Error: 0.005632199889886361
Epoch: 19100, Error: 0.005568642056129108
Epoch: 19200, Error: 0.00556823473556275
Epoch: 19300, Error: 0.005522024939800487
Epoch: 19400, Error: 0.005491430184525583
Epoch: 19500, Error: 0.005502978609391161
Epoch: 19600, Error: 0.005442881213603818
Epoch: 19700, Error: 0.00546393332512423
Epoch: 19800, Error: 0.005433909291946223
Epoch: 19900, Error: 0.005385504817168605
Epoch: 20000, Error: 0.005377254573464116
Epoch: 20100, Error: 0.005326512870706517
Epoch: 20200, Error: 0.005295919996268033
Epoch: 20300, Error: 0.0052636388828628915
Epoch: 20400, Error: 0.005251373385250594
Epoch: 20500, Error: 0.0052487418876758
Epoch: 20600, Error: 0.005253343263703218
Epoch: 20700, Error: 0.0051821630197266145
Epoch: 20800, Error: 0.005198416455926581
Epoch: 20900, Error: 0.0051329740609244315
Epoch: 21000, Error: 0.005126782655873803
Epoch: 21100, Error: 0.005112004823846073
Epoch: 21200, Error: 0.005082359951162201
Epoch: 21300, Error: 0.005059714510905643
Epoch: 21400, Error: 0.005043316032509888
Epoch: 21500, Error: 0.005006954464956872
Epoch: 21600, Error: 0.005011135245155554
Epoch: 21700, Error: 0.004991663361227444
Epoch: 21800, Error: 0.00496635479277311
Epoch: 21900, Error: 0.004967089384473112
Epoch: 22000, Error: 0.004936578533666458
Epoch: 22100, Error: 0.004931220372100713
Epoch: 22200, Error: 0.004970727012670371
Epoch: 22300, Error: 0.0048957025650548805
Epoch: 22400, Error: 0.004968123907291202
Epoch: 22500, Error: 0.004877465301065962
Epoch: 22600, Error: 0.004829728891544867
Epoch: 22700, Error: 0.0048094302275032775
Epoch: 22800, Error: 0.00478778140943304
Epoch: 22900, Error: 0.004773175749870072
Epoch: 23000, Error: 0.004756721639412722
Epoch: 23100, Error: 0.004744709371829265
Epoch: 23200, Error: 0.004734851137470777
Epoch: 23300, Error: 0.004700080543455392
Epoch: 23400, Error: 0.00470199711737302
Epoch: 23500, Error: 0.004673651676742126
Epoch: 23600, Error: 0.004648426969213168
Epoch: 23700, Error: 0.00462932990394229
Epoch: 23800, Error: 0.004610515413641648
Epoch: 23900, Error: 0.0045978015804372
Epoch: 24000, Error: 0.0045997075581751985
Epoch: 24100, Error: 0.004563704281642227
Epoch: 24200, Error: 0.004548975988154215
Epoch: 24300, Error: 0.004560666143304767
Epoch: 24400, Error: 0.004511689896748441
Epoch: 24500, Error: 0.004525577600281257
Epoch: 24600, Error: 0.004523164715368107
Epoch: 24700, Error: 0.004468761244527223
Epoch: 24800, Error: 0.004431319600408974
Epoch: 24900, Error: 0.004436905751985175
Epoch: 25000, Error: 0.00441628372993091
Epoch: 25100, Error: 0.004442614874095561
Epoch: 25200, Error: 0.004399709957354902
Epoch: 25300, Error: 0.004356213753821546
Epoch: 25400, Error: 0.00433755668414894
Epoch: 25500, Error: 0.004337218434965303
Epoch: 25600, Error: 0.004347807807587169
Epoch: 25700, Error: 0.004289455391751564
Epoch: 25800, Error: 0.004259360179071307
Epoch: 25900, Error: 0.004216024674080232
Epoch: 26000, Error: 0.004213641836375107
Epoch: 26100, Error: 0.004164408135941682
Epoch: 26200, Error: 0.004149059716655301
Epoch: 26300, Error: 0.004118960717010004
Epoch: 26400, Error: 0.004094936554913876
Epoch: 26500, Error: 0.004073608759088097
Epoch: 26600, Error: 0.004130716842962886
Epoch: 26700, Error: 0.004049912031625355
Epoch: 26800, Error: 0.0040339933922808454
Epoch: 26900, Error: 0.003990861025559383
Epoch: 27000, Error: 0.003963563571638483
Epoch: 27100, Error: 0.003957925969659695
Epoch: 27200, Error: 0.003915712661853838
Epoch: 27300, Error: 0.0039020604603243647
Epoch: 27400, Error: 0.0038801655149225973
Epoch: 27500, Error: 0.003890680396969395
Epoch: 27600, Error: 0.0038577662593978243
Epoch: 27700, Error: 0.0038224196280081716
Epoch: 27800, Error: 0.0038197479292213714
Epoch: 27900, Error: 0.003774611172233502
Epoch: 28000, Error: 0.0037837895569363886
Epoch: 28100, Error: 0.00372099922334609
Epoch: 28200, Error: 0.003770962765407807
Epoch: 28300, Error: 0.003683229470157238
Epoch: 28400, Error: 0.003666873352851867
Epoch: 28500, Error: 0.003651202469422675
Epoch: 28600, Error: 0.0036172482787069993
Epoch: 28700, Error: 0.003641708624377139
Epoch: 28800, Error: 0.0035996780540865315
Epoch: 28900, Error: 0.0035544033185909898
Epoch: 29000, Error: 0.00355158335113611
Epoch: 29100, Error: 0.0035119903017756956
Epoch: 29200, Error: 0.00349169124575414
Epoch: 29300, Error: 0.0034825258182356266
Epoch: 29400, Error: 0.0034533170673583646
Epoch: 29500, Error: 0.003430444705567209
Epoch: 29600, Error: 0.0034172643506337093
Epoch: 29700, Error: 0.0034443355481011476
Epoch: 29800, Error: 0.0034094686250972536
Epoch: 29900, Error: 0.0034165345773566947
Epoch: 30000, Error: 0.0033800133352473545
Epoch: 30100, Error: 0.003371734395397651
Epoch: 30200, Error: 0.0033107369160319767
Epoch: 30300, Error: 0.003297740087807994
Epoch: 30400, Error: 0.00328656936938203
Epoch: 30500, Error: 0.003322067853884688
Epoch: 30600, Error: 0.0032418385246910544
Epoch: 30700, Error: 0.003215502158455011
Epoch: 30800, Error: 0.0031979637759508087
Epoch: 30900, Error: 0.003170095363457915
Epoch: 31000, Error: 0.003205952413109749
Epoch: 31100, Error: 0.0031985470869516034
Epoch: 31200, Error: 0.0031530472542960573
Epoch: 31300, Error: 0.003199958841460731
Epoch: 31400, Error: 0.003113873947004612
Epoch: 31500, Error: 0.0030826948171691773
Epoch: 31600, Error: 0.0031420631467304607
Epoch: 31700, Error: 0.0031173837149003148
Epoch: 31800, Error: 0.0030853890462567094
Epoch: 31900, Error: 0.003027577537496702
Epoch: 32000, Error: 0.0030037986124385164
Epoch: 32100, Error: 0.00299708911312236
Epoch: 32200, Error: 0.002980504481509145
Epoch: 32300, Error: 0.0029748072688907767
Epoch: 32400, Error: 0.002943420958046876
Epoch: 32500, Error: 0.0029081131588061166
Epoch: 32600, Error: 0.0028944077247275023
Epoch: 32700, Error: 0.0028713746632443803
Epoch: 32800, Error: 0.002856642053493915
Epoch: 32900, Error: 0.002846407893992545
Epoch: 33000, Error: 0.0028124483463942656
Epoch: 33100, Error: 0.002807693527894367
Epoch: 33200, Error: 0.002768293674458132
Epoch: 33300, Error: 0.0028684770796588697
Epoch: 33400, Error: 0.0027333272785843047
Epoch: 33500, Error: 0.0027219089531941784
Epoch: 33600, Error: 0.002687935772015326
Epoch: 33700, Error: 0.0026816164468859605
Epoch: 33800, Error: 0.0026628161016204015
Epoch: 33900, Error: 0.002653906434112965
Epoch: 34000, Error: 0.00268314215980368
Epoch: 34100, Error: 0.0026261149886538213
Epoch: 34200, Error: 0.0026323955848668915
Epoch: 34300, Error: 0.0026527814046239584
Epoch: 34400, Error: 0.0026274156744222573
Epoch: 34500, Error: 0.002590941484612279
Epoch: 34600, Error: 0.002554885908915725
Epoch: 34700, Error: 0.002526048438806389
Epoch: 34800, Error: 0.0025158810169108384
Epoch: 34900, Error: 0.0025105464605362274
Epoch: 35000, Error: 0.0025398416697186687
Epoch: 35100, Error: 0.0024348006430787166
Epoch: 35200, Error: 0.0024904646289546153
Epoch: 35300, Error: 0.0024148402918555568
Epoch: 35400, Error: 0.002440249734749289
Epoch: 35500, Error: 0.0024532368281955726
Epoch: 35600, Error: 0.0023932436070157573
Epoch: 35700, Error: 0.0023584793418725074
Epoch: 35800, Error: 0.002364038568105402
Epoch: 35900, Error: 0.0023490685960295566
Epoch: 36000, Error: 0.0023230910892397
Epoch: 36100, Error: 0.002292334023839309
Epoch: 36200, Error: 0.0022819843215628292
Epoch: 36300, Error: 0.0022801334679214092
Epoch: 36400, Error: 0.0022583581418854164
Epoch: 36500, Error: 0.0022377739709579705
Epoch: 36600, Error: 0.0022356303623763275
Epoch: 36700, Error: 0.002220759133167119
Epoch: 36800, Error: 0.0021941524783677777
Epoch: 36900, Error: 0.002173778400075316
Epoch: 37000, Error: 0.0021879569488667218
Epoch: 37100, Error: 0.0021594196824740934
Epoch: 37200, Error: 0.002132375178002734
Epoch: 37300, Error: 0.0021127309595229712
Epoch: 37400, Error: 0.002103677140817056
Epoch: 37500, Error: 0.0020917701547997713
Epoch: 37600, Error: 0.0021022363944083297
Epoch: 37700, Error: 0.0020677085197284215
Epoch: 37800, Error: 0.0020512577498621124
Epoch: 37900, Error: 0.0020361441267866933
Epoch: 38000, Error: 0.0020501740725295077
Epoch: 38100, Error: 0.0021869902867920994
Epoch: 38200, Error: 0.0020410888641297013
Epoch: 38300, Error: 0.002027249201675506
Epoch: 38400, Error: 0.001983647948833927
Epoch: 38500, Error: 0.0019969882590164
Epoch: 38600, Error: 0.0019576192054427464
Epoch: 38700, Error: 0.0019631032577111076
Epoch: 38800, Error: 0.0019502379266116122
Epoch: 38900, Error: 0.0019192382407646343
Epoch: 39000, Error: 0.0019031372729326182
Epoch: 39100, Error: 0.0018922805930287074
Epoch: 39200, Error: 0.0019456660967478142
Epoch: 39300, Error: 0.0018849576802289242
Epoch: 39400, Error: 0.0019057156565750453
Epoch: 39500, Error: 0.0018908577046710254
Epoch: 39600, Error: 0.0018598713623820028
Epoch: 39700, Error: 0.0018560466239433025
Epoch: 39800, Error: 0.0018633901677747506
Epoch: 39900, Error: 0.0018180897640229174
Epoch: 40000, Error: 0.0018047596119370433
Epoch: 40100, Error: 0.0018024960046010862
Epoch: 40200, Error: 0.0017878050138058997
Epoch: 40300, Error: 0.0017915530147844826
Epoch: 40400, Error: 0.0017687226979722736
Epoch: 40500, Error: 0.0017583765670067396
Epoch: 40600, Error: 0.001756090426615819
Epoch: 40700, Error: 0.0017627044326059321
Epoch: 40800, Error: 0.0017283042174484542
Epoch: 40900, Error: 0.0017205629205705477
Epoch: 41000, Error: 0.001708704158496017
Epoch: 41100, Error: 0.0017519347823092175
Epoch: 41200, Error: 0.0016962508074529837
Epoch: 41300, Error: 0.0016998981960194444
Epoch: 41400, Error: 0.0016818223754189589
Epoch: 41500, Error: 0.0016776964798997475
Epoch: 41600, Error: 0.0017116589425322628
Epoch: 41700, Error: 0.0016957491445900098
Epoch: 41800, Error: 0.0016541011943738495
Epoch: 41900, Error: 0.0016475763763418839
Epoch: 42000, Error: 0.0016339024350515811
Epoch: 42100, Error: 0.0016496546214012449
Epoch: 42200, Error: 0.0016586281192724145
Epoch: 42300, Error: 0.0016519160117209881
Epoch: 42400, Error: 0.001639209258160389
Epoch: 42500, Error: 0.0016040372737136893
Epoch: 42600, Error: 0.0016111384034522632
Epoch: 42700, Error: 0.0016901221303610118
Epoch: 42800, Error: 0.0015940751956814454
Epoch: 42900, Error: 0.0015840656644841463
Epoch: 43000, Error: 0.001586824430731607
Epoch: 43100, Error: 0.001582764587669844
Epoch: 43200, Error: 0.0015645560707713995
Epoch: 43300, Error: 0.0015868364833818687
Epoch: 43400, Error: 0.0015611719862585185
Epoch: 43500, Error: 0.001673528908389904
Epoch: 43600, Error: 0.0015694230948592569
Epoch: 43700, Error: 0.0015502211528559378
Epoch: 43800, Error: 0.0015578061337991147
Epoch: 43900, Error: 0.0015351826664876322
Epoch: 44000, Error: 0.0015345386061391003
Epoch: 44100, Error: 0.0015258520799930422
Epoch: 44200, Error: 0.0015595235193180043
Epoch: 44300, Error: 0.0015181938359033532
Epoch: 44400, Error: 0.0015163609400157274
Epoch: 44500, Error: 0.0015128924759365311
Epoch: 44600, Error: 0.0015315422186990932
Epoch: 44700, Error: 0.0015144431848509133
Epoch: 44800, Error: 0.0015125988417014004
Epoch: 44900, Error: 0.0015035576548505035
Epoch: 45000, Error: 0.0014941768799555295
Epoch: 45100, Error: 0.001504031337135926
Epoch: 45200, Error: 0.0014962541687913156
Epoch: 45300, Error: 0.0014825746156225338
Epoch: 45400, Error: 0.0014702582427911692
Epoch: 45500, Error: 0.0014829930570293538
Epoch: 45600, Error: 0.0014640731635934595
Epoch: 45700, Error: 0.0014621031751107466
Epoch: 45800, Error: 0.0014551674598295141
Epoch: 45900, Error: 0.0014467759826119464
Epoch: 46000, Error: 0.001436037627406392
Epoch: 46100, Error: 0.001440467670116818
Epoch: 46200, Error: 0.001431485906429033
Epoch: 46300, Error: 0.0014316246766833435
Epoch: 46400, Error: 0.0014197582074938744
Epoch: 46500, Error: 0.0014302895516704695
Epoch: 46600, Error: 0.0014217997168254122
Epoch: 46700, Error: 0.001437970449015411
Epoch: 46800, Error: 0.0014187423576975087
Epoch: 46900, Error: 0.0014061502671834194
Epoch: 47000, Error: 0.0014098249435555398
Epoch: 47100, Error: 0.00140652952176144
Epoch: 47200, Error: 0.0013995398018722424
Epoch: 47300, Error: 0.0013930718837673447
Epoch: 47400, Error: 0.0013867228277300997
Epoch: 47500, Error: 0.0013835443548812837
Epoch: 47600, Error: 0.0013778004036780628
Epoch: 47700, Error: 0.0014083699625218819
Epoch: 47800, Error: 0.0013700158300248182
Epoch: 47900, Error: 0.0013615643910688021
Epoch: 48000, Error: 0.0013699942232212347
Epoch: 48100, Error: 0.0013546761551453646
Epoch: 48200, Error: 0.0013599796838795473
Epoch: 48300, Error: 0.0013448272127044782
Epoch: 48400, Error: 0.0013392244008034518
Epoch: 48500, Error: 0.0013337779088968991
Epoch: 48600, Error: 0.0013402486317874295
Epoch: 48700, Error: 0.0013209056916246315
Epoch: 48800, Error: 0.0013187332886370375
Epoch: 48900, Error: 0.001324577642094793
Epoch: 49000, Error: 0.0013098229293213963
Epoch: 49100, Error: 0.0013328154425706084
Epoch: 49200, Error: 0.0013027181644641554
Epoch: 49300, Error: 0.0013137022863724422
Epoch: 49400, Error: 0.0013149191695934718
Epoch: 49500, Error: 0.001298136379292735
Epoch: 49600, Error: 0.0012919334386438416
Epoch: 49700, Error: 0.0012879297037118153
Finished
