Input Patterns
0.224 0.624 0.067 0.043 
0.11 0.502 0.051 0.043 
0.196 0.667 0.067 0.043 
0.055 0.584 0.067 0.082 
0.027 0.376 0.067 0.043 
0.306 0.71 0.086 0.043 
0.137 0.416 0.067 0.0 
0.416 0.831 0.035 0.043 
0.306 0.792 0.051 0.125 
0.388 0.749 0.118 0.082 
0.306 0.584 0.118 0.043 
0.082 0.667 0.0 0.043 
0.137 0.584 0.153 0.043 
0.196 0.584 0.102 0.125 
0.251 0.584 0.067 0.043 
0.137 0.459 0.102 0.043 
0.251 0.875 0.086 0.0 
0.165 0.459 0.086 0.043 
0.333 0.624 0.051 0.043 
0.027 0.416 0.051 0.043 
0.196 0.624 0.051 0.082 
0.027 0.502 0.051 0.043 
0.224 0.749 0.153 0.125 
0.224 0.749 0.102 0.043 
0.278 0.71 0.086 0.043 
0.165 0.416 0.067 0.043 
0.082 0.459 0.086 0.043 
0.306 0.792 0.118 0.125 
0.196 0.584 0.086 0.043 
0.165 0.459 0.086 0.0 
0.137 0.584 0.102 0.043 
0.0 0.416 0.016 0.0 
0.388 1.0 0.086 0.125 
0.224 0.624 0.067 0.082 
0.224 0.749 0.086 0.082 
0.224 0.71 0.086 0.125 
0.224 0.541 0.118 0.165 
0.196 0.416 0.102 0.043 
0.251 0.624 0.086 0.043 
0.11 0.502 0.102 0.043 
0.306 0.584 0.086 0.125 
0.333 0.918 0.067 0.043 
0.196 0.502 0.035 0.043 
0.165 0.667 0.067 0.0 
0.224 0.584 0.086 0.043 
0.055 0.125 0.051 0.082 
0.196 0.624 0.102 0.208 
0.137 0.416 0.067 0.082 
0.082 0.502 0.067 0.043 
0.196 0.541 0.067 0.043 
0.749 0.502 0.627 0.541 
0.722 0.459 0.663 0.584 
0.612 0.333 0.612 0.584 
0.557 0.541 0.627 0.624 
0.639 0.376 0.612 0.498 
0.196 0.0 0.424 0.376 
0.471 0.082 0.51 0.376 
0.361 0.376 0.439 0.498 
0.361 0.416 0.592 0.584 
0.529 0.082 0.592 0.584 
0.443 0.502 0.643 0.459 
0.557 0.208 0.663 0.584 
0.584 0.376 0.561 0.498 
0.694 0.333 0.643 0.541 
0.471 0.376 0.592 0.584 
0.333 0.169 0.475 0.416 
0.416 0.29 0.49 0.459 
0.306 0.416 0.592 0.584 
0.667 0.459 0.627 0.584 
0.361 0.416 0.525 0.498 
0.333 0.251 0.576 0.459 
0.416 0.251 0.51 0.459 
0.361 0.29 0.541 0.498 
0.388 0.376 0.541 0.498 
0.224 0.208 0.337 0.416 
0.584 0.502 0.592 0.584 
0.333 0.125 0.51 0.498 
0.388 0.333 0.592 0.498 
0.165 0.169 0.388 0.376 
0.251 0.29 0.49 0.541 
0.443 0.416 0.541 0.584 
0.498 0.376 0.627 0.541 
0.667 0.459 0.576 0.541 
0.416 0.29 0.525 0.376 
0.361 0.208 0.49 0.416 
0.498 0.333 0.51 0.498 
0.498 0.333 0.627 0.459 
0.639 0.416 0.576 0.541 
0.667 0.416 0.678 0.667 
0.388 0.251 0.424 0.376 
0.333 0.169 0.459 0.376 
0.471 0.29 0.694 0.624 
0.471 0.584 0.592 0.624 
0.557 0.125 0.576 0.498 
0.333 0.208 0.51 0.498 
0.498 0.416 0.612 0.541 
0.196 0.125 0.388 0.376 
0.388 0.416 0.541 0.459 
0.529 0.376 0.561 0.498 
0.388 0.333 0.525 0.498 
0.557 0.541 0.847 1.0 
0.776 0.416 0.831 0.831 
0.612 0.416 0.812 0.875 
0.165 0.208 0.592 0.667 
0.667 0.208 0.812 0.71 
0.612 0.502 0.694 0.792 
0.694 0.416 0.761 0.831 
0.416 0.333 0.694 0.957 
0.612 0.416 0.761 0.71 
0.945 0.251 1.0 0.918 
0.722 0.502 0.796 0.918 
0.945 0.333 0.965 0.792 
0.667 0.541 0.796 0.831 
0.529 0.333 0.643 0.71 
0.584 0.333 0.78 0.831 
0.863 0.333 0.863 0.749 
0.584 0.333 0.78 0.875 
0.498 0.251 0.78 0.541 
0.557 0.584 0.78 0.957 
0.471 0.416 0.643 0.71 
0.667 0.459 0.78 0.957 
0.416 0.29 0.694 0.749 
0.667 0.541 0.796 1.0 
0.557 0.208 0.678 0.749 
0.529 0.584 0.745 0.918 
0.416 0.29 0.694 0.749 
0.557 0.376 0.78 0.71 
0.918 0.416 0.949 0.831 
0.835 0.376 0.898 0.71 
0.804 0.667 0.863 1.0 
0.584 0.29 0.729 0.749 
0.388 0.208 0.678 0.792 
0.584 0.502 0.729 0.918 
0.945 0.749 0.965 0.875 
0.471 0.082 0.678 0.584 
0.361 0.333 0.663 0.792 
0.557 0.29 0.663 0.71 
0.804 0.502 0.847 0.71 
0.498 0.416 0.51 0.71 
0.804 0.416 0.812 0.624 
1.0 0.749 0.914 0.792 
0.557 0.333 0.694 0.584 
0.945 0.416 0.863 0.918 
0.584 0.459 0.761 0.71 
0.722 0.459 0.745 0.831 
0.722 0.459 0.694 0.918 
0.694 0.502 0.831 0.918 
0.667 0.416 0.714 0.918 
0.612 0.416 0.714 0.792 
0.443 0.416 0.694 0.71 
Teaching Patterns
1.0 0.0 0.0 
1.0 0.0 0.0 
1.0 0.0 0.0 
1.0 0.0 0.0 
1.0 0.0 0.0 
1.0 0.0 0.0 
1.0 0.0 0.0 
1.0 0.0 0.0 
1.0 0.0 0.0 
1.0 0.0 0.0 
1.0 0.0 0.0 
1.0 0.0 0.0 
1.0 0.0 0.0 
1.0 0.0 0.0 
1.0 0.0 0.0 
1.0 0.0 0.0 
1.0 0.0 0.0 
1.0 0.0 0.0 
1.0 0.0 0.0 
1.0 0.0 0.0 
1.0 0.0 0.0 
1.0 0.0 0.0 
1.0 0.0 0.0 
1.0 0.0 0.0 
1.0 0.0 0.0 
1.0 0.0 0.0 
1.0 0.0 0.0 
1.0 0.0 0.0 
1.0 0.0 0.0 
1.0 0.0 0.0 
1.0 0.0 0.0 
1.0 0.0 0.0 
1.0 0.0 0.0 
1.0 0.0 0.0 
1.0 0.0 0.0 
1.0 0.0 0.0 
1.0 0.0 0.0 
1.0 0.0 0.0 
1.0 0.0 0.0 
1.0 0.0 0.0 
1.0 0.0 0.0 
1.0 0.0 0.0 
1.0 0.0 0.0 
1.0 0.0 0.0 
1.0 0.0 0.0 
1.0 0.0 0.0 
1.0 0.0 0.0 
1.0 0.0 0.0 
1.0 0.0 0.0 
1.0 0.0 0.0 
0.0 1.0 0.0 
0.0 1.0 0.0 
0.0 1.0 0.0 
0.0 1.0 0.0 
0.0 1.0 0.0 
0.0 1.0 0.0 
0.0 1.0 0.0 
0.0 1.0 0.0 
0.0 1.0 0.0 
0.0 1.0 0.0 
0.0 1.0 0.0 
0.0 1.0 0.0 
0.0 1.0 0.0 
0.0 1.0 0.0 
0.0 1.0 0.0 
0.0 1.0 0.0 
0.0 1.0 0.0 
0.0 1.0 0.0 
0.0 1.0 0.0 
0.0 1.0 0.0 
0.0 1.0 0.0 
0.0 1.0 0.0 
0.0 1.0 0.0 
0.0 1.0 0.0 
0.0 1.0 0.0 
0.0 1.0 0.0 
0.0 1.0 0.0 
0.0 1.0 0.0 
0.0 1.0 0.0 
0.0 1.0 0.0 
0.0 1.0 0.0 
0.0 1.0 0.0 
0.0 1.0 0.0 
0.0 1.0 0.0 
0.0 1.0 0.0 
0.0 1.0 0.0 
0.0 1.0 0.0 
0.0 1.0 0.0 
0.0 1.0 0.0 
0.0 1.0 0.0 
0.0 1.0 0.0 
0.0 1.0 0.0 
0.0 1.0 0.0 
0.0 1.0 0.0 
0.0 1.0 0.0 
0.0 1.0 0.0 
0.0 1.0 0.0 
0.0 1.0 0.0 
0.0 1.0 0.0 
0.0 1.0 0.0 
0.0 0.0 1.0 
0.0 0.0 1.0 
0.0 0.0 1.0 
0.0 0.0 1.0 
0.0 0.0 1.0 
0.0 0.0 1.0 
0.0 0.0 1.0 
0.0 0.0 1.0 
0.0 0.0 1.0 
0.0 0.0 1.0 
0.0 0.0 1.0 
0.0 0.0 1.0 
0.0 0.0 1.0 
0.0 0.0 1.0 
0.0 0.0 1.0 
0.0 0.0 1.0 
0.0 0.0 1.0 
0.0 0.0 1.0 
0.0 0.0 1.0 
0.0 0.0 1.0 
0.0 0.0 1.0 
0.0 0.0 1.0 
0.0 0.0 1.0 
0.0 0.0 1.0 
0.0 0.0 1.0 
0.0 0.0 1.0 
0.0 0.0 1.0 
0.0 0.0 1.0 
0.0 0.0 1.0 
0.0 0.0 1.0 
0.0 0.0 1.0 
0.0 0.0 1.0 
0.0 0.0 1.0 
0.0 0.0 1.0 
0.0 0.0 1.0 
0.0 0.0 1.0 
0.0 0.0 1.0 
0.0 0.0 1.0 
0.0 0.0 1.0 
0.0 0.0 1.0 
0.0 0.0 1.0 
0.0 0.0 1.0 
0.0 0.0 1.0 
0.0 0.0 1.0 
0.0 0.0 1.0 
0.0 0.0 1.0 
0.0 0.0 1.0 
0.0 0.0 1.0 
0.0 0.0 1.0 
0.0 0.0 1.0 
Learning : 0.05
Momentum : 0.699999988079071
Epoch: 100, Error: 0.0327729269672733
Epoch: 200, Error: 0.01833959464377346
Epoch: 300, Error: 0.015586341171760384
Epoch: 400, Error: 0.014357188584623664
Epoch: 500, Error: 0.014082023365000277
Epoch: 600, Error: 0.013341513842311782
Epoch: 700, Error: 0.013104189951392974
Epoch: 800, Error: 0.012829634975356866
Epoch: 900, Error: 0.012622722235889401
Epoch: 1000, Error: 0.012608474329464082
Epoch: 1100, Error: 0.012470803705253802
Epoch: 1200, Error: 0.012350234374862726
Epoch: 1300, Error: 0.012409427891386614
Epoch: 1400, Error: 0.012296770272797845
Epoch: 1500, Error: 0.0122181481382396
Epoch: 1600, Error: 0.012256168991839731
Epoch: 1700, Error: 0.012138129413967285
Epoch: 1800, Error: 0.012292956886587532
Epoch: 1900, Error: 0.012073213436294344
Epoch: 2000, Error: 0.012071549081587564
Epoch: 2100, Error: 0.012066318573588409
Epoch: 2200, Error: 0.01205930728641393
Epoch: 2300, Error: 0.012072308154258094
Epoch: 2400, Error: 0.012094185259033491
Epoch: 2500, Error: 0.012081442014189744
Epoch: 2600, Error: 0.012112311478657194
Epoch: 2700, Error: 0.012007910561349628
Epoch: 2800, Error: 0.01206406952151539
Epoch: 2900, Error: 0.012015627916892601
Epoch: 3000, Error: 0.011980130137768831
Epoch: 3100, Error: 0.011974914219540243
Epoch: 3200, Error: 0.011972175942140135
Epoch: 3300, Error: 0.011983028821819994
Epoch: 3400, Error: 0.011930521624945685
Epoch: 3500, Error: 0.011999855412998967
Epoch: 3600, Error: 0.011946997724932166
Epoch: 3700, Error: 0.011992387711481551
Epoch: 3800, Error: 0.012045827354505998
Epoch: 3900, Error: 0.011980521197343283
Epoch: 4000, Error: 0.011961497168852695
Epoch: 4100, Error: 0.011941389502591214
Epoch: 4200, Error: 0.011930405678210824
Epoch: 4300, Error: 0.011956863356151856
Epoch: 4400, Error: 0.011943947682142112
Epoch: 4500, Error: 0.012310473703410511
Epoch: 4600, Error: 0.011959375559683775
Epoch: 4700, Error: 0.01192479252835623
Epoch: 4800, Error: 0.011922944257307843
Epoch: 4900, Error: 0.011966788745635878
Epoch: 5000, Error: 0.011930936992203267
Epoch: 5100, Error: 0.011938489973217952
Epoch: 5200, Error: 0.011968587519594832
Epoch: 5300, Error: 0.01198289586582418
Epoch: 5400, Error: 0.011881458323475673
Epoch: 5500, Error: 0.011882822096853785
Epoch: 5600, Error: 0.011894402406875785
Epoch: 5700, Error: 0.011890541849894487
Epoch: 5800, Error: 0.011880415387783406
Epoch: 5900, Error: 0.011856563327728494
Epoch: 6000, Error: 0.011876536941773121
Epoch: 6100, Error: 0.01192763944404771
Epoch: 6200, Error: 0.011873085973438731
Epoch: 6300, Error: 0.01183538928895644
Epoch: 6400, Error: 0.011843223118431303
Epoch: 6500, Error: 0.011844916795507678
Epoch: 6600, Error: 0.011818036964055109
Epoch: 6700, Error: 0.011842588033714638
Epoch: 6800, Error: 0.0117663713891647
Epoch: 6900, Error: 0.011755672903727058
Epoch: 7000, Error: 0.011796908745228407
Epoch: 7100, Error: 0.011749318567271233
Epoch: 7200, Error: 0.011708613376879725
Epoch: 7300, Error: 0.011690119769411107
Epoch: 7400, Error: 0.011723195387184509
Epoch: 7500, Error: 0.01163338203425356
Epoch: 7600, Error: 0.011673034338250152
Epoch: 7700, Error: 0.011732922341951136
Epoch: 7800, Error: 0.011584170102978054
Epoch: 7900, Error: 0.011508023393208437
Epoch: 8000, Error: 0.011680991384884246
Epoch: 8100, Error: 0.011487963667465604
Epoch: 8200, Error: 0.011400528078908831
Epoch: 8300, Error: 0.011384400694771465
Epoch: 8400, Error: 0.011363705242720946
Epoch: 8500, Error: 0.011425968007033863
Epoch: 8600, Error: 0.011290493264350863
Epoch: 8700, Error: 0.011215785723948775
Epoch: 8800, Error: 0.01116838320677523
Epoch: 8900, Error: 0.011078171779040972
Epoch: 9000, Error: 0.011035668456208219
Epoch: 9100, Error: 0.01096350777406746
Epoch: 9200, Error: 0.010896372768875801
Epoch: 9300, Error: 0.01080517115890485
Epoch: 9400, Error: 0.010743142722639543
Epoch: 9500, Error: 0.010659478074620685
Epoch: 9600, Error: 0.010604672903528109
Epoch: 9700, Error: 0.010466641293736336
Epoch: 9800, Error: 0.010454955476854443
Epoch: 9900, Error: 0.010348147945658338
Epoch: 10000, Error: 0.010159432672054769
Epoch: 10100, Error: 0.010034671430758077
Epoch: 10200, Error: 0.009917259868045066
Epoch: 10300, Error: 0.009802017966476556
Epoch: 10400, Error: 0.009669250168263343
Epoch: 10500, Error: 0.009554692818129769
Epoch: 10600, Error: 0.00942856536883878
Epoch: 10700, Error: 0.009289134719818322
Epoch: 10800, Error: 0.009152497460214766
Epoch: 10900, Error: 0.009179449910682709
Epoch: 11000, Error: 0.008920807776924302
Epoch: 11100, Error: 0.008740312754211355
Epoch: 11200, Error: 0.008645948541131585
Epoch: 11300, Error: 0.008538208884804402
Epoch: 11400, Error: 0.008381129661690474
Epoch: 11500, Error: 0.008293243564580343
Epoch: 11600, Error: 0.008179451686332563
Epoch: 11700, Error: 0.008059168519727178
Epoch: 11800, Error: 0.007933357536920281
Epoch: 11900, Error: 0.007888798750549892
Epoch: 12000, Error: 0.007727732804144162
Epoch: 12100, Error: 0.007669916244773734
Epoch: 12200, Error: 0.0075177874003442505
Epoch: 12300, Error: 0.007425212625180351
Epoch: 12400, Error: 0.007351324023685541
Epoch: 12500, Error: 0.007271557798054147
Epoch: 12600, Error: 0.007186014487205625
Epoch: 12700, Error: 0.00712029955377372
Epoch: 12800, Error: 0.007044493264646824
Epoch: 12900, Error: 0.006986370841533609
Epoch: 13000, Error: 0.006934006936299228
Epoch: 13100, Error: 0.006880489081153559
Epoch: 13200, Error: 0.006824203234943041
Epoch: 13300, Error: 0.0067693377258809875
Epoch: 13400, Error: 0.006719137235228349
Epoch: 13500, Error: 0.006687696358292134
Epoch: 13600, Error: 0.0066334248081571625
Epoch: 13700, Error: 0.0066061370163805885
Epoch: 13800, Error: 0.006548691663974324
Epoch: 13900, Error: 0.006526097154982284
Epoch: 14000, Error: 0.006472627758686265
Epoch: 14100, Error: 0.006433499649995161
Epoch: 14200, Error: 0.006453142946522035
Epoch: 14300, Error: 0.00640440607925283
Epoch: 14400, Error: 0.0063416445636262225
Epoch: 14500, Error: 0.006323159478540654
Epoch: 14600, Error: 0.0062851386101190655
Epoch: 14700, Error: 0.006268282056862764
Epoch: 14800, Error: 0.006292318009388164
Epoch: 14900, Error: 0.006215313466278491
Epoch: 15000, Error: 0.006196520567951454
Epoch: 15100, Error: 0.006193737409439282
Epoch: 15200, Error: 0.006164990133738429
Epoch: 15300, Error: 0.006147497735401498
Epoch: 15400, Error: 0.006129688365211549
Epoch: 15500, Error: 0.006153138725133285
Epoch: 15600, Error: 0.006096734903392785
Epoch: 15700, Error: 0.00609599475568478
Epoch: 15800, Error: 0.006110294140063537
Epoch: 15900, Error: 0.00609056873074538
Epoch: 16000, Error: 0.006066907918438188
Epoch: 16100, Error: 0.006063742177553878
Epoch: 16200, Error: 0.006041287390599167
Epoch: 16300, Error: 0.00604330761030837
Epoch: 16400, Error: 0.006026577852047504
Epoch: 16500, Error: 0.006029919012398395
Epoch: 16600, Error: 0.006005813609326829
Epoch: 16700, Error: 0.005991067545622427
Epoch: 16800, Error: 0.00596264382670516
Epoch: 16900, Error: 0.0059521116043538495
Epoch: 17000, Error: 0.005966271619554949
Epoch: 17100, Error: 0.005920865725003175
Epoch: 17200, Error: 0.00592476748797505
Epoch: 17300, Error: 0.005915416288598368
Epoch: 17400, Error: 0.005922735345631062
Epoch: 17500, Error: 0.005895602434475521
Epoch: 17600, Error: 0.005884390029138813
Epoch: 17700, Error: 0.00587676395672828
Epoch: 17800, Error: 0.00586167403025353
Epoch: 17900, Error: 0.005866429604494384
Epoch: 18000, Error: 0.00586222088927989
Epoch: 18100, Error: 0.0058452841235213
Epoch: 18200, Error: 0.005817614055900414
Epoch: 18300, Error: 0.005838726251538819
Epoch: 18400, Error: 0.005821305443062759
Epoch: 18500, Error: 0.005811992795408952
Epoch: 18600, Error: 0.005797314774613845
Epoch: 18700, Error: 0.005771157645394749
Epoch: 18800, Error: 0.005764765203344911
Epoch: 18900, Error: 0.005755414512436812
Epoch: 19000, Error: 0.005733538931497382
Epoch: 19100, Error: 0.005733008385941622
Epoch: 19200, Error: 0.0057385198594117285
Epoch: 19300, Error: 0.005680837930869808
Epoch: 19400, Error: 0.005678671637950174
Epoch: 19500, Error: 0.0056858404384966844
Epoch: 19600, Error: 0.005662469396984851
Epoch: 19700, Error: 0.005647704987940313
Epoch: 19800, Error: 0.00561906810007966
Epoch: 19900, Error: 0.005599163269910578
Epoch: 20000, Error: 0.0056066070305877585
Epoch: 20100, Error: 0.00558882002757496
Epoch: 20200, Error: 0.005574095261673157
Epoch: 20300, Error: 0.005538547766390726
Epoch: 20400, Error: 0.005524856305941056
Epoch: 20500, Error: 0.0055426929771100605
Epoch: 20600, Error: 0.005527212664789875
Epoch: 20700, Error: 0.005520224080783552
Epoch: 20800, Error: 0.005503722265488068
Epoch: 20900, Error: 0.00549491114650961
Epoch: 21000, Error: 0.005518455507353455
Epoch: 21100, Error: 0.005459126778510216
Epoch: 21200, Error: 0.005448957763421108
Epoch: 21300, Error: 0.0054135384638012395
Epoch: 21400, Error: 0.005389384035456708
Epoch: 21500, Error: 0.005343420058841671
Epoch: 21600, Error: 0.00530970128151706
Epoch: 21700, Error: 0.0053210831571576895
Epoch: 21800, Error: 0.005265986001772689
Epoch: 21900, Error: 0.005263610529074777
Epoch: 22000, Error: 0.005245727441147778
Epoch: 22100, Error: 0.005237535014906857
Epoch: 22200, Error: 0.005209880891479749
Epoch: 22300, Error: 0.0051768280528404305
Epoch: 22400, Error: 0.005160454545983742
Epoch: 22500, Error: 0.005120323601172909
Epoch: 22600, Error: 0.005102525997138015
Epoch: 22700, Error: 0.005120516673359657
Epoch: 22800, Error: 0.0050497878928931605
Epoch: 22900, Error: 0.005038733356490005
Epoch: 23000, Error: 0.0049679047572125335
Epoch: 23100, Error: 0.00493853992855418
Epoch: 23200, Error: 0.0049207857731407255
Epoch: 23300, Error: 0.004952278037510325
Epoch: 23400, Error: 0.004905092379216584
Epoch: 23500, Error: 0.004853286991017664
Epoch: 23600, Error: 0.00478872156150645
Epoch: 23700, Error: 0.004855076114382683
Epoch: 23800, Error: 0.0047804771343854975
Epoch: 23900, Error: 0.004760766774901576
Epoch: 24000, Error: 0.0047328710943389685
Epoch: 24100, Error: 0.004697653172588656
Epoch: 24200, Error: 0.004677707753886837
Epoch: 24300, Error: 0.0046705794213680865
Epoch: 24400, Error: 0.00462459900725858
Epoch: 24500, Error: 0.0045944308681278795
Epoch: 24600, Error: 0.004600943295789694
Epoch: 24700, Error: 0.004546785613319945
Epoch: 24800, Error: 0.004549341896865362
Epoch: 24900, Error: 0.004586972496463275
Epoch: 25000, Error: 0.004501832540250883
Epoch: 25100, Error: 0.004487888192610873
Epoch: 25200, Error: 0.004443247586963628
Epoch: 25300, Error: 0.0044572601431884925
Epoch: 25400, Error: 0.0043939951663737
Epoch: 25500, Error: 0.004396882206845096
Epoch: 25600, Error: 0.0043650009805412835
Epoch: 25700, Error: 0.004370859524826347
Epoch: 25800, Error: 0.004318785914970424
Epoch: 25900, Error: 0.004286358286849791
Epoch: 26000, Error: 0.004243634309491307
Epoch: 26100, Error: 0.0042248301972323855
Epoch: 26200, Error: 0.004194149379730991
Epoch: 26300, Error: 0.004176347321229782
Epoch: 26400, Error: 0.004196191225186674
Epoch: 26500, Error: 0.004141502574651024
Epoch: 26600, Error: 0.004101258250991997
Epoch: 26700, Error: 0.004091809775624255
Epoch: 26800, Error: 0.00407180280481606
Epoch: 26900, Error: 0.004033876354132099
Epoch: 27000, Error: 0.0040014565524357885
Epoch: 27100, Error: 0.003986223460905716
Epoch: 27200, Error: 0.00396765453448623
Epoch: 27300, Error: 0.003984125114569527
Epoch: 27400, Error: 0.003972869999450548
Epoch: 27500, Error: 0.003900961102527508
Epoch: 27600, Error: 0.00386846004675773
Epoch: 27700, Error: 0.0038714615086872933
Epoch: 27800, Error: 0.0038271281610003133
Epoch: 27900, Error: 0.0038433030560587845
Epoch: 28000, Error: 0.0037785807338564605
Epoch: 28100, Error: 0.0037767759634317857
Epoch: 28200, Error: 0.003732235352301913
Epoch: 28300, Error: 0.0037086277036786353
Epoch: 28400, Error: 0.003693570091157136
Epoch: 28500, Error: 0.0038018304929602347
Epoch: 28600, Error: 0.0036515100312339305
Epoch: 28700, Error: 0.00364555475678005
Epoch: 28800, Error: 0.003631346921247904
Epoch: 28900, Error: 0.0035867279352830325
Epoch: 29000, Error: 0.003567391900943003
Epoch: 29100, Error: 0.0035709273162712134
Epoch: 29200, Error: 0.0035137303054091143
Epoch: 29300, Error: 0.0035095583042498244
Epoch: 29400, Error: 0.0034883430230625394
Epoch: 29500, Error: 0.003509434264881816
Epoch: 29600, Error: 0.003458186966423866
Epoch: 29700, Error: 0.0035003340881298826
Epoch: 29800, Error: 0.0035098958988445425
Epoch: 29900, Error: 0.00343394986125996
Epoch: 30000, Error: 0.003427995634270936
Epoch: 30100, Error: 0.0033899896506622753
Epoch: 30200, Error: 0.0034883567116546503
Epoch: 30300, Error: 0.003352789994204815
Epoch: 30400, Error: 0.0034041783166859035
Epoch: 30500, Error: 0.0033074835336025996
Epoch: 30600, Error: 0.0032843399602918055
Epoch: 30700, Error: 0.003433049871509164
Epoch: 30800, Error: 0.0032939054324277947
Epoch: 30900, Error: 0.0032211688558401574
Epoch: 31000, Error: 0.0032067419518908664
Epoch: 31100, Error: 0.003225543594255503
Epoch: 31200, Error: 0.003270165691289365
Epoch: 31300, Error: 0.0031432195641712887
Epoch: 31400, Error: 0.0031439501087020425
Epoch: 31500, Error: 0.0031117913033135098
Epoch: 31600, Error: 0.0030829584405116382
Epoch: 31700, Error: 0.0031206283464147388
Epoch: 31800, Error: 0.003089120300289726
Epoch: 31900, Error: 0.003030302048702975
Epoch: 32000, Error: 0.0031124504042227296
Epoch: 32100, Error: 0.00298896504226847
Epoch: 32200, Error: 0.0030077981732963316
Epoch: 32300, Error: 0.0029488852997534504
Epoch: 32400, Error: 0.0029442166548076638
Epoch: 32500, Error: 0.0030102020123123096
Epoch: 32600, Error: 0.002900169681200442
Epoch: 32700, Error: 0.002875837474958454
Epoch: 32800, Error: 0.003076381134117021
Epoch: 32900, Error: 0.0028474388998554366
Epoch: 33000, Error: 0.00286337472510953
Epoch: 33100, Error: 0.002874936471390789
Epoch: 33200, Error: 0.002814749657691939
Epoch: 33300, Error: 0.002818559699891083
Epoch: 33400, Error: 0.0027952599140439534
Epoch: 33500, Error: 0.002845708462911363
Epoch: 33600, Error: 0.002763164829372719
Epoch: 33700, Error: 0.0027430980555365947
Epoch: 33800, Error: 0.002843932100778899
Epoch: 33900, Error: 0.0026964483004340402
Epoch: 34000, Error: 0.002690829938106051
Epoch: 34100, Error: 0.002675249518253699
Epoch: 34200, Error: 0.002653223057369148
Epoch: 34300, Error: 0.002647003917082075
Epoch: 34400, Error: 0.002627492220684673
Epoch: 34500, Error: 0.0026113208797493093
Epoch: 34600, Error: 0.0025966315796478773
Epoch: 34700, Error: 0.0026495861483220567
Epoch: 34800, Error: 0.002559782346252086
Epoch: 34900, Error: 0.0025459476356388556
Epoch: 35000, Error: 0.0025853632648929242
Epoch: 35100, Error: 0.002565842193877328
Epoch: 35200, Error: 0.0025885160257628366
Epoch: 35300, Error: 0.0025397406982037487
Epoch: 35400, Error: 0.002497403126171144
Epoch: 35500, Error: 0.00251197461099741
Epoch: 35600, Error: 0.002478450086344558
Epoch: 35700, Error: 0.002542975304770477
Epoch: 35800, Error: 0.0024687006981213154
Epoch: 35900, Error: 0.002480154266872723
Epoch: 36000, Error: 0.002501498013925487
Epoch: 36100, Error: 0.002458709429277785
Epoch: 36200, Error: 0.002433894967259864
Epoch: 36300, Error: 0.002424176443062546
Epoch: 36400, Error: 0.002424385000666673
Epoch: 36500, Error: 0.002408075369233322
Epoch: 36600, Error: 0.002415310376537329
Epoch: 36700, Error: 0.0024268697937834148
Epoch: 36800, Error: 0.0024845754965221625
Epoch: 36900, Error: 0.0023979277916835774
Epoch: 37000, Error: 0.002401821544514266
Epoch: 37100, Error: 0.0024094645192147975
Epoch: 37200, Error: 0.002401155131949969
Epoch: 37300, Error: 0.002376681664816194
Epoch: 37400, Error: 0.00248080803235799
Epoch: 37500, Error: 0.002360640782182339
Epoch: 37600, Error: 0.002368674288204234
Epoch: 37700, Error: 0.002384840597898442
Epoch: 37800, Error: 0.002416246110747466
Epoch: 37900, Error: 0.0023715991158808343
Epoch: 38000, Error: 0.0024404208997041285
Epoch: 38100, Error: 0.002328319440534276
Epoch: 38200, Error: 0.0023216389493254624
Epoch: 38300, Error: 0.002350019700907465
Epoch: 38400, Error: 0.002362538037505671
Epoch: 38500, Error: 0.0023668886856897174
Epoch: 38600, Error: 0.00230507182298063
Epoch: 38700, Error: 0.0023080124116580214
Epoch: 38800, Error: 0.0022975701248916973
Epoch: 38900, Error: 0.0023915202722712492
Epoch: 39000, Error: 0.002315368994218499
Epoch: 39100, Error: 0.0023332566910285873
Epoch: 39200, Error: 0.0022952192001086955
Epoch: 39300, Error: 0.0022810859523148697
Epoch: 39400, Error: 0.0023466388277784264
Epoch: 39500, Error: 0.002272013963220811
Epoch: 39600, Error: 0.002275847666318149
Epoch: 39700, Error: 0.002316913898303955
Epoch: 39800, Error: 0.0023086756111641796
Epoch: 39900, Error: 0.002283856286973543
Epoch: 40000, Error: 0.0023161885634702135
Epoch: 40100, Error: 0.00225963472860684
Epoch: 40200, Error: 0.0022483046486624996
Epoch: 40300, Error: 0.00221951361830168
Epoch: 40400, Error: 0.0022032550725699976
Epoch: 40500, Error: 0.0022049719237049827
Epoch: 40600, Error: 0.002206634642510143
Epoch: 40700, Error: 0.0021830304227388048
Epoch: 40800, Error: 0.002181620681156754
Epoch: 40900, Error: 0.0021434739506324334
Epoch: 41000, Error: 0.002156506207005313
Epoch: 41100, Error: 0.0021347472626048877
Epoch: 41200, Error: 0.002109367029726269
Epoch: 41300, Error: 0.0021350310616400172
Epoch: 41400, Error: 0.0021310087330065853
Epoch: 41500, Error: 0.002075631153912787
Epoch: 41600, Error: 0.0020648390650563698
Epoch: 41700, Error: 0.002065395174503866
Epoch: 41800, Error: 0.0020468285729398463
Epoch: 41900, Error: 0.0020396158157780235
Epoch: 42000, Error: 0.0020811387340935656
Epoch: 42100, Error: 0.002101359615959046
Epoch: 42200, Error: 0.0019943467328066215
Epoch: 42300, Error: 0.002000738757304492
Epoch: 42400, Error: 0.0019800543887557413
Epoch: 42500, Error: 0.0019673033449258857
Epoch: 42600, Error: 0.001977510928681704
Epoch: 42700, Error: 0.0019516305485661562
Epoch: 42800, Error: 0.0019414217957918632
Epoch: 42900, Error: 0.0019472201237330732
Epoch: 43000, Error: 0.001951978692354282
Epoch: 43100, Error: 0.0019188300687037897
Epoch: 43200, Error: 0.0019023881829948973
Epoch: 43300, Error: 0.0018947449787927943
Epoch: 43400, Error: 0.001923637882969443
Epoch: 43500, Error: 0.0019216984519575995
Epoch: 43600, Error: 0.0018810900438170149
Epoch: 43700, Error: 0.0018631677170382998
Epoch: 43800, Error: 0.0018585414296565922
Epoch: 43900, Error: 0.0018556257970907019
Epoch: 44000, Error: 0.0018783900547112559
Epoch: 44100, Error: 0.0018811050641690775
Epoch: 44200, Error: 0.0018272770060857714
Epoch: 44300, Error: 0.0018163510322759958
Epoch: 44400, Error: 0.0018320548305483634
Epoch: 44500, Error: 0.001803163082937804
Epoch: 44600, Error: 0.00179528356103406
Epoch: 44700, Error: 0.001790585165416749
Epoch: 44800, Error: 0.0017830901353785157
Epoch: 44900, Error: 0.0017767389042294085
Epoch: 45000, Error: 0.0017664678287964987
Epoch: 45100, Error: 0.0017756561901535683
Epoch: 45200, Error: 0.0017689393988417456
Epoch: 45300, Error: 0.0017485862437894666
Epoch: 45400, Error: 0.001752755638523669
Epoch: 45500, Error: 0.0017416454974699075
Epoch: 45600, Error: 0.001771600791794568
Epoch: 45700, Error: 0.0017397910306672167
Epoch: 45800, Error: 0.001718807391786374
Epoch: 45900, Error: 0.0017148312932179003
Finished
