Input Patterns
0.224 0.624 0.067 0.043 
0.11 0.502 0.051 0.043 
0.196 0.667 0.067 0.043 
0.055 0.584 0.067 0.082 
0.027 0.376 0.067 0.043 
0.306 0.71 0.086 0.043 
0.137 0.416 0.067 0.0 
0.416 0.831 0.035 0.043 
0.306 0.792 0.051 0.125 
0.388 0.749 0.118 0.082 
0.306 0.584 0.118 0.043 
0.082 0.667 0.0 0.043 
0.137 0.584 0.153 0.043 
0.196 0.584 0.102 0.125 
0.251 0.584 0.067 0.043 
0.137 0.459 0.102 0.043 
0.251 0.875 0.086 0.0 
0.165 0.459 0.086 0.043 
0.333 0.624 0.051 0.043 
0.027 0.416 0.051 0.043 
0.196 0.624 0.051 0.082 
0.027 0.502 0.051 0.043 
0.224 0.749 0.153 0.125 
0.224 0.749 0.102 0.043 
0.278 0.71 0.086 0.043 
0.165 0.416 0.067 0.043 
0.082 0.459 0.086 0.043 
0.306 0.792 0.118 0.125 
0.196 0.584 0.086 0.043 
0.165 0.459 0.086 0.0 
0.137 0.584 0.102 0.043 
0.0 0.416 0.016 0.0 
0.388 1.0 0.086 0.125 
0.224 0.624 0.067 0.082 
0.224 0.749 0.086 0.082 
0.224 0.71 0.086 0.125 
0.224 0.541 0.118 0.165 
0.196 0.416 0.102 0.043 
0.251 0.624 0.086 0.043 
0.11 0.502 0.102 0.043 
0.306 0.584 0.086 0.125 
0.333 0.918 0.067 0.043 
0.196 0.502 0.035 0.043 
0.165 0.667 0.067 0.0 
0.224 0.584 0.086 0.043 
0.055 0.125 0.051 0.082 
0.196 0.624 0.102 0.208 
0.137 0.416 0.067 0.082 
0.082 0.502 0.067 0.043 
0.196 0.541 0.067 0.043 
0.749 0.502 0.627 0.541 
0.722 0.459 0.663 0.584 
0.612 0.333 0.612 0.584 
0.557 0.541 0.627 0.624 
0.639 0.376 0.612 0.498 
0.196 0.0 0.424 0.376 
0.471 0.082 0.51 0.376 
0.361 0.376 0.439 0.498 
0.361 0.416 0.592 0.584 
0.529 0.082 0.592 0.584 
0.443 0.502 0.643 0.459 
0.557 0.208 0.663 0.584 
0.584 0.376 0.561 0.498 
0.694 0.333 0.643 0.541 
0.471 0.376 0.592 0.584 
0.333 0.169 0.475 0.416 
0.416 0.29 0.49 0.459 
0.306 0.416 0.592 0.584 
0.667 0.459 0.627 0.584 
0.361 0.416 0.525 0.498 
0.333 0.251 0.576 0.459 
0.416 0.251 0.51 0.459 
0.361 0.29 0.541 0.498 
0.388 0.376 0.541 0.498 
0.224 0.208 0.337 0.416 
0.584 0.502 0.592 0.584 
0.333 0.125 0.51 0.498 
0.388 0.333 0.592 0.498 
0.165 0.169 0.388 0.376 
0.251 0.29 0.49 0.541 
0.443 0.416 0.541 0.584 
0.498 0.376 0.627 0.541 
0.667 0.459 0.576 0.541 
0.416 0.29 0.525 0.376 
0.361 0.208 0.49 0.416 
0.498 0.333 0.51 0.498 
0.498 0.333 0.627 0.459 
0.639 0.416 0.576 0.541 
0.667 0.416 0.678 0.667 
0.388 0.251 0.424 0.376 
0.333 0.169 0.459 0.376 
0.471 0.29 0.694 0.624 
0.471 0.584 0.592 0.624 
0.557 0.125 0.576 0.498 
0.333 0.208 0.51 0.498 
0.498 0.416 0.612 0.541 
0.196 0.125 0.388 0.376 
0.388 0.416 0.541 0.459 
0.529 0.376 0.561 0.498 
0.388 0.333 0.525 0.498 
0.557 0.541 0.847 1.0 
0.776 0.416 0.831 0.831 
0.612 0.416 0.812 0.875 
0.165 0.208 0.592 0.667 
0.667 0.208 0.812 0.71 
0.612 0.502 0.694 0.792 
0.694 0.416 0.761 0.831 
0.416 0.333 0.694 0.957 
0.612 0.416 0.761 0.71 
0.945 0.251 1.0 0.918 
0.722 0.502 0.796 0.918 
0.945 0.333 0.965 0.792 
0.667 0.541 0.796 0.831 
0.529 0.333 0.643 0.71 
0.584 0.333 0.78 0.831 
0.863 0.333 0.863 0.749 
0.584 0.333 0.78 0.875 
0.498 0.251 0.78 0.541 
0.557 0.584 0.78 0.957 
0.471 0.416 0.643 0.71 
0.667 0.459 0.78 0.957 
0.416 0.29 0.694 0.749 
0.667 0.541 0.796 1.0 
0.557 0.208 0.678 0.749 
0.529 0.584 0.745 0.918 
0.416 0.29 0.694 0.749 
0.557 0.376 0.78 0.71 
0.918 0.416 0.949 0.831 
0.835 0.376 0.898 0.71 
0.804 0.667 0.863 1.0 
0.584 0.29 0.729 0.749 
0.388 0.208 0.678 0.792 
0.584 0.502 0.729 0.918 
0.945 0.749 0.965 0.875 
0.471 0.082 0.678 0.584 
0.361 0.333 0.663 0.792 
0.557 0.29 0.663 0.71 
0.804 0.502 0.847 0.71 
0.498 0.416 0.51 0.71 
0.804 0.416 0.812 0.624 
1.0 0.749 0.914 0.792 
0.557 0.333 0.694 0.584 
0.945 0.416 0.863 0.918 
0.584 0.459 0.761 0.71 
0.722 0.459 0.745 0.831 
0.722 0.459 0.694 0.918 
0.694 0.502 0.831 0.918 
0.667 0.416 0.714 0.918 
0.612 0.416 0.714 0.792 
0.443 0.416 0.694 0.71 
Teaching Patterns
1.0 0.0 0.0 
1.0 0.0 0.0 
1.0 0.0 0.0 
1.0 0.0 0.0 
1.0 0.0 0.0 
1.0 0.0 0.0 
1.0 0.0 0.0 
1.0 0.0 0.0 
1.0 0.0 0.0 
1.0 0.0 0.0 
1.0 0.0 0.0 
1.0 0.0 0.0 
1.0 0.0 0.0 
1.0 0.0 0.0 
1.0 0.0 0.0 
1.0 0.0 0.0 
1.0 0.0 0.0 
1.0 0.0 0.0 
1.0 0.0 0.0 
1.0 0.0 0.0 
1.0 0.0 0.0 
1.0 0.0 0.0 
1.0 0.0 0.0 
1.0 0.0 0.0 
1.0 0.0 0.0 
1.0 0.0 0.0 
1.0 0.0 0.0 
1.0 0.0 0.0 
1.0 0.0 0.0 
1.0 0.0 0.0 
1.0 0.0 0.0 
1.0 0.0 0.0 
1.0 0.0 0.0 
1.0 0.0 0.0 
1.0 0.0 0.0 
1.0 0.0 0.0 
1.0 0.0 0.0 
1.0 0.0 0.0 
1.0 0.0 0.0 
1.0 0.0 0.0 
1.0 0.0 0.0 
1.0 0.0 0.0 
1.0 0.0 0.0 
1.0 0.0 0.0 
1.0 0.0 0.0 
1.0 0.0 0.0 
1.0 0.0 0.0 
1.0 0.0 0.0 
1.0 0.0 0.0 
1.0 0.0 0.0 
0.0 1.0 0.0 
0.0 1.0 0.0 
0.0 1.0 0.0 
0.0 1.0 0.0 
0.0 1.0 0.0 
0.0 1.0 0.0 
0.0 1.0 0.0 
0.0 1.0 0.0 
0.0 1.0 0.0 
0.0 1.0 0.0 
0.0 1.0 0.0 
0.0 1.0 0.0 
0.0 1.0 0.0 
0.0 1.0 0.0 
0.0 1.0 0.0 
0.0 1.0 0.0 
0.0 1.0 0.0 
0.0 1.0 0.0 
0.0 1.0 0.0 
0.0 1.0 0.0 
0.0 1.0 0.0 
0.0 1.0 0.0 
0.0 1.0 0.0 
0.0 1.0 0.0 
0.0 1.0 0.0 
0.0 1.0 0.0 
0.0 1.0 0.0 
0.0 1.0 0.0 
0.0 1.0 0.0 
0.0 1.0 0.0 
0.0 1.0 0.0 
0.0 1.0 0.0 
0.0 1.0 0.0 
0.0 1.0 0.0 
0.0 1.0 0.0 
0.0 1.0 0.0 
0.0 1.0 0.0 
0.0 1.0 0.0 
0.0 1.0 0.0 
0.0 1.0 0.0 
0.0 1.0 0.0 
0.0 1.0 0.0 
0.0 1.0 0.0 
0.0 1.0 0.0 
0.0 1.0 0.0 
0.0 1.0 0.0 
0.0 1.0 0.0 
0.0 1.0 0.0 
0.0 1.0 0.0 
0.0 1.0 0.0 
0.0 0.0 1.0 
0.0 0.0 1.0 
0.0 0.0 1.0 
0.0 0.0 1.0 
0.0 0.0 1.0 
0.0 0.0 1.0 
0.0 0.0 1.0 
0.0 0.0 1.0 
0.0 0.0 1.0 
0.0 0.0 1.0 
0.0 0.0 1.0 
0.0 0.0 1.0 
0.0 0.0 1.0 
0.0 0.0 1.0 
0.0 0.0 1.0 
0.0 0.0 1.0 
0.0 0.0 1.0 
0.0 0.0 1.0 
0.0 0.0 1.0 
0.0 0.0 1.0 
0.0 0.0 1.0 
0.0 0.0 1.0 
0.0 0.0 1.0 
0.0 0.0 1.0 
0.0 0.0 1.0 
0.0 0.0 1.0 
0.0 0.0 1.0 
0.0 0.0 1.0 
0.0 0.0 1.0 
0.0 0.0 1.0 
0.0 0.0 1.0 
0.0 0.0 1.0 
0.0 0.0 1.0 
0.0 0.0 1.0 
0.0 0.0 1.0 
0.0 0.0 1.0 
0.0 0.0 1.0 
0.0 0.0 1.0 
0.0 0.0 1.0 
0.0 0.0 1.0 
0.0 0.0 1.0 
0.0 0.0 1.0 
0.0 0.0 1.0 
0.0 0.0 1.0 
0.0 0.0 1.0 
0.0 0.0 1.0 
0.0 0.0 1.0 
0.0 0.0 1.0 
0.0 0.0 1.0 
0.0 0.0 1.0 
Learning : 0.05
Momentum : 0.699999988079071
Epoch: 100, Error: 0.03956487734581962
Epoch: 200, Error: 0.01911550007596791
Epoch: 300, Error: 0.015852560984225883
Epoch: 400, Error: 0.014589641024095773
Epoch: 500, Error: 0.013683942770510809
Epoch: 600, Error: 0.013309795269763895
Epoch: 700, Error: 0.012927180440679286
Epoch: 800, Error: 0.013422086868330218
Epoch: 900, Error: 0.012636263032620656
Epoch: 1000, Error: 0.012373118463253336
Epoch: 1100, Error: 0.012306136200770163
Epoch: 1200, Error: 0.012259978130060833
Epoch: 1300, Error: 0.012273557031608904
Epoch: 1400, Error: 0.012173060173348146
Epoch: 1500, Error: 0.012119920939069688
Epoch: 1600, Error: 0.012098557034667837
Epoch: 1700, Error: 0.012058924717371808
Epoch: 1800, Error: 0.01204411181206401
Epoch: 1900, Error: 0.01203461524914021
Epoch: 2000, Error: 0.012115668174677779
Epoch: 2100, Error: 0.012295384045212443
Epoch: 2200, Error: 0.012021682978331897
Epoch: 2300, Error: 0.01200246059431796
Epoch: 2400, Error: 0.012106326211354726
Epoch: 2500, Error: 0.012164128970902776
Epoch: 2600, Error: 0.01207838982986537
Epoch: 2700, Error: 0.012050615467245137
Epoch: 2800, Error: 0.012045094068947335
Epoch: 2900, Error: 0.012076162118949213
Epoch: 3000, Error: 0.012057127796981862
Epoch: 3100, Error: 0.012065207761576083
Epoch: 3200, Error: 0.01200823779113432
Epoch: 3300, Error: 0.012171898825399508
Epoch: 3400, Error: 0.012030462825180164
Epoch: 3500, Error: 0.012039008274428243
Epoch: 3600, Error: 0.012061794339665774
Epoch: 3700, Error: 0.012119495359784757
Epoch: 3800, Error: 0.012067732050336958
Epoch: 3900, Error: 0.012189783543004842
Epoch: 4000, Error: 0.012080002263003336
Epoch: 4100, Error: 0.012027162418689211
Epoch: 4200, Error: 0.01203635213333291
Epoch: 4300, Error: 0.011996511066274841
Epoch: 4400, Error: 0.011970291802258975
Epoch: 4500, Error: 0.012198739229185978
Epoch: 4600, Error: 0.01202835228591041
Epoch: 4700, Error: 0.011984248766413264
Epoch: 4800, Error: 0.011978562497773513
Epoch: 4900, Error: 0.011953447465873316
Epoch: 5000, Error: 0.011997627600072145
Epoch: 5100, Error: 0.011921230734717621
Epoch: 5200, Error: 0.011974826463311586
Epoch: 5300, Error: 0.011992527570845637
Epoch: 5400, Error: 0.01199697731594397
Epoch: 5500, Error: 0.01196814223109389
Epoch: 5600, Error: 0.01203128655276602
Epoch: 5700, Error: 0.012152520073294837
Epoch: 5800, Error: 0.012180350908385006
Epoch: 5900, Error: 0.011978193589165778
Epoch: 6000, Error: 0.011956310099119596
Epoch: 6100, Error: 0.011942300637209073
Epoch: 6200, Error: 0.012045369259093556
Epoch: 6300, Error: 0.01194532028556279
Epoch: 6400, Error: 0.011995073149236176
Epoch: 6500, Error: 0.011965387470452072
Epoch: 6600, Error: 0.011985928688638368
Epoch: 6700, Error: 0.012087533856244444
Epoch: 6800, Error: 0.011961548068841784
Epoch: 6900, Error: 0.01200614309649267
Epoch: 7000, Error: 0.012021334113312826
Epoch: 7100, Error: 0.012011917797330837
Epoch: 7200, Error: 0.011977907145372177
Epoch: 7300, Error: 0.012025058656568744
Epoch: 7400, Error: 0.012016592767804661
Epoch: 7500, Error: 0.012109576442880656
Epoch: 7600, Error: 0.011949883971900051
Epoch: 7700, Error: 0.011907119594401754
Epoch: 7800, Error: 0.011971575854969304
Epoch: 7900, Error: 0.011961395878354772
Epoch: 8000, Error: 0.011997092551937002
Epoch: 8100, Error: 0.01194319628103454
Epoch: 8200, Error: 0.012005506739408573
Epoch: 8300, Error: 0.012234234704736908
Epoch: 8400, Error: 0.011996142752110847
Epoch: 8500, Error: 0.011987020312495225
Epoch: 8600, Error: 0.011992249721799136
Epoch: 8700, Error: 0.011910647196986883
Epoch: 8800, Error: 0.0120133475335946
Epoch: 8900, Error: 0.012023937076300489
Epoch: 9000, Error: 0.01193390546907201
Epoch: 9100, Error: 0.011939426188872055
Epoch: 9200, Error: 0.011974589198389092
Epoch: 9300, Error: 0.011966478192995584
Epoch: 9400, Error: 0.011983645738938186
Epoch: 9500, Error: 0.011917155265073772
Epoch: 9600, Error: 0.01195562450322841
Epoch: 9700, Error: 0.01193423553680207
Epoch: 9800, Error: 0.01199124020615416
Epoch: 9900, Error: 0.01196786660074697
Epoch: 10000, Error: 0.0119052097196044
Epoch: 10100, Error: 0.011911010419724212
Epoch: 10200, Error: 0.011979800535575675
Epoch: 10300, Error: 0.011911363475693305
Epoch: 10400, Error: 0.011894487656304402
Epoch: 10500, Error: 0.011905703394252743
Epoch: 10600, Error: 0.0119025686847022
Epoch: 10700, Error: 0.011846243357707393
Epoch: 10800, Error: 0.011868245569386485
Epoch: 10900, Error: 0.011891714821910062
Epoch: 11000, Error: 0.01187818848832063
Epoch: 11100, Error: 0.01187307876598474
Epoch: 11200, Error: 0.011964964967827616
Epoch: 11300, Error: 0.011922654593588034
Epoch: 11400, Error: 0.011891304594439668
Epoch: 11500, Error: 0.011885397528138601
Epoch: 11600, Error: 0.01184580123496306
Epoch: 11700, Error: 0.011853035103009665
Epoch: 11800, Error: 0.011830312679074632
Epoch: 11900, Error: 0.011924712306502883
Epoch: 12000, Error: 0.011874111688973572
Epoch: 12100, Error: 0.011829894368150082
Epoch: 12200, Error: 0.011861787956371382
Epoch: 12300, Error: 0.011899282965819524
Epoch: 12400, Error: 0.011913368703174625
Epoch: 12500, Error: 0.011874000605726917
Epoch: 12600, Error: 0.01184040552047296
Epoch: 12700, Error: 0.01185904217359431
Epoch: 12800, Error: 0.011914275630003916
Epoch: 12900, Error: 0.011941212093525262
Epoch: 13000, Error: 0.01188770125579354
Epoch: 13100, Error: 0.011864781514162526
Epoch: 13200, Error: 0.011863355852439497
Epoch: 13300, Error: 0.011867712299421379
Epoch: 13400, Error: 0.01184711513657717
Epoch: 13500, Error: 0.011876806480351002
Epoch: 13600, Error: 0.011955791587822066
Epoch: 13700, Error: 0.011988334117878884
Epoch: 13800, Error: 0.011826446296455313
Epoch: 13900, Error: 0.011905403932220733
Epoch: 14000, Error: 0.011848317009200686
Epoch: 14100, Error: 0.011831043802604262
Epoch: 14200, Error: 0.011860623282829191
Epoch: 14300, Error: 0.011898956852278066
Epoch: 14400, Error: 0.011766930915631314
Epoch: 14500, Error: 0.011766723575652909
Epoch: 14600, Error: 0.011791972393783177
Epoch: 14700, Error: 0.01183731513754593
Epoch: 14800, Error: 0.0118404576212833
Epoch: 14900, Error: 0.011740334466365916
Epoch: 15000, Error: 0.01184672930982956
Epoch: 15100, Error: 0.011770171786203697
Epoch: 15200, Error: 0.011819961554715635
Epoch: 15300, Error: 0.011829684724500555
Epoch: 15400, Error: 0.011775796186196166
Epoch: 15500, Error: 0.01173256276043101
Epoch: 15600, Error: 0.01173765487838535
Epoch: 15700, Error: 0.011804616220995484
Epoch: 15800, Error: 0.011766925802518
Epoch: 15900, Error: 0.01171785317927013
Epoch: 16000, Error: 0.01178332108533268
Epoch: 16100, Error: 0.01177229555322133
Epoch: 16200, Error: 0.01176359883430767
Epoch: 16300, Error: 0.011765539742924502
Epoch: 16400, Error: 0.011783719333707534
Epoch: 16500, Error: 0.011929546709708787
Epoch: 16600, Error: 0.01181098527849075
Epoch: 16700, Error: 0.011734450543256307
Epoch: 16800, Error: 0.011708397163447948
Epoch: 16900, Error: 0.011759247671885745
Epoch: 17000, Error: 0.011669799508545187
Epoch: 17100, Error: 0.011752343130104084
Epoch: 17200, Error: 0.011747077281025368
Epoch: 17300, Error: 0.01176365569641838
Epoch: 17400, Error: 0.011711018866281023
Epoch: 17500, Error: 0.011815784475101964
Epoch: 17600, Error: 0.01171254546577612
Epoch: 17700, Error: 0.011678655950562711
Epoch: 17800, Error: 0.011679193637197641
Epoch: 17900, Error: 0.011649840770195171
Epoch: 18000, Error: 0.011651799593414823
Epoch: 18100, Error: 0.011650799425651712
Epoch: 18200, Error: 0.011567380060016263
Epoch: 18300, Error: 0.011612599948517604
Epoch: 18400, Error: 0.011603749650585148
Epoch: 18500, Error: 0.011561231818575497
Epoch: 18600, Error: 0.011475403501733912
Epoch: 18700, Error: 0.011508322356124185
Epoch: 18800, Error: 0.01151763488233732
Epoch: 18900, Error: 0.011513737630296379
Epoch: 19000, Error: 0.011465618700900128
Epoch: 19100, Error: 0.011448937227134087
Epoch: 19200, Error: 0.011595690379956215
Epoch: 19300, Error: 0.011411450162473991
Epoch: 19400, Error: 0.011389499939978358
Epoch: 19500, Error: 0.01136111471057513
Epoch: 19600, Error: 0.011408796243996412
Epoch: 19700, Error: 0.011356033740606581
Epoch: 19800, Error: 0.011398951001175208
Epoch: 19900, Error: 0.011369163180063195
Epoch: 20000, Error: 0.01129972984939928
Epoch: 20100, Error: 0.011273437320017959
Epoch: 20200, Error: 0.011333024183751936
Epoch: 20300, Error: 0.01128142317075232
Epoch: 20400, Error: 0.011269077701741176
Epoch: 20500, Error: 0.011263705245635715
Epoch: 20600, Error: 0.011239925656974877
Epoch: 20700, Error: 0.011237300617432075
Epoch: 20800, Error: 0.01124187709930102
Epoch: 20900, Error: 0.011277237721569204
Epoch: 21000, Error: 0.011348755756226646
Epoch: 21100, Error: 0.011239421293618775
Epoch: 21200, Error: 0.011167301476840905
Epoch: 21300, Error: 0.011163328037938429
Epoch: 21400, Error: 0.0112393737950508
Epoch: 21500, Error: 0.011111718663490611
Epoch: 21600, Error: 0.011139850072203512
Epoch: 21700, Error: 0.011052966584163416
Epoch: 21800, Error: 0.011045746984127006
Epoch: 21900, Error: 0.011037691437962172
Epoch: 22000, Error: 0.011047022741981492
Epoch: 22100, Error: 0.011016353703868859
Epoch: 22200, Error: 0.010983226208321659
Epoch: 22300, Error: 0.010934562780828463
Epoch: 22400, Error: 0.010998143297079288
Epoch: 22500, Error: 0.010920601545981753
Epoch: 22600, Error: 0.010910010210527126
Epoch: 22700, Error: 0.010914690624626687
Epoch: 22800, Error: 0.010892826684357027
Epoch: 22900, Error: 0.010842268137313723
Epoch: 23000, Error: 0.010886092890901212
Epoch: 23100, Error: 0.0108742507527663
Epoch: 23200, Error: 0.010768433589337286
Epoch: 23300, Error: 0.010749512620446738
Epoch: 23400, Error: 0.010743751553243254
Epoch: 23500, Error: 0.010780858800924973
Epoch: 23600, Error: 0.010637698371820645
Epoch: 23700, Error: 0.010575787555789529
Epoch: 23800, Error: 0.010582862969375686
Epoch: 23900, Error: 0.010532944638330835
Epoch: 24000, Error: 0.010491415028638143
Epoch: 24100, Error: 0.010440079374517982
Epoch: 24200, Error: 0.010419011389661238
Epoch: 24300, Error: 0.010379985339331538
Epoch: 24400, Error: 0.010294015967518147
Epoch: 24500, Error: 0.010267044680339033
Epoch: 24600, Error: 0.010276962692187934
Epoch: 24700, Error: 0.010149962237543643
Epoch: 24800, Error: 0.010057404660968248
Epoch: 24900, Error: 0.01001567149192914
Epoch: 25000, Error: 0.009999572600404029
Epoch: 25100, Error: 0.010112116969386933
Epoch: 25200, Error: 0.009832313783376682
Epoch: 25300, Error: 0.009782266493356706
Epoch: 25400, Error: 0.00974735444852727
Epoch: 25500, Error: 0.009651526990618095
Epoch: 25600, Error: 0.009643491412826194
Epoch: 25700, Error: 0.009515247252933772
Epoch: 25800, Error: 0.009417078719973429
Epoch: 25900, Error: 0.009313520861309927
Epoch: 26000, Error: 0.009127640910390455
Epoch: 26100, Error: 0.009251352639563672
Epoch: 26200, Error: 0.00902254819413114
Epoch: 26300, Error: 0.008938260214005395
Epoch: 26400, Error: 0.008873448904927632
Epoch: 26500, Error: 0.008798764506248382
Epoch: 26600, Error: 0.008697961749662687
Epoch: 26700, Error: 0.008623313277803319
Epoch: 26800, Error: 0.0085713182272061
Epoch: 26900, Error: 0.00854325108103667
Epoch: 27000, Error: 0.008429961337568827
Epoch: 27100, Error: 0.008350578409585634
Epoch: 27200, Error: 0.008294177929648058
Epoch: 27300, Error: 0.008225157886431515
Epoch: 27400, Error: 0.008152573117841224
Epoch: 27500, Error: 0.00811914808726493
Epoch: 27600, Error: 0.008038701839288176
Epoch: 27700, Error: 0.007978839940466964
Epoch: 27800, Error: 0.007942244479730406
Epoch: 27900, Error: 0.007911446544696226
Epoch: 28000, Error: 0.007850924322984067
Epoch: 28100, Error: 0.007951387731439635
Epoch: 28200, Error: 0.007771891396229628
Epoch: 28300, Error: 0.007707150609876194
Epoch: 28400, Error: 0.007646607149791729
Epoch: 28500, Error: 0.007594039740945928
Epoch: 28600, Error: 0.007550711203197408
Epoch: 28700, Error: 0.007482570955424142
Epoch: 28800, Error: 0.007465660820497849
Epoch: 28900, Error: 0.0074181118654614835
Epoch: 29000, Error: 0.007409596587743842
Epoch: 29100, Error: 0.0073668099506438165
Epoch: 29200, Error: 0.0073150730429502
Epoch: 29300, Error: 0.0072487786642514524
Epoch: 29400, Error: 0.007207417663855656
Epoch: 29500, Error: 0.007155631278451327
Epoch: 29600, Error: 0.007120143250073168
Epoch: 29700, Error: 0.007275684292415863
Epoch: 29800, Error: 0.007059486762421493
Epoch: 29900, Error: 0.007007451824536331
Epoch: 30000, Error: 0.006969572798876254
Epoch: 30100, Error: 0.006934891731306374
Epoch: 30200, Error: 0.006900156501744146
Epoch: 30300, Error: 0.006869259631872159
Epoch: 30400, Error: 0.006826715131512696
Epoch: 30500, Error: 0.0068157042579252885
Epoch: 30600, Error: 0.006808987124578942
Epoch: 30700, Error: 0.006767536734879858
Epoch: 30800, Error: 0.006756911350596872
Epoch: 30900, Error: 0.0067098906455604086
Epoch: 31000, Error: 0.0066662057575555865
Epoch: 31100, Error: 0.0067494326708045
Epoch: 31200, Error: 0.006596053417907565
Epoch: 31300, Error: 0.006567716353038342
Epoch: 31400, Error: 0.0065613861089067515
Epoch: 31500, Error: 0.006527154019564163
Epoch: 31600, Error: 0.006501620600012038
Epoch: 31700, Error: 0.006479811699236086
Epoch: 31800, Error: 0.006434535637482828
Epoch: 31900, Error: 0.006422910193110878
Epoch: 32000, Error: 0.006397198005705474
Epoch: 32100, Error: 0.00647659024484351
Epoch: 32200, Error: 0.006337872846717839
Epoch: 32300, Error: 0.006313045732045856
Epoch: 32400, Error: 0.006308142570919905
Epoch: 32500, Error: 0.006325931601280049
Epoch: 32600, Error: 0.006264558964862632
Epoch: 32700, Error: 0.006266591701903343
Epoch: 32800, Error: 0.006265667733943465
Epoch: 32900, Error: 0.006236208782942456
Epoch: 33000, Error: 0.006244759722351067
Epoch: 33100, Error: 0.0062060414033221585
Epoch: 33200, Error: 0.0061907156651534465
Epoch: 33300, Error: 0.006179379003641818
Epoch: 33400, Error: 0.006171098430658583
Epoch: 33500, Error: 0.006186835956280667
Epoch: 33600, Error: 0.006151869051764361
Epoch: 33700, Error: 0.006116708447081
Epoch: 33800, Error: 0.006110392367295817
Epoch: 33900, Error: 0.006108126291655811
Epoch: 34000, Error: 0.006089840857699706
Epoch: 34100, Error: 0.006087613566463843
Epoch: 34200, Error: 0.006084730012862015
Epoch: 34300, Error: 0.006095533524465059
Epoch: 34400, Error: 0.006090863341686724
Epoch: 34500, Error: 0.006133271507875709
Epoch: 34600, Error: 0.006109453984340774
Epoch: 34700, Error: 0.00608809022177936
Epoch: 34800, Error: 0.006055689654722529
Epoch: 34900, Error: 0.006057977682702852
Epoch: 35000, Error: 0.006051449931186127
Epoch: 35100, Error: 0.006060424759643306
Epoch: 35200, Error: 0.006120424070648285
Epoch: 35300, Error: 0.006076691619249212
Epoch: 35400, Error: 0.006034732037609097
Epoch: 35500, Error: 0.006160487218563193
Epoch: 35600, Error: 0.006024324161830275
Epoch: 35700, Error: 0.006050017275414742
Epoch: 35800, Error: 0.006116862943844083
Epoch: 35900, Error: 0.0060281250366327884
Epoch: 36000, Error: 0.006020620696606133
Epoch: 36100, Error: 0.006025051182323927
Epoch: 36200, Error: 0.006009049369706369
Epoch: 36300, Error: 0.005999934939864805
Epoch: 36400, Error: 0.005982912393145264
Epoch: 36500, Error: 0.00598180470364213
Epoch: 36600, Error: 0.006044689597857185
Epoch: 36700, Error: 0.0059599403927387325
Epoch: 36800, Error: 0.006059035455298557
Epoch: 36900, Error: 0.0059627315151500136
Epoch: 37000, Error: 0.005916137552109658
Epoch: 37100, Error: 0.005889836353334369
Epoch: 37200, Error: 0.005909851592022361
Epoch: 37300, Error: 0.005878522500625847
Epoch: 37400, Error: 0.005854382082720227
Epoch: 37500, Error: 0.005894397805821936
Epoch: 37600, Error: 0.005845386509394411
Epoch: 37700, Error: 0.005839571269098849
Epoch: 37800, Error: 0.00582466755498002
Epoch: 37900, Error: 0.005857268988965167
Epoch: 38000, Error: 0.005803200535299809
Epoch: 38100, Error: 0.0057924545017852295
Epoch: 38200, Error: 0.005801040946884346
Epoch: 38300, Error: 0.00577367504409993
Epoch: 38400, Error: 0.005738997335243895
Epoch: 38500, Error: 0.005735739470893632
Epoch: 38600, Error: 0.0057290877135846635
Epoch: 38700, Error: 0.005750144268559923
Epoch: 38800, Error: 0.005696870608766144
Epoch: 38900, Error: 0.005714141822005818
Epoch: 39000, Error: 0.005673243343895023
Epoch: 39100, Error: 0.005727439901221564
Epoch: 39200, Error: 0.005698291377340736
Epoch: 39300, Error: 0.0056627727894712505
Epoch: 39400, Error: 0.0056571552958040216
Epoch: 39500, Error: 0.005631486684014436
Epoch: 39600, Error: 0.005671108993052197
Epoch: 39700, Error: 0.005647934484756208
Epoch: 39800, Error: 0.0056389431550197665
Epoch: 39900, Error: 0.005628121870030922
Epoch: 40000, Error: 0.005631695975499136
Epoch: 40100, Error: 0.005692056969835757
Epoch: 40200, Error: 0.005631005549358965
Epoch: 40300, Error: 0.0055993333453262135
Epoch: 40400, Error: 0.005580962131858968
Epoch: 40500, Error: 0.005630393888695439
Epoch: 40600, Error: 0.005585028523438515
Epoch: 40700, Error: 0.0055594066035632396
Epoch: 40800, Error: 0.005575720692997353
Epoch: 40900, Error: 0.005540741043368674
Epoch: 41000, Error: 0.00552785830625903
Epoch: 41100, Error: 0.005515671626949763
Epoch: 41200, Error: 0.005557019610991224
Epoch: 41300, Error: 0.005515374508268235
Epoch: 41400, Error: 0.005482109842119809
Epoch: 41500, Error: 0.005526225721857604
Epoch: 41600, Error: 0.005490207091478696
Epoch: 41700, Error: 0.005480853912485756
Epoch: 41800, Error: 0.005439558848111492
Epoch: 41900, Error: 0.005446995727188828
Epoch: 42000, Error: 0.0054439952074433725
Epoch: 42100, Error: 0.005438076448538507
Epoch: 42200, Error: 0.005405385571858555
Epoch: 42300, Error: 0.005380494039377956
Epoch: 42400, Error: 0.005353555365574687
Epoch: 42500, Error: 0.005354651241370695
Epoch: 42600, Error: 0.00536073034596677
Epoch: 42700, Error: 0.005345204294023906
Epoch: 42800, Error: 0.005367765171315418
Epoch: 42900, Error: 0.005322495231620407
Epoch: 43000, Error: 0.005403793880746655
Epoch: 43100, Error: 0.005285463030064331
Epoch: 43200, Error: 0.005299044392045202
Epoch: 43300, Error: 0.005301731410451381
Epoch: 43400, Error: 0.005290621648386529
Epoch: 43500, Error: 0.005241341239176264
Epoch: 43600, Error: 0.005196729719414737
Epoch: 43700, Error: 0.005260684121942353
Epoch: 43800, Error: 0.005173690477887317
Epoch: 43900, Error: 0.005135942734064318
Epoch: 44000, Error: 0.005141856962362634
Epoch: 44100, Error: 0.005175603852949452
Epoch: 44200, Error: 0.005130029260870892
Epoch: 44300, Error: 0.005070741589474447
Epoch: 44400, Error: 0.005094754003989507
Epoch: 44500, Error: 0.005037635956959338
Epoch: 44600, Error: 0.005047228195078679
Epoch: 44700, Error: 0.005002702093078047
Epoch: 44800, Error: 0.005021122222221081
Epoch: 44900, Error: 0.0049407482834291265
Epoch: 45000, Error: 0.004983906874375469
Epoch: 45100, Error: 0.0050493342383416155
Epoch: 45200, Error: 0.00509748127382023
Epoch: 45300, Error: 0.004823927184905691
Epoch: 45400, Error: 0.0047714518660102725
Epoch: 45500, Error: 0.004753272356568804
Epoch: 45600, Error: 0.004729716378529465
Epoch: 45700, Error: 0.004969687526525679
Epoch: 45800, Error: 0.004704876659091238
Epoch: 45900, Error: 0.004691470621976403
Epoch: 46000, Error: 0.004639626033151917
Epoch: 46100, Error: 0.00464495567516578
Epoch: 46200, Error: 0.0045797383277911465
Epoch: 46300, Error: 0.004531631072357688
Epoch: 46400, Error: 0.00505230842337602
Epoch: 46500, Error: 0.004495997458600985
Epoch: 46600, Error: 0.004478930722495454
Epoch: 46700, Error: 0.004502110424983087
Epoch: 46800, Error: 0.004450053257739811
Epoch: 46900, Error: 0.004356994087197853
Epoch: 47000, Error: 0.004395718268750065
Epoch: 47100, Error: 0.004330404665903177
Epoch: 47200, Error: 0.0042466211159509805
Epoch: 47300, Error: 0.004387432205244714
Epoch: 47400, Error: 0.004161476797231833
Epoch: 47500, Error: 0.004248354868132643
Epoch: 47600, Error: 0.004301048487965854
Epoch: 47700, Error: 0.004213018922225781
Epoch: 47800, Error: 0.004149762009090773
Epoch: 47900, Error: 0.004024729460649855
Epoch: 48000, Error: 0.0038981999688125412
Epoch: 48100, Error: 0.003867450204982625
Epoch: 48200, Error: 0.003959155300588421
Epoch: 48300, Error: 0.003789080083973025
Epoch: 48400, Error: 0.003708434381616752
Epoch: 48500, Error: 0.003710066360095574
Epoch: 48600, Error: 0.0037783451372013464
Epoch: 48700, Error: 0.0036354014285146915
Epoch: 48800, Error: 0.0035864153588454927
Epoch: 48900, Error: 0.003542533761250892
Epoch: 49000, Error: 0.0034876511891610883
Epoch: 49100, Error: 0.0034336797066056237
Epoch: 49200, Error: 0.003507208787859239
Epoch: 49300, Error: 0.0034025113383385195
Epoch: 49400, Error: 0.003312040863160795
Epoch: 49500, Error: 0.0032923030558545748
Epoch: 49600, Error: 0.0032628228159077032
Epoch: 49700, Error: 0.003280038240038866
Epoch: 49800, Error: 0.003236906025934718
Epoch: 49900, Error: 0.0031267668796421647
Epoch: 50000, Error: 0.0032377026579495202
Epoch: 50100, Error: 0.0032226049028719075
Epoch: 50200, Error: 0.003037879397760106
Epoch: 50300, Error: 0.003003344872944852
Epoch: 50400, Error: 0.0029697670061746037
Epoch: 50500, Error: 0.0029162783233223017
Epoch: 50600, Error: 0.0029214745049389403
Epoch: 50700, Error: 0.0028949399800131622
Epoch: 50800, Error: 0.0028281556817993827
Epoch: 50900, Error: 0.002852414013227026
Epoch: 51000, Error: 0.002759669339321748
Epoch: 51100, Error: 0.0027639818672352
Epoch: 51200, Error: 0.0027863766057184343
Epoch: 51300, Error: 0.0026938489818188823
Epoch: 51400, Error: 0.003289818265473341
Epoch: 51500, Error: 0.0026511910009139558
Epoch: 51600, Error: 0.00259533814719688
Epoch: 51700, Error: 0.00265289996063818
Epoch: 51800, Error: 0.002551326596944107
Epoch: 51900, Error: 0.0025932635057366754
Epoch: 52000, Error: 0.002585853642434599
Epoch: 52100, Error: 0.0025875888480910414
Epoch: 52200, Error: 0.002511117539218731
Epoch: 52300, Error: 0.0024427475553256968
Epoch: 52400, Error: 0.0025265696940779034
Epoch: 52500, Error: 0.0024723147081854484
Epoch: 52600, Error: 0.0024206020983633665
Epoch: 52700, Error: 0.0023696736706591563
Epoch: 52800, Error: 0.0024460507306456906
Epoch: 52900, Error: 0.0023686078468346103
Epoch: 53000, Error: 0.002308034487710318
Epoch: 53100, Error: 0.002315477433839007
Epoch: 53200, Error: 0.002365606334757241
Epoch: 53300, Error: 0.0023430299065041395
Epoch: 53400, Error: 0.0023398936557531298
Epoch: 53500, Error: 0.0022586820920174858
Epoch: 53600, Error: 0.0022548615690142155
Epoch: 53700, Error: 0.002212892114007595
Epoch: 53800, Error: 0.002182935491889408
Epoch: 53900, Error: 0.002167900294321835
Epoch: 54000, Error: 0.0021890643642990195
Epoch: 54100, Error: 0.002147355253918595
Epoch: 54200, Error: 0.00216000973874149
Epoch: 54300, Error: 0.0020894298434234473
Epoch: 54400, Error: 0.0021551793128085795
Epoch: 54500, Error: 0.0021296758198777084
Epoch: 54600, Error: 0.0020706230927414197
Epoch: 54700, Error: 0.002033750981405403
Epoch: 54800, Error: 0.002054241124232178
Epoch: 54900, Error: 0.002084491021641699
Epoch: 55000, Error: 0.0020029482924545537
Epoch: 55100, Error: 0.00201398644199928
Epoch: 55200, Error: 0.0019617394052629552
Epoch: 55300, Error: 0.0020014556655410915
Epoch: 55400, Error: 0.0019289043861621489
Epoch: 55500, Error: 0.001959800161152563
Epoch: 55600, Error: 0.0019541087747983075
Epoch: 55700, Error: 0.0019092148299443528
Epoch: 55800, Error: 0.002145265976771167
Epoch: 55900, Error: 0.0019360656701709793
Epoch: 56000, Error: 0.0018328417954070642
Epoch: 56100, Error: 0.0022901301877998625
Epoch: 56200, Error: 0.0018922011272511328
Epoch: 56300, Error: 0.0017957033581825117
Epoch: 56400, Error: 0.001828218982870129
Epoch: 56500, Error: 0.0017592907350289404
Epoch: 56600, Error: 0.0017455733832390625
Epoch: 56700, Error: 0.001732685100735938
Epoch: 56800, Error: 0.0017347091717548285
Epoch: 56900, Error: 0.0017266642321638122
Epoch: 57000, Error: 0.0017397991618610645
Epoch: 57100, Error: 0.0017820659656818329
Epoch: 57200, Error: 0.0016788396037696214
Epoch: 57300, Error: 0.001671192882473031
Epoch: 57400, Error: 0.0016749841815599856
Epoch: 57500, Error: 0.0016463807739359722
Epoch: 57600, Error: 0.0016673954574513618
Epoch: 57700, Error: 0.0016504336964731868
Epoch: 57800, Error: 0.0016366276620406691
Epoch: 57900, Error: 0.001662258922518871
Epoch: 58000, Error: 0.001637001740984286
Epoch: 58100, Error: 0.0016518408936999132
Epoch: 58200, Error: 0.0016086268991564207
Epoch: 58300, Error: 0.0015968499956640074
Epoch: 58400, Error: 0.001605615105337108
Epoch: 58500, Error: 0.0015670781594655733
Epoch: 58600, Error: 0.001542633128367066
Epoch: 58700, Error: 0.0015456097143315651
Epoch: 58800, Error: 0.0015377370726168836
Epoch: 58900, Error: 0.001568292386961593
Epoch: 59000, Error: 0.0015155198533233132
Epoch: 59100, Error: 0.0015304308498339978
Epoch: 59200, Error: 0.0014953097763656567
Epoch: 59300, Error: 0.001503764364722341
Epoch: 59400, Error: 0.0014913124161430166
Epoch: 59500, Error: 0.0014791240923259729
Epoch: 59600, Error: 0.0014718721292068708
Epoch: 59700, Error: 0.0014755882086523546
Epoch: 59800, Error: 0.001471768685861186
Epoch: 59900, Error: 0.0014687487653317086
Epoch: 60000, Error: 0.001471035374948961
Epoch: 60100, Error: 0.0014459268993164958
Epoch: 60200, Error: 0.0014489322017975077
Epoch: 60300, Error: 0.0014876233511216044
Epoch: 60400, Error: 0.001437745188008135
Epoch: 60500, Error: 0.0014340122246754867
Epoch: 60600, Error: 0.0014322498347009917
Epoch: 60700, Error: 0.0014210607454617939
Epoch: 60800, Error: 0.001402440864364512
Epoch: 60900, Error: 0.0014005576786330024
Epoch: 61000, Error: 0.0014541590619977886
Epoch: 61100, Error: 0.0014169590486706291
Epoch: 61200, Error: 0.001380592698766061
Epoch: 61300, Error: 0.0014068575183325705
Epoch: 61400, Error: 0.001407469070439177
Epoch: 61500, Error: 0.0013849561391335301
Epoch: 61600, Error: 0.0013658020725773178
Epoch: 61700, Error: 0.0013570389180302118
Epoch: 61800, Error: 0.001353687636875361
Epoch: 61900, Error: 0.001347844175580834
Epoch: 62000, Error: 0.0013928753393937557
Epoch: 62100, Error: 0.001352342584003404
Epoch: 62200, Error: 0.0013298062942774616
Epoch: 62300, Error: 0.001329435145109001
Epoch: 62400, Error: 0.0013321884627660043
Epoch: 62500, Error: 0.00131709838760232
Epoch: 62600, Error: 0.0013145276567220652
Epoch: 62700, Error: 0.0013306763927694312
Epoch: 62800, Error: 0.0013839766849548494
Epoch: 62900, Error: 0.0013063218453011269
Epoch: 63000, Error: 0.0013157425145774284
Epoch: 63100, Error: 0.001300164658482973
Epoch: 63200, Error: 0.0012840010006791548
Epoch: 63300, Error: 0.0012847171409317733
Epoch: 63400, Error: 0.0012703949883357104
Epoch: 63500, Error: 0.0012772455075533927
Epoch: 63600, Error: 0.0012807640992792953
Finished
