Input Patterns
0.224 0.624 0.067 0.043 
0.11 0.502 0.051 0.043 
0.196 0.667 0.067 0.043 
0.055 0.584 0.067 0.082 
0.027 0.376 0.067 0.043 
0.306 0.71 0.086 0.043 
0.137 0.416 0.067 0.0 
0.416 0.831 0.035 0.043 
0.306 0.792 0.051 0.125 
0.388 0.749 0.118 0.082 
0.306 0.584 0.118 0.043 
0.082 0.667 0.0 0.043 
0.137 0.584 0.153 0.043 
0.196 0.584 0.102 0.125 
0.251 0.584 0.067 0.043 
0.137 0.459 0.102 0.043 
0.251 0.875 0.086 0.0 
0.165 0.459 0.086 0.043 
0.333 0.624 0.051 0.043 
0.027 0.416 0.051 0.043 
0.196 0.624 0.051 0.082 
0.027 0.502 0.051 0.043 
0.224 0.749 0.153 0.125 
0.224 0.749 0.102 0.043 
0.278 0.71 0.086 0.043 
0.165 0.416 0.067 0.043 
0.082 0.459 0.086 0.043 
0.306 0.792 0.118 0.125 
0.196 0.584 0.086 0.043 
0.165 0.459 0.086 0.0 
0.137 0.584 0.102 0.043 
0.0 0.416 0.016 0.0 
0.388 1.0 0.086 0.125 
0.224 0.624 0.067 0.082 
0.224 0.749 0.086 0.082 
0.224 0.71 0.086 0.125 
0.224 0.541 0.118 0.165 
0.196 0.416 0.102 0.043 
0.251 0.624 0.086 0.043 
0.11 0.502 0.102 0.043 
0.306 0.584 0.086 0.125 
0.333 0.918 0.067 0.043 
0.196 0.502 0.035 0.043 
0.165 0.667 0.067 0.0 
0.224 0.584 0.086 0.043 
0.055 0.125 0.051 0.082 
0.196 0.624 0.102 0.208 
0.137 0.416 0.067 0.082 
0.082 0.502 0.067 0.043 
0.196 0.541 0.067 0.043 
0.749 0.502 0.627 0.541 
0.722 0.459 0.663 0.584 
0.612 0.333 0.612 0.584 
0.557 0.541 0.627 0.624 
0.639 0.376 0.612 0.498 
0.196 0.0 0.424 0.376 
0.471 0.082 0.51 0.376 
0.361 0.376 0.439 0.498 
0.361 0.416 0.592 0.584 
0.529 0.082 0.592 0.584 
0.443 0.502 0.643 0.459 
0.557 0.208 0.663 0.584 
0.584 0.376 0.561 0.498 
0.694 0.333 0.643 0.541 
0.471 0.376 0.592 0.584 
0.333 0.169 0.475 0.416 
0.416 0.29 0.49 0.459 
0.306 0.416 0.592 0.584 
0.667 0.459 0.627 0.584 
0.361 0.416 0.525 0.498 
0.333 0.251 0.576 0.459 
0.416 0.251 0.51 0.459 
0.361 0.29 0.541 0.498 
0.388 0.376 0.541 0.498 
0.224 0.208 0.337 0.416 
0.584 0.502 0.592 0.584 
0.333 0.125 0.51 0.498 
0.388 0.333 0.592 0.498 
0.165 0.169 0.388 0.376 
0.251 0.29 0.49 0.541 
0.443 0.416 0.541 0.584 
0.498 0.376 0.627 0.541 
0.667 0.459 0.576 0.541 
0.416 0.29 0.525 0.376 
0.361 0.208 0.49 0.416 
0.498 0.333 0.51 0.498 
0.498 0.333 0.627 0.459 
0.639 0.416 0.576 0.541 
0.667 0.416 0.678 0.667 
0.388 0.251 0.424 0.376 
0.333 0.169 0.459 0.376 
0.471 0.29 0.694 0.624 
0.471 0.584 0.592 0.624 
0.557 0.125 0.576 0.498 
0.333 0.208 0.51 0.498 
0.498 0.416 0.612 0.541 
0.196 0.125 0.388 0.376 
0.388 0.416 0.541 0.459 
0.529 0.376 0.561 0.498 
0.388 0.333 0.525 0.498 
0.557 0.541 0.847 1.0 
0.776 0.416 0.831 0.831 
0.612 0.416 0.812 0.875 
0.165 0.208 0.592 0.667 
0.667 0.208 0.812 0.71 
0.612 0.502 0.694 0.792 
0.694 0.416 0.761 0.831 
0.416 0.333 0.694 0.957 
0.612 0.416 0.761 0.71 
0.945 0.251 1.0 0.918 
0.722 0.502 0.796 0.918 
0.945 0.333 0.965 0.792 
0.667 0.541 0.796 0.831 
0.529 0.333 0.643 0.71 
0.584 0.333 0.78 0.831 
0.863 0.333 0.863 0.749 
0.584 0.333 0.78 0.875 
0.498 0.251 0.78 0.541 
0.557 0.584 0.78 0.957 
0.471 0.416 0.643 0.71 
0.667 0.459 0.78 0.957 
0.416 0.29 0.694 0.749 
0.667 0.541 0.796 1.0 
0.557 0.208 0.678 0.749 
0.529 0.584 0.745 0.918 
0.416 0.29 0.694 0.749 
0.557 0.376 0.78 0.71 
0.918 0.416 0.949 0.831 
0.835 0.376 0.898 0.71 
0.804 0.667 0.863 1.0 
0.584 0.29 0.729 0.749 
0.388 0.208 0.678 0.792 
0.584 0.502 0.729 0.918 
0.945 0.749 0.965 0.875 
0.471 0.082 0.678 0.584 
0.361 0.333 0.663 0.792 
0.557 0.29 0.663 0.71 
0.804 0.502 0.847 0.71 
0.498 0.416 0.51 0.71 
0.804 0.416 0.812 0.624 
1.0 0.749 0.914 0.792 
0.557 0.333 0.694 0.584 
0.945 0.416 0.863 0.918 
0.584 0.459 0.761 0.71 
0.722 0.459 0.745 0.831 
0.722 0.459 0.694 0.918 
0.694 0.502 0.831 0.918 
0.667 0.416 0.714 0.918 
0.612 0.416 0.714 0.792 
0.443 0.416 0.694 0.71 
Teaching Patterns
1.0 0.0 0.0 
1.0 0.0 0.0 
1.0 0.0 0.0 
1.0 0.0 0.0 
1.0 0.0 0.0 
1.0 0.0 0.0 
1.0 0.0 0.0 
1.0 0.0 0.0 
1.0 0.0 0.0 
1.0 0.0 0.0 
1.0 0.0 0.0 
1.0 0.0 0.0 
1.0 0.0 0.0 
1.0 0.0 0.0 
1.0 0.0 0.0 
1.0 0.0 0.0 
1.0 0.0 0.0 
1.0 0.0 0.0 
1.0 0.0 0.0 
1.0 0.0 0.0 
1.0 0.0 0.0 
1.0 0.0 0.0 
1.0 0.0 0.0 
1.0 0.0 0.0 
1.0 0.0 0.0 
1.0 0.0 0.0 
1.0 0.0 0.0 
1.0 0.0 0.0 
1.0 0.0 0.0 
1.0 0.0 0.0 
1.0 0.0 0.0 
1.0 0.0 0.0 
1.0 0.0 0.0 
1.0 0.0 0.0 
1.0 0.0 0.0 
1.0 0.0 0.0 
1.0 0.0 0.0 
1.0 0.0 0.0 
1.0 0.0 0.0 
1.0 0.0 0.0 
1.0 0.0 0.0 
1.0 0.0 0.0 
1.0 0.0 0.0 
1.0 0.0 0.0 
1.0 0.0 0.0 
1.0 0.0 0.0 
1.0 0.0 0.0 
1.0 0.0 0.0 
1.0 0.0 0.0 
1.0 0.0 0.0 
0.0 1.0 0.0 
0.0 1.0 0.0 
0.0 1.0 0.0 
0.0 1.0 0.0 
0.0 1.0 0.0 
0.0 1.0 0.0 
0.0 1.0 0.0 
0.0 1.0 0.0 
0.0 1.0 0.0 
0.0 1.0 0.0 
0.0 1.0 0.0 
0.0 1.0 0.0 
0.0 1.0 0.0 
0.0 1.0 0.0 
0.0 1.0 0.0 
0.0 1.0 0.0 
0.0 1.0 0.0 
0.0 1.0 0.0 
0.0 1.0 0.0 
0.0 1.0 0.0 
0.0 1.0 0.0 
0.0 1.0 0.0 
0.0 1.0 0.0 
0.0 1.0 0.0 
0.0 1.0 0.0 
0.0 1.0 0.0 
0.0 1.0 0.0 
0.0 1.0 0.0 
0.0 1.0 0.0 
0.0 1.0 0.0 
0.0 1.0 0.0 
0.0 1.0 0.0 
0.0 1.0 0.0 
0.0 1.0 0.0 
0.0 1.0 0.0 
0.0 1.0 0.0 
0.0 1.0 0.0 
0.0 1.0 0.0 
0.0 1.0 0.0 
0.0 1.0 0.0 
0.0 1.0 0.0 
0.0 1.0 0.0 
0.0 1.0 0.0 
0.0 1.0 0.0 
0.0 1.0 0.0 
0.0 1.0 0.0 
0.0 1.0 0.0 
0.0 1.0 0.0 
0.0 1.0 0.0 
0.0 1.0 0.0 
0.0 0.0 1.0 
0.0 0.0 1.0 
0.0 0.0 1.0 
0.0 0.0 1.0 
0.0 0.0 1.0 
0.0 0.0 1.0 
0.0 0.0 1.0 
0.0 0.0 1.0 
0.0 0.0 1.0 
0.0 0.0 1.0 
0.0 0.0 1.0 
0.0 0.0 1.0 
0.0 0.0 1.0 
0.0 0.0 1.0 
0.0 0.0 1.0 
0.0 0.0 1.0 
0.0 0.0 1.0 
0.0 0.0 1.0 
0.0 0.0 1.0 
0.0 0.0 1.0 
0.0 0.0 1.0 
0.0 0.0 1.0 
0.0 0.0 1.0 
0.0 0.0 1.0 
0.0 0.0 1.0 
0.0 0.0 1.0 
0.0 0.0 1.0 
0.0 0.0 1.0 
0.0 0.0 1.0 
0.0 0.0 1.0 
0.0 0.0 1.0 
0.0 0.0 1.0 
0.0 0.0 1.0 
0.0 0.0 1.0 
0.0 0.0 1.0 
0.0 0.0 1.0 
0.0 0.0 1.0 
0.0 0.0 1.0 
0.0 0.0 1.0 
0.0 0.0 1.0 
0.0 0.0 1.0 
0.0 0.0 1.0 
0.0 0.0 1.0 
0.0 0.0 1.0 
0.0 0.0 1.0 
0.0 0.0 1.0 
0.0 0.0 1.0 
0.0 0.0 1.0 
0.0 0.0 1.0 
0.0 0.0 1.0 
Learning : 0.15000000596046448
Momentum : 0.9
Epoch: 100, Error: 0.016959736758194763
Epoch: 200, Error: 0.014710514914492353
Epoch: 300, Error: 0.013880480708295145
Epoch: 400, Error: 0.012980539694645158
Epoch: 500, Error: 0.01407129054809268
Epoch: 600, Error: 0.012739949846699608
Epoch: 700, Error: 0.014311699205931101
Epoch: 800, Error: 0.012786049536775639
Epoch: 900, Error: 0.012969404520652504
Epoch: 1000, Error: 0.012426445149449931
Epoch: 1100, Error: 0.012678261122192912
Epoch: 1200, Error: 0.012321482660335765
Epoch: 1300, Error: 0.012252886951011972
Epoch: 1400, Error: 0.012327212395840597
Epoch: 1500, Error: 0.012319307697255978
Epoch: 1600, Error: 0.012139204725266032
Epoch: 1700, Error: 0.012314401041690215
Epoch: 1800, Error: 0.012354452583068859
Epoch: 1900, Error: 0.012053390775933532
Epoch: 2000, Error: 0.012265128164897653
Epoch: 2100, Error: 0.011888461975942429
Epoch: 2200, Error: 0.011837131197179863
Epoch: 2300, Error: 0.011909327949793758
Epoch: 2400, Error: 0.011704471698050606
Epoch: 2500, Error: 0.012120554888330857
Epoch: 2600, Error: 0.011632443458887321
Epoch: 2700, Error: 0.011525483700805054
Epoch: 2800, Error: 0.011448007796282817
Epoch: 2900, Error: 0.011357938859918027
Epoch: 3000, Error: 0.011751396471174302
Epoch: 3100, Error: 0.011672523586545977
Epoch: 3200, Error: 0.011870225990707318
Epoch: 3300, Error: 0.011195379755215328
Epoch: 3400, Error: 0.010889728204840955
Epoch: 3500, Error: 0.011078569873206367
Epoch: 3600, Error: 0.010681779385693634
Epoch: 3700, Error: 0.010552894808107052
Epoch: 3800, Error: 0.01045020723635167
Epoch: 3900, Error: 0.010523743427988074
Epoch: 4000, Error: 0.010158848721118016
Epoch: 4100, Error: 0.010081539390950566
Epoch: 4200, Error: 0.009901106134560694
Epoch: 4300, Error: 0.009436828894883783
Epoch: 4400, Error: 0.009212751040253663
Epoch: 4500, Error: 0.008953469525324912
Epoch: 4600, Error: 0.008939414734225775
Epoch: 4700, Error: 0.008392398598174741
Epoch: 4800, Error: 0.00812405992074414
Epoch: 4900, Error: 0.008001925485471392
Epoch: 5000, Error: 0.007827748382842769
Epoch: 5100, Error: 0.0074171226533783895
Epoch: 5200, Error: 0.007233884437776607
Epoch: 5300, Error: 0.0069593231036410835
Epoch: 5400, Error: 0.006759378951452947
Epoch: 5500, Error: 0.0067308226196747326
Epoch: 5600, Error: 0.006722225844998761
Epoch: 5700, Error: 0.006408533507875558
Epoch: 5800, Error: 0.006219054962573875
Epoch: 5900, Error: 0.006112895518887263
Epoch: 6000, Error: 0.006079592875790072
Epoch: 6100, Error: 0.006102878552382324
Epoch: 6200, Error: 0.005993285333130426
Epoch: 6300, Error: 0.005960807055092557
Epoch: 6400, Error: 0.006076364774818406
Epoch: 6500, Error: 0.00591544744785814
Epoch: 6600, Error: 0.0058001617479033225
Epoch: 6700, Error: 0.005777315573815109
Epoch: 6800, Error: 0.005697319713562957
Epoch: 6900, Error: 0.005653986370420798
Epoch: 7000, Error: 0.005644188057135113
Epoch: 7100, Error: 0.005602550696470523
Epoch: 7200, Error: 0.0055954909453409685
Epoch: 7300, Error: 0.0055615362388611546
Epoch: 7400, Error: 0.0055710946017193
Epoch: 7500, Error: 0.005536933416149499
Epoch: 7600, Error: 0.005502291383598157
Epoch: 7700, Error: 0.005591744108753481
Epoch: 7800, Error: 0.005469960121491881
Epoch: 7900, Error: 0.0054979662296727955
Epoch: 8000, Error: 0.005450443489046507
Epoch: 8100, Error: 0.005417026339009408
Epoch: 8200, Error: 0.005455765986848215
Epoch: 8300, Error: 0.0053958428377333814
Epoch: 8400, Error: 0.0054113637772724285
Epoch: 8500, Error: 0.005412222741387248
Epoch: 8600, Error: 0.005400173154618618
Epoch: 8700, Error: 0.005389682429170002
Epoch: 8800, Error: 0.0054170971953958385
Epoch: 8900, Error: 0.005384055663728454
Epoch: 9000, Error: 0.005392496951931248
Epoch: 9100, Error: 0.00541593928229008
Epoch: 9200, Error: 0.00538580900728658
Epoch: 9300, Error: 0.0054021168886065705
Epoch: 9400, Error: 0.005393771591313424
Epoch: 9500, Error: 0.005339878385110208
Finished
