Input Patterns
0.224 0.624 0.067 0.043 
0.11 0.502 0.051 0.043 
0.196 0.667 0.067 0.043 
0.055 0.584 0.067 0.082 
0.027 0.376 0.067 0.043 
0.306 0.71 0.086 0.043 
0.137 0.416 0.067 0.0 
0.416 0.831 0.035 0.043 
0.306 0.792 0.051 0.125 
0.388 0.749 0.118 0.082 
0.306 0.584 0.118 0.043 
0.082 0.667 0.0 0.043 
0.137 0.584 0.153 0.043 
0.196 0.584 0.102 0.125 
0.251 0.584 0.067 0.043 
0.137 0.459 0.102 0.043 
0.251 0.875 0.086 0.0 
0.165 0.459 0.086 0.043 
0.333 0.624 0.051 0.043 
0.027 0.416 0.051 0.043 
0.196 0.624 0.051 0.082 
0.027 0.502 0.051 0.043 
0.224 0.749 0.153 0.125 
0.224 0.749 0.102 0.043 
0.278 0.71 0.086 0.043 
0.165 0.416 0.067 0.043 
0.082 0.459 0.086 0.043 
0.306 0.792 0.118 0.125 
0.196 0.584 0.086 0.043 
0.165 0.459 0.086 0.0 
0.137 0.584 0.102 0.043 
0.0 0.416 0.016 0.0 
0.388 1.0 0.086 0.125 
0.224 0.624 0.067 0.082 
0.224 0.749 0.086 0.082 
0.224 0.71 0.086 0.125 
0.224 0.541 0.118 0.165 
0.196 0.416 0.102 0.043 
0.251 0.624 0.086 0.043 
0.11 0.502 0.102 0.043 
0.306 0.584 0.086 0.125 
0.333 0.918 0.067 0.043 
0.196 0.502 0.035 0.043 
0.165 0.667 0.067 0.0 
0.224 0.584 0.086 0.043 
0.055 0.125 0.051 0.082 
0.196 0.624 0.102 0.208 
0.137 0.416 0.067 0.082 
0.082 0.502 0.067 0.043 
0.196 0.541 0.067 0.043 
0.749 0.502 0.627 0.541 
0.722 0.459 0.663 0.584 
0.612 0.333 0.612 0.584 
0.557 0.541 0.627 0.624 
0.639 0.376 0.612 0.498 
0.196 0.0 0.424 0.376 
0.471 0.082 0.51 0.376 
0.361 0.376 0.439 0.498 
0.361 0.416 0.592 0.584 
0.529 0.082 0.592 0.584 
0.443 0.502 0.643 0.459 
0.557 0.208 0.663 0.584 
0.584 0.376 0.561 0.498 
0.694 0.333 0.643 0.541 
0.471 0.376 0.592 0.584 
0.333 0.169 0.475 0.416 
0.416 0.29 0.49 0.459 
0.306 0.416 0.592 0.584 
0.667 0.459 0.627 0.584 
0.361 0.416 0.525 0.498 
0.333 0.251 0.576 0.459 
0.416 0.251 0.51 0.459 
0.361 0.29 0.541 0.498 
0.388 0.376 0.541 0.498 
0.224 0.208 0.337 0.416 
0.584 0.502 0.592 0.584 
0.333 0.125 0.51 0.498 
0.388 0.333 0.592 0.498 
0.165 0.169 0.388 0.376 
0.251 0.29 0.49 0.541 
0.443 0.416 0.541 0.584 
0.498 0.376 0.627 0.541 
0.667 0.459 0.576 0.541 
0.416 0.29 0.525 0.376 
0.361 0.208 0.49 0.416 
0.498 0.333 0.51 0.498 
0.498 0.333 0.627 0.459 
0.639 0.416 0.576 0.541 
0.667 0.416 0.678 0.667 
0.388 0.251 0.424 0.376 
0.333 0.169 0.459 0.376 
0.471 0.29 0.694 0.624 
0.471 0.584 0.592 0.624 
0.557 0.125 0.576 0.498 
0.333 0.208 0.51 0.498 
0.498 0.416 0.612 0.541 
0.196 0.125 0.388 0.376 
0.388 0.416 0.541 0.459 
0.529 0.376 0.561 0.498 
0.388 0.333 0.525 0.498 
0.557 0.541 0.847 1.0 
0.776 0.416 0.831 0.831 
0.612 0.416 0.812 0.875 
0.165 0.208 0.592 0.667 
0.667 0.208 0.812 0.71 
0.612 0.502 0.694 0.792 
0.694 0.416 0.761 0.831 
0.416 0.333 0.694 0.957 
0.612 0.416 0.761 0.71 
0.945 0.251 1.0 0.918 
0.722 0.502 0.796 0.918 
0.945 0.333 0.965 0.792 
0.667 0.541 0.796 0.831 
0.529 0.333 0.643 0.71 
0.584 0.333 0.78 0.831 
0.863 0.333 0.863 0.749 
0.584 0.333 0.78 0.875 
0.498 0.251 0.78 0.541 
0.557 0.584 0.78 0.957 
0.471 0.416 0.643 0.71 
0.667 0.459 0.78 0.957 
0.416 0.29 0.694 0.749 
0.667 0.541 0.796 1.0 
0.557 0.208 0.678 0.749 
0.529 0.584 0.745 0.918 
0.416 0.29 0.694 0.749 
0.557 0.376 0.78 0.71 
0.918 0.416 0.949 0.831 
0.835 0.376 0.898 0.71 
0.804 0.667 0.863 1.0 
0.584 0.29 0.729 0.749 
0.388 0.208 0.678 0.792 
0.584 0.502 0.729 0.918 
0.945 0.749 0.965 0.875 
0.471 0.082 0.678 0.584 
0.361 0.333 0.663 0.792 
0.557 0.29 0.663 0.71 
0.804 0.502 0.847 0.71 
0.498 0.416 0.51 0.71 
0.804 0.416 0.812 0.624 
1.0 0.749 0.914 0.792 
0.557 0.333 0.694 0.584 
0.945 0.416 0.863 0.918 
0.584 0.459 0.761 0.71 
0.722 0.459 0.745 0.831 
0.722 0.459 0.694 0.918 
0.694 0.502 0.831 0.918 
0.667 0.416 0.714 0.918 
0.612 0.416 0.714 0.792 
0.443 0.416 0.694 0.71 
Teaching Patterns
1.0 0.0 0.0 
1.0 0.0 0.0 
1.0 0.0 0.0 
1.0 0.0 0.0 
1.0 0.0 0.0 
1.0 0.0 0.0 
1.0 0.0 0.0 
1.0 0.0 0.0 
1.0 0.0 0.0 
1.0 0.0 0.0 
1.0 0.0 0.0 
1.0 0.0 0.0 
1.0 0.0 0.0 
1.0 0.0 0.0 
1.0 0.0 0.0 
1.0 0.0 0.0 
1.0 0.0 0.0 
1.0 0.0 0.0 
1.0 0.0 0.0 
1.0 0.0 0.0 
1.0 0.0 0.0 
1.0 0.0 0.0 
1.0 0.0 0.0 
1.0 0.0 0.0 
1.0 0.0 0.0 
1.0 0.0 0.0 
1.0 0.0 0.0 
1.0 0.0 0.0 
1.0 0.0 0.0 
1.0 0.0 0.0 
1.0 0.0 0.0 
1.0 0.0 0.0 
1.0 0.0 0.0 
1.0 0.0 0.0 
1.0 0.0 0.0 
1.0 0.0 0.0 
1.0 0.0 0.0 
1.0 0.0 0.0 
1.0 0.0 0.0 
1.0 0.0 0.0 
1.0 0.0 0.0 
1.0 0.0 0.0 
1.0 0.0 0.0 
1.0 0.0 0.0 
1.0 0.0 0.0 
1.0 0.0 0.0 
1.0 0.0 0.0 
1.0 0.0 0.0 
1.0 0.0 0.0 
1.0 0.0 0.0 
0.0 1.0 0.0 
0.0 1.0 0.0 
0.0 1.0 0.0 
0.0 1.0 0.0 
0.0 1.0 0.0 
0.0 1.0 0.0 
0.0 1.0 0.0 
0.0 1.0 0.0 
0.0 1.0 0.0 
0.0 1.0 0.0 
0.0 1.0 0.0 
0.0 1.0 0.0 
0.0 1.0 0.0 
0.0 1.0 0.0 
0.0 1.0 0.0 
0.0 1.0 0.0 
0.0 1.0 0.0 
0.0 1.0 0.0 
0.0 1.0 0.0 
0.0 1.0 0.0 
0.0 1.0 0.0 
0.0 1.0 0.0 
0.0 1.0 0.0 
0.0 1.0 0.0 
0.0 1.0 0.0 
0.0 1.0 0.0 
0.0 1.0 0.0 
0.0 1.0 0.0 
0.0 1.0 0.0 
0.0 1.0 0.0 
0.0 1.0 0.0 
0.0 1.0 0.0 
0.0 1.0 0.0 
0.0 1.0 0.0 
0.0 1.0 0.0 
0.0 1.0 0.0 
0.0 1.0 0.0 
0.0 1.0 0.0 
0.0 1.0 0.0 
0.0 1.0 0.0 
0.0 1.0 0.0 
0.0 1.0 0.0 
0.0 1.0 0.0 
0.0 1.0 0.0 
0.0 1.0 0.0 
0.0 1.0 0.0 
0.0 1.0 0.0 
0.0 1.0 0.0 
0.0 1.0 0.0 
0.0 1.0 0.0 
0.0 0.0 1.0 
0.0 0.0 1.0 
0.0 0.0 1.0 
0.0 0.0 1.0 
0.0 0.0 1.0 
0.0 0.0 1.0 
0.0 0.0 1.0 
0.0 0.0 1.0 
0.0 0.0 1.0 
0.0 0.0 1.0 
0.0 0.0 1.0 
0.0 0.0 1.0 
0.0 0.0 1.0 
0.0 0.0 1.0 
0.0 0.0 1.0 
0.0 0.0 1.0 
0.0 0.0 1.0 
0.0 0.0 1.0 
0.0 0.0 1.0 
0.0 0.0 1.0 
0.0 0.0 1.0 
0.0 0.0 1.0 
0.0 0.0 1.0 
0.0 0.0 1.0 
0.0 0.0 1.0 
0.0 0.0 1.0 
0.0 0.0 1.0 
0.0 0.0 1.0 
0.0 0.0 1.0 
0.0 0.0 1.0 
0.0 0.0 1.0 
0.0 0.0 1.0 
0.0 0.0 1.0 
0.0 0.0 1.0 
0.0 0.0 1.0 
0.0 0.0 1.0 
0.0 0.0 1.0 
0.0 0.0 1.0 
0.0 0.0 1.0 
0.0 0.0 1.0 
0.0 0.0 1.0 
0.0 0.0 1.0 
0.0 0.0 1.0 
0.0 0.0 1.0 
0.0 0.0 1.0 
0.0 0.0 1.0 
0.0 0.0 1.0 
0.0 0.0 1.0 
0.0 0.0 1.0 
0.0 0.0 1.0 
Learning : 0.15000000596046448
Momentum : 0.9
Epoch: 100, Error: 0.01611987293929435
Epoch: 200, Error: 0.013948573604760862
Epoch: 300, Error: 0.013160410949056766
Epoch: 400, Error: 0.01256131693374314
Epoch: 500, Error: 0.012506188465527092
Epoch: 600, Error: 0.01287676952669734
Epoch: 700, Error: 0.01336385995182974
Epoch: 800, Error: 0.012215749732691234
Epoch: 900, Error: 0.012457568902744734
Epoch: 1000, Error: 0.012948877959984392
Epoch: 1100, Error: 0.012285860296361426
Epoch: 1200, Error: 0.012271796918995312
Epoch: 1300, Error: 0.012282927436859555
Epoch: 1400, Error: 0.012167607054456336
Epoch: 1500, Error: 0.012142759228140515
Epoch: 1600, Error: 0.012130120194232796
Epoch: 1700, Error: 0.01213225413009814
Epoch: 1800, Error: 0.012477291284221564
Epoch: 1900, Error: 0.012119365958316758
Epoch: 2000, Error: 0.01255472899967196
Epoch: 2100, Error: 0.012523478881517437
Epoch: 2200, Error: 0.012016063253937954
Epoch: 2300, Error: 0.012300941066043476
Epoch: 2400, Error: 0.01199698046374412
Epoch: 2500, Error: 0.01230017360852631
Epoch: 2600, Error: 0.011840868331148913
Epoch: 2700, Error: 0.012125984511360436
Epoch: 2800, Error: 0.011739265587144264
Epoch: 2900, Error: 0.011745089178275027
Epoch: 3000, Error: 0.01238023637400655
Epoch: 3100, Error: 0.01163302643595348
Epoch: 3200, Error: 0.011635656039741623
Epoch: 3300, Error: 0.01151612139414295
Epoch: 3400, Error: 0.011693953705748317
Epoch: 3500, Error: 0.011637521733068583
Epoch: 3600, Error: 0.011101833045903585
Epoch: 3700, Error: 0.011050072937765276
Epoch: 3800, Error: 0.010888341636580926
Epoch: 3900, Error: 0.01084274679374809
Epoch: 4000, Error: 0.010647721941770277
Epoch: 4100, Error: 0.010334514334344362
Epoch: 4200, Error: 0.01017453219630009
Epoch: 4300, Error: 0.009994994851552705
Epoch: 4400, Error: 0.009964897279422812
Epoch: 4500, Error: 0.0097487467363958
Epoch: 4600, Error: 0.009609479878550483
Epoch: 4700, Error: 0.009002798442651446
Epoch: 4800, Error: 0.008792539257328138
Epoch: 4900, Error: 0.008547376017546546
Epoch: 5000, Error: 0.008335898917816038
Epoch: 5100, Error: 0.008106045452529995
Epoch: 5200, Error: 0.008132909103441454
Epoch: 5300, Error: 0.007773410385136369
Epoch: 5400, Error: 0.0075082492174583845
Epoch: 5500, Error: 0.007496949052381542
Epoch: 5600, Error: 0.0072183201538158805
Epoch: 5700, Error: 0.007056739134185608
Epoch: 5800, Error: 0.006977670739409508
Epoch: 5900, Error: 0.00716711743608675
Epoch: 6000, Error: 0.0069867837969353275
Epoch: 6100, Error: 0.006586291721631079
Epoch: 6200, Error: 0.006902760454525341
Epoch: 6300, Error: 0.006456153774864532
Epoch: 6400, Error: 0.006342159284352364
Epoch: 6500, Error: 0.006264686917925337
Epoch: 6600, Error: 0.006637906371138276
Epoch: 6700, Error: 0.006225068954877257
Epoch: 6800, Error: 0.006218048928000881
Epoch: 6900, Error: 0.006076816292155626
Epoch: 7000, Error: 0.006020968850284191
Epoch: 7100, Error: 0.006049590731439644
Epoch: 7200, Error: 0.005973331151822504
Epoch: 7300, Error: 0.006001977501868041
Epoch: 7400, Error: 0.005953159510425761
Epoch: 7500, Error: 0.00592959027288668
Epoch: 7600, Error: 0.005996484282559405
Epoch: 7700, Error: 0.005926602619142423
Epoch: 7800, Error: 0.005920413728229164
Epoch: 7900, Error: 0.005941249668308674
Epoch: 8000, Error: 0.005896333567519653
Epoch: 8100, Error: 0.005883223718823119
Epoch: 8200, Error: 0.005858094130760023
Epoch: 8300, Error: 0.005870956844818932
Epoch: 8400, Error: 0.0059677063073029415
Epoch: 8500, Error: 0.0059068863854312365
Epoch: 8600, Error: 0.005842621340422469
Epoch: 8700, Error: 0.005826624762103012
Epoch: 8800, Error: 0.005824864321285381
Epoch: 8900, Error: 0.005781485682109118
Epoch: 9000, Error: 0.005811238678517441
Epoch: 9100, Error: 0.005814071696858644
Epoch: 9200, Error: 0.0057914259599297895
Epoch: 9300, Error: 0.005797513286286805
Epoch: 9400, Error: 0.00578888532599673
Epoch: 9500, Error: 0.0058235334212835615
Epoch: 9600, Error: 0.005819028407282188
Epoch: 9700, Error: 0.005780912539849517
Epoch: 9800, Error: 0.005843723711792108
Epoch: 9900, Error: 0.00575613593443644
Epoch: 10000, Error: 0.005718333518409985
Epoch: 10100, Error: 0.005787396590473745
Epoch: 10200, Error: 0.005757582524900138
Epoch: 10300, Error: 0.00577424932454467
Epoch: 10400, Error: 0.005771381395525121
Epoch: 10500, Error: 0.005717708282714349
Epoch: 10600, Error: 0.005715833864741016
Epoch: 10700, Error: 0.005825652629797908
Epoch: 10800, Error: 0.005696708579925878
Epoch: 10900, Error: 0.005736485709466256
Epoch: 11000, Error: 0.005723959924367083
Epoch: 11100, Error: 0.005712155917567888
Epoch: 11200, Error: 0.005700920034454996
Epoch: 11300, Error: 0.005686891311522545
Epoch: 11400, Error: 0.0056858677034728475
Epoch: 11500, Error: 0.005678830011822219
Epoch: 11600, Error: 0.005659072913127399
Epoch: 11700, Error: 0.005664134539545587
Epoch: 11800, Error: 0.0056431180646088494
Epoch: 11900, Error: 0.005637421719136116
Epoch: 12000, Error: 0.005639559519644291
Finished
