Input Patterns
0.224 0.624 0.067 0.043 
0.11 0.502 0.051 0.043 
0.196 0.667 0.067 0.043 
0.055 0.584 0.067 0.082 
0.027 0.376 0.067 0.043 
0.306 0.71 0.086 0.043 
0.137 0.416 0.067 0.0 
0.416 0.831 0.035 0.043 
0.306 0.792 0.051 0.125 
0.388 0.749 0.118 0.082 
0.306 0.584 0.118 0.043 
0.082 0.667 0.0 0.043 
0.137 0.584 0.153 0.043 
0.196 0.584 0.102 0.125 
0.251 0.584 0.067 0.043 
0.137 0.459 0.102 0.043 
0.251 0.875 0.086 0.0 
0.165 0.459 0.086 0.043 
0.333 0.624 0.051 0.043 
0.027 0.416 0.051 0.043 
0.196 0.624 0.051 0.082 
0.027 0.502 0.051 0.043 
0.224 0.749 0.153 0.125 
0.224 0.749 0.102 0.043 
0.278 0.71 0.086 0.043 
0.165 0.416 0.067 0.043 
0.082 0.459 0.086 0.043 
0.306 0.792 0.118 0.125 
0.196 0.584 0.086 0.043 
0.165 0.459 0.086 0.0 
0.137 0.584 0.102 0.043 
0.0 0.416 0.016 0.0 
0.388 1.0 0.086 0.125 
0.224 0.624 0.067 0.082 
0.224 0.749 0.086 0.082 
0.224 0.71 0.086 0.125 
0.224 0.541 0.118 0.165 
0.196 0.416 0.102 0.043 
0.251 0.624 0.086 0.043 
0.11 0.502 0.102 0.043 
0.306 0.584 0.086 0.125 
0.333 0.918 0.067 0.043 
0.196 0.502 0.035 0.043 
0.165 0.667 0.067 0.0 
0.224 0.584 0.086 0.043 
0.055 0.125 0.051 0.082 
0.196 0.624 0.102 0.208 
0.137 0.416 0.067 0.082 
0.082 0.502 0.067 0.043 
0.196 0.541 0.067 0.043 
0.749 0.502 0.627 0.541 
0.722 0.459 0.663 0.584 
0.612 0.333 0.612 0.584 
0.557 0.541 0.627 0.624 
0.639 0.376 0.612 0.498 
0.196 0.0 0.424 0.376 
0.471 0.082 0.51 0.376 
0.361 0.376 0.439 0.498 
0.361 0.416 0.592 0.584 
0.529 0.082 0.592 0.584 
0.443 0.502 0.643 0.459 
0.557 0.208 0.663 0.584 
0.584 0.376 0.561 0.498 
0.694 0.333 0.643 0.541 
0.471 0.376 0.592 0.584 
0.333 0.169 0.475 0.416 
0.416 0.29 0.49 0.459 
0.306 0.416 0.592 0.584 
0.667 0.459 0.627 0.584 
0.361 0.416 0.525 0.498 
0.333 0.251 0.576 0.459 
0.416 0.251 0.51 0.459 
0.361 0.29 0.541 0.498 
0.388 0.376 0.541 0.498 
0.224 0.208 0.337 0.416 
0.584 0.502 0.592 0.584 
0.333 0.125 0.51 0.498 
0.388 0.333 0.592 0.498 
0.165 0.169 0.388 0.376 
0.251 0.29 0.49 0.541 
0.443 0.416 0.541 0.584 
0.498 0.376 0.627 0.541 
0.667 0.459 0.576 0.541 
0.416 0.29 0.525 0.376 
0.361 0.208 0.49 0.416 
0.498 0.333 0.51 0.498 
0.498 0.333 0.627 0.459 
0.639 0.416 0.576 0.541 
0.667 0.416 0.678 0.667 
0.388 0.251 0.424 0.376 
0.333 0.169 0.459 0.376 
0.471 0.29 0.694 0.624 
0.471 0.584 0.592 0.624 
0.557 0.125 0.576 0.498 
0.333 0.208 0.51 0.498 
0.498 0.416 0.612 0.541 
0.196 0.125 0.388 0.376 
0.388 0.416 0.541 0.459 
0.529 0.376 0.561 0.498 
0.388 0.333 0.525 0.498 
0.557 0.541 0.847 1.0 
0.776 0.416 0.831 0.831 
0.612 0.416 0.812 0.875 
0.165 0.208 0.592 0.667 
0.667 0.208 0.812 0.71 
0.612 0.502 0.694 0.792 
0.694 0.416 0.761 0.831 
0.416 0.333 0.694 0.957 
0.612 0.416 0.761 0.71 
0.945 0.251 1.0 0.918 
0.722 0.502 0.796 0.918 
0.945 0.333 0.965 0.792 
0.667 0.541 0.796 0.831 
0.529 0.333 0.643 0.71 
0.584 0.333 0.78 0.831 
0.863 0.333 0.863 0.749 
0.584 0.333 0.78 0.875 
0.498 0.251 0.78 0.541 
0.557 0.584 0.78 0.957 
0.471 0.416 0.643 0.71 
0.667 0.459 0.78 0.957 
0.416 0.29 0.694 0.749 
0.667 0.541 0.796 1.0 
0.557 0.208 0.678 0.749 
0.529 0.584 0.745 0.918 
0.416 0.29 0.694 0.749 
0.557 0.376 0.78 0.71 
0.918 0.416 0.949 0.831 
0.835 0.376 0.898 0.71 
0.804 0.667 0.863 1.0 
0.584 0.29 0.729 0.749 
0.388 0.208 0.678 0.792 
0.584 0.502 0.729 0.918 
0.945 0.749 0.965 0.875 
0.471 0.082 0.678 0.584 
0.361 0.333 0.663 0.792 
0.557 0.29 0.663 0.71 
0.804 0.502 0.847 0.71 
0.498 0.416 0.51 0.71 
0.804 0.416 0.812 0.624 
1.0 0.749 0.914 0.792 
0.557 0.333 0.694 0.584 
0.945 0.416 0.863 0.918 
0.584 0.459 0.761 0.71 
0.722 0.459 0.745 0.831 
0.722 0.459 0.694 0.918 
0.694 0.502 0.831 0.918 
0.667 0.416 0.714 0.918 
0.612 0.416 0.714 0.792 
0.443 0.416 0.694 0.71 
Teaching Patterns
1.0 0.0 0.0 
1.0 0.0 0.0 
1.0 0.0 0.0 
1.0 0.0 0.0 
1.0 0.0 0.0 
1.0 0.0 0.0 
1.0 0.0 0.0 
1.0 0.0 0.0 
1.0 0.0 0.0 
1.0 0.0 0.0 
1.0 0.0 0.0 
1.0 0.0 0.0 
1.0 0.0 0.0 
1.0 0.0 0.0 
1.0 0.0 0.0 
1.0 0.0 0.0 
1.0 0.0 0.0 
1.0 0.0 0.0 
1.0 0.0 0.0 
1.0 0.0 0.0 
1.0 0.0 0.0 
1.0 0.0 0.0 
1.0 0.0 0.0 
1.0 0.0 0.0 
1.0 0.0 0.0 
1.0 0.0 0.0 
1.0 0.0 0.0 
1.0 0.0 0.0 
1.0 0.0 0.0 
1.0 0.0 0.0 
1.0 0.0 0.0 
1.0 0.0 0.0 
1.0 0.0 0.0 
1.0 0.0 0.0 
1.0 0.0 0.0 
1.0 0.0 0.0 
1.0 0.0 0.0 
1.0 0.0 0.0 
1.0 0.0 0.0 
1.0 0.0 0.0 
1.0 0.0 0.0 
1.0 0.0 0.0 
1.0 0.0 0.0 
1.0 0.0 0.0 
1.0 0.0 0.0 
1.0 0.0 0.0 
1.0 0.0 0.0 
1.0 0.0 0.0 
1.0 0.0 0.0 
1.0 0.0 0.0 
0.0 1.0 0.0 
0.0 1.0 0.0 
0.0 1.0 0.0 
0.0 1.0 0.0 
0.0 1.0 0.0 
0.0 1.0 0.0 
0.0 1.0 0.0 
0.0 1.0 0.0 
0.0 1.0 0.0 
0.0 1.0 0.0 
0.0 1.0 0.0 
0.0 1.0 0.0 
0.0 1.0 0.0 
0.0 1.0 0.0 
0.0 1.0 0.0 
0.0 1.0 0.0 
0.0 1.0 0.0 
0.0 1.0 0.0 
0.0 1.0 0.0 
0.0 1.0 0.0 
0.0 1.0 0.0 
0.0 1.0 0.0 
0.0 1.0 0.0 
0.0 1.0 0.0 
0.0 1.0 0.0 
0.0 1.0 0.0 
0.0 1.0 0.0 
0.0 1.0 0.0 
0.0 1.0 0.0 
0.0 1.0 0.0 
0.0 1.0 0.0 
0.0 1.0 0.0 
0.0 1.0 0.0 
0.0 1.0 0.0 
0.0 1.0 0.0 
0.0 1.0 0.0 
0.0 1.0 0.0 
0.0 1.0 0.0 
0.0 1.0 0.0 
0.0 1.0 0.0 
0.0 1.0 0.0 
0.0 1.0 0.0 
0.0 1.0 0.0 
0.0 1.0 0.0 
0.0 1.0 0.0 
0.0 1.0 0.0 
0.0 1.0 0.0 
0.0 1.0 0.0 
0.0 1.0 0.0 
0.0 1.0 0.0 
0.0 0.0 1.0 
0.0 0.0 1.0 
0.0 0.0 1.0 
0.0 0.0 1.0 
0.0 0.0 1.0 
0.0 0.0 1.0 
0.0 0.0 1.0 
0.0 0.0 1.0 
0.0 0.0 1.0 
0.0 0.0 1.0 
0.0 0.0 1.0 
0.0 0.0 1.0 
0.0 0.0 1.0 
0.0 0.0 1.0 
0.0 0.0 1.0 
0.0 0.0 1.0 
0.0 0.0 1.0 
0.0 0.0 1.0 
0.0 0.0 1.0 
0.0 0.0 1.0 
0.0 0.0 1.0 
0.0 0.0 1.0 
0.0 0.0 1.0 
0.0 0.0 1.0 
0.0 0.0 1.0 
0.0 0.0 1.0 
0.0 0.0 1.0 
0.0 0.0 1.0 
0.0 0.0 1.0 
0.0 0.0 1.0 
0.0 0.0 1.0 
0.0 0.0 1.0 
0.0 0.0 1.0 
0.0 0.0 1.0 
0.0 0.0 1.0 
0.0 0.0 1.0 
0.0 0.0 1.0 
0.0 0.0 1.0 
0.0 0.0 1.0 
0.0 0.0 1.0 
0.0 0.0 1.0 
0.0 0.0 1.0 
0.0 0.0 1.0 
0.0 0.0 1.0 
0.0 0.0 1.0 
0.0 0.0 1.0 
0.0 0.0 1.0 
0.0 0.0 1.0 
0.0 0.0 1.0 
0.0 0.0 1.0 
Learning : 0.15000000596046448
Momentum : 0.9
Epoch: 100, Error: 0.015690001586369667
Epoch: 200, Error: 0.01498315368764907
Epoch: 300, Error: 0.01294129401875394
Epoch: 400, Error: 0.013145486366429895
Epoch: 500, Error: 0.012295418532186813
Epoch: 600, Error: 0.01229877817168954
Epoch: 700, Error: 0.01267369641931701
Epoch: 800, Error: 0.012493315364085086
Epoch: 900, Error: 0.012428656369558113
Epoch: 1000, Error: 0.012940196732543773
Epoch: 1100, Error: 0.012020921407694975
Epoch: 1200, Error: 0.012158730886631414
Epoch: 1300, Error: 0.011959356063614809
Epoch: 1400, Error: 0.013125287206756608
Epoch: 1500, Error: 0.0119560816776017
Epoch: 1600, Error: 0.011918607018551098
Epoch: 1700, Error: 0.012667093466578664
Epoch: 1800, Error: 0.012114054526116049
Epoch: 1900, Error: 0.012214822948356095
Epoch: 2000, Error: 0.011938901174175726
Epoch: 2100, Error: 0.01190131479795066
Epoch: 2200, Error: 0.011906318757988399
Epoch: 2300, Error: 0.01183520077409608
Epoch: 2400, Error: 0.011857751113736421
Epoch: 2500, Error: 0.012165457737697923
Epoch: 2600, Error: 0.012037499146920564
Epoch: 2700, Error: 0.011992839053290374
Epoch: 2800, Error: 0.012196020170736897
Epoch: 2900, Error: 0.011716572873470653
Epoch: 3000, Error: 0.011821956084229496
Epoch: 3100, Error: 0.011747328181024889
Epoch: 3200, Error: 0.011495004290031415
Epoch: 3300, Error: 0.011435013656934813
Epoch: 3400, Error: 0.01139152166599704
Epoch: 3500, Error: 0.011329161580129782
Epoch: 3600, Error: 0.011356801673344822
Epoch: 3700, Error: 0.011231843745516591
Epoch: 3800, Error: 0.011054347025731397
Epoch: 3900, Error: 0.010841195879806913
Epoch: 4000, Error: 0.010861621041946231
Epoch: 4100, Error: 0.010587149750405088
Epoch: 4200, Error: 0.010551694559928647
Epoch: 4300, Error: 0.010006620817443928
Epoch: 4400, Error: 0.009566003787726369
Epoch: 4500, Error: 0.009162065074542253
Epoch: 4600, Error: 0.00868558400088157
Epoch: 4700, Error: 0.008272143216747614
Epoch: 4800, Error: 0.007893303806431155
Epoch: 4900, Error: 0.00747407051125828
Epoch: 5000, Error: 0.007259131872675965
Epoch: 5100, Error: 0.0069356033146836995
Epoch: 5200, Error: 0.006895650542066006
Epoch: 5300, Error: 0.006452574342799479
Epoch: 5400, Error: 0.0062532681492428075
Epoch: 5500, Error: 0.006158018611687759
Epoch: 5600, Error: 0.006092616806903705
Epoch: 5700, Error: 0.0060505303589332305
Epoch: 5800, Error: 0.005988447434690079
Epoch: 5900, Error: 0.005932845703268094
Epoch: 6000, Error: 0.005908690733324331
Epoch: 6100, Error: 0.0058689754841828
Epoch: 6200, Error: 0.0059192601073919
Epoch: 6300, Error: 0.0057404241622617865
Epoch: 6400, Error: 0.005710937628305054
Epoch: 6500, Error: 0.005764371265780601
Epoch: 6600, Error: 0.005643189753585718
Epoch: 6700, Error: 0.005560092460148457
Epoch: 6800, Error: 0.005531963462125719
Epoch: 6900, Error: 0.005518204474836113
Epoch: 7000, Error: 0.00546784777310501
Epoch: 7100, Error: 0.005404670256896009
Epoch: 7200, Error: 0.005386042656875214
Epoch: 7300, Error: 0.005348179728889466
Epoch: 7400, Error: 0.0053384699858507615
Epoch: 7500, Error: 0.00530956906148174
Epoch: 7600, Error: 0.005308086278050236
Epoch: 7700, Error: 0.005302548847141929
Epoch: 7800, Error: 0.00526856524213606
Epoch: 7900, Error: 0.0052885099147194645
Epoch: 8000, Error: 0.005202107777689721
Epoch: 8100, Error: 0.0051354752577664935
Epoch: 8200, Error: 0.005212226535314122
Epoch: 8300, Error: 0.005168494235957969
Epoch: 8400, Error: 0.0050890183268112316
Epoch: 8500, Error: 0.005094807278539623
Epoch: 8600, Error: 0.004967215896412131
Epoch: 8700, Error: 0.004976059469228496
Epoch: 8800, Error: 0.0049057068398411134
Epoch: 8900, Error: 0.004906643985021366
Epoch: 9000, Error: 0.005118998866155967
Epoch: 9100, Error: 0.004857667794843864
Epoch: 9200, Error: 0.004817581860903894
Epoch: 9300, Error: 0.00480357380713504
Epoch: 9400, Error: 0.004712805815578844
Epoch: 9500, Error: 0.004655319023076216
Epoch: 9600, Error: 0.004536133822092917
Epoch: 9700, Error: 0.0046556496050758015
Epoch: 9800, Error: 0.00453883109397862
Epoch: 9900, Error: 0.004556851516262297
Epoch: 10000, Error: 0.004329480710743312
Epoch: 10100, Error: 0.004277045616826071
Epoch: 10200, Error: 0.004431747267271688
Epoch: 10300, Error: 0.004298740579664704
Epoch: 10400, Error: 0.004071793979001523
Epoch: 10500, Error: 0.004256359895671735
Epoch: 10600, Error: 0.003971766187899135
Epoch: 10700, Error: 0.004079070548292751
Epoch: 10800, Error: 0.003982031754108445
Epoch: 10900, Error: 0.0038399301684659106
Epoch: 11000, Error: 0.0038036774964123115
Epoch: 11100, Error: 0.0038237564741719445
Epoch: 11200, Error: 0.0036239228026324136
Epoch: 11300, Error: 0.003890034502273534
Epoch: 11400, Error: 0.003726907677601246
Epoch: 11500, Error: 0.0034492616059091036
Epoch: 11600, Error: 0.003568421700169334
Epoch: 11700, Error: 0.00335712971817781
Epoch: 11800, Error: 0.0033466787083774353
Epoch: 11900, Error: 0.0032662099169946746
Epoch: 12000, Error: 0.003194774517424789
Epoch: 12100, Error: 0.0035849578052779534
Epoch: 12200, Error: 0.004234672718138783
Epoch: 12300, Error: 0.003641728288992551
Epoch: 12400, Error: 0.0033665805090374854
Epoch: 12500, Error: 0.003113872456868657
Epoch: 12600, Error: 0.002897591024138234
Epoch: 12700, Error: 0.0029010005803908213
Epoch: 12800, Error: 0.002798473952758877
Epoch: 12900, Error: 0.0027797458672512883
Epoch: 13000, Error: 0.0036968332241428914
Epoch: 13100, Error: 0.0027088429295398842
Epoch: 13200, Error: 0.0028048732106462806
Epoch: 13300, Error: 0.0025798577290100594
Epoch: 13400, Error: 0.002683570374573441
Epoch: 13500, Error: 0.0025927461263396067
Epoch: 13600, Error: 0.002664969907407176
Epoch: 13700, Error: 0.0028413147825632795
Epoch: 13800, Error: 0.002635870002332055
Epoch: 13900, Error: 0.002566752800204681
Epoch: 14000, Error: 0.0022607761128526365
Epoch: 14100, Error: 0.0025202526447486717
Epoch: 14200, Error: 0.0025441531933390886
Epoch: 14300, Error: 0.0023131392281999863
Epoch: 14400, Error: 0.00263173449254077
Epoch: 14500, Error: 0.002506437033618173
Epoch: 14600, Error: 0.002534558130379913
Epoch: 14700, Error: 0.002146661346158006
Epoch: 14800, Error: 0.0020101752205751284
Epoch: 14900, Error: 0.001990430276241284
Epoch: 15000, Error: 0.0019771497923136484
Epoch: 15100, Error: 0.0020889109786110765
Epoch: 15200, Error: 0.0025008848782362195
Epoch: 15300, Error: 0.0024336105645743253
Epoch: 15400, Error: 0.0024403238468859354
Epoch: 15500, Error: 0.0019455416602281307
Epoch: 15600, Error: 0.0020095220541451915
Epoch: 15700, Error: 0.0019722287607152984
Epoch: 15800, Error: 0.002001890425570499
Epoch: 15900, Error: 0.0022499021523344886
Epoch: 16000, Error: 0.0017802430739040432
Epoch: 16100, Error: 0.0017612802687247831
Epoch: 16200, Error: 0.001913668111470636
Epoch: 16300, Error: 0.0017804850058029025
Epoch: 16400, Error: 0.001767822811606706
Epoch: 16500, Error: 0.0020578475379200655
Epoch: 16600, Error: 0.001713041965450684
Epoch: 16700, Error: 0.0019338326021731596
Epoch: 16800, Error: 0.0016781027203549349
Epoch: 16900, Error: 0.0017972663980187007
Epoch: 17000, Error: 0.001664841754626155
Epoch: 17100, Error: 0.0017155152129772577
Epoch: 17200, Error: 0.0016118158797318828
Epoch: 17300, Error: 0.0018057797698461337
Epoch: 17400, Error: 0.0017288324525777206
Epoch: 17500, Error: 0.0015828747897482503
Epoch: 17600, Error: 0.0017794545270025351
Epoch: 17700, Error: 0.001737857513523426
Epoch: 17800, Error: 0.0016846219945939188
Epoch: 17900, Error: 0.0015702116184434514
Epoch: 18000, Error: 0.0016976051990511254
Epoch: 18100, Error: 0.001678130894627183
Epoch: 18200, Error: 0.001566006811888374
Epoch: 18300, Error: 0.0016030849814626517
Epoch: 18400, Error: 0.0016598083519371756
Epoch: 18500, Error: 0.001530587781617832
Epoch: 18600, Error: 0.0015327572115753194
Epoch: 18700, Error: 0.0015318913052245354
Epoch: 18800, Error: 0.0015926764573919144
Epoch: 18900, Error: 0.0015439993602956914
Epoch: 19000, Error: 0.0016290279714852311
Epoch: 19100, Error: 0.001552240343309054
Epoch: 19200, Error: 0.0015160538912581559
Epoch: 19300, Error: 0.0015739738009584903
Epoch: 19400, Error: 0.0016014789689192683
Epoch: 19500, Error: 0.001525493638984873
Epoch: 19600, Error: 0.0015259170152581054
Epoch: 19700, Error: 0.0015414716725816752
Epoch: 19800, Error: 0.0015436854766353884
Epoch: 19900, Error: 0.001595717934594662
Epoch: 20000, Error: 0.0015688133531910026
Epoch: 20100, Error: 0.0019435410735902517
Epoch: 20200, Error: 0.0015488877768492588
Epoch: 20300, Error: 0.0016025356914587518
Epoch: 20400, Error: 0.001552079577302144
Epoch: 20500, Error: 0.0015641052012288965
Epoch: 20600, Error: 0.0015763289604303597
Epoch: 20700, Error: 0.0015807866489137461
Epoch: 20800, Error: 0.0015813468219693862
Epoch: 20900, Error: 0.001574637536594053
Epoch: 21000, Error: 0.001604540460497914
Epoch: 21100, Error: 0.0015913204746186812
Epoch: 21200, Error: 0.0015883378584897925
Epoch: 21300, Error: 0.00160959876020389
Epoch: 21400, Error: 0.001605879269631778
Epoch: 21500, Error: 0.001663278582047488
Epoch: 21600, Error: 0.0016068087094637377
Epoch: 21700, Error: 0.0016638948463210128
Epoch: 21800, Error: 0.0016238789892882926
Epoch: 21900, Error: 0.0016236238121024181
Epoch: 22000, Error: 0.0016185959862309726
Epoch: 22100, Error: 0.0016727617522457672
Epoch: 22200, Error: 0.0016759318562644466
Epoch: 22300, Error: 0.0017062168214805053
Epoch: 22400, Error: 0.0016851540112518362
Epoch: 22500, Error: 0.0017059567567319616
Epoch: 22600, Error: 0.001745202163197749
Epoch: 22700, Error: 0.0017158948785631252
Epoch: 22800, Error: 0.0017027291938923848
Epoch: 22900, Error: 0.0017298744926772425
Epoch: 23000, Error: 0.0017191158393206193
Epoch: 23100, Error: 0.0017160772022487619
Epoch: 23200, Error: 0.0017803027807876254
Epoch: 23300, Error: 0.001723146720358371
Epoch: 23400, Error: 0.0017236322658763078
Epoch: 23500, Error: 0.0017316023374576138
Epoch: 23600, Error: 0.0017324406988517389
Epoch: 23700, Error: 0.001732645830772089
Epoch: 23800, Error: 0.0018138659568946685
Epoch: 23900, Error: 0.001727853881085704
Epoch: 24000, Error: 0.0017460899083424246
Epoch: 24100, Error: 0.0018007470470230054
Epoch: 24200, Error: 0.001782099102562187
Epoch: 24300, Error: 0.001746071490575077
Epoch: 24400, Error: 0.0018038261081637366
Epoch: 24500, Error: 0.0017354192035819646
Epoch: 24600, Error: 0.001744623888017454
Epoch: 24700, Error: 0.0017387301460017855
Epoch: 24800, Error: 0.0017454002239690714
Epoch: 24900, Error: 0.0017692775013217303
Epoch: 25000, Error: 0.0017738813447540215
Epoch: 25100, Error: 0.0017786304699667153
Epoch: 25200, Error: 0.0017787548320170967
Epoch: 25300, Error: 0.0017730014121185322
Epoch: 25400, Error: 0.0017599984811422738
Epoch: 25500, Error: 0.0017498752895427816
Epoch: 25600, Error: 0.0017394162651984662
Epoch: 25700, Error: 0.0017836664101052498
Epoch: 25800, Error: 0.0017292198615862656
Epoch: 25900, Error: 0.0017596640072813448
Epoch: 26000, Error: 0.0018288029095097542
Epoch: 26100, Error: 0.0017492524298130345
Epoch: 26200, Error: 0.0017991358673138296
Epoch: 26300, Error: 0.0017839506484191533
Epoch: 26400, Error: 0.0017950700104827097
Epoch: 26500, Error: 0.0017768449090668538
Epoch: 26600, Error: 0.0017792748686528937
Epoch: 26700, Error: 0.0018140424637186144
Epoch: 26800, Error: 0.001768419413303673
Epoch: 26900, Error: 0.0017538245350982836
Epoch: 27000, Error: 0.0017673789786595451
Epoch: 27100, Error: 0.0018023987230849881
Epoch: 27200, Error: 0.0017742750644221966
Epoch: 27300, Error: 0.0017786396388146677
Epoch: 27400, Error: 0.001789794425701826
Epoch: 27500, Error: 0.001784003464322089
Epoch: 27600, Error: 0.0017988699607841376
Epoch: 27700, Error: 0.0018332723128521471
Epoch: 27800, Error: 0.0018321864131829418
Epoch: 27900, Error: 0.0018132542596910085
Epoch: 28000, Error: 0.0018082751638759868
Epoch: 28100, Error: 0.001845794449350164
Epoch: 28200, Error: 0.0018104876693596577
Epoch: 28300, Error: 0.001849529616762483
Epoch: 28400, Error: 0.0018106696689683054
Epoch: 28500, Error: 0.0018103934817709987
Epoch: 28600, Error: 0.0018253151387823774
Epoch: 28700, Error: 0.0018026649703264646
Epoch: 28800, Error: 0.0018129684158840914
Epoch: 28900, Error: 0.0018249315811622309
Epoch: 29000, Error: 0.0018118648187819295
Epoch: 29100, Error: 0.0017466680796369863
Epoch: 29200, Error: 0.001780302961209505
Epoch: 29300, Error: 0.001743088260031806
Epoch: 29400, Error: 0.0017105221873690497
Epoch: 29500, Error: 0.0017252680876676094
Epoch: 29600, Error: 0.0017005917940765265
Epoch: 29700, Error: 0.0017527471838550697
Epoch: 29800, Error: 0.0017128699731214934
Epoch: 29900, Error: 0.0017088211450460961
Epoch: 30000, Error: 0.0016860090284654492
Epoch: 30100, Error: 0.0016631814857438385
Epoch: 30200, Error: 0.0016610256975686285
Epoch: 30300, Error: 0.0016498367666799513
Epoch: 30400, Error: 0.0016507171952491316
Epoch: 30500, Error: 0.0016442708590447095
Epoch: 30600, Error: 0.001650688351061189
Epoch: 30700, Error: 0.0016438087670661422
Epoch: 30800, Error: 0.0016313135488399413
Epoch: 30900, Error: 0.001629945629973703
Epoch: 31000, Error: 0.0016384761258636056
Epoch: 31100, Error: 0.0016392422170567096
Epoch: 31200, Error: 0.0016310056051411534
Epoch: 31300, Error: 0.001653277150770979
Epoch: 31400, Error: 0.00164229813712126
Epoch: 31500, Error: 0.0016113471169174097
Epoch: 31600, Error: 0.0016297924336036022
Epoch: 31700, Error: 0.001619353997980847
Epoch: 31800, Error: 0.0016243743754455855
Epoch: 31900, Error: 0.0016500454469219356
Epoch: 32000, Error: 0.0016265179666723763
Epoch: 32100, Error: 0.0016296187653762739
Epoch: 32200, Error: 0.001608773666048551
Epoch: 32300, Error: 0.0016374782115722703
Epoch: 32400, Error: 0.001628481728038082
Epoch: 32500, Error: 0.0016174015763878238
Epoch: 32600, Error: 0.0016327180125259896
Epoch: 32700, Error: 0.00160005048179353
Epoch: 32800, Error: 0.0016099854069569599
Epoch: 32900, Error: 0.0016194397182618804
Epoch: 33000, Error: 0.0016220557039295436
Epoch: 33100, Error: 0.0016273806666835965
Epoch: 33200, Error: 0.0016357665666187247
Epoch: 33300, Error: 0.0016115555579939722
Epoch: 33400, Error: 0.0016277211985713334
Epoch: 33500, Error: 0.0016189549874414243
Epoch: 33600, Error: 0.0016287464990785466
Epoch: 33700, Error: 0.0016164121117560638
Epoch: 33800, Error: 0.0016241967566303394
Epoch: 33900, Error: 0.0016608066845116975
Epoch: 34000, Error: 0.001620585103770307
Epoch: 34100, Error: 0.0016315427551857223
Epoch: 34200, Error: 0.0016364100944836982
Epoch: 34300, Error: 0.0016422067388299551
Epoch: 34400, Error: 0.0016203800877156009
Epoch: 34500, Error: 0.001620661204871484
Epoch: 34600, Error: 0.001618373814238273
Epoch: 34700, Error: 0.0016374532858548082
Epoch: 34800, Error: 0.0016295914872390294
Epoch: 34900, Error: 0.001637619921475137
Epoch: 35000, Error: 0.001617604121218272
Epoch: 35100, Error: 0.0016115469597469093
Epoch: 35200, Error: 0.0016453003180685961
Epoch: 35300, Error: 0.001613919703591238
Epoch: 35400, Error: 0.0016209451963201218
Epoch: 35500, Error: 0.0016478129376881689
Epoch: 35600, Error: 0.0016338535350530824
Epoch: 35700, Error: 0.0016149534912715082
Epoch: 35800, Error: 0.0016700429187945917
Finished
