Input Patterns
0.224 0.624 0.067 0.043 
0.11 0.502 0.051 0.043 
0.196 0.667 0.067 0.043 
0.055 0.584 0.067 0.082 
0.027 0.376 0.067 0.043 
0.306 0.71 0.086 0.043 
0.137 0.416 0.067 0.0 
0.416 0.831 0.035 0.043 
0.306 0.792 0.051 0.125 
0.388 0.749 0.118 0.082 
0.306 0.584 0.118 0.043 
0.082 0.667 0.0 0.043 
0.137 0.584 0.153 0.043 
0.196 0.584 0.102 0.125 
0.251 0.584 0.067 0.043 
0.137 0.459 0.102 0.043 
0.251 0.875 0.086 0.0 
0.165 0.459 0.086 0.043 
0.333 0.624 0.051 0.043 
0.027 0.416 0.051 0.043 
0.196 0.624 0.051 0.082 
0.027 0.502 0.051 0.043 
0.224 0.749 0.153 0.125 
0.224 0.749 0.102 0.043 
0.278 0.71 0.086 0.043 
0.165 0.416 0.067 0.043 
0.082 0.459 0.086 0.043 
0.306 0.792 0.118 0.125 
0.196 0.584 0.086 0.043 
0.165 0.459 0.086 0.0 
0.137 0.584 0.102 0.043 
0.0 0.416 0.016 0.0 
0.388 1.0 0.086 0.125 
0.224 0.624 0.067 0.082 
0.224 0.749 0.086 0.082 
0.224 0.71 0.086 0.125 
0.224 0.541 0.118 0.165 
0.196 0.416 0.102 0.043 
0.251 0.624 0.086 0.043 
0.11 0.502 0.102 0.043 
0.306 0.584 0.086 0.125 
0.333 0.918 0.067 0.043 
0.196 0.502 0.035 0.043 
0.165 0.667 0.067 0.0 
0.224 0.584 0.086 0.043 
0.055 0.125 0.051 0.082 
0.196 0.624 0.102 0.208 
0.137 0.416 0.067 0.082 
0.082 0.502 0.067 0.043 
0.196 0.541 0.067 0.043 
0.749 0.502 0.627 0.541 
0.722 0.459 0.663 0.584 
0.612 0.333 0.612 0.584 
0.557 0.541 0.627 0.624 
0.639 0.376 0.612 0.498 
0.196 0.0 0.424 0.376 
0.471 0.082 0.51 0.376 
0.361 0.376 0.439 0.498 
0.361 0.416 0.592 0.584 
0.529 0.082 0.592 0.584 
0.443 0.502 0.643 0.459 
0.557 0.208 0.663 0.584 
0.584 0.376 0.561 0.498 
0.694 0.333 0.643 0.541 
0.471 0.376 0.592 0.584 
0.333 0.169 0.475 0.416 
0.416 0.29 0.49 0.459 
0.306 0.416 0.592 0.584 
0.667 0.459 0.627 0.584 
0.361 0.416 0.525 0.498 
0.333 0.251 0.576 0.459 
0.416 0.251 0.51 0.459 
0.361 0.29 0.541 0.498 
0.388 0.376 0.541 0.498 
0.224 0.208 0.337 0.416 
0.584 0.502 0.592 0.584 
0.333 0.125 0.51 0.498 
0.388 0.333 0.592 0.498 
0.165 0.169 0.388 0.376 
0.251 0.29 0.49 0.541 
0.443 0.416 0.541 0.584 
0.498 0.376 0.627 0.541 
0.667 0.459 0.576 0.541 
0.416 0.29 0.525 0.376 
0.361 0.208 0.49 0.416 
0.498 0.333 0.51 0.498 
0.498 0.333 0.627 0.459 
0.639 0.416 0.576 0.541 
0.667 0.416 0.678 0.667 
0.388 0.251 0.424 0.376 
0.333 0.169 0.459 0.376 
0.471 0.29 0.694 0.624 
0.471 0.584 0.592 0.624 
0.557 0.125 0.576 0.498 
0.333 0.208 0.51 0.498 
0.498 0.416 0.612 0.541 
0.196 0.125 0.388 0.376 
0.388 0.416 0.541 0.459 
0.529 0.376 0.561 0.498 
0.388 0.333 0.525 0.498 
0.557 0.541 0.847 1.0 
0.776 0.416 0.831 0.831 
0.612 0.416 0.812 0.875 
0.165 0.208 0.592 0.667 
0.667 0.208 0.812 0.71 
0.612 0.502 0.694 0.792 
0.694 0.416 0.761 0.831 
0.416 0.333 0.694 0.957 
0.612 0.416 0.761 0.71 
0.945 0.251 1.0 0.918 
0.722 0.502 0.796 0.918 
0.945 0.333 0.965 0.792 
0.667 0.541 0.796 0.831 
0.529 0.333 0.643 0.71 
0.584 0.333 0.78 0.831 
0.863 0.333 0.863 0.749 
0.584 0.333 0.78 0.875 
0.498 0.251 0.78 0.541 
0.557 0.584 0.78 0.957 
0.471 0.416 0.643 0.71 
0.667 0.459 0.78 0.957 
0.416 0.29 0.694 0.749 
0.667 0.541 0.796 1.0 
0.557 0.208 0.678 0.749 
0.529 0.584 0.745 0.918 
0.416 0.29 0.694 0.749 
0.557 0.376 0.78 0.71 
0.918 0.416 0.949 0.831 
0.835 0.376 0.898 0.71 
0.804 0.667 0.863 1.0 
0.584 0.29 0.729 0.749 
0.388 0.208 0.678 0.792 
0.584 0.502 0.729 0.918 
0.945 0.749 0.965 0.875 
0.471 0.082 0.678 0.584 
0.361 0.333 0.663 0.792 
0.557 0.29 0.663 0.71 
0.804 0.502 0.847 0.71 
0.498 0.416 0.51 0.71 
0.804 0.416 0.812 0.624 
1.0 0.749 0.914 0.792 
0.557 0.333 0.694 0.584 
0.945 0.416 0.863 0.918 
0.584 0.459 0.761 0.71 
0.722 0.459 0.745 0.831 
0.722 0.459 0.694 0.918 
0.694 0.502 0.831 0.918 
0.667 0.416 0.714 0.918 
0.612 0.416 0.714 0.792 
0.443 0.416 0.694 0.71 
Teaching Patterns
1.0 0.0 0.0 
1.0 0.0 0.0 
1.0 0.0 0.0 
1.0 0.0 0.0 
1.0 0.0 0.0 
1.0 0.0 0.0 
1.0 0.0 0.0 
1.0 0.0 0.0 
1.0 0.0 0.0 
1.0 0.0 0.0 
1.0 0.0 0.0 
1.0 0.0 0.0 
1.0 0.0 0.0 
1.0 0.0 0.0 
1.0 0.0 0.0 
1.0 0.0 0.0 
1.0 0.0 0.0 
1.0 0.0 0.0 
1.0 0.0 0.0 
1.0 0.0 0.0 
1.0 0.0 0.0 
1.0 0.0 0.0 
1.0 0.0 0.0 
1.0 0.0 0.0 
1.0 0.0 0.0 
1.0 0.0 0.0 
1.0 0.0 0.0 
1.0 0.0 0.0 
1.0 0.0 0.0 
1.0 0.0 0.0 
1.0 0.0 0.0 
1.0 0.0 0.0 
1.0 0.0 0.0 
1.0 0.0 0.0 
1.0 0.0 0.0 
1.0 0.0 0.0 
1.0 0.0 0.0 
1.0 0.0 0.0 
1.0 0.0 0.0 
1.0 0.0 0.0 
1.0 0.0 0.0 
1.0 0.0 0.0 
1.0 0.0 0.0 
1.0 0.0 0.0 
1.0 0.0 0.0 
1.0 0.0 0.0 
1.0 0.0 0.0 
1.0 0.0 0.0 
1.0 0.0 0.0 
1.0 0.0 0.0 
0.0 1.0 0.0 
0.0 1.0 0.0 
0.0 1.0 0.0 
0.0 1.0 0.0 
0.0 1.0 0.0 
0.0 1.0 0.0 
0.0 1.0 0.0 
0.0 1.0 0.0 
0.0 1.0 0.0 
0.0 1.0 0.0 
0.0 1.0 0.0 
0.0 1.0 0.0 
0.0 1.0 0.0 
0.0 1.0 0.0 
0.0 1.0 0.0 
0.0 1.0 0.0 
0.0 1.0 0.0 
0.0 1.0 0.0 
0.0 1.0 0.0 
0.0 1.0 0.0 
0.0 1.0 0.0 
0.0 1.0 0.0 
0.0 1.0 0.0 
0.0 1.0 0.0 
0.0 1.0 0.0 
0.0 1.0 0.0 
0.0 1.0 0.0 
0.0 1.0 0.0 
0.0 1.0 0.0 
0.0 1.0 0.0 
0.0 1.0 0.0 
0.0 1.0 0.0 
0.0 1.0 0.0 
0.0 1.0 0.0 
0.0 1.0 0.0 
0.0 1.0 0.0 
0.0 1.0 0.0 
0.0 1.0 0.0 
0.0 1.0 0.0 
0.0 1.0 0.0 
0.0 1.0 0.0 
0.0 1.0 0.0 
0.0 1.0 0.0 
0.0 1.0 0.0 
0.0 1.0 0.0 
0.0 1.0 0.0 
0.0 1.0 0.0 
0.0 1.0 0.0 
0.0 1.0 0.0 
0.0 1.0 0.0 
0.0 0.0 1.0 
0.0 0.0 1.0 
0.0 0.0 1.0 
0.0 0.0 1.0 
0.0 0.0 1.0 
0.0 0.0 1.0 
0.0 0.0 1.0 
0.0 0.0 1.0 
0.0 0.0 1.0 
0.0 0.0 1.0 
0.0 0.0 1.0 
0.0 0.0 1.0 
0.0 0.0 1.0 
0.0 0.0 1.0 
0.0 0.0 1.0 
0.0 0.0 1.0 
0.0 0.0 1.0 
0.0 0.0 1.0 
0.0 0.0 1.0 
0.0 0.0 1.0 
0.0 0.0 1.0 
0.0 0.0 1.0 
0.0 0.0 1.0 
0.0 0.0 1.0 
0.0 0.0 1.0 
0.0 0.0 1.0 
0.0 0.0 1.0 
0.0 0.0 1.0 
0.0 0.0 1.0 
0.0 0.0 1.0 
0.0 0.0 1.0 
0.0 0.0 1.0 
0.0 0.0 1.0 
0.0 0.0 1.0 
0.0 0.0 1.0 
0.0 0.0 1.0 
0.0 0.0 1.0 
0.0 0.0 1.0 
0.0 0.0 1.0 
0.0 0.0 1.0 
0.0 0.0 1.0 
0.0 0.0 1.0 
0.0 0.0 1.0 
0.0 0.0 1.0 
0.0 0.0 1.0 
0.0 0.0 1.0 
0.0 0.0 1.0 
0.0 0.0 1.0 
0.0 0.0 1.0 
0.0 0.0 1.0 
Learning : 0.15000000596046448
Momentum : 0.9
Epoch: 100, Error: 0.019914738883840447
Epoch: 200, Error: 0.014744153468076693
Epoch: 300, Error: 0.013452706442423074
Epoch: 400, Error: 0.01300454848778803
Epoch: 500, Error: 0.0140097675467849
Epoch: 600, Error: 0.012434073838059015
Epoch: 700, Error: 0.012322134870035634
Epoch: 800, Error: 0.0132734684757992
Epoch: 900, Error: 0.012611489342992157
Epoch: 1000, Error: 0.012142826937700003
Epoch: 1100, Error: 0.012183387543625773
Epoch: 1200, Error: 0.012696131595180817
Epoch: 1300, Error: 0.012083053995240787
Epoch: 1400, Error: 0.012051900303985699
Epoch: 1500, Error: 0.012051329169856196
Epoch: 1600, Error: 0.012236119981722303
Epoch: 1700, Error: 0.011842051405648145
Epoch: 1800, Error: 0.01203725954419093
Epoch: 1900, Error: 0.01199505030708456
Epoch: 2000, Error: 0.011773642086276112
Epoch: 2100, Error: 0.011744436220305889
Epoch: 2200, Error: 0.01168578333320478
Epoch: 2300, Error: 0.011659924263402639
Epoch: 2400, Error: 0.011657910366039116
Epoch: 2500, Error: 0.011475313244578799
Epoch: 2600, Error: 0.01142816435001442
Epoch: 2700, Error: 0.011315013884893331
Epoch: 2800, Error: 0.011393600138253164
Epoch: 2900, Error: 0.011060247488997811
Epoch: 3000, Error: 0.011516031975159895
Epoch: 3100, Error: 0.010977506558216254
Epoch: 3200, Error: 0.0106906217311866
Epoch: 3300, Error: 0.010422483888108675
Epoch: 3400, Error: 0.01034802102703477
Epoch: 3500, Error: 0.009871154094577906
Epoch: 3600, Error: 0.01027207015216464
Epoch: 3700, Error: 0.009404772541962909
Epoch: 3800, Error: 0.008998710657685333
Epoch: 3900, Error: 0.008635020532878351
Epoch: 4000, Error: 0.00839205940324678
Epoch: 4100, Error: 0.008034512261577914
Epoch: 4200, Error: 0.007837263656441112
Epoch: 4300, Error: 0.007545798618198556
Epoch: 4400, Error: 0.007265451047410941
Epoch: 4500, Error: 0.007005113266110934
Epoch: 4600, Error: 0.007200024183789704
Epoch: 4700, Error: 0.006805924121999999
Epoch: 4800, Error: 0.006815950178112172
Epoch: 4900, Error: 0.006560321670930788
Epoch: 5000, Error: 0.006476667409484226
Epoch: 5100, Error: 0.0063791955083539985
Epoch: 5200, Error: 0.006271255917197668
Epoch: 5300, Error: 0.0062414318776951964
Epoch: 5400, Error: 0.0061734188886411814
Epoch: 5500, Error: 0.006162447041225764
Epoch: 5600, Error: 0.006092112158256076
Epoch: 5700, Error: 0.0060932568125603645
Epoch: 5800, Error: 0.006082489107386539
Epoch: 5900, Error: 0.00604027456589342
Epoch: 6000, Error: 0.006020895959768881
Epoch: 6100, Error: 0.006055866646466732
Epoch: 6200, Error: 0.00601181511219111
Epoch: 6300, Error: 0.006005020263615992
Epoch: 6400, Error: 0.00601453718781533
Epoch: 6500, Error: 0.005980995578007881
Epoch: 6600, Error: 0.005980922430448288
Epoch: 6700, Error: 0.00603423326024599
Epoch: 6800, Error: 0.005941015294812116
Epoch: 6900, Error: 0.005945254184854462
Epoch: 7000, Error: 0.005938159642246687
Epoch: 7100, Error: 0.005950522701729446
Epoch: 7200, Error: 0.005983800590805115
Epoch: 7300, Error: 0.006008147447187297
Epoch: 7400, Error: 0.006024907862553488
Epoch: 7500, Error: 0.006043595394739512
Epoch: 7600, Error: 0.006031641040699488
Epoch: 7700, Error: 0.00601153849278659
Epoch: 7800, Error: 0.006022469106284519
Epoch: 7900, Error: 0.006003297103030505
Epoch: 8000, Error: 0.006032319477674777
Epoch: 8100, Error: 0.0060277631681675764
Epoch: 8200, Error: 0.005970702471851545
Epoch: 8300, Error: 0.0059654719004708255
Epoch: 8400, Error: 0.005944447194562332
Epoch: 8500, Error: 0.005965945680740772
Epoch: 8600, Error: 0.005893671520415224
Epoch: 8700, Error: 0.005897243047879146
Epoch: 8800, Error: 0.0058435205733102695
Epoch: 8900, Error: 0.005868008947710047
Epoch: 9000, Error: 0.0058564877986858445
Epoch: 9100, Error: 0.005847212572586111
Epoch: 9200, Error: 0.005844234527350749
Epoch: 9300, Error: 0.005914967261189512
Epoch: 9400, Error: 0.005891157868438546
Epoch: 9500, Error: 0.0058563250953472725
Epoch: 9600, Error: 0.005834600846600557
Epoch: 9700, Error: 0.005875808675568252
Finished
