Input Patterns
0.224 0.624 0.067 0.043 
0.11 0.502 0.051 0.043 
0.196 0.667 0.067 0.043 
0.055 0.584 0.067 0.082 
0.027 0.376 0.067 0.043 
0.306 0.71 0.086 0.043 
0.137 0.416 0.067 0.0 
0.416 0.831 0.035 0.043 
0.306 0.792 0.051 0.125 
0.388 0.749 0.118 0.082 
0.306 0.584 0.118 0.043 
0.082 0.667 0.0 0.043 
0.137 0.584 0.153 0.043 
0.196 0.584 0.102 0.125 
0.251 0.584 0.067 0.043 
0.137 0.459 0.102 0.043 
0.251 0.875 0.086 0.0 
0.165 0.459 0.086 0.043 
0.333 0.624 0.051 0.043 
0.027 0.416 0.051 0.043 
0.196 0.624 0.051 0.082 
0.027 0.502 0.051 0.043 
0.224 0.749 0.153 0.125 
0.224 0.749 0.102 0.043 
0.278 0.71 0.086 0.043 
0.165 0.416 0.067 0.043 
0.082 0.459 0.086 0.043 
0.306 0.792 0.118 0.125 
0.196 0.584 0.086 0.043 
0.165 0.459 0.086 0.0 
0.137 0.584 0.102 0.043 
0.0 0.416 0.016 0.0 
0.388 1.0 0.086 0.125 
0.224 0.624 0.067 0.082 
0.224 0.749 0.086 0.082 
0.224 0.71 0.086 0.125 
0.224 0.541 0.118 0.165 
0.196 0.416 0.102 0.043 
0.251 0.624 0.086 0.043 
0.11 0.502 0.102 0.043 
0.306 0.584 0.086 0.125 
0.333 0.918 0.067 0.043 
0.196 0.502 0.035 0.043 
0.165 0.667 0.067 0.0 
0.224 0.584 0.086 0.043 
0.055 0.125 0.051 0.082 
0.196 0.624 0.102 0.208 
0.137 0.416 0.067 0.082 
0.082 0.502 0.067 0.043 
0.196 0.541 0.067 0.043 
0.749 0.502 0.627 0.541 
0.722 0.459 0.663 0.584 
0.612 0.333 0.612 0.584 
0.557 0.541 0.627 0.624 
0.639 0.376 0.612 0.498 
0.196 0.0 0.424 0.376 
0.471 0.082 0.51 0.376 
0.361 0.376 0.439 0.498 
0.361 0.416 0.592 0.584 
0.529 0.082 0.592 0.584 
0.443 0.502 0.643 0.459 
0.557 0.208 0.663 0.584 
0.584 0.376 0.561 0.498 
0.694 0.333 0.643 0.541 
0.471 0.376 0.592 0.584 
0.333 0.169 0.475 0.416 
0.416 0.29 0.49 0.459 
0.306 0.416 0.592 0.584 
0.667 0.459 0.627 0.584 
0.361 0.416 0.525 0.498 
0.333 0.251 0.576 0.459 
0.416 0.251 0.51 0.459 
0.361 0.29 0.541 0.498 
0.388 0.376 0.541 0.498 
0.224 0.208 0.337 0.416 
0.584 0.502 0.592 0.584 
0.333 0.125 0.51 0.498 
0.388 0.333 0.592 0.498 
0.165 0.169 0.388 0.376 
0.251 0.29 0.49 0.541 
0.443 0.416 0.541 0.584 
0.498 0.376 0.627 0.541 
0.667 0.459 0.576 0.541 
0.416 0.29 0.525 0.376 
0.361 0.208 0.49 0.416 
0.498 0.333 0.51 0.498 
0.498 0.333 0.627 0.459 
0.639 0.416 0.576 0.541 
0.667 0.416 0.678 0.667 
0.388 0.251 0.424 0.376 
0.333 0.169 0.459 0.376 
0.471 0.29 0.694 0.624 
0.471 0.584 0.592 0.624 
0.557 0.125 0.576 0.498 
0.333 0.208 0.51 0.498 
0.498 0.416 0.612 0.541 
0.196 0.125 0.388 0.376 
0.388 0.416 0.541 0.459 
0.529 0.376 0.561 0.498 
0.388 0.333 0.525 0.498 
0.557 0.541 0.847 1.0 
0.776 0.416 0.831 0.831 
0.612 0.416 0.812 0.875 
0.165 0.208 0.592 0.667 
0.667 0.208 0.812 0.71 
0.612 0.502 0.694 0.792 
0.694 0.416 0.761 0.831 
0.416 0.333 0.694 0.957 
0.612 0.416 0.761 0.71 
0.945 0.251 1.0 0.918 
0.722 0.502 0.796 0.918 
0.945 0.333 0.965 0.792 
0.667 0.541 0.796 0.831 
0.529 0.333 0.643 0.71 
0.584 0.333 0.78 0.831 
0.863 0.333 0.863 0.749 
0.584 0.333 0.78 0.875 
0.498 0.251 0.78 0.541 
0.557 0.584 0.78 0.957 
0.471 0.416 0.643 0.71 
0.667 0.459 0.78 0.957 
0.416 0.29 0.694 0.749 
0.667 0.541 0.796 1.0 
0.557 0.208 0.678 0.749 
0.529 0.584 0.745 0.918 
0.416 0.29 0.694 0.749 
0.557 0.376 0.78 0.71 
0.918 0.416 0.949 0.831 
0.835 0.376 0.898 0.71 
0.804 0.667 0.863 1.0 
0.584 0.29 0.729 0.749 
0.388 0.208 0.678 0.792 
0.584 0.502 0.729 0.918 
0.945 0.749 0.965 0.875 
0.471 0.082 0.678 0.584 
0.361 0.333 0.663 0.792 
0.557 0.29 0.663 0.71 
0.804 0.502 0.847 0.71 
0.498 0.416 0.51 0.71 
0.804 0.416 0.812 0.624 
1.0 0.749 0.914 0.792 
0.557 0.333 0.694 0.584 
0.945 0.416 0.863 0.918 
0.584 0.459 0.761 0.71 
0.722 0.459 0.745 0.831 
0.722 0.459 0.694 0.918 
0.694 0.502 0.831 0.918 
0.667 0.416 0.714 0.918 
0.612 0.416 0.714 0.792 
0.443 0.416 0.694 0.71 
Teaching Patterns
1.0 0.0 0.0 
1.0 0.0 0.0 
1.0 0.0 0.0 
1.0 0.0 0.0 
1.0 0.0 0.0 
1.0 0.0 0.0 
1.0 0.0 0.0 
1.0 0.0 0.0 
1.0 0.0 0.0 
1.0 0.0 0.0 
1.0 0.0 0.0 
1.0 0.0 0.0 
1.0 0.0 0.0 
1.0 0.0 0.0 
1.0 0.0 0.0 
1.0 0.0 0.0 
1.0 0.0 0.0 
1.0 0.0 0.0 
1.0 0.0 0.0 
1.0 0.0 0.0 
1.0 0.0 0.0 
1.0 0.0 0.0 
1.0 0.0 0.0 
1.0 0.0 0.0 
1.0 0.0 0.0 
1.0 0.0 0.0 
1.0 0.0 0.0 
1.0 0.0 0.0 
1.0 0.0 0.0 
1.0 0.0 0.0 
1.0 0.0 0.0 
1.0 0.0 0.0 
1.0 0.0 0.0 
1.0 0.0 0.0 
1.0 0.0 0.0 
1.0 0.0 0.0 
1.0 0.0 0.0 
1.0 0.0 0.0 
1.0 0.0 0.0 
1.0 0.0 0.0 
1.0 0.0 0.0 
1.0 0.0 0.0 
1.0 0.0 0.0 
1.0 0.0 0.0 
1.0 0.0 0.0 
1.0 0.0 0.0 
1.0 0.0 0.0 
1.0 0.0 0.0 
1.0 0.0 0.0 
1.0 0.0 0.0 
0.0 1.0 0.0 
0.0 1.0 0.0 
0.0 1.0 0.0 
0.0 1.0 0.0 
0.0 1.0 0.0 
0.0 1.0 0.0 
0.0 1.0 0.0 
0.0 1.0 0.0 
0.0 1.0 0.0 
0.0 1.0 0.0 
0.0 1.0 0.0 
0.0 1.0 0.0 
0.0 1.0 0.0 
0.0 1.0 0.0 
0.0 1.0 0.0 
0.0 1.0 0.0 
0.0 1.0 0.0 
0.0 1.0 0.0 
0.0 1.0 0.0 
0.0 1.0 0.0 
0.0 1.0 0.0 
0.0 1.0 0.0 
0.0 1.0 0.0 
0.0 1.0 0.0 
0.0 1.0 0.0 
0.0 1.0 0.0 
0.0 1.0 0.0 
0.0 1.0 0.0 
0.0 1.0 0.0 
0.0 1.0 0.0 
0.0 1.0 0.0 
0.0 1.0 0.0 
0.0 1.0 0.0 
0.0 1.0 0.0 
0.0 1.0 0.0 
0.0 1.0 0.0 
0.0 1.0 0.0 
0.0 1.0 0.0 
0.0 1.0 0.0 
0.0 1.0 0.0 
0.0 1.0 0.0 
0.0 1.0 0.0 
0.0 1.0 0.0 
0.0 1.0 0.0 
0.0 1.0 0.0 
0.0 1.0 0.0 
0.0 1.0 0.0 
0.0 1.0 0.0 
0.0 1.0 0.0 
0.0 1.0 0.0 
0.0 0.0 1.0 
0.0 0.0 1.0 
0.0 0.0 1.0 
0.0 0.0 1.0 
0.0 0.0 1.0 
0.0 0.0 1.0 
0.0 0.0 1.0 
0.0 0.0 1.0 
0.0 0.0 1.0 
0.0 0.0 1.0 
0.0 0.0 1.0 
0.0 0.0 1.0 
0.0 0.0 1.0 
0.0 0.0 1.0 
0.0 0.0 1.0 
0.0 0.0 1.0 
0.0 0.0 1.0 
0.0 0.0 1.0 
0.0 0.0 1.0 
0.0 0.0 1.0 
0.0 0.0 1.0 
0.0 0.0 1.0 
0.0 0.0 1.0 
0.0 0.0 1.0 
0.0 0.0 1.0 
0.0 0.0 1.0 
0.0 0.0 1.0 
0.0 0.0 1.0 
0.0 0.0 1.0 
0.0 0.0 1.0 
0.0 0.0 1.0 
0.0 0.0 1.0 
0.0 0.0 1.0 
0.0 0.0 1.0 
0.0 0.0 1.0 
0.0 0.0 1.0 
0.0 0.0 1.0 
0.0 0.0 1.0 
0.0 0.0 1.0 
0.0 0.0 1.0 
0.0 0.0 1.0 
0.0 0.0 1.0 
0.0 0.0 1.0 
0.0 0.0 1.0 
0.0 0.0 1.0 
0.0 0.0 1.0 
0.0 0.0 1.0 
0.0 0.0 1.0 
0.0 0.0 1.0 
0.0 0.0 1.0 
Learning : 0.15000000596046448
Momentum : 0.9
Epoch: 100, Error: 0.015548694209808629
Epoch: 200, Error: 0.013488232932015636
Epoch: 300, Error: 0.012604539992548887
Epoch: 400, Error: 0.01234683861453616
Epoch: 500, Error: 0.012213059859738438
Epoch: 600, Error: 0.013048972564193448
Epoch: 700, Error: 0.012050573342991693
Epoch: 800, Error: 0.012004038330306572
Epoch: 900, Error: 0.01223360652126702
Epoch: 1000, Error: 0.011965159182567645
Epoch: 1100, Error: 0.012096708513189969
Epoch: 1200, Error: 0.011841378906449027
Epoch: 1300, Error: 0.011747781928263923
Epoch: 1400, Error: 0.011725857880606533
Epoch: 1500, Error: 0.01164254690928285
Epoch: 1600, Error: 0.012070357086483133
Epoch: 1700, Error: 0.011682789582572703
Epoch: 1800, Error: 0.01247642023461797
Epoch: 1900, Error: 0.011852589626116862
Epoch: 2000, Error: 0.01161162045410499
Epoch: 2100, Error: 0.011537525387065983
Epoch: 2200, Error: 0.011566281121284971
Epoch: 2300, Error: 0.011579155829138384
Epoch: 2400, Error: 0.011644891574434163
Epoch: 2500, Error: 0.011478988419472515
Epoch: 2600, Error: 0.011433819160422454
Epoch: 2700, Error: 0.011944446125063015
Epoch: 2800, Error: 0.011448322649009446
Epoch: 2900, Error: 0.011432888538184414
Epoch: 3000, Error: 0.011523995100481802
Epoch: 3100, Error: 0.011381788842269753
Epoch: 3200, Error: 0.01137345547697102
Epoch: 3300, Error: 0.011369280000143214
Epoch: 3400, Error: 0.011305471302523162
Epoch: 3500, Error: 0.011378166957510509
Epoch: 3600, Error: 0.01158181367396
Epoch: 3700, Error: 0.01163149943795097
Epoch: 3800, Error: 0.011258314170772662
Epoch: 3900, Error: 0.011604981896025853
Epoch: 4000, Error: 0.011156345472266198
Epoch: 4100, Error: 0.01114244097258927
Epoch: 4200, Error: 0.01111963884409931
Epoch: 4300, Error: 0.011201193614947745
Epoch: 4400, Error: 0.011040640657589309
Epoch: 4500, Error: 0.010960304254254013
Epoch: 4600, Error: 0.010887249922261354
Epoch: 4700, Error: 0.010799833561668134
Epoch: 4800, Error: 0.010706423859442836
Epoch: 4900, Error: 0.010641163491128083
Epoch: 5000, Error: 0.010675520682873734
Epoch: 5100, Error: 0.010370089861705666
Epoch: 5200, Error: 0.010142584614062748
Epoch: 5300, Error: 0.009895044959420287
Epoch: 5400, Error: 0.009656681565761471
Epoch: 5500, Error: 0.00940606438425184
Epoch: 5600, Error: 0.009134795594686993
Epoch: 5700, Error: 0.0088970556639323
Epoch: 5800, Error: 0.008600200587344408
Epoch: 5900, Error: 0.008328366576179243
Epoch: 6000, Error: 0.00802317743042684
Epoch: 6100, Error: 0.007763480500105985
Epoch: 6200, Error: 0.007584017657189475
Epoch: 6300, Error: 0.007313878512542245
Epoch: 6400, Error: 0.007100250071474798
Epoch: 6500, Error: 0.00697389794163751
Epoch: 6600, Error: 0.006776253021027873
Epoch: 6700, Error: 0.0065983879903500475
Epoch: 6800, Error: 0.006434444006766851
Epoch: 6900, Error: 0.006605581766938189
Epoch: 7000, Error: 0.00628094324298356
Epoch: 7100, Error: 0.006142419558284069
Epoch: 7200, Error: 0.005992737881961531
Epoch: 7300, Error: 0.005942794725684273
Epoch: 7400, Error: 0.00618930145107297
Epoch: 7500, Error: 0.005844260992450592
Epoch: 7600, Error: 0.005932580197992438
Epoch: 7700, Error: 0.005886178294832797
Epoch: 7800, Error: 0.00580746852055775
Epoch: 7900, Error: 0.005743468882771573
Epoch: 8000, Error: 0.00584326906189686
Epoch: 8100, Error: 0.005668584658426753
Epoch: 8200, Error: 0.00589209142194577
Epoch: 8300, Error: 0.005678169897732645
Epoch: 8400, Error: 0.005743942616115372
Epoch: 8500, Error: 0.00566631859993406
Epoch: 8600, Error: 0.005674798360267188
Epoch: 8700, Error: 0.0057336932421471675
Epoch: 8800, Error: 0.005657236230244587
Epoch: 8900, Error: 0.005646529450614427
Epoch: 9000, Error: 0.005627287633808922
Epoch: 9100, Error: 0.005918647574669316
Epoch: 9200, Error: 0.005597835167070743
Epoch: 9300, Error: 0.005628724516370484
Epoch: 9400, Error: 0.0056434790350227
Epoch: 9500, Error: 0.005696066515213496
Epoch: 9600, Error: 0.005605043079463629
Epoch: 9700, Error: 0.0055585187872268516
Epoch: 9800, Error: 0.005561266044327404
Epoch: 9900, Error: 0.0055798619189616205
Epoch: 10000, Error: 0.005540513132026229
Epoch: 10100, Error: 0.005571163222089304
Epoch: 10200, Error: 0.0055503143956180875
Epoch: 10300, Error: 0.00550532034709173
Epoch: 10400, Error: 0.005525799322652896
Epoch: 10500, Error: 0.005501736037590581
Epoch: 10600, Error: 0.00549943089784299
Epoch: 10700, Error: 0.005547224836069768
Epoch: 10800, Error: 0.005466295244924086
Epoch: 10900, Error: 0.005480063501311927
Epoch: 11000, Error: 0.005467989271180188
Epoch: 11100, Error: 0.005501550458619286
Epoch: 11200, Error: 0.005437737471986878
Epoch: 11300, Error: 0.00543571350438937
Epoch: 11400, Error: 0.005439138241152476
Epoch: 11500, Error: 0.005394088436616157
Epoch: 11600, Error: 0.005423370053274374
Epoch: 11700, Error: 0.00537542958210279
Epoch: 11800, Error: 0.005408805042294042
Epoch: 11900, Error: 0.005394028312126676
Epoch: 12000, Error: 0.00533006798600556
Epoch: 12100, Error: 0.005351241661123842
Epoch: 12200, Error: 0.005360036830844582
Epoch: 12300, Error: 0.005350513563539001
Epoch: 12400, Error: 0.005411973565016492
Epoch: 12500, Error: 0.005362794551105207
Epoch: 12600, Error: 0.005334481487537663
Epoch: 12700, Error: 0.005352405879443139
Epoch: 12800, Error: 0.005298819117484753
Epoch: 12900, Error: 0.005353843672301519
Epoch: 13000, Error: 0.005321862848023138
Epoch: 13100, Error: 0.0053521447461833795
Epoch: 13200, Error: 0.00533145693523967
Epoch: 13300, Error: 0.005319933371430362
Epoch: 13400, Error: 0.00531568654268284
Epoch: 13500, Error: 0.0053321924140937215
Epoch: 13600, Error: 0.005313261154372097
Epoch: 13700, Error: 0.00531804569504048
Epoch: 13800, Error: 0.005352226195631676
Epoch: 13900, Error: 0.005308810170802506
Epoch: 14000, Error: 0.005320700462532494
Epoch: 14100, Error: 0.0053005864253975925
Epoch: 14200, Error: 0.005310179472851845
Epoch: 14300, Error: 0.005320631391739031
Finished
