Input Patterns
0.224 0.624 0.067 0.043 
0.11 0.502 0.051 0.043 
0.196 0.667 0.067 0.043 
0.055 0.584 0.067 0.082 
0.027 0.376 0.067 0.043 
0.306 0.71 0.086 0.043 
0.137 0.416 0.067 0.0 
0.416 0.831 0.035 0.043 
0.306 0.792 0.051 0.125 
0.388 0.749 0.118 0.082 
0.306 0.584 0.118 0.043 
0.082 0.667 0.0 0.043 
0.137 0.584 0.153 0.043 
0.196 0.584 0.102 0.125 
0.251 0.584 0.067 0.043 
0.137 0.459 0.102 0.043 
0.251 0.875 0.086 0.0 
0.165 0.459 0.086 0.043 
0.333 0.624 0.051 0.043 
0.027 0.416 0.051 0.043 
0.196 0.624 0.051 0.082 
0.027 0.502 0.051 0.043 
0.224 0.749 0.153 0.125 
0.224 0.749 0.102 0.043 
0.278 0.71 0.086 0.043 
0.165 0.416 0.067 0.043 
0.082 0.459 0.086 0.043 
0.306 0.792 0.118 0.125 
0.196 0.584 0.086 0.043 
0.165 0.459 0.086 0.0 
0.137 0.584 0.102 0.043 
0.0 0.416 0.016 0.0 
0.388 1.0 0.086 0.125 
0.224 0.624 0.067 0.082 
0.224 0.749 0.086 0.082 
0.224 0.71 0.086 0.125 
0.224 0.541 0.118 0.165 
0.196 0.416 0.102 0.043 
0.251 0.624 0.086 0.043 
0.11 0.502 0.102 0.043 
0.306 0.584 0.086 0.125 
0.333 0.918 0.067 0.043 
0.196 0.502 0.035 0.043 
0.165 0.667 0.067 0.0 
0.224 0.584 0.086 0.043 
0.055 0.125 0.051 0.082 
0.196 0.624 0.102 0.208 
0.137 0.416 0.067 0.082 
0.082 0.502 0.067 0.043 
0.196 0.541 0.067 0.043 
0.749 0.502 0.627 0.541 
0.722 0.459 0.663 0.584 
0.612 0.333 0.612 0.584 
0.557 0.541 0.627 0.624 
0.639 0.376 0.612 0.498 
0.196 0.0 0.424 0.376 
0.471 0.082 0.51 0.376 
0.361 0.376 0.439 0.498 
0.361 0.416 0.592 0.584 
0.529 0.082 0.592 0.584 
0.443 0.502 0.643 0.459 
0.557 0.208 0.663 0.584 
0.584 0.376 0.561 0.498 
0.694 0.333 0.643 0.541 
0.471 0.376 0.592 0.584 
0.333 0.169 0.475 0.416 
0.416 0.29 0.49 0.459 
0.306 0.416 0.592 0.584 
0.667 0.459 0.627 0.584 
0.361 0.416 0.525 0.498 
0.333 0.251 0.576 0.459 
0.416 0.251 0.51 0.459 
0.361 0.29 0.541 0.498 
0.388 0.376 0.541 0.498 
0.224 0.208 0.337 0.416 
0.584 0.502 0.592 0.584 
0.333 0.125 0.51 0.498 
0.388 0.333 0.592 0.498 
0.165 0.169 0.388 0.376 
0.251 0.29 0.49 0.541 
0.443 0.416 0.541 0.584 
0.498 0.376 0.627 0.541 
0.667 0.459 0.576 0.541 
0.416 0.29 0.525 0.376 
0.361 0.208 0.49 0.416 
0.498 0.333 0.51 0.498 
0.498 0.333 0.627 0.459 
0.639 0.416 0.576 0.541 
0.667 0.416 0.678 0.667 
0.388 0.251 0.424 0.376 
0.333 0.169 0.459 0.376 
0.471 0.29 0.694 0.624 
0.471 0.584 0.592 0.624 
0.557 0.125 0.576 0.498 
0.333 0.208 0.51 0.498 
0.498 0.416 0.612 0.541 
0.196 0.125 0.388 0.376 
0.388 0.416 0.541 0.459 
0.529 0.376 0.561 0.498 
0.388 0.333 0.525 0.498 
0.557 0.541 0.847 1.0 
0.776 0.416 0.831 0.831 
0.612 0.416 0.812 0.875 
0.165 0.208 0.592 0.667 
0.667 0.208 0.812 0.71 
0.612 0.502 0.694 0.792 
0.694 0.416 0.761 0.831 
0.416 0.333 0.694 0.957 
0.612 0.416 0.761 0.71 
0.945 0.251 1.0 0.918 
0.722 0.502 0.796 0.918 
0.945 0.333 0.965 0.792 
0.667 0.541 0.796 0.831 
0.529 0.333 0.643 0.71 
0.584 0.333 0.78 0.831 
0.863 0.333 0.863 0.749 
0.584 0.333 0.78 0.875 
0.498 0.251 0.78 0.541 
0.557 0.584 0.78 0.957 
0.471 0.416 0.643 0.71 
0.667 0.459 0.78 0.957 
0.416 0.29 0.694 0.749 
0.667 0.541 0.796 1.0 
0.557 0.208 0.678 0.749 
0.529 0.584 0.745 0.918 
0.416 0.29 0.694 0.749 
0.557 0.376 0.78 0.71 
0.918 0.416 0.949 0.831 
0.835 0.376 0.898 0.71 
0.804 0.667 0.863 1.0 
0.584 0.29 0.729 0.749 
0.388 0.208 0.678 0.792 
0.584 0.502 0.729 0.918 
0.945 0.749 0.965 0.875 
0.471 0.082 0.678 0.584 
0.361 0.333 0.663 0.792 
0.557 0.29 0.663 0.71 
0.804 0.502 0.847 0.71 
0.498 0.416 0.51 0.71 
0.804 0.416 0.812 0.624 
1.0 0.749 0.914 0.792 
0.557 0.333 0.694 0.584 
0.945 0.416 0.863 0.918 
0.584 0.459 0.761 0.71 
0.722 0.459 0.745 0.831 
0.722 0.459 0.694 0.918 
0.694 0.502 0.831 0.918 
0.667 0.416 0.714 0.918 
0.612 0.416 0.714 0.792 
0.443 0.416 0.694 0.71 
Teaching Patterns
1.0 0.0 0.0 
1.0 0.0 0.0 
1.0 0.0 0.0 
1.0 0.0 0.0 
1.0 0.0 0.0 
1.0 0.0 0.0 
1.0 0.0 0.0 
1.0 0.0 0.0 
1.0 0.0 0.0 
1.0 0.0 0.0 
1.0 0.0 0.0 
1.0 0.0 0.0 
1.0 0.0 0.0 
1.0 0.0 0.0 
1.0 0.0 0.0 
1.0 0.0 0.0 
1.0 0.0 0.0 
1.0 0.0 0.0 
1.0 0.0 0.0 
1.0 0.0 0.0 
1.0 0.0 0.0 
1.0 0.0 0.0 
1.0 0.0 0.0 
1.0 0.0 0.0 
1.0 0.0 0.0 
1.0 0.0 0.0 
1.0 0.0 0.0 
1.0 0.0 0.0 
1.0 0.0 0.0 
1.0 0.0 0.0 
1.0 0.0 0.0 
1.0 0.0 0.0 
1.0 0.0 0.0 
1.0 0.0 0.0 
1.0 0.0 0.0 
1.0 0.0 0.0 
1.0 0.0 0.0 
1.0 0.0 0.0 
1.0 0.0 0.0 
1.0 0.0 0.0 
1.0 0.0 0.0 
1.0 0.0 0.0 
1.0 0.0 0.0 
1.0 0.0 0.0 
1.0 0.0 0.0 
1.0 0.0 0.0 
1.0 0.0 0.0 
1.0 0.0 0.0 
1.0 0.0 0.0 
1.0 0.0 0.0 
0.0 1.0 0.0 
0.0 1.0 0.0 
0.0 1.0 0.0 
0.0 1.0 0.0 
0.0 1.0 0.0 
0.0 1.0 0.0 
0.0 1.0 0.0 
0.0 1.0 0.0 
0.0 1.0 0.0 
0.0 1.0 0.0 
0.0 1.0 0.0 
0.0 1.0 0.0 
0.0 1.0 0.0 
0.0 1.0 0.0 
0.0 1.0 0.0 
0.0 1.0 0.0 
0.0 1.0 0.0 
0.0 1.0 0.0 
0.0 1.0 0.0 
0.0 1.0 0.0 
0.0 1.0 0.0 
0.0 1.0 0.0 
0.0 1.0 0.0 
0.0 1.0 0.0 
0.0 1.0 0.0 
0.0 1.0 0.0 
0.0 1.0 0.0 
0.0 1.0 0.0 
0.0 1.0 0.0 
0.0 1.0 0.0 
0.0 1.0 0.0 
0.0 1.0 0.0 
0.0 1.0 0.0 
0.0 1.0 0.0 
0.0 1.0 0.0 
0.0 1.0 0.0 
0.0 1.0 0.0 
0.0 1.0 0.0 
0.0 1.0 0.0 
0.0 1.0 0.0 
0.0 1.0 0.0 
0.0 1.0 0.0 
0.0 1.0 0.0 
0.0 1.0 0.0 
0.0 1.0 0.0 
0.0 1.0 0.0 
0.0 1.0 0.0 
0.0 1.0 0.0 
0.0 1.0 0.0 
0.0 1.0 0.0 
0.0 0.0 1.0 
0.0 0.0 1.0 
0.0 0.0 1.0 
0.0 0.0 1.0 
0.0 0.0 1.0 
0.0 0.0 1.0 
0.0 0.0 1.0 
0.0 0.0 1.0 
0.0 0.0 1.0 
0.0 0.0 1.0 
0.0 0.0 1.0 
0.0 0.0 1.0 
0.0 0.0 1.0 
0.0 0.0 1.0 
0.0 0.0 1.0 
0.0 0.0 1.0 
0.0 0.0 1.0 
0.0 0.0 1.0 
0.0 0.0 1.0 
0.0 0.0 1.0 
0.0 0.0 1.0 
0.0 0.0 1.0 
0.0 0.0 1.0 
0.0 0.0 1.0 
0.0 0.0 1.0 
0.0 0.0 1.0 
0.0 0.0 1.0 
0.0 0.0 1.0 
0.0 0.0 1.0 
0.0 0.0 1.0 
0.0 0.0 1.0 
0.0 0.0 1.0 
0.0 0.0 1.0 
0.0 0.0 1.0 
0.0 0.0 1.0 
0.0 0.0 1.0 
0.0 0.0 1.0 
0.0 0.0 1.0 
0.0 0.0 1.0 
0.0 0.0 1.0 
0.0 0.0 1.0 
0.0 0.0 1.0 
0.0 0.0 1.0 
0.0 0.0 1.0 
0.0 0.0 1.0 
0.0 0.0 1.0 
0.0 0.0 1.0 
0.0 0.0 1.0 
0.0 0.0 1.0 
0.0 0.0 1.0 
Learning : 0.15000000596046448
Momentum : 0.9
Epoch: 100, Error: 0.019236821093032784
Epoch: 200, Error: 0.013717577494542763
Epoch: 300, Error: 0.013100038701499861
Epoch: 400, Error: 0.012837671863704408
Epoch: 500, Error: 0.012494150313471147
Epoch: 600, Error: 0.012733186273027268
Epoch: 700, Error: 0.012359258643112724
Epoch: 800, Error: 0.013567213725684786
Epoch: 900, Error: 0.012209349414234953
Epoch: 1000, Error: 0.012967336033734502
Epoch: 1100, Error: 0.012177984363135358
Epoch: 1200, Error: 0.012561802226811766
Epoch: 1300, Error: 0.013691182105481281
Epoch: 1400, Error: 0.012383820541355835
Epoch: 1500, Error: 0.01207141516326889
Epoch: 1600, Error: 0.012324946575815477
Epoch: 1700, Error: 0.011976552076486976
Epoch: 1800, Error: 0.011933427923272948
Epoch: 1900, Error: 0.012108256833454312
Epoch: 2000, Error: 0.011908493441750545
Epoch: 2100, Error: 0.011954135676612234
Epoch: 2200, Error: 0.012071121598818898
Epoch: 2300, Error: 0.012064511694744304
Epoch: 2400, Error: 0.011805885336276562
Epoch: 2500, Error: 0.011815050491325911
Epoch: 2600, Error: 0.011735899739137473
Epoch: 2700, Error: 0.011817786666509933
Epoch: 2800, Error: 0.011739695371757949
Epoch: 2900, Error: 0.011692085997236949
Epoch: 3000, Error: 0.011778120712450707
Epoch: 3100, Error: 0.011475919203631656
Epoch: 3200, Error: 0.011609126213737504
Epoch: 3300, Error: 0.012387485883802169
Epoch: 3400, Error: 0.011254790237737037
Epoch: 3500, Error: 0.01129970068483859
Epoch: 3600, Error: 0.011053233099183508
Epoch: 3700, Error: 0.010958516578819239
Epoch: 3800, Error: 0.01097731936488615
Epoch: 3900, Error: 0.010707131760326236
Epoch: 4000, Error: 0.010656454903398092
Epoch: 4100, Error: 0.01062962952316673
Epoch: 4200, Error: 0.010264986262364335
Epoch: 4300, Error: 0.010225972059848345
Epoch: 4400, Error: 0.009862920441597037
Epoch: 4500, Error: 0.009758508436167357
Epoch: 4600, Error: 0.009597360207652866
Epoch: 4700, Error: 0.009375433452508764
Epoch: 4800, Error: 0.009198716677142442
Epoch: 4900, Error: 0.008978661336611965
Epoch: 5000, Error: 0.008735144084662765
Epoch: 5100, Error: 0.00850984012643862
Epoch: 5200, Error: 0.008347582935304418
Epoch: 5300, Error: 0.008144287489825045
Epoch: 5400, Error: 0.00792485088158032
Epoch: 5500, Error: 0.00772465531536347
Epoch: 5600, Error: 0.007442311211525655
Epoch: 5700, Error: 0.007218973850327779
Epoch: 5800, Error: 0.007074277087536087
Epoch: 5900, Error: 0.007124485683881918
Epoch: 6000, Error: 0.006774338358261619
Epoch: 6100, Error: 0.006600157989895812
Epoch: 6200, Error: 0.006478815294192154
Epoch: 6300, Error: 0.006413651525228835
Epoch: 6400, Error: 0.006465191950189588
Epoch: 6500, Error: 0.006257597846973
Epoch: 6600, Error: 0.00619540947267089
Epoch: 6700, Error: 0.006116391096519427
Epoch: 6800, Error: 0.006099791283848017
Epoch: 6900, Error: 0.006133713385199205
Epoch: 7000, Error: 0.005985092543912847
Epoch: 7100, Error: 0.006101327294292827
Epoch: 7200, Error: 0.00596744460524681
Epoch: 7300, Error: 0.005920479881443821
Epoch: 7400, Error: 0.0058927083472967625
Epoch: 7500, Error: 0.0058927818861331345
Epoch: 7600, Error: 0.005885518059985021
Epoch: 7700, Error: 0.005853154546006961
Epoch: 7800, Error: 0.005873808598028195
Epoch: 7900, Error: 0.005961838458561382
Epoch: 8000, Error: 0.005894482813045041
Epoch: 8100, Error: 0.005952667579673599
Epoch: 8200, Error: 0.005954505950177024
Epoch: 8300, Error: 0.005976119433498188
Epoch: 8400, Error: 0.00604116009004349
Epoch: 8500, Error: 0.006070077747704042
Epoch: 8600, Error: 0.006119244943986622
Epoch: 8700, Error: 0.006148208334305441
Epoch: 8800, Error: 0.0061346047810267625
Epoch: 8900, Error: 0.006167366087859722
Epoch: 9000, Error: 0.006148096313348683
Epoch: 9100, Error: 0.006193252826383774
Epoch: 9200, Error: 0.006164188279558794
Epoch: 9300, Error: 0.006187153311509618
Epoch: 9400, Error: 0.006272940371189294
Epoch: 9500, Error: 0.006180900332159635
Epoch: 9600, Error: 0.006199024170844758
Epoch: 9700, Error: 0.006204985402434928
Epoch: 9800, Error: 0.0062135298991071244
Epoch: 9900, Error: 0.006216278608644362
Epoch: 10000, Error: 0.006230113251480501
Epoch: 10100, Error: 0.006150640624117648
Epoch: 10200, Error: 0.006145102310681917
Epoch: 10300, Error: 0.006263547741328623
Epoch: 10400, Error: 0.006219214719424471
Epoch: 10500, Error: 0.006185640999314776
Epoch: 10600, Error: 0.006147882452803185
Epoch: 10700, Error: 0.006181322392496094
Epoch: 10800, Error: 0.006152890856707312
Epoch: 10900, Error: 0.006124173245760309
Epoch: 11000, Error: 0.006129934953733092
Epoch: 11100, Error: 0.0061179459532335
Epoch: 11200, Error: 0.0061057093105789
Epoch: 11300, Error: 0.006101675064019566
Epoch: 11400, Error: 0.006121905599011292
Epoch: 11500, Error: 0.006082845423389199
Epoch: 11600, Error: 0.0060842258273528915
Epoch: 11700, Error: 0.0060778519732158
Finished
