Input Patterns
0.224 0.624 0.067 0.043 
0.11 0.502 0.051 0.043 
0.196 0.667 0.067 0.043 
0.055 0.584 0.067 0.082 
0.027 0.376 0.067 0.043 
0.306 0.71 0.086 0.043 
0.137 0.416 0.067 0.0 
0.416 0.831 0.035 0.043 
0.306 0.792 0.051 0.125 
0.388 0.749 0.118 0.082 
0.306 0.584 0.118 0.043 
0.082 0.667 0.0 0.043 
0.137 0.584 0.153 0.043 
0.196 0.584 0.102 0.125 
0.251 0.584 0.067 0.043 
0.137 0.459 0.102 0.043 
0.251 0.875 0.086 0.0 
0.165 0.459 0.086 0.043 
0.333 0.624 0.051 0.043 
0.027 0.416 0.051 0.043 
0.196 0.624 0.051 0.082 
0.027 0.502 0.051 0.043 
0.224 0.749 0.153 0.125 
0.224 0.749 0.102 0.043 
0.278 0.71 0.086 0.043 
0.165 0.416 0.067 0.043 
0.082 0.459 0.086 0.043 
0.306 0.792 0.118 0.125 
0.196 0.584 0.086 0.043 
0.165 0.459 0.086 0.0 
0.137 0.584 0.102 0.043 
0.0 0.416 0.016 0.0 
0.388 1.0 0.086 0.125 
0.224 0.624 0.067 0.082 
0.224 0.749 0.086 0.082 
0.224 0.71 0.086 0.125 
0.224 0.541 0.118 0.165 
0.196 0.416 0.102 0.043 
0.251 0.624 0.086 0.043 
0.11 0.502 0.102 0.043 
0.306 0.584 0.086 0.125 
0.333 0.918 0.067 0.043 
0.196 0.502 0.035 0.043 
0.165 0.667 0.067 0.0 
0.224 0.584 0.086 0.043 
0.055 0.125 0.051 0.082 
0.196 0.624 0.102 0.208 
0.137 0.416 0.067 0.082 
0.082 0.502 0.067 0.043 
0.196 0.541 0.067 0.043 
0.749 0.502 0.627 0.541 
0.722 0.459 0.663 0.584 
0.612 0.333 0.612 0.584 
0.557 0.541 0.627 0.624 
0.639 0.376 0.612 0.498 
0.196 0.0 0.424 0.376 
0.471 0.082 0.51 0.376 
0.361 0.376 0.439 0.498 
0.361 0.416 0.592 0.584 
0.529 0.082 0.592 0.584 
0.443 0.502 0.643 0.459 
0.557 0.208 0.663 0.584 
0.584 0.376 0.561 0.498 
0.694 0.333 0.643 0.541 
0.471 0.376 0.592 0.584 
0.333 0.169 0.475 0.416 
0.416 0.29 0.49 0.459 
0.306 0.416 0.592 0.584 
0.667 0.459 0.627 0.584 
0.361 0.416 0.525 0.498 
0.333 0.251 0.576 0.459 
0.416 0.251 0.51 0.459 
0.361 0.29 0.541 0.498 
0.388 0.376 0.541 0.498 
0.224 0.208 0.337 0.416 
0.584 0.502 0.592 0.584 
0.333 0.125 0.51 0.498 
0.388 0.333 0.592 0.498 
0.165 0.169 0.388 0.376 
0.251 0.29 0.49 0.541 
0.443 0.416 0.541 0.584 
0.498 0.376 0.627 0.541 
0.667 0.459 0.576 0.541 
0.416 0.29 0.525 0.376 
0.361 0.208 0.49 0.416 
0.498 0.333 0.51 0.498 
0.498 0.333 0.627 0.459 
0.639 0.416 0.576 0.541 
0.667 0.416 0.678 0.667 
0.388 0.251 0.424 0.376 
0.333 0.169 0.459 0.376 
0.471 0.29 0.694 0.624 
0.471 0.584 0.592 0.624 
0.557 0.125 0.576 0.498 
0.333 0.208 0.51 0.498 
0.498 0.416 0.612 0.541 
0.196 0.125 0.388 0.376 
0.388 0.416 0.541 0.459 
0.529 0.376 0.561 0.498 
0.388 0.333 0.525 0.498 
0.557 0.541 0.847 1.0 
0.776 0.416 0.831 0.831 
0.612 0.416 0.812 0.875 
0.165 0.208 0.592 0.667 
0.667 0.208 0.812 0.71 
0.612 0.502 0.694 0.792 
0.694 0.416 0.761 0.831 
0.416 0.333 0.694 0.957 
0.612 0.416 0.761 0.71 
0.945 0.251 1.0 0.918 
0.722 0.502 0.796 0.918 
0.945 0.333 0.965 0.792 
0.667 0.541 0.796 0.831 
0.529 0.333 0.643 0.71 
0.584 0.333 0.78 0.831 
0.863 0.333 0.863 0.749 
0.584 0.333 0.78 0.875 
0.498 0.251 0.78 0.541 
0.557 0.584 0.78 0.957 
0.471 0.416 0.643 0.71 
0.667 0.459 0.78 0.957 
0.416 0.29 0.694 0.749 
0.667 0.541 0.796 1.0 
0.557 0.208 0.678 0.749 
0.529 0.584 0.745 0.918 
0.416 0.29 0.694 0.749 
0.557 0.376 0.78 0.71 
0.918 0.416 0.949 0.831 
0.835 0.376 0.898 0.71 
0.804 0.667 0.863 1.0 
0.584 0.29 0.729 0.749 
0.388 0.208 0.678 0.792 
0.584 0.502 0.729 0.918 
0.945 0.749 0.965 0.875 
0.471 0.082 0.678 0.584 
0.361 0.333 0.663 0.792 
0.557 0.29 0.663 0.71 
0.804 0.502 0.847 0.71 
0.498 0.416 0.51 0.71 
0.804 0.416 0.812 0.624 
1.0 0.749 0.914 0.792 
0.557 0.333 0.694 0.584 
0.945 0.416 0.863 0.918 
0.584 0.459 0.761 0.71 
0.722 0.459 0.745 0.831 
0.722 0.459 0.694 0.918 
0.694 0.502 0.831 0.918 
0.667 0.416 0.714 0.918 
0.612 0.416 0.714 0.792 
0.443 0.416 0.694 0.71 
Teaching Patterns
1.0 0.0 0.0 
1.0 0.0 0.0 
1.0 0.0 0.0 
1.0 0.0 0.0 
1.0 0.0 0.0 
1.0 0.0 0.0 
1.0 0.0 0.0 
1.0 0.0 0.0 
1.0 0.0 0.0 
1.0 0.0 0.0 
1.0 0.0 0.0 
1.0 0.0 0.0 
1.0 0.0 0.0 
1.0 0.0 0.0 
1.0 0.0 0.0 
1.0 0.0 0.0 
1.0 0.0 0.0 
1.0 0.0 0.0 
1.0 0.0 0.0 
1.0 0.0 0.0 
1.0 0.0 0.0 
1.0 0.0 0.0 
1.0 0.0 0.0 
1.0 0.0 0.0 
1.0 0.0 0.0 
1.0 0.0 0.0 
1.0 0.0 0.0 
1.0 0.0 0.0 
1.0 0.0 0.0 
1.0 0.0 0.0 
1.0 0.0 0.0 
1.0 0.0 0.0 
1.0 0.0 0.0 
1.0 0.0 0.0 
1.0 0.0 0.0 
1.0 0.0 0.0 
1.0 0.0 0.0 
1.0 0.0 0.0 
1.0 0.0 0.0 
1.0 0.0 0.0 
1.0 0.0 0.0 
1.0 0.0 0.0 
1.0 0.0 0.0 
1.0 0.0 0.0 
1.0 0.0 0.0 
1.0 0.0 0.0 
1.0 0.0 0.0 
1.0 0.0 0.0 
1.0 0.0 0.0 
1.0 0.0 0.0 
0.0 1.0 0.0 
0.0 1.0 0.0 
0.0 1.0 0.0 
0.0 1.0 0.0 
0.0 1.0 0.0 
0.0 1.0 0.0 
0.0 1.0 0.0 
0.0 1.0 0.0 
0.0 1.0 0.0 
0.0 1.0 0.0 
0.0 1.0 0.0 
0.0 1.0 0.0 
0.0 1.0 0.0 
0.0 1.0 0.0 
0.0 1.0 0.0 
0.0 1.0 0.0 
0.0 1.0 0.0 
0.0 1.0 0.0 
0.0 1.0 0.0 
0.0 1.0 0.0 
0.0 1.0 0.0 
0.0 1.0 0.0 
0.0 1.0 0.0 
0.0 1.0 0.0 
0.0 1.0 0.0 
0.0 1.0 0.0 
0.0 1.0 0.0 
0.0 1.0 0.0 
0.0 1.0 0.0 
0.0 1.0 0.0 
0.0 1.0 0.0 
0.0 1.0 0.0 
0.0 1.0 0.0 
0.0 1.0 0.0 
0.0 1.0 0.0 
0.0 1.0 0.0 
0.0 1.0 0.0 
0.0 1.0 0.0 
0.0 1.0 0.0 
0.0 1.0 0.0 
0.0 1.0 0.0 
0.0 1.0 0.0 
0.0 1.0 0.0 
0.0 1.0 0.0 
0.0 1.0 0.0 
0.0 1.0 0.0 
0.0 1.0 0.0 
0.0 1.0 0.0 
0.0 1.0 0.0 
0.0 1.0 0.0 
0.0 0.0 1.0 
0.0 0.0 1.0 
0.0 0.0 1.0 
0.0 0.0 1.0 
0.0 0.0 1.0 
0.0 0.0 1.0 
0.0 0.0 1.0 
0.0 0.0 1.0 
0.0 0.0 1.0 
0.0 0.0 1.0 
0.0 0.0 1.0 
0.0 0.0 1.0 
0.0 0.0 1.0 
0.0 0.0 1.0 
0.0 0.0 1.0 
0.0 0.0 1.0 
0.0 0.0 1.0 
0.0 0.0 1.0 
0.0 0.0 1.0 
0.0 0.0 1.0 
0.0 0.0 1.0 
0.0 0.0 1.0 
0.0 0.0 1.0 
0.0 0.0 1.0 
0.0 0.0 1.0 
0.0 0.0 1.0 
0.0 0.0 1.0 
0.0 0.0 1.0 
0.0 0.0 1.0 
0.0 0.0 1.0 
0.0 0.0 1.0 
0.0 0.0 1.0 
0.0 0.0 1.0 
0.0 0.0 1.0 
0.0 0.0 1.0 
0.0 0.0 1.0 
0.0 0.0 1.0 
0.0 0.0 1.0 
0.0 0.0 1.0 
0.0 0.0 1.0 
0.0 0.0 1.0 
0.0 0.0 1.0 
0.0 0.0 1.0 
0.0 0.0 1.0 
0.0 0.0 1.0 
0.0 0.0 1.0 
0.0 0.0 1.0 
0.0 0.0 1.0 
0.0 0.0 1.0 
0.0 0.0 1.0 
Learning : 0.05
Momentum : 0.5
Epoch: 100, Error: 0.06348070200821122
Epoch: 200, Error: 0.021423083185268976
Epoch: 300, Error: 0.016918129218818943
Epoch: 400, Error: 0.015206466169863377
Epoch: 500, Error: 0.014372763878665682
Epoch: 600, Error: 0.013965778398010055
Epoch: 700, Error: 0.013479375214849541
Epoch: 800, Error: 0.013271674678326456
Epoch: 900, Error: 0.013074410184806519
Epoch: 1000, Error: 0.012965178984905573
Epoch: 1100, Error: 0.012856999015926185
Epoch: 1200, Error: 0.012738776867818958
Epoch: 1300, Error: 0.012621773306366926
Epoch: 1400, Error: 0.012490122114320379
Epoch: 1500, Error: 0.012398313139024278
Epoch: 1600, Error: 0.012397637720189675
Epoch: 1700, Error: 0.01233136609446701
Epoch: 1800, Error: 0.012306143568627383
Epoch: 1900, Error: 0.012245601967414557
Epoch: 2000, Error: 0.012220669096193158
Epoch: 2100, Error: 0.012199430452096623
Epoch: 2200, Error: 0.012169067942762232
Epoch: 2300, Error: 0.012155139459354576
Epoch: 2400, Error: 0.012154878447649826
Epoch: 2500, Error: 0.012164619293513593
Epoch: 2600, Error: 0.012182487461339733
Epoch: 2700, Error: 0.012130170913918163
Epoch: 2800, Error: 0.012249765557290099
Epoch: 2900, Error: 0.012111541822594971
Epoch: 3000, Error: 0.01212432171031412
Epoch: 3100, Error: 0.012111799729027716
Epoch: 3200, Error: 0.012063948158283936
Epoch: 3300, Error: 0.012082332345449656
Epoch: 3400, Error: 0.012096614715778076
Epoch: 3500, Error: 0.012029696459317363
Epoch: 3600, Error: 0.01200263045274123
Epoch: 3700, Error: 0.011985405918836081
Epoch: 3800, Error: 0.011975932172084076
Epoch: 3900, Error: 0.01204546535226195
Epoch: 4000, Error: 0.011992903731225428
Epoch: 4100, Error: 0.01200384365743484
Epoch: 4200, Error: 0.012027605927693181
Epoch: 4300, Error: 0.012023620978319445
Epoch: 4400, Error: 0.011966950219324483
Epoch: 4500, Error: 0.011957225642335126
Epoch: 4600, Error: 0.011939724388610795
Epoch: 4700, Error: 0.011975174089568726
Epoch: 4800, Error: 0.011932946254883472
Epoch: 4900, Error: 0.011958986694610346
Epoch: 5000, Error: 0.011930751141601501
Epoch: 5100, Error: 0.011922105897895293
Epoch: 5200, Error: 0.01192038997770216
Epoch: 5300, Error: 0.011889997457850424
Epoch: 5400, Error: 0.01188852048747136
Epoch: 5500, Error: 0.011891116192693896
Epoch: 5600, Error: 0.01191100383509146
Epoch: 5700, Error: 0.011899918730797317
Epoch: 5800, Error: 0.011962775300003434
Epoch: 5900, Error: 0.01189306444102776
Epoch: 6000, Error: 0.011885241888188394
Epoch: 6100, Error: 0.011850474616907879
Epoch: 6200, Error: 0.011818058857910235
Epoch: 6300, Error: 0.01181411710385594
Epoch: 6400, Error: 0.011796490853463225
Epoch: 6500, Error: 0.011777270592052743
Epoch: 6600, Error: 0.011768848956156827
Epoch: 6700, Error: 0.011805260733100592
Epoch: 6800, Error: 0.011761108114440144
Epoch: 6900, Error: 0.011783451500041429
Epoch: 7000, Error: 0.011839695772186907
Epoch: 7100, Error: 0.011765150384152538
Epoch: 7200, Error: 0.0117409967180127
Epoch: 7300, Error: 0.011729707372782821
Epoch: 7400, Error: 0.011719045479293668
Epoch: 7500, Error: 0.011721119035685098
Epoch: 7600, Error: 0.011726716323134356
Epoch: 7700, Error: 0.011713524526285482
Epoch: 7800, Error: 0.011720357336683956
Epoch: 7900, Error: 0.011727234470273703
Epoch: 8000, Error: 0.011705013925598189
Epoch: 8100, Error: 0.01169730551460131
Epoch: 8200, Error: 0.011689364199145342
Epoch: 8300, Error: 0.011661257531587083
Epoch: 8400, Error: 0.01167210711623582
Epoch: 8500, Error: 0.011651812352389202
Epoch: 8600, Error: 0.011641101138372913
Epoch: 8700, Error: 0.011643282479490327
Epoch: 8800, Error: 0.011619162982787722
Epoch: 8900, Error: 0.011817877456858812
Epoch: 9000, Error: 0.011603723065877019
Epoch: 9100, Error: 0.011604904569247065
Epoch: 9200, Error: 0.01159913811482082
Epoch: 9300, Error: 0.011591000006467246
Epoch: 9400, Error: 0.01165139352288912
Epoch: 9500, Error: 0.011553958175075641
Epoch: 9600, Error: 0.011541337711860895
Epoch: 9700, Error: 0.011535688506779794
Epoch: 9800, Error: 0.011540009994419344
Epoch: 9900, Error: 0.011510708640652331
Epoch: 10000, Error: 0.011498816035466281
Epoch: 10100, Error: 0.011491431068520463
Epoch: 10200, Error: 0.011488672094662105
Epoch: 10300, Error: 0.01146588255665643
Epoch: 10400, Error: 0.011445641247089777
Epoch: 10500, Error: 0.011436037430892403
Epoch: 10600, Error: 0.01140767722038465
Epoch: 10700, Error: 0.01144639061707227
Epoch: 10800, Error: 0.011401609226747836
Epoch: 10900, Error: 0.01143733757527572
Epoch: 11000, Error: 0.011354973729629972
Epoch: 11100, Error: 0.011396284730936252
Epoch: 11200, Error: 0.011326663256669318
Epoch: 11300, Error: 0.01130844163303179
Epoch: 11400, Error: 0.011307757325383864
Epoch: 11500, Error: 0.011304980236568554
Epoch: 11600, Error: 0.011251243952361307
Epoch: 11700, Error: 0.011283078127147114
Epoch: 11800, Error: 0.011198335258066332
Epoch: 11900, Error: 0.011222440456047283
Epoch: 12000, Error: 0.01120374009681204
Epoch: 12100, Error: 0.011127631707567334
Epoch: 12200, Error: 0.01117119799887824
Epoch: 12300, Error: 0.011077227173898257
Epoch: 12400, Error: 0.011039934178673555
Epoch: 12500, Error: 0.011032904609814438
Epoch: 12600, Error: 0.011026178599620472
Epoch: 12700, Error: 0.010935091714442834
Epoch: 12800, Error: 0.010896868766287501
Epoch: 12900, Error: 0.010861253417600015
Epoch: 13000, Error: 0.010827254704591147
Epoch: 13100, Error: 0.010770733678994181
Epoch: 13200, Error: 0.010708856448042672
Epoch: 13300, Error: 0.010687646209720101
Epoch: 13400, Error: 0.010598665502824116
Epoch: 13500, Error: 0.010536509778917355
Epoch: 13600, Error: 0.010442778611112832
Epoch: 13700, Error: 0.010373199193336357
Epoch: 13800, Error: 0.01035367530920791
Epoch: 13900, Error: 0.010230303752245455
Epoch: 14000, Error: 0.010139268422024053
Epoch: 14100, Error: 0.010049623532071214
Epoch: 14200, Error: 0.009969751497358233
Epoch: 14300, Error: 0.009815487568422512
Epoch: 14400, Error: 0.009763332218002203
Epoch: 14500, Error: 0.009591685614689175
Epoch: 14600, Error: 0.009466606212030344
Epoch: 14700, Error: 0.009343950353182227
Epoch: 14800, Error: 0.009232570213174796
Epoch: 14900, Error: 0.009170336397115677
Epoch: 15000, Error: 0.008978016486721007
Epoch: 15100, Error: 0.008892093128090063
Epoch: 15200, Error: 0.008806447895847253
Epoch: 15300, Error: 0.008651601367991276
Epoch: 15400, Error: 0.008539447967104772
Epoch: 15500, Error: 0.00841005453986717
Epoch: 15600, Error: 0.008307647364906138
Epoch: 15700, Error: 0.008206127282480586
Epoch: 15800, Error: 0.008063751288684052
Epoch: 15900, Error: 0.007977175695084094
Epoch: 16000, Error: 0.00785605186648341
Epoch: 16100, Error: 0.007755100940034492
Epoch: 16200, Error: 0.007660188088004528
Epoch: 16300, Error: 0.007582731872255925
Epoch: 16400, Error: 0.007494765600172491
Epoch: 16500, Error: 0.007393548079130015
Epoch: 16600, Error: 0.007314902632553967
Epoch: 16700, Error: 0.007234752445831081
Epoch: 16800, Error: 0.007237081786965107
Epoch: 16900, Error: 0.007102839448087895
Epoch: 17000, Error: 0.007040316700871626
Epoch: 17100, Error: 0.006970767411985129
Epoch: 17200, Error: 0.006908733244727486
Epoch: 17300, Error: 0.006836816129591138
Epoch: 17400, Error: 0.006785373863092653
Epoch: 17500, Error: 0.006724329034768737
Epoch: 17600, Error: 0.006687553885517032
Epoch: 17700, Error: 0.006625256370561938
Epoch: 17800, Error: 0.006576130912404314
Epoch: 17900, Error: 0.006509201340750491
Epoch: 18000, Error: 0.0064806942982760084
Epoch: 18100, Error: 0.006411759537768331
Epoch: 18200, Error: 0.006356747099447136
Epoch: 18300, Error: 0.006308081622947927
Epoch: 18400, Error: 0.0062686895892495745
Epoch: 18500, Error: 0.006235541544471846
Epoch: 18600, Error: 0.006192365348952967
Epoch: 18700, Error: 0.006169911872875822
Epoch: 18800, Error: 0.006127498657971875
Epoch: 18900, Error: 0.006100022509019022
Epoch: 19000, Error: 0.006102327926537362
Epoch: 19100, Error: 0.00605478536480111
Epoch: 19200, Error: 0.006021510660534795
Epoch: 19300, Error: 0.005996543056114724
Epoch: 19400, Error: 0.005981166068763429
Epoch: 19500, Error: 0.005960838578992114
Epoch: 19600, Error: 0.005934853960745737
Epoch: 19700, Error: 0.005928438600088261
Epoch: 19800, Error: 0.005886375281822122
Epoch: 19900, Error: 0.00586518559572032
Epoch: 20000, Error: 0.005852608165623814
Epoch: 20100, Error: 0.005836092657991759
Epoch: 20200, Error: 0.0058175200391138784
Epoch: 20300, Error: 0.005816114308350615
Epoch: 20400, Error: 0.005790562975217415
Epoch: 20500, Error: 0.0057636755486145394
Epoch: 20600, Error: 0.005758386330776649
Epoch: 20700, Error: 0.005723653871513095
Epoch: 20800, Error: 0.005708045682033041
Epoch: 20900, Error: 0.0057164527201105
Epoch: 21000, Error: 0.0056879077908622575
Epoch: 21100, Error: 0.005688595081504834
Epoch: 21200, Error: 0.005675441277333132
Epoch: 21300, Error: 0.005649440051610661
Epoch: 21400, Error: 0.0056400524101348735
Epoch: 21500, Error: 0.005615794992794745
Epoch: 21600, Error: 0.005604889062195496
Epoch: 21700, Error: 0.0056435551979168675
Epoch: 21800, Error: 0.005590136372896236
Epoch: 21900, Error: 0.005581104611103539
Epoch: 22000, Error: 0.005568368309095002
Epoch: 22100, Error: 0.005549962982493953
Epoch: 22200, Error: 0.005523051956938174
Epoch: 22300, Error: 0.005531463860240081
Epoch: 22400, Error: 0.0055294821001531935
Epoch: 22500, Error: 0.0055060869263893935
Epoch: 22600, Error: 0.005534222582884892
Epoch: 22700, Error: 0.005484676640035417
Epoch: 22800, Error: 0.005483173223181312
Epoch: 22900, Error: 0.005464866460703706
Epoch: 23000, Error: 0.005444109652065198
Epoch: 23100, Error: 0.005433100922978977
Epoch: 23200, Error: 0.005412437763981847
Epoch: 23300, Error: 0.005387440099728283
Epoch: 23400, Error: 0.005392992841919787
Epoch: 23500, Error: 0.00535927418102712
Epoch: 23600, Error: 0.005334772615438826
Epoch: 23700, Error: 0.005329834717455673
Epoch: 23800, Error: 0.005321989868587279
Epoch: 23900, Error: 0.005283718720123546
Epoch: 24000, Error: 0.005271590941650106
Epoch: 24100, Error: 0.005249042415298842
Epoch: 24200, Error: 0.005244381507596554
Epoch: 24300, Error: 0.005235960119340697
Epoch: 24400, Error: 0.005199507305400477
Epoch: 24500, Error: 0.005178521809667909
Epoch: 24600, Error: 0.005167279647849707
Epoch: 24700, Error: 0.005147855185596857
Epoch: 24800, Error: 0.005128192988332417
Epoch: 24900, Error: 0.005114784224352836
Epoch: 25000, Error: 0.0051068257585866654
Epoch: 25100, Error: 0.005090966208770389
Epoch: 25200, Error: 0.005078367874058591
Epoch: 25300, Error: 0.005068798148634127
Epoch: 25400, Error: 0.005047230238617352
Epoch: 25500, Error: 0.00502035553837938
Epoch: 25600, Error: 0.005011888372623683
Epoch: 25700, Error: 0.00498792473413393
Epoch: 25800, Error: 0.004979008823751437
Epoch: 25900, Error: 0.004967931542921319
Epoch: 26000, Error: 0.004949917872730867
Epoch: 26100, Error: 0.00494574373961451
Epoch: 26200, Error: 0.0049423802954335384
Epoch: 26300, Error: 0.004925212521336392
Epoch: 26400, Error: 0.004926521053507161
Epoch: 26500, Error: 0.004890454541908203
Epoch: 26600, Error: 0.004881353464297122
Epoch: 26700, Error: 0.004844301515967757
Epoch: 26800, Error: 0.004826052909655419
Epoch: 26900, Error: 0.004849621882995865
Epoch: 27000, Error: 0.004812176344325275
Epoch: 27100, Error: 0.004816042805844843
Epoch: 27200, Error: 0.004801692483323392
Epoch: 27300, Error: 0.004764605796565268
Epoch: 27400, Error: 0.004747384894610306
Epoch: 27500, Error: 0.00474989967029321
Epoch: 27600, Error: 0.00471406777199565
Epoch: 27700, Error: 0.004702296691894476
Epoch: 27800, Error: 0.0046868689606142135
Epoch: 27900, Error: 0.004671217255657247
Epoch: 28000, Error: 0.0046586484112526045
Epoch: 28100, Error: 0.004655576516532648
Epoch: 28200, Error: 0.004646862647057104
Epoch: 28300, Error: 0.004614156754952873
Epoch: 28400, Error: 0.004603446245898231
Epoch: 28500, Error: 0.004589983512874331
Epoch: 28600, Error: 0.004563391420701151
Epoch: 28700, Error: 0.004530155646600875
Epoch: 28800, Error: 0.004520241142165954
Epoch: 28900, Error: 0.004494597964698476
Epoch: 29000, Error: 0.004472791518347485
Epoch: 29100, Error: 0.004455492662317958
Epoch: 29200, Error: 0.004435608413338903
Epoch: 29300, Error: 0.004429019489135703
Epoch: 29400, Error: 0.004409745804113648
Epoch: 29500, Error: 0.004392468983068264
Epoch: 29600, Error: 0.004359822244621534
Epoch: 29700, Error: 0.004330555120231669
Epoch: 29800, Error: 0.004311524839569323
Epoch: 29900, Error: 0.004289519619899518
Epoch: 30000, Error: 0.004266108660237379
Epoch: 30100, Error: 0.004255646014926522
Epoch: 30200, Error: 0.004220065483765341
Epoch: 30300, Error: 0.004203171508837298
Epoch: 30400, Error: 0.004178997372661447
Epoch: 30500, Error: 0.004164829599563933
Epoch: 30600, Error: 0.00414103823534373
Epoch: 30700, Error: 0.004125431162017341
Epoch: 30800, Error: 0.0040992166396182665
Epoch: 30900, Error: 0.004098320537099507
Epoch: 31000, Error: 0.0040827320696566515
Epoch: 31100, Error: 0.004055767570663388
Epoch: 31200, Error: 0.004037742368143334
Epoch: 31300, Error: 0.004026606965205305
Epoch: 31400, Error: 0.0040033647252052055
Epoch: 31500, Error: 0.003981893905841682
Epoch: 31600, Error: 0.004013157713581497
Epoch: 31700, Error: 0.003996462378950467
Epoch: 31800, Error: 0.0039998300419195635
Epoch: 31900, Error: 0.003961716819915968
Epoch: 32000, Error: 0.003959019800946506
Epoch: 32100, Error: 0.004061589657329976
Epoch: 32200, Error: 0.0039249181327554086
Epoch: 32300, Error: 0.0038784564291387473
Epoch: 32400, Error: 0.003937044778496613
Epoch: 32500, Error: 0.0038519456410494295
Epoch: 32600, Error: 0.0038615605570945163
Epoch: 32700, Error: 0.003834970027859757
Epoch: 32800, Error: 0.003819343162847335
Epoch: 32900, Error: 0.003829445494378157
Epoch: 33000, Error: 0.0037830578865268067
Epoch: 33100, Error: 0.0037695457925994835
Epoch: 33200, Error: 0.0037489272906321073
Epoch: 33300, Error: 0.0037406838981512845
Epoch: 33400, Error: 0.003734903923017212
Epoch: 33500, Error: 0.003721396394518451
Epoch: 33600, Error: 0.003707566407938676
Epoch: 33700, Error: 0.003705048520829573
Epoch: 33800, Error: 0.0036879331126193266
Epoch: 33900, Error: 0.0037230625662699936
Epoch: 34000, Error: 0.0036781191468113305
Epoch: 34100, Error: 0.0036767377182488964
Epoch: 34200, Error: 0.003659053818449965
Epoch: 34300, Error: 0.00365156425647988
Epoch: 34400, Error: 0.0036712300721746826
Epoch: 34500, Error: 0.003658317659792403
Epoch: 34600, Error: 0.0036427466078277192
Epoch: 34700, Error: 0.003627318306376607
Epoch: 34800, Error: 0.0036420349902557283
Epoch: 34900, Error: 0.003636895458184438
Epoch: 35000, Error: 0.0036365891538926148
Epoch: 35100, Error: 0.0036906247180017635
Epoch: 35200, Error: 0.0036124542761129218
Epoch: 35300, Error: 0.0035823814774002343
Epoch: 35400, Error: 0.003578800942379724
Epoch: 35500, Error: 0.0035644636310548394
Epoch: 35600, Error: 0.003526141205305677
Epoch: 35700, Error: 0.0034807045902940444
Epoch: 35800, Error: 0.003457468715718145
Epoch: 35900, Error: 0.003456307818636904
Epoch: 36000, Error: 0.003426991066073281
Epoch: 36100, Error: 0.0033999126361487653
Epoch: 36200, Error: 0.0033761571092717144
Epoch: 36300, Error: 0.0033087069540420266
Epoch: 36400, Error: 0.003266051631235696
Epoch: 36500, Error: 0.0032528731677051717
Epoch: 36600, Error: 0.0032202982084761416
Epoch: 36700, Error: 0.003238746787011761
Epoch: 36800, Error: 0.0031834168136090648
Epoch: 36900, Error: 0.0031539709316156517
Epoch: 37000, Error: 0.00311855982837113
Epoch: 37100, Error: 0.00310892440192304
Epoch: 37200, Error: 0.003102845103814198
Epoch: 37300, Error: 0.0030699377507382697
Epoch: 37400, Error: 0.0030123802862980125
Epoch: 37500, Error: 0.0030013138868583288
Epoch: 37600, Error: 0.0030417504956736104
Epoch: 37700, Error: 0.0029532072951840038
Epoch: 37800, Error: 0.0029446209527220196
Epoch: 37900, Error: 0.0029056921438266443
Epoch: 38000, Error: 0.002868605909440927
Epoch: 38100, Error: 0.002816352747752872
Epoch: 38200, Error: 0.0027833386508945897
Epoch: 38300, Error: 0.002776972319470606
Epoch: 38400, Error: 0.002954240812274754
Epoch: 38500, Error: 0.0027532368001693115
Epoch: 38600, Error: 0.0027764005242167287
Epoch: 38700, Error: 0.0026844014711875906
Epoch: 38800, Error: 0.0026594129467373043
Epoch: 38900, Error: 0.002684027624007321
Epoch: 39000, Error: 0.0026007882673330773
Epoch: 39100, Error: 0.002625999059338945
Epoch: 39200, Error: 0.0025777886935216265
Epoch: 39300, Error: 0.0025515846967229415
Epoch: 39400, Error: 0.002524210119346988
Epoch: 39500, Error: 0.0025009910324514575
Epoch: 39600, Error: 0.0024765657756040046
Epoch: 39700, Error: 0.0025778062960039763
Epoch: 39800, Error: 0.002562160686005955
Epoch: 39900, Error: 0.002527768449878949
Epoch: 40000, Error: 0.002412612764191657
Epoch: 40100, Error: 0.002421224427830757
Epoch: 40200, Error: 0.0023742218109342322
Epoch: 40300, Error: 0.0023936263693152943
Epoch: 40400, Error: 0.00234007134249424
Epoch: 40500, Error: 0.0023493370923739574
Epoch: 40600, Error: 0.0023283102218973166
Epoch: 40700, Error: 0.0022876710530279182
Epoch: 40800, Error: 0.0023106673055713844
Epoch: 40900, Error: 0.002323262956123034
Epoch: 41000, Error: 0.002232893091427399
Epoch: 41100, Error: 0.002228326288294127
Epoch: 41200, Error: 0.002193862257267498
Epoch: 41300, Error: 0.0021857707308608858
Epoch: 41400, Error: 0.0021693794334515905
Epoch: 41500, Error: 0.002253614569219363
Epoch: 41600, Error: 0.0021223656323233974
Epoch: 41700, Error: 0.002107635600138222
Epoch: 41800, Error: 0.00210285974825468
Epoch: 41900, Error: 0.0020996313774362414
Epoch: 42000, Error: 0.002104995603790435
Epoch: 42100, Error: 0.0020426172084839827
Epoch: 42200, Error: 0.00205552231197089
Epoch: 42300, Error: 0.0020428703844441506
Epoch: 42400, Error: 0.00201997218108324
Epoch: 42500, Error: 0.0019966848525117082
Epoch: 42600, Error: 0.00196159654063019
Epoch: 42700, Error: 0.001956020300445849
Epoch: 42800, Error: 0.0019589735751336696
Epoch: 42900, Error: 0.0019610113768521145
Epoch: 43000, Error: 0.0019436174181084191
Epoch: 43100, Error: 0.0019000432623100592
Epoch: 43200, Error: 0.0019228371708640668
Epoch: 43300, Error: 0.0019105585762344266
Epoch: 43400, Error: 0.0018663618358939072
Epoch: 43500, Error: 0.0018581077935096815
Epoch: 43600, Error: 0.0018814112579323698
Epoch: 43700, Error: 0.001854640436697134
Epoch: 43800, Error: 0.0018315261857900346
Epoch: 43900, Error: 0.0018230256429812215
Epoch: 44000, Error: 0.0017804926396658683
Epoch: 44100, Error: 0.0017830057964646128
Epoch: 44200, Error: 0.001788368731062741
Epoch: 44300, Error: 0.0018126985574190013
Epoch: 44400, Error: 0.0017922190350604709
Epoch: 44500, Error: 0.0017321181801175476
Epoch: 44600, Error: 0.001738527050651921
Epoch: 44700, Error: 0.0017073599781449703
Epoch: 44800, Error: 0.0016955995961580631
Epoch: 44900, Error: 0.0016777216663607366
Epoch: 45000, Error: 0.001686241050250854
Epoch: 45100, Error: 0.0016623985568706273
Epoch: 45200, Error: 0.0016949128482224409
Epoch: 45300, Error: 0.0016559129217614133
Epoch: 45400, Error: 0.0016639910225550861
Epoch: 45500, Error: 0.0016361657591265621
Epoch: 45600, Error: 0.0016250784137250226
Epoch: 45700, Error: 0.0016399336538358053
Epoch: 45800, Error: 0.0015899550050733863
Epoch: 45900, Error: 0.0016038597840997172
Epoch: 46000, Error: 0.0016209856243569335
Epoch: 46100, Error: 0.0015632092579506193
Epoch: 46200, Error: 0.0015835350406535576
Epoch: 46300, Error: 0.0015583938476275972
Epoch: 46400, Error: 0.00154152225450033
Epoch: 46500, Error: 0.001541859684960176
Epoch: 46600, Error: 0.0015229182005182349
Epoch: 46700, Error: 0.0015277745911716697
Epoch: 46800, Error: 0.0015232545692054752
Epoch: 46900, Error: 0.0015058573578004646
Epoch: 47000, Error: 0.001492998457451761
Epoch: 47100, Error: 0.0015164034393704306
Epoch: 47200, Error: 0.0014801777697909203
Epoch: 47300, Error: 0.0014785040556492743
Epoch: 47400, Error: 0.001465728263355904
Epoch: 47500, Error: 0.0014607415192622393
Epoch: 47600, Error: 0.001445373165407593
Epoch: 47700, Error: 0.0014648833026733165
Epoch: 47800, Error: 0.0014359126683724651
Epoch: 47900, Error: 0.0014218715104906952
Epoch: 48000, Error: 0.001418272635755903
Epoch: 48100, Error: 0.0014071023823070572
Epoch: 48200, Error: 0.0014027139488695436
Epoch: 48300, Error: 0.001441231220099592
Epoch: 48400, Error: 0.0014070130998259168
Epoch: 48500, Error: 0.0013812065842242548
Epoch: 48600, Error: 0.001392873594571017
Epoch: 48700, Error: 0.0013688582844057894
Epoch: 48800, Error: 0.0013661876353731517
Epoch: 48900, Error: 0.0013643496908623536
Epoch: 49000, Error: 0.0013678945671406933
Epoch: 49100, Error: 0.0013484020110991533
Epoch: 49200, Error: 0.0013402331219754138
Epoch: 49300, Error: 0.0013400105687929001
Epoch: 49400, Error: 0.001321073230525289
Epoch: 49500, Error: 0.001316995702433269
Epoch: 49600, Error: 0.0013129677812750338
Epoch: 49700, Error: 0.001315943426874276
Epoch: 49800, Error: 0.0013176333991613291
Epoch: 49900, Error: 0.0012925276709120526
Epoch: 50000, Error: 0.0012881395771591616
Epoch: 50100, Error: 0.0012936892906001867
Epoch: 50200, Error: 0.0012804364375896822
Epoch: 50300, Error: 0.00128167466394614
Epoch: 50400, Error: 0.0012687900269482645
Epoch: 50500, Error: 0.0012557240903209041
