Input Patterns
0.224 0.624 0.067 0.043 
0.11 0.502 0.051 0.043 
0.196 0.667 0.067 0.043 
0.055 0.584 0.067 0.082 
0.027 0.376 0.067 0.043 
0.306 0.71 0.086 0.043 
0.137 0.416 0.067 0.0 
0.416 0.831 0.035 0.043 
0.306 0.792 0.051 0.125 
0.388 0.749 0.118 0.082 
0.306 0.584 0.118 0.043 
0.082 0.667 0.0 0.043 
0.137 0.584 0.153 0.043 
0.196 0.584 0.102 0.125 
0.251 0.584 0.067 0.043 
0.137 0.459 0.102 0.043 
0.251 0.875 0.086 0.0 
0.165 0.459 0.086 0.043 
0.333 0.624 0.051 0.043 
0.027 0.416 0.051 0.043 
0.196 0.624 0.051 0.082 
0.027 0.502 0.051 0.043 
0.224 0.749 0.153 0.125 
0.224 0.749 0.102 0.043 
0.278 0.71 0.086 0.043 
0.165 0.416 0.067 0.043 
0.082 0.459 0.086 0.043 
0.306 0.792 0.118 0.125 
0.196 0.584 0.086 0.043 
0.165 0.459 0.086 0.0 
0.137 0.584 0.102 0.043 
0.0 0.416 0.016 0.0 
0.388 1.0 0.086 0.125 
0.224 0.624 0.067 0.082 
0.224 0.749 0.086 0.082 
0.224 0.71 0.086 0.125 
0.224 0.541 0.118 0.165 
0.196 0.416 0.102 0.043 
0.251 0.624 0.086 0.043 
0.11 0.502 0.102 0.043 
0.306 0.584 0.086 0.125 
0.333 0.918 0.067 0.043 
0.196 0.502 0.035 0.043 
0.165 0.667 0.067 0.0 
0.224 0.584 0.086 0.043 
0.055 0.125 0.051 0.082 
0.196 0.624 0.102 0.208 
0.137 0.416 0.067 0.082 
0.082 0.502 0.067 0.043 
0.196 0.541 0.067 0.043 
0.749 0.502 0.627 0.541 
0.722 0.459 0.663 0.584 
0.612 0.333 0.612 0.584 
0.557 0.541 0.627 0.624 
0.639 0.376 0.612 0.498 
0.196 0.0 0.424 0.376 
0.471 0.082 0.51 0.376 
0.361 0.376 0.439 0.498 
0.361 0.416 0.592 0.584 
0.529 0.082 0.592 0.584 
0.443 0.502 0.643 0.459 
0.557 0.208 0.663 0.584 
0.584 0.376 0.561 0.498 
0.694 0.333 0.643 0.541 
0.471 0.376 0.592 0.584 
0.333 0.169 0.475 0.416 
0.416 0.29 0.49 0.459 
0.306 0.416 0.592 0.584 
0.667 0.459 0.627 0.584 
0.361 0.416 0.525 0.498 
0.333 0.251 0.576 0.459 
0.416 0.251 0.51 0.459 
0.361 0.29 0.541 0.498 
0.388 0.376 0.541 0.498 
0.224 0.208 0.337 0.416 
0.584 0.502 0.592 0.584 
0.333 0.125 0.51 0.498 
0.388 0.333 0.592 0.498 
0.165 0.169 0.388 0.376 
0.251 0.29 0.49 0.541 
0.443 0.416 0.541 0.584 
0.498 0.376 0.627 0.541 
0.667 0.459 0.576 0.541 
0.416 0.29 0.525 0.376 
0.361 0.208 0.49 0.416 
0.498 0.333 0.51 0.498 
0.498 0.333 0.627 0.459 
0.639 0.416 0.576 0.541 
0.667 0.416 0.678 0.667 
0.388 0.251 0.424 0.376 
0.333 0.169 0.459 0.376 
0.471 0.29 0.694 0.624 
0.471 0.584 0.592 0.624 
0.557 0.125 0.576 0.498 
0.333 0.208 0.51 0.498 
0.498 0.416 0.612 0.541 
0.196 0.125 0.388 0.376 
0.388 0.416 0.541 0.459 
0.529 0.376 0.561 0.498 
0.388 0.333 0.525 0.498 
0.557 0.541 0.847 1.0 
0.776 0.416 0.831 0.831 
0.612 0.416 0.812 0.875 
0.165 0.208 0.592 0.667 
0.667 0.208 0.812 0.71 
0.612 0.502 0.694 0.792 
0.694 0.416 0.761 0.831 
0.416 0.333 0.694 0.957 
0.612 0.416 0.761 0.71 
0.945 0.251 1.0 0.918 
0.722 0.502 0.796 0.918 
0.945 0.333 0.965 0.792 
0.667 0.541 0.796 0.831 
0.529 0.333 0.643 0.71 
0.584 0.333 0.78 0.831 
0.863 0.333 0.863 0.749 
0.584 0.333 0.78 0.875 
0.498 0.251 0.78 0.541 
0.557 0.584 0.78 0.957 
0.471 0.416 0.643 0.71 
0.667 0.459 0.78 0.957 
0.416 0.29 0.694 0.749 
0.667 0.541 0.796 1.0 
0.557 0.208 0.678 0.749 
0.529 0.584 0.745 0.918 
0.416 0.29 0.694 0.749 
0.557 0.376 0.78 0.71 
0.918 0.416 0.949 0.831 
0.835 0.376 0.898 0.71 
0.804 0.667 0.863 1.0 
0.584 0.29 0.729 0.749 
0.388 0.208 0.678 0.792 
0.584 0.502 0.729 0.918 
0.945 0.749 0.965 0.875 
0.471 0.082 0.678 0.584 
0.361 0.333 0.663 0.792 
0.557 0.29 0.663 0.71 
0.804 0.502 0.847 0.71 
0.498 0.416 0.51 0.71 
0.804 0.416 0.812 0.624 
1.0 0.749 0.914 0.792 
0.557 0.333 0.694 0.584 
0.945 0.416 0.863 0.918 
0.584 0.459 0.761 0.71 
0.722 0.459 0.745 0.831 
0.722 0.459 0.694 0.918 
0.694 0.502 0.831 0.918 
0.667 0.416 0.714 0.918 
0.612 0.416 0.714 0.792 
0.443 0.416 0.694 0.71 
Teaching Patterns
1.0 0.0 0.0 
1.0 0.0 0.0 
1.0 0.0 0.0 
1.0 0.0 0.0 
1.0 0.0 0.0 
1.0 0.0 0.0 
1.0 0.0 0.0 
1.0 0.0 0.0 
1.0 0.0 0.0 
1.0 0.0 0.0 
1.0 0.0 0.0 
1.0 0.0 0.0 
1.0 0.0 0.0 
1.0 0.0 0.0 
1.0 0.0 0.0 
1.0 0.0 0.0 
1.0 0.0 0.0 
1.0 0.0 0.0 
1.0 0.0 0.0 
1.0 0.0 0.0 
1.0 0.0 0.0 
1.0 0.0 0.0 
1.0 0.0 0.0 
1.0 0.0 0.0 
1.0 0.0 0.0 
1.0 0.0 0.0 
1.0 0.0 0.0 
1.0 0.0 0.0 
1.0 0.0 0.0 
1.0 0.0 0.0 
1.0 0.0 0.0 
1.0 0.0 0.0 
1.0 0.0 0.0 
1.0 0.0 0.0 
1.0 0.0 0.0 
1.0 0.0 0.0 
1.0 0.0 0.0 
1.0 0.0 0.0 
1.0 0.0 0.0 
1.0 0.0 0.0 
1.0 0.0 0.0 
1.0 0.0 0.0 
1.0 0.0 0.0 
1.0 0.0 0.0 
1.0 0.0 0.0 
1.0 0.0 0.0 
1.0 0.0 0.0 
1.0 0.0 0.0 
1.0 0.0 0.0 
1.0 0.0 0.0 
0.0 1.0 0.0 
0.0 1.0 0.0 
0.0 1.0 0.0 
0.0 1.0 0.0 
0.0 1.0 0.0 
0.0 1.0 0.0 
0.0 1.0 0.0 
0.0 1.0 0.0 
0.0 1.0 0.0 
0.0 1.0 0.0 
0.0 1.0 0.0 
0.0 1.0 0.0 
0.0 1.0 0.0 
0.0 1.0 0.0 
0.0 1.0 0.0 
0.0 1.0 0.0 
0.0 1.0 0.0 
0.0 1.0 0.0 
0.0 1.0 0.0 
0.0 1.0 0.0 
0.0 1.0 0.0 
0.0 1.0 0.0 
0.0 1.0 0.0 
0.0 1.0 0.0 
0.0 1.0 0.0 
0.0 1.0 0.0 
0.0 1.0 0.0 
0.0 1.0 0.0 
0.0 1.0 0.0 
0.0 1.0 0.0 
0.0 1.0 0.0 
0.0 1.0 0.0 
0.0 1.0 0.0 
0.0 1.0 0.0 
0.0 1.0 0.0 
0.0 1.0 0.0 
0.0 1.0 0.0 
0.0 1.0 0.0 
0.0 1.0 0.0 
0.0 1.0 0.0 
0.0 1.0 0.0 
0.0 1.0 0.0 
0.0 1.0 0.0 
0.0 1.0 0.0 
0.0 1.0 0.0 
0.0 1.0 0.0 
0.0 1.0 0.0 
0.0 1.0 0.0 
0.0 1.0 0.0 
0.0 1.0 0.0 
0.0 0.0 1.0 
0.0 0.0 1.0 
0.0 0.0 1.0 
0.0 0.0 1.0 
0.0 0.0 1.0 
0.0 0.0 1.0 
0.0 0.0 1.0 
0.0 0.0 1.0 
0.0 0.0 1.0 
0.0 0.0 1.0 
0.0 0.0 1.0 
0.0 0.0 1.0 
0.0 0.0 1.0 
0.0 0.0 1.0 
0.0 0.0 1.0 
0.0 0.0 1.0 
0.0 0.0 1.0 
0.0 0.0 1.0 
0.0 0.0 1.0 
0.0 0.0 1.0 
0.0 0.0 1.0 
0.0 0.0 1.0 
0.0 0.0 1.0 
0.0 0.0 1.0 
0.0 0.0 1.0 
0.0 0.0 1.0 
0.0 0.0 1.0 
0.0 0.0 1.0 
0.0 0.0 1.0 
0.0 0.0 1.0 
0.0 0.0 1.0 
0.0 0.0 1.0 
0.0 0.0 1.0 
0.0 0.0 1.0 
0.0 0.0 1.0 
0.0 0.0 1.0 
0.0 0.0 1.0 
0.0 0.0 1.0 
0.0 0.0 1.0 
0.0 0.0 1.0 
0.0 0.0 1.0 
0.0 0.0 1.0 
0.0 0.0 1.0 
0.0 0.0 1.0 
0.0 0.0 1.0 
0.0 0.0 1.0 
0.0 0.0 1.0 
0.0 0.0 1.0 
0.0 0.0 1.0 
0.0 0.0 1.0 
Learning : 0.05
Momentum : 0.4000000059604645
Epoch: 100, Error: 0.0785121836923111
Epoch: 200, Error: 0.025983405516731686
Epoch: 300, Error: 0.01903000484492509
Epoch: 400, Error: 0.01685515638323679
Epoch: 500, Error: 0.015467689717096124
Epoch: 600, Error: 0.01479156940369133
Epoch: 700, Error: 0.01425119121326072
Epoch: 800, Error: 0.013947834829977393
Epoch: 900, Error: 0.013699625896820755
Epoch: 1000, Error: 0.01347128703813612
Epoch: 1100, Error: 0.013302298179726573
Epoch: 1200, Error: 0.013206936627886103
Epoch: 1300, Error: 0.013105265716244029
Epoch: 1400, Error: 0.013047688199247818
Epoch: 1500, Error: 0.012886344642707688
Epoch: 1600, Error: 0.012784897641417721
Epoch: 1700, Error: 0.012720393223372439
Epoch: 1800, Error: 0.012698592685551336
Epoch: 1900, Error: 0.01260635123084525
Epoch: 2000, Error: 0.012636031946287315
Epoch: 2100, Error: 0.012564375711805336
Epoch: 2200, Error: 0.012519776596207987
Epoch: 2300, Error: 0.012428951796227408
Epoch: 2400, Error: 0.01239882387579076
Epoch: 2500, Error: 0.012380055648235272
Epoch: 2600, Error: 0.01233379235444335
Epoch: 2700, Error: 0.01230470656148932
Epoch: 2800, Error: 0.012369588802158016
Epoch: 2900, Error: 0.012260237228941793
Epoch: 3000, Error: 0.01222543531696201
Epoch: 3100, Error: 0.012233561776230065
Epoch: 3200, Error: 0.012217639611579055
Epoch: 3300, Error: 0.012178156068637523
Epoch: 3400, Error: 0.01217766547570375
Epoch: 3500, Error: 0.012178239392113611
Epoch: 3600, Error: 0.012138516736604581
Epoch: 3700, Error: 0.012129317952195786
Epoch: 3800, Error: 0.012115318760105678
Epoch: 3900, Error: 0.01218900925691059
Epoch: 4000, Error: 0.012128639440644002
Epoch: 4100, Error: 0.012091576133598946
Epoch: 4200, Error: 0.01210020869447653
Epoch: 4300, Error: 0.012086645764968942
Epoch: 4400, Error: 0.01206373837378414
Epoch: 4500, Error: 0.01208556792226562
Epoch: 4600, Error: 0.012046271109782155
Epoch: 4700, Error: 0.012023841184951372
Epoch: 4800, Error: 0.012029183980230675
Epoch: 4900, Error: 0.012049863157491096
Epoch: 5000, Error: 0.012010447070744727
Epoch: 5100, Error: 0.01198517259220882
Epoch: 5200, Error: 0.01197817797970457
Epoch: 5300, Error: 0.011975039308199145
Epoch: 5400, Error: 0.011981939642236752
Epoch: 5500, Error: 0.011985917984930853
Epoch: 5600, Error: 0.01195692887739552
Epoch: 5700, Error: 0.01196551118906923
Epoch: 5800, Error: 0.011993356437200195
Epoch: 5900, Error: 0.011928280233307567
Epoch: 6000, Error: 0.011929150732642781
Epoch: 6100, Error: 0.011915192190733856
Epoch: 6200, Error: 0.012018974183940231
Epoch: 6300, Error: 0.011928396950431122
Epoch: 6400, Error: 0.01188515564342444
Epoch: 6500, Error: 0.011882532247749326
Epoch: 6600, Error: 0.011870329844867097
Epoch: 6700, Error: 0.011860054412575196
Epoch: 6800, Error: 0.011863289115362491
Epoch: 6900, Error: 0.011835380927312471
Epoch: 7000, Error: 0.011831175174717394
Epoch: 7100, Error: 0.011850726565065074
Epoch: 7200, Error: 0.011818195612303203
Epoch: 7300, Error: 0.01181529088366102
Epoch: 7400, Error: 0.011807703368302166
Epoch: 7500, Error: 0.011785790264447888
Epoch: 7600, Error: 0.011783347925683236
Epoch: 7700, Error: 0.01177455726914096
Epoch: 7800, Error: 0.011743717386044683
Epoch: 7900, Error: 0.0117743840755211
Epoch: 8000, Error: 0.011780836620738094
Epoch: 8100, Error: 0.0117689928632274
Epoch: 8200, Error: 0.011745814164031051
Epoch: 8300, Error: 0.011718069133310102
Epoch: 8400, Error: 0.011666000801902759
Epoch: 8500, Error: 0.011674131881122842
Epoch: 8600, Error: 0.011641945325128581
Epoch: 8700, Error: 0.011636809546058197
Epoch: 8800, Error: 0.011624662157009538
Epoch: 8900, Error: 0.011621159647104345
Epoch: 9000, Error: 0.01163485325307601
Epoch: 9100, Error: 0.01156960864953054
Epoch: 9200, Error: 0.011590226799773961
Epoch: 9300, Error: 0.011527477900248878
Epoch: 9400, Error: 0.01148194992646895
Epoch: 9500, Error: 0.011460932605210902
Epoch: 9600, Error: 0.011523173141918381
Epoch: 9700, Error: 0.011456310452573778
Epoch: 9800, Error: 0.011380753312550824
Epoch: 9900, Error: 0.011350590723763472
Epoch: 10000, Error: 0.011342257415467242
Epoch: 10100, Error: 0.011313371618384057
Epoch: 10200, Error: 0.011281734778654063
Epoch: 10300, Error: 0.01133451995708043
Epoch: 10400, Error: 0.011270584097819454
Epoch: 10500, Error: 0.011212420251168458
Epoch: 10600, Error: 0.011165039864077573
Epoch: 10700, Error: 0.011143733994278718
Epoch: 10800, Error: 0.011131120178780348
Epoch: 10900, Error: 0.011097684453247011
Epoch: 11000, Error: 0.01107400682821868
Epoch: 11100, Error: 0.011050791195429753
Epoch: 11200, Error: 0.011024231312653981
Epoch: 11300, Error: 0.010995381966776942
Epoch: 11400, Error: 0.01098118456324392
Epoch: 11500, Error: 0.010948081612557458
Epoch: 11600, Error: 0.011006240772318664
Epoch: 11700, Error: 0.010876260813498852
Epoch: 11800, Error: 0.01083527664507825
Epoch: 11900, Error: 0.010804312562669532
Epoch: 12000, Error: 0.010772929348781293
Epoch: 12100, Error: 0.01071033712196247
Epoch: 12200, Error: 0.01067255367254533
Epoch: 12300, Error: 0.010638857535481234
Epoch: 12400, Error: 0.010566310423643213
Epoch: 12500, Error: 0.010541306065657318
Epoch: 12600, Error: 0.010427040068320213
Epoch: 12700, Error: 0.010355131205322573
Epoch: 12800, Error: 0.010282111820487822
Epoch: 12900, Error: 0.01015587207893161
Epoch: 13000, Error: 0.010071911060556002
Epoch: 13100, Error: 0.010014911733078957
Epoch: 13200, Error: 0.00984839401287732
Epoch: 13300, Error: 0.009729728214019137
Epoch: 13400, Error: 0.00956464466958831
Epoch: 13500, Error: 0.009420871920838266
Epoch: 13600, Error: 0.009269663100812873
Epoch: 13700, Error: 0.009134462646438319
Epoch: 13800, Error: 0.008965522683230451
Epoch: 13900, Error: 0.00884011871362285
Epoch: 14000, Error: 0.008636542361137941
Epoch: 14100, Error: 0.008505885661141258
Epoch: 14200, Error: 0.008336523891440278
Epoch: 14300, Error: 0.008226547431563886
Epoch: 14400, Error: 0.00803508171631767
Epoch: 14500, Error: 0.007933706949385375
Epoch: 14600, Error: 0.00780615990142715
Epoch: 14700, Error: 0.0077240464072010255
Epoch: 14800, Error: 0.007556108428674858
Epoch: 14900, Error: 0.007478465134836527
Epoch: 15000, Error: 0.007342417461829731
Epoch: 15100, Error: 0.007244091897425046
Epoch: 15200, Error: 0.007138484356468146
Epoch: 15300, Error: 0.007051361837707775
Epoch: 15400, Error: 0.0069437484947227944
Epoch: 15500, Error: 0.006860592368149863
Epoch: 15600, Error: 0.00678175222253426
Epoch: 15700, Error: 0.006707353020510826
Epoch: 15800, Error: 0.006651004461893961
Epoch: 15900, Error: 0.006589098975992616
Epoch: 16000, Error: 0.006513015262001742
Epoch: 16100, Error: 0.0064520772018009116
Epoch: 16200, Error: 0.006410352920012791
Epoch: 16300, Error: 0.006355249165629444
Epoch: 16400, Error: 0.0063009766244496185
Epoch: 16500, Error: 0.006249630476477127
Epoch: 16600, Error: 0.00620675582138577
Epoch: 16700, Error: 0.006163467994499507
Epoch: 16800, Error: 0.006144650902240803
Epoch: 16900, Error: 0.006110355006736934
Epoch: 17000, Error: 0.0060800790967008005
Epoch: 17100, Error: 0.00604328890858765
Epoch: 17200, Error: 0.006006950752485938
Epoch: 17300, Error: 0.005990544266348629
Epoch: 17400, Error: 0.0059514269905171484
Epoch: 17500, Error: 0.005923773112121896
Epoch: 17600, Error: 0.0059168498229776115
Epoch: 17700, Error: 0.005865183206060892
Epoch: 17800, Error: 0.005836554442048412
Epoch: 17900, Error: 0.005813450419072673
Epoch: 18000, Error: 0.005800050158025745
Epoch: 18100, Error: 0.005773086875932805
Epoch: 18200, Error: 0.005770031228980146
Epoch: 18300, Error: 0.00573335852283968
Epoch: 18400, Error: 0.00573760836624732
Epoch: 18500, Error: 0.005681318198205446
Epoch: 18600, Error: 0.00566395415405766
Epoch: 18700, Error: 0.005647756962921998
Epoch: 18800, Error: 0.005637825043857796
Epoch: 18900, Error: 0.0056094045363498275
Epoch: 19000, Error: 0.005593911801816875
Epoch: 19100, Error: 0.0055715422448614944
Epoch: 19200, Error: 0.005559402161638166
Epoch: 19300, Error: 0.005539615362272374
Epoch: 19400, Error: 0.005544978186364409
Epoch: 19500, Error: 0.005524812305511387
Epoch: 19600, Error: 0.005494040429112375
Epoch: 19700, Error: 0.00548218722215238
Epoch: 19800, Error: 0.0054601132286071965
Epoch: 19900, Error: 0.005439207773000934
Epoch: 20000, Error: 0.005411692646058472
Epoch: 20100, Error: 0.005408617788736678
Epoch: 20200, Error: 0.005377088579592971
Epoch: 20300, Error: 0.00536589824755747
Epoch: 20400, Error: 0.005351920630951593
Epoch: 20500, Error: 0.005317434037238556
Epoch: 20600, Error: 0.005306803059679181
Epoch: 20700, Error: 0.0052967215039964035
Epoch: 20800, Error: 0.00528574498068393
Epoch: 20900, Error: 0.005271046915083791
Epoch: 21000, Error: 0.0052550153059509165
Epoch: 21100, Error: 0.005229414911893118
Epoch: 21200, Error: 0.005228525150549594
Epoch: 21300, Error: 0.005196755163058635
Epoch: 21400, Error: 0.005170654515179178
Epoch: 21500, Error: 0.005203967884679917
Epoch: 21600, Error: 0.0051369140141843015
Epoch: 21700, Error: 0.005141125764484624
Epoch: 21800, Error: 0.005102703373515854
Epoch: 21900, Error: 0.005079915387819493
Epoch: 22000, Error: 0.00507085046367444
Epoch: 22100, Error: 0.005051227272585836
Epoch: 22200, Error: 0.005050888335442259
Epoch: 22300, Error: 0.005008418567441405
Epoch: 22400, Error: 0.0049901266779361405
Epoch: 22500, Error: 0.004971040689796836
Epoch: 22600, Error: 0.004963900261192499
Epoch: 22700, Error: 0.004938350402977101
Epoch: 22800, Error: 0.004928560262867864
Epoch: 22900, Error: 0.00490505772711381
Epoch: 23000, Error: 0.00487463755608236
Epoch: 23100, Error: 0.004850945297643805
Epoch: 23200, Error: 0.004841087013332561
Epoch: 23300, Error: 0.004823348959636001
Epoch: 23400, Error: 0.004810937256256515
Epoch: 23500, Error: 0.0047920705832709765
Epoch: 23600, Error: 0.004805048385698391
Epoch: 23700, Error: 0.004770770176391481
Epoch: 23800, Error: 0.004753634594520596
Epoch: 23900, Error: 0.004729564917266756
Epoch: 24000, Error: 0.004711668409773962
Epoch: 24100, Error: 0.004697133113819762
Epoch: 24200, Error: 0.004678998722504173
Epoch: 24300, Error: 0.004633536875826473
Epoch: 24400, Error: 0.0046225041625903825
Epoch: 24500, Error: 0.004611558197139669
Epoch: 24600, Error: 0.004573429740108847
Epoch: 24700, Error: 0.004568924856870458
Epoch: 24800, Error: 0.004561396455737729
Epoch: 24900, Error: 0.004536845405428453
Epoch: 25000, Error: 0.004521194876826643
Epoch: 25100, Error: 0.004458488692762427
Epoch: 25200, Error: 0.004425771961629748
Epoch: 25300, Error: 0.004397713768318339
Epoch: 25400, Error: 0.004416554888943778
Epoch: 25500, Error: 0.004362974469549224
Epoch: 25600, Error: 0.00432326797233514
Epoch: 25700, Error: 0.004311764951325555
Epoch: 25800, Error: 0.004284544245065542
Epoch: 25900, Error: 0.004254799945394236
Epoch: 26000, Error: 0.004236039194426121
Epoch: 26100, Error: 0.004217016459705573
Epoch: 26200, Error: 0.0041894041838404835
Epoch: 26300, Error: 0.004139568553141761
Epoch: 26400, Error: 0.004114549272575582
Epoch: 26500, Error: 0.00408840983156583
Epoch: 26600, Error: 0.004065327758161297
Epoch: 26700, Error: 0.00408886659702493
Epoch: 26800, Error: 0.004030260993816636
Epoch: 26900, Error: 0.004001859373585307
Epoch: 27000, Error: 0.004075674820986996
Epoch: 27100, Error: 0.0039467166959852445
Epoch: 27200, Error: 0.003929447460859584
Epoch: 27300, Error: 0.003908972566101495
Epoch: 27400, Error: 0.0038922684868598787
Epoch: 27500, Error: 0.003852956145213268
Epoch: 27600, Error: 0.0038604379716371696
Epoch: 27700, Error: 0.0038415656357703963
Epoch: 27800, Error: 0.003788829690674739
Epoch: 27900, Error: 0.00376014186669273
Epoch: 28000, Error: 0.0037410467222952124
Epoch: 28100, Error: 0.0037160895341631825
Epoch: 28200, Error: 0.003710705585895178
Epoch: 28300, Error: 0.0036883825902757133
Epoch: 28400, Error: 0.003671574411121189
Epoch: 28500, Error: 0.0036326414133642927
Epoch: 28600, Error: 0.003618883597212072
Epoch: 28700, Error: 0.0036054680478428422
Epoch: 28800, Error: 0.0035700305561502453
Epoch: 28900, Error: 0.0035617436877277632
Epoch: 29000, Error: 0.0035266722157099506
Epoch: 29100, Error: 0.003515604203090635
Epoch: 29200, Error: 0.003499115454738286
Epoch: 29300, Error: 0.0035002201692589394
Epoch: 29400, Error: 0.003449806338877435
Epoch: 29500, Error: 0.0034814776698901518
Epoch: 29600, Error: 0.003413675062334237
Epoch: 29700, Error: 0.0034092304561614698
Epoch: 29800, Error: 0.0033697949675051252
Epoch: 29900, Error: 0.003345149314004937
Epoch: 30000, Error: 0.003353404859859934
Epoch: 30100, Error: 0.0034124060504188585
Epoch: 30200, Error: 0.0033091132720085093
Epoch: 30300, Error: 0.0032658354701276507
Epoch: 30400, Error: 0.003256143303949323
Epoch: 30500, Error: 0.003247633429944043
Epoch: 30600, Error: 0.003213151518830051
Epoch: 30700, Error: 0.0032023583347610142
Epoch: 30800, Error: 0.0031688413128540148
Epoch: 30900, Error: 0.003176206329864283
Epoch: 31000, Error: 0.003124849522138575
Epoch: 31100, Error: 0.0031413194245384227
Epoch: 31200, Error: 0.003077481519188217
Epoch: 31300, Error: 0.0031114369084487723
Epoch: 31400, Error: 0.0030439887298305845
Epoch: 31500, Error: 0.0030351541716642
Epoch: 31600, Error: 0.0030205067483743426
Epoch: 31700, Error: 0.0030429762831964027
Epoch: 31800, Error: 0.0030029204281363615
Epoch: 31900, Error: 0.00293008310327988
Epoch: 32000, Error: 0.002958700512068533
Epoch: 32100, Error: 0.0028923258918805103
Epoch: 32200, Error: 0.002869342637588247
Epoch: 32300, Error: 0.0028895113800148416
Epoch: 32400, Error: 0.0028761599648795115
Epoch: 32500, Error: 0.002803336334539934
Epoch: 32600, Error: 0.0028652155137119223
Epoch: 32700, Error: 0.002760502493319821
Epoch: 32800, Error: 0.0027431369712711904
Epoch: 32900, Error: 0.00282763004934605
Epoch: 33000, Error: 0.0027029930064216287
Epoch: 33100, Error: 0.002684498254112851
Epoch: 33200, Error: 0.00266412537771882
Epoch: 33300, Error: 0.0026604013925550234
Epoch: 33400, Error: 0.002722791019107496
Epoch: 33500, Error: 0.0026149282096530144
Epoch: 33600, Error: 0.002629363757884382
Epoch: 33700, Error: 0.002590445576603331
Epoch: 33800, Error: 0.0025945817792763343
Epoch: 33900, Error: 0.002585722486530059
Epoch: 34000, Error: 0.0025334973156823514
Epoch: 34100, Error: 0.002562731016155477
Epoch: 34200, Error: 0.002536037377089204
Epoch: 34300, Error: 0.0024817364958593384
Epoch: 34400, Error: 0.002467854992347861
Epoch: 34500, Error: 0.0024501110305026495
Epoch: 34600, Error: 0.0024366717254567143
Epoch: 34700, Error: 0.002446216427156244
Epoch: 34800, Error: 0.002439922028988086
Epoch: 34900, Error: 0.0024311863160359714
Epoch: 35000, Error: 0.0024013192768889734
Epoch: 35100, Error: 0.0023702425779263303
Epoch: 35200, Error: 0.0023711837709325828
Epoch: 35300, Error: 0.0023446835209390768
Epoch: 35400, Error: 0.0023218800273941387
Epoch: 35500, Error: 0.0023650028270757197
Epoch: 35600, Error: 0.002298857507766136
Epoch: 35700, Error: 0.0022951210498137766
Epoch: 35800, Error: 0.0022918996094037124
Epoch: 35900, Error: 0.002240037271008417
Epoch: 36000, Error: 0.002224163483844992
Epoch: 36100, Error: 0.002212512342430579
Epoch: 36200, Error: 0.002207288308774667
Epoch: 36300, Error: 0.0021824690898482185
Epoch: 36400, Error: 0.002215239367675223
Epoch: 36500, Error: 0.0021798617366801764
Epoch: 36600, Error: 0.002144326627338903
Epoch: 36700, Error: 0.002142578284093982
Epoch: 36800, Error: 0.00211865870152641
Epoch: 36900, Error: 0.0021389216881467174
Epoch: 37000, Error: 0.0021065218678391587
Epoch: 37100, Error: 0.00207899644398672
Epoch: 37200, Error: 0.0020649556365402843
Epoch: 37300, Error: 0.002055853494729772
Epoch: 37400, Error: 0.0020655715673887007
Epoch: 37500, Error: 0.0020314366868264115
Epoch: 37600, Error: 0.0020136206310905247
Epoch: 37700, Error: 0.0020205286364125227
Epoch: 37800, Error: 0.0020134380232566845
Epoch: 37900, Error: 0.0020321145357864692
Epoch: 38000, Error: 0.0019760534762322847
Epoch: 38100, Error: 0.0019667454484934483
Epoch: 38200, Error: 0.0019519664077441037
Epoch: 38300, Error: 0.0019278393660092563
Epoch: 38400, Error: 0.0019272223848328899
Epoch: 38500, Error: 0.0019217994218292196
Epoch: 38600, Error: 0.0019430175319109912
Epoch: 38700, Error: 0.001886263248586211
Epoch: 38800, Error: 0.0019125693803600308
Epoch: 38900, Error: 0.0019068035046815568
Epoch: 39000, Error: 0.0018431754510636396
Epoch: 39100, Error: 0.0018689139974036582
Epoch: 39200, Error: 0.0018388834131159262
Epoch: 39300, Error: 0.0018238066488434404
Epoch: 39400, Error: 0.0018231352753394808
Epoch: 39500, Error: 0.0018484614029503931
Epoch: 39600, Error: 0.0017852190369049478
Epoch: 39700, Error: 0.001786788936373368
Epoch: 39800, Error: 0.0017702702088376909
Epoch: 39900, Error: 0.0017633223090140278
Epoch: 40000, Error: 0.001766856598720831
Epoch: 40100, Error: 0.0017300307903610926
Epoch: 40200, Error: 0.0017277147665049927
Epoch: 40300, Error: 0.00173692249707319
Epoch: 40400, Error: 0.0017310328898941642
Epoch: 40500, Error: 0.001689991373365938
Epoch: 40600, Error: 0.0016806954578423216
Epoch: 40700, Error: 0.0016762531610153874
Epoch: 40800, Error: 0.0016783188011683674
Epoch: 40900, Error: 0.0016592783374050116
Epoch: 41000, Error: 0.0016471709251653659
Epoch: 41100, Error: 0.0016388989445809544
Epoch: 41200, Error: 0.0016314156926628015
Epoch: 41300, Error: 0.0016517335328349418
Epoch: 41400, Error: 0.0016398444145479785
Epoch: 41500, Error: 0.0016041147023374684
Epoch: 41600, Error: 0.00160489737831675
Epoch: 41700, Error: 0.0015859431509474863
Epoch: 41800, Error: 0.001619502725580872
