Input Patterns
0.224 0.624 0.067 0.043 
0.11 0.502 0.051 0.043 
0.196 0.667 0.067 0.043 
0.055 0.584 0.067 0.082 
0.027 0.376 0.067 0.043 
0.306 0.71 0.086 0.043 
0.137 0.416 0.067 0.0 
0.416 0.831 0.035 0.043 
0.306 0.792 0.051 0.125 
0.388 0.749 0.118 0.082 
0.306 0.584 0.118 0.043 
0.082 0.667 0.0 0.043 
0.137 0.584 0.153 0.043 
0.196 0.584 0.102 0.125 
0.251 0.584 0.067 0.043 
0.137 0.459 0.102 0.043 
0.251 0.875 0.086 0.0 
0.165 0.459 0.086 0.043 
0.333 0.624 0.051 0.043 
0.027 0.416 0.051 0.043 
0.196 0.624 0.051 0.082 
0.027 0.502 0.051 0.043 
0.224 0.749 0.153 0.125 
0.224 0.749 0.102 0.043 
0.278 0.71 0.086 0.043 
0.165 0.416 0.067 0.043 
0.082 0.459 0.086 0.043 
0.306 0.792 0.118 0.125 
0.196 0.584 0.086 0.043 
0.165 0.459 0.086 0.0 
0.137 0.584 0.102 0.043 
0.0 0.416 0.016 0.0 
0.388 1.0 0.086 0.125 
0.224 0.624 0.067 0.082 
0.224 0.749 0.086 0.082 
0.224 0.71 0.086 0.125 
0.224 0.541 0.118 0.165 
0.196 0.416 0.102 0.043 
0.251 0.624 0.086 0.043 
0.11 0.502 0.102 0.043 
0.306 0.584 0.086 0.125 
0.333 0.918 0.067 0.043 
0.196 0.502 0.035 0.043 
0.165 0.667 0.067 0.0 
0.224 0.584 0.086 0.043 
0.055 0.125 0.051 0.082 
0.196 0.624 0.102 0.208 
0.137 0.416 0.067 0.082 
0.082 0.502 0.067 0.043 
0.196 0.541 0.067 0.043 
0.749 0.502 0.627 0.541 
0.722 0.459 0.663 0.584 
0.612 0.333 0.612 0.584 
0.557 0.541 0.627 0.624 
0.639 0.376 0.612 0.498 
0.196 0.0 0.424 0.376 
0.471 0.082 0.51 0.376 
0.361 0.376 0.439 0.498 
0.361 0.416 0.592 0.584 
0.529 0.082 0.592 0.584 
0.443 0.502 0.643 0.459 
0.557 0.208 0.663 0.584 
0.584 0.376 0.561 0.498 
0.694 0.333 0.643 0.541 
0.471 0.376 0.592 0.584 
0.333 0.169 0.475 0.416 
0.416 0.29 0.49 0.459 
0.306 0.416 0.592 0.584 
0.667 0.459 0.627 0.584 
0.361 0.416 0.525 0.498 
0.333 0.251 0.576 0.459 
0.416 0.251 0.51 0.459 
0.361 0.29 0.541 0.498 
0.388 0.376 0.541 0.498 
0.224 0.208 0.337 0.416 
0.584 0.502 0.592 0.584 
0.333 0.125 0.51 0.498 
0.388 0.333 0.592 0.498 
0.165 0.169 0.388 0.376 
0.251 0.29 0.49 0.541 
0.443 0.416 0.541 0.584 
0.498 0.376 0.627 0.541 
0.667 0.459 0.576 0.541 
0.416 0.29 0.525 0.376 
0.361 0.208 0.49 0.416 
0.498 0.333 0.51 0.498 
0.498 0.333 0.627 0.459 
0.639 0.416 0.576 0.541 
0.667 0.416 0.678 0.667 
0.388 0.251 0.424 0.376 
0.333 0.169 0.459 0.376 
0.471 0.29 0.694 0.624 
0.471 0.584 0.592 0.624 
0.557 0.125 0.576 0.498 
0.333 0.208 0.51 0.498 
0.498 0.416 0.612 0.541 
0.196 0.125 0.388 0.376 
0.388 0.416 0.541 0.459 
0.529 0.376 0.561 0.498 
0.388 0.333 0.525 0.498 
0.557 0.541 0.847 1.0 
0.776 0.416 0.831 0.831 
0.612 0.416 0.812 0.875 
0.165 0.208 0.592 0.667 
0.667 0.208 0.812 0.71 
0.612 0.502 0.694 0.792 
0.694 0.416 0.761 0.831 
0.416 0.333 0.694 0.957 
0.612 0.416 0.761 0.71 
0.945 0.251 1.0 0.918 
0.722 0.502 0.796 0.918 
0.945 0.333 0.965 0.792 
0.667 0.541 0.796 0.831 
0.529 0.333 0.643 0.71 
0.584 0.333 0.78 0.831 
0.863 0.333 0.863 0.749 
0.584 0.333 0.78 0.875 
0.498 0.251 0.78 0.541 
0.557 0.584 0.78 0.957 
0.471 0.416 0.643 0.71 
0.667 0.459 0.78 0.957 
0.416 0.29 0.694 0.749 
0.667 0.541 0.796 1.0 
0.557 0.208 0.678 0.749 
0.529 0.584 0.745 0.918 
0.416 0.29 0.694 0.749 
0.557 0.376 0.78 0.71 
0.918 0.416 0.949 0.831 
0.835 0.376 0.898 0.71 
0.804 0.667 0.863 1.0 
0.584 0.29 0.729 0.749 
0.388 0.208 0.678 0.792 
0.584 0.502 0.729 0.918 
0.945 0.749 0.965 0.875 
0.471 0.082 0.678 0.584 
0.361 0.333 0.663 0.792 
0.557 0.29 0.663 0.71 
0.804 0.502 0.847 0.71 
0.498 0.416 0.51 0.71 
0.804 0.416 0.812 0.624 
1.0 0.749 0.914 0.792 
0.557 0.333 0.694 0.584 
0.945 0.416 0.863 0.918 
0.584 0.459 0.761 0.71 
0.722 0.459 0.745 0.831 
0.722 0.459 0.694 0.918 
0.694 0.502 0.831 0.918 
0.667 0.416 0.714 0.918 
0.612 0.416 0.714 0.792 
0.443 0.416 0.694 0.71 
Teaching Patterns
1.0 0.0 0.0 
1.0 0.0 0.0 
1.0 0.0 0.0 
1.0 0.0 0.0 
1.0 0.0 0.0 
1.0 0.0 0.0 
1.0 0.0 0.0 
1.0 0.0 0.0 
1.0 0.0 0.0 
1.0 0.0 0.0 
1.0 0.0 0.0 
1.0 0.0 0.0 
1.0 0.0 0.0 
1.0 0.0 0.0 
1.0 0.0 0.0 
1.0 0.0 0.0 
1.0 0.0 0.0 
1.0 0.0 0.0 
1.0 0.0 0.0 
1.0 0.0 0.0 
1.0 0.0 0.0 
1.0 0.0 0.0 
1.0 0.0 0.0 
1.0 0.0 0.0 
1.0 0.0 0.0 
1.0 0.0 0.0 
1.0 0.0 0.0 
1.0 0.0 0.0 
1.0 0.0 0.0 
1.0 0.0 0.0 
1.0 0.0 0.0 
1.0 0.0 0.0 
1.0 0.0 0.0 
1.0 0.0 0.0 
1.0 0.0 0.0 
1.0 0.0 0.0 
1.0 0.0 0.0 
1.0 0.0 0.0 
1.0 0.0 0.0 
1.0 0.0 0.0 
1.0 0.0 0.0 
1.0 0.0 0.0 
1.0 0.0 0.0 
1.0 0.0 0.0 
1.0 0.0 0.0 
1.0 0.0 0.0 
1.0 0.0 0.0 
1.0 0.0 0.0 
1.0 0.0 0.0 
1.0 0.0 0.0 
0.0 1.0 0.0 
0.0 1.0 0.0 
0.0 1.0 0.0 
0.0 1.0 0.0 
0.0 1.0 0.0 
0.0 1.0 0.0 
0.0 1.0 0.0 
0.0 1.0 0.0 
0.0 1.0 0.0 
0.0 1.0 0.0 
0.0 1.0 0.0 
0.0 1.0 0.0 
0.0 1.0 0.0 
0.0 1.0 0.0 
0.0 1.0 0.0 
0.0 1.0 0.0 
0.0 1.0 0.0 
0.0 1.0 0.0 
0.0 1.0 0.0 
0.0 1.0 0.0 
0.0 1.0 0.0 
0.0 1.0 0.0 
0.0 1.0 0.0 
0.0 1.0 0.0 
0.0 1.0 0.0 
0.0 1.0 0.0 
0.0 1.0 0.0 
0.0 1.0 0.0 
0.0 1.0 0.0 
0.0 1.0 0.0 
0.0 1.0 0.0 
0.0 1.0 0.0 
0.0 1.0 0.0 
0.0 1.0 0.0 
0.0 1.0 0.0 
0.0 1.0 0.0 
0.0 1.0 0.0 
0.0 1.0 0.0 
0.0 1.0 0.0 
0.0 1.0 0.0 
0.0 1.0 0.0 
0.0 1.0 0.0 
0.0 1.0 0.0 
0.0 1.0 0.0 
0.0 1.0 0.0 
0.0 1.0 0.0 
0.0 1.0 0.0 
0.0 1.0 0.0 
0.0 1.0 0.0 
0.0 1.0 0.0 
0.0 0.0 1.0 
0.0 0.0 1.0 
0.0 0.0 1.0 
0.0 0.0 1.0 
0.0 0.0 1.0 
0.0 0.0 1.0 
0.0 0.0 1.0 
0.0 0.0 1.0 
0.0 0.0 1.0 
0.0 0.0 1.0 
0.0 0.0 1.0 
0.0 0.0 1.0 
0.0 0.0 1.0 
0.0 0.0 1.0 
0.0 0.0 1.0 
0.0 0.0 1.0 
0.0 0.0 1.0 
0.0 0.0 1.0 
0.0 0.0 1.0 
0.0 0.0 1.0 
0.0 0.0 1.0 
0.0 0.0 1.0 
0.0 0.0 1.0 
0.0 0.0 1.0 
0.0 0.0 1.0 
0.0 0.0 1.0 
0.0 0.0 1.0 
0.0 0.0 1.0 
0.0 0.0 1.0 
0.0 0.0 1.0 
0.0 0.0 1.0 
0.0 0.0 1.0 
0.0 0.0 1.0 
0.0 0.0 1.0 
0.0 0.0 1.0 
0.0 0.0 1.0 
0.0 0.0 1.0 
0.0 0.0 1.0 
0.0 0.0 1.0 
0.0 0.0 1.0 
0.0 0.0 1.0 
0.0 0.0 1.0 
0.0 0.0 1.0 
0.0 0.0 1.0 
0.0 0.0 1.0 
0.0 0.0 1.0 
0.0 0.0 1.0 
0.0 0.0 1.0 
0.0 0.0 1.0 
0.0 0.0 1.0 
Learning : 0.05
Momentum : 0.30000001192092896
Epoch: 100, Error: 0.08532650717882267
Epoch: 200, Error: 0.030789432676573
Epoch: 300, Error: 0.019414475633342913
Epoch: 400, Error: 0.016200870096145428
Epoch: 500, Error: 0.014757130744595915
Epoch: 600, Error: 0.013921596241473719
Epoch: 700, Error: 0.013406994462353267
Epoch: 800, Error: 0.013004278726610611
Epoch: 900, Error: 0.012739056475524368
Epoch: 1000, Error: 0.012500935081588175
Epoch: 1100, Error: 0.012348224050632895
Epoch: 1200, Error: 0.01224016020226481
Epoch: 1300, Error: 0.012174643561990536
Epoch: 1400, Error: 0.012100049038950437
Epoch: 1500, Error: 0.01203638366237577
Epoch: 1600, Error: 0.012102074085278438
Epoch: 1700, Error: 0.011922112056407249
Epoch: 1800, Error: 0.01188029542891655
Epoch: 1900, Error: 0.01191109937327187
Epoch: 2000, Error: 0.01183265465296476
Epoch: 2100, Error: 0.011820285064220969
Epoch: 2200, Error: 0.011948559526630534
Epoch: 2300, Error: 0.011856761028889986
Epoch: 2400, Error: 0.011789741674644598
Epoch: 2500, Error: 0.01178198779384425
Epoch: 2600, Error: 0.011782331587089245
Epoch: 2700, Error: 0.011784267622804207
Epoch: 2800, Error: 0.011756316604808347
Epoch: 2900, Error: 0.011756810980334702
Epoch: 3000, Error: 0.011791508318422569
Epoch: 3100, Error: 0.011806357321690455
Epoch: 3200, Error: 0.011762950349236826
Epoch: 3300, Error: 0.011761313993846613
Epoch: 3400, Error: 0.011733953603393866
Epoch: 3500, Error: 0.011753558955607868
Epoch: 3600, Error: 0.011742856022539678
Epoch: 3700, Error: 0.01173909621211704
Epoch: 3800, Error: 0.011731865091299474
Epoch: 3900, Error: 0.011722110666411047
Epoch: 4000, Error: 0.011732614479368178
Epoch: 4100, Error: 0.011736846428734673
Epoch: 4200, Error: 0.01174344668905806
Epoch: 4300, Error: 0.011776384052781865
Epoch: 4400, Error: 0.011733598179756655
Epoch: 4500, Error: 0.0118224772790457
Epoch: 4600, Error: 0.011766606393315102
Epoch: 4700, Error: 0.011760376339904816
Epoch: 4800, Error: 0.01176983409059568
Epoch: 4900, Error: 0.011766528988045206
Epoch: 5000, Error: 0.011757400818982485
Epoch: 5100, Error: 0.01177565107001199
Epoch: 5200, Error: 0.011790588951979665
Epoch: 5300, Error: 0.011808319244835499
Epoch: 5400, Error: 0.011816757528855215
Epoch: 5500, Error: 0.011843304152758747
Epoch: 5600, Error: 0.011800969292165047
Epoch: 5700, Error: 0.011779995401862612
Epoch: 5800, Error: 0.011800440335530307
Epoch: 5900, Error: 0.011896059091465903
Epoch: 6000, Error: 0.011836686717428942
Epoch: 6100, Error: 0.011846643339737862
Epoch: 6200, Error: 0.011878737681062557
Epoch: 6300, Error: 0.011832894048930636
Epoch: 6400, Error: 0.011808991539417276
Epoch: 6500, Error: 0.01179704068945258
Epoch: 6600, Error: 0.011782942901859378
Epoch: 6700, Error: 0.01177891390903932
Epoch: 6800, Error: 0.011770052861311367
Epoch: 6900, Error: 0.011798928049463706
Epoch: 7000, Error: 0.011769718000787943
Epoch: 7100, Error: 0.011750179079144028
Epoch: 7200, Error: 0.01178001678080892
Epoch: 7300, Error: 0.011771285985110427
Epoch: 7400, Error: 0.011774615698853243
Epoch: 7500, Error: 0.0117591486580479
Epoch: 7600, Error: 0.011730432873971467
Epoch: 7700, Error: 0.011765747772781913
Epoch: 7800, Error: 0.011727797370972307
Epoch: 7900, Error: 0.011707268801262424
Epoch: 8000, Error: 0.011675784541353467
Epoch: 8100, Error: 0.011697731084488554
Epoch: 8200, Error: 0.011745451629891959
Epoch: 8300, Error: 0.011659036039299303
Epoch: 8400, Error: 0.011646319506596819
Epoch: 8500, Error: 0.011637350500317127
Epoch: 8600, Error: 0.011655747404799644
Epoch: 8700, Error: 0.011623848307332011
Epoch: 8800, Error: 0.011593198762379742
Epoch: 8900, Error: 0.011581451085745806
Epoch: 9000, Error: 0.011566314989762249
Epoch: 9100, Error: 0.011520447125117492
Epoch: 9200, Error: 0.01158524907345974
Epoch: 9300, Error: 0.01154995851834391
Epoch: 9400, Error: 0.011521444079814695
Epoch: 9500, Error: 0.011485835612161543
Epoch: 9600, Error: 0.011474192415407791
Epoch: 9700, Error: 0.011443913482788537
Epoch: 9800, Error: 0.011409931489822927
Epoch: 9900, Error: 0.011343886816039496
Epoch: 10000, Error: 0.011314420707907771
Epoch: 10100, Error: 0.011275497628374414
Epoch: 10200, Error: 0.011252221644991463
Epoch: 10300, Error: 0.011251630270262386
Epoch: 10400, Error: 0.011227258768599186
Epoch: 10500, Error: 0.011204436842661536
Epoch: 10600, Error: 0.011230656748591895
Epoch: 10700, Error: 0.011141207919748762
Epoch: 10800, Error: 0.01111715058443588
Epoch: 10900, Error: 0.01108440093364829
Epoch: 11000, Error: 0.011044703844716808
Epoch: 11100, Error: 0.011023347737832546
Epoch: 11200, Error: 0.010995858857883558
Epoch: 11300, Error: 0.010958508621995593
Epoch: 11400, Error: 0.010905216879623847
Epoch: 11500, Error: 0.010863900756847355
Epoch: 11600, Error: 0.01082989810700422
Epoch: 11700, Error: 0.010791669934093978
Epoch: 11800, Error: 0.010732115642672145
Epoch: 11900, Error: 0.010672729179342682
Epoch: 12000, Error: 0.010627197600129526
Epoch: 12100, Error: 0.010592913088149464
Epoch: 12200, Error: 0.010528216545297961
Epoch: 12300, Error: 0.010514757906236882
Epoch: 12400, Error: 0.010445422559342953
Epoch: 12500, Error: 0.010398580441396318
Epoch: 12600, Error: 0.010330179050688518
Epoch: 12700, Error: 0.010260301647957453
Epoch: 12800, Error: 0.010246404470127854
Epoch: 12900, Error: 0.010168042977791026
Epoch: 13000, Error: 0.010099233569230993
Epoch: 13100, Error: 0.0100346608700583
Epoch: 13200, Error: 0.009966299502993204
Epoch: 13300, Error: 0.009885567708240115
Epoch: 13400, Error: 0.009814940788010866
Epoch: 13500, Error: 0.009712866410700882
Epoch: 13600, Error: 0.009638746783145918
Epoch: 13700, Error: 0.009558900543915075
Epoch: 13800, Error: 0.009473164287762586
Epoch: 13900, Error: 0.009379827324234489
Epoch: 14000, Error: 0.009326029079126228
Epoch: 14100, Error: 0.009199062204165807
Epoch: 14200, Error: 0.009102803861836196
Epoch: 14300, Error: 0.008990490867188389
Epoch: 14400, Error: 0.00889522813611431
Epoch: 14500, Error: 0.008789350042489529
Epoch: 14600, Error: 0.008693818967530947
Epoch: 14700, Error: 0.008637223769625006
Epoch: 14800, Error: 0.008486888865510304
Epoch: 14900, Error: 0.00838999873778586
Epoch: 15000, Error: 0.008287558904527157
Epoch: 15100, Error: 0.008200231961568901
Epoch: 15200, Error: 0.008097770558418194
Epoch: 15300, Error: 0.008049202432296556
Epoch: 15400, Error: 0.00791116391358267
Epoch: 15500, Error: 0.007805619045130801
Epoch: 15600, Error: 0.007727227928707049
Epoch: 15700, Error: 0.007654636028896377
Epoch: 15800, Error: 0.007568796232245383
Epoch: 15900, Error: 0.00745513486058393
Epoch: 16000, Error: 0.007367192136773834
Epoch: 16100, Error: 0.00728968573862008
Epoch: 16200, Error: 0.007210584307511376
Epoch: 16300, Error: 0.007139990373536455
Epoch: 16400, Error: 0.0071028031845912125
Epoch: 16500, Error: 0.006988564699498628
Epoch: 16600, Error: 0.006974729062421826
Epoch: 16700, Error: 0.0068940533660745915
Epoch: 16800, Error: 0.006814117442412357
Epoch: 16900, Error: 0.006758660245387887
Epoch: 17000, Error: 0.006717254068898828
Epoch: 17100, Error: 0.006624228346693289
Epoch: 17200, Error: 0.006576371888964895
Epoch: 17300, Error: 0.006520292600726607
Epoch: 17400, Error: 0.006463021191097606
Epoch: 17500, Error: 0.006436908928001856
Epoch: 17600, Error: 0.006384924318067009
Epoch: 17700, Error: 0.006318893219408529
Epoch: 17800, Error: 0.006291493851897859
Epoch: 17900, Error: 0.006233382766949468
Epoch: 18000, Error: 0.0061928215521446775
Epoch: 18100, Error: 0.006156033762449254
Epoch: 18200, Error: 0.006118520389741892
Epoch: 18300, Error: 0.006085367693927384
Epoch: 18400, Error: 0.006065490851727036
Epoch: 18500, Error: 0.006035451257372226
Epoch: 18600, Error: 0.005989571833315343
Epoch: 18700, Error: 0.0059669648944537445
Epoch: 18800, Error: 0.005940310136653815
Epoch: 18900, Error: 0.005907828738360436
Epoch: 19000, Error: 0.0058822840212660685
Epoch: 19100, Error: 0.00585678408814492
Epoch: 19200, Error: 0.0058375581992075026
Epoch: 19300, Error: 0.005826486371038053
Epoch: 19400, Error: 0.005796328662271619
Epoch: 19500, Error: 0.005764144618424603
Epoch: 19600, Error: 0.005749037178870423
Epoch: 19700, Error: 0.005738323915345045
Epoch: 19800, Error: 0.0057144464277614545
Epoch: 19900, Error: 0.005695391502946402
Epoch: 20000, Error: 0.005691933168480749
Epoch: 20100, Error: 0.005652436057030088
Epoch: 20200, Error: 0.005637893928965107
Epoch: 20300, Error: 0.005605690214728163
Epoch: 20400, Error: 0.005588970532663973
Epoch: 20500, Error: 0.005564779469834871
Epoch: 20600, Error: 0.005542353847511541
Epoch: 20700, Error: 0.005522291207242191
Epoch: 20800, Error: 0.005507742742725028
Epoch: 20900, Error: 0.005483342645768421
Epoch: 21000, Error: 0.005483686520646164
Epoch: 21100, Error: 0.00547463519033668
Epoch: 21200, Error: 0.005414395228091424
Epoch: 21300, Error: 0.005397255214085048
Epoch: 21400, Error: 0.00537045093974791
Epoch: 21500, Error: 0.00535446096128444
Epoch: 21600, Error: 0.0053350195400403595
Epoch: 21700, Error: 0.005315741478991228
Epoch: 21800, Error: 0.005291748133838108
Epoch: 21900, Error: 0.0052733489687360555
Epoch: 22000, Error: 0.005264477677138767
Epoch: 22100, Error: 0.005250258743625956
Epoch: 22200, Error: 0.005212964558340419
Epoch: 22300, Error: 0.005212169290394295
Epoch: 22400, Error: 0.005191709522214294
Epoch: 22500, Error: 0.005188826360791946
Epoch: 22600, Error: 0.005147035846067918
Epoch: 22700, Error: 0.005126067838493806
Epoch: 22800, Error: 0.005116113675651164
Epoch: 22900, Error: 0.005104288463603844
Epoch: 23000, Error: 0.005077973602331006
Epoch: 23100, Error: 0.0050509014170426235
Epoch: 23200, Error: 0.00503890048471737
Epoch: 23300, Error: 0.0050275041551535215
Epoch: 23400, Error: 0.005033325530766497
Epoch: 23500, Error: 0.004978763297718
Epoch: 23600, Error: 0.004943216164652866
Epoch: 23700, Error: 0.0049299723157600565
Epoch: 23800, Error: 0.004890760714079383
Epoch: 23900, Error: 0.004868772575553818
Epoch: 24000, Error: 0.00483558354651865
Epoch: 24100, Error: 0.004815782476911156
Epoch: 24200, Error: 0.004797765829138384
Epoch: 24300, Error: 0.004768220831744324
Epoch: 24400, Error: 0.0047488740428199
Epoch: 24500, Error: 0.004719535678559688
Epoch: 24600, Error: 0.0046895957857813145
Epoch: 24700, Error: 0.0046659978694353395
Epoch: 24800, Error: 0.004641747067435402
Epoch: 24900, Error: 0.004627907788362789
Epoch: 25000, Error: 0.004610518370326845
Epoch: 25100, Error: 0.004576072196471527
Epoch: 25200, Error: 0.004572459247236175
Epoch: 25300, Error: 0.004569493795184548
Epoch: 25400, Error: 0.004514432847250816
Epoch: 25500, Error: 0.004486114962550297
Epoch: 25600, Error: 0.004447893537190033
Epoch: 25700, Error: 0.004433130730606829
Epoch: 25800, Error: 0.00441864047485659
Epoch: 25900, Error: 0.004393039560872825
Epoch: 26000, Error: 0.004443708426786375
Epoch: 26100, Error: 0.004357441624640993
Epoch: 26200, Error: 0.004349822967598542
Epoch: 26300, Error: 0.004315709975673503
Epoch: 26400, Error: 0.004283713509830135
Epoch: 26500, Error: 0.004256772851647373
Epoch: 26600, Error: 0.004255159012611571
Epoch: 26700, Error: 0.00422856066131627
Epoch: 26800, Error: 0.004196795791526132
Epoch: 26900, Error: 0.0042424319463868895
Epoch: 27000, Error: 0.004153650408426547
Epoch: 27100, Error: 0.004131107941301468
Epoch: 27200, Error: 0.004112486346257395
Epoch: 27300, Error: 0.0041304945143498745
Epoch: 27400, Error: 0.004083072596329808
Epoch: 27500, Error: 0.004049563332801805
Epoch: 27600, Error: 0.004062573766599326
Epoch: 27700, Error: 0.004033958647353165
Epoch: 27800, Error: 0.00398490210834221
Epoch: 27900, Error: 0.003983810432832666
Epoch: 28000, Error: 0.003981499888352841
Epoch: 28100, Error: 0.003977943977513233
Epoch: 28200, Error: 0.004070217601632685
Epoch: 28300, Error: 0.0038904319737234545
Epoch: 28400, Error: 0.0038713553276957377
Epoch: 28500, Error: 0.003857521232144121
Epoch: 28600, Error: 0.003834708420663946
Epoch: 28700, Error: 0.003910104374542063
Epoch: 28800, Error: 0.0038079892260472576
Epoch: 28900, Error: 0.003792087122140949
Epoch: 29000, Error: 0.0038006510245070352
Epoch: 29100, Error: 0.003748900160016798
Epoch: 29200, Error: 0.003804091842587241
Epoch: 29300, Error: 0.0037171242485456906
Epoch: 29400, Error: 0.0036991681406559475
Epoch: 29500, Error: 0.003675929167095223
Epoch: 29600, Error: 0.0036902459207357407
Epoch: 29700, Error: 0.003646685554466353
Epoch: 29800, Error: 0.003633843279700747
Epoch: 29900, Error: 0.0036013599488268736
Epoch: 30000, Error: 0.003626101204542337
Epoch: 30100, Error: 0.003577574298359054
Epoch: 30200, Error: 0.003558265461773688
Epoch: 30300, Error: 0.0035681333849368556
Epoch: 30400, Error: 0.0035722420554474294
Epoch: 30500, Error: 0.0035019648065737568
Epoch: 30600, Error: 0.0034677751600871724
Epoch: 30700, Error: 0.0034661945873529832
Epoch: 30800, Error: 0.0034323360103678774
Epoch: 30900, Error: 0.003405563878610378
Epoch: 31000, Error: 0.0034217936955259934
Epoch: 31100, Error: 0.00339218263827495
Epoch: 31200, Error: 0.0033902417092168294
Epoch: 31300, Error: 0.00335231873113989
Epoch: 31400, Error: 0.0033090855137389934
Epoch: 31500, Error: 0.003367415594602222
Epoch: 31600, Error: 0.0032807198660025952
Epoch: 31700, Error: 0.0033481515575880198
Epoch: 31800, Error: 0.0032285072404440924
Epoch: 31900, Error: 0.0032746751403601834
Epoch: 32000, Error: 0.0031985247602599963
Epoch: 32100, Error: 0.0031866151428601437
Epoch: 32200, Error: 0.0031500291010740098
Epoch: 32300, Error: 0.0031778817627915396
Epoch: 32400, Error: 0.003159397130500647
Epoch: 32500, Error: 0.003187858482621503
Epoch: 32600, Error: 0.003108916207914863
Epoch: 32700, Error: 0.0030886813825582488
Epoch: 32800, Error: 0.0031825047217376528
Epoch: 32900, Error: 0.0031118447770981106
Epoch: 33000, Error: 0.003094758275077016
Epoch: 33100, Error: 0.0029855859157127762
Epoch: 33200, Error: 0.002975270377480053
Epoch: 33300, Error: 0.0029569525637351706
Epoch: 33400, Error: 0.003020732687408148
Epoch: 33500, Error: 0.0029297694233166786
Epoch: 33600, Error: 0.002901140843696881
Epoch: 33700, Error: 0.0029049928245600005
Epoch: 33800, Error: 0.002872246412334135
Epoch: 33900, Error: 0.002863273611568379
Epoch: 34000, Error: 0.0028578433840529965
Epoch: 34100, Error: 0.0028588496880414334
Epoch: 34200, Error: 0.0029182269218340994
Epoch: 34300, Error: 0.0027943055464829
Epoch: 34400, Error: 0.0028100999653249597
Epoch: 34500, Error: 0.0028311047010004375
Epoch: 34600, Error: 0.002832624504834707
Epoch: 34700, Error: 0.002796099922128642
Epoch: 34800, Error: 0.0026930483435220255
Epoch: 34900, Error: 0.002676187609496913
Epoch: 35000, Error: 0.0026777417761807663
Epoch: 35100, Error: 0.0027179442015929567
Epoch: 35200, Error: 0.002664442941127445
Epoch: 35300, Error: 0.002648739564965775
Epoch: 35400, Error: 0.002672389243036601
Epoch: 35500, Error: 0.00259305177336884
Epoch: 35600, Error: 0.0027536011183730393
Epoch: 35700, Error: 0.0025878512310446517
Epoch: 35800, Error: 0.0025645165749413087
Epoch: 35900, Error: 0.002574425528061877
Epoch: 36000, Error: 0.002497532628192782
Epoch: 36100, Error: 0.002499163187624911
Epoch: 36200, Error: 0.0024822695619523606
Epoch: 36300, Error: 0.0025159518891132416
Epoch: 36400, Error: 0.002527745893710218
Epoch: 36500, Error: 0.002441851991858421
Epoch: 36600, Error: 0.002524912222124417
Epoch: 36700, Error: 0.002473526831335604
Epoch: 36800, Error: 0.002436049501293598
Epoch: 36900, Error: 0.0023657618644579844
Epoch: 37000, Error: 0.0023686856018260544
Epoch: 37100, Error: 0.002427230992120633
Epoch: 37200, Error: 0.002382066636514208
Epoch: 37300, Error: 0.002349103128170906
Epoch: 37400, Error: 0.0023786168812653633
Epoch: 37500, Error: 0.0023361069986551175
Epoch: 37600, Error: 0.0023464925861067945
Epoch: 37700, Error: 0.0022862273640169143
Epoch: 37800, Error: 0.00229128309856343
Epoch: 37900, Error: 0.0022665345450447664
Epoch: 38000, Error: 0.0022896203487792043
Epoch: 38100, Error: 0.002332842467768865
Epoch: 38200, Error: 0.0022237126934690245
Epoch: 38300, Error: 0.002199441009411963
Epoch: 38400, Error: 0.0024427445422351255
Epoch: 38500, Error: 0.0021823486349839935
Epoch: 38600, Error: 0.0021625348829946924
Epoch: 38700, Error: 0.0021317422427582725
Epoch: 38800, Error: 0.002127984258114339
Epoch: 38900, Error: 0.0021136898845511083
Epoch: 39000, Error: 0.002097673880804815
Epoch: 39100, Error: 0.002090705836394144
Epoch: 39200, Error: 0.0020792287799435154
Epoch: 39300, Error: 0.0021113799973432766
Epoch: 39400, Error: 0.0020641072812507587
Epoch: 39500, Error: 0.002088534060759442
Epoch: 39600, Error: 0.0021017972542321296
Epoch: 39700, Error: 0.002054117228463119
Epoch: 39800, Error: 0.002034931018649445
Epoch: 39900, Error: 0.002009504830581311
Epoch: 40000, Error: 0.0020205007038797225
Epoch: 40100, Error: 0.002026263652711125
Epoch: 40200, Error: 0.001989162327797655
Epoch: 40300, Error: 0.0019776483334877993
Epoch: 40400, Error: 0.001970314945899111
Epoch: 40500, Error: 0.001961164349895052
Epoch: 40600, Error: 0.002079572422606875
Epoch: 40700, Error: 0.001974628601236321
Epoch: 40800, Error: 0.001959485347294628
Epoch: 40900, Error: 0.0019480629495218721
Epoch: 41000, Error: 0.001953339982899621
Epoch: 41100, Error: 0.0019570471712970967
Epoch: 41200, Error: 0.001954084412291692
Epoch: 41300, Error: 0.0019473272789299278
Epoch: 41400, Error: 0.0019028303551582508
Epoch: 41500, Error: 0.0018870609682338365
Epoch: 41600, Error: 0.0019108723679400902
Epoch: 41700, Error: 0.0018705906885026979
Epoch: 41800, Error: 0.0018843616832829688
Epoch: 41900, Error: 0.0018798645954771725
Epoch: 42000, Error: 0.0018950851858844998
Epoch: 42100, Error: 0.0018417248352094473
Epoch: 42200, Error: 0.0018994275216979728
Epoch: 42300, Error: 0.0018248962131307746
Epoch: 42400, Error: 0.0018311637303124568
Epoch: 42500, Error: 0.0018834724240446086
Epoch: 42600, Error: 0.001822885995476394
Epoch: 42700, Error: 0.0017939789707284467
Epoch: 42800, Error: 0.0017959162047815232
Epoch: 42900, Error: 0.0018531899868173942
Epoch: 43000, Error: 0.0018228454501259142
Epoch: 43100, Error: 0.001802624580070662
Epoch: 43200, Error: 0.0017683636463217585
Epoch: 43300, Error: 0.0017673001018226567
Epoch: 43400, Error: 0.001758603318905332
Epoch: 43500, Error: 0.0017500873426345384
Epoch: 43600, Error: 0.0017561360791506512
Epoch: 43700, Error: 0.0017550045682651668
Epoch: 43800, Error: 0.0017773351901295093
Epoch: 43900, Error: 0.0017037588031726476
Epoch: 44000, Error: 0.0017081441031075607
Epoch: 44100, Error: 0.001711499601591252
Epoch: 44200, Error: 0.0016842681852022442
Epoch: 44300, Error: 0.001649833085740599
Epoch: 44400, Error: 0.0016372904937824787
Epoch: 44500, Error: 0.0016522986350401673
Epoch: 44600, Error: 0.0016364748945741255
Epoch: 44700, Error: 0.0016095661593719343
Epoch: 44800, Error: 0.0015961700746155432
Epoch: 44900, Error: 0.0016247801152561722
Epoch: 45000, Error: 0.001649667084991753
Epoch: 45100, Error: 0.0015792616771581986
Epoch: 45200, Error: 0.0015846239753684382
Epoch: 45300, Error: 0.001588594138328895
Epoch: 45400, Error: 0.0015642590048287781
Epoch: 45500, Error: 0.0015915756787308218
Epoch: 45600, Error: 0.0015840673765288302
Epoch: 45700, Error: 0.0015525128955176104
Epoch: 45800, Error: 0.0015621415375600383
Epoch: 45900, Error: 0.0015415294856594235
Epoch: 46000, Error: 0.0015717065252784028
