Input Patterns
0.224 0.624 0.067 0.043 
0.11 0.502 0.051 0.043 
0.196 0.667 0.067 0.043 
0.055 0.584 0.067 0.082 
0.027 0.376 0.067 0.043 
0.306 0.71 0.086 0.043 
0.137 0.416 0.067 0.0 
0.416 0.831 0.035 0.043 
0.306 0.792 0.051 0.125 
0.388 0.749 0.118 0.082 
0.306 0.584 0.118 0.043 
0.082 0.667 0.0 0.043 
0.137 0.584 0.153 0.043 
0.196 0.584 0.102 0.125 
0.251 0.584 0.067 0.043 
0.137 0.459 0.102 0.043 
0.251 0.875 0.086 0.0 
0.165 0.459 0.086 0.043 
0.333 0.624 0.051 0.043 
0.027 0.416 0.051 0.043 
0.196 0.624 0.051 0.082 
0.027 0.502 0.051 0.043 
0.224 0.749 0.153 0.125 
0.224 0.749 0.102 0.043 
0.278 0.71 0.086 0.043 
0.165 0.416 0.067 0.043 
0.082 0.459 0.086 0.043 
0.306 0.792 0.118 0.125 
0.196 0.584 0.086 0.043 
0.165 0.459 0.086 0.0 
0.137 0.584 0.102 0.043 
0.0 0.416 0.016 0.0 
0.388 1.0 0.086 0.125 
0.224 0.624 0.067 0.082 
0.224 0.749 0.086 0.082 
0.224 0.71 0.086 0.125 
0.224 0.541 0.118 0.165 
0.196 0.416 0.102 0.043 
0.251 0.624 0.086 0.043 
0.11 0.502 0.102 0.043 
0.306 0.584 0.086 0.125 
0.333 0.918 0.067 0.043 
0.196 0.502 0.035 0.043 
0.165 0.667 0.067 0.0 
0.224 0.584 0.086 0.043 
0.055 0.125 0.051 0.082 
0.196 0.624 0.102 0.208 
0.137 0.416 0.067 0.082 
0.082 0.502 0.067 0.043 
0.196 0.541 0.067 0.043 
0.749 0.502 0.627 0.541 
0.722 0.459 0.663 0.584 
0.612 0.333 0.612 0.584 
0.557 0.541 0.627 0.624 
0.639 0.376 0.612 0.498 
0.196 0.0 0.424 0.376 
0.471 0.082 0.51 0.376 
0.361 0.376 0.439 0.498 
0.361 0.416 0.592 0.584 
0.529 0.082 0.592 0.584 
0.443 0.502 0.643 0.459 
0.557 0.208 0.663 0.584 
0.584 0.376 0.561 0.498 
0.694 0.333 0.643 0.541 
0.471 0.376 0.592 0.584 
0.333 0.169 0.475 0.416 
0.416 0.29 0.49 0.459 
0.306 0.416 0.592 0.584 
0.667 0.459 0.627 0.584 
0.361 0.416 0.525 0.498 
0.333 0.251 0.576 0.459 
0.416 0.251 0.51 0.459 
0.361 0.29 0.541 0.498 
0.388 0.376 0.541 0.498 
0.224 0.208 0.337 0.416 
0.584 0.502 0.592 0.584 
0.333 0.125 0.51 0.498 
0.388 0.333 0.592 0.498 
0.165 0.169 0.388 0.376 
0.251 0.29 0.49 0.541 
0.443 0.416 0.541 0.584 
0.498 0.376 0.627 0.541 
0.667 0.459 0.576 0.541 
0.416 0.29 0.525 0.376 
0.361 0.208 0.49 0.416 
0.498 0.333 0.51 0.498 
0.498 0.333 0.627 0.459 
0.639 0.416 0.576 0.541 
0.667 0.416 0.678 0.667 
0.388 0.251 0.424 0.376 
0.333 0.169 0.459 0.376 
0.471 0.29 0.694 0.624 
0.471 0.584 0.592 0.624 
0.557 0.125 0.576 0.498 
0.333 0.208 0.51 0.498 
0.498 0.416 0.612 0.541 
0.196 0.125 0.388 0.376 
0.388 0.416 0.541 0.459 
0.529 0.376 0.561 0.498 
0.388 0.333 0.525 0.498 
0.557 0.541 0.847 1.0 
0.776 0.416 0.831 0.831 
0.612 0.416 0.812 0.875 
0.165 0.208 0.592 0.667 
0.667 0.208 0.812 0.71 
0.612 0.502 0.694 0.792 
0.694 0.416 0.761 0.831 
0.416 0.333 0.694 0.957 
0.612 0.416 0.761 0.71 
0.945 0.251 1.0 0.918 
0.722 0.502 0.796 0.918 
0.945 0.333 0.965 0.792 
0.667 0.541 0.796 0.831 
0.529 0.333 0.643 0.71 
0.584 0.333 0.78 0.831 
0.863 0.333 0.863 0.749 
0.584 0.333 0.78 0.875 
0.498 0.251 0.78 0.541 
0.557 0.584 0.78 0.957 
0.471 0.416 0.643 0.71 
0.667 0.459 0.78 0.957 
0.416 0.29 0.694 0.749 
0.667 0.541 0.796 1.0 
0.557 0.208 0.678 0.749 
0.529 0.584 0.745 0.918 
0.416 0.29 0.694 0.749 
0.557 0.376 0.78 0.71 
0.918 0.416 0.949 0.831 
0.835 0.376 0.898 0.71 
0.804 0.667 0.863 1.0 
0.584 0.29 0.729 0.749 
0.388 0.208 0.678 0.792 
0.584 0.502 0.729 0.918 
0.945 0.749 0.965 0.875 
0.471 0.082 0.678 0.584 
0.361 0.333 0.663 0.792 
0.557 0.29 0.663 0.71 
0.804 0.502 0.847 0.71 
0.498 0.416 0.51 0.71 
0.804 0.416 0.812 0.624 
1.0 0.749 0.914 0.792 
0.557 0.333 0.694 0.584 
0.945 0.416 0.863 0.918 
0.584 0.459 0.761 0.71 
0.722 0.459 0.745 0.831 
0.722 0.459 0.694 0.918 
0.694 0.502 0.831 0.918 
0.667 0.416 0.714 0.918 
0.612 0.416 0.714 0.792 
0.443 0.416 0.694 0.71 
Teaching Patterns
1.0 0.0 0.0 
1.0 0.0 0.0 
1.0 0.0 0.0 
1.0 0.0 0.0 
1.0 0.0 0.0 
1.0 0.0 0.0 
1.0 0.0 0.0 
1.0 0.0 0.0 
1.0 0.0 0.0 
1.0 0.0 0.0 
1.0 0.0 0.0 
1.0 0.0 0.0 
1.0 0.0 0.0 
1.0 0.0 0.0 
1.0 0.0 0.0 
1.0 0.0 0.0 
1.0 0.0 0.0 
1.0 0.0 0.0 
1.0 0.0 0.0 
1.0 0.0 0.0 
1.0 0.0 0.0 
1.0 0.0 0.0 
1.0 0.0 0.0 
1.0 0.0 0.0 
1.0 0.0 0.0 
1.0 0.0 0.0 
1.0 0.0 0.0 
1.0 0.0 0.0 
1.0 0.0 0.0 
1.0 0.0 0.0 
1.0 0.0 0.0 
1.0 0.0 0.0 
1.0 0.0 0.0 
1.0 0.0 0.0 
1.0 0.0 0.0 
1.0 0.0 0.0 
1.0 0.0 0.0 
1.0 0.0 0.0 
1.0 0.0 0.0 
1.0 0.0 0.0 
1.0 0.0 0.0 
1.0 0.0 0.0 
1.0 0.0 0.0 
1.0 0.0 0.0 
1.0 0.0 0.0 
1.0 0.0 0.0 
1.0 0.0 0.0 
1.0 0.0 0.0 
1.0 0.0 0.0 
1.0 0.0 0.0 
0.0 1.0 0.0 
0.0 1.0 0.0 
0.0 1.0 0.0 
0.0 1.0 0.0 
0.0 1.0 0.0 
0.0 1.0 0.0 
0.0 1.0 0.0 
0.0 1.0 0.0 
0.0 1.0 0.0 
0.0 1.0 0.0 
0.0 1.0 0.0 
0.0 1.0 0.0 
0.0 1.0 0.0 
0.0 1.0 0.0 
0.0 1.0 0.0 
0.0 1.0 0.0 
0.0 1.0 0.0 
0.0 1.0 0.0 
0.0 1.0 0.0 
0.0 1.0 0.0 
0.0 1.0 0.0 
0.0 1.0 0.0 
0.0 1.0 0.0 
0.0 1.0 0.0 
0.0 1.0 0.0 
0.0 1.0 0.0 
0.0 1.0 0.0 
0.0 1.0 0.0 
0.0 1.0 0.0 
0.0 1.0 0.0 
0.0 1.0 0.0 
0.0 1.0 0.0 
0.0 1.0 0.0 
0.0 1.0 0.0 
0.0 1.0 0.0 
0.0 1.0 0.0 
0.0 1.0 0.0 
0.0 1.0 0.0 
0.0 1.0 0.0 
0.0 1.0 0.0 
0.0 1.0 0.0 
0.0 1.0 0.0 
0.0 1.0 0.0 
0.0 1.0 0.0 
0.0 1.0 0.0 
0.0 1.0 0.0 
0.0 1.0 0.0 
0.0 1.0 0.0 
0.0 1.0 0.0 
0.0 1.0 0.0 
0.0 0.0 1.0 
0.0 0.0 1.0 
0.0 0.0 1.0 
0.0 0.0 1.0 
0.0 0.0 1.0 
0.0 0.0 1.0 
0.0 0.0 1.0 
0.0 0.0 1.0 
0.0 0.0 1.0 
0.0 0.0 1.0 
0.0 0.0 1.0 
0.0 0.0 1.0 
0.0 0.0 1.0 
0.0 0.0 1.0 
0.0 0.0 1.0 
0.0 0.0 1.0 
0.0 0.0 1.0 
0.0 0.0 1.0 
0.0 0.0 1.0 
0.0 0.0 1.0 
0.0 0.0 1.0 
0.0 0.0 1.0 
0.0 0.0 1.0 
0.0 0.0 1.0 
0.0 0.0 1.0 
0.0 0.0 1.0 
0.0 0.0 1.0 
0.0 0.0 1.0 
0.0 0.0 1.0 
0.0 0.0 1.0 
0.0 0.0 1.0 
0.0 0.0 1.0 
0.0 0.0 1.0 
0.0 0.0 1.0 
0.0 0.0 1.0 
0.0 0.0 1.0 
0.0 0.0 1.0 
0.0 0.0 1.0 
0.0 0.0 1.0 
0.0 0.0 1.0 
0.0 0.0 1.0 
0.0 0.0 1.0 
0.0 0.0 1.0 
0.0 0.0 1.0 
0.0 0.0 1.0 
0.0 0.0 1.0 
0.0 0.0 1.0 
0.0 0.0 1.0 
0.0 0.0 1.0 
0.0 0.0 1.0 
Learning : 0.05
Momentum : 0.30000001192092896
Epoch: 100, Error: 0.08087335682743847
Epoch: 200, Error: 0.026335598704808914
Epoch: 300, Error: 0.018633025346652843
Epoch: 400, Error: 0.01624085805318836
Epoch: 500, Error: 0.014983277831974043
Epoch: 600, Error: 0.014396816161421428
Epoch: 700, Error: 0.013862250066677078
Epoch: 800, Error: 0.013552733007745085
Epoch: 900, Error: 0.013291848933768651
Epoch: 1000, Error: 0.013188727947935576
Epoch: 1100, Error: 0.01294406677932165
Epoch: 1200, Error: 0.012938494891185363
Epoch: 1300, Error: 0.012735562688547395
Epoch: 1400, Error: 0.012651564152714862
Epoch: 1500, Error: 0.012562688432142081
Epoch: 1600, Error: 0.01261037393410263
Epoch: 1700, Error: 0.012467319167467452
Epoch: 1800, Error: 0.012479033072308328
Epoch: 1900, Error: 0.012376513459690196
Epoch: 2000, Error: 0.012336358295279034
Epoch: 2100, Error: 0.012305075712878921
Epoch: 2200, Error: 0.012295944524886339
Epoch: 2300, Error: 0.01225114926971652
Epoch: 2400, Error: 0.012265376798404629
Epoch: 2500, Error: 0.012262299358863117
Epoch: 2600, Error: 0.012235333879517318
Epoch: 2700, Error: 0.012202924723135083
Epoch: 2800, Error: 0.012211820295867445
Epoch: 2900, Error: 0.012195892212176658
Epoch: 3000, Error: 0.012191948491302758
Epoch: 3100, Error: 0.012156183226478948
Epoch: 3200, Error: 0.012102472862781388
Epoch: 3300, Error: 0.012119562643259578
Epoch: 3400, Error: 0.01209115285195051
Epoch: 3500, Error: 0.012064362546988975
Epoch: 3600, Error: 0.012076143159697189
Epoch: 3700, Error: 0.012066287940354907
Epoch: 3800, Error: 0.012090355157831327
Epoch: 3900, Error: 0.01209031718984546
Epoch: 4000, Error: 0.012043402284207413
Epoch: 4100, Error: 0.012054564177305313
Epoch: 4200, Error: 0.012038552849520552
Epoch: 4300, Error: 0.012070227951186957
Epoch: 4400, Error: 0.012042385785572441
Epoch: 4500, Error: 0.012045399515251505
Epoch: 4600, Error: 0.012100875650258624
Epoch: 4700, Error: 0.012054111714548517
Epoch: 4800, Error: 0.01199768506117638
Epoch: 4900, Error: 0.01199430170866448
Epoch: 5000, Error: 0.012003121551842138
Epoch: 5100, Error: 0.011981440346187242
Epoch: 5200, Error: 0.011989154824603093
Epoch: 5300, Error: 0.011977336833048058
Epoch: 5400, Error: 0.011969427289298739
Epoch: 5500, Error: 0.011956661199471112
Epoch: 5600, Error: 0.011944883721379118
Epoch: 5700, Error: 0.011955351649105973
Epoch: 5800, Error: 0.011961236270552062
Epoch: 5900, Error: 0.011949439590019637
Epoch: 6000, Error: 0.011913504338641563
Epoch: 6100, Error: 0.011939432496944248
Epoch: 6200, Error: 0.011909859719087815
Epoch: 6300, Error: 0.01191646207687205
Epoch: 6400, Error: 0.01189556041924653
Epoch: 6500, Error: 0.011917190650483998
Epoch: 6600, Error: 0.011902561216581207
Epoch: 6700, Error: 0.011894386726417334
Epoch: 6800, Error: 0.011998067161936304
Epoch: 6900, Error: 0.011881462850148456
Epoch: 7000, Error: 0.011884093623742598
Epoch: 7100, Error: 0.011897413861550191
Epoch: 7200, Error: 0.011890961072519433
Epoch: 7300, Error: 0.011880241794841075
Epoch: 7400, Error: 0.011884756394820615
Epoch: 7500, Error: 0.011893051862472016
Epoch: 7600, Error: 0.011905318645924551
Epoch: 7700, Error: 0.011907468532743366
Epoch: 7800, Error: 0.01190340857354022
Epoch: 7900, Error: 0.011901711163906103
Epoch: 8000, Error: 0.011876983718582269
Epoch: 8100, Error: 0.011888828443192079
Epoch: 8200, Error: 0.011897954221428093
Epoch: 8300, Error: 0.011932461524671898
Epoch: 8400, Error: 0.011876686734581612
Epoch: 8500, Error: 0.011868839998974897
Epoch: 8600, Error: 0.011872667672002596
Epoch: 8700, Error: 0.011883076624783065
Epoch: 8800, Error: 0.011865236809298404
Epoch: 8900, Error: 0.011853939166477449
Epoch: 9000, Error: 0.011888997261299078
Epoch: 9100, Error: 0.011877462923002029
Epoch: 9200, Error: 0.011920377506271907
Epoch: 9300, Error: 0.011911573254164169
Epoch: 9400, Error: 0.011862978086221217
Epoch: 9500, Error: 0.01186122116171879
Epoch: 9600, Error: 0.011865589282345735
Epoch: 9700, Error: 0.011838756457292264
Epoch: 9800, Error: 0.011857246602670962
Epoch: 9900, Error: 0.011854327655819005
Epoch: 10000, Error: 0.011842125005569538
Epoch: 10100, Error: 0.011864527307615893
Epoch: 10200, Error: 0.0118280995754352
Epoch: 10300, Error: 0.01182791034755379
Epoch: 10400, Error: 0.011835503699258338
Epoch: 10500, Error: 0.011842725311506269
Epoch: 10600, Error: 0.011854008456554184
Epoch: 10700, Error: 0.011878537214280976
Epoch: 10800, Error: 0.01183138799114279
Epoch: 10900, Error: 0.011832296591311776
Epoch: 11000, Error: 0.011825784222325648
Epoch: 11100, Error: 0.011847552981524354
Epoch: 11200, Error: 0.011814346536029986
Epoch: 11300, Error: 0.011853265001922625
Epoch: 11400, Error: 0.011798503267232299
Epoch: 11500, Error: 0.011802651622057332
Epoch: 11600, Error: 0.011772644850268951
Epoch: 11700, Error: 0.011772611959170252
Epoch: 11800, Error: 0.011761620445609414
Epoch: 11900, Error: 0.011766197672891431
Epoch: 12000, Error: 0.011772892873538011
Epoch: 12100, Error: 0.011713670466131195
Epoch: 12200, Error: 0.011725444597221787
Epoch: 12300, Error: 0.011698339140673825
Epoch: 12400, Error: 0.011690859127674825
Epoch: 12500, Error: 0.011725056332469466
Epoch: 12600, Error: 0.011691839834551116
Epoch: 12700, Error: 0.011667817540679777
Epoch: 12800, Error: 0.011695872453234942
Epoch: 12900, Error: 0.011667591397353063
Epoch: 13000, Error: 0.011651091056392199
Epoch: 13100, Error: 0.011649724163446621
Epoch: 13200, Error: 0.011632515158161626
Epoch: 13300, Error: 0.011596952533384766
Epoch: 13400, Error: 0.011603265462418515
Epoch: 13500, Error: 0.011541392486087794
Epoch: 13600, Error: 0.011550023692811693
Epoch: 13700, Error: 0.011509329796891038
Epoch: 13800, Error: 0.011518977026400165
Epoch: 13900, Error: 0.011470814127645185
Epoch: 14000, Error: 0.011449879326164505
Epoch: 14100, Error: 0.011446373022217342
Epoch: 14200, Error: 0.011381046888114994
Epoch: 14300, Error: 0.011343299320299259
Epoch: 14400, Error: 0.011318721135718744
Epoch: 14500, Error: 0.01123883055318682
Epoch: 14600, Error: 0.011214613217704974
Epoch: 14700, Error: 0.011183689263838368
Epoch: 14800, Error: 0.011132847471428065
Epoch: 14900, Error: 0.0110552825975018
Epoch: 15000, Error: 0.010993999780209401
Epoch: 15100, Error: 0.010912141895466961
Epoch: 15200, Error: 0.010858187209678053
Epoch: 15300, Error: 0.010745557414105421
Epoch: 15400, Error: 0.010674517745856675
Epoch: 15500, Error: 0.010578407262287749
Epoch: 15600, Error: 0.010494540063590387
Epoch: 15700, Error: 0.010420953654645954
Epoch: 15800, Error: 0.01029914470915422
Epoch: 15900, Error: 0.010153199526154762
Epoch: 16000, Error: 0.009998750798286781
Epoch: 16100, Error: 0.009883836212907346
Epoch: 16200, Error: 0.009813443928062961
Epoch: 16300, Error: 0.009614048601574087
Epoch: 16400, Error: 0.009494678848943531
Epoch: 16500, Error: 0.009323582504018636
Epoch: 16600, Error: 0.009182624397098502
Epoch: 16700, Error: 0.009049799957187106
Epoch: 16800, Error: 0.008976152960256566
Epoch: 16900, Error: 0.008795677352054701
Epoch: 17000, Error: 0.008688576492356107
Epoch: 17100, Error: 0.008566254772400528
Epoch: 17200, Error: 0.008463147916257753
Epoch: 17300, Error: 0.008350038308992577
Epoch: 17400, Error: 0.008226323928866982
Epoch: 17500, Error: 0.008203285002329903
Epoch: 17600, Error: 0.008015020830825056
Epoch: 17700, Error: 0.007908280197245423
Epoch: 17800, Error: 0.00782545225919115
Epoch: 17900, Error: 0.007714970849517537
Epoch: 18000, Error: 0.007631525685881056
Epoch: 18100, Error: 0.007518356312029537
Epoch: 18200, Error: 0.007453996273863226
Epoch: 18300, Error: 0.007372038959245048
Epoch: 18400, Error: 0.00731693738082797
Epoch: 18500, Error: 0.0072356202667673624
Epoch: 18600, Error: 0.0071761949680798475
Epoch: 18700, Error: 0.007119870882447859
Epoch: 18800, Error: 0.007052991309901808
Epoch: 18900, Error: 0.0070052769990443095
Epoch: 19000, Error: 0.006952712138863233
Epoch: 19100, Error: 0.0069298131095655285
Epoch: 19200, Error: 0.00689218180712482
Epoch: 19300, Error: 0.006837927982006531
Epoch: 19400, Error: 0.006787676237709575
Epoch: 19500, Error: 0.006735130283470748
Epoch: 19600, Error: 0.006663088677312732
Epoch: 19700, Error: 0.0066299686635857245
Epoch: 19800, Error: 0.006597149536716588
Epoch: 19900, Error: 0.006564501945923641
Epoch: 20000, Error: 0.006524937555958514
Epoch: 20100, Error: 0.006498238571311457
Epoch: 20200, Error: 0.0064854031887018404
Epoch: 20300, Error: 0.006440646897705406
Epoch: 20400, Error: 0.006397764181331015
Epoch: 20500, Error: 0.00636169289769223
Epoch: 20600, Error: 0.006324155128883383
Epoch: 20700, Error: 0.006289069714792732
Epoch: 20800, Error: 0.006267668104083649
Epoch: 20900, Error: 0.006227609545188918
Epoch: 21000, Error: 0.006206368178839014
Epoch: 21100, Error: 0.006168650559402119
Epoch: 21200, Error: 0.006144085000426172
Epoch: 21300, Error: 0.0061201072185024805
Epoch: 21400, Error: 0.006086071945002522
Epoch: 21500, Error: 0.006062407093554641
Epoch: 21600, Error: 0.006042788447815785
Epoch: 21700, Error: 0.006031162873582885
Epoch: 21800, Error: 0.006005604116110624
Epoch: 21900, Error: 0.005994424902472584
Epoch: 22000, Error: 0.005971028070704951
Epoch: 22100, Error: 0.005954897404673729
Epoch: 22200, Error: 0.0059278408680435496
Epoch: 22300, Error: 0.005909123601538059
Epoch: 22400, Error: 0.005903643979808842
Epoch: 22500, Error: 0.005887933482885989
Epoch: 22600, Error: 0.005865229566631068
Epoch: 22700, Error: 0.005852464816343892
Epoch: 22800, Error: 0.005837526395925092
Epoch: 22900, Error: 0.005832316920573169
Epoch: 23000, Error: 0.005822644985009618
Epoch: 23100, Error: 0.00580757196085165
Epoch: 23200, Error: 0.005790624461986408
Epoch: 23300, Error: 0.0057843581307204265
Epoch: 23400, Error: 0.0057629621450049524
Epoch: 23500, Error: 0.005752727634220518
Epoch: 23600, Error: 0.005735072703612114
Epoch: 23700, Error: 0.00572446038849195
Epoch: 23800, Error: 0.005713747918610146
Epoch: 23900, Error: 0.005700838772826769
Epoch: 24000, Error: 0.0057018239668106515
Epoch: 24100, Error: 0.005675463124918333
Epoch: 24200, Error: 0.005669233287295679
Epoch: 24300, Error: 0.005652346345153256
Epoch: 24400, Error: 0.005648692386566572
Epoch: 24500, Error: 0.005648972339017916
Epoch: 24600, Error: 0.005643229533075492
Epoch: 24700, Error: 0.005634442287705249
Epoch: 24800, Error: 0.005621631564480955
Epoch: 24900, Error: 0.005606252990217777
Epoch: 25000, Error: 0.00561053882433712
Epoch: 25100, Error: 0.005600472082710819
Epoch: 25200, Error: 0.005598021208003867
