Input Patterns
0.224 0.624 0.067 0.043 
0.11 0.502 0.051 0.043 
0.196 0.667 0.067 0.043 
0.055 0.584 0.067 0.082 
0.027 0.376 0.067 0.043 
0.306 0.71 0.086 0.043 
0.137 0.416 0.067 0.0 
0.416 0.831 0.035 0.043 
0.306 0.792 0.051 0.125 
0.388 0.749 0.118 0.082 
0.306 0.584 0.118 0.043 
0.082 0.667 0.0 0.043 
0.137 0.584 0.153 0.043 
0.196 0.584 0.102 0.125 
0.251 0.584 0.067 0.043 
0.137 0.459 0.102 0.043 
0.251 0.875 0.086 0.0 
0.165 0.459 0.086 0.043 
0.333 0.624 0.051 0.043 
0.027 0.416 0.051 0.043 
0.196 0.624 0.051 0.082 
0.027 0.502 0.051 0.043 
0.224 0.749 0.153 0.125 
0.224 0.749 0.102 0.043 
0.278 0.71 0.086 0.043 
0.165 0.416 0.067 0.043 
0.082 0.459 0.086 0.043 
0.306 0.792 0.118 0.125 
0.196 0.584 0.086 0.043 
0.165 0.459 0.086 0.0 
0.137 0.584 0.102 0.043 
0.0 0.416 0.016 0.0 
0.388 1.0 0.086 0.125 
0.224 0.624 0.067 0.082 
0.224 0.749 0.086 0.082 
0.224 0.71 0.086 0.125 
0.224 0.541 0.118 0.165 
0.196 0.416 0.102 0.043 
0.251 0.624 0.086 0.043 
0.11 0.502 0.102 0.043 
0.306 0.584 0.086 0.125 
0.333 0.918 0.067 0.043 
0.196 0.502 0.035 0.043 
0.165 0.667 0.067 0.0 
0.224 0.584 0.086 0.043 
0.055 0.125 0.051 0.082 
0.196 0.624 0.102 0.208 
0.137 0.416 0.067 0.082 
0.082 0.502 0.067 0.043 
0.196 0.541 0.067 0.043 
0.749 0.502 0.627 0.541 
0.722 0.459 0.663 0.584 
0.612 0.333 0.612 0.584 
0.557 0.541 0.627 0.624 
0.639 0.376 0.612 0.498 
0.196 0.0 0.424 0.376 
0.471 0.082 0.51 0.376 
0.361 0.376 0.439 0.498 
0.361 0.416 0.592 0.584 
0.529 0.082 0.592 0.584 
0.443 0.502 0.643 0.459 
0.557 0.208 0.663 0.584 
0.584 0.376 0.561 0.498 
0.694 0.333 0.643 0.541 
0.471 0.376 0.592 0.584 
0.333 0.169 0.475 0.416 
0.416 0.29 0.49 0.459 
0.306 0.416 0.592 0.584 
0.667 0.459 0.627 0.584 
0.361 0.416 0.525 0.498 
0.333 0.251 0.576 0.459 
0.416 0.251 0.51 0.459 
0.361 0.29 0.541 0.498 
0.388 0.376 0.541 0.498 
0.224 0.208 0.337 0.416 
0.584 0.502 0.592 0.584 
0.333 0.125 0.51 0.498 
0.388 0.333 0.592 0.498 
0.165 0.169 0.388 0.376 
0.251 0.29 0.49 0.541 
0.443 0.416 0.541 0.584 
0.498 0.376 0.627 0.541 
0.667 0.459 0.576 0.541 
0.416 0.29 0.525 0.376 
0.361 0.208 0.49 0.416 
0.498 0.333 0.51 0.498 
0.498 0.333 0.627 0.459 
0.639 0.416 0.576 0.541 
0.667 0.416 0.678 0.667 
0.388 0.251 0.424 0.376 
0.333 0.169 0.459 0.376 
0.471 0.29 0.694 0.624 
0.471 0.584 0.592 0.624 
0.557 0.125 0.576 0.498 
0.333 0.208 0.51 0.498 
0.498 0.416 0.612 0.541 
0.196 0.125 0.388 0.376 
0.388 0.416 0.541 0.459 
0.529 0.376 0.561 0.498 
0.388 0.333 0.525 0.498 
0.557 0.541 0.847 1.0 
0.776 0.416 0.831 0.831 
0.612 0.416 0.812 0.875 
0.165 0.208 0.592 0.667 
0.667 0.208 0.812 0.71 
0.612 0.502 0.694 0.792 
0.694 0.416 0.761 0.831 
0.416 0.333 0.694 0.957 
0.612 0.416 0.761 0.71 
0.945 0.251 1.0 0.918 
0.722 0.502 0.796 0.918 
0.945 0.333 0.965 0.792 
0.667 0.541 0.796 0.831 
0.529 0.333 0.643 0.71 
0.584 0.333 0.78 0.831 
0.863 0.333 0.863 0.749 
0.584 0.333 0.78 0.875 
0.498 0.251 0.78 0.541 
0.557 0.584 0.78 0.957 
0.471 0.416 0.643 0.71 
0.667 0.459 0.78 0.957 
0.416 0.29 0.694 0.749 
0.667 0.541 0.796 1.0 
0.557 0.208 0.678 0.749 
0.529 0.584 0.745 0.918 
0.416 0.29 0.694 0.749 
0.557 0.376 0.78 0.71 
0.918 0.416 0.949 0.831 
0.835 0.376 0.898 0.71 
0.804 0.667 0.863 1.0 
0.584 0.29 0.729 0.749 
0.388 0.208 0.678 0.792 
0.584 0.502 0.729 0.918 
0.945 0.749 0.965 0.875 
0.471 0.082 0.678 0.584 
0.361 0.333 0.663 0.792 
0.557 0.29 0.663 0.71 
0.804 0.502 0.847 0.71 
0.498 0.416 0.51 0.71 
0.804 0.416 0.812 0.624 
1.0 0.749 0.914 0.792 
0.557 0.333 0.694 0.584 
0.945 0.416 0.863 0.918 
0.584 0.459 0.761 0.71 
0.722 0.459 0.745 0.831 
0.722 0.459 0.694 0.918 
0.694 0.502 0.831 0.918 
0.667 0.416 0.714 0.918 
0.612 0.416 0.714 0.792 
0.443 0.416 0.694 0.71 
Teaching Patterns
1.0 0.0 0.0 
1.0 0.0 0.0 
1.0 0.0 0.0 
1.0 0.0 0.0 
1.0 0.0 0.0 
1.0 0.0 0.0 
1.0 0.0 0.0 
1.0 0.0 0.0 
1.0 0.0 0.0 
1.0 0.0 0.0 
1.0 0.0 0.0 
1.0 0.0 0.0 
1.0 0.0 0.0 
1.0 0.0 0.0 
1.0 0.0 0.0 
1.0 0.0 0.0 
1.0 0.0 0.0 
1.0 0.0 0.0 
1.0 0.0 0.0 
1.0 0.0 0.0 
1.0 0.0 0.0 
1.0 0.0 0.0 
1.0 0.0 0.0 
1.0 0.0 0.0 
1.0 0.0 0.0 
1.0 0.0 0.0 
1.0 0.0 0.0 
1.0 0.0 0.0 
1.0 0.0 0.0 
1.0 0.0 0.0 
1.0 0.0 0.0 
1.0 0.0 0.0 
1.0 0.0 0.0 
1.0 0.0 0.0 
1.0 0.0 0.0 
1.0 0.0 0.0 
1.0 0.0 0.0 
1.0 0.0 0.0 
1.0 0.0 0.0 
1.0 0.0 0.0 
1.0 0.0 0.0 
1.0 0.0 0.0 
1.0 0.0 0.0 
1.0 0.0 0.0 
1.0 0.0 0.0 
1.0 0.0 0.0 
1.0 0.0 0.0 
1.0 0.0 0.0 
1.0 0.0 0.0 
1.0 0.0 0.0 
0.0 1.0 0.0 
0.0 1.0 0.0 
0.0 1.0 0.0 
0.0 1.0 0.0 
0.0 1.0 0.0 
0.0 1.0 0.0 
0.0 1.0 0.0 
0.0 1.0 0.0 
0.0 1.0 0.0 
0.0 1.0 0.0 
0.0 1.0 0.0 
0.0 1.0 0.0 
0.0 1.0 0.0 
0.0 1.0 0.0 
0.0 1.0 0.0 
0.0 1.0 0.0 
0.0 1.0 0.0 
0.0 1.0 0.0 
0.0 1.0 0.0 
0.0 1.0 0.0 
0.0 1.0 0.0 
0.0 1.0 0.0 
0.0 1.0 0.0 
0.0 1.0 0.0 
0.0 1.0 0.0 
0.0 1.0 0.0 
0.0 1.0 0.0 
0.0 1.0 0.0 
0.0 1.0 0.0 
0.0 1.0 0.0 
0.0 1.0 0.0 
0.0 1.0 0.0 
0.0 1.0 0.0 
0.0 1.0 0.0 
0.0 1.0 0.0 
0.0 1.0 0.0 
0.0 1.0 0.0 
0.0 1.0 0.0 
0.0 1.0 0.0 
0.0 1.0 0.0 
0.0 1.0 0.0 
0.0 1.0 0.0 
0.0 1.0 0.0 
0.0 1.0 0.0 
0.0 1.0 0.0 
0.0 1.0 0.0 
0.0 1.0 0.0 
0.0 1.0 0.0 
0.0 1.0 0.0 
0.0 1.0 0.0 
0.0 0.0 1.0 
0.0 0.0 1.0 
0.0 0.0 1.0 
0.0 0.0 1.0 
0.0 0.0 1.0 
0.0 0.0 1.0 
0.0 0.0 1.0 
0.0 0.0 1.0 
0.0 0.0 1.0 
0.0 0.0 1.0 
0.0 0.0 1.0 
0.0 0.0 1.0 
0.0 0.0 1.0 
0.0 0.0 1.0 
0.0 0.0 1.0 
0.0 0.0 1.0 
0.0 0.0 1.0 
0.0 0.0 1.0 
0.0 0.0 1.0 
0.0 0.0 1.0 
0.0 0.0 1.0 
0.0 0.0 1.0 
0.0 0.0 1.0 
0.0 0.0 1.0 
0.0 0.0 1.0 
0.0 0.0 1.0 
0.0 0.0 1.0 
0.0 0.0 1.0 
0.0 0.0 1.0 
0.0 0.0 1.0 
0.0 0.0 1.0 
0.0 0.0 1.0 
0.0 0.0 1.0 
0.0 0.0 1.0 
0.0 0.0 1.0 
0.0 0.0 1.0 
0.0 0.0 1.0 
0.0 0.0 1.0 
0.0 0.0 1.0 
0.0 0.0 1.0 
0.0 0.0 1.0 
0.0 0.0 1.0 
0.0 0.0 1.0 
0.0 0.0 1.0 
0.0 0.0 1.0 
0.0 0.0 1.0 
0.0 0.0 1.0 
0.0 0.0 1.0 
0.0 0.0 1.0 
0.0 0.0 1.0 
Learning : 0.75
Momentum : 0.9
Epoch: 100, Error: 0.012742360272147493
Epoch: 200, Error: 0.01321399191199327
Epoch: 300, Error: 0.012908002160364649
Epoch: 400, Error: 0.015370548055715416
Epoch: 500, Error: 0.012880438186289
Epoch: 600, Error: 0.017354814499135406
Epoch: 700, Error: 0.01301003476618094
Epoch: 800, Error: 0.012303653614491324
Epoch: 900, Error: 0.012308100374665051
Epoch: 1000, Error: 0.014309973087811075
Epoch: 1100, Error: 0.012229973627528812
Epoch: 1200, Error: 0.013543743970622382
Epoch: 1300, Error: 0.01204841068738533
Epoch: 1400, Error: 0.01214763046468154
Epoch: 1500, Error: 0.012022406491434764
Epoch: 1600, Error: 0.012186756916225935
Epoch: 1700, Error: 0.011885202089606315
Epoch: 1800, Error: 0.011741200618111734
Epoch: 1900, Error: 0.011620306769294129
Epoch: 2000, Error: 0.011296310043174652
Epoch: 2100, Error: 0.011317316464098844
Epoch: 2200, Error: 0.011100950502581277
Epoch: 2300, Error: 0.011491041415067267
Epoch: 2400, Error: 0.011476752823299942
Epoch: 2500, Error: 0.010992255937154848
Epoch: 2600, Error: 0.009449323562920671
Epoch: 2700, Error: 0.009451416770598853
Epoch: 2800, Error: 0.009214672860899822
Epoch: 2900, Error: 0.007351500914401973
Epoch: 3000, Error: 0.0075736926916535755
Epoch: 3100, Error: 0.006328803439184825
Epoch: 3200, Error: 0.0057739274225130244
Epoch: 3300, Error: 0.005346724262838333
Epoch: 3400, Error: 0.005669021396049572
Epoch: 3500, Error: 0.00525649207243557
Epoch: 3600, Error: 0.005217588433898503
Epoch: 3700, Error: 0.005057174967390837
Epoch: 3800, Error: 0.004933381451575291
Epoch: 3900, Error: 0.004936267634817024
Epoch: 4000, Error: 0.004912963867103909
Epoch: 4100, Error: 0.004980867687803375
Epoch: 4200, Error: 0.0049798485700334695
Epoch: 4300, Error: 0.004925641356195734
Epoch: 4400, Error: 0.004936701690283673
Epoch: 4500, Error: 0.004893671658202297
Epoch: 4600, Error: 0.004909440319364971
Epoch: 4700, Error: 0.004896724292023195
Epoch: 4800, Error: 0.004908674419091821
Epoch: 4900, Error: 0.004915191357953958
Epoch: 5000, Error: 0.004923356759989279
Epoch: 5100, Error: 0.0049302692672947125
Epoch: 5200, Error: 0.004891258926244769
Epoch: 5300, Error: 0.004904293494293683
Epoch: 5400, Error: 0.004948956450479295
Epoch: 5500, Error: 0.004903969465567189
Epoch: 5600, Error: 0.0049197270778634245
Epoch: 5700, Error: 0.005070669751444876
Epoch: 5800, Error: 0.004905736055924873
Epoch: 5900, Error: 0.005018490890149934
Epoch: 6000, Error: 0.004950172723056796
Epoch: 6100, Error: 0.004941573724678569
Epoch: 6200, Error: 0.005014615219120081
Epoch: 6300, Error: 0.0050661887815254
Epoch: 6400, Error: 0.004950652551370662
Epoch: 6500, Error: 0.004948983290457618
Epoch: 6600, Error: 0.005052805588499864
Epoch: 6700, Error: 0.004952456918206028
Epoch: 6800, Error: 0.004964793912684976
Epoch: 6900, Error: 0.004995062095121662
Epoch: 7000, Error: 0.004955421756281068
Epoch: 7100, Error: 0.004935705654561152
Epoch: 7200, Error: 0.004953304589845857
Epoch: 7300, Error: 0.004949209185850736
Epoch: 7400, Error: 0.004918603225634252
Epoch: 7500, Error: 0.004953565722037379
Epoch: 7600, Error: 0.004866195039332691
Epoch: 7700, Error: 0.004809731659802635
Epoch: 7800, Error: 0.004770060036782793
Epoch: 7900, Error: 0.004958411730645224
Epoch: 8000, Error: 0.005153373042832565
Epoch: 8100, Error: 0.0052256978431380755
Epoch: 8200, Error: 0.005063675114789002
Epoch: 8300, Error: 0.004756189805296394
Epoch: 8400, Error: 0.004652316931311303
Epoch: 8500, Error: 0.004507767823355019
Epoch: 8600, Error: 0.004751130175234272
Epoch: 8700, Error: 0.004610287966814846
Epoch: 8800, Error: 0.004476680565980686
Epoch: 8900, Error: 0.0037326821433665064
Epoch: 9000, Error: 0.004271578490573908
Epoch: 9100, Error: 0.0035847917429171127
Epoch: 9200, Error: 0.004332590395042417
Epoch: 9300, Error: 0.004206566575203175
Epoch: 9400, Error: 0.0035134692666563398
Epoch: 9500, Error: 0.005741223693871184
Epoch: 9600, Error: 0.003222106980313265
Epoch: 9700, Error: 0.0031295329308291975
Epoch: 9800, Error: 0.00402791185268695
Epoch: 9900, Error: 0.005067748249757612
Epoch: 10000, Error: 0.003887574536400816
Epoch: 10100, Error: 0.0019441358724390015
Epoch: 10200, Error: 0.002679661465587953
Epoch: 10300, Error: 0.002160913603026561
Epoch: 10400, Error: 0.0020153841310113245
Epoch: 10500, Error: 0.0015149696199242624
Epoch: 10600, Error: 0.002418790464950348
Epoch: 10700, Error: 0.0015954879232466543
Epoch: 10800, Error: 0.0064261396015050844
Epoch: 10900, Error: 0.002012208710458706
Epoch: 11000, Error: 0.0018080275738942123
Epoch: 11100, Error: 0.005242485212229621
Epoch: 11200, Error: 0.005706054560734585
Epoch: 11300, Error: 0.0013546730476868254
Epoch: 11400, Error: 0.0016821895131310825
Epoch: 11500, Error: 0.0019279721230842568
Epoch: 11600, Error: 0.0020281782760738928
Epoch: 11700, Error: 8.075498670465032E-4
Epoch: 11800, Error: 7.866663680246649E-4
Epoch: 11900, Error: 7.892042814968876E-4
Epoch: 12000, Error: 7.77957898951939E-4
Epoch: 12100, Error: 8.033975984323583E-4
Epoch: 12200, Error: 7.929377917436604E-4
Epoch: 12300, Error: 6.426865073238569E-4
Epoch: 12400, Error: 6.248649577072666E-4
Epoch: 12500, Error: 5.585142051444291E-4
Epoch: 12600, Error: 5.636950174643299E-4
Epoch: 12700, Error: 6.170957877682309E-4
Epoch: 12800, Error: 5.851059186945331E-4
Epoch: 12900, Error: 5.553568328387332E-4
Epoch: 13000, Error: 5.367094390470128E-4
Epoch: 13100, Error: 5.051328203245251E-4
Epoch: 13200, Error: 5.305125072922925E-4
Epoch: 13300, Error: 5.043022445838344E-4
Epoch: 13400, Error: 5.314411815532672E-4
Epoch: 13500, Error: 5.355967077251291E-4
finished
