Input Patterns
0.224 0.624 0.067 0.043 
0.11 0.502 0.051 0.043 
0.196 0.667 0.067 0.043 
0.055 0.584 0.067 0.082 
0.027 0.376 0.067 0.043 
0.306 0.71 0.086 0.043 
0.137 0.416 0.067 0.0 
0.416 0.831 0.035 0.043 
0.306 0.792 0.051 0.125 
0.388 0.749 0.118 0.082 
0.306 0.584 0.118 0.043 
0.082 0.667 0.0 0.043 
0.137 0.584 0.153 0.043 
0.196 0.584 0.102 0.125 
0.251 0.584 0.067 0.043 
0.137 0.459 0.102 0.043 
0.251 0.875 0.086 0.0 
0.165 0.459 0.086 0.043 
0.333 0.624 0.051 0.043 
0.027 0.416 0.051 0.043 
0.196 0.624 0.051 0.082 
0.027 0.502 0.051 0.043 
0.224 0.749 0.153 0.125 
0.224 0.749 0.102 0.043 
0.278 0.71 0.086 0.043 
0.165 0.416 0.067 0.043 
0.082 0.459 0.086 0.043 
0.306 0.792 0.118 0.125 
0.196 0.584 0.086 0.043 
0.165 0.459 0.086 0.0 
0.137 0.584 0.102 0.043 
0.0 0.416 0.016 0.0 
0.388 1.0 0.086 0.125 
0.224 0.624 0.067 0.082 
0.224 0.749 0.086 0.082 
0.224 0.71 0.086 0.125 
0.224 0.541 0.118 0.165 
0.196 0.416 0.102 0.043 
0.251 0.624 0.086 0.043 
0.11 0.502 0.102 0.043 
0.306 0.584 0.086 0.125 
0.333 0.918 0.067 0.043 
0.196 0.502 0.035 0.043 
0.165 0.667 0.067 0.0 
0.224 0.584 0.086 0.043 
0.055 0.125 0.051 0.082 
0.196 0.624 0.102 0.208 
0.137 0.416 0.067 0.082 
0.082 0.502 0.067 0.043 
0.196 0.541 0.067 0.043 
0.749 0.502 0.627 0.541 
0.722 0.459 0.663 0.584 
0.612 0.333 0.612 0.584 
0.557 0.541 0.627 0.624 
0.639 0.376 0.612 0.498 
0.196 0.0 0.424 0.376 
0.471 0.082 0.51 0.376 
0.361 0.376 0.439 0.498 
0.361 0.416 0.592 0.584 
0.529 0.082 0.592 0.584 
0.443 0.502 0.643 0.459 
0.557 0.208 0.663 0.584 
0.584 0.376 0.561 0.498 
0.694 0.333 0.643 0.541 
0.471 0.376 0.592 0.584 
0.333 0.169 0.475 0.416 
0.416 0.29 0.49 0.459 
0.306 0.416 0.592 0.584 
0.667 0.459 0.627 0.584 
0.361 0.416 0.525 0.498 
0.333 0.251 0.576 0.459 
0.416 0.251 0.51 0.459 
0.361 0.29 0.541 0.498 
0.388 0.376 0.541 0.498 
0.224 0.208 0.337 0.416 
0.584 0.502 0.592 0.584 
0.333 0.125 0.51 0.498 
0.388 0.333 0.592 0.498 
0.165 0.169 0.388 0.376 
0.251 0.29 0.49 0.541 
0.443 0.416 0.541 0.584 
0.498 0.376 0.627 0.541 
0.667 0.459 0.576 0.541 
0.416 0.29 0.525 0.376 
0.361 0.208 0.49 0.416 
0.498 0.333 0.51 0.498 
0.498 0.333 0.627 0.459 
0.639 0.416 0.576 0.541 
0.667 0.416 0.678 0.667 
0.388 0.251 0.424 0.376 
0.333 0.169 0.459 0.376 
0.471 0.29 0.694 0.624 
0.471 0.584 0.592 0.624 
0.557 0.125 0.576 0.498 
0.333 0.208 0.51 0.498 
0.498 0.416 0.612 0.541 
0.196 0.125 0.388 0.376 
0.388 0.416 0.541 0.459 
0.529 0.376 0.561 0.498 
0.388 0.333 0.525 0.498 
0.557 0.541 0.847 1.0 
0.776 0.416 0.831 0.831 
0.612 0.416 0.812 0.875 
0.165 0.208 0.592 0.667 
0.667 0.208 0.812 0.71 
0.612 0.502 0.694 0.792 
0.694 0.416 0.761 0.831 
0.416 0.333 0.694 0.957 
0.612 0.416 0.761 0.71 
0.945 0.251 1.0 0.918 
0.722 0.502 0.796 0.918 
0.945 0.333 0.965 0.792 
0.667 0.541 0.796 0.831 
0.529 0.333 0.643 0.71 
0.584 0.333 0.78 0.831 
0.863 0.333 0.863 0.749 
0.584 0.333 0.78 0.875 
0.498 0.251 0.78 0.541 
0.557 0.584 0.78 0.957 
0.471 0.416 0.643 0.71 
0.667 0.459 0.78 0.957 
0.416 0.29 0.694 0.749 
0.667 0.541 0.796 1.0 
0.557 0.208 0.678 0.749 
0.529 0.584 0.745 0.918 
0.416 0.29 0.694 0.749 
0.557 0.376 0.78 0.71 
0.918 0.416 0.949 0.831 
0.835 0.376 0.898 0.71 
0.804 0.667 0.863 1.0 
0.584 0.29 0.729 0.749 
0.388 0.208 0.678 0.792 
0.584 0.502 0.729 0.918 
0.945 0.749 0.965 0.875 
0.471 0.082 0.678 0.584 
0.361 0.333 0.663 0.792 
0.557 0.29 0.663 0.71 
0.804 0.502 0.847 0.71 
0.498 0.416 0.51 0.71 
0.804 0.416 0.812 0.624 
1.0 0.749 0.914 0.792 
0.557 0.333 0.694 0.584 
0.945 0.416 0.863 0.918 
0.584 0.459 0.761 0.71 
0.722 0.459 0.745 0.831 
0.722 0.459 0.694 0.918 
0.694 0.502 0.831 0.918 
0.667 0.416 0.714 0.918 
0.612 0.416 0.714 0.792 
0.443 0.416 0.694 0.71 
Teaching Patterns
1.0 0.0 0.0 
1.0 0.0 0.0 
1.0 0.0 0.0 
1.0 0.0 0.0 
1.0 0.0 0.0 
1.0 0.0 0.0 
1.0 0.0 0.0 
1.0 0.0 0.0 
1.0 0.0 0.0 
1.0 0.0 0.0 
1.0 0.0 0.0 
1.0 0.0 0.0 
1.0 0.0 0.0 
1.0 0.0 0.0 
1.0 0.0 0.0 
1.0 0.0 0.0 
1.0 0.0 0.0 
1.0 0.0 0.0 
1.0 0.0 0.0 
1.0 0.0 0.0 
1.0 0.0 0.0 
1.0 0.0 0.0 
1.0 0.0 0.0 
1.0 0.0 0.0 
1.0 0.0 0.0 
1.0 0.0 0.0 
1.0 0.0 0.0 
1.0 0.0 0.0 
1.0 0.0 0.0 
1.0 0.0 0.0 
1.0 0.0 0.0 
1.0 0.0 0.0 
1.0 0.0 0.0 
1.0 0.0 0.0 
1.0 0.0 0.0 
1.0 0.0 0.0 
1.0 0.0 0.0 
1.0 0.0 0.0 
1.0 0.0 0.0 
1.0 0.0 0.0 
1.0 0.0 0.0 
1.0 0.0 0.0 
1.0 0.0 0.0 
1.0 0.0 0.0 
1.0 0.0 0.0 
1.0 0.0 0.0 
1.0 0.0 0.0 
1.0 0.0 0.0 
1.0 0.0 0.0 
1.0 0.0 0.0 
0.0 1.0 0.0 
0.0 1.0 0.0 
0.0 1.0 0.0 
0.0 1.0 0.0 
0.0 1.0 0.0 
0.0 1.0 0.0 
0.0 1.0 0.0 
0.0 1.0 0.0 
0.0 1.0 0.0 
0.0 1.0 0.0 
0.0 1.0 0.0 
0.0 1.0 0.0 
0.0 1.0 0.0 
0.0 1.0 0.0 
0.0 1.0 0.0 
0.0 1.0 0.0 
0.0 1.0 0.0 
0.0 1.0 0.0 
0.0 1.0 0.0 
0.0 1.0 0.0 
0.0 1.0 0.0 
0.0 1.0 0.0 
0.0 1.0 0.0 
0.0 1.0 0.0 
0.0 1.0 0.0 
0.0 1.0 0.0 
0.0 1.0 0.0 
0.0 1.0 0.0 
0.0 1.0 0.0 
0.0 1.0 0.0 
0.0 1.0 0.0 
0.0 1.0 0.0 
0.0 1.0 0.0 
0.0 1.0 0.0 
0.0 1.0 0.0 
0.0 1.0 0.0 
0.0 1.0 0.0 
0.0 1.0 0.0 
0.0 1.0 0.0 
0.0 1.0 0.0 
0.0 1.0 0.0 
0.0 1.0 0.0 
0.0 1.0 0.0 
0.0 1.0 0.0 
0.0 1.0 0.0 
0.0 1.0 0.0 
0.0 1.0 0.0 
0.0 1.0 0.0 
0.0 1.0 0.0 
0.0 1.0 0.0 
0.0 0.0 1.0 
0.0 0.0 1.0 
0.0 0.0 1.0 
0.0 0.0 1.0 
0.0 0.0 1.0 
0.0 0.0 1.0 
0.0 0.0 1.0 
0.0 0.0 1.0 
0.0 0.0 1.0 
0.0 0.0 1.0 
0.0 0.0 1.0 
0.0 0.0 1.0 
0.0 0.0 1.0 
0.0 0.0 1.0 
0.0 0.0 1.0 
0.0 0.0 1.0 
0.0 0.0 1.0 
0.0 0.0 1.0 
0.0 0.0 1.0 
0.0 0.0 1.0 
0.0 0.0 1.0 
0.0 0.0 1.0 
0.0 0.0 1.0 
0.0 0.0 1.0 
0.0 0.0 1.0 
0.0 0.0 1.0 
0.0 0.0 1.0 
0.0 0.0 1.0 
0.0 0.0 1.0 
0.0 0.0 1.0 
0.0 0.0 1.0 
0.0 0.0 1.0 
0.0 0.0 1.0 
0.0 0.0 1.0 
0.0 0.0 1.0 
0.0 0.0 1.0 
0.0 0.0 1.0 
0.0 0.0 1.0 
0.0 0.0 1.0 
0.0 0.0 1.0 
0.0 0.0 1.0 
0.0 0.0 1.0 
0.0 0.0 1.0 
0.0 0.0 1.0 
0.0 0.0 1.0 
0.0 0.0 1.0 
0.0 0.0 1.0 
0.0 0.0 1.0 
0.0 0.0 1.0 
0.0 0.0 1.0 
Learning : 0.75
Momentum : 0.9
Epoch: 100, Error: 0.017414933683294023
Epoch: 200, Error: 0.012934148355320443
Epoch: 300, Error: 0.015145620557544252
Epoch: 400, Error: 0.012152265578426162
Epoch: 500, Error: 0.012297624157050062
Epoch: 600, Error: 0.012341603387601678
Epoch: 700, Error: 0.012205645859303187
Epoch: 800, Error: 0.013514956491583902
Epoch: 900, Error: 0.012188370292320849
Epoch: 1000, Error: 0.012510904268452897
Epoch: 1100, Error: 0.01217983219699061
Epoch: 1200, Error: 0.01207080629766262
Epoch: 1300, Error: 0.012159668453347833
Epoch: 1400, Error: 0.012064031744900934
Epoch: 1500, Error: 0.011835916306820182
Epoch: 1600, Error: 0.011801413184919143
Epoch: 1700, Error: 0.012002527828664346
Epoch: 1800, Error: 0.011553914466717115
Epoch: 1900, Error: 0.013179120695339962
Epoch: 2000, Error: 0.011663235812150686
Epoch: 2100, Error: 0.01181919508251771
Epoch: 2200, Error: 0.011519935163808762
Epoch: 2300, Error: 0.010991119478432204
Epoch: 2400, Error: 0.015090107306189855
Epoch: 2500, Error: 0.01026976037837258
Epoch: 2600, Error: 0.008756870009972254
Epoch: 2700, Error: 0.008035638172967688
Epoch: 2800, Error: 0.007548902685117186
Epoch: 2900, Error: 0.0073244196588678695
Epoch: 3000, Error: 0.00717692570575209
Epoch: 3100, Error: 0.007337324490782555
Epoch: 3200, Error: 0.006888693527072109
Epoch: 3300, Error: 0.007144954760399258
Epoch: 3400, Error: 0.006845497685537218
Epoch: 3500, Error: 0.007950987926345495
Epoch: 3600, Error: 0.0068331031231905984
Epoch: 3700, Error: 0.006470880220063227
Epoch: 3800, Error: 0.006464073519599872
Epoch: 3900, Error: 0.006502656279595759
Epoch: 4000, Error: 0.006246626470771945
Epoch: 4100, Error: 0.006182336603452156
Epoch: 4200, Error: 0.0059888587421255335
Epoch: 4300, Error: 0.006436793480358856
Epoch: 4400, Error: 0.005971566876816888
Epoch: 4500, Error: 0.005751460756120472
Epoch: 4600, Error: 0.0056160793374254855
Epoch: 4700, Error: 0.0056364044680991925
Epoch: 4800, Error: 0.005804526334288415
Epoch: 4900, Error: 0.005610316005933091
Epoch: 5000, Error: 0.005285283715291297
Epoch: 5100, Error: 0.005310061090182427
Epoch: 5200, Error: 0.005151266972069856
Epoch: 5300, Error: 0.005083843976053694
Epoch: 5400, Error: 0.005417355463992523
Epoch: 5500, Error: 0.005300741688230541
Epoch: 5600, Error: 0.004968619882633773
Epoch: 5700, Error: 0.0050629447262504
Epoch: 5800, Error: 0.004959734663246742
Epoch: 5900, Error: 0.004977472053847167
Epoch: 6000, Error: 0.004960944149616959
Epoch: 6100, Error: 0.004877246075471104
Epoch: 6200, Error: 0.00527427009771978
Epoch: 6300, Error: 0.004803055547014847
Epoch: 6400, Error: 0.004721877270117757
Epoch: 6500, Error: 0.005129246079571045
Epoch: 6600, Error: 0.005681972333554789
Epoch: 6700, Error: 0.006258817759118784
Epoch: 6800, Error: 0.0041973156664845655
Epoch: 6900, Error: 0.004229493123581221
Epoch: 7000, Error: 0.003737143857968043
Epoch: 7100, Error: 0.003440600441144577
Epoch: 7200, Error: 0.003196109921405736
Epoch: 7300, Error: 0.0031583219597023527
Epoch: 7400, Error: 0.0027372155325506966
Epoch: 7500, Error: 0.003944392432336026
Epoch: 7600, Error: 0.0021764657765939886
Epoch: 7700, Error: 0.0024130162023877607
Epoch: 7800, Error: 0.0018457714024934363
Epoch: 7900, Error: 0.0045576625248391215
Epoch: 8000, Error: 0.0024789313078361808
Epoch: 8100, Error: 0.003632977682281829
Epoch: 8200, Error: 0.0024742263071002523
Epoch: 8300, Error: 0.0012828797583642267
Epoch: 8400, Error: 0.001922470378030088
Epoch: 8500, Error: 0.0032594136781306615
Epoch: 8600, Error: 0.002765319856199629
Epoch: 8700, Error: 0.00468434790910265
Epoch: 8800, Error: 0.002790476255299634
Epoch: 8900, Error: 0.00203705502218373
Epoch: 9000, Error: 0.0010389291504684698
Epoch: 9100, Error: 0.005743030100001207
Epoch: 9200, Error: 0.0012155309924351326
Epoch: 9300, Error: 0.0010442348989762949
Epoch: 9400, Error: 0.0011415481556354924
Epoch: 9500, Error: 0.0010137296361639272
Epoch: 9600, Error: 7.491214660854654E-4
Epoch: 9700, Error: 6.686053133635374E-4
Epoch: 9800, Error: 6.086252512035648E-4
Epoch: 9900, Error: 6.016265662376296E-4
Epoch: 10000, Error: 6.135607718466111E-4
Epoch: 10100, Error: 6.095903180366966E-4
Epoch: 10200, Error: 5.966856826899944E-4
Epoch: 10300, Error: 5.831452666292682E-4
Epoch: 10400, Error: 5.781112122991062E-4
Epoch: 10500, Error: 5.673405828365647E-4
Epoch: 10600, Error: 5.636993212407285E-4
Epoch: 10700, Error: 5.618294527370925E-4
Epoch: 10800, Error: 5.568646504410042E-4
Epoch: 10900, Error: 5.721115056531569E-4
Epoch: 11000, Error: 5.50786209576384E-4
Epoch: 11100, Error: 5.732348261943786E-4
Epoch: 11200, Error: 5.75078197262821E-4
Epoch: 11300, Error: 5.826812337675595E-4
Epoch: 11400, Error: 5.57684548049448E-4
Epoch: 11500, Error: 5.685863070270407E-4
Epoch: 11600, Error: 5.89646139447685E-4
Epoch: 11700, Error: 5.752472313600468E-4
Epoch: 11800, Error: 5.568170601064604E-4
Epoch: 11900, Error: 5.556002608081735E-4
Epoch: 12000, Error: 5.508422031315702E-4
Epoch: 12100, Error: 5.757409286232806E-4
Epoch: 12200, Error: 5.594435355961625E-4
Epoch: 12300, Error: 5.77046956125063E-4
Epoch: 12400, Error: 5.603731892231222E-4
Epoch: 12500, Error: 5.611538681602013E-4
finished
