Input Patterns
0.224 0.624 0.067 0.043 
0.11 0.502 0.051 0.043 
0.196 0.667 0.067 0.043 
0.055 0.584 0.067 0.082 
0.027 0.376 0.067 0.043 
0.306 0.71 0.086 0.043 
0.137 0.416 0.067 0.0 
0.416 0.831 0.035 0.043 
0.306 0.792 0.051 0.125 
0.388 0.749 0.118 0.082 
0.306 0.584 0.118 0.043 
0.082 0.667 0.0 0.043 
0.137 0.584 0.153 0.043 
0.196 0.584 0.102 0.125 
0.251 0.584 0.067 0.043 
0.137 0.459 0.102 0.043 
0.251 0.875 0.086 0.0 
0.165 0.459 0.086 0.043 
0.333 0.624 0.051 0.043 
0.027 0.416 0.051 0.043 
0.196 0.624 0.051 0.082 
0.027 0.502 0.051 0.043 
0.224 0.749 0.153 0.125 
0.224 0.749 0.102 0.043 
0.278 0.71 0.086 0.043 
0.165 0.416 0.067 0.043 
0.082 0.459 0.086 0.043 
0.306 0.792 0.118 0.125 
0.196 0.584 0.086 0.043 
0.165 0.459 0.086 0.0 
0.137 0.584 0.102 0.043 
0.0 0.416 0.016 0.0 
0.388 1.0 0.086 0.125 
0.224 0.624 0.067 0.082 
0.224 0.749 0.086 0.082 
0.224 0.71 0.086 0.125 
0.224 0.541 0.118 0.165 
0.196 0.416 0.102 0.043 
0.251 0.624 0.086 0.043 
0.11 0.502 0.102 0.043 
0.306 0.584 0.086 0.125 
0.333 0.918 0.067 0.043 
0.196 0.502 0.035 0.043 
0.165 0.667 0.067 0.0 
0.224 0.584 0.086 0.043 
0.055 0.125 0.051 0.082 
0.196 0.624 0.102 0.208 
0.137 0.416 0.067 0.082 
0.082 0.502 0.067 0.043 
0.196 0.541 0.067 0.043 
0.749 0.502 0.627 0.541 
0.722 0.459 0.663 0.584 
0.612 0.333 0.612 0.584 
0.557 0.541 0.627 0.624 
0.639 0.376 0.612 0.498 
0.196 0.0 0.424 0.376 
0.471 0.082 0.51 0.376 
0.361 0.376 0.439 0.498 
0.361 0.416 0.592 0.584 
0.529 0.082 0.592 0.584 
0.443 0.502 0.643 0.459 
0.557 0.208 0.663 0.584 
0.584 0.376 0.561 0.498 
0.694 0.333 0.643 0.541 
0.471 0.376 0.592 0.584 
0.333 0.169 0.475 0.416 
0.416 0.29 0.49 0.459 
0.306 0.416 0.592 0.584 
0.667 0.459 0.627 0.584 
0.361 0.416 0.525 0.498 
0.333 0.251 0.576 0.459 
0.416 0.251 0.51 0.459 
0.361 0.29 0.541 0.498 
0.388 0.376 0.541 0.498 
0.224 0.208 0.337 0.416 
0.584 0.502 0.592 0.584 
0.333 0.125 0.51 0.498 
0.388 0.333 0.592 0.498 
0.165 0.169 0.388 0.376 
0.251 0.29 0.49 0.541 
0.443 0.416 0.541 0.584 
0.498 0.376 0.627 0.541 
0.667 0.459 0.576 0.541 
0.416 0.29 0.525 0.376 
0.361 0.208 0.49 0.416 
0.498 0.333 0.51 0.498 
0.498 0.333 0.627 0.459 
0.639 0.416 0.576 0.541 
0.667 0.416 0.678 0.667 
0.388 0.251 0.424 0.376 
0.333 0.169 0.459 0.376 
0.471 0.29 0.694 0.624 
0.471 0.584 0.592 0.624 
0.557 0.125 0.576 0.498 
0.333 0.208 0.51 0.498 
0.498 0.416 0.612 0.541 
0.196 0.125 0.388 0.376 
0.388 0.416 0.541 0.459 
0.529 0.376 0.561 0.498 
0.388 0.333 0.525 0.498 
0.557 0.541 0.847 1.0 
0.776 0.416 0.831 0.831 
0.612 0.416 0.812 0.875 
0.165 0.208 0.592 0.667 
0.667 0.208 0.812 0.71 
0.612 0.502 0.694 0.792 
0.694 0.416 0.761 0.831 
0.416 0.333 0.694 0.957 
0.612 0.416 0.761 0.71 
0.945 0.251 1.0 0.918 
0.722 0.502 0.796 0.918 
0.945 0.333 0.965 0.792 
0.667 0.541 0.796 0.831 
0.529 0.333 0.643 0.71 
0.584 0.333 0.78 0.831 
0.863 0.333 0.863 0.749 
0.584 0.333 0.78 0.875 
0.498 0.251 0.78 0.541 
0.557 0.584 0.78 0.957 
0.471 0.416 0.643 0.71 
0.667 0.459 0.78 0.957 
0.416 0.29 0.694 0.749 
0.667 0.541 0.796 1.0 
0.557 0.208 0.678 0.749 
0.529 0.584 0.745 0.918 
0.416 0.29 0.694 0.749 
0.557 0.376 0.78 0.71 
0.918 0.416 0.949 0.831 
0.835 0.376 0.898 0.71 
0.804 0.667 0.863 1.0 
0.584 0.29 0.729 0.749 
0.388 0.208 0.678 0.792 
0.584 0.502 0.729 0.918 
0.945 0.749 0.965 0.875 
0.471 0.082 0.678 0.584 
0.361 0.333 0.663 0.792 
0.557 0.29 0.663 0.71 
0.804 0.502 0.847 0.71 
0.498 0.416 0.51 0.71 
0.804 0.416 0.812 0.624 
1.0 0.749 0.914 0.792 
0.557 0.333 0.694 0.584 
0.945 0.416 0.863 0.918 
0.584 0.459 0.761 0.71 
0.722 0.459 0.745 0.831 
0.722 0.459 0.694 0.918 
0.694 0.502 0.831 0.918 
0.667 0.416 0.714 0.918 
0.612 0.416 0.714 0.792 
0.443 0.416 0.694 0.71 
Teaching Patterns
1.0 0.0 0.0 
1.0 0.0 0.0 
1.0 0.0 0.0 
1.0 0.0 0.0 
1.0 0.0 0.0 
1.0 0.0 0.0 
1.0 0.0 0.0 
1.0 0.0 0.0 
1.0 0.0 0.0 
1.0 0.0 0.0 
1.0 0.0 0.0 
1.0 0.0 0.0 
1.0 0.0 0.0 
1.0 0.0 0.0 
1.0 0.0 0.0 
1.0 0.0 0.0 
1.0 0.0 0.0 
1.0 0.0 0.0 
1.0 0.0 0.0 
1.0 0.0 0.0 
1.0 0.0 0.0 
1.0 0.0 0.0 
1.0 0.0 0.0 
1.0 0.0 0.0 
1.0 0.0 0.0 
1.0 0.0 0.0 
1.0 0.0 0.0 
1.0 0.0 0.0 
1.0 0.0 0.0 
1.0 0.0 0.0 
1.0 0.0 0.0 
1.0 0.0 0.0 
1.0 0.0 0.0 
1.0 0.0 0.0 
1.0 0.0 0.0 
1.0 0.0 0.0 
1.0 0.0 0.0 
1.0 0.0 0.0 
1.0 0.0 0.0 
1.0 0.0 0.0 
1.0 0.0 0.0 
1.0 0.0 0.0 
1.0 0.0 0.0 
1.0 0.0 0.0 
1.0 0.0 0.0 
1.0 0.0 0.0 
1.0 0.0 0.0 
1.0 0.0 0.0 
1.0 0.0 0.0 
1.0 0.0 0.0 
0.0 1.0 0.0 
0.0 1.0 0.0 
0.0 1.0 0.0 
0.0 1.0 0.0 
0.0 1.0 0.0 
0.0 1.0 0.0 
0.0 1.0 0.0 
0.0 1.0 0.0 
0.0 1.0 0.0 
0.0 1.0 0.0 
0.0 1.0 0.0 
0.0 1.0 0.0 
0.0 1.0 0.0 
0.0 1.0 0.0 
0.0 1.0 0.0 
0.0 1.0 0.0 
0.0 1.0 0.0 
0.0 1.0 0.0 
0.0 1.0 0.0 
0.0 1.0 0.0 
0.0 1.0 0.0 
0.0 1.0 0.0 
0.0 1.0 0.0 
0.0 1.0 0.0 
0.0 1.0 0.0 
0.0 1.0 0.0 
0.0 1.0 0.0 
0.0 1.0 0.0 
0.0 1.0 0.0 
0.0 1.0 0.0 
0.0 1.0 0.0 
0.0 1.0 0.0 
0.0 1.0 0.0 
0.0 1.0 0.0 
0.0 1.0 0.0 
0.0 1.0 0.0 
0.0 1.0 0.0 
0.0 1.0 0.0 
0.0 1.0 0.0 
0.0 1.0 0.0 
0.0 1.0 0.0 
0.0 1.0 0.0 
0.0 1.0 0.0 
0.0 1.0 0.0 
0.0 1.0 0.0 
0.0 1.0 0.0 
0.0 1.0 0.0 
0.0 1.0 0.0 
0.0 1.0 0.0 
0.0 1.0 0.0 
0.0 0.0 1.0 
0.0 0.0 1.0 
0.0 0.0 1.0 
0.0 0.0 1.0 
0.0 0.0 1.0 
0.0 0.0 1.0 
0.0 0.0 1.0 
0.0 0.0 1.0 
0.0 0.0 1.0 
0.0 0.0 1.0 
0.0 0.0 1.0 
0.0 0.0 1.0 
0.0 0.0 1.0 
0.0 0.0 1.0 
0.0 0.0 1.0 
0.0 0.0 1.0 
0.0 0.0 1.0 
0.0 0.0 1.0 
0.0 0.0 1.0 
0.0 0.0 1.0 
0.0 0.0 1.0 
0.0 0.0 1.0 
0.0 0.0 1.0 
0.0 0.0 1.0 
0.0 0.0 1.0 
0.0 0.0 1.0 
0.0 0.0 1.0 
0.0 0.0 1.0 
0.0 0.0 1.0 
0.0 0.0 1.0 
0.0 0.0 1.0 
0.0 0.0 1.0 
0.0 0.0 1.0 
0.0 0.0 1.0 
0.0 0.0 1.0 
0.0 0.0 1.0 
0.0 0.0 1.0 
0.0 0.0 1.0 
0.0 0.0 1.0 
0.0 0.0 1.0 
0.0 0.0 1.0 
0.0 0.0 1.0 
0.0 0.0 1.0 
0.0 0.0 1.0 
0.0 0.0 1.0 
0.0 0.0 1.0 
0.0 0.0 1.0 
0.0 0.0 1.0 
0.0 0.0 1.0 
0.0 0.0 1.0 
Learning : 0.20000000298023224
Momentum : 0.9
Epoch: 100, Error: 0.014847898833484193
Epoch: 200, Error: 0.013195813617976759
Epoch: 300, Error: 0.012748298782005554
Epoch: 400, Error: 0.013189339111728498
Epoch: 500, Error: 0.01252525155863618
Epoch: 600, Error: 0.013735177680417867
Epoch: 700, Error: 0.012207958198676976
Epoch: 800, Error: 0.01872789326415458
Epoch: 900, Error: 0.014177910703597455
Epoch: 1000, Error: 0.012325039471668011
Epoch: 1100, Error: 0.012475074978567964
Epoch: 1200, Error: 0.0122438677759211
Epoch: 1300, Error: 0.01252554644251544
Epoch: 1400, Error: 0.012208415247490816
Epoch: 1500, Error: 0.012180212757802096
Epoch: 1600, Error: 0.012485856580842005
Epoch: 1700, Error: 0.01215266962553912
Epoch: 1800, Error: 0.01220700539661258
Epoch: 1900, Error: 0.01209539124918324
Epoch: 2000, Error: 0.012028495899895708
Epoch: 2100, Error: 0.012404138265106411
Epoch: 2200, Error: 0.012062445718260643
Epoch: 2300, Error: 0.012190706790145823
Epoch: 2400, Error: 0.013053970378083628
Epoch: 2500, Error: 0.011868786854430238
Epoch: 2600, Error: 0.011873694553862573
Epoch: 2700, Error: 0.01203690343211773
Epoch: 2800, Error: 0.011715067200147753
Epoch: 2900, Error: 0.011728667643610491
Epoch: 3000, Error: 0.011753267346724156
Epoch: 3100, Error: 0.011725705655344061
Epoch: 3200, Error: 0.0122676360787064
Epoch: 3300, Error: 0.011427448638984865
Epoch: 3400, Error: 0.012305111347473264
Epoch: 3500, Error: 0.011594130976709327
Epoch: 3600, Error: 0.011182608177304723
Epoch: 3700, Error: 0.010865975439751301
Epoch: 3800, Error: 0.010577147198914661
Epoch: 3900, Error: 0.01023770776426869
Epoch: 4000, Error: 0.00989334659512921
Epoch: 4100, Error: 0.009922432663975841
Epoch: 4200, Error: 0.009048070347333681
Epoch: 4300, Error: 0.008623304902522316
Epoch: 4400, Error: 0.008357963737253185
Epoch: 4500, Error: 0.008151401809927166
Epoch: 4600, Error: 0.0077894393934787665
Epoch: 4700, Error: 0.0076139938279317435
Epoch: 4800, Error: 0.007387162208774863
Epoch: 4900, Error: 0.0072099888287662055
Epoch: 5000, Error: 0.007067664990831585
Epoch: 5100, Error: 0.007030916375407228
Epoch: 5200, Error: 0.006940903248225957
Epoch: 5300, Error: 0.006751622345095596
Epoch: 5400, Error: 0.0066568051556241134
Epoch: 5500, Error: 0.006651657598929506
Epoch: 5600, Error: 0.006541862569827294
Epoch: 5700, Error: 0.006620727621800512
Epoch: 5800, Error: 0.006402130092953482
Epoch: 5900, Error: 0.006464062376908915
Epoch: 6000, Error: 0.006369643759614464
Epoch: 6100, Error: 0.006304166440821688
Epoch: 6200, Error: 0.006259433055672393
Epoch: 6300, Error: 0.006252770386641267
Epoch: 6400, Error: 0.006219450882252561
Epoch: 6500, Error: 0.00631507713738995
Epoch: 6600, Error: 0.006181192491908549
Epoch: 6700, Error: 0.006184886515543276
Epoch: 6800, Error: 0.006160520731245387
Epoch: 6900, Error: 0.006150994200216427
Epoch: 7000, Error: 0.006217776379455313
Epoch: 7100, Error: 0.006158155268784295
Epoch: 7200, Error: 0.006169221190318129
Epoch: 7300, Error: 0.006138890615894049
Epoch: 7400, Error: 0.006164430425993097
Epoch: 7500, Error: 0.006190914763261145
Epoch: 7600, Error: 0.0061488721199225846
Epoch: 7700, Error: 0.006157983899417411
Epoch: 7800, Error: 0.0060739350225428035
Epoch: 7900, Error: 0.0061123018131940795
Epoch: 8000, Error: 0.006066831215250378
Epoch: 8100, Error: 0.006151468288673045
Epoch: 8200, Error: 0.006120916337316332
Epoch: 8300, Error: 0.0061306946020397825
Epoch: 8400, Error: 0.006169046437978658
Epoch: 8500, Error: 0.006191348768629969
Epoch: 8600, Error: 0.006216491879478917
Epoch: 8700, Error: 0.006202020857382823
Epoch: 8800, Error: 0.006228207015030374
Epoch: 8900, Error: 0.0061912778713554524
Epoch: 9000, Error: 0.00617367208676877
Epoch: 9100, Error: 0.006196098735601145
Epoch: 9200, Error: 0.006160486827018823
Epoch: 9300, Error: 0.006153163787395407
Epoch: 9400, Error: 0.006131533688719186
Epoch: 9500, Error: 0.006139062174418178
Epoch: 9600, Error: 0.006139911816441538
Epoch: 9700, Error: 0.006084182752618544
Epoch: 9800, Error: 0.006081543951990999
Epoch: 9900, Error: 0.006068647648712547
Epoch: 10000, Error: 0.006091971792597666
Epoch: 10100, Error: 0.0060595690506467645
Epoch: 10200, Error: 0.006068115263822384
Epoch: 10300, Error: 0.006058117529842246
Epoch: 10400, Error: 0.006047548749835758
Epoch: 10500, Error: 0.006053688731814376
Finished
