Input Patterns
0.224 0.624 0.067 0.043 
0.11 0.502 0.051 0.043 
0.196 0.667 0.067 0.043 
0.055 0.584 0.067 0.082 
0.027 0.376 0.067 0.043 
0.306 0.71 0.086 0.043 
0.137 0.416 0.067 0.0 
0.416 0.831 0.035 0.043 
0.306 0.792 0.051 0.125 
0.388 0.749 0.118 0.082 
0.306 0.584 0.118 0.043 
0.082 0.667 0.0 0.043 
0.137 0.584 0.153 0.043 
0.196 0.584 0.102 0.125 
0.251 0.584 0.067 0.043 
0.137 0.459 0.102 0.043 
0.251 0.875 0.086 0.0 
0.165 0.459 0.086 0.043 
0.333 0.624 0.051 0.043 
0.027 0.416 0.051 0.043 
0.196 0.624 0.051 0.082 
0.027 0.502 0.051 0.043 
0.224 0.749 0.153 0.125 
0.224 0.749 0.102 0.043 
0.278 0.71 0.086 0.043 
0.165 0.416 0.067 0.043 
0.082 0.459 0.086 0.043 
0.306 0.792 0.118 0.125 
0.196 0.584 0.086 0.043 
0.165 0.459 0.086 0.0 
0.137 0.584 0.102 0.043 
0.0 0.416 0.016 0.0 
0.388 1.0 0.086 0.125 
0.224 0.624 0.067 0.082 
0.224 0.749 0.086 0.082 
0.224 0.71 0.086 0.125 
0.224 0.541 0.118 0.165 
0.196 0.416 0.102 0.043 
0.251 0.624 0.086 0.043 
0.11 0.502 0.102 0.043 
0.306 0.584 0.086 0.125 
0.333 0.918 0.067 0.043 
0.196 0.502 0.035 0.043 
0.165 0.667 0.067 0.0 
0.224 0.584 0.086 0.043 
0.055 0.125 0.051 0.082 
0.196 0.624 0.102 0.208 
0.137 0.416 0.067 0.082 
0.082 0.502 0.067 0.043 
0.196 0.541 0.067 0.043 
0.749 0.502 0.627 0.541 
0.722 0.459 0.663 0.584 
0.612 0.333 0.612 0.584 
0.557 0.541 0.627 0.624 
0.639 0.376 0.612 0.498 
0.196 0.0 0.424 0.376 
0.471 0.082 0.51 0.376 
0.361 0.376 0.439 0.498 
0.361 0.416 0.592 0.584 
0.529 0.082 0.592 0.584 
0.443 0.502 0.643 0.459 
0.557 0.208 0.663 0.584 
0.584 0.376 0.561 0.498 
0.694 0.333 0.643 0.541 
0.471 0.376 0.592 0.584 
0.333 0.169 0.475 0.416 
0.416 0.29 0.49 0.459 
0.306 0.416 0.592 0.584 
0.667 0.459 0.627 0.584 
0.361 0.416 0.525 0.498 
0.333 0.251 0.576 0.459 
0.416 0.251 0.51 0.459 
0.361 0.29 0.541 0.498 
0.388 0.376 0.541 0.498 
0.224 0.208 0.337 0.416 
0.584 0.502 0.592 0.584 
0.333 0.125 0.51 0.498 
0.388 0.333 0.592 0.498 
0.165 0.169 0.388 0.376 
0.251 0.29 0.49 0.541 
0.443 0.416 0.541 0.584 
0.498 0.376 0.627 0.541 
0.667 0.459 0.576 0.541 
0.416 0.29 0.525 0.376 
0.361 0.208 0.49 0.416 
0.498 0.333 0.51 0.498 
0.498 0.333 0.627 0.459 
0.639 0.416 0.576 0.541 
0.667 0.416 0.678 0.667 
0.388 0.251 0.424 0.376 
0.333 0.169 0.459 0.376 
0.471 0.29 0.694 0.624 
0.471 0.584 0.592 0.624 
0.557 0.125 0.576 0.498 
0.333 0.208 0.51 0.498 
0.498 0.416 0.612 0.541 
0.196 0.125 0.388 0.376 
0.388 0.416 0.541 0.459 
0.529 0.376 0.561 0.498 
0.388 0.333 0.525 0.498 
0.557 0.541 0.847 1.0 
0.776 0.416 0.831 0.831 
0.612 0.416 0.812 0.875 
0.165 0.208 0.592 0.667 
0.667 0.208 0.812 0.71 
0.612 0.502 0.694 0.792 
0.694 0.416 0.761 0.831 
0.416 0.333 0.694 0.957 
0.612 0.416 0.761 0.71 
0.945 0.251 1.0 0.918 
0.722 0.502 0.796 0.918 
0.945 0.333 0.965 0.792 
0.667 0.541 0.796 0.831 
0.529 0.333 0.643 0.71 
0.584 0.333 0.78 0.831 
0.863 0.333 0.863 0.749 
0.584 0.333 0.78 0.875 
0.498 0.251 0.78 0.541 
0.557 0.584 0.78 0.957 
0.471 0.416 0.643 0.71 
0.667 0.459 0.78 0.957 
0.416 0.29 0.694 0.749 
0.667 0.541 0.796 1.0 
0.557 0.208 0.678 0.749 
0.529 0.584 0.745 0.918 
0.416 0.29 0.694 0.749 
0.557 0.376 0.78 0.71 
0.918 0.416 0.949 0.831 
0.835 0.376 0.898 0.71 
0.804 0.667 0.863 1.0 
0.584 0.29 0.729 0.749 
0.388 0.208 0.678 0.792 
0.584 0.502 0.729 0.918 
0.945 0.749 0.965 0.875 
0.471 0.082 0.678 0.584 
0.361 0.333 0.663 0.792 
0.557 0.29 0.663 0.71 
0.804 0.502 0.847 0.71 
0.498 0.416 0.51 0.71 
0.804 0.416 0.812 0.624 
1.0 0.749 0.914 0.792 
0.557 0.333 0.694 0.584 
0.945 0.416 0.863 0.918 
0.584 0.459 0.761 0.71 
0.722 0.459 0.745 0.831 
0.722 0.459 0.694 0.918 
0.694 0.502 0.831 0.918 
0.667 0.416 0.714 0.918 
0.612 0.416 0.714 0.792 
0.443 0.416 0.694 0.71 
Teaching Patterns
1.0 0.0 0.0 
1.0 0.0 0.0 
1.0 0.0 0.0 
1.0 0.0 0.0 
1.0 0.0 0.0 
1.0 0.0 0.0 
1.0 0.0 0.0 
1.0 0.0 0.0 
1.0 0.0 0.0 
1.0 0.0 0.0 
1.0 0.0 0.0 
1.0 0.0 0.0 
1.0 0.0 0.0 
1.0 0.0 0.0 
1.0 0.0 0.0 
1.0 0.0 0.0 
1.0 0.0 0.0 
1.0 0.0 0.0 
1.0 0.0 0.0 
1.0 0.0 0.0 
1.0 0.0 0.0 
1.0 0.0 0.0 
1.0 0.0 0.0 
1.0 0.0 0.0 
1.0 0.0 0.0 
1.0 0.0 0.0 
1.0 0.0 0.0 
1.0 0.0 0.0 
1.0 0.0 0.0 
1.0 0.0 0.0 
1.0 0.0 0.0 
1.0 0.0 0.0 
1.0 0.0 0.0 
1.0 0.0 0.0 
1.0 0.0 0.0 
1.0 0.0 0.0 
1.0 0.0 0.0 
1.0 0.0 0.0 
1.0 0.0 0.0 
1.0 0.0 0.0 
1.0 0.0 0.0 
1.0 0.0 0.0 
1.0 0.0 0.0 
1.0 0.0 0.0 
1.0 0.0 0.0 
1.0 0.0 0.0 
1.0 0.0 0.0 
1.0 0.0 0.0 
1.0 0.0 0.0 
1.0 0.0 0.0 
0.0 1.0 0.0 
0.0 1.0 0.0 
0.0 1.0 0.0 
0.0 1.0 0.0 
0.0 1.0 0.0 
0.0 1.0 0.0 
0.0 1.0 0.0 
0.0 1.0 0.0 
0.0 1.0 0.0 
0.0 1.0 0.0 
0.0 1.0 0.0 
0.0 1.0 0.0 
0.0 1.0 0.0 
0.0 1.0 0.0 
0.0 1.0 0.0 
0.0 1.0 0.0 
0.0 1.0 0.0 
0.0 1.0 0.0 
0.0 1.0 0.0 
0.0 1.0 0.0 
0.0 1.0 0.0 
0.0 1.0 0.0 
0.0 1.0 0.0 
0.0 1.0 0.0 
0.0 1.0 0.0 
0.0 1.0 0.0 
0.0 1.0 0.0 
0.0 1.0 0.0 
0.0 1.0 0.0 
0.0 1.0 0.0 
0.0 1.0 0.0 
0.0 1.0 0.0 
0.0 1.0 0.0 
0.0 1.0 0.0 
0.0 1.0 0.0 
0.0 1.0 0.0 
0.0 1.0 0.0 
0.0 1.0 0.0 
0.0 1.0 0.0 
0.0 1.0 0.0 
0.0 1.0 0.0 
0.0 1.0 0.0 
0.0 1.0 0.0 
0.0 1.0 0.0 
0.0 1.0 0.0 
0.0 1.0 0.0 
0.0 1.0 0.0 
0.0 1.0 0.0 
0.0 1.0 0.0 
0.0 1.0 0.0 
0.0 0.0 1.0 
0.0 0.0 1.0 
0.0 0.0 1.0 
0.0 0.0 1.0 
0.0 0.0 1.0 
0.0 0.0 1.0 
0.0 0.0 1.0 
0.0 0.0 1.0 
0.0 0.0 1.0 
0.0 0.0 1.0 
0.0 0.0 1.0 
0.0 0.0 1.0 
0.0 0.0 1.0 
0.0 0.0 1.0 
0.0 0.0 1.0 
0.0 0.0 1.0 
0.0 0.0 1.0 
0.0 0.0 1.0 
0.0 0.0 1.0 
0.0 0.0 1.0 
0.0 0.0 1.0 
0.0 0.0 1.0 
0.0 0.0 1.0 
0.0 0.0 1.0 
0.0 0.0 1.0 
0.0 0.0 1.0 
0.0 0.0 1.0 
0.0 0.0 1.0 
0.0 0.0 1.0 
0.0 0.0 1.0 
0.0 0.0 1.0 
0.0 0.0 1.0 
0.0 0.0 1.0 
0.0 0.0 1.0 
0.0 0.0 1.0 
0.0 0.0 1.0 
0.0 0.0 1.0 
0.0 0.0 1.0 
0.0 0.0 1.0 
0.0 0.0 1.0 
0.0 0.0 1.0 
0.0 0.0 1.0 
0.0 0.0 1.0 
0.0 0.0 1.0 
0.0 0.0 1.0 
0.0 0.0 1.0 
0.0 0.0 1.0 
0.0 0.0 1.0 
0.0 0.0 1.0 
0.0 0.0 1.0 
Learning : 0.20000000298023224
Momentum : 0.9
Epoch: 100, Error: 0.023188113480649402
Epoch: 200, Error: 0.01318104481407079
Epoch: 300, Error: 0.012573654409271611
Epoch: 400, Error: 0.015040049240780217
Epoch: 500, Error: 0.01305859979906966
Epoch: 600, Error: 0.015760081237107548
Epoch: 700, Error: 0.012249751912515516
Epoch: 800, Error: 0.012433913942084106
Epoch: 900, Error: 0.012320738456847658
Epoch: 1000, Error: 0.012183524982143683
Epoch: 1100, Error: 0.013025340368868762
Epoch: 1200, Error: 0.012506632738272199
Epoch: 1300, Error: 0.012028290999846324
Epoch: 1400, Error: 0.012310683382349485
Epoch: 1500, Error: 0.011878474346524144
Epoch: 1600, Error: 0.011870558191247651
Epoch: 1700, Error: 0.012228990246050678
Epoch: 1800, Error: 0.011797929200948288
Epoch: 1900, Error: 0.01183479305038293
Epoch: 2000, Error: 0.011794922824248225
Epoch: 2100, Error: 0.011940249917465156
Epoch: 2200, Error: 0.01228023623574613
Epoch: 2300, Error: 0.011611350949893197
Epoch: 2400, Error: 0.012089017201540018
Epoch: 2500, Error: 0.011419950395381805
Epoch: 2600, Error: 0.011374239031898723
Epoch: 2700, Error: 0.011189334009323364
Epoch: 2800, Error: 0.011147895549360732
Epoch: 2900, Error: 0.010974654423042924
Epoch: 3000, Error: 0.010650742656995064
Epoch: 3100, Error: 0.010626633504187733
Epoch: 3200, Error: 0.00993125887213689
Epoch: 3300, Error: 0.00945031522523887
Epoch: 3400, Error: 0.00894570767261396
Epoch: 3500, Error: 0.008374555067308897
Epoch: 3600, Error: 0.00799526553831129
Epoch: 3700, Error: 0.0075100911090386765
Epoch: 3800, Error: 0.0071911162108462285
Epoch: 3900, Error: 0.00684750361887236
Epoch: 4000, Error: 0.0064785883445819745
Epoch: 4100, Error: 0.006376339983278744
Epoch: 4200, Error: 0.006097098823670599
Epoch: 4300, Error: 0.005983285973754766
Epoch: 4400, Error: 0.0058988697591748004
Epoch: 4500, Error: 0.0058560192143513375
Epoch: 4600, Error: 0.005903214095781107
Epoch: 4700, Error: 0.005837213647946487
Epoch: 4800, Error: 0.00578027298443767
Epoch: 4900, Error: 0.005820447957517217
Epoch: 5000, Error: 0.005809632263447184
Epoch: 5100, Error: 0.005869297857145332
Epoch: 5200, Error: 0.005798977831641879
Epoch: 5300, Error: 0.005805989679902974
Epoch: 5400, Error: 0.005727497235659523
Epoch: 5500, Error: 0.005685824432572267
Epoch: 5600, Error: 0.005698653342642979
Epoch: 5700, Error: 0.005648210688924701
Epoch: 5800, Error: 0.005593397967979496
Epoch: 5900, Error: 0.0055516450807401255
Epoch: 6000, Error: 0.005540793840829521
Epoch: 6100, Error: 0.0055079585298139075
Epoch: 6200, Error: 0.005502434381389229
Epoch: 6300, Error: 0.005473826775361997
Epoch: 6400, Error: 0.005460775159949153
Epoch: 6500, Error: 0.005436728050071379
Epoch: 6600, Error: 0.005410771366756009
Epoch: 6700, Error: 0.005422743354304722
Epoch: 6800, Error: 0.005381649629497587
Epoch: 6900, Error: 0.005365608493267629
Epoch: 7000, Error: 0.005389463402827262
Epoch: 7100, Error: 0.005341557059323405
Epoch: 7200, Error: 0.005307033326259485
Epoch: 7300, Error: 0.00532557932472333
Epoch: 7400, Error: 0.005255877125978471
Epoch: 7500, Error: 0.005210448610804906
Epoch: 7600, Error: 0.0052597486199238595
Epoch: 7700, Error: 0.005110160882525079
Epoch: 7800, Error: 0.005111275509328371
Epoch: 7900, Error: 0.005106347643486168
Epoch: 8000, Error: 0.004960698161036806
Epoch: 8100, Error: 0.00506110983372692
Epoch: 8200, Error: 0.0048568308840149215
Epoch: 8300, Error: 0.004783573758472068
Epoch: 8400, Error: 0.004964973339193093
Epoch: 8500, Error: 0.0046974082336146816
Epoch: 8600, Error: 0.00456377102640501
Epoch: 8700, Error: 0.004688706780779101
Epoch: 8800, Error: 0.004490454707819902
Epoch: 8900, Error: 0.004481593218534859
Epoch: 9000, Error: 0.004567043790832043
Epoch: 9100, Error: 0.0044978897444411334
Epoch: 9200, Error: 0.0042534670761969
Epoch: 9300, Error: 0.004186736307921056
Epoch: 9400, Error: 0.004489376888270265
Epoch: 9500, Error: 0.004134905317980969
Epoch: 9600, Error: 0.0039126773695833915
Epoch: 9700, Error: 0.004166486686144924
Epoch: 9800, Error: 0.003767043134655142
Epoch: 9900, Error: 0.004425859500739157
Epoch: 10000, Error: 0.003828150862982819
Epoch: 10100, Error: 0.0038362536829886565
Epoch: 10200, Error: 0.0037272345196169903
Epoch: 10300, Error: 0.0033575110668737553
Epoch: 10400, Error: 0.0032761820130134457
Epoch: 10500, Error: 0.003417532891260223
Epoch: 10600, Error: 0.0040743054772988336
Epoch: 10700, Error: 0.0031885749564092352
Epoch: 10800, Error: 0.0035126538078548084
Epoch: 10900, Error: 0.002963240276863359
Epoch: 11000, Error: 0.003371054215392375
Epoch: 11100, Error: 0.004150359913095004
Epoch: 11200, Error: 0.003084028886482538
Epoch: 11300, Error: 0.0033136774217683677
Epoch: 11400, Error: 0.002658217264922192
Epoch: 11500, Error: 0.0029163951850553
Epoch: 11600, Error: 0.0024948429407228787
Epoch: 11700, Error: 0.0037549681782536363
Epoch: 11800, Error: 0.0025221523085767012
Epoch: 11900, Error: 0.0024561866710194153
Epoch: 12000, Error: 0.002709141383955874
Epoch: 12100, Error: 0.0028276569156939053
Epoch: 12200, Error: 0.002183182981798455
Epoch: 12300, Error: 0.0035389673904661317
Epoch: 12400, Error: 0.0035143266964209378
Epoch: 12500, Error: 0.003091842375943744
Epoch: 12600, Error: 0.002398940122531082
Epoch: 12700, Error: 0.0020588939157409497
Epoch: 12800, Error: 0.002031601055021563
Epoch: 12900, Error: 0.002973093469766567
Epoch: 13000, Error: 0.0019478884694996415
Epoch: 13100, Error: 0.0029923009704186363
Epoch: 13200, Error: 0.002716429441972102
Epoch: 13300, Error: 0.0017460870224427518
Epoch: 13400, Error: 0.0016984238692189205
Epoch: 13500, Error: 0.0019282233877959778
Epoch: 13600, Error: 0.001778955655353463
Epoch: 13700, Error: 0.002424535739258544
Epoch: 13800, Error: 0.0018069041771164205
Epoch: 13900, Error: 0.0018349893765013494
Epoch: 14000, Error: 0.0017377409871298173
Epoch: 14100, Error: 0.0021469896232697953
Epoch: 14200, Error: 0.001922387780664263
Epoch: 14300, Error: 0.0016269451311320667
Epoch: 14400, Error: 0.0019442517970175246
Epoch: 14500, Error: 0.0017059455642807334
Epoch: 14600, Error: 0.001469959504838726
Epoch: 14700, Error: 0.0014594161893740033
Epoch: 14800, Error: 0.0014817735351219104
Epoch: 14900, Error: 0.0014425020136169544
Epoch: 15000, Error: 0.001525003492247544
Epoch: 15100, Error: 0.0015621140535171307
Epoch: 15200, Error: 0.001465236698286751
Epoch: 15300, Error: 0.001501185524062016
Epoch: 15400, Error: 0.0015192352346681535
Epoch: 15500, Error: 0.0015549518238131177
Epoch: 15600, Error: 0.0015522944538745075
Epoch: 15700, Error: 0.0014846761940179012
Epoch: 15800, Error: 0.0015550116800407713
Epoch: 15900, Error: 0.0015688501616635713
Epoch: 16000, Error: 0.0014819481650777862
Epoch: 16100, Error: 0.001403831795511048
Epoch: 16200, Error: 0.001407653961780373
Epoch: 16300, Error: 0.0014033287740573774
Epoch: 16400, Error: 0.001425655232139559
Epoch: 16500, Error: 0.0014105906431113506
Epoch: 16600, Error: 0.001380533354401497
Epoch: 16700, Error: 0.0016619423151526924
Epoch: 16800, Error: 0.0013967105541483405
Epoch: 16900, Error: 0.001396096044930293
Epoch: 17000, Error: 0.0014019644582286316
Epoch: 17100, Error: 0.0014603927681746324
Epoch: 17200, Error: 0.0013891353546950725
Epoch: 17300, Error: 0.0014269164206741655
Epoch: 17400, Error: 0.0014098383410156646
Epoch: 17500, Error: 0.0013635389818574526
Epoch: 17600, Error: 0.001368437080225803
Epoch: 17700, Error: 0.0014395481579615424
Epoch: 17800, Error: 0.0014028942203342786
Epoch: 17900, Error: 0.0014284277635663813
Epoch: 18000, Error: 0.0013878884384019112
Epoch: 18100, Error: 0.0013948018559042032
Epoch: 18200, Error: 0.0013906181960758309
Epoch: 18300, Error: 0.0014153463696278989
Epoch: 18400, Error: 0.0014162153116759164
Epoch: 18500, Error: 0.0014174200785374807
Epoch: 18600, Error: 0.001407884127318081
Epoch: 18700, Error: 0.001371583878537363
Epoch: 18800, Error: 0.0013949644917779346
Epoch: 18900, Error: 0.0013702753703181594
Epoch: 19000, Error: 0.0013739058122343559
Epoch: 19100, Error: 0.0013535716672482202
Epoch: 19200, Error: 0.0013475380989159355
Epoch: 19300, Error: 0.001339257969659267
Epoch: 19400, Error: 0.0014027513819744083
Epoch: 19500, Error: 0.0014161447942013757
Epoch: 19600, Error: 0.00141520993097801
Epoch: 19700, Error: 0.0014269040789308108
Epoch: 19800, Error: 0.0014569869709769516
Epoch: 19900, Error: 0.0014032697051646309
Epoch: 20000, Error: 0.001391413227221235
Epoch: 20100, Error: 0.0013767746448130206
Epoch: 20200, Error: 0.0013609885312318385
Epoch: 20300, Error: 0.0013110003873127675
Epoch: 20400, Error: 0.0013003274538169577
Epoch: 20500, Error: 0.001282469147463454
Epoch: 20600, Error: 0.0012875975000862828
Epoch: 20700, Error: 0.0012822274684310393
Epoch: 20800, Error: 0.001244419349386136
Epoch: 20900, Error: 0.0012569022068822588
Epoch: 21000, Error: 0.0012360923631275392
Epoch: 21100, Error: 0.0012299181082955075
Epoch: 21200, Error: 0.0012532909854494289
Epoch: 21300, Error: 0.0012668634315147705
Epoch: 21400, Error: 0.0012756416974880344
Epoch: 21500, Error: 0.0012705512272002475
Epoch: 21600, Error: 0.0012884298923878513
Epoch: 21700, Error: 0.0012984357812011865
Epoch: 21800, Error: 0.0013182156460974192
Epoch: 21900, Error: 0.0013023041864318303
Epoch: 22000, Error: 0.0013148401449132778
Epoch: 22100, Error: 0.0013022128407039594
Epoch: 22200, Error: 0.0013001530378888742
Epoch: 22300, Error: 0.0013163131909572651
Epoch: 22400, Error: 0.0013193666856875276
Epoch: 22500, Error: 0.0012931883077000152
Epoch: 22600, Error: 0.0013085403281462332
Epoch: 22700, Error: 0.0013033185197012782
Epoch: 22800, Error: 0.0013127106764876614
Epoch: 22900, Error: 0.0013767799481123986
Epoch: 23000, Error: 0.0013026390978296512
Epoch: 23100, Error: 0.001299306041262627
Epoch: 23200, Error: 0.001322842712992659
Epoch: 23300, Error: 0.0012848442215522796
Epoch: 23400, Error: 0.001284222967295635
Epoch: 23500, Error: 0.0012905147036199266
Epoch: 23600, Error: 0.0012738156009091599
Epoch: 23700, Error: 0.001274084330691033
Epoch: 23800, Error: 0.0012810735474160409
Epoch: 23900, Error: 0.0012645859119534229
Epoch: 24000, Error: 0.0012575282997791411
Epoch: 24100, Error: 0.0012535311064832055
Epoch: 24200, Error: 0.0012533660360744773
Epoch: 24300, Error: 0.0012434751312543411
Epoch: 24400, Error: 0.001241002003622051
Epoch: 24500, Error: 0.0012319467410977151
Epoch: 24600, Error: 0.0012490035224013542
Epoch: 24700, Error: 0.0012359073631097006
Epoch: 24800, Error: 0.0012736681863998924
Epoch: 24900, Error: 0.001231787145899794
Epoch: 25000, Error: 0.001243180212303595
Epoch: 25100, Error: 0.001239291515788287
Epoch: 25200, Error: 0.001236947384881921
Epoch: 25300, Error: 0.0012528176730871334
Epoch: 25400, Error: 0.0012352765048849077
Finished
