Input Patterns
0.224 0.624 0.067 0.043 
0.11 0.502 0.051 0.043 
0.196 0.667 0.067 0.043 
0.055 0.584 0.067 0.082 
0.027 0.376 0.067 0.043 
0.306 0.71 0.086 0.043 
0.137 0.416 0.067 0.0 
0.416 0.831 0.035 0.043 
0.306 0.792 0.051 0.125 
0.388 0.749 0.118 0.082 
0.306 0.584 0.118 0.043 
0.082 0.667 0.0 0.043 
0.137 0.584 0.153 0.043 
0.196 0.584 0.102 0.125 
0.251 0.584 0.067 0.043 
0.137 0.459 0.102 0.043 
0.251 0.875 0.086 0.0 
0.165 0.459 0.086 0.043 
0.333 0.624 0.051 0.043 
0.027 0.416 0.051 0.043 
0.196 0.624 0.051 0.082 
0.027 0.502 0.051 0.043 
0.224 0.749 0.153 0.125 
0.224 0.749 0.102 0.043 
0.278 0.71 0.086 0.043 
0.165 0.416 0.067 0.043 
0.082 0.459 0.086 0.043 
0.306 0.792 0.118 0.125 
0.196 0.584 0.086 0.043 
0.165 0.459 0.086 0.0 
0.137 0.584 0.102 0.043 
0.0 0.416 0.016 0.0 
0.388 1.0 0.086 0.125 
0.224 0.624 0.067 0.082 
0.224 0.749 0.086 0.082 
0.224 0.71 0.086 0.125 
0.224 0.541 0.118 0.165 
0.196 0.416 0.102 0.043 
0.251 0.624 0.086 0.043 
0.11 0.502 0.102 0.043 
0.306 0.584 0.086 0.125 
0.333 0.918 0.067 0.043 
0.196 0.502 0.035 0.043 
0.165 0.667 0.067 0.0 
0.224 0.584 0.086 0.043 
0.055 0.125 0.051 0.082 
0.196 0.624 0.102 0.208 
0.137 0.416 0.067 0.082 
0.082 0.502 0.067 0.043 
0.196 0.541 0.067 0.043 
0.749 0.502 0.627 0.541 
0.722 0.459 0.663 0.584 
0.612 0.333 0.612 0.584 
0.557 0.541 0.627 0.624 
0.639 0.376 0.612 0.498 
0.196 0.0 0.424 0.376 
0.471 0.082 0.51 0.376 
0.361 0.376 0.439 0.498 
0.361 0.416 0.592 0.584 
0.529 0.082 0.592 0.584 
0.443 0.502 0.643 0.459 
0.557 0.208 0.663 0.584 
0.584 0.376 0.561 0.498 
0.694 0.333 0.643 0.541 
0.471 0.376 0.592 0.584 
0.333 0.169 0.475 0.416 
0.416 0.29 0.49 0.459 
0.306 0.416 0.592 0.584 
0.667 0.459 0.627 0.584 
0.361 0.416 0.525 0.498 
0.333 0.251 0.576 0.459 
0.416 0.251 0.51 0.459 
0.361 0.29 0.541 0.498 
0.388 0.376 0.541 0.498 
0.224 0.208 0.337 0.416 
0.584 0.502 0.592 0.584 
0.333 0.125 0.51 0.498 
0.388 0.333 0.592 0.498 
0.165 0.169 0.388 0.376 
0.251 0.29 0.49 0.541 
0.443 0.416 0.541 0.584 
0.498 0.376 0.627 0.541 
0.667 0.459 0.576 0.541 
0.416 0.29 0.525 0.376 
0.361 0.208 0.49 0.416 
0.498 0.333 0.51 0.498 
0.498 0.333 0.627 0.459 
0.639 0.416 0.576 0.541 
0.667 0.416 0.678 0.667 
0.388 0.251 0.424 0.376 
0.333 0.169 0.459 0.376 
0.471 0.29 0.694 0.624 
0.471 0.584 0.592 0.624 
0.557 0.125 0.576 0.498 
0.333 0.208 0.51 0.498 
0.498 0.416 0.612 0.541 
0.196 0.125 0.388 0.376 
0.388 0.416 0.541 0.459 
0.529 0.376 0.561 0.498 
0.388 0.333 0.525 0.498 
0.557 0.541 0.847 1.0 
0.776 0.416 0.831 0.831 
0.612 0.416 0.812 0.875 
0.165 0.208 0.592 0.667 
0.667 0.208 0.812 0.71 
0.612 0.502 0.694 0.792 
0.694 0.416 0.761 0.831 
0.416 0.333 0.694 0.957 
0.612 0.416 0.761 0.71 
0.945 0.251 1.0 0.918 
0.722 0.502 0.796 0.918 
0.945 0.333 0.965 0.792 
0.667 0.541 0.796 0.831 
0.529 0.333 0.643 0.71 
0.584 0.333 0.78 0.831 
0.863 0.333 0.863 0.749 
0.584 0.333 0.78 0.875 
0.498 0.251 0.78 0.541 
0.557 0.584 0.78 0.957 
0.471 0.416 0.643 0.71 
0.667 0.459 0.78 0.957 
0.416 0.29 0.694 0.749 
0.667 0.541 0.796 1.0 
0.557 0.208 0.678 0.749 
0.529 0.584 0.745 0.918 
0.416 0.29 0.694 0.749 
0.557 0.376 0.78 0.71 
0.918 0.416 0.949 0.831 
0.835 0.376 0.898 0.71 
0.804 0.667 0.863 1.0 
0.584 0.29 0.729 0.749 
0.388 0.208 0.678 0.792 
0.584 0.502 0.729 0.918 
0.945 0.749 0.965 0.875 
0.471 0.082 0.678 0.584 
0.361 0.333 0.663 0.792 
0.557 0.29 0.663 0.71 
0.804 0.502 0.847 0.71 
0.498 0.416 0.51 0.71 
0.804 0.416 0.812 0.624 
1.0 0.749 0.914 0.792 
0.557 0.333 0.694 0.584 
0.945 0.416 0.863 0.918 
0.584 0.459 0.761 0.71 
0.722 0.459 0.745 0.831 
0.722 0.459 0.694 0.918 
0.694 0.502 0.831 0.918 
0.667 0.416 0.714 0.918 
0.612 0.416 0.714 0.792 
0.443 0.416 0.694 0.71 
Teaching Patterns
1.0 0.0 0.0 
1.0 0.0 0.0 
1.0 0.0 0.0 
1.0 0.0 0.0 
1.0 0.0 0.0 
1.0 0.0 0.0 
1.0 0.0 0.0 
1.0 0.0 0.0 
1.0 0.0 0.0 
1.0 0.0 0.0 
1.0 0.0 0.0 
1.0 0.0 0.0 
1.0 0.0 0.0 
1.0 0.0 0.0 
1.0 0.0 0.0 
1.0 0.0 0.0 
1.0 0.0 0.0 
1.0 0.0 0.0 
1.0 0.0 0.0 
1.0 0.0 0.0 
1.0 0.0 0.0 
1.0 0.0 0.0 
1.0 0.0 0.0 
1.0 0.0 0.0 
1.0 0.0 0.0 
1.0 0.0 0.0 
1.0 0.0 0.0 
1.0 0.0 0.0 
1.0 0.0 0.0 
1.0 0.0 0.0 
1.0 0.0 0.0 
1.0 0.0 0.0 
1.0 0.0 0.0 
1.0 0.0 0.0 
1.0 0.0 0.0 
1.0 0.0 0.0 
1.0 0.0 0.0 
1.0 0.0 0.0 
1.0 0.0 0.0 
1.0 0.0 0.0 
1.0 0.0 0.0 
1.0 0.0 0.0 
1.0 0.0 0.0 
1.0 0.0 0.0 
1.0 0.0 0.0 
1.0 0.0 0.0 
1.0 0.0 0.0 
1.0 0.0 0.0 
1.0 0.0 0.0 
1.0 0.0 0.0 
0.0 1.0 0.0 
0.0 1.0 0.0 
0.0 1.0 0.0 
0.0 1.0 0.0 
0.0 1.0 0.0 
0.0 1.0 0.0 
0.0 1.0 0.0 
0.0 1.0 0.0 
0.0 1.0 0.0 
0.0 1.0 0.0 
0.0 1.0 0.0 
0.0 1.0 0.0 
0.0 1.0 0.0 
0.0 1.0 0.0 
0.0 1.0 0.0 
0.0 1.0 0.0 
0.0 1.0 0.0 
0.0 1.0 0.0 
0.0 1.0 0.0 
0.0 1.0 0.0 
0.0 1.0 0.0 
0.0 1.0 0.0 
0.0 1.0 0.0 
0.0 1.0 0.0 
0.0 1.0 0.0 
0.0 1.0 0.0 
0.0 1.0 0.0 
0.0 1.0 0.0 
0.0 1.0 0.0 
0.0 1.0 0.0 
0.0 1.0 0.0 
0.0 1.0 0.0 
0.0 1.0 0.0 
0.0 1.0 0.0 
0.0 1.0 0.0 
0.0 1.0 0.0 
0.0 1.0 0.0 
0.0 1.0 0.0 
0.0 1.0 0.0 
0.0 1.0 0.0 
0.0 1.0 0.0 
0.0 1.0 0.0 
0.0 1.0 0.0 
0.0 1.0 0.0 
0.0 1.0 0.0 
0.0 1.0 0.0 
0.0 1.0 0.0 
0.0 1.0 0.0 
0.0 1.0 0.0 
0.0 1.0 0.0 
0.0 0.0 1.0 
0.0 0.0 1.0 
0.0 0.0 1.0 
0.0 0.0 1.0 
0.0 0.0 1.0 
0.0 0.0 1.0 
0.0 0.0 1.0 
0.0 0.0 1.0 
0.0 0.0 1.0 
0.0 0.0 1.0 
0.0 0.0 1.0 
0.0 0.0 1.0 
0.0 0.0 1.0 
0.0 0.0 1.0 
0.0 0.0 1.0 
0.0 0.0 1.0 
0.0 0.0 1.0 
0.0 0.0 1.0 
0.0 0.0 1.0 
0.0 0.0 1.0 
0.0 0.0 1.0 
0.0 0.0 1.0 
0.0 0.0 1.0 
0.0 0.0 1.0 
0.0 0.0 1.0 
0.0 0.0 1.0 
0.0 0.0 1.0 
0.0 0.0 1.0 
0.0 0.0 1.0 
0.0 0.0 1.0 
0.0 0.0 1.0 
0.0 0.0 1.0 
0.0 0.0 1.0 
0.0 0.0 1.0 
0.0 0.0 1.0 
0.0 0.0 1.0 
0.0 0.0 1.0 
0.0 0.0 1.0 
0.0 0.0 1.0 
0.0 0.0 1.0 
0.0 0.0 1.0 
0.0 0.0 1.0 
0.0 0.0 1.0 
0.0 0.0 1.0 
0.0 0.0 1.0 
0.0 0.0 1.0 
0.0 0.0 1.0 
0.0 0.0 1.0 
0.0 0.0 1.0 
0.0 0.0 1.0 
Learning : 0.20000000298023224
Momentum : 0.9
Epoch: 100, Error: 0.016377263015774753
Epoch: 200, Error: 0.013659208891556826
Epoch: 300, Error: 0.014214483507476724
Epoch: 400, Error: 0.013093374606671973
Epoch: 500, Error: 0.012661072110327376
Epoch: 600, Error: 0.012506333219564689
Epoch: 700, Error: 0.012179515170192801
Epoch: 800, Error: 0.012334260151502305
Epoch: 900, Error: 0.01202196716671563
Epoch: 1000, Error: 0.012135097651627845
Epoch: 1100, Error: 0.012056151191806471
Epoch: 1200, Error: 0.01211979014575974
Epoch: 1300, Error: 0.012075439142149848
Epoch: 1400, Error: 0.01492223633550151
Epoch: 1500, Error: 0.012937057337395893
Epoch: 1600, Error: 0.012017311055633988
Epoch: 1700, Error: 0.011962227104911384
Epoch: 1800, Error: 0.011908358528331761
Epoch: 1900, Error: 0.011927380121485424
Epoch: 2000, Error: 0.012210727894835547
Epoch: 2100, Error: 0.011836781054830596
Epoch: 2200, Error: 0.011834848973894002
Epoch: 2300, Error: 0.011998760971794514
Epoch: 2400, Error: 0.012085953419549473
Epoch: 2500, Error: 0.012128466980631353
Epoch: 2600, Error: 0.011510531443783379
Epoch: 2700, Error: 0.012052247201286198
Epoch: 2800, Error: 0.01143841436909908
Epoch: 2900, Error: 0.01131919382532489
Epoch: 3000, Error: 0.011181867210619374
Epoch: 3100, Error: 0.011096151497097813
Epoch: 3200, Error: 0.010998906485785404
Epoch: 3300, Error: 0.010720543784700732
Epoch: 3400, Error: 0.010733391457608422
Epoch: 3500, Error: 0.01046874785355946
Epoch: 3600, Error: 0.010142912242990373
Epoch: 3700, Error: 0.009926288582510257
Epoch: 3800, Error: 0.009954719393694427
Epoch: 3900, Error: 0.009451021328555688
Epoch: 4000, Error: 0.009155457352247369
Epoch: 4100, Error: 0.008907057863456995
Epoch: 4200, Error: 0.008553900708181562
Epoch: 4300, Error: 0.00851641586622814
Epoch: 4400, Error: 0.007913810634672782
Epoch: 4500, Error: 0.007758487411412883
Epoch: 4600, Error: 0.007447292996334195
Epoch: 4700, Error: 0.0071739525613730044
Epoch: 4800, Error: 0.006794546672149514
Epoch: 4900, Error: 0.006612683967659786
Epoch: 5000, Error: 0.006916634116926998
Epoch: 5100, Error: 0.006411656788606107
Epoch: 5200, Error: 0.006105890497495414
Epoch: 5300, Error: 0.006032809789276449
Epoch: 5400, Error: 0.006176747900951589
Epoch: 5500, Error: 0.005888387412088775
Epoch: 5600, Error: 0.0057920705821157105
Epoch: 5700, Error: 0.005928919142786534
Epoch: 5800, Error: 0.005673305527764301
Epoch: 5900, Error: 0.005804570277360633
Epoch: 6000, Error: 0.005634548332169544
Epoch: 6100, Error: 0.00560205504462601
Epoch: 6200, Error: 0.005575671013024929
Epoch: 6300, Error: 0.005520899565764295
Epoch: 6400, Error: 0.0056181470326528565
Epoch: 6500, Error: 0.005588764828175648
Epoch: 6600, Error: 0.005552747845633733
Epoch: 6700, Error: 0.005568026316019607
Epoch: 6800, Error: 0.005521880892092244
Epoch: 6900, Error: 0.005568886592808274
Epoch: 7000, Error: 0.005572261118290205
Epoch: 7100, Error: 0.005557196774055226
Epoch: 7200, Error: 0.005580968083628671
Epoch: 7300, Error: 0.0055436929541475945
Epoch: 7400, Error: 0.005558668572860254
Epoch: 7500, Error: 0.005561329232345886
Epoch: 7600, Error: 0.005553358094516002
Epoch: 7700, Error: 0.0056158491331383615
Epoch: 7800, Error: 0.005571506438916492
Epoch: 7900, Error: 0.005587627597956554
Epoch: 8000, Error: 0.005590392813803224
Epoch: 8100, Error: 0.005642754135185201
Epoch: 8200, Error: 0.005605651236674503
Epoch: 8300, Error: 0.005642653380252681
Epoch: 8400, Error: 0.005652270367572258
Epoch: 8500, Error: 0.005756556252299677
Epoch: 8600, Error: 0.005679396882673465
Epoch: 8700, Error: 0.005725911272404369
Epoch: 8800, Error: 0.005826155977493296
Epoch: 8900, Error: 0.005797590477038056
Epoch: 9000, Error: 0.005787603109832896
Epoch: 9100, Error: 0.005883750215334639
Epoch: 9200, Error: 0.0058440715364975505
Epoch: 9300, Error: 0.005867362060955718
Epoch: 9400, Error: 0.005832343416749011
Epoch: 9500, Error: 0.005814913035120897
Epoch: 9600, Error: 0.005857529298433222
Epoch: 9700, Error: 0.005809277327318204
Epoch: 9800, Error: 0.005809200988560627
Epoch: 9900, Error: 0.005790028808682382
Epoch: 10000, Error: 0.005766245136625176
Epoch: 10100, Error: 0.005798918416964483
Finished
