Input Patterns
0.224 0.624 0.067 0.043 
0.11 0.502 0.051 0.043 
0.196 0.667 0.067 0.043 
0.055 0.584 0.067 0.082 
0.027 0.376 0.067 0.043 
0.306 0.71 0.086 0.043 
0.137 0.416 0.067 0.0 
0.416 0.831 0.035 0.043 
0.306 0.792 0.051 0.125 
0.388 0.749 0.118 0.082 
0.306 0.584 0.118 0.043 
0.082 0.667 0.0 0.043 
0.137 0.584 0.153 0.043 
0.196 0.584 0.102 0.125 
0.251 0.584 0.067 0.043 
0.137 0.459 0.102 0.043 
0.251 0.875 0.086 0.0 
0.165 0.459 0.086 0.043 
0.333 0.624 0.051 0.043 
0.027 0.416 0.051 0.043 
0.196 0.624 0.051 0.082 
0.027 0.502 0.051 0.043 
0.224 0.749 0.153 0.125 
0.224 0.749 0.102 0.043 
0.278 0.71 0.086 0.043 
0.165 0.416 0.067 0.043 
0.082 0.459 0.086 0.043 
0.306 0.792 0.118 0.125 
0.196 0.584 0.086 0.043 
0.165 0.459 0.086 0.0 
0.137 0.584 0.102 0.043 
0.0 0.416 0.016 0.0 
0.388 1.0 0.086 0.125 
0.224 0.624 0.067 0.082 
0.224 0.749 0.086 0.082 
0.224 0.71 0.086 0.125 
0.224 0.541 0.118 0.165 
0.196 0.416 0.102 0.043 
0.251 0.624 0.086 0.043 
0.11 0.502 0.102 0.043 
0.306 0.584 0.086 0.125 
0.333 0.918 0.067 0.043 
0.196 0.502 0.035 0.043 
0.165 0.667 0.067 0.0 
0.224 0.584 0.086 0.043 
0.055 0.125 0.051 0.082 
0.196 0.624 0.102 0.208 
0.137 0.416 0.067 0.082 
0.082 0.502 0.067 0.043 
0.196 0.541 0.067 0.043 
0.749 0.502 0.627 0.541 
0.722 0.459 0.663 0.584 
0.612 0.333 0.612 0.584 
0.557 0.541 0.627 0.624 
0.639 0.376 0.612 0.498 
0.196 0.0 0.424 0.376 
0.471 0.082 0.51 0.376 
0.361 0.376 0.439 0.498 
0.361 0.416 0.592 0.584 
0.529 0.082 0.592 0.584 
0.443 0.502 0.643 0.459 
0.557 0.208 0.663 0.584 
0.584 0.376 0.561 0.498 
0.694 0.333 0.643 0.541 
0.471 0.376 0.592 0.584 
0.333 0.169 0.475 0.416 
0.416 0.29 0.49 0.459 
0.306 0.416 0.592 0.584 
0.667 0.459 0.627 0.584 
0.361 0.416 0.525 0.498 
0.333 0.251 0.576 0.459 
0.416 0.251 0.51 0.459 
0.361 0.29 0.541 0.498 
0.388 0.376 0.541 0.498 
0.224 0.208 0.337 0.416 
0.584 0.502 0.592 0.584 
0.333 0.125 0.51 0.498 
0.388 0.333 0.592 0.498 
0.165 0.169 0.388 0.376 
0.251 0.29 0.49 0.541 
0.443 0.416 0.541 0.584 
0.498 0.376 0.627 0.541 
0.667 0.459 0.576 0.541 
0.416 0.29 0.525 0.376 
0.361 0.208 0.49 0.416 
0.498 0.333 0.51 0.498 
0.498 0.333 0.627 0.459 
0.639 0.416 0.576 0.541 
0.667 0.416 0.678 0.667 
0.388 0.251 0.424 0.376 
0.333 0.169 0.459 0.376 
0.471 0.29 0.694 0.624 
0.471 0.584 0.592 0.624 
0.557 0.125 0.576 0.498 
0.333 0.208 0.51 0.498 
0.498 0.416 0.612 0.541 
0.196 0.125 0.388 0.376 
0.388 0.416 0.541 0.459 
0.529 0.376 0.561 0.498 
0.388 0.333 0.525 0.498 
0.557 0.541 0.847 1.0 
0.776 0.416 0.831 0.831 
0.612 0.416 0.812 0.875 
0.165 0.208 0.592 0.667 
0.667 0.208 0.812 0.71 
0.612 0.502 0.694 0.792 
0.694 0.416 0.761 0.831 
0.416 0.333 0.694 0.957 
0.612 0.416 0.761 0.71 
0.945 0.251 1.0 0.918 
0.722 0.502 0.796 0.918 
0.945 0.333 0.965 0.792 
0.667 0.541 0.796 0.831 
0.529 0.333 0.643 0.71 
0.584 0.333 0.78 0.831 
0.863 0.333 0.863 0.749 
0.584 0.333 0.78 0.875 
0.498 0.251 0.78 0.541 
0.557 0.584 0.78 0.957 
0.471 0.416 0.643 0.71 
0.667 0.459 0.78 0.957 
0.416 0.29 0.694 0.749 
0.667 0.541 0.796 1.0 
0.557 0.208 0.678 0.749 
0.529 0.584 0.745 0.918 
0.416 0.29 0.694 0.749 
0.557 0.376 0.78 0.71 
0.918 0.416 0.949 0.831 
0.835 0.376 0.898 0.71 
0.804 0.667 0.863 1.0 
0.584 0.29 0.729 0.749 
0.388 0.208 0.678 0.792 
0.584 0.502 0.729 0.918 
0.945 0.749 0.965 0.875 
0.471 0.082 0.678 0.584 
0.361 0.333 0.663 0.792 
0.557 0.29 0.663 0.71 
0.804 0.502 0.847 0.71 
0.498 0.416 0.51 0.71 
0.804 0.416 0.812 0.624 
1.0 0.749 0.914 0.792 
0.557 0.333 0.694 0.584 
0.945 0.416 0.863 0.918 
0.584 0.459 0.761 0.71 
0.722 0.459 0.745 0.831 
0.722 0.459 0.694 0.918 
0.694 0.502 0.831 0.918 
0.667 0.416 0.714 0.918 
0.612 0.416 0.714 0.792 
0.443 0.416 0.694 0.71 
Teaching Patterns
1.0 0.0 0.0 
1.0 0.0 0.0 
1.0 0.0 0.0 
1.0 0.0 0.0 
1.0 0.0 0.0 
1.0 0.0 0.0 
1.0 0.0 0.0 
1.0 0.0 0.0 
1.0 0.0 0.0 
1.0 0.0 0.0 
1.0 0.0 0.0 
1.0 0.0 0.0 
1.0 0.0 0.0 
1.0 0.0 0.0 
1.0 0.0 0.0 
1.0 0.0 0.0 
1.0 0.0 0.0 
1.0 0.0 0.0 
1.0 0.0 0.0 
1.0 0.0 0.0 
1.0 0.0 0.0 
1.0 0.0 0.0 
1.0 0.0 0.0 
1.0 0.0 0.0 
1.0 0.0 0.0 
1.0 0.0 0.0 
1.0 0.0 0.0 
1.0 0.0 0.0 
1.0 0.0 0.0 
1.0 0.0 0.0 
1.0 0.0 0.0 
1.0 0.0 0.0 
1.0 0.0 0.0 
1.0 0.0 0.0 
1.0 0.0 0.0 
1.0 0.0 0.0 
1.0 0.0 0.0 
1.0 0.0 0.0 
1.0 0.0 0.0 
1.0 0.0 0.0 
1.0 0.0 0.0 
1.0 0.0 0.0 
1.0 0.0 0.0 
1.0 0.0 0.0 
1.0 0.0 0.0 
1.0 0.0 0.0 
1.0 0.0 0.0 
1.0 0.0 0.0 
1.0 0.0 0.0 
1.0 0.0 0.0 
0.0 1.0 0.0 
0.0 1.0 0.0 
0.0 1.0 0.0 
0.0 1.0 0.0 
0.0 1.0 0.0 
0.0 1.0 0.0 
0.0 1.0 0.0 
0.0 1.0 0.0 
0.0 1.0 0.0 
0.0 1.0 0.0 
0.0 1.0 0.0 
0.0 1.0 0.0 
0.0 1.0 0.0 
0.0 1.0 0.0 
0.0 1.0 0.0 
0.0 1.0 0.0 
0.0 1.0 0.0 
0.0 1.0 0.0 
0.0 1.0 0.0 
0.0 1.0 0.0 
0.0 1.0 0.0 
0.0 1.0 0.0 
0.0 1.0 0.0 
0.0 1.0 0.0 
0.0 1.0 0.0 
0.0 1.0 0.0 
0.0 1.0 0.0 
0.0 1.0 0.0 
0.0 1.0 0.0 
0.0 1.0 0.0 
0.0 1.0 0.0 
0.0 1.0 0.0 
0.0 1.0 0.0 
0.0 1.0 0.0 
0.0 1.0 0.0 
0.0 1.0 0.0 
0.0 1.0 0.0 
0.0 1.0 0.0 
0.0 1.0 0.0 
0.0 1.0 0.0 
0.0 1.0 0.0 
0.0 1.0 0.0 
0.0 1.0 0.0 
0.0 1.0 0.0 
0.0 1.0 0.0 
0.0 1.0 0.0 
0.0 1.0 0.0 
0.0 1.0 0.0 
0.0 1.0 0.0 
0.0 1.0 0.0 
0.0 0.0 1.0 
0.0 0.0 1.0 
0.0 0.0 1.0 
0.0 0.0 1.0 
0.0 0.0 1.0 
0.0 0.0 1.0 
0.0 0.0 1.0 
0.0 0.0 1.0 
0.0 0.0 1.0 
0.0 0.0 1.0 
0.0 0.0 1.0 
0.0 0.0 1.0 
0.0 0.0 1.0 
0.0 0.0 1.0 
0.0 0.0 1.0 
0.0 0.0 1.0 
0.0 0.0 1.0 
0.0 0.0 1.0 
0.0 0.0 1.0 
0.0 0.0 1.0 
0.0 0.0 1.0 
0.0 0.0 1.0 
0.0 0.0 1.0 
0.0 0.0 1.0 
0.0 0.0 1.0 
0.0 0.0 1.0 
0.0 0.0 1.0 
0.0 0.0 1.0 
0.0 0.0 1.0 
0.0 0.0 1.0 
0.0 0.0 1.0 
0.0 0.0 1.0 
0.0 0.0 1.0 
0.0 0.0 1.0 
0.0 0.0 1.0 
0.0 0.0 1.0 
0.0 0.0 1.0 
0.0 0.0 1.0 
0.0 0.0 1.0 
0.0 0.0 1.0 
0.0 0.0 1.0 
0.0 0.0 1.0 
0.0 0.0 1.0 
0.0 0.0 1.0 
0.0 0.0 1.0 
0.0 0.0 1.0 
0.0 0.0 1.0 
0.0 0.0 1.0 
0.0 0.0 1.0 
0.0 0.0 1.0 
Learning : 0.20000000298023224
Momentum : 0.9
Epoch: 100, Error: 0.018271077730903258
Epoch: 200, Error: 0.014836106166427158
Epoch: 300, Error: 0.01266522988664545
Epoch: 400, Error: 0.01405162243826298
Epoch: 500, Error: 0.012719346741993612
Epoch: 600, Error: 0.012287374577053724
Epoch: 700, Error: 0.012296225266575943
Epoch: 800, Error: 0.012480221979462164
Epoch: 900, Error: 0.0127977191724507
Epoch: 1000, Error: 0.012379813925977385
Epoch: 1100, Error: 0.012196068930384205
Epoch: 1200, Error: 0.012343599284211066
Epoch: 1300, Error: 0.012202657577931387
Epoch: 1400, Error: 0.01217572017379157
Epoch: 1500, Error: 0.0126135292159658
Epoch: 1600, Error: 0.012180802611968656
Epoch: 1700, Error: 0.012296271162944003
Epoch: 1800, Error: 0.012780141795782065
Epoch: 1900, Error: 0.012158735668673423
Epoch: 2000, Error: 0.012155684361144928
Epoch: 2100, Error: 0.012154504776820837
Epoch: 2200, Error: 0.012381469828101536
Epoch: 2300, Error: 0.012315454937368695
Epoch: 2400, Error: 0.012283512191506338
Epoch: 2500, Error: 0.011988314845897617
Epoch: 2600, Error: 0.012400524425542327
Epoch: 2700, Error: 0.012039092313947047
Epoch: 2800, Error: 0.011949670365334527
Epoch: 2900, Error: 0.01240576451638572
Epoch: 3000, Error: 0.011931477150212616
Epoch: 3100, Error: 0.011809348315808066
Epoch: 3200, Error: 0.011704087333699315
Epoch: 3300, Error: 0.011627411344336976
Epoch: 3400, Error: 0.01181576781195775
Epoch: 3500, Error: 0.011862758100199303
Epoch: 3600, Error: 0.011041319083939202
Epoch: 3700, Error: 0.010809055878281534
Epoch: 3800, Error: 0.010730457089101338
Epoch: 3900, Error: 0.010158078628218744
Epoch: 4000, Error: 0.009697454753960014
Epoch: 4100, Error: 0.00939669083765037
Epoch: 4200, Error: 0.008922307127417033
Epoch: 4300, Error: 0.008474113770120549
Epoch: 4400, Error: 0.008094965230236388
Epoch: 4500, Error: 0.007991875899666219
Epoch: 4600, Error: 0.007660664538614841
Epoch: 4700, Error: 0.007515703366167218
Epoch: 4800, Error: 0.007303897362104095
Epoch: 4900, Error: 0.0070431339419828
Epoch: 5000, Error: 0.006917238549482897
Epoch: 5100, Error: 0.006824310590482756
Epoch: 5200, Error: 0.006683729457764624
Epoch: 5300, Error: 0.006629860078264402
Epoch: 5400, Error: 0.006740149021285576
Epoch: 5500, Error: 0.006493068812299133
Epoch: 5600, Error: 0.0064890010774214316
Epoch: 5700, Error: 0.006312192860965871
Epoch: 5800, Error: 0.006306370176853252
Epoch: 5900, Error: 0.006198350791037424
Epoch: 6000, Error: 0.006166545475494511
Epoch: 6100, Error: 0.006074194995634073
Epoch: 6200, Error: 0.006082603906524526
Epoch: 6300, Error: 0.006054732575030034
Epoch: 6400, Error: 0.0060521476759321
Epoch: 6500, Error: 0.006033551819950943
Epoch: 6600, Error: 0.006010414377156727
Epoch: 6700, Error: 0.0059902364376994395
Epoch: 6800, Error: 0.006073199894788033
Epoch: 6900, Error: 0.005967943278348559
Epoch: 7000, Error: 0.006024167011615619
Epoch: 7100, Error: 0.005981764396290592
Epoch: 7200, Error: 0.005990959045683696
Epoch: 7300, Error: 0.005980762834896495
Epoch: 7400, Error: 0.005963417405015365
Epoch: 7500, Error: 0.005930628083949171
Epoch: 7600, Error: 0.005913942862896863
Epoch: 7700, Error: 0.00594766804785012
Epoch: 7800, Error: 0.005929167884866495
Epoch: 7900, Error: 0.005993505571049468
Epoch: 8000, Error: 0.005950848857506083
Epoch: 8100, Error: 0.0059562181973030585
Epoch: 8200, Error: 0.00595831366603477
Epoch: 8300, Error: 0.005982715464616504
Epoch: 8400, Error: 0.005922679593323178
Epoch: 8500, Error: 0.005921746015961194
Epoch: 8600, Error: 0.0059128734825188425
Epoch: 8700, Error: 0.005932152572386648
Epoch: 8800, Error: 0.005919641743040373
Epoch: 8900, Error: 0.005952783878562542
Epoch: 9000, Error: 0.005976314405364828
Epoch: 9100, Error: 0.005993587413257656
Epoch: 9200, Error: 0.005966573911905285
Epoch: 9300, Error: 0.005964059643788332
Epoch: 9400, Error: 0.005943644730961515
Epoch: 9500, Error: 0.005963776965211481
Epoch: 9600, Error: 0.005950299783688548
Epoch: 9700, Error: 0.005905779463738942
Epoch: 9800, Error: 0.005925881763494424
Epoch: 9900, Error: 0.005907258476605757
Epoch: 10000, Error: 0.005912464598733806
Epoch: 10100, Error: 0.00596018473498756
Epoch: 10200, Error: 0.005987415802901524
Epoch: 10300, Error: 0.00591285711713218
Epoch: 10400, Error: 0.005928737467752976
Epoch: 10500, Error: 0.005932979614071794
Epoch: 10600, Error: 0.005929080500881785
Epoch: 10700, Error: 0.005911958855744051
Finished
