Input Patterns
0.224 0.624 0.067 0.043 
0.11 0.502 0.051 0.043 
0.196 0.667 0.067 0.043 
0.055 0.584 0.067 0.082 
0.027 0.376 0.067 0.043 
0.306 0.71 0.086 0.043 
0.137 0.416 0.067 0.0 
0.416 0.831 0.035 0.043 
0.306 0.792 0.051 0.125 
0.388 0.749 0.118 0.082 
0.306 0.584 0.118 0.043 
0.082 0.667 0.0 0.043 
0.137 0.584 0.153 0.043 
0.196 0.584 0.102 0.125 
0.251 0.584 0.067 0.043 
0.137 0.459 0.102 0.043 
0.251 0.875 0.086 0.0 
0.165 0.459 0.086 0.043 
0.333 0.624 0.051 0.043 
0.027 0.416 0.051 0.043 
0.196 0.624 0.051 0.082 
0.027 0.502 0.051 0.043 
0.224 0.749 0.153 0.125 
0.224 0.749 0.102 0.043 
0.278 0.71 0.086 0.043 
0.165 0.416 0.067 0.043 
0.082 0.459 0.086 0.043 
0.306 0.792 0.118 0.125 
0.196 0.584 0.086 0.043 
0.165 0.459 0.086 0.0 
0.137 0.584 0.102 0.043 
0.0 0.416 0.016 0.0 
0.388 1.0 0.086 0.125 
0.224 0.624 0.067 0.082 
0.224 0.749 0.086 0.082 
0.224 0.71 0.086 0.125 
0.224 0.541 0.118 0.165 
0.196 0.416 0.102 0.043 
0.251 0.624 0.086 0.043 
0.11 0.502 0.102 0.043 
0.306 0.584 0.086 0.125 
0.333 0.918 0.067 0.043 
0.196 0.502 0.035 0.043 
0.165 0.667 0.067 0.0 
0.224 0.584 0.086 0.043 
0.055 0.125 0.051 0.082 
0.196 0.624 0.102 0.208 
0.137 0.416 0.067 0.082 
0.082 0.502 0.067 0.043 
0.196 0.541 0.067 0.043 
0.749 0.502 0.627 0.541 
0.722 0.459 0.663 0.584 
0.612 0.333 0.612 0.584 
0.557 0.541 0.627 0.624 
0.639 0.376 0.612 0.498 
0.196 0.0 0.424 0.376 
0.471 0.082 0.51 0.376 
0.361 0.376 0.439 0.498 
0.361 0.416 0.592 0.584 
0.529 0.082 0.592 0.584 
0.443 0.502 0.643 0.459 
0.557 0.208 0.663 0.584 
0.584 0.376 0.561 0.498 
0.694 0.333 0.643 0.541 
0.471 0.376 0.592 0.584 
0.333 0.169 0.475 0.416 
0.416 0.29 0.49 0.459 
0.306 0.416 0.592 0.584 
0.667 0.459 0.627 0.584 
0.361 0.416 0.525 0.498 
0.333 0.251 0.576 0.459 
0.416 0.251 0.51 0.459 
0.361 0.29 0.541 0.498 
0.388 0.376 0.541 0.498 
0.224 0.208 0.337 0.416 
0.584 0.502 0.592 0.584 
0.333 0.125 0.51 0.498 
0.388 0.333 0.592 0.498 
0.165 0.169 0.388 0.376 
0.251 0.29 0.49 0.541 
0.443 0.416 0.541 0.584 
0.498 0.376 0.627 0.541 
0.667 0.459 0.576 0.541 
0.416 0.29 0.525 0.376 
0.361 0.208 0.49 0.416 
0.498 0.333 0.51 0.498 
0.498 0.333 0.627 0.459 
0.639 0.416 0.576 0.541 
0.667 0.416 0.678 0.667 
0.388 0.251 0.424 0.376 
0.333 0.169 0.459 0.376 
0.471 0.29 0.694 0.624 
0.471 0.584 0.592 0.624 
0.557 0.125 0.576 0.498 
0.333 0.208 0.51 0.498 
0.498 0.416 0.612 0.541 
0.196 0.125 0.388 0.376 
0.388 0.416 0.541 0.459 
0.529 0.376 0.561 0.498 
0.388 0.333 0.525 0.498 
0.557 0.541 0.847 1.0 
0.776 0.416 0.831 0.831 
0.612 0.416 0.812 0.875 
0.165 0.208 0.592 0.667 
0.667 0.208 0.812 0.71 
0.612 0.502 0.694 0.792 
0.694 0.416 0.761 0.831 
0.416 0.333 0.694 0.957 
0.612 0.416 0.761 0.71 
0.945 0.251 1.0 0.918 
0.722 0.502 0.796 0.918 
0.945 0.333 0.965 0.792 
0.667 0.541 0.796 0.831 
0.529 0.333 0.643 0.71 
0.584 0.333 0.78 0.831 
0.863 0.333 0.863 0.749 
0.584 0.333 0.78 0.875 
0.498 0.251 0.78 0.541 
0.557 0.584 0.78 0.957 
0.471 0.416 0.643 0.71 
0.667 0.459 0.78 0.957 
0.416 0.29 0.694 0.749 
0.667 0.541 0.796 1.0 
0.557 0.208 0.678 0.749 
0.529 0.584 0.745 0.918 
0.416 0.29 0.694 0.749 
0.557 0.376 0.78 0.71 
0.918 0.416 0.949 0.831 
0.835 0.376 0.898 0.71 
0.804 0.667 0.863 1.0 
0.584 0.29 0.729 0.749 
0.388 0.208 0.678 0.792 
0.584 0.502 0.729 0.918 
0.945 0.749 0.965 0.875 
0.471 0.082 0.678 0.584 
0.361 0.333 0.663 0.792 
0.557 0.29 0.663 0.71 
0.804 0.502 0.847 0.71 
0.498 0.416 0.51 0.71 
0.804 0.416 0.812 0.624 
1.0 0.749 0.914 0.792 
0.557 0.333 0.694 0.584 
0.945 0.416 0.863 0.918 
0.584 0.459 0.761 0.71 
0.722 0.459 0.745 0.831 
0.722 0.459 0.694 0.918 
0.694 0.502 0.831 0.918 
0.667 0.416 0.714 0.918 
0.612 0.416 0.714 0.792 
0.443 0.416 0.694 0.71 
Teaching Patterns
1.0 0.0 0.0 
1.0 0.0 0.0 
1.0 0.0 0.0 
1.0 0.0 0.0 
1.0 0.0 0.0 
1.0 0.0 0.0 
1.0 0.0 0.0 
1.0 0.0 0.0 
1.0 0.0 0.0 
1.0 0.0 0.0 
1.0 0.0 0.0 
1.0 0.0 0.0 
1.0 0.0 0.0 
1.0 0.0 0.0 
1.0 0.0 0.0 
1.0 0.0 0.0 
1.0 0.0 0.0 
1.0 0.0 0.0 
1.0 0.0 0.0 
1.0 0.0 0.0 
1.0 0.0 0.0 
1.0 0.0 0.0 
1.0 0.0 0.0 
1.0 0.0 0.0 
1.0 0.0 0.0 
1.0 0.0 0.0 
1.0 0.0 0.0 
1.0 0.0 0.0 
1.0 0.0 0.0 
1.0 0.0 0.0 
1.0 0.0 0.0 
1.0 0.0 0.0 
1.0 0.0 0.0 
1.0 0.0 0.0 
1.0 0.0 0.0 
1.0 0.0 0.0 
1.0 0.0 0.0 
1.0 0.0 0.0 
1.0 0.0 0.0 
1.0 0.0 0.0 
1.0 0.0 0.0 
1.0 0.0 0.0 
1.0 0.0 0.0 
1.0 0.0 0.0 
1.0 0.0 0.0 
1.0 0.0 0.0 
1.0 0.0 0.0 
1.0 0.0 0.0 
1.0 0.0 0.0 
1.0 0.0 0.0 
0.0 1.0 0.0 
0.0 1.0 0.0 
0.0 1.0 0.0 
0.0 1.0 0.0 
0.0 1.0 0.0 
0.0 1.0 0.0 
0.0 1.0 0.0 
0.0 1.0 0.0 
0.0 1.0 0.0 
0.0 1.0 0.0 
0.0 1.0 0.0 
0.0 1.0 0.0 
0.0 1.0 0.0 
0.0 1.0 0.0 
0.0 1.0 0.0 
0.0 1.0 0.0 
0.0 1.0 0.0 
0.0 1.0 0.0 
0.0 1.0 0.0 
0.0 1.0 0.0 
0.0 1.0 0.0 
0.0 1.0 0.0 
0.0 1.0 0.0 
0.0 1.0 0.0 
0.0 1.0 0.0 
0.0 1.0 0.0 
0.0 1.0 0.0 
0.0 1.0 0.0 
0.0 1.0 0.0 
0.0 1.0 0.0 
0.0 1.0 0.0 
0.0 1.0 0.0 
0.0 1.0 0.0 
0.0 1.0 0.0 
0.0 1.0 0.0 
0.0 1.0 0.0 
0.0 1.0 0.0 
0.0 1.0 0.0 
0.0 1.0 0.0 
0.0 1.0 0.0 
0.0 1.0 0.0 
0.0 1.0 0.0 
0.0 1.0 0.0 
0.0 1.0 0.0 
0.0 1.0 0.0 
0.0 1.0 0.0 
0.0 1.0 0.0 
0.0 1.0 0.0 
0.0 1.0 0.0 
0.0 1.0 0.0 
0.0 0.0 1.0 
0.0 0.0 1.0 
0.0 0.0 1.0 
0.0 0.0 1.0 
0.0 0.0 1.0 
0.0 0.0 1.0 
0.0 0.0 1.0 
0.0 0.0 1.0 
0.0 0.0 1.0 
0.0 0.0 1.0 
0.0 0.0 1.0 
0.0 0.0 1.0 
0.0 0.0 1.0 
0.0 0.0 1.0 
0.0 0.0 1.0 
0.0 0.0 1.0 
0.0 0.0 1.0 
0.0 0.0 1.0 
0.0 0.0 1.0 
0.0 0.0 1.0 
0.0 0.0 1.0 
0.0 0.0 1.0 
0.0 0.0 1.0 
0.0 0.0 1.0 
0.0 0.0 1.0 
0.0 0.0 1.0 
0.0 0.0 1.0 
0.0 0.0 1.0 
0.0 0.0 1.0 
0.0 0.0 1.0 
0.0 0.0 1.0 
0.0 0.0 1.0 
0.0 0.0 1.0 
0.0 0.0 1.0 
0.0 0.0 1.0 
0.0 0.0 1.0 
0.0 0.0 1.0 
0.0 0.0 1.0 
0.0 0.0 1.0 
0.0 0.0 1.0 
0.0 0.0 1.0 
0.0 0.0 1.0 
0.0 0.0 1.0 
0.0 0.0 1.0 
0.0 0.0 1.0 
0.0 0.0 1.0 
0.0 0.0 1.0 
0.0 0.0 1.0 
0.0 0.0 1.0 
0.0 0.0 1.0 
Learning : 0.20000000298023224
Momentum : 0.9
Epoch: 100, Error: 0.014507129116209187
Epoch: 200, Error: 0.013217253402265873
Epoch: 300, Error: 0.013200774023531295
Epoch: 400, Error: 0.012531717586926809
Epoch: 500, Error: 0.012632502895907734
Epoch: 600, Error: 0.012101526142735745
Epoch: 700, Error: 0.01205824214703666
Epoch: 800, Error: 0.011907109231524035
Epoch: 900, Error: 0.012142410667602972
Epoch: 1000, Error: 0.013848875371689278
Epoch: 1100, Error: 0.012421527648552538
Epoch: 1200, Error: 0.01233220917296368
Epoch: 1300, Error: 0.012295932403944883
Epoch: 1400, Error: 0.01237618119618418
Epoch: 1500, Error: 0.0119193094441678
Epoch: 1600, Error: 0.01182179656164932
Epoch: 1700, Error: 0.011572111923034084
Epoch: 1800, Error: 0.01155948373228429
Epoch: 1900, Error: 0.011526110011703295
Epoch: 2000, Error: 0.011418971907574665
Epoch: 2100, Error: 0.011849662330178406
Epoch: 2200, Error: 0.011328721515570642
Epoch: 2300, Error: 0.011302787894559097
Epoch: 2400, Error: 0.011070461419209436
Epoch: 2500, Error: 0.010973309800083311
Epoch: 2600, Error: 0.010997640643088297
Epoch: 2700, Error: 0.010769177427311889
Epoch: 2800, Error: 0.010591277497615861
Epoch: 2900, Error: 0.010452754417386738
Epoch: 3000, Error: 0.01095833568870287
Epoch: 3100, Error: 0.009906328988016386
Epoch: 3200, Error: 0.00994718014031663
Epoch: 3300, Error: 0.009369563446059171
Epoch: 3400, Error: 0.009129941165612934
Epoch: 3500, Error: 0.008923209725543028
Epoch: 3600, Error: 0.008486812957053893
Epoch: 3700, Error: 0.008186988954804936
Epoch: 3800, Error: 0.007948490593225102
Epoch: 3900, Error: 0.009056601971116561
Epoch: 4000, Error: 0.007478312771762641
Epoch: 4100, Error: 0.006962623125685811
Epoch: 4200, Error: 0.006827550955433116
Epoch: 4300, Error: 0.00653288289962355
Epoch: 4400, Error: 0.006401418291173971
Epoch: 4500, Error: 0.00626447041143834
Epoch: 4600, Error: 0.006170190502887568
Epoch: 4700, Error: 0.006127853204217288
Epoch: 4800, Error: 0.006050684475923742
Epoch: 4900, Error: 0.005973722025731558
Epoch: 5000, Error: 0.006012001320973424
Epoch: 5100, Error: 0.006002656129769502
Epoch: 5200, Error: 0.005838281012629463
Epoch: 5300, Error: 0.0059157865987989324
Epoch: 5400, Error: 0.005805656233603918
Epoch: 5500, Error: 0.005816318071679523
Epoch: 5600, Error: 0.005820968559879643
Epoch: 5700, Error: 0.005811287403819484
Epoch: 5800, Error: 0.0059024913612747325
Epoch: 5900, Error: 0.005778845790271674
Epoch: 6000, Error: 0.005844253398984596
Epoch: 6100, Error: 0.005888410936694072
Epoch: 6200, Error: 0.005919212407360492
Epoch: 6300, Error: 0.005977856279317157
Epoch: 6400, Error: 0.006056789649867109
Epoch: 6500, Error: 0.006132988900902746
Epoch: 6600, Error: 0.006081330123686117
Epoch: 6700, Error: 0.006110026932305111
Epoch: 6800, Error: 0.006037332267646382
Epoch: 6900, Error: 0.006107217099132206
Epoch: 7000, Error: 0.0060676482458963
Epoch: 7100, Error: 0.006077408400411656
Epoch: 7200, Error: 0.006137121563366043
Epoch: 7300, Error: 0.006027914113205995
Epoch: 7400, Error: 0.006037627507707421
Epoch: 7500, Error: 0.0060037702091984
Epoch: 7600, Error: 0.006005966456656933
Epoch: 7700, Error: 0.006092212431243596
Epoch: 7800, Error: 0.006021855375519171
Epoch: 7900, Error: 0.006034436346444945
Epoch: 8000, Error: 0.006130122295928786
Epoch: 8100, Error: 0.006023012174895076
Epoch: 8200, Error: 0.005987817552907269
Epoch: 8300, Error: 0.006006926902585649
Epoch: 8400, Error: 0.006010972285851878
Epoch: 8500, Error: 0.006094732738233675
Epoch: 8600, Error: 0.006113184258335192
Epoch: 8700, Error: 0.006081754411458217
Epoch: 8800, Error: 0.006131205974997297
Epoch: 8900, Error: 0.006088402898702921
Epoch: 9000, Error: 0.006086976877504849
Epoch: 9100, Error: 0.006063815388546024
Epoch: 9200, Error: 0.006042802199127747
Epoch: 9300, Error: 0.006078282345306443
Epoch: 9400, Error: 0.006061302694785052
Epoch: 9500, Error: 0.006053584227497714
Epoch: 9600, Error: 0.006024711643735714
Epoch: 9700, Error: 0.006018996509186613
Epoch: 9800, Error: 0.006030639324492836
Epoch: 9900, Error: 0.006001534405195159
Epoch: 10000, Error: 0.0060142389279662905
Epoch: 10100, Error: 0.005986978719828346
Epoch: 10200, Error: 0.00599466889133411
Epoch: 10300, Error: 0.005980029909937395
Epoch: 10400, Error: 0.005977599667497356
Epoch: 10500, Error: 0.005964202838206605
Finished
