Input Patterns
0.224 0.624 0.067 0.043 
0.11 0.502 0.051 0.043 
0.196 0.667 0.067 0.043 
0.055 0.584 0.067 0.082 
0.027 0.376 0.067 0.043 
0.306 0.71 0.086 0.043 
0.137 0.416 0.067 0.0 
0.416 0.831 0.035 0.043 
0.306 0.792 0.051 0.125 
0.388 0.749 0.118 0.082 
0.306 0.584 0.118 0.043 
0.082 0.667 0.0 0.043 
0.137 0.584 0.153 0.043 
0.196 0.584 0.102 0.125 
0.251 0.584 0.067 0.043 
0.137 0.459 0.102 0.043 
0.251 0.875 0.086 0.0 
0.165 0.459 0.086 0.043 
0.333 0.624 0.051 0.043 
0.027 0.416 0.051 0.043 
0.196 0.624 0.051 0.082 
0.027 0.502 0.051 0.043 
0.224 0.749 0.153 0.125 
0.224 0.749 0.102 0.043 
0.278 0.71 0.086 0.043 
0.165 0.416 0.067 0.043 
0.082 0.459 0.086 0.043 
0.306 0.792 0.118 0.125 
0.196 0.584 0.086 0.043 
0.165 0.459 0.086 0.0 
0.137 0.584 0.102 0.043 
0.0 0.416 0.016 0.0 
0.388 1.0 0.086 0.125 
0.224 0.624 0.067 0.082 
0.224 0.749 0.086 0.082 
0.224 0.71 0.086 0.125 
0.224 0.541 0.118 0.165 
0.196 0.416 0.102 0.043 
0.251 0.624 0.086 0.043 
0.11 0.502 0.102 0.043 
0.306 0.584 0.086 0.125 
0.333 0.918 0.067 0.043 
0.196 0.502 0.035 0.043 
0.165 0.667 0.067 0.0 
0.224 0.584 0.086 0.043 
0.055 0.125 0.051 0.082 
0.196 0.624 0.102 0.208 
0.137 0.416 0.067 0.082 
0.082 0.502 0.067 0.043 
0.196 0.541 0.067 0.043 
0.749 0.502 0.627 0.541 
0.722 0.459 0.663 0.584 
0.612 0.333 0.612 0.584 
0.557 0.541 0.627 0.624 
0.639 0.376 0.612 0.498 
0.196 0.0 0.424 0.376 
0.471 0.082 0.51 0.376 
0.361 0.376 0.439 0.498 
0.361 0.416 0.592 0.584 
0.529 0.082 0.592 0.584 
0.443 0.502 0.643 0.459 
0.557 0.208 0.663 0.584 
0.584 0.376 0.561 0.498 
0.694 0.333 0.643 0.541 
0.471 0.376 0.592 0.584 
0.333 0.169 0.475 0.416 
0.416 0.29 0.49 0.459 
0.306 0.416 0.592 0.584 
0.667 0.459 0.627 0.584 
0.361 0.416 0.525 0.498 
0.333 0.251 0.576 0.459 
0.416 0.251 0.51 0.459 
0.361 0.29 0.541 0.498 
0.388 0.376 0.541 0.498 
0.224 0.208 0.337 0.416 
0.584 0.502 0.592 0.584 
0.333 0.125 0.51 0.498 
0.388 0.333 0.592 0.498 
0.165 0.169 0.388 0.376 
0.251 0.29 0.49 0.541 
0.443 0.416 0.541 0.584 
0.498 0.376 0.627 0.541 
0.667 0.459 0.576 0.541 
0.416 0.29 0.525 0.376 
0.361 0.208 0.49 0.416 
0.498 0.333 0.51 0.498 
0.498 0.333 0.627 0.459 
0.639 0.416 0.576 0.541 
0.667 0.416 0.678 0.667 
0.388 0.251 0.424 0.376 
0.333 0.169 0.459 0.376 
0.471 0.29 0.694 0.624 
0.471 0.584 0.592 0.624 
0.557 0.125 0.576 0.498 
0.333 0.208 0.51 0.498 
0.498 0.416 0.612 0.541 
0.196 0.125 0.388 0.376 
0.388 0.416 0.541 0.459 
0.529 0.376 0.561 0.498 
0.388 0.333 0.525 0.498 
0.557 0.541 0.847 1.0 
0.776 0.416 0.831 0.831 
0.612 0.416 0.812 0.875 
0.165 0.208 0.592 0.667 
0.667 0.208 0.812 0.71 
0.612 0.502 0.694 0.792 
0.694 0.416 0.761 0.831 
0.416 0.333 0.694 0.957 
0.612 0.416 0.761 0.71 
0.945 0.251 1.0 0.918 
0.722 0.502 0.796 0.918 
0.945 0.333 0.965 0.792 
0.667 0.541 0.796 0.831 
0.529 0.333 0.643 0.71 
0.584 0.333 0.78 0.831 
0.863 0.333 0.863 0.749 
0.584 0.333 0.78 0.875 
0.498 0.251 0.78 0.541 
0.557 0.584 0.78 0.957 
0.471 0.416 0.643 0.71 
0.667 0.459 0.78 0.957 
0.416 0.29 0.694 0.749 
0.667 0.541 0.796 1.0 
0.557 0.208 0.678 0.749 
0.529 0.584 0.745 0.918 
0.416 0.29 0.694 0.749 
0.557 0.376 0.78 0.71 
0.918 0.416 0.949 0.831 
0.835 0.376 0.898 0.71 
0.804 0.667 0.863 1.0 
0.584 0.29 0.729 0.749 
0.388 0.208 0.678 0.792 
0.584 0.502 0.729 0.918 
0.945 0.749 0.965 0.875 
0.471 0.082 0.678 0.584 
0.361 0.333 0.663 0.792 
0.557 0.29 0.663 0.71 
0.804 0.502 0.847 0.71 
0.498 0.416 0.51 0.71 
0.804 0.416 0.812 0.624 
1.0 0.749 0.914 0.792 
0.557 0.333 0.694 0.584 
0.945 0.416 0.863 0.918 
0.584 0.459 0.761 0.71 
0.722 0.459 0.745 0.831 
0.722 0.459 0.694 0.918 
0.694 0.502 0.831 0.918 
0.667 0.416 0.714 0.918 
0.612 0.416 0.714 0.792 
0.443 0.416 0.694 0.71 
Teaching Patterns
1.0 0.0 0.0 
1.0 0.0 0.0 
1.0 0.0 0.0 
1.0 0.0 0.0 
1.0 0.0 0.0 
1.0 0.0 0.0 
1.0 0.0 0.0 
1.0 0.0 0.0 
1.0 0.0 0.0 
1.0 0.0 0.0 
1.0 0.0 0.0 
1.0 0.0 0.0 
1.0 0.0 0.0 
1.0 0.0 0.0 
1.0 0.0 0.0 
1.0 0.0 0.0 
1.0 0.0 0.0 
1.0 0.0 0.0 
1.0 0.0 0.0 
1.0 0.0 0.0 
1.0 0.0 0.0 
1.0 0.0 0.0 
1.0 0.0 0.0 
1.0 0.0 0.0 
1.0 0.0 0.0 
1.0 0.0 0.0 
1.0 0.0 0.0 
1.0 0.0 0.0 
1.0 0.0 0.0 
1.0 0.0 0.0 
1.0 0.0 0.0 
1.0 0.0 0.0 
1.0 0.0 0.0 
1.0 0.0 0.0 
1.0 0.0 0.0 
1.0 0.0 0.0 
1.0 0.0 0.0 
1.0 0.0 0.0 
1.0 0.0 0.0 
1.0 0.0 0.0 
1.0 0.0 0.0 
1.0 0.0 0.0 
1.0 0.0 0.0 
1.0 0.0 0.0 
1.0 0.0 0.0 
1.0 0.0 0.0 
1.0 0.0 0.0 
1.0 0.0 0.0 
1.0 0.0 0.0 
1.0 0.0 0.0 
0.0 1.0 0.0 
0.0 1.0 0.0 
0.0 1.0 0.0 
0.0 1.0 0.0 
0.0 1.0 0.0 
0.0 1.0 0.0 
0.0 1.0 0.0 
0.0 1.0 0.0 
0.0 1.0 0.0 
0.0 1.0 0.0 
0.0 1.0 0.0 
0.0 1.0 0.0 
0.0 1.0 0.0 
0.0 1.0 0.0 
0.0 1.0 0.0 
0.0 1.0 0.0 
0.0 1.0 0.0 
0.0 1.0 0.0 
0.0 1.0 0.0 
0.0 1.0 0.0 
0.0 1.0 0.0 
0.0 1.0 0.0 
0.0 1.0 0.0 
0.0 1.0 0.0 
0.0 1.0 0.0 
0.0 1.0 0.0 
0.0 1.0 0.0 
0.0 1.0 0.0 
0.0 1.0 0.0 
0.0 1.0 0.0 
0.0 1.0 0.0 
0.0 1.0 0.0 
0.0 1.0 0.0 
0.0 1.0 0.0 
0.0 1.0 0.0 
0.0 1.0 0.0 
0.0 1.0 0.0 
0.0 1.0 0.0 
0.0 1.0 0.0 
0.0 1.0 0.0 
0.0 1.0 0.0 
0.0 1.0 0.0 
0.0 1.0 0.0 
0.0 1.0 0.0 
0.0 1.0 0.0 
0.0 1.0 0.0 
0.0 1.0 0.0 
0.0 1.0 0.0 
0.0 1.0 0.0 
0.0 1.0 0.0 
0.0 0.0 1.0 
0.0 0.0 1.0 
0.0 0.0 1.0 
0.0 0.0 1.0 
0.0 0.0 1.0 
0.0 0.0 1.0 
0.0 0.0 1.0 
0.0 0.0 1.0 
0.0 0.0 1.0 
0.0 0.0 1.0 
0.0 0.0 1.0 
0.0 0.0 1.0 
0.0 0.0 1.0 
0.0 0.0 1.0 
0.0 0.0 1.0 
0.0 0.0 1.0 
0.0 0.0 1.0 
0.0 0.0 1.0 
0.0 0.0 1.0 
0.0 0.0 1.0 
0.0 0.0 1.0 
0.0 0.0 1.0 
0.0 0.0 1.0 
0.0 0.0 1.0 
0.0 0.0 1.0 
0.0 0.0 1.0 
0.0 0.0 1.0 
0.0 0.0 1.0 
0.0 0.0 1.0 
0.0 0.0 1.0 
0.0 0.0 1.0 
0.0 0.0 1.0 
0.0 0.0 1.0 
0.0 0.0 1.0 
0.0 0.0 1.0 
0.0 0.0 1.0 
0.0 0.0 1.0 
0.0 0.0 1.0 
0.0 0.0 1.0 
0.0 0.0 1.0 
0.0 0.0 1.0 
0.0 0.0 1.0 
0.0 0.0 1.0 
0.0 0.0 1.0 
0.0 0.0 1.0 
0.0 0.0 1.0 
0.0 0.0 1.0 
0.0 0.0 1.0 
0.0 0.0 1.0 
0.0 0.0 1.0 
Learning : 0.800000011920929
Momentum : 0.9
Epoch: 100, Error: 0.01285760689431181
Epoch: 200, Error: 0.012126499056636856
Epoch: 300, Error: 0.012268069011112525
Epoch: 400, Error: 0.011969386746451946
Epoch: 500, Error: 0.013080212352441976
Epoch: 600, Error: 0.012153439542867064
Epoch: 700, Error: 0.012198645423610214
Epoch: 800, Error: 0.012061410651156868
Epoch: 900, Error: 0.0128183089083141
Epoch: 1000, Error: 0.011957828111037771
Epoch: 1100, Error: 0.012201667482678145
Epoch: 1200, Error: 0.011886229927046126
Epoch: 1300, Error: 0.011903233783985678
Epoch: 1400, Error: 0.011808031623121565
Epoch: 1500, Error: 0.011766149265620852
Epoch: 1600, Error: 0.01541300807683717
Epoch: 1700, Error: 0.011870313690897602
Epoch: 1800, Error: 0.01278258719315913
Epoch: 1900, Error: 0.01219537092725803
Epoch: 2000, Error: 0.011652346669284757
Epoch: 2100, Error: 0.010653261261674632
Epoch: 2200, Error: 0.008892593159020011
Epoch: 2300, Error: 0.007521539145883771
Epoch: 2400, Error: 0.006768148069413165
Epoch: 2500, Error: 0.005950364832976711
Epoch: 2600, Error: 0.005754880006342927
Epoch: 2700, Error: 0.005568465533786726
Epoch: 2800, Error: 0.005558378587168451
Epoch: 2900, Error: 0.005463954885683131
Epoch: 3000, Error: 0.005460796741498885
Epoch: 3100, Error: 0.005434384748539252
Epoch: 3200, Error: 0.005415393981597981
Epoch: 3300, Error: 0.005439006582889925
Epoch: 3400, Error: 0.005400199239784828
Epoch: 3500, Error: 0.005358435243419497
Epoch: 3600, Error: 0.005366845053640901
Epoch: 3700, Error: 0.005364887126457434
Epoch: 3800, Error: 0.00535761013838655
Epoch: 3900, Error: 0.0053383357681286185
Epoch: 4000, Error: 0.005334230526478955
Epoch: 4100, Error: 0.005341823404563362
Epoch: 4200, Error: 0.005281125918208223
Epoch: 4300, Error: 0.005273690001824835
Epoch: 4400, Error: 0.005278703047966269
Epoch: 4500, Error: 0.00526445145509669
Epoch: 4600, Error: 0.005257204994141171
Epoch: 4700, Error: 0.005255256947210055
Epoch: 4800, Error: 0.005263731060205186
Epoch: 4900, Error: 0.005267167988913402
Epoch: 5000, Error: 0.00526573724361099
Epoch: 5100, Error: 0.005318838101154933
Epoch: 5200, Error: 0.005296198033574263
Epoch: 5300, Error: 0.005276107978134774
Epoch: 5400, Error: 0.005336709137154452
Epoch: 5500, Error: 0.005350535097008519
Epoch: 5600, Error: 0.005280872549076925
Epoch: 5700, Error: 0.0053378854644312275
Epoch: 5800, Error: 0.005256864234859059
Epoch: 5900, Error: 0.0053293110593278705
Epoch: 6000, Error: 0.005311560398863866
Epoch: 6100, Error: 0.0052773102348206615
Epoch: 6200, Error: 0.005190901447825187
Epoch: 6300, Error: 0.005179670588040345
Epoch: 6400, Error: 0.005148198147835658
Epoch: 6500, Error: 0.005265903122714512
Epoch: 6600, Error: 0.005033124502879352
Epoch: 6700, Error: 0.004978675436407935
Epoch: 6800, Error: 0.004837209511078715
Epoch: 6900, Error: 0.005118241866801912
Epoch: 7000, Error: 0.004715545943864427
Epoch: 7100, Error: 0.00488159610931531
Epoch: 7200, Error: 0.004507322820443611
Epoch: 7300, Error: 0.00475999497186343
Epoch: 7400, Error: 0.004521964908910929
Epoch: 7500, Error: 0.004482277474777008
Epoch: 7600, Error: 0.003504346686584441
Epoch: 7700, Error: 0.007412603715576393
Epoch: 7800, Error: 0.004063219686051659
Epoch: 7900, Error: 0.004038135196506861
Epoch: 8000, Error: 0.0032231246435169398
Epoch: 8100, Error: 0.0028684310538651006
Epoch: 8200, Error: 0.00313899082071979
Epoch: 8300, Error: 0.003596723134030052
Epoch: 8400, Error: 0.00283720652104833
Epoch: 8500, Error: 0.0029872660092745917
Epoch: 8600, Error: 0.006293192849464471
Epoch: 8700, Error: 0.002907601990567219
Epoch: 8800, Error: 0.0060537123979953955
Epoch: 8900, Error: 0.004228924849155719
Epoch: 9000, Error: 0.0022776166956692654
Epoch: 9100, Error: 0.0038471115248791387
Epoch: 9200, Error: 0.0017431007531824398
Epoch: 9300, Error: 0.006097196790285653
Epoch: 9400, Error: 0.0016252985975230266
Epoch: 9500, Error: 0.002061706207354095
Epoch: 9600, Error: 0.0016208966918696537
Epoch: 9700, Error: 0.003539111991613453
Epoch: 9800, Error: 0.002314122994350042
Epoch: 9900, Error: 0.002476493229446416
Epoch: 10000, Error: 0.005521521257188391
Epoch: 10100, Error: 0.0015653792703319176
Epoch: 10200, Error: 0.0013741152900739566
Epoch: 10300, Error: 0.00135248819519626
Epoch: 10400, Error: 0.0013039753014747503
Epoch: 10500, Error: 0.001554117218838239
Epoch: 10600, Error: 0.0014027806941543238
Epoch: 10700, Error: 0.0012347687292200845
Epoch: 10800, Error: 0.0012021015452001627
Epoch: 10900, Error: 0.0012034796836574119
Epoch: 11000, Error: 0.0011998397208823192
Epoch: 11100, Error: 0.0010862223917469827
Epoch: 11200, Error: 0.0011308398328530116
Epoch: 11300, Error: 0.0011824173896722706
Epoch: 11400, Error: 0.001103950467202723
Epoch: 11500, Error: 0.001165219216845171
Epoch: 11600, Error: 0.0011501447260452958
Epoch: 11700, Error: 0.0011413914855049993
Epoch: 11800, Error: 0.00115876226006635
Epoch: 11900, Error: 0.0011129397945587973
Epoch: 12000, Error: 0.001042001422744842
Epoch: 12100, Error: 0.0010434995285725146
Epoch: 12200, Error: 0.0010105816782304685
Epoch: 12300, Error: 9.488555385132763E-4
Epoch: 12400, Error: 8.949083638783164E-4
Epoch: 12500, Error: 8.315719812072251E-4
Epoch: 12600, Error: 7.761115521038882E-4
Epoch: 12700, Error: 7.397885261060046E-4
Epoch: 12800, Error: 7.257851354630822E-4
Epoch: 12900, Error: 7.006792277795568E-4
Epoch: 13000, Error: 6.828247960222244E-4
Epoch: 13100, Error: 6.821737254260649E-4
Epoch: 13200, Error: 6.902311641244879E-4
Epoch: 13300, Error: 7.045449632966291E-4
Epoch: 13400, Error: 6.788974941513174E-4
Epoch: 13500, Error: 6.802658504260537E-4
Epoch: 13600, Error: 6.759653936223317E-4
Epoch: 13700, Error: 6.833548818571345E-4
Epoch: 13800, Error: 6.727848017028854E-4
Epoch: 13900, Error: 6.847676948560958E-4
Epoch: 14000, Error: 7.308993192526521E-4
Epoch: 14100, Error: 6.739806633110184E-4
finished
