Input Patterns
0.224 0.624 0.067 0.043 
0.11 0.502 0.051 0.043 
0.196 0.667 0.067 0.043 
0.055 0.584 0.067 0.082 
0.027 0.376 0.067 0.043 
0.306 0.71 0.086 0.043 
0.137 0.416 0.067 0.0 
0.416 0.831 0.035 0.043 
0.306 0.792 0.051 0.125 
0.388 0.749 0.118 0.082 
0.306 0.584 0.118 0.043 
0.082 0.667 0.0 0.043 
0.137 0.584 0.153 0.043 
0.196 0.584 0.102 0.125 
0.251 0.584 0.067 0.043 
0.137 0.459 0.102 0.043 
0.251 0.875 0.086 0.0 
0.165 0.459 0.086 0.043 
0.333 0.624 0.051 0.043 
0.027 0.416 0.051 0.043 
0.196 0.624 0.051 0.082 
0.027 0.502 0.051 0.043 
0.224 0.749 0.153 0.125 
0.224 0.749 0.102 0.043 
0.278 0.71 0.086 0.043 
0.165 0.416 0.067 0.043 
0.082 0.459 0.086 0.043 
0.306 0.792 0.118 0.125 
0.196 0.584 0.086 0.043 
0.165 0.459 0.086 0.0 
0.137 0.584 0.102 0.043 
0.0 0.416 0.016 0.0 
0.388 1.0 0.086 0.125 
0.224 0.624 0.067 0.082 
0.224 0.749 0.086 0.082 
0.224 0.71 0.086 0.125 
0.224 0.541 0.118 0.165 
0.196 0.416 0.102 0.043 
0.251 0.624 0.086 0.043 
0.11 0.502 0.102 0.043 
0.306 0.584 0.086 0.125 
0.333 0.918 0.067 0.043 
0.196 0.502 0.035 0.043 
0.165 0.667 0.067 0.0 
0.224 0.584 0.086 0.043 
0.055 0.125 0.051 0.082 
0.196 0.624 0.102 0.208 
0.137 0.416 0.067 0.082 
0.082 0.502 0.067 0.043 
0.196 0.541 0.067 0.043 
0.749 0.502 0.627 0.541 
0.722 0.459 0.663 0.584 
0.612 0.333 0.612 0.584 
0.557 0.541 0.627 0.624 
0.639 0.376 0.612 0.498 
0.196 0.0 0.424 0.376 
0.471 0.082 0.51 0.376 
0.361 0.376 0.439 0.498 
0.361 0.416 0.592 0.584 
0.529 0.082 0.592 0.584 
0.443 0.502 0.643 0.459 
0.557 0.208 0.663 0.584 
0.584 0.376 0.561 0.498 
0.694 0.333 0.643 0.541 
0.471 0.376 0.592 0.584 
0.333 0.169 0.475 0.416 
0.416 0.29 0.49 0.459 
0.306 0.416 0.592 0.584 
0.667 0.459 0.627 0.584 
0.361 0.416 0.525 0.498 
0.333 0.251 0.576 0.459 
0.416 0.251 0.51 0.459 
0.361 0.29 0.541 0.498 
0.388 0.376 0.541 0.498 
0.224 0.208 0.337 0.416 
0.584 0.502 0.592 0.584 
0.333 0.125 0.51 0.498 
0.388 0.333 0.592 0.498 
0.165 0.169 0.388 0.376 
0.251 0.29 0.49 0.541 
0.443 0.416 0.541 0.584 
0.498 0.376 0.627 0.541 
0.667 0.459 0.576 0.541 
0.416 0.29 0.525 0.376 
0.361 0.208 0.49 0.416 
0.498 0.333 0.51 0.498 
0.498 0.333 0.627 0.459 
0.639 0.416 0.576 0.541 
0.667 0.416 0.678 0.667 
0.388 0.251 0.424 0.376 
0.333 0.169 0.459 0.376 
0.471 0.29 0.694 0.624 
0.471 0.584 0.592 0.624 
0.557 0.125 0.576 0.498 
0.333 0.208 0.51 0.498 
0.498 0.416 0.612 0.541 
0.196 0.125 0.388 0.376 
0.388 0.416 0.541 0.459 
0.529 0.376 0.561 0.498 
0.388 0.333 0.525 0.498 
0.557 0.541 0.847 1.0 
0.776 0.416 0.831 0.831 
0.612 0.416 0.812 0.875 
0.165 0.208 0.592 0.667 
0.667 0.208 0.812 0.71 
0.612 0.502 0.694 0.792 
0.694 0.416 0.761 0.831 
0.416 0.333 0.694 0.957 
0.612 0.416 0.761 0.71 
0.945 0.251 1.0 0.918 
0.722 0.502 0.796 0.918 
0.945 0.333 0.965 0.792 
0.667 0.541 0.796 0.831 
0.529 0.333 0.643 0.71 
0.584 0.333 0.78 0.831 
0.863 0.333 0.863 0.749 
0.584 0.333 0.78 0.875 
0.498 0.251 0.78 0.541 
0.557 0.584 0.78 0.957 
0.471 0.416 0.643 0.71 
0.667 0.459 0.78 0.957 
0.416 0.29 0.694 0.749 
0.667 0.541 0.796 1.0 
0.557 0.208 0.678 0.749 
0.529 0.584 0.745 0.918 
0.416 0.29 0.694 0.749 
0.557 0.376 0.78 0.71 
0.918 0.416 0.949 0.831 
0.835 0.376 0.898 0.71 
0.804 0.667 0.863 1.0 
0.584 0.29 0.729 0.749 
0.388 0.208 0.678 0.792 
0.584 0.502 0.729 0.918 
0.945 0.749 0.965 0.875 
0.471 0.082 0.678 0.584 
0.361 0.333 0.663 0.792 
0.557 0.29 0.663 0.71 
0.804 0.502 0.847 0.71 
0.498 0.416 0.51 0.71 
0.804 0.416 0.812 0.624 
1.0 0.749 0.914 0.792 
0.557 0.333 0.694 0.584 
0.945 0.416 0.863 0.918 
0.584 0.459 0.761 0.71 
0.722 0.459 0.745 0.831 
0.722 0.459 0.694 0.918 
0.694 0.502 0.831 0.918 
0.667 0.416 0.714 0.918 
0.612 0.416 0.714 0.792 
0.443 0.416 0.694 0.71 
Teaching Patterns
1.0 0.0 0.0 
1.0 0.0 0.0 
1.0 0.0 0.0 
1.0 0.0 0.0 
1.0 0.0 0.0 
1.0 0.0 0.0 
1.0 0.0 0.0 
1.0 0.0 0.0 
1.0 0.0 0.0 
1.0 0.0 0.0 
1.0 0.0 0.0 
1.0 0.0 0.0 
1.0 0.0 0.0 
1.0 0.0 0.0 
1.0 0.0 0.0 
1.0 0.0 0.0 
1.0 0.0 0.0 
1.0 0.0 0.0 
1.0 0.0 0.0 
1.0 0.0 0.0 
1.0 0.0 0.0 
1.0 0.0 0.0 
1.0 0.0 0.0 
1.0 0.0 0.0 
1.0 0.0 0.0 
1.0 0.0 0.0 
1.0 0.0 0.0 
1.0 0.0 0.0 
1.0 0.0 0.0 
1.0 0.0 0.0 
1.0 0.0 0.0 
1.0 0.0 0.0 
1.0 0.0 0.0 
1.0 0.0 0.0 
1.0 0.0 0.0 
1.0 0.0 0.0 
1.0 0.0 0.0 
1.0 0.0 0.0 
1.0 0.0 0.0 
1.0 0.0 0.0 
1.0 0.0 0.0 
1.0 0.0 0.0 
1.0 0.0 0.0 
1.0 0.0 0.0 
1.0 0.0 0.0 
1.0 0.0 0.0 
1.0 0.0 0.0 
1.0 0.0 0.0 
1.0 0.0 0.0 
1.0 0.0 0.0 
0.0 1.0 0.0 
0.0 1.0 0.0 
0.0 1.0 0.0 
0.0 1.0 0.0 
0.0 1.0 0.0 
0.0 1.0 0.0 
0.0 1.0 0.0 
0.0 1.0 0.0 
0.0 1.0 0.0 
0.0 1.0 0.0 
0.0 1.0 0.0 
0.0 1.0 0.0 
0.0 1.0 0.0 
0.0 1.0 0.0 
0.0 1.0 0.0 
0.0 1.0 0.0 
0.0 1.0 0.0 
0.0 1.0 0.0 
0.0 1.0 0.0 
0.0 1.0 0.0 
0.0 1.0 0.0 
0.0 1.0 0.0 
0.0 1.0 0.0 
0.0 1.0 0.0 
0.0 1.0 0.0 
0.0 1.0 0.0 
0.0 1.0 0.0 
0.0 1.0 0.0 
0.0 1.0 0.0 
0.0 1.0 0.0 
0.0 1.0 0.0 
0.0 1.0 0.0 
0.0 1.0 0.0 
0.0 1.0 0.0 
0.0 1.0 0.0 
0.0 1.0 0.0 
0.0 1.0 0.0 
0.0 1.0 0.0 
0.0 1.0 0.0 
0.0 1.0 0.0 
0.0 1.0 0.0 
0.0 1.0 0.0 
0.0 1.0 0.0 
0.0 1.0 0.0 
0.0 1.0 0.0 
0.0 1.0 0.0 
0.0 1.0 0.0 
0.0 1.0 0.0 
0.0 1.0 0.0 
0.0 1.0 0.0 
0.0 0.0 1.0 
0.0 0.0 1.0 
0.0 0.0 1.0 
0.0 0.0 1.0 
0.0 0.0 1.0 
0.0 0.0 1.0 
0.0 0.0 1.0 
0.0 0.0 1.0 
0.0 0.0 1.0 
0.0 0.0 1.0 
0.0 0.0 1.0 
0.0 0.0 1.0 
0.0 0.0 1.0 
0.0 0.0 1.0 
0.0 0.0 1.0 
0.0 0.0 1.0 
0.0 0.0 1.0 
0.0 0.0 1.0 
0.0 0.0 1.0 
0.0 0.0 1.0 
0.0 0.0 1.0 
0.0 0.0 1.0 
0.0 0.0 1.0 
0.0 0.0 1.0 
0.0 0.0 1.0 
0.0 0.0 1.0 
0.0 0.0 1.0 
0.0 0.0 1.0 
0.0 0.0 1.0 
0.0 0.0 1.0 
0.0 0.0 1.0 
0.0 0.0 1.0 
0.0 0.0 1.0 
0.0 0.0 1.0 
0.0 0.0 1.0 
0.0 0.0 1.0 
0.0 0.0 1.0 
0.0 0.0 1.0 
0.0 0.0 1.0 
0.0 0.0 1.0 
0.0 0.0 1.0 
0.0 0.0 1.0 
0.0 0.0 1.0 
0.0 0.0 1.0 
0.0 0.0 1.0 
0.0 0.0 1.0 
0.0 0.0 1.0 
0.0 0.0 1.0 
0.0 0.0 1.0 
0.0 0.0 1.0 
Learning : 0.800000011920929
Momentum : 0.9
Epoch: 100, Error: 0.019018279670174106
Epoch: 200, Error: 0.017724705641265187
Epoch: 300, Error: 0.015736439036617457
Epoch: 400, Error: 0.012198908518021818
Epoch: 500, Error: 0.020833713073752137
Epoch: 600, Error: 0.012585200244091896
Epoch: 700, Error: 0.013848232842641655
Epoch: 800, Error: 0.013047403831462214
Epoch: 900, Error: 0.012598295333096003
Epoch: 1000, Error: 0.012675997910922984
Epoch: 1100, Error: 0.013962159147910864
Epoch: 1200, Error: 0.01591739405545976
Epoch: 1300, Error: 0.012696797397173432
Epoch: 1400, Error: 0.012325586758577823
Epoch: 1500, Error: 0.012410273685928836
Epoch: 1600, Error: 0.013375535826559967
Epoch: 1700, Error: 0.012149340967303978
Epoch: 1800, Error: 0.011889247492864057
Epoch: 1900, Error: 0.012043736100205453
Epoch: 2000, Error: 0.013658751009030261
Epoch: 2100, Error: 0.011975272243871312
Epoch: 2200, Error: 0.011496345550660963
Epoch: 2300, Error: 0.012347415763129347
Epoch: 2400, Error: 0.011857492374012374
Epoch: 2500, Error: 0.011651838152887587
Epoch: 2600, Error: 0.012037198144382357
Epoch: 2700, Error: 0.01141004582285276
Epoch: 2800, Error: 0.011171968294341986
Epoch: 2900, Error: 0.01188007733037677
Epoch: 3000, Error: 0.01125375298787565
Epoch: 3100, Error: 0.010727611955864856
Epoch: 3200, Error: 0.011479912897641656
Epoch: 3300, Error: 0.011183474187076875
Epoch: 3400, Error: 0.01445274047865923
Epoch: 3500, Error: 0.01073926357811417
Epoch: 3600, Error: 0.010301951802142809
Epoch: 3700, Error: 0.010285168395489786
Epoch: 3800, Error: 0.010533328504721625
Epoch: 3900, Error: 0.010659084260997197
Epoch: 4000, Error: 0.010077254345389735
Epoch: 4100, Error: 0.011760120648689344
Epoch: 4200, Error: 0.010197629730155859
Epoch: 4300, Error: 0.009799243464632177
Epoch: 4400, Error: 0.01246007144658048
Epoch: 4500, Error: 0.010075287126317473
Epoch: 4600, Error: 0.010108560147917896
Epoch: 4700, Error: 0.010127762140763183
Epoch: 4800, Error: 0.009950312228159551
Epoch: 4900, Error: 0.009981584893399741
Epoch: 5000, Error: 0.00970571429132227
Epoch: 5100, Error: 0.010600090093374216
Epoch: 5200, Error: 0.00973691698508834
Epoch: 5300, Error: 0.010086318260993453
Epoch: 5400, Error: 0.009718488629391835
Epoch: 5500, Error: 0.009733987519697894
Epoch: 5600, Error: 0.012063897722611008
Epoch: 5700, Error: 0.009838872834469225
Epoch: 5800, Error: 0.009845649924119793
Epoch: 5900, Error: 0.01002256541239563
Epoch: 6000, Error: 0.010077137870377229
Epoch: 6100, Error: 0.009481751675910458
Epoch: 6200, Error: 0.009556105283622737
Epoch: 6300, Error: 0.00952640366850754
Epoch: 6400, Error: 0.009698732932474497
Epoch: 6500, Error: 0.009575291933235397
Epoch: 6600, Error: 0.009950372592671312
Epoch: 6700, Error: 0.009227157495107174
Epoch: 6800, Error: 0.00936764740403787
Epoch: 6900, Error: 0.00935792727690268
Epoch: 7000, Error: 0.009242555360262535
Epoch: 7100, Error: 0.012449184290235454
Epoch: 7200, Error: 0.009281070324971765
Epoch: 7300, Error: 0.00906383432201644
Epoch: 7400, Error: 0.009246323816587031
Epoch: 7500, Error: 0.009157226869522968
Epoch: 7600, Error: 0.0092548152298116
Epoch: 7700, Error: 0.008902307071654977
Epoch: 7800, Error: 0.009249620264914054
Epoch: 7900, Error: 0.009243605427124336
Epoch: 8000, Error: 0.009068557207142594
Epoch: 8100, Error: 0.008861159741252393
Epoch: 8200, Error: 0.00896405439700666
Epoch: 8300, Error: 0.008755362594091733
Epoch: 8400, Error: 0.009090611581169807
Epoch: 8500, Error: 0.00876772606249584
Epoch: 8600, Error: 0.009254160510453689
Epoch: 8700, Error: 0.00873923560225865
Epoch: 8800, Error: 0.008467447552127721
Epoch: 8900, Error: 0.008586663153172627
Epoch: 9000, Error: 0.008589462601086279
Epoch: 9100, Error: 0.008711951059080866
Epoch: 9200, Error: 0.008350122344357572
Epoch: 9300, Error: 0.008087241465146484
Epoch: 9400, Error: 0.007983308134774277
Epoch: 9500, Error: 0.00828640590480981
Epoch: 9600, Error: 0.0076832429280673286
Epoch: 9700, Error: 0.007588621726172654
Epoch: 9800, Error: 0.00749186437721562
Epoch: 9900, Error: 0.007184364444693659
Epoch: 10000, Error: 0.0072650661009097854
Epoch: 10100, Error: 0.007268813726331363
Epoch: 10200, Error: 0.007418291513319442
Epoch: 10300, Error: 0.006357857463454828
Epoch: 10400, Error: 0.006060288731592559
Epoch: 10500, Error: 0.008950500195313115
Epoch: 10600, Error: 0.005030680686999622
Epoch: 10700, Error: 0.005166455458135664
Epoch: 10800, Error: 0.0049140883029881325
Epoch: 10900, Error: 0.0047180504314702455
Epoch: 11000, Error: 0.004582538011102821
Epoch: 11100, Error: 0.004442133023657391
Epoch: 11200, Error: 0.004328585704051726
Epoch: 11300, Error: 0.004155769821352667
Epoch: 11400, Error: 0.004005840315747968
Epoch: 11500, Error: 0.003824526279776159
Epoch: 11600, Error: 0.0035965179667232076
Epoch: 11700, Error: 0.0032723077939131456
Epoch: 11800, Error: 0.002707190143893136
Epoch: 11900, Error: 0.0022634422886507787
Epoch: 12000, Error: 0.00270877744246274
Epoch: 12100, Error: 0.0035332483144122568
Epoch: 12200, Error: 0.0013543351263240928
Epoch: 12300, Error: 0.0010179424556551562
Epoch: 12400, Error: 8.969132466942273E-4
Epoch: 12500, Error: 7.500940293134121E-4
Epoch: 12600, Error: 7.095906098911763E-4
Epoch: 12700, Error: 6.958867736944908E-4
Epoch: 12800, Error: 7.416155008909213E-4
Epoch: 12900, Error: 6.445341269534068E-4
Epoch: 13000, Error: 5.921743919400592E-4
Epoch: 13100, Error: 6.197007509949878E-4
Epoch: 13200, Error: 5.932175736027801E-4
Epoch: 13300, Error: 6.024656586392997E-4
Epoch: 13400, Error: 5.981826413838957E-4
Epoch: 13500, Error: 5.50783744980509E-4
Epoch: 13600, Error: 5.163719059879949E-4
Epoch: 13700, Error: 4.968841126988037E-4
Epoch: 13800, Error: 4.88497305201882E-4
Epoch: 13900, Error: 4.7506450200131295E-4
Epoch: 14000, Error: 4.668130169579701E-4
Epoch: 14100, Error: 4.7263769256385656E-4
Epoch: 14200, Error: 4.629934211857738E-4
Epoch: 14300, Error: 4.6552455761299195E-4
Epoch: 14400, Error: 4.5941312951981934E-4
Epoch: 14500, Error: 4.6033343165391395E-4
Epoch: 14600, Error: 4.570677506012088E-4
Epoch: 14700, Error: 4.5201311363568726E-4
finished
