Input Patterns
0.224 0.624 0.067 0.043 
0.11 0.502 0.051 0.043 
0.196 0.667 0.067 0.043 
0.055 0.584 0.067 0.082 
0.027 0.376 0.067 0.043 
0.306 0.71 0.086 0.043 
0.137 0.416 0.067 0.0 
0.416 0.831 0.035 0.043 
0.306 0.792 0.051 0.125 
0.388 0.749 0.118 0.082 
0.306 0.584 0.118 0.043 
0.082 0.667 0.0 0.043 
0.137 0.584 0.153 0.043 
0.196 0.584 0.102 0.125 
0.251 0.584 0.067 0.043 
0.137 0.459 0.102 0.043 
0.251 0.875 0.086 0.0 
0.165 0.459 0.086 0.043 
0.333 0.624 0.051 0.043 
0.027 0.416 0.051 0.043 
0.196 0.624 0.051 0.082 
0.027 0.502 0.051 0.043 
0.224 0.749 0.153 0.125 
0.224 0.749 0.102 0.043 
0.278 0.71 0.086 0.043 
0.165 0.416 0.067 0.043 
0.082 0.459 0.086 0.043 
0.306 0.792 0.118 0.125 
0.196 0.584 0.086 0.043 
0.165 0.459 0.086 0.0 
0.137 0.584 0.102 0.043 
0.0 0.416 0.016 0.0 
0.388 1.0 0.086 0.125 
0.224 0.624 0.067 0.082 
0.224 0.749 0.086 0.082 
0.224 0.71 0.086 0.125 
0.224 0.541 0.118 0.165 
0.196 0.416 0.102 0.043 
0.251 0.624 0.086 0.043 
0.11 0.502 0.102 0.043 
0.306 0.584 0.086 0.125 
0.333 0.918 0.067 0.043 
0.196 0.502 0.035 0.043 
0.165 0.667 0.067 0.0 
0.224 0.584 0.086 0.043 
0.055 0.125 0.051 0.082 
0.196 0.624 0.102 0.208 
0.137 0.416 0.067 0.082 
0.082 0.502 0.067 0.043 
0.196 0.541 0.067 0.043 
0.749 0.502 0.627 0.541 
0.722 0.459 0.663 0.584 
0.612 0.333 0.612 0.584 
0.557 0.541 0.627 0.624 
0.639 0.376 0.612 0.498 
0.196 0.0 0.424 0.376 
0.471 0.082 0.51 0.376 
0.361 0.376 0.439 0.498 
0.361 0.416 0.592 0.584 
0.529 0.082 0.592 0.584 
0.443 0.502 0.643 0.459 
0.557 0.208 0.663 0.584 
0.584 0.376 0.561 0.498 
0.694 0.333 0.643 0.541 
0.471 0.376 0.592 0.584 
0.333 0.169 0.475 0.416 
0.416 0.29 0.49 0.459 
0.306 0.416 0.592 0.584 
0.667 0.459 0.627 0.584 
0.361 0.416 0.525 0.498 
0.333 0.251 0.576 0.459 
0.416 0.251 0.51 0.459 
0.361 0.29 0.541 0.498 
0.388 0.376 0.541 0.498 
0.224 0.208 0.337 0.416 
0.584 0.502 0.592 0.584 
0.333 0.125 0.51 0.498 
0.388 0.333 0.592 0.498 
0.165 0.169 0.388 0.376 
0.251 0.29 0.49 0.541 
0.443 0.416 0.541 0.584 
0.498 0.376 0.627 0.541 
0.667 0.459 0.576 0.541 
0.416 0.29 0.525 0.376 
0.361 0.208 0.49 0.416 
0.498 0.333 0.51 0.498 
0.498 0.333 0.627 0.459 
0.639 0.416 0.576 0.541 
0.667 0.416 0.678 0.667 
0.388 0.251 0.424 0.376 
0.333 0.169 0.459 0.376 
0.471 0.29 0.694 0.624 
0.471 0.584 0.592 0.624 
0.557 0.125 0.576 0.498 
0.333 0.208 0.51 0.498 
0.498 0.416 0.612 0.541 
0.196 0.125 0.388 0.376 
0.388 0.416 0.541 0.459 
0.529 0.376 0.561 0.498 
0.388 0.333 0.525 0.498 
0.557 0.541 0.847 1.0 
0.776 0.416 0.831 0.831 
0.612 0.416 0.812 0.875 
0.165 0.208 0.592 0.667 
0.667 0.208 0.812 0.71 
0.612 0.502 0.694 0.792 
0.694 0.416 0.761 0.831 
0.416 0.333 0.694 0.957 
0.612 0.416 0.761 0.71 
0.945 0.251 1.0 0.918 
0.722 0.502 0.796 0.918 
0.945 0.333 0.965 0.792 
0.667 0.541 0.796 0.831 
0.529 0.333 0.643 0.71 
0.584 0.333 0.78 0.831 
0.863 0.333 0.863 0.749 
0.584 0.333 0.78 0.875 
0.498 0.251 0.78 0.541 
0.557 0.584 0.78 0.957 
0.471 0.416 0.643 0.71 
0.667 0.459 0.78 0.957 
0.416 0.29 0.694 0.749 
0.667 0.541 0.796 1.0 
0.557 0.208 0.678 0.749 
0.529 0.584 0.745 0.918 
0.416 0.29 0.694 0.749 
0.557 0.376 0.78 0.71 
0.918 0.416 0.949 0.831 
0.835 0.376 0.898 0.71 
0.804 0.667 0.863 1.0 
0.584 0.29 0.729 0.749 
0.388 0.208 0.678 0.792 
0.584 0.502 0.729 0.918 
0.945 0.749 0.965 0.875 
0.471 0.082 0.678 0.584 
0.361 0.333 0.663 0.792 
0.557 0.29 0.663 0.71 
0.804 0.502 0.847 0.71 
0.498 0.416 0.51 0.71 
0.804 0.416 0.812 0.624 
1.0 0.749 0.914 0.792 
0.557 0.333 0.694 0.584 
0.945 0.416 0.863 0.918 
0.584 0.459 0.761 0.71 
0.722 0.459 0.745 0.831 
0.722 0.459 0.694 0.918 
0.694 0.502 0.831 0.918 
0.667 0.416 0.714 0.918 
0.612 0.416 0.714 0.792 
0.443 0.416 0.694 0.71 
Teaching Patterns
1.0 0.0 0.0 
1.0 0.0 0.0 
1.0 0.0 0.0 
1.0 0.0 0.0 
1.0 0.0 0.0 
1.0 0.0 0.0 
1.0 0.0 0.0 
1.0 0.0 0.0 
1.0 0.0 0.0 
1.0 0.0 0.0 
1.0 0.0 0.0 
1.0 0.0 0.0 
1.0 0.0 0.0 
1.0 0.0 0.0 
1.0 0.0 0.0 
1.0 0.0 0.0 
1.0 0.0 0.0 
1.0 0.0 0.0 
1.0 0.0 0.0 
1.0 0.0 0.0 
1.0 0.0 0.0 
1.0 0.0 0.0 
1.0 0.0 0.0 
1.0 0.0 0.0 
1.0 0.0 0.0 
1.0 0.0 0.0 
1.0 0.0 0.0 
1.0 0.0 0.0 
1.0 0.0 0.0 
1.0 0.0 0.0 
1.0 0.0 0.0 
1.0 0.0 0.0 
1.0 0.0 0.0 
1.0 0.0 0.0 
1.0 0.0 0.0 
1.0 0.0 0.0 
1.0 0.0 0.0 
1.0 0.0 0.0 
1.0 0.0 0.0 
1.0 0.0 0.0 
1.0 0.0 0.0 
1.0 0.0 0.0 
1.0 0.0 0.0 
1.0 0.0 0.0 
1.0 0.0 0.0 
1.0 0.0 0.0 
1.0 0.0 0.0 
1.0 0.0 0.0 
1.0 0.0 0.0 
1.0 0.0 0.0 
0.0 1.0 0.0 
0.0 1.0 0.0 
0.0 1.0 0.0 
0.0 1.0 0.0 
0.0 1.0 0.0 
0.0 1.0 0.0 
0.0 1.0 0.0 
0.0 1.0 0.0 
0.0 1.0 0.0 
0.0 1.0 0.0 
0.0 1.0 0.0 
0.0 1.0 0.0 
0.0 1.0 0.0 
0.0 1.0 0.0 
0.0 1.0 0.0 
0.0 1.0 0.0 
0.0 1.0 0.0 
0.0 1.0 0.0 
0.0 1.0 0.0 
0.0 1.0 0.0 
0.0 1.0 0.0 
0.0 1.0 0.0 
0.0 1.0 0.0 
0.0 1.0 0.0 
0.0 1.0 0.0 
0.0 1.0 0.0 
0.0 1.0 0.0 
0.0 1.0 0.0 
0.0 1.0 0.0 
0.0 1.0 0.0 
0.0 1.0 0.0 
0.0 1.0 0.0 
0.0 1.0 0.0 
0.0 1.0 0.0 
0.0 1.0 0.0 
0.0 1.0 0.0 
0.0 1.0 0.0 
0.0 1.0 0.0 
0.0 1.0 0.0 
0.0 1.0 0.0 
0.0 1.0 0.0 
0.0 1.0 0.0 
0.0 1.0 0.0 
0.0 1.0 0.0 
0.0 1.0 0.0 
0.0 1.0 0.0 
0.0 1.0 0.0 
0.0 1.0 0.0 
0.0 1.0 0.0 
0.0 1.0 0.0 
0.0 0.0 1.0 
0.0 0.0 1.0 
0.0 0.0 1.0 
0.0 0.0 1.0 
0.0 0.0 1.0 
0.0 0.0 1.0 
0.0 0.0 1.0 
0.0 0.0 1.0 
0.0 0.0 1.0 
0.0 0.0 1.0 
0.0 0.0 1.0 
0.0 0.0 1.0 
0.0 0.0 1.0 
0.0 0.0 1.0 
0.0 0.0 1.0 
0.0 0.0 1.0 
0.0 0.0 1.0 
0.0 0.0 1.0 
0.0 0.0 1.0 
0.0 0.0 1.0 
0.0 0.0 1.0 
0.0 0.0 1.0 
0.0 0.0 1.0 
0.0 0.0 1.0 
0.0 0.0 1.0 
0.0 0.0 1.0 
0.0 0.0 1.0 
0.0 0.0 1.0 
0.0 0.0 1.0 
0.0 0.0 1.0 
0.0 0.0 1.0 
0.0 0.0 1.0 
0.0 0.0 1.0 
0.0 0.0 1.0 
0.0 0.0 1.0 
0.0 0.0 1.0 
0.0 0.0 1.0 
0.0 0.0 1.0 
0.0 0.0 1.0 
0.0 0.0 1.0 
0.0 0.0 1.0 
0.0 0.0 1.0 
0.0 0.0 1.0 
0.0 0.0 1.0 
0.0 0.0 1.0 
0.0 0.0 1.0 
0.0 0.0 1.0 
0.0 0.0 1.0 
0.0 0.0 1.0 
0.0 0.0 1.0 
Learning : 0.8500000238418579
Momentum : 0.9
Epoch: 100, Error: 0.01734366494824869
Epoch: 200, Error: 0.012592639176502926
Epoch: 300, Error: 0.01249123532790312
Epoch: 400, Error: 0.012153963171207913
Epoch: 500, Error: 0.011974260585651705
Epoch: 600, Error: 0.01199235244022097
Epoch: 700, Error: 0.014131035771311628
Epoch: 800, Error: 0.012466524798180263
Epoch: 900, Error: 0.01207045418768781
Epoch: 1000, Error: 0.01189096948956578
Epoch: 1100, Error: 0.012769350998918048
Epoch: 1200, Error: 0.011572036685968805
Epoch: 1300, Error: 0.01141523517198188
Epoch: 1400, Error: 0.011357969882761323
Epoch: 1500, Error: 0.0111563639972546
Epoch: 1600, Error: 0.01069197221852748
Epoch: 1700, Error: 0.01121405493460502
Epoch: 1800, Error: 0.010396863248823048
Epoch: 1900, Error: 0.011001819557049236
Epoch: 2000, Error: 0.010006767250551982
Epoch: 2100, Error: 0.009319743276943094
Epoch: 2200, Error: 0.007096196678177816
Epoch: 2300, Error: 0.0061109799262396075
Epoch: 2400, Error: 0.005899117613474897
Epoch: 2500, Error: 0.005203888234064424
Epoch: 2600, Error: 0.005098538386254604
Epoch: 2700, Error: 0.005097164215866115
Epoch: 2800, Error: 0.005049881415937666
Epoch: 2900, Error: 0.00502734100374154
Epoch: 3000, Error: 0.005035509114789709
Epoch: 3100, Error: 0.004982544205618111
Epoch: 3200, Error: 0.005015767169656084
Epoch: 3300, Error: 0.005031800579684943
Epoch: 3400, Error: 0.004957537954051169
Epoch: 3500, Error: 0.004960495266510573
Epoch: 3600, Error: 0.004950435758234001
Epoch: 3700, Error: 0.005024529173649303
Epoch: 3800, Error: 0.004962438212499961
Epoch: 3900, Error: 0.004965077745694949
Epoch: 4000, Error: 0.004969809543260008
Epoch: 4100, Error: 0.005022233172638954
Epoch: 4200, Error: 0.0049951368136214175
Epoch: 4300, Error: 0.005043339484417384
Epoch: 4400, Error: 0.005195035870193283
Epoch: 4500, Error: 0.005004005241312102
Epoch: 4600, Error: 0.0049632144240804674
Epoch: 4700, Error: 0.004963756191779894
Epoch: 4800, Error: 0.004937493691076929
Epoch: 4900, Error: 0.004893812219993211
Epoch: 5000, Error: 0.004903030763414235
Epoch: 5100, Error: 0.004921970960001878
Epoch: 5200, Error: 0.004864637030396913
Epoch: 5300, Error: 0.004638681636930256
Epoch: 5400, Error: 0.004589950913168529
Epoch: 5500, Error: 0.004614622301888447
Epoch: 5600, Error: 0.004759295461312763
Epoch: 5700, Error: 0.0049588303239100975
Epoch: 5800, Error: 0.004566554644551568
Epoch: 5900, Error: 0.0044965029847224254
Epoch: 6000, Error: 0.0038628672220854337
Epoch: 6100, Error: 0.0036768515722420962
Epoch: 6200, Error: 0.007141357227720631
Epoch: 6300, Error: 0.0034059923179988448
Epoch: 6400, Error: 0.004030792428724587
Epoch: 6500, Error: 0.003783887748899928
Epoch: 6600, Error: 0.00406984707243812
Epoch: 6700, Error: 0.003031120194358025
Epoch: 6800, Error: 0.0039306711023351015
Epoch: 6900, Error: 0.002571604483554542
Epoch: 7000, Error: 0.003295959423691696
Epoch: 7100, Error: 0.002262141238279399
Epoch: 7200, Error: 0.0029031587713570254
Epoch: 7300, Error: 0.0027336587233704967
Epoch: 7400, Error: 0.0024850412754053516
Epoch: 7500, Error: 0.005579595747428456
Epoch: 7600, Error: 0.003558426865984413
Epoch: 7700, Error: 0.0034720849093841356
Epoch: 7800, Error: 0.0016026490056111114
Epoch: 7900, Error: 0.0022692729634414604
Epoch: 8000, Error: 0.0035869612682249033
Epoch: 8100, Error: 0.003681727037457375
Epoch: 8200, Error: 0.0039179395596647005
Epoch: 8300, Error: 0.0013707827351064344
Epoch: 8400, Error: 0.006296669940001231
Epoch: 8500, Error: 0.001647627616354665
Epoch: 8600, Error: 0.0011794948966815492
Epoch: 8700, Error: 0.004429449034730925
Epoch: 8800, Error: 0.003026967288137661
Epoch: 8900, Error: 0.004048354122567789
Epoch: 9000, Error: 0.0019353110381012454
Epoch: 9100, Error: 0.0012823392533342205
Epoch: 9200, Error: 8.246409877701917E-4
Epoch: 9300, Error: 0.008275384659816296
Epoch: 9400, Error: 0.0015617105337204867
Epoch: 9500, Error: 0.0010733541188520405
Epoch: 9600, Error: 7.716155720475939E-4
Epoch: 9700, Error: 7.682504357593198E-4
Epoch: 9800, Error: 8.233192968281245E-4
Epoch: 9900, Error: 8.031363973530402E-4
Epoch: 10000, Error: 7.742381870731547E-4
Epoch: 10100, Error: 7.597702421923405E-4
Epoch: 10200, Error: 7.519547718465363E-4
Epoch: 10300, Error: 7.604340298495727E-4
Epoch: 10400, Error: 7.249583697904928E-4
Epoch: 10500, Error: 7.156226167025887E-4
Epoch: 10600, Error: 7.306196372098895E-4
Epoch: 10700, Error: 7.620282244891181E-4
Epoch: 10800, Error: 7.382103239604417E-4
Epoch: 10900, Error: 7.173190903095871E-4
Epoch: 11000, Error: 6.974653644020479E-4
Epoch: 11100, Error: 6.415041803233364E-4
Epoch: 11200, Error: 5.97492535956101E-4
Epoch: 11300, Error: 5.761147094573827E-4
Epoch: 11400, Error: 5.707611989946647E-4
Epoch: 11500, Error: 5.276912928586301E-4
Epoch: 11600, Error: 5.202206560631886E-4
Epoch: 11700, Error: 5.540203683783753E-4
Epoch: 11800, Error: 5.171751967728057E-4
Epoch: 11900, Error: 5.150888134485606E-4
Epoch: 12000, Error: 5.179423388576672E-4
Epoch: 12100, Error: 5.142342094654065E-4
Epoch: 12200, Error: 5.333875012714058E-4
Epoch: 12300, Error: 5.329623605972506E-4
Epoch: 12400, Error: 5.307780073070354E-4
Epoch: 12500, Error: 5.324309672977539E-4
Epoch: 12600, Error: 5.264474428422042E-4
Epoch: 12700, Error: 5.102470657693944E-4
Epoch: 12800, Error: 5.072367957213036E-4
Epoch: 12900, Error: 5.086574399419511E-4
Epoch: 13000, Error: 5.06764367493882E-4
Epoch: 13100, Error: 5.068251987043147E-4
Epoch: 13200, Error: 5.039562095898504E-4
Epoch: 13300, Error: 5.046274735368012E-4
Epoch: 13400, Error: 5.128990103826143E-4
Epoch: 13500, Error: 5.801654624943137E-4
Epoch: 13600, Error: 5.033037228595542E-4
finished
