Input Patterns
0.224 0.624 0.067 0.043 
0.11 0.502 0.051 0.043 
0.196 0.667 0.067 0.043 
0.055 0.584 0.067 0.082 
0.027 0.376 0.067 0.043 
0.306 0.71 0.086 0.043 
0.137 0.416 0.067 0.0 
0.416 0.831 0.035 0.043 
0.306 0.792 0.051 0.125 
0.388 0.749 0.118 0.082 
0.306 0.584 0.118 0.043 
0.082 0.667 0.0 0.043 
0.137 0.584 0.153 0.043 
0.196 0.584 0.102 0.125 
0.251 0.584 0.067 0.043 
0.137 0.459 0.102 0.043 
0.251 0.875 0.086 0.0 
0.165 0.459 0.086 0.043 
0.333 0.624 0.051 0.043 
0.027 0.416 0.051 0.043 
0.196 0.624 0.051 0.082 
0.027 0.502 0.051 0.043 
0.224 0.749 0.153 0.125 
0.224 0.749 0.102 0.043 
0.278 0.71 0.086 0.043 
0.165 0.416 0.067 0.043 
0.082 0.459 0.086 0.043 
0.306 0.792 0.118 0.125 
0.196 0.584 0.086 0.043 
0.165 0.459 0.086 0.0 
0.137 0.584 0.102 0.043 
0.0 0.416 0.016 0.0 
0.388 1.0 0.086 0.125 
0.224 0.624 0.067 0.082 
0.224 0.749 0.086 0.082 
0.224 0.71 0.086 0.125 
0.224 0.541 0.118 0.165 
0.196 0.416 0.102 0.043 
0.251 0.624 0.086 0.043 
0.11 0.502 0.102 0.043 
0.306 0.584 0.086 0.125 
0.333 0.918 0.067 0.043 
0.196 0.502 0.035 0.043 
0.165 0.667 0.067 0.0 
0.224 0.584 0.086 0.043 
0.055 0.125 0.051 0.082 
0.196 0.624 0.102 0.208 
0.137 0.416 0.067 0.082 
0.082 0.502 0.067 0.043 
0.196 0.541 0.067 0.043 
0.749 0.502 0.627 0.541 
0.722 0.459 0.663 0.584 
0.612 0.333 0.612 0.584 
0.557 0.541 0.627 0.624 
0.639 0.376 0.612 0.498 
0.196 0.0 0.424 0.376 
0.471 0.082 0.51 0.376 
0.361 0.376 0.439 0.498 
0.361 0.416 0.592 0.584 
0.529 0.082 0.592 0.584 
0.443 0.502 0.643 0.459 
0.557 0.208 0.663 0.584 
0.584 0.376 0.561 0.498 
0.694 0.333 0.643 0.541 
0.471 0.376 0.592 0.584 
0.333 0.169 0.475 0.416 
0.416 0.29 0.49 0.459 
0.306 0.416 0.592 0.584 
0.667 0.459 0.627 0.584 
0.361 0.416 0.525 0.498 
0.333 0.251 0.576 0.459 
0.416 0.251 0.51 0.459 
0.361 0.29 0.541 0.498 
0.388 0.376 0.541 0.498 
0.224 0.208 0.337 0.416 
0.584 0.502 0.592 0.584 
0.333 0.125 0.51 0.498 
0.388 0.333 0.592 0.498 
0.165 0.169 0.388 0.376 
0.251 0.29 0.49 0.541 
0.443 0.416 0.541 0.584 
0.498 0.376 0.627 0.541 
0.667 0.459 0.576 0.541 
0.416 0.29 0.525 0.376 
0.361 0.208 0.49 0.416 
0.498 0.333 0.51 0.498 
0.498 0.333 0.627 0.459 
0.639 0.416 0.576 0.541 
0.667 0.416 0.678 0.667 
0.388 0.251 0.424 0.376 
0.333 0.169 0.459 0.376 
0.471 0.29 0.694 0.624 
0.471 0.584 0.592 0.624 
0.557 0.125 0.576 0.498 
0.333 0.208 0.51 0.498 
0.498 0.416 0.612 0.541 
0.196 0.125 0.388 0.376 
0.388 0.416 0.541 0.459 
0.529 0.376 0.561 0.498 
0.388 0.333 0.525 0.498 
0.557 0.541 0.847 1.0 
0.776 0.416 0.831 0.831 
0.612 0.416 0.812 0.875 
0.165 0.208 0.592 0.667 
0.667 0.208 0.812 0.71 
0.612 0.502 0.694 0.792 
0.694 0.416 0.761 0.831 
0.416 0.333 0.694 0.957 
0.612 0.416 0.761 0.71 
0.945 0.251 1.0 0.918 
0.722 0.502 0.796 0.918 
0.945 0.333 0.965 0.792 
0.667 0.541 0.796 0.831 
0.529 0.333 0.643 0.71 
0.584 0.333 0.78 0.831 
0.863 0.333 0.863 0.749 
0.584 0.333 0.78 0.875 
0.498 0.251 0.78 0.541 
0.557 0.584 0.78 0.957 
0.471 0.416 0.643 0.71 
0.667 0.459 0.78 0.957 
0.416 0.29 0.694 0.749 
0.667 0.541 0.796 1.0 
0.557 0.208 0.678 0.749 
0.529 0.584 0.745 0.918 
0.416 0.29 0.694 0.749 
0.557 0.376 0.78 0.71 
0.918 0.416 0.949 0.831 
0.835 0.376 0.898 0.71 
0.804 0.667 0.863 1.0 
0.584 0.29 0.729 0.749 
0.388 0.208 0.678 0.792 
0.584 0.502 0.729 0.918 
0.945 0.749 0.965 0.875 
0.471 0.082 0.678 0.584 
0.361 0.333 0.663 0.792 
0.557 0.29 0.663 0.71 
0.804 0.502 0.847 0.71 
0.498 0.416 0.51 0.71 
0.804 0.416 0.812 0.624 
1.0 0.749 0.914 0.792 
0.557 0.333 0.694 0.584 
0.945 0.416 0.863 0.918 
0.584 0.459 0.761 0.71 
0.722 0.459 0.745 0.831 
0.722 0.459 0.694 0.918 
0.694 0.502 0.831 0.918 
0.667 0.416 0.714 0.918 
0.612 0.416 0.714 0.792 
0.443 0.416 0.694 0.71 
Teaching Patterns
1.0 0.0 0.0 
1.0 0.0 0.0 
1.0 0.0 0.0 
1.0 0.0 0.0 
1.0 0.0 0.0 
1.0 0.0 0.0 
1.0 0.0 0.0 
1.0 0.0 0.0 
1.0 0.0 0.0 
1.0 0.0 0.0 
1.0 0.0 0.0 
1.0 0.0 0.0 
1.0 0.0 0.0 
1.0 0.0 0.0 
1.0 0.0 0.0 
1.0 0.0 0.0 
1.0 0.0 0.0 
1.0 0.0 0.0 
1.0 0.0 0.0 
1.0 0.0 0.0 
1.0 0.0 0.0 
1.0 0.0 0.0 
1.0 0.0 0.0 
1.0 0.0 0.0 
1.0 0.0 0.0 
1.0 0.0 0.0 
1.0 0.0 0.0 
1.0 0.0 0.0 
1.0 0.0 0.0 
1.0 0.0 0.0 
1.0 0.0 0.0 
1.0 0.0 0.0 
1.0 0.0 0.0 
1.0 0.0 0.0 
1.0 0.0 0.0 
1.0 0.0 0.0 
1.0 0.0 0.0 
1.0 0.0 0.0 
1.0 0.0 0.0 
1.0 0.0 0.0 
1.0 0.0 0.0 
1.0 0.0 0.0 
1.0 0.0 0.0 
1.0 0.0 0.0 
1.0 0.0 0.0 
1.0 0.0 0.0 
1.0 0.0 0.0 
1.0 0.0 0.0 
1.0 0.0 0.0 
1.0 0.0 0.0 
0.0 1.0 0.0 
0.0 1.0 0.0 
0.0 1.0 0.0 
0.0 1.0 0.0 
0.0 1.0 0.0 
0.0 1.0 0.0 
0.0 1.0 0.0 
0.0 1.0 0.0 
0.0 1.0 0.0 
0.0 1.0 0.0 
0.0 1.0 0.0 
0.0 1.0 0.0 
0.0 1.0 0.0 
0.0 1.0 0.0 
0.0 1.0 0.0 
0.0 1.0 0.0 
0.0 1.0 0.0 
0.0 1.0 0.0 
0.0 1.0 0.0 
0.0 1.0 0.0 
0.0 1.0 0.0 
0.0 1.0 0.0 
0.0 1.0 0.0 
0.0 1.0 0.0 
0.0 1.0 0.0 
0.0 1.0 0.0 
0.0 1.0 0.0 
0.0 1.0 0.0 
0.0 1.0 0.0 
0.0 1.0 0.0 
0.0 1.0 0.0 
0.0 1.0 0.0 
0.0 1.0 0.0 
0.0 1.0 0.0 
0.0 1.0 0.0 
0.0 1.0 0.0 
0.0 1.0 0.0 
0.0 1.0 0.0 
0.0 1.0 0.0 
0.0 1.0 0.0 
0.0 1.0 0.0 
0.0 1.0 0.0 
0.0 1.0 0.0 
0.0 1.0 0.0 
0.0 1.0 0.0 
0.0 1.0 0.0 
0.0 1.0 0.0 
0.0 1.0 0.0 
0.0 1.0 0.0 
0.0 1.0 0.0 
0.0 0.0 1.0 
0.0 0.0 1.0 
0.0 0.0 1.0 
0.0 0.0 1.0 
0.0 0.0 1.0 
0.0 0.0 1.0 
0.0 0.0 1.0 
0.0 0.0 1.0 
0.0 0.0 1.0 
0.0 0.0 1.0 
0.0 0.0 1.0 
0.0 0.0 1.0 
0.0 0.0 1.0 
0.0 0.0 1.0 
0.0 0.0 1.0 
0.0 0.0 1.0 
0.0 0.0 1.0 
0.0 0.0 1.0 
0.0 0.0 1.0 
0.0 0.0 1.0 
0.0 0.0 1.0 
0.0 0.0 1.0 
0.0 0.0 1.0 
0.0 0.0 1.0 
0.0 0.0 1.0 
0.0 0.0 1.0 
0.0 0.0 1.0 
0.0 0.0 1.0 
0.0 0.0 1.0 
0.0 0.0 1.0 
0.0 0.0 1.0 
0.0 0.0 1.0 
0.0 0.0 1.0 
0.0 0.0 1.0 
0.0 0.0 1.0 
0.0 0.0 1.0 
0.0 0.0 1.0 
0.0 0.0 1.0 
0.0 0.0 1.0 
0.0 0.0 1.0 
0.0 0.0 1.0 
0.0 0.0 1.0 
0.0 0.0 1.0 
0.0 0.0 1.0 
0.0 0.0 1.0 
0.0 0.0 1.0 
0.0 0.0 1.0 
0.0 0.0 1.0 
0.0 0.0 1.0 
0.0 0.0 1.0 
Learning : 0.8500000238418579
Momentum : 0.9
Epoch: 100, Error: 0.013486791243655915
Epoch: 200, Error: 0.013165029727718514
Epoch: 300, Error: 0.011980032963760793
Epoch: 400, Error: 0.011976696134073206
Epoch: 500, Error: 0.011906501741032562
Epoch: 600, Error: 0.011734731417223285
Epoch: 700, Error: 0.011604155516824335
Epoch: 800, Error: 0.012707434793627235
Epoch: 900, Error: 0.011742405036440192
Epoch: 1000, Error: 0.01294953144689282
Epoch: 1100, Error: 0.011573961253438968
Epoch: 1200, Error: 0.011841549091956165
Epoch: 1300, Error: 0.011320874857025561
Epoch: 1400, Error: 0.011333226689092493
Epoch: 1500, Error: 0.011664642168027739
Epoch: 1600, Error: 0.01097373404377165
Epoch: 1700, Error: 0.010829653227486654
Epoch: 1800, Error: 0.010764618425808154
Epoch: 1900, Error: 0.01132788317671698
Epoch: 2000, Error: 0.01025960381623604
Epoch: 2100, Error: 0.010189380689564638
Epoch: 2200, Error: 0.009571027396222186
Epoch: 2300, Error: 0.009249605172019351
Epoch: 2400, Error: 0.008953842084450296
Epoch: 2500, Error: 0.008640281903604765
Epoch: 2600, Error: 0.008348009305360064
Epoch: 2700, Error: 0.01063261687968121
Epoch: 2800, Error: 0.007929669509764446
Epoch: 2900, Error: 0.006647659256515354
Epoch: 3000, Error: 0.005903711431530068
Epoch: 3100, Error: 0.005746008656295085
Epoch: 3200, Error: 0.005162513340287106
Epoch: 3300, Error: 0.005363425217177964
Epoch: 3400, Error: 0.005023529475391194
Epoch: 3500, Error: 0.00498542346703741
Epoch: 3600, Error: 0.005005932184022983
Epoch: 3700, Error: 0.005047576468749507
Epoch: 3800, Error: 0.005109465994756226
Epoch: 3900, Error: 0.005063567736509401
Epoch: 4000, Error: 0.005021507431978577
Epoch: 4100, Error: 0.005004668024362853
Epoch: 4200, Error: 0.0049756324666018975
Epoch: 4300, Error: 0.004990354427685437
Epoch: 4400, Error: 0.004933741930092699
Epoch: 4500, Error: 0.004903600046839706
Epoch: 4600, Error: 0.004947383178607104
Epoch: 4700, Error: 0.004874694028645865
Epoch: 4800, Error: 0.004814131892247304
Epoch: 4900, Error: 0.004916431447551028
Epoch: 5000, Error: 0.004788320310394867
Epoch: 5100, Error: 0.0047736288027350315
Epoch: 5200, Error: 0.0046872789339107235
Epoch: 5300, Error: 0.004617475719098937
Epoch: 5400, Error: 0.004639464447323736
Epoch: 5500, Error: 0.004618984660555101
Epoch: 5600, Error: 0.004734090081145897
Epoch: 5700, Error: 0.004557959658286377
Epoch: 5800, Error: 0.004680953593026946
Epoch: 5900, Error: 0.005110644612770193
Epoch: 6000, Error: 0.004580409262205948
Epoch: 6100, Error: 0.004339152625074335
Epoch: 6200, Error: 0.004266452141746928
Epoch: 6300, Error: 0.004821229533675194
Epoch: 6400, Error: 0.004019919787046803
Epoch: 6500, Error: 0.004082783905572686
Epoch: 6600, Error: 0.003918900103932466
Epoch: 6700, Error: 0.004104209754296643
Epoch: 6800, Error: 0.0038422821250634655
Epoch: 6900, Error: 0.003610180148388804
Epoch: 7000, Error: 0.003218123580930388
Epoch: 7100, Error: 0.003060891809007175
Epoch: 7200, Error: 0.003670150108156108
Epoch: 7300, Error: 0.003183302250341534
Epoch: 7400, Error: 0.0032743997872656558
Epoch: 7500, Error: 0.0030540960828982933
Epoch: 7600, Error: 0.002733322076303724
Epoch: 7700, Error: 0.0029971213512719683
Epoch: 7800, Error: 0.002593152167439554
Epoch: 7900, Error: 0.005628193269631171
Epoch: 8000, Error: 0.0015290380186166808
Epoch: 8100, Error: 0.002472369738617812
Epoch: 8200, Error: 0.004756875043082333
Epoch: 8300, Error: 0.002732653849848875
Epoch: 8400, Error: 0.0017725575440913262
Epoch: 8500, Error: 0.00523683604012169
Epoch: 8600, Error: 0.0012538607748881312
Epoch: 8700, Error: 0.002068503694008264
Epoch: 8800, Error: 0.004561967691632577
Epoch: 8900, Error: 0.0032192661993992754
Epoch: 9000, Error: 0.0016832651858302843
Epoch: 9100, Error: 8.085482946847283E-4
Epoch: 9200, Error: 8.006478392629189E-4
Epoch: 9300, Error: 6.040445084748078E-4
Epoch: 9400, Error: 5.853094267220569E-4
Epoch: 9500, Error: 6.41798572326375E-4
Epoch: 9600, Error: 7.677500243910715E-4
Epoch: 9700, Error: 7.054906031107875E-4
Epoch: 9800, Error: 6.155942462907406E-4
Epoch: 9900, Error: 6.334494607709972E-4
Epoch: 10000, Error: 6.256840492392651E-4
Epoch: 10100, Error: 0.0011131727477586757
Epoch: 10200, Error: 6.141281794061336E-4
Epoch: 10300, Error: 6.631317341022904E-4
Epoch: 10400, Error: 6.376254885854046E-4
Epoch: 10500, Error: 5.59268328080576E-4
Epoch: 10600, Error: 5.53127636353712E-4
Epoch: 10700, Error: 5.645714309662572E-4
Epoch: 10800, Error: 5.40204981385752E-4
Epoch: 10900, Error: 5.591774203163143E-4
Epoch: 11000, Error: 5.480537273925862E-4
Epoch: 11100, Error: 5.322052694518888E-4
Epoch: 11200, Error: 5.077346821034977E-4
Epoch: 11300, Error: 5.7193825443746E-4
Epoch: 11400, Error: 5.24443495894534E-4
finished
