Input Patterns
0.224 0.624 0.067 0.043 
0.11 0.502 0.051 0.043 
0.196 0.667 0.067 0.043 
0.055 0.584 0.067 0.082 
0.027 0.376 0.067 0.043 
0.306 0.71 0.086 0.043 
0.137 0.416 0.067 0.0 
0.416 0.831 0.035 0.043 
0.306 0.792 0.051 0.125 
0.388 0.749 0.118 0.082 
0.306 0.584 0.118 0.043 
0.082 0.667 0.0 0.043 
0.137 0.584 0.153 0.043 
0.196 0.584 0.102 0.125 
0.251 0.584 0.067 0.043 
0.137 0.459 0.102 0.043 
0.251 0.875 0.086 0.0 
0.165 0.459 0.086 0.043 
0.333 0.624 0.051 0.043 
0.027 0.416 0.051 0.043 
0.196 0.624 0.051 0.082 
0.027 0.502 0.051 0.043 
0.224 0.749 0.153 0.125 
0.224 0.749 0.102 0.043 
0.278 0.71 0.086 0.043 
0.165 0.416 0.067 0.043 
0.082 0.459 0.086 0.043 
0.306 0.792 0.118 0.125 
0.196 0.584 0.086 0.043 
0.165 0.459 0.086 0.0 
0.137 0.584 0.102 0.043 
0.0 0.416 0.016 0.0 
0.388 1.0 0.086 0.125 
0.224 0.624 0.067 0.082 
0.224 0.749 0.086 0.082 
0.224 0.71 0.086 0.125 
0.224 0.541 0.118 0.165 
0.196 0.416 0.102 0.043 
0.251 0.624 0.086 0.043 
0.11 0.502 0.102 0.043 
0.306 0.584 0.086 0.125 
0.333 0.918 0.067 0.043 
0.196 0.502 0.035 0.043 
0.165 0.667 0.067 0.0 
0.224 0.584 0.086 0.043 
0.055 0.125 0.051 0.082 
0.196 0.624 0.102 0.208 
0.137 0.416 0.067 0.082 
0.082 0.502 0.067 0.043 
0.196 0.541 0.067 0.043 
0.749 0.502 0.627 0.541 
0.722 0.459 0.663 0.584 
0.612 0.333 0.612 0.584 
0.557 0.541 0.627 0.624 
0.639 0.376 0.612 0.498 
0.196 0.0 0.424 0.376 
0.471 0.082 0.51 0.376 
0.361 0.376 0.439 0.498 
0.361 0.416 0.592 0.584 
0.529 0.082 0.592 0.584 
0.443 0.502 0.643 0.459 
0.557 0.208 0.663 0.584 
0.584 0.376 0.561 0.498 
0.694 0.333 0.643 0.541 
0.471 0.376 0.592 0.584 
0.333 0.169 0.475 0.416 
0.416 0.29 0.49 0.459 
0.306 0.416 0.592 0.584 
0.667 0.459 0.627 0.584 
0.361 0.416 0.525 0.498 
0.333 0.251 0.576 0.459 
0.416 0.251 0.51 0.459 
0.361 0.29 0.541 0.498 
0.388 0.376 0.541 0.498 
0.224 0.208 0.337 0.416 
0.584 0.502 0.592 0.584 
0.333 0.125 0.51 0.498 
0.388 0.333 0.592 0.498 
0.165 0.169 0.388 0.376 
0.251 0.29 0.49 0.541 
0.443 0.416 0.541 0.584 
0.498 0.376 0.627 0.541 
0.667 0.459 0.576 0.541 
0.416 0.29 0.525 0.376 
0.361 0.208 0.49 0.416 
0.498 0.333 0.51 0.498 
0.498 0.333 0.627 0.459 
0.639 0.416 0.576 0.541 
0.667 0.416 0.678 0.667 
0.388 0.251 0.424 0.376 
0.333 0.169 0.459 0.376 
0.471 0.29 0.694 0.624 
0.471 0.584 0.592 0.624 
0.557 0.125 0.576 0.498 
0.333 0.208 0.51 0.498 
0.498 0.416 0.612 0.541 
0.196 0.125 0.388 0.376 
0.388 0.416 0.541 0.459 
0.529 0.376 0.561 0.498 
0.388 0.333 0.525 0.498 
0.557 0.541 0.847 1.0 
0.776 0.416 0.831 0.831 
0.612 0.416 0.812 0.875 
0.165 0.208 0.592 0.667 
0.667 0.208 0.812 0.71 
0.612 0.502 0.694 0.792 
0.694 0.416 0.761 0.831 
0.416 0.333 0.694 0.957 
0.612 0.416 0.761 0.71 
0.945 0.251 1.0 0.918 
0.722 0.502 0.796 0.918 
0.945 0.333 0.965 0.792 
0.667 0.541 0.796 0.831 
0.529 0.333 0.643 0.71 
0.584 0.333 0.78 0.831 
0.863 0.333 0.863 0.749 
0.584 0.333 0.78 0.875 
0.498 0.251 0.78 0.541 
0.557 0.584 0.78 0.957 
0.471 0.416 0.643 0.71 
0.667 0.459 0.78 0.957 
0.416 0.29 0.694 0.749 
0.667 0.541 0.796 1.0 
0.557 0.208 0.678 0.749 
0.529 0.584 0.745 0.918 
0.416 0.29 0.694 0.749 
0.557 0.376 0.78 0.71 
0.918 0.416 0.949 0.831 
0.835 0.376 0.898 0.71 
0.804 0.667 0.863 1.0 
0.584 0.29 0.729 0.749 
0.388 0.208 0.678 0.792 
0.584 0.502 0.729 0.918 
0.945 0.749 0.965 0.875 
0.471 0.082 0.678 0.584 
0.361 0.333 0.663 0.792 
0.557 0.29 0.663 0.71 
0.804 0.502 0.847 0.71 
0.498 0.416 0.51 0.71 
0.804 0.416 0.812 0.624 
1.0 0.749 0.914 0.792 
0.557 0.333 0.694 0.584 
0.945 0.416 0.863 0.918 
0.584 0.459 0.761 0.71 
0.722 0.459 0.745 0.831 
0.722 0.459 0.694 0.918 
0.694 0.502 0.831 0.918 
0.667 0.416 0.714 0.918 
0.612 0.416 0.714 0.792 
0.443 0.416 0.694 0.71 
Teaching Patterns
1.0 0.0 0.0 
1.0 0.0 0.0 
1.0 0.0 0.0 
1.0 0.0 0.0 
1.0 0.0 0.0 
1.0 0.0 0.0 
1.0 0.0 0.0 
1.0 0.0 0.0 
1.0 0.0 0.0 
1.0 0.0 0.0 
1.0 0.0 0.0 
1.0 0.0 0.0 
1.0 0.0 0.0 
1.0 0.0 0.0 
1.0 0.0 0.0 
1.0 0.0 0.0 
1.0 0.0 0.0 
1.0 0.0 0.0 
1.0 0.0 0.0 
1.0 0.0 0.0 
1.0 0.0 0.0 
1.0 0.0 0.0 
1.0 0.0 0.0 
1.0 0.0 0.0 
1.0 0.0 0.0 
1.0 0.0 0.0 
1.0 0.0 0.0 
1.0 0.0 0.0 
1.0 0.0 0.0 
1.0 0.0 0.0 
1.0 0.0 0.0 
1.0 0.0 0.0 
1.0 0.0 0.0 
1.0 0.0 0.0 
1.0 0.0 0.0 
1.0 0.0 0.0 
1.0 0.0 0.0 
1.0 0.0 0.0 
1.0 0.0 0.0 
1.0 0.0 0.0 
1.0 0.0 0.0 
1.0 0.0 0.0 
1.0 0.0 0.0 
1.0 0.0 0.0 
1.0 0.0 0.0 
1.0 0.0 0.0 
1.0 0.0 0.0 
1.0 0.0 0.0 
1.0 0.0 0.0 
1.0 0.0 0.0 
0.0 1.0 0.0 
0.0 1.0 0.0 
0.0 1.0 0.0 
0.0 1.0 0.0 
0.0 1.0 0.0 
0.0 1.0 0.0 
0.0 1.0 0.0 
0.0 1.0 0.0 
0.0 1.0 0.0 
0.0 1.0 0.0 
0.0 1.0 0.0 
0.0 1.0 0.0 
0.0 1.0 0.0 
0.0 1.0 0.0 
0.0 1.0 0.0 
0.0 1.0 0.0 
0.0 1.0 0.0 
0.0 1.0 0.0 
0.0 1.0 0.0 
0.0 1.0 0.0 
0.0 1.0 0.0 
0.0 1.0 0.0 
0.0 1.0 0.0 
0.0 1.0 0.0 
0.0 1.0 0.0 
0.0 1.0 0.0 
0.0 1.0 0.0 
0.0 1.0 0.0 
0.0 1.0 0.0 
0.0 1.0 0.0 
0.0 1.0 0.0 
0.0 1.0 0.0 
0.0 1.0 0.0 
0.0 1.0 0.0 
0.0 1.0 0.0 
0.0 1.0 0.0 
0.0 1.0 0.0 
0.0 1.0 0.0 
0.0 1.0 0.0 
0.0 1.0 0.0 
0.0 1.0 0.0 
0.0 1.0 0.0 
0.0 1.0 0.0 
0.0 1.0 0.0 
0.0 1.0 0.0 
0.0 1.0 0.0 
0.0 1.0 0.0 
0.0 1.0 0.0 
0.0 1.0 0.0 
0.0 1.0 0.0 
0.0 0.0 1.0 
0.0 0.0 1.0 
0.0 0.0 1.0 
0.0 0.0 1.0 
0.0 0.0 1.0 
0.0 0.0 1.0 
0.0 0.0 1.0 
0.0 0.0 1.0 
0.0 0.0 1.0 
0.0 0.0 1.0 
0.0 0.0 1.0 
0.0 0.0 1.0 
0.0 0.0 1.0 
0.0 0.0 1.0 
0.0 0.0 1.0 
0.0 0.0 1.0 
0.0 0.0 1.0 
0.0 0.0 1.0 
0.0 0.0 1.0 
0.0 0.0 1.0 
0.0 0.0 1.0 
0.0 0.0 1.0 
0.0 0.0 1.0 
0.0 0.0 1.0 
0.0 0.0 1.0 
0.0 0.0 1.0 
0.0 0.0 1.0 
0.0 0.0 1.0 
0.0 0.0 1.0 
0.0 0.0 1.0 
0.0 0.0 1.0 
0.0 0.0 1.0 
0.0 0.0 1.0 
0.0 0.0 1.0 
0.0 0.0 1.0 
0.0 0.0 1.0 
0.0 0.0 1.0 
0.0 0.0 1.0 
0.0 0.0 1.0 
0.0 0.0 1.0 
0.0 0.0 1.0 
0.0 0.0 1.0 
0.0 0.0 1.0 
0.0 0.0 1.0 
0.0 0.0 1.0 
0.0 0.0 1.0 
0.0 0.0 1.0 
0.0 0.0 1.0 
0.0 0.0 1.0 
0.0 0.0 1.0 
Learning : 0.05
Momentum : 0.8999999761581421
Epoch: 100, Error: 0.0228486508163901
Epoch: 200, Error: 0.016919120170029136
Epoch: 300, Error: 0.01462270123440536
Epoch: 400, Error: 0.013679229244875489
Epoch: 500, Error: 0.01309106629199306
Epoch: 600, Error: 0.01272826484897444
Epoch: 700, Error: 0.012493631201161008
Epoch: 800, Error: 0.012405665456471579
Epoch: 900, Error: 0.012182592016017969
Epoch: 1000, Error: 0.01240277524443315
Epoch: 1100, Error: 0.012018690246445411
Epoch: 1200, Error: 0.012004710861129985
Epoch: 1300, Error: 0.011932537345797472
Epoch: 1400, Error: 0.011906526266094111
Epoch: 1500, Error: 0.011844569968413201
Epoch: 1600, Error: 0.011914100253922467
Epoch: 1700, Error: 0.01182430679926816
Epoch: 1800, Error: 0.01186345627890203
Epoch: 1900, Error: 0.011916635228181772
Epoch: 2000, Error: 0.012411651669414407
Epoch: 2100, Error: 0.011799592763989869
Epoch: 2200, Error: 0.01179433297882929
Epoch: 2300, Error: 0.011788941460857103
Epoch: 2400, Error: 0.011786901454673586
Epoch: 2500, Error: 0.011789338110085321
Epoch: 2600, Error: 0.01179148857030759
Epoch: 2700, Error: 0.012023063867382966
Epoch: 2800, Error: 0.011811560330821525
Epoch: 2900, Error: 0.011764250193699064
Epoch: 3000, Error: 0.011821549147034167
Epoch: 3100, Error: 0.01185530359175018
Epoch: 3200, Error: 0.011921129967552046
Epoch: 3300, Error: 0.011787645003366586
Epoch: 3400, Error: 0.01179997701162448
Epoch: 3500, Error: 0.011853548948766647
Epoch: 3600, Error: 0.011800933900699027
Epoch: 3700, Error: 0.011829213786678044
Epoch: 3800, Error: 0.011999115566981008
Epoch: 3900, Error: 0.011884080759336134
Epoch: 4000, Error: 0.011807721888913462
Epoch: 4100, Error: 0.011803253183102562
Epoch: 4200, Error: 0.011766411655497739
Epoch: 4300, Error: 0.011825919154650965
Epoch: 4400, Error: 0.011826871921418252
Epoch: 4500, Error: 0.012007721200952677
Epoch: 4600, Error: 0.011864314268481339
Epoch: 4700, Error: 0.011828249258872462
Epoch: 4800, Error: 0.01181970187325032
Epoch: 4900, Error: 0.011838589840610387
Epoch: 5000, Error: 0.011911374584300104
Epoch: 5100, Error: 0.011818861283061317
Epoch: 5200, Error: 0.011912669521566098
Epoch: 5300, Error: 0.012028418435873291
Epoch: 5400, Error: 0.011977512435436924
Epoch: 5500, Error: 0.011826161769703438
Epoch: 5600, Error: 0.011855809639120574
Epoch: 5700, Error: 0.011886153877236459
Epoch: 5800, Error: 0.01185909308413929
Epoch: 5900, Error: 0.011892543904923596
Epoch: 6000, Error: 0.011806745443305516
Epoch: 6100, Error: 0.01193612063514051
Epoch: 6200, Error: 0.011841920406346683
Epoch: 6300, Error: 0.01196562214349594
Epoch: 6400, Error: 0.0117806203291872
Epoch: 6500, Error: 0.011795026985186849
Epoch: 6600, Error: 0.011813697445998656
Epoch: 6700, Error: 0.011812970161680501
Epoch: 6800, Error: 0.011862006786778649
Epoch: 6900, Error: 0.011834862027493296
Epoch: 7000, Error: 0.011852031046736586
Epoch: 7100, Error: 0.01188286318359882
Epoch: 7200, Error: 0.011844073061954813
Epoch: 7300, Error: 0.011828447914507143
Epoch: 7400, Error: 0.011828167887961455
Epoch: 7500, Error: 0.011817204837086405
Epoch: 7600, Error: 0.01180830589232265
Epoch: 7700, Error: 0.011837246556361215
Epoch: 7800, Error: 0.011732457214626901
Epoch: 7900, Error: 0.011909633625612709
Epoch: 8000, Error: 0.011800643402129973
Epoch: 8100, Error: 0.011766196881741905
Epoch: 8200, Error: 0.011761263955079261
Epoch: 8300, Error: 0.011765986773737388
Epoch: 8400, Error: 0.011814896155570132
Epoch: 8500, Error: 0.011854744162542813
Epoch: 8600, Error: 0.011815579792145717
Epoch: 8700, Error: 0.011824523615015969
Epoch: 8800, Error: 0.011742125020478857
Epoch: 8900, Error: 0.011743116005106104
Epoch: 9000, Error: 0.011836670865181469
Epoch: 9100, Error: 0.011836453663451598
Epoch: 9200, Error: 0.011754033634196744
Epoch: 9300, Error: 0.011764367972060333
Epoch: 9400, Error: 0.011744465163784154
Epoch: 9500, Error: 0.011781165446588531
Epoch: 9600, Error: 0.011806183764839277
Epoch: 9700, Error: 0.011772956065618621
Epoch: 9800, Error: 0.011824725013743972
Epoch: 9900, Error: 0.011739770041971086
Epoch: 10000, Error: 0.011710456224899277
Epoch: 10100, Error: 0.011988203072818874
Epoch: 10200, Error: 0.011838731715094456
Epoch: 10300, Error: 0.011714604107740697
Epoch: 10400, Error: 0.011750146059136112
Epoch: 10500, Error: 0.011683778564189382
Epoch: 10600, Error: 0.011689749871782744
Epoch: 10700, Error: 0.011638815479758943
Epoch: 10800, Error: 0.01166042183205554
Epoch: 10900, Error: 0.011752526538892473
Epoch: 11000, Error: 0.011694074710228196
Epoch: 11100, Error: 0.01170441866000935
Epoch: 11200, Error: 0.01168816079810487
Epoch: 11300, Error: 0.011691744415169875
Epoch: 11400, Error: 0.011735600305548257
Epoch: 11500, Error: 0.011653662287759138
Epoch: 11600, Error: 0.011645366596446946
Epoch: 11700, Error: 0.011654743493370827
Epoch: 11800, Error: 0.011727343864191447
Epoch: 11900, Error: 0.011650171370053043
Epoch: 12000, Error: 0.011608261570125502
Epoch: 12100, Error: 0.011653973163464745
Epoch: 12200, Error: 0.011644470807013774
Epoch: 12300, Error: 0.011841393604477293
Epoch: 12400, Error: 0.01161840970763634
Epoch: 12500, Error: 0.011602084222158238
Epoch: 12600, Error: 0.011711278604270793
Epoch: 12700, Error: 0.01162003278726667
Epoch: 12800, Error: 0.011662496255580409
Epoch: 12900, Error: 0.011653345977297945
Epoch: 13000, Error: 0.011646048413068688
Epoch: 13100, Error: 0.011749154578079794
Epoch: 13200, Error: 0.011722340808437735
Epoch: 13300, Error: 0.011655985348342925
Epoch: 13400, Error: 0.011675486895587547
Epoch: 13500, Error: 0.011616067816113575
Epoch: 13600, Error: 0.011623704212574247
Epoch: 13700, Error: 0.011603284128796649
Epoch: 13800, Error: 0.011595679603177216
Epoch: 13900, Error: 0.011623049113841669
Epoch: 14000, Error: 0.011587226384387613
Epoch: 14100, Error: 0.01164894850457396
Epoch: 14200, Error: 0.011628515840351171
Epoch: 14300, Error: 0.011661893831977053
Epoch: 14400, Error: 0.011631599194181025
Epoch: 14500, Error: 0.011590221666105665
Epoch: 14600, Error: 0.011658861083669272
Epoch: 14700, Error: 0.011641659310863915
Epoch: 14800, Error: 0.01158389678526365
Epoch: 14900, Error: 0.01167597980467482
Epoch: 15000, Error: 0.011757985634470091
Epoch: 15100, Error: 0.01169088203187642
Epoch: 15200, Error: 0.011706976504589057
Epoch: 15300, Error: 0.011594092031139343
Epoch: 15400, Error: 0.011613906017757858
Epoch: 15500, Error: 0.011574383870398709
Epoch: 15600, Error: 0.011624666987158448
Epoch: 15700, Error: 0.01161679111841387
Epoch: 15800, Error: 0.011580404672134888
Epoch: 15900, Error: 0.011684024252895761
Epoch: 16000, Error: 0.011789337426051007
Epoch: 16100, Error: 0.011585022626670737
Epoch: 16200, Error: 0.011522273502887516
Epoch: 16300, Error: 0.011622491944125448
Epoch: 16400, Error: 0.011859606476887422
Epoch: 16500, Error: 0.011554402478785352
Epoch: 16600, Error: 0.011563987873553155
Epoch: 16700, Error: 0.011435923020462372
Epoch: 16800, Error: 0.011415283754147382
Epoch: 16900, Error: 0.011356153881859885
Epoch: 17000, Error: 0.011426660681205174
Epoch: 17100, Error: 0.0113608103705572
Epoch: 17200, Error: 0.011366533184576028
Epoch: 17300, Error: 0.011366385157787068
Epoch: 17400, Error: 0.011343723853936232
Epoch: 17500, Error: 0.011332948571923252
Epoch: 17600, Error: 0.011266533217048057
Epoch: 17700, Error: 0.011242806974551796
Epoch: 17800, Error: 0.011203503357869987
Epoch: 17900, Error: 0.011168457704446506
Epoch: 18000, Error: 0.011102151772343161
Epoch: 18100, Error: 0.011093043907639872
Epoch: 18200, Error: 0.011041964769304212
Epoch: 18300, Error: 0.011007965483667845
Epoch: 18400, Error: 0.010980561945984615
Epoch: 18500, Error: 0.010909884095772924
Epoch: 18600, Error: 0.010844555668619828
Epoch: 18700, Error: 0.010939631207312443
Epoch: 18800, Error: 0.01075660213844499
Epoch: 18900, Error: 0.010743069834284443
Epoch: 19000, Error: 0.010621179234577654
Epoch: 19100, Error: 0.010577294584697692
Epoch: 19200, Error: 0.010500214728685344
Epoch: 19300, Error: 0.010488383571609186
Epoch: 19400, Error: 0.010470540523162786
Epoch: 19500, Error: 0.010403043057870324
Epoch: 19600, Error: 0.01036527113646387
Epoch: 19700, Error: 0.0104104891059106
Epoch: 19800, Error: 0.01025413509895421
Epoch: 19900, Error: 0.010213521166466026
Epoch: 20000, Error: 0.010177645166304464
Epoch: 20100, Error: 0.010154183871528739
Epoch: 20200, Error: 0.010063710030856354
Epoch: 20300, Error: 0.009938595279652821
Epoch: 20400, Error: 0.009995274737914601
Epoch: 20500, Error: 0.009923514136246408
Epoch: 20600, Error: 0.009847026249576993
Epoch: 20700, Error: 0.009793346583030094
Epoch: 20800, Error: 0.009740354530433362
Epoch: 20900, Error: 0.009669326483794094
Epoch: 21000, Error: 0.009568239331744114
Epoch: 21100, Error: 0.009526384550964289
Epoch: 21200, Error: 0.009439023666251215
Epoch: 21300, Error: 0.009362883466910289
Epoch: 21400, Error: 0.009320147897719112
Epoch: 21500, Error: 0.009261861950923565
Epoch: 21600, Error: 0.009206772324704819
Epoch: 21700, Error: 0.009108409503582032
Epoch: 21800, Error: 0.009048194165048781
Epoch: 21900, Error: 0.008979406845323116
Epoch: 22000, Error: 0.008952726538687754
Epoch: 22100, Error: 0.008873997146177518
Epoch: 22200, Error: 0.00882142650931926
Epoch: 22300, Error: 0.00875113612853067
Epoch: 22400, Error: 0.008714886576328582
Epoch: 22500, Error: 0.008608595008215017
Epoch: 22600, Error: 0.008566805570278934
Epoch: 22700, Error: 0.008497614143708272
Epoch: 22800, Error: 0.00846530000001451
Epoch: 22900, Error: 0.008381117833882824
Epoch: 23000, Error: 0.008325641394824123
Epoch: 23100, Error: 0.008289687282626959
Epoch: 23200, Error: 0.00822580383719486
Epoch: 23300, Error: 0.008195835338469883
Epoch: 23400, Error: 0.00814761963785384
Epoch: 23500, Error: 0.008128001167965472
Epoch: 23600, Error: 0.008071209566409537
Epoch: 23700, Error: 0.008033622011749142
Epoch: 23800, Error: 0.008023203977618692
Epoch: 23900, Error: 0.007972953598533828
Epoch: 24000, Error: 0.007940526196526845
Epoch: 24100, Error: 0.007911369477542951
Epoch: 24200, Error: 0.007890396309994155
Epoch: 24300, Error: 0.00788639057974802
Epoch: 24400, Error: 0.007842982122460167
Epoch: 24500, Error: 0.0077808627368732425
Epoch: 24600, Error: 0.007750123440607924
Epoch: 24700, Error: 0.007748998041806679
Epoch: 24800, Error: 0.007724518292967753
Epoch: 24900, Error: 0.007681749320764351
Epoch: 25000, Error: 0.007661226599065707
Epoch: 25100, Error: 0.007624725010150573
Epoch: 25200, Error: 0.007636018838457885
Epoch: 25300, Error: 0.007596126577082273
Epoch: 25400, Error: 0.007543799041636295
Epoch: 25500, Error: 0.007512065651228606
Epoch: 25600, Error: 0.007532896517093287
Epoch: 25700, Error: 0.007456207562957461
Epoch: 25800, Error: 0.007430254521162399
Epoch: 25900, Error: 0.007409076031973212
Epoch: 26000, Error: 0.0073606578548980305
Epoch: 26100, Error: 0.007333427953111412
Epoch: 26200, Error: 0.007329171007566064
Epoch: 26300, Error: 0.007346929741512384
Epoch: 26400, Error: 0.007340988192162762
Epoch: 26500, Error: 0.007245275775546481
Epoch: 26600, Error: 0.007219517498722447
Epoch: 26700, Error: 0.007213747302814856
Epoch: 26800, Error: 0.007202925143637774
Epoch: 26900, Error: 0.007171353660734316
Epoch: 27000, Error: 0.007150956265903175
Epoch: 27100, Error: 0.007135501419360256
Epoch: 27200, Error: 0.0071091462562607914
Epoch: 27300, Error: 0.007097966638144299
Epoch: 27400, Error: 0.0071267501726233196
Epoch: 27500, Error: 0.0070719644261199345
Epoch: 27600, Error: 0.007098660057610138
Epoch: 27700, Error: 0.00703019136060196
Epoch: 27800, Error: 0.00701466874123909
Epoch: 27900, Error: 0.006994952446784199
Epoch: 28000, Error: 0.006980429918463043
Epoch: 28100, Error: 0.00696907027099872
Epoch: 28200, Error: 0.006995877774977763
Epoch: 28300, Error: 0.0069023020027406705
Epoch: 28400, Error: 0.0068959338571240895
Epoch: 28500, Error: 0.006877839829529225
Epoch: 28600, Error: 0.006876026036483656
Epoch: 28700, Error: 0.00686557603550503
Epoch: 28800, Error: 0.006865424801048267
Epoch: 28900, Error: 0.006864732541609605
Epoch: 29000, Error: 0.006843992670405968
Epoch: 29100, Error: 0.006871261194803878
Epoch: 29200, Error: 0.006843501075778384
Epoch: 29300, Error: 0.006853178219018589
Epoch: 29400, Error: 0.006821131070459045
Epoch: 29500, Error: 0.006826134365536195
Epoch: 29600, Error: 0.006847457918552565
Epoch: 29700, Error: 0.006803865026416576
Epoch: 29800, Error: 0.006825399445063295
Epoch: 29900, Error: 0.006764752309764052
Epoch: 30000, Error: 0.006754701192361275
Epoch: 30100, Error: 0.0067506980860260555
Epoch: 30200, Error: 0.006746285348877488
Epoch: 30300, Error: 0.006799183615309012
Epoch: 30400, Error: 0.006734756736198009
Epoch: 30500, Error: 0.006714243498901712
Epoch: 30600, Error: 0.006706978501168356
Epoch: 30700, Error: 0.00668744043165299
Epoch: 30800, Error: 0.006681652118166317
Epoch: 30900, Error: 0.006692826607293445
Epoch: 31000, Error: 0.00666778611800584
Epoch: 31100, Error: 0.006664512366144642
Epoch: 31200, Error: 0.006650666483496281
Epoch: 31300, Error: 0.006642010964893023
Epoch: 31400, Error: 0.006649885124444991
Epoch: 31500, Error: 0.006635282812265265
Epoch: 31600, Error: 0.006625577913683081
Epoch: 31700, Error: 0.006618761066295868
Epoch: 31800, Error: 0.00665702919179533
