Input Patterns
0.224 0.624 0.067 0.043 
0.11 0.502 0.051 0.043 
0.196 0.667 0.067 0.043 
0.055 0.584 0.067 0.082 
0.027 0.376 0.067 0.043 
0.306 0.71 0.086 0.043 
0.137 0.416 0.067 0.0 
0.416 0.831 0.035 0.043 
0.306 0.792 0.051 0.125 
0.388 0.749 0.118 0.082 
0.306 0.584 0.118 0.043 
0.082 0.667 0.0 0.043 
0.137 0.584 0.153 0.043 
0.196 0.584 0.102 0.125 
0.251 0.584 0.067 0.043 
0.137 0.459 0.102 0.043 
0.251 0.875 0.086 0.0 
0.165 0.459 0.086 0.043 
0.333 0.624 0.051 0.043 
0.027 0.416 0.051 0.043 
0.196 0.624 0.051 0.082 
0.027 0.502 0.051 0.043 
0.224 0.749 0.153 0.125 
0.224 0.749 0.102 0.043 
0.278 0.71 0.086 0.043 
0.165 0.416 0.067 0.043 
0.082 0.459 0.086 0.043 
0.306 0.792 0.118 0.125 
0.196 0.584 0.086 0.043 
0.165 0.459 0.086 0.0 
0.137 0.584 0.102 0.043 
0.0 0.416 0.016 0.0 
0.388 1.0 0.086 0.125 
0.224 0.624 0.067 0.082 
0.224 0.749 0.086 0.082 
0.224 0.71 0.086 0.125 
0.224 0.541 0.118 0.165 
0.196 0.416 0.102 0.043 
0.251 0.624 0.086 0.043 
0.11 0.502 0.102 0.043 
0.306 0.584 0.086 0.125 
0.333 0.918 0.067 0.043 
0.196 0.502 0.035 0.043 
0.165 0.667 0.067 0.0 
0.224 0.584 0.086 0.043 
0.055 0.125 0.051 0.082 
0.196 0.624 0.102 0.208 
0.137 0.416 0.067 0.082 
0.082 0.502 0.067 0.043 
0.196 0.541 0.067 0.043 
0.749 0.502 0.627 0.541 
0.722 0.459 0.663 0.584 
0.612 0.333 0.612 0.584 
0.557 0.541 0.627 0.624 
0.639 0.376 0.612 0.498 
0.196 0.0 0.424 0.376 
0.471 0.082 0.51 0.376 
0.361 0.376 0.439 0.498 
0.361 0.416 0.592 0.584 
0.529 0.082 0.592 0.584 
0.443 0.502 0.643 0.459 
0.557 0.208 0.663 0.584 
0.584 0.376 0.561 0.498 
0.694 0.333 0.643 0.541 
0.471 0.376 0.592 0.584 
0.333 0.169 0.475 0.416 
0.416 0.29 0.49 0.459 
0.306 0.416 0.592 0.584 
0.667 0.459 0.627 0.584 
0.361 0.416 0.525 0.498 
0.333 0.251 0.576 0.459 
0.416 0.251 0.51 0.459 
0.361 0.29 0.541 0.498 
0.388 0.376 0.541 0.498 
0.224 0.208 0.337 0.416 
0.584 0.502 0.592 0.584 
0.333 0.125 0.51 0.498 
0.388 0.333 0.592 0.498 
0.165 0.169 0.388 0.376 
0.251 0.29 0.49 0.541 
0.443 0.416 0.541 0.584 
0.498 0.376 0.627 0.541 
0.667 0.459 0.576 0.541 
0.416 0.29 0.525 0.376 
0.361 0.208 0.49 0.416 
0.498 0.333 0.51 0.498 
0.498 0.333 0.627 0.459 
0.639 0.416 0.576 0.541 
0.667 0.416 0.678 0.667 
0.388 0.251 0.424 0.376 
0.333 0.169 0.459 0.376 
0.471 0.29 0.694 0.624 
0.471 0.584 0.592 0.624 
0.557 0.125 0.576 0.498 
0.333 0.208 0.51 0.498 
0.498 0.416 0.612 0.541 
0.196 0.125 0.388 0.376 
0.388 0.416 0.541 0.459 
0.529 0.376 0.561 0.498 
0.388 0.333 0.525 0.498 
0.557 0.541 0.847 1.0 
0.776 0.416 0.831 0.831 
0.612 0.416 0.812 0.875 
0.165 0.208 0.592 0.667 
0.667 0.208 0.812 0.71 
0.612 0.502 0.694 0.792 
0.694 0.416 0.761 0.831 
0.416 0.333 0.694 0.957 
0.612 0.416 0.761 0.71 
0.945 0.251 1.0 0.918 
0.722 0.502 0.796 0.918 
0.945 0.333 0.965 0.792 
0.667 0.541 0.796 0.831 
0.529 0.333 0.643 0.71 
0.584 0.333 0.78 0.831 
0.863 0.333 0.863 0.749 
0.584 0.333 0.78 0.875 
0.498 0.251 0.78 0.541 
0.557 0.584 0.78 0.957 
0.471 0.416 0.643 0.71 
0.667 0.459 0.78 0.957 
0.416 0.29 0.694 0.749 
0.667 0.541 0.796 1.0 
0.557 0.208 0.678 0.749 
0.529 0.584 0.745 0.918 
0.416 0.29 0.694 0.749 
0.557 0.376 0.78 0.71 
0.918 0.416 0.949 0.831 
0.835 0.376 0.898 0.71 
0.804 0.667 0.863 1.0 
0.584 0.29 0.729 0.749 
0.388 0.208 0.678 0.792 
0.584 0.502 0.729 0.918 
0.945 0.749 0.965 0.875 
0.471 0.082 0.678 0.584 
0.361 0.333 0.663 0.792 
0.557 0.29 0.663 0.71 
0.804 0.502 0.847 0.71 
0.498 0.416 0.51 0.71 
0.804 0.416 0.812 0.624 
1.0 0.749 0.914 0.792 
0.557 0.333 0.694 0.584 
0.945 0.416 0.863 0.918 
0.584 0.459 0.761 0.71 
0.722 0.459 0.745 0.831 
0.722 0.459 0.694 0.918 
0.694 0.502 0.831 0.918 
0.667 0.416 0.714 0.918 
0.612 0.416 0.714 0.792 
0.443 0.416 0.694 0.71 
Teaching Patterns
1.0 0.0 0.0 
1.0 0.0 0.0 
1.0 0.0 0.0 
1.0 0.0 0.0 
1.0 0.0 0.0 
1.0 0.0 0.0 
1.0 0.0 0.0 
1.0 0.0 0.0 
1.0 0.0 0.0 
1.0 0.0 0.0 
1.0 0.0 0.0 
1.0 0.0 0.0 
1.0 0.0 0.0 
1.0 0.0 0.0 
1.0 0.0 0.0 
1.0 0.0 0.0 
1.0 0.0 0.0 
1.0 0.0 0.0 
1.0 0.0 0.0 
1.0 0.0 0.0 
1.0 0.0 0.0 
1.0 0.0 0.0 
1.0 0.0 0.0 
1.0 0.0 0.0 
1.0 0.0 0.0 
1.0 0.0 0.0 
1.0 0.0 0.0 
1.0 0.0 0.0 
1.0 0.0 0.0 
1.0 0.0 0.0 
1.0 0.0 0.0 
1.0 0.0 0.0 
1.0 0.0 0.0 
1.0 0.0 0.0 
1.0 0.0 0.0 
1.0 0.0 0.0 
1.0 0.0 0.0 
1.0 0.0 0.0 
1.0 0.0 0.0 
1.0 0.0 0.0 
1.0 0.0 0.0 
1.0 0.0 0.0 
1.0 0.0 0.0 
1.0 0.0 0.0 
1.0 0.0 0.0 
1.0 0.0 0.0 
1.0 0.0 0.0 
1.0 0.0 0.0 
1.0 0.0 0.0 
1.0 0.0 0.0 
0.0 1.0 0.0 
0.0 1.0 0.0 
0.0 1.0 0.0 
0.0 1.0 0.0 
0.0 1.0 0.0 
0.0 1.0 0.0 
0.0 1.0 0.0 
0.0 1.0 0.0 
0.0 1.0 0.0 
0.0 1.0 0.0 
0.0 1.0 0.0 
0.0 1.0 0.0 
0.0 1.0 0.0 
0.0 1.0 0.0 
0.0 1.0 0.0 
0.0 1.0 0.0 
0.0 1.0 0.0 
0.0 1.0 0.0 
0.0 1.0 0.0 
0.0 1.0 0.0 
0.0 1.0 0.0 
0.0 1.0 0.0 
0.0 1.0 0.0 
0.0 1.0 0.0 
0.0 1.0 0.0 
0.0 1.0 0.0 
0.0 1.0 0.0 
0.0 1.0 0.0 
0.0 1.0 0.0 
0.0 1.0 0.0 
0.0 1.0 0.0 
0.0 1.0 0.0 
0.0 1.0 0.0 
0.0 1.0 0.0 
0.0 1.0 0.0 
0.0 1.0 0.0 
0.0 1.0 0.0 
0.0 1.0 0.0 
0.0 1.0 0.0 
0.0 1.0 0.0 
0.0 1.0 0.0 
0.0 1.0 0.0 
0.0 1.0 0.0 
0.0 1.0 0.0 
0.0 1.0 0.0 
0.0 1.0 0.0 
0.0 1.0 0.0 
0.0 1.0 0.0 
0.0 1.0 0.0 
0.0 1.0 0.0 
0.0 0.0 1.0 
0.0 0.0 1.0 
0.0 0.0 1.0 
0.0 0.0 1.0 
0.0 0.0 1.0 
0.0 0.0 1.0 
0.0 0.0 1.0 
0.0 0.0 1.0 
0.0 0.0 1.0 
0.0 0.0 1.0 
0.0 0.0 1.0 
0.0 0.0 1.0 
0.0 0.0 1.0 
0.0 0.0 1.0 
0.0 0.0 1.0 
0.0 0.0 1.0 
0.0 0.0 1.0 
0.0 0.0 1.0 
0.0 0.0 1.0 
0.0 0.0 1.0 
0.0 0.0 1.0 
0.0 0.0 1.0 
0.0 0.0 1.0 
0.0 0.0 1.0 
0.0 0.0 1.0 
0.0 0.0 1.0 
0.0 0.0 1.0 
0.0 0.0 1.0 
0.0 0.0 1.0 
0.0 0.0 1.0 
0.0 0.0 1.0 
0.0 0.0 1.0 
0.0 0.0 1.0 
0.0 0.0 1.0 
0.0 0.0 1.0 
0.0 0.0 1.0 
0.0 0.0 1.0 
0.0 0.0 1.0 
0.0 0.0 1.0 
0.0 0.0 1.0 
0.0 0.0 1.0 
0.0 0.0 1.0 
0.0 0.0 1.0 
0.0 0.0 1.0 
0.0 0.0 1.0 
0.0 0.0 1.0 
0.0 0.0 1.0 
0.0 0.0 1.0 
0.0 0.0 1.0 
0.0 0.0 1.0 
Learning : 0.3499999940395355
Momentum : 0.9
Epoch: 100, Error: 0.015297866298434605
Epoch: 200, Error: 0.01243784217090938
Epoch: 300, Error: 0.012134598106931726
Epoch: 400, Error: 0.012717032842501693
Epoch: 500, Error: 0.01349637393941176
Epoch: 600, Error: 0.01244496263275319
Epoch: 700, Error: 0.012312424986796723
Epoch: 800, Error: 0.012570770206611917
Epoch: 900, Error: 0.011999154808625172
Epoch: 1000, Error: 0.012011568296405466
Epoch: 1100, Error: 0.012215603497190478
Epoch: 1200, Error: 0.013132994323686293
Epoch: 1300, Error: 0.011803050086838875
Epoch: 1400, Error: 0.011701597293088919
Epoch: 1500, Error: 0.011748997136833248
Epoch: 1600, Error: 0.012194136697510693
Epoch: 1700, Error: 0.011686641734861263
Epoch: 1800, Error: 0.012092874909194078
Epoch: 1900, Error: 0.012101400209010911
Epoch: 2000, Error: 0.011847302668214538
Epoch: 2100, Error: 0.011686297970614967
Epoch: 2200, Error: 0.012123631202297829
Epoch: 2300, Error: 0.011811031072587096
Epoch: 2400, Error: 0.011693227133312735
Epoch: 2500, Error: 0.011922901917568257
Epoch: 2600, Error: 0.01174545103750879
Epoch: 2700, Error: 0.012548675229654084
Epoch: 2800, Error: 0.011836863727504546
Epoch: 2900, Error: 0.011979359162683457
Epoch: 3000, Error: 0.011806800428018644
Epoch: 3100, Error: 0.012521034825887957
Epoch: 3200, Error: 0.01171811120353032
Epoch: 3300, Error: 0.011663243489541108
Epoch: 3400, Error: 0.011745079278858636
Epoch: 3500, Error: 0.012383558851121744
Epoch: 3600, Error: 0.011470850807087594
Epoch: 3700, Error: 0.011275759081698086
Epoch: 3800, Error: 0.011478488291081513
Epoch: 3900, Error: 0.011227003883379416
Epoch: 4000, Error: 0.01081365430377809
Epoch: 4100, Error: 0.01094695183846133
Epoch: 4200, Error: 0.010102090724164245
Epoch: 4300, Error: 0.009792065812571802
Epoch: 4400, Error: 0.009552491472010321
Epoch: 4500, Error: 0.009169766990971145
Epoch: 4600, Error: 0.00881916222147345
Epoch: 4700, Error: 0.008618890887320967
Epoch: 4800, Error: 0.008542666121216182
Epoch: 4900, Error: 0.008570770683285624
Epoch: 5000, Error: 0.008749399983711548
Epoch: 5100, Error: 0.008271078636640528
Epoch: 5200, Error: 0.00839737723798368
Epoch: 5300, Error: 0.008363177204498454
Epoch: 5400, Error: 0.008042238023470625
Epoch: 5500, Error: 0.008142933275739143
Epoch: 5600, Error: 0.008082524684473775
Epoch: 5700, Error: 0.00799593200276715
Epoch: 5800, Error: 0.008252099269044844
Epoch: 5900, Error: 0.007994030827976945
Epoch: 6000, Error: 0.008442140665853746
Epoch: 6100, Error: 0.007816715442854638
Epoch: 6200, Error: 0.007635437675134916
Epoch: 6300, Error: 0.007654065092222825
Epoch: 6400, Error: 0.007660225881757612
Epoch: 6500, Error: 0.00804884241591956
Epoch: 6600, Error: 0.007623457603212568
Epoch: 6700, Error: 0.007376398146209913
Epoch: 6800, Error: 0.007256268491594793
Epoch: 6900, Error: 0.007654352961845968
Epoch: 7000, Error: 0.007633094293015446
Epoch: 7100, Error: 0.007286397046141482
Epoch: 7200, Error: 0.007225423312203133
Epoch: 7300, Error: 0.007301162319735284
Epoch: 7400, Error: 0.0072391199548776765
Epoch: 7500, Error: 0.007072660409744031
Epoch: 7600, Error: 0.007773962301303469
Epoch: 7700, Error: 0.006986140245155855
Epoch: 7800, Error: 0.007099298041950773
Epoch: 7900, Error: 0.006687807790678358
Epoch: 8000, Error: 0.007194419662571468
Epoch: 8100, Error: 0.006718421064456634
Epoch: 8200, Error: 0.006590427180113595
Epoch: 8300, Error: 0.00688343448063261
Epoch: 8400, Error: 0.006573466573741821
Epoch: 8500, Error: 0.0064423366492019785
Epoch: 8600, Error: 0.006366177858834376
Epoch: 8700, Error: 0.006500434173960174
Epoch: 8800, Error: 0.006173625287967027
Epoch: 8900, Error: 0.0062476954033039165
Epoch: 9000, Error: 0.006233955204969887
Epoch: 9100, Error: 0.006199030391294049
Epoch: 9200, Error: 0.006247696623450242
Epoch: 9300, Error: 0.00608751438950577
Epoch: 9400, Error: 0.0059851267035180835
Epoch: 9500, Error: 0.006010944432950734
Epoch: 9600, Error: 0.00583232644754182
Epoch: 9700, Error: 0.005751351662990245
Epoch: 9800, Error: 0.006130121879280905
Epoch: 9900, Error: 0.005889458333524377
Epoch: 10000, Error: 0.005962361325161876
Epoch: 10100, Error: 0.00596752514002774
Epoch: 10200, Error: 0.005769929536351194
Epoch: 10300, Error: 0.005617206147376157
Epoch: 10400, Error: 0.005721969958886882
Epoch: 10500, Error: 0.005782149406348674
Epoch: 10600, Error: 0.005478183680418878
Epoch: 10700, Error: 0.005581443575705344
Epoch: 10800, Error: 0.005451890909300355
Epoch: 10900, Error: 0.005342297310133931
Epoch: 11000, Error: 0.005367879804139708
Epoch: 11100, Error: 0.005568610225783354
Epoch: 11200, Error: 0.0055904649673886265
Epoch: 11300, Error: 0.005329608073288483
Epoch: 11400, Error: 0.005163896951163395
Epoch: 11500, Error: 0.004829608422569516
Epoch: 11600, Error: 0.004601060529449214
Epoch: 11700, Error: 0.004338026812305191
Epoch: 11800, Error: 0.005055404763394957
Epoch: 11900, Error: 0.0048427671935647384
Epoch: 12000, Error: 0.004761445531637138
Epoch: 12100, Error: 0.0047330602223241295
Epoch: 12200, Error: 0.004593650995899642
Epoch: 12300, Error: 0.004474237837232885
Epoch: 12400, Error: 0.004392115074042188
Epoch: 12500, Error: 0.004310922855845856
Epoch: 12600, Error: 0.0044773798294354605
Epoch: 12700, Error: 0.0041525257159457365
Epoch: 12800, Error: 0.0039375784600661
Epoch: 12900, Error: 0.003881714667157752
Epoch: 13000, Error: 0.0035932659797367913
Epoch: 13100, Error: 0.0034993922942175276
Epoch: 13200, Error: 0.003314623464211627
Epoch: 13300, Error: 0.0031564736738229574
Epoch: 13400, Error: 0.0028757822564465683
Epoch: 13500, Error: 0.003443174862180826
Epoch: 13600, Error: 0.0027636106429026145
Epoch: 13700, Error: 0.002298381888090212
Epoch: 13800, Error: 0.013551928452626311
Epoch: 13900, Error: 0.00191111557436172
Epoch: 14000, Error: 0.001740106167545219
Epoch: 14100, Error: 0.0015330540091354962
Epoch: 14200, Error: 0.001907780509117852
Epoch: 14300, Error: 0.002427557456766935
Epoch: 14400, Error: 0.00148807098457113
Epoch: 14500, Error: 0.0010968860933690428
Epoch: 14600, Error: 0.0010244290434628695
Epoch: 14700, Error: 0.0014810563017153917
Epoch: 14800, Error: 0.0010506049653349104
Epoch: 14900, Error: 0.0010869418957617177
Epoch: 15000, Error: 9.015416948111276E-4
Epoch: 15100, Error: 9.712972147522461E-4
Epoch: 15200, Error: 7.521795661501176E-4
Epoch: 15300, Error: 7.212706042646157E-4
Epoch: 15400, Error: 7.124703922251058E-4
Epoch: 15500, Error: 6.725110374741191E-4
Epoch: 15600, Error: 6.484336268144095E-4
Epoch: 15700, Error: 6.479088277383026E-4
Epoch: 15800, Error: 6.220570549321454E-4
Epoch: 15900, Error: 7.109905821378791E-4
Epoch: 16000, Error: 6.16518269161088E-4
Epoch: 16100, Error: 6.406425207986617E-4
Epoch: 16200, Error: 6.590110793520402E-4
Epoch: 16300, Error: 5.968915028689228E-4
Epoch: 16400, Error: 6.185700718000055E-4
Epoch: 16500, Error: 6.021945367764021E-4
Epoch: 16600, Error: 6.91904902909957E-4
Epoch: 16700, Error: 5.68760495272769E-4
Epoch: 16800, Error: 5.717070116381908E-4
Epoch: 16900, Error: 6.814380033877977E-4
Epoch: 17000, Error: 5.573476795701728E-4
Epoch: 17100, Error: 5.893647203210609E-4
Epoch: 17200, Error: 5.799691601533926E-4
Epoch: 17300, Error: 5.642768075998234E-4
Epoch: 17400, Error: 6.063384982464789E-4
Epoch: 17500, Error: 5.509612084019991E-4
Epoch: 17600, Error: 5.464982791588929E-4
Epoch: 17700, Error: 5.432750902448193E-4
Epoch: 17800, Error: 5.478714951982274E-4
Epoch: 17900, Error: 5.530239159197744E-4
Epoch: 18000, Error: 5.254231881081768E-4
Epoch: 18100, Error: 5.256761344795815E-4
Epoch: 18200, Error: 5.248379402705672E-4
Epoch: 18300, Error: 5.13380564599463E-4
Epoch: 18400, Error: 5.149476287680019E-4
Epoch: 18500, Error: 5.456535050785701E-4
Epoch: 18600, Error: 4.982638462365612E-4
Epoch: 18700, Error: 4.89997415156145E-4
Epoch: 18800, Error: 4.856762742037189E-4
Epoch: 18900, Error: 4.89564460797746E-4
Epoch: 19000, Error: 4.893645626429867E-4
Epoch: 19100, Error: 5.104704135339767E-4
Epoch: 19200, Error: 4.815613594514762E-4
Epoch: 19300, Error: 4.724774193857111E-4
Epoch: 19400, Error: 4.661948364258911E-4
Epoch: 19500, Error: 4.5989203929852347E-4
Epoch: 19600, Error: 4.598982669835821E-4
Epoch: 19700, Error: 4.581675238002306E-4
Epoch: 19800, Error: 4.562124273288062E-4
finished
