Input Patterns
0.224 0.624 0.067 0.043 
0.11 0.502 0.051 0.043 
0.196 0.667 0.067 0.043 
0.055 0.584 0.067 0.082 
0.027 0.376 0.067 0.043 
0.306 0.71 0.086 0.043 
0.137 0.416 0.067 0.0 
0.416 0.831 0.035 0.043 
0.306 0.792 0.051 0.125 
0.388 0.749 0.118 0.082 
0.306 0.584 0.118 0.043 
0.082 0.667 0.0 0.043 
0.137 0.584 0.153 0.043 
0.196 0.584 0.102 0.125 
0.251 0.584 0.067 0.043 
0.137 0.459 0.102 0.043 
0.251 0.875 0.086 0.0 
0.165 0.459 0.086 0.043 
0.333 0.624 0.051 0.043 
0.027 0.416 0.051 0.043 
0.196 0.624 0.051 0.082 
0.027 0.502 0.051 0.043 
0.224 0.749 0.153 0.125 
0.224 0.749 0.102 0.043 
0.278 0.71 0.086 0.043 
0.165 0.416 0.067 0.043 
0.082 0.459 0.086 0.043 
0.306 0.792 0.118 0.125 
0.196 0.584 0.086 0.043 
0.165 0.459 0.086 0.0 
0.137 0.584 0.102 0.043 
0.0 0.416 0.016 0.0 
0.388 1.0 0.086 0.125 
0.224 0.624 0.067 0.082 
0.224 0.749 0.086 0.082 
0.224 0.71 0.086 0.125 
0.224 0.541 0.118 0.165 
0.196 0.416 0.102 0.043 
0.251 0.624 0.086 0.043 
0.11 0.502 0.102 0.043 
0.306 0.584 0.086 0.125 
0.333 0.918 0.067 0.043 
0.196 0.502 0.035 0.043 
0.165 0.667 0.067 0.0 
0.224 0.584 0.086 0.043 
0.055 0.125 0.051 0.082 
0.196 0.624 0.102 0.208 
0.137 0.416 0.067 0.082 
0.082 0.502 0.067 0.043 
0.196 0.541 0.067 0.043 
0.749 0.502 0.627 0.541 
0.722 0.459 0.663 0.584 
0.612 0.333 0.612 0.584 
0.557 0.541 0.627 0.624 
0.639 0.376 0.612 0.498 
0.196 0.0 0.424 0.376 
0.471 0.082 0.51 0.376 
0.361 0.376 0.439 0.498 
0.361 0.416 0.592 0.584 
0.529 0.082 0.592 0.584 
0.443 0.502 0.643 0.459 
0.557 0.208 0.663 0.584 
0.584 0.376 0.561 0.498 
0.694 0.333 0.643 0.541 
0.471 0.376 0.592 0.584 
0.333 0.169 0.475 0.416 
0.416 0.29 0.49 0.459 
0.306 0.416 0.592 0.584 
0.667 0.459 0.627 0.584 
0.361 0.416 0.525 0.498 
0.333 0.251 0.576 0.459 
0.416 0.251 0.51 0.459 
0.361 0.29 0.541 0.498 
0.388 0.376 0.541 0.498 
0.224 0.208 0.337 0.416 
0.584 0.502 0.592 0.584 
0.333 0.125 0.51 0.498 
0.388 0.333 0.592 0.498 
0.165 0.169 0.388 0.376 
0.251 0.29 0.49 0.541 
0.443 0.416 0.541 0.584 
0.498 0.376 0.627 0.541 
0.667 0.459 0.576 0.541 
0.416 0.29 0.525 0.376 
0.361 0.208 0.49 0.416 
0.498 0.333 0.51 0.498 
0.498 0.333 0.627 0.459 
0.639 0.416 0.576 0.541 
0.667 0.416 0.678 0.667 
0.388 0.251 0.424 0.376 
0.333 0.169 0.459 0.376 
0.471 0.29 0.694 0.624 
0.471 0.584 0.592 0.624 
0.557 0.125 0.576 0.498 
0.333 0.208 0.51 0.498 
0.498 0.416 0.612 0.541 
0.196 0.125 0.388 0.376 
0.388 0.416 0.541 0.459 
0.529 0.376 0.561 0.498 
0.388 0.333 0.525 0.498 
0.557 0.541 0.847 1.0 
0.776 0.416 0.831 0.831 
0.612 0.416 0.812 0.875 
0.165 0.208 0.592 0.667 
0.667 0.208 0.812 0.71 
0.612 0.502 0.694 0.792 
0.694 0.416 0.761 0.831 
0.416 0.333 0.694 0.957 
0.612 0.416 0.761 0.71 
0.945 0.251 1.0 0.918 
0.722 0.502 0.796 0.918 
0.945 0.333 0.965 0.792 
0.667 0.541 0.796 0.831 
0.529 0.333 0.643 0.71 
0.584 0.333 0.78 0.831 
0.863 0.333 0.863 0.749 
0.584 0.333 0.78 0.875 
0.498 0.251 0.78 0.541 
0.557 0.584 0.78 0.957 
0.471 0.416 0.643 0.71 
0.667 0.459 0.78 0.957 
0.416 0.29 0.694 0.749 
0.667 0.541 0.796 1.0 
0.557 0.208 0.678 0.749 
0.529 0.584 0.745 0.918 
0.416 0.29 0.694 0.749 
0.557 0.376 0.78 0.71 
0.918 0.416 0.949 0.831 
0.835 0.376 0.898 0.71 
0.804 0.667 0.863 1.0 
0.584 0.29 0.729 0.749 
0.388 0.208 0.678 0.792 
0.584 0.502 0.729 0.918 
0.945 0.749 0.965 0.875 
0.471 0.082 0.678 0.584 
0.361 0.333 0.663 0.792 
0.557 0.29 0.663 0.71 
0.804 0.502 0.847 0.71 
0.498 0.416 0.51 0.71 
0.804 0.416 0.812 0.624 
1.0 0.749 0.914 0.792 
0.557 0.333 0.694 0.584 
0.945 0.416 0.863 0.918 
0.584 0.459 0.761 0.71 
0.722 0.459 0.745 0.831 
0.722 0.459 0.694 0.918 
0.694 0.502 0.831 0.918 
0.667 0.416 0.714 0.918 
0.612 0.416 0.714 0.792 
0.443 0.416 0.694 0.71 
Teaching Patterns
1.0 0.0 0.0 
1.0 0.0 0.0 
1.0 0.0 0.0 
1.0 0.0 0.0 
1.0 0.0 0.0 
1.0 0.0 0.0 
1.0 0.0 0.0 
1.0 0.0 0.0 
1.0 0.0 0.0 
1.0 0.0 0.0 
1.0 0.0 0.0 
1.0 0.0 0.0 
1.0 0.0 0.0 
1.0 0.0 0.0 
1.0 0.0 0.0 
1.0 0.0 0.0 
1.0 0.0 0.0 
1.0 0.0 0.0 
1.0 0.0 0.0 
1.0 0.0 0.0 
1.0 0.0 0.0 
1.0 0.0 0.0 
1.0 0.0 0.0 
1.0 0.0 0.0 
1.0 0.0 0.0 
1.0 0.0 0.0 
1.0 0.0 0.0 
1.0 0.0 0.0 
1.0 0.0 0.0 
1.0 0.0 0.0 
1.0 0.0 0.0 
1.0 0.0 0.0 
1.0 0.0 0.0 
1.0 0.0 0.0 
1.0 0.0 0.0 
1.0 0.0 0.0 
1.0 0.0 0.0 
1.0 0.0 0.0 
1.0 0.0 0.0 
1.0 0.0 0.0 
1.0 0.0 0.0 
1.0 0.0 0.0 
1.0 0.0 0.0 
1.0 0.0 0.0 
1.0 0.0 0.0 
1.0 0.0 0.0 
1.0 0.0 0.0 
1.0 0.0 0.0 
1.0 0.0 0.0 
1.0 0.0 0.0 
0.0 1.0 0.0 
0.0 1.0 0.0 
0.0 1.0 0.0 
0.0 1.0 0.0 
0.0 1.0 0.0 
0.0 1.0 0.0 
0.0 1.0 0.0 
0.0 1.0 0.0 
0.0 1.0 0.0 
0.0 1.0 0.0 
0.0 1.0 0.0 
0.0 1.0 0.0 
0.0 1.0 0.0 
0.0 1.0 0.0 
0.0 1.0 0.0 
0.0 1.0 0.0 
0.0 1.0 0.0 
0.0 1.0 0.0 
0.0 1.0 0.0 
0.0 1.0 0.0 
0.0 1.0 0.0 
0.0 1.0 0.0 
0.0 1.0 0.0 
0.0 1.0 0.0 
0.0 1.0 0.0 
0.0 1.0 0.0 
0.0 1.0 0.0 
0.0 1.0 0.0 
0.0 1.0 0.0 
0.0 1.0 0.0 
0.0 1.0 0.0 
0.0 1.0 0.0 
0.0 1.0 0.0 
0.0 1.0 0.0 
0.0 1.0 0.0 
0.0 1.0 0.0 
0.0 1.0 0.0 
0.0 1.0 0.0 
0.0 1.0 0.0 
0.0 1.0 0.0 
0.0 1.0 0.0 
0.0 1.0 0.0 
0.0 1.0 0.0 
0.0 1.0 0.0 
0.0 1.0 0.0 
0.0 1.0 0.0 
0.0 1.0 0.0 
0.0 1.0 0.0 
0.0 1.0 0.0 
0.0 1.0 0.0 
0.0 0.0 1.0 
0.0 0.0 1.0 
0.0 0.0 1.0 
0.0 0.0 1.0 
0.0 0.0 1.0 
0.0 0.0 1.0 
0.0 0.0 1.0 
0.0 0.0 1.0 
0.0 0.0 1.0 
0.0 0.0 1.0 
0.0 0.0 1.0 
0.0 0.0 1.0 
0.0 0.0 1.0 
0.0 0.0 1.0 
0.0 0.0 1.0 
0.0 0.0 1.0 
0.0 0.0 1.0 
0.0 0.0 1.0 
0.0 0.0 1.0 
0.0 0.0 1.0 
0.0 0.0 1.0 
0.0 0.0 1.0 
0.0 0.0 1.0 
0.0 0.0 1.0 
0.0 0.0 1.0 
0.0 0.0 1.0 
0.0 0.0 1.0 
0.0 0.0 1.0 
0.0 0.0 1.0 
0.0 0.0 1.0 
0.0 0.0 1.0 
0.0 0.0 1.0 
0.0 0.0 1.0 
0.0 0.0 1.0 
0.0 0.0 1.0 
0.0 0.0 1.0 
0.0 0.0 1.0 
0.0 0.0 1.0 
0.0 0.0 1.0 
0.0 0.0 1.0 
0.0 0.0 1.0 
0.0 0.0 1.0 
0.0 0.0 1.0 
0.0 0.0 1.0 
0.0 0.0 1.0 
0.0 0.0 1.0 
0.0 0.0 1.0 
0.0 0.0 1.0 
0.0 0.0 1.0 
0.0 0.0 1.0 
Learning : 0.25
Momentum : 0.9
Epoch: 100, Error: 0.017285912244189773
Epoch: 200, Error: 0.013853816435988667
Epoch: 300, Error: 0.012072059310504498
Epoch: 400, Error: 0.01207727993683916
Epoch: 500, Error: 0.0190985656308546
Epoch: 600, Error: 0.011924581146472076
Epoch: 700, Error: 0.01261753775989257
Epoch: 800, Error: 0.011816851006757658
Epoch: 900, Error: 0.012246095470162558
Epoch: 1000, Error: 0.011736028885259266
Epoch: 1100, Error: 0.011877712079008786
Epoch: 1200, Error: 0.012620758371362095
Epoch: 1300, Error: 0.01177117860267985
Epoch: 1400, Error: 0.011991318963792621
Epoch: 1500, Error: 0.011683540640411405
Epoch: 1600, Error: 0.011631850365796918
Epoch: 1700, Error: 0.01159577490610116
Epoch: 1800, Error: 0.011449137673450672
Epoch: 1900, Error: 0.013116362063969586
Epoch: 2000, Error: 0.011258561225843348
Epoch: 2100, Error: 0.011817427370814456
Epoch: 2200, Error: 0.012606580549731784
Epoch: 2300, Error: 0.011086943525039646
Epoch: 2400, Error: 0.01080030705137689
Epoch: 2500, Error: 0.010339869332283633
Epoch: 2600, Error: 0.010670261444916623
Epoch: 2700, Error: 0.009710540468649768
Epoch: 2800, Error: 0.009068495410141722
Epoch: 2900, Error: 0.008372664172676734
Epoch: 3000, Error: 0.0079086659216055
Epoch: 3100, Error: 0.007603299540220626
Epoch: 3200, Error: 0.009004733906638862
Epoch: 3300, Error: 0.006699664978299926
Epoch: 3400, Error: 0.0064710348288680285
Epoch: 3500, Error: 0.006451937214967404
Epoch: 3600, Error: 0.006291309599597217
Epoch: 3700, Error: 0.005906008233940345
Epoch: 3800, Error: 0.005868559840436316
Epoch: 3900, Error: 0.005697786461896625
Epoch: 4000, Error: 0.005622265589582916
Epoch: 4100, Error: 0.005551063480128812
Epoch: 4200, Error: 0.005509242497462087
Epoch: 4300, Error: 0.005579129131569877
Epoch: 4400, Error: 0.005603117094931811
Epoch: 4500, Error: 0.005463138821406645
Epoch: 4600, Error: 0.005526088562016535
Epoch: 4700, Error: 0.005451498513390992
Epoch: 4800, Error: 0.0055396185734647935
Epoch: 4900, Error: 0.005539759480392776
Epoch: 5000, Error: 0.005621594484178734
Epoch: 5100, Error: 0.005585990690097757
Epoch: 5200, Error: 0.0056056701848176795
Epoch: 5300, Error: 0.005570149752440568
Epoch: 5400, Error: 0.0055701098241379395
Epoch: 5500, Error: 0.0055818058815877425
Epoch: 5600, Error: 0.005586772715383725
Epoch: 5700, Error: 0.0056477956925459
Epoch: 5800, Error: 0.005679249622178638
Epoch: 5900, Error: 0.005655083024199597
Epoch: 6000, Error: 0.005630671465663338
Epoch: 6100, Error: 0.005623047469733023
Epoch: 6200, Error: 0.005657921648196235
Epoch: 6300, Error: 0.005601807202625065
Epoch: 6400, Error: 0.00554992448951567
Epoch: 6500, Error: 0.005597823984909601
Epoch: 6600, Error: 0.0055602355954425
Epoch: 6700, Error: 0.005576558192825586
Epoch: 6800, Error: 0.005531859184358859
Epoch: 6900, Error: 0.005497200062036759
Epoch: 7000, Error: 0.005520000591854873
Epoch: 7100, Error: 0.005548841406723623
Epoch: 7200, Error: 0.0055338312477160026
Epoch: 7300, Error: 0.005539299561172366
Epoch: 7400, Error: 0.005527923938060667
Epoch: 7500, Error: 0.005504824882153804
Epoch: 7600, Error: 0.005531340046700239
Epoch: 7700, Error: 0.005521569005252646
Epoch: 7800, Error: 0.005515071339755553
Epoch: 7900, Error: 0.005529089517904232
Epoch: 8000, Error: 0.0055003196100398355
Epoch: 8100, Error: 0.005513628047873303
Epoch: 8200, Error: 0.005489380931390636
Epoch: 8300, Error: 0.005449039392236707
Epoch: 8400, Error: 0.005440314014241678
Epoch: 8500, Error: 0.005424570113472982
Epoch: 8600, Error: 0.005449050629968682
Epoch: 8700, Error: 0.00541967943667382
Epoch: 8800, Error: 0.005377422592980829
Epoch: 8900, Error: 0.005401335443436997
Epoch: 9000, Error: 0.005379303372634017
Epoch: 9100, Error: 0.0053733720547804635
Epoch: 9200, Error: 0.005360022769709796
Epoch: 9300, Error: 0.005344040287788929
Epoch: 9400, Error: 0.00531205249800415
Epoch: 9500, Error: 0.005298752297658774
Epoch: 9600, Error: 0.0052976844552268705
Epoch: 9700, Error: 0.005247206756797574
Epoch: 9800, Error: 0.005257706652701073
Epoch: 9900, Error: 0.00525045144638032
Epoch: 10000, Error: 0.005273302899390773
Epoch: 10100, Error: 0.00523150266094668
Epoch: 10200, Error: 0.005230169097198037
Epoch: 10300, Error: 0.005228164072425945
Epoch: 10400, Error: 0.0052045167706170166
Epoch: 10500, Error: 0.005205518622487702
Epoch: 10600, Error: 0.005199058940144209
Finished
