Input Patterns
0.224 0.624 0.067 0.043 
0.11 0.502 0.051 0.043 
0.196 0.667 0.067 0.043 
0.055 0.584 0.067 0.082 
0.027 0.376 0.067 0.043 
0.306 0.71 0.086 0.043 
0.137 0.416 0.067 0.0 
0.416 0.831 0.035 0.043 
0.306 0.792 0.051 0.125 
0.388 0.749 0.118 0.082 
0.306 0.584 0.118 0.043 
0.082 0.667 0.0 0.043 
0.137 0.584 0.153 0.043 
0.196 0.584 0.102 0.125 
0.251 0.584 0.067 0.043 
0.137 0.459 0.102 0.043 
0.251 0.875 0.086 0.0 
0.165 0.459 0.086 0.043 
0.333 0.624 0.051 0.043 
0.027 0.416 0.051 0.043 
0.196 0.624 0.051 0.082 
0.027 0.502 0.051 0.043 
0.224 0.749 0.153 0.125 
0.224 0.749 0.102 0.043 
0.278 0.71 0.086 0.043 
0.165 0.416 0.067 0.043 
0.082 0.459 0.086 0.043 
0.306 0.792 0.118 0.125 
0.196 0.584 0.086 0.043 
0.165 0.459 0.086 0.0 
0.137 0.584 0.102 0.043 
0.0 0.416 0.016 0.0 
0.388 1.0 0.086 0.125 
0.224 0.624 0.067 0.082 
0.224 0.749 0.086 0.082 
0.224 0.71 0.086 0.125 
0.224 0.541 0.118 0.165 
0.196 0.416 0.102 0.043 
0.251 0.624 0.086 0.043 
0.11 0.502 0.102 0.043 
0.306 0.584 0.086 0.125 
0.333 0.918 0.067 0.043 
0.196 0.502 0.035 0.043 
0.165 0.667 0.067 0.0 
0.224 0.584 0.086 0.043 
0.055 0.125 0.051 0.082 
0.196 0.624 0.102 0.208 
0.137 0.416 0.067 0.082 
0.082 0.502 0.067 0.043 
0.196 0.541 0.067 0.043 
0.749 0.502 0.627 0.541 
0.722 0.459 0.663 0.584 
0.612 0.333 0.612 0.584 
0.557 0.541 0.627 0.624 
0.639 0.376 0.612 0.498 
0.196 0.0 0.424 0.376 
0.471 0.082 0.51 0.376 
0.361 0.376 0.439 0.498 
0.361 0.416 0.592 0.584 
0.529 0.082 0.592 0.584 
0.443 0.502 0.643 0.459 
0.557 0.208 0.663 0.584 
0.584 0.376 0.561 0.498 
0.694 0.333 0.643 0.541 
0.471 0.376 0.592 0.584 
0.333 0.169 0.475 0.416 
0.416 0.29 0.49 0.459 
0.306 0.416 0.592 0.584 
0.667 0.459 0.627 0.584 
0.361 0.416 0.525 0.498 
0.333 0.251 0.576 0.459 
0.416 0.251 0.51 0.459 
0.361 0.29 0.541 0.498 
0.388 0.376 0.541 0.498 
0.224 0.208 0.337 0.416 
0.584 0.502 0.592 0.584 
0.333 0.125 0.51 0.498 
0.388 0.333 0.592 0.498 
0.165 0.169 0.388 0.376 
0.251 0.29 0.49 0.541 
0.443 0.416 0.541 0.584 
0.498 0.376 0.627 0.541 
0.667 0.459 0.576 0.541 
0.416 0.29 0.525 0.376 
0.361 0.208 0.49 0.416 
0.498 0.333 0.51 0.498 
0.498 0.333 0.627 0.459 
0.639 0.416 0.576 0.541 
0.667 0.416 0.678 0.667 
0.388 0.251 0.424 0.376 
0.333 0.169 0.459 0.376 
0.471 0.29 0.694 0.624 
0.471 0.584 0.592 0.624 
0.557 0.125 0.576 0.498 
0.333 0.208 0.51 0.498 
0.498 0.416 0.612 0.541 
0.196 0.125 0.388 0.376 
0.388 0.416 0.541 0.459 
0.529 0.376 0.561 0.498 
0.388 0.333 0.525 0.498 
0.557 0.541 0.847 1.0 
0.776 0.416 0.831 0.831 
0.612 0.416 0.812 0.875 
0.165 0.208 0.592 0.667 
0.667 0.208 0.812 0.71 
0.612 0.502 0.694 0.792 
0.694 0.416 0.761 0.831 
0.416 0.333 0.694 0.957 
0.612 0.416 0.761 0.71 
0.945 0.251 1.0 0.918 
0.722 0.502 0.796 0.918 
0.945 0.333 0.965 0.792 
0.667 0.541 0.796 0.831 
0.529 0.333 0.643 0.71 
0.584 0.333 0.78 0.831 
0.863 0.333 0.863 0.749 
0.584 0.333 0.78 0.875 
0.498 0.251 0.78 0.541 
0.557 0.584 0.78 0.957 
0.471 0.416 0.643 0.71 
0.667 0.459 0.78 0.957 
0.416 0.29 0.694 0.749 
0.667 0.541 0.796 1.0 
0.557 0.208 0.678 0.749 
0.529 0.584 0.745 0.918 
0.416 0.29 0.694 0.749 
0.557 0.376 0.78 0.71 
0.918 0.416 0.949 0.831 
0.835 0.376 0.898 0.71 
0.804 0.667 0.863 1.0 
0.584 0.29 0.729 0.749 
0.388 0.208 0.678 0.792 
0.584 0.502 0.729 0.918 
0.945 0.749 0.965 0.875 
0.471 0.082 0.678 0.584 
0.361 0.333 0.663 0.792 
0.557 0.29 0.663 0.71 
0.804 0.502 0.847 0.71 
0.498 0.416 0.51 0.71 
0.804 0.416 0.812 0.624 
1.0 0.749 0.914 0.792 
0.557 0.333 0.694 0.584 
0.945 0.416 0.863 0.918 
0.584 0.459 0.761 0.71 
0.722 0.459 0.745 0.831 
0.722 0.459 0.694 0.918 
0.694 0.502 0.831 0.918 
0.667 0.416 0.714 0.918 
0.612 0.416 0.714 0.792 
0.443 0.416 0.694 0.71 
Teaching Patterns
1.0 0.0 0.0 
1.0 0.0 0.0 
1.0 0.0 0.0 
1.0 0.0 0.0 
1.0 0.0 0.0 
1.0 0.0 0.0 
1.0 0.0 0.0 
1.0 0.0 0.0 
1.0 0.0 0.0 
1.0 0.0 0.0 
1.0 0.0 0.0 
1.0 0.0 0.0 
1.0 0.0 0.0 
1.0 0.0 0.0 
1.0 0.0 0.0 
1.0 0.0 0.0 
1.0 0.0 0.0 
1.0 0.0 0.0 
1.0 0.0 0.0 
1.0 0.0 0.0 
1.0 0.0 0.0 
1.0 0.0 0.0 
1.0 0.0 0.0 
1.0 0.0 0.0 
1.0 0.0 0.0 
1.0 0.0 0.0 
1.0 0.0 0.0 
1.0 0.0 0.0 
1.0 0.0 0.0 
1.0 0.0 0.0 
1.0 0.0 0.0 
1.0 0.0 0.0 
1.0 0.0 0.0 
1.0 0.0 0.0 
1.0 0.0 0.0 
1.0 0.0 0.0 
1.0 0.0 0.0 
1.0 0.0 0.0 
1.0 0.0 0.0 
1.0 0.0 0.0 
1.0 0.0 0.0 
1.0 0.0 0.0 
1.0 0.0 0.0 
1.0 0.0 0.0 
1.0 0.0 0.0 
1.0 0.0 0.0 
1.0 0.0 0.0 
1.0 0.0 0.0 
1.0 0.0 0.0 
1.0 0.0 0.0 
0.0 1.0 0.0 
0.0 1.0 0.0 
0.0 1.0 0.0 
0.0 1.0 0.0 
0.0 1.0 0.0 
0.0 1.0 0.0 
0.0 1.0 0.0 
0.0 1.0 0.0 
0.0 1.0 0.0 
0.0 1.0 0.0 
0.0 1.0 0.0 
0.0 1.0 0.0 
0.0 1.0 0.0 
0.0 1.0 0.0 
0.0 1.0 0.0 
0.0 1.0 0.0 
0.0 1.0 0.0 
0.0 1.0 0.0 
0.0 1.0 0.0 
0.0 1.0 0.0 
0.0 1.0 0.0 
0.0 1.0 0.0 
0.0 1.0 0.0 
0.0 1.0 0.0 
0.0 1.0 0.0 
0.0 1.0 0.0 
0.0 1.0 0.0 
0.0 1.0 0.0 
0.0 1.0 0.0 
0.0 1.0 0.0 
0.0 1.0 0.0 
0.0 1.0 0.0 
0.0 1.0 0.0 
0.0 1.0 0.0 
0.0 1.0 0.0 
0.0 1.0 0.0 
0.0 1.0 0.0 
0.0 1.0 0.0 
0.0 1.0 0.0 
0.0 1.0 0.0 
0.0 1.0 0.0 
0.0 1.0 0.0 
0.0 1.0 0.0 
0.0 1.0 0.0 
0.0 1.0 0.0 
0.0 1.0 0.0 
0.0 1.0 0.0 
0.0 1.0 0.0 
0.0 1.0 0.0 
0.0 1.0 0.0 
0.0 0.0 1.0 
0.0 0.0 1.0 
0.0 0.0 1.0 
0.0 0.0 1.0 
0.0 0.0 1.0 
0.0 0.0 1.0 
0.0 0.0 1.0 
0.0 0.0 1.0 
0.0 0.0 1.0 
0.0 0.0 1.0 
0.0 0.0 1.0 
0.0 0.0 1.0 
0.0 0.0 1.0 
0.0 0.0 1.0 
0.0 0.0 1.0 
0.0 0.0 1.0 
0.0 0.0 1.0 
0.0 0.0 1.0 
0.0 0.0 1.0 
0.0 0.0 1.0 
0.0 0.0 1.0 
0.0 0.0 1.0 
0.0 0.0 1.0 
0.0 0.0 1.0 
0.0 0.0 1.0 
0.0 0.0 1.0 
0.0 0.0 1.0 
0.0 0.0 1.0 
0.0 0.0 1.0 
0.0 0.0 1.0 
0.0 0.0 1.0 
0.0 0.0 1.0 
0.0 0.0 1.0 
0.0 0.0 1.0 
0.0 0.0 1.0 
0.0 0.0 1.0 
0.0 0.0 1.0 
0.0 0.0 1.0 
0.0 0.0 1.0 
0.0 0.0 1.0 
0.0 0.0 1.0 
0.0 0.0 1.0 
0.0 0.0 1.0 
0.0 0.0 1.0 
0.0 0.0 1.0 
0.0 0.0 1.0 
0.0 0.0 1.0 
0.0 0.0 1.0 
0.0 0.0 1.0 
0.0 0.0 1.0 
Learning : 0.25
Momentum : 0.9
Epoch: 100, Error: 0.021441913170519473
Epoch: 200, Error: 0.013057867198180317
Epoch: 300, Error: 0.012264312840186144
Epoch: 400, Error: 0.014350462753490474
Epoch: 500, Error: 0.012047727266637174
Epoch: 600, Error: 0.012011412768537592
Epoch: 700, Error: 0.012594120882805118
Epoch: 800, Error: 0.011930081810154996
Epoch: 900, Error: 0.012213523794269402
Epoch: 1000, Error: 0.012631069461971914
Epoch: 1100, Error: 0.01185929931859672
Epoch: 1200, Error: 0.011893730290238111
Epoch: 1300, Error: 0.011990176439851823
Epoch: 1400, Error: 0.0187074941611153
Epoch: 1500, Error: 0.01171693719189265
Epoch: 1600, Error: 0.012831159443996962
Epoch: 1700, Error: 0.012232994545293484
Epoch: 1800, Error: 0.011563146951612806
Epoch: 1900, Error: 0.01175380536555492
Epoch: 2000, Error: 0.011503317752585736
Epoch: 2100, Error: 0.011429133893895419
Epoch: 2200, Error: 0.011252785716096812
Epoch: 2300, Error: 0.011108976197557477
Epoch: 2400, Error: 0.011130567732439879
Epoch: 2500, Error: 0.01298800618725702
Epoch: 2600, Error: 0.010287662796296811
Epoch: 2700, Error: 0.009843236580991836
Epoch: 2800, Error: 0.009556928089108598
Epoch: 2900, Error: 0.008952183978891179
Epoch: 3000, Error: 0.008874934084312005
Epoch: 3100, Error: 0.008043225505090134
Epoch: 3200, Error: 0.007711857385253915
Epoch: 3300, Error: 0.007567114579006583
Epoch: 3400, Error: 0.007083916125156891
Epoch: 3500, Error: 0.007032539704839233
Epoch: 3600, Error: 0.006662331446011836
Epoch: 3700, Error: 0.006496211508886044
Epoch: 3800, Error: 0.006309442507511694
Epoch: 3900, Error: 0.006158953652766061
Epoch: 4000, Error: 0.006073586818024713
Epoch: 4100, Error: 0.006036522254751066
Epoch: 4200, Error: 0.005868770215372355
Epoch: 4300, Error: 0.005790777251498034
Epoch: 4400, Error: 0.005757130134096542
Epoch: 4500, Error: 0.005726067099115795
Epoch: 4600, Error: 0.005599317119817057
Epoch: 4700, Error: 0.005629237500002719
Epoch: 4800, Error: 0.005683711500244938
Epoch: 4900, Error: 0.005614344968081439
Epoch: 5000, Error: 0.00549639106833211
Epoch: 5100, Error: 0.005574396413608891
Epoch: 5200, Error: 0.00565451557267286
Epoch: 5300, Error: 0.005505174622577334
Epoch: 5400, Error: 0.005554602015482122
Epoch: 5500, Error: 0.005505647684942042
Epoch: 5600, Error: 0.005539718494014205
Epoch: 5700, Error: 0.005591839397984383
Epoch: 5800, Error: 0.005528365242325996
Epoch: 5900, Error: 0.005515940514251706
Epoch: 6000, Error: 0.005525537609592476
Epoch: 6100, Error: 0.005481200005183574
Epoch: 6200, Error: 0.005502646545032459
Epoch: 6300, Error: 0.005501665252904694
Epoch: 6400, Error: 0.005503774977495043
Epoch: 6500, Error: 0.005529299907322292
Epoch: 6600, Error: 0.005501952984147798
Epoch: 6700, Error: 0.005498933108984697
Epoch: 6800, Error: 0.00550150400419452
Epoch: 6900, Error: 0.005568616557108562
Epoch: 7000, Error: 0.005488420647179482
Epoch: 7100, Error: 0.005566350107746072
Epoch: 7200, Error: 0.005490338235679564
Epoch: 7300, Error: 0.005469946691961534
Epoch: 7400, Error: 0.0054631477678528245
Epoch: 7500, Error: 0.005446232336981349
Epoch: 7600, Error: 0.005448029524127052
Epoch: 7700, Error: 0.0054410171855213485
Epoch: 7800, Error: 0.005458374009420635
Epoch: 7900, Error: 0.005461266531706319
Epoch: 8000, Error: 0.005434868101121162
Epoch: 8100, Error: 0.005423374136810556
Epoch: 8200, Error: 0.005416953568559293
Epoch: 8300, Error: 0.0054193136177640095
Epoch: 8400, Error: 0.005433392068876878
Epoch: 8500, Error: 0.005385133398841765
Epoch: 8600, Error: 0.005411713299237501
Epoch: 8700, Error: 0.0054098988701188145
Epoch: 8800, Error: 0.005400005105059384
Epoch: 8900, Error: 0.005408669655993322
Finished
