Input Patterns
0.224 0.624 0.067 0.043 
0.11 0.502 0.051 0.043 
0.196 0.667 0.067 0.043 
0.055 0.584 0.067 0.082 
0.027 0.376 0.067 0.043 
0.306 0.71 0.086 0.043 
0.137 0.416 0.067 0.0 
0.416 0.831 0.035 0.043 
0.306 0.792 0.051 0.125 
0.388 0.749 0.118 0.082 
0.306 0.584 0.118 0.043 
0.082 0.667 0.0 0.043 
0.137 0.584 0.153 0.043 
0.196 0.584 0.102 0.125 
0.251 0.584 0.067 0.043 
0.137 0.459 0.102 0.043 
0.251 0.875 0.086 0.0 
0.165 0.459 0.086 0.043 
0.333 0.624 0.051 0.043 
0.027 0.416 0.051 0.043 
0.196 0.624 0.051 0.082 
0.027 0.502 0.051 0.043 
0.224 0.749 0.153 0.125 
0.224 0.749 0.102 0.043 
0.278 0.71 0.086 0.043 
0.165 0.416 0.067 0.043 
0.082 0.459 0.086 0.043 
0.306 0.792 0.118 0.125 
0.196 0.584 0.086 0.043 
0.165 0.459 0.086 0.0 
0.137 0.584 0.102 0.043 
0.0 0.416 0.016 0.0 
0.388 1.0 0.086 0.125 
0.224 0.624 0.067 0.082 
0.224 0.749 0.086 0.082 
0.224 0.71 0.086 0.125 
0.224 0.541 0.118 0.165 
0.196 0.416 0.102 0.043 
0.251 0.624 0.086 0.043 
0.11 0.502 0.102 0.043 
0.306 0.584 0.086 0.125 
0.333 0.918 0.067 0.043 
0.196 0.502 0.035 0.043 
0.165 0.667 0.067 0.0 
0.224 0.584 0.086 0.043 
0.055 0.125 0.051 0.082 
0.196 0.624 0.102 0.208 
0.137 0.416 0.067 0.082 
0.082 0.502 0.067 0.043 
0.196 0.541 0.067 0.043 
0.749 0.502 0.627 0.541 
0.722 0.459 0.663 0.584 
0.612 0.333 0.612 0.584 
0.557 0.541 0.627 0.624 
0.639 0.376 0.612 0.498 
0.196 0.0 0.424 0.376 
0.471 0.082 0.51 0.376 
0.361 0.376 0.439 0.498 
0.361 0.416 0.592 0.584 
0.529 0.082 0.592 0.584 
0.443 0.502 0.643 0.459 
0.557 0.208 0.663 0.584 
0.584 0.376 0.561 0.498 
0.694 0.333 0.643 0.541 
0.471 0.376 0.592 0.584 
0.333 0.169 0.475 0.416 
0.416 0.29 0.49 0.459 
0.306 0.416 0.592 0.584 
0.667 0.459 0.627 0.584 
0.361 0.416 0.525 0.498 
0.333 0.251 0.576 0.459 
0.416 0.251 0.51 0.459 
0.361 0.29 0.541 0.498 
0.388 0.376 0.541 0.498 
0.224 0.208 0.337 0.416 
0.584 0.502 0.592 0.584 
0.333 0.125 0.51 0.498 
0.388 0.333 0.592 0.498 
0.165 0.169 0.388 0.376 
0.251 0.29 0.49 0.541 
0.443 0.416 0.541 0.584 
0.498 0.376 0.627 0.541 
0.667 0.459 0.576 0.541 
0.416 0.29 0.525 0.376 
0.361 0.208 0.49 0.416 
0.498 0.333 0.51 0.498 
0.498 0.333 0.627 0.459 
0.639 0.416 0.576 0.541 
0.667 0.416 0.678 0.667 
0.388 0.251 0.424 0.376 
0.333 0.169 0.459 0.376 
0.471 0.29 0.694 0.624 
0.471 0.584 0.592 0.624 
0.557 0.125 0.576 0.498 
0.333 0.208 0.51 0.498 
0.498 0.416 0.612 0.541 
0.196 0.125 0.388 0.376 
0.388 0.416 0.541 0.459 
0.529 0.376 0.561 0.498 
0.388 0.333 0.525 0.498 
0.557 0.541 0.847 1.0 
0.776 0.416 0.831 0.831 
0.612 0.416 0.812 0.875 
0.165 0.208 0.592 0.667 
0.667 0.208 0.812 0.71 
0.612 0.502 0.694 0.792 
0.694 0.416 0.761 0.831 
0.416 0.333 0.694 0.957 
0.612 0.416 0.761 0.71 
0.945 0.251 1.0 0.918 
0.722 0.502 0.796 0.918 
0.945 0.333 0.965 0.792 
0.667 0.541 0.796 0.831 
0.529 0.333 0.643 0.71 
0.584 0.333 0.78 0.831 
0.863 0.333 0.863 0.749 
0.584 0.333 0.78 0.875 
0.498 0.251 0.78 0.541 
0.557 0.584 0.78 0.957 
0.471 0.416 0.643 0.71 
0.667 0.459 0.78 0.957 
0.416 0.29 0.694 0.749 
0.667 0.541 0.796 1.0 
0.557 0.208 0.678 0.749 
0.529 0.584 0.745 0.918 
0.416 0.29 0.694 0.749 
0.557 0.376 0.78 0.71 
0.918 0.416 0.949 0.831 
0.835 0.376 0.898 0.71 
0.804 0.667 0.863 1.0 
0.584 0.29 0.729 0.749 
0.388 0.208 0.678 0.792 
0.584 0.502 0.729 0.918 
0.945 0.749 0.965 0.875 
0.471 0.082 0.678 0.584 
0.361 0.333 0.663 0.792 
0.557 0.29 0.663 0.71 
0.804 0.502 0.847 0.71 
0.498 0.416 0.51 0.71 
0.804 0.416 0.812 0.624 
1.0 0.749 0.914 0.792 
0.557 0.333 0.694 0.584 
0.945 0.416 0.863 0.918 
0.584 0.459 0.761 0.71 
0.722 0.459 0.745 0.831 
0.722 0.459 0.694 0.918 
0.694 0.502 0.831 0.918 
0.667 0.416 0.714 0.918 
0.612 0.416 0.714 0.792 
0.443 0.416 0.694 0.71 
Teaching Patterns
1.0 0.0 0.0 
1.0 0.0 0.0 
1.0 0.0 0.0 
1.0 0.0 0.0 
1.0 0.0 0.0 
1.0 0.0 0.0 
1.0 0.0 0.0 
1.0 0.0 0.0 
1.0 0.0 0.0 
1.0 0.0 0.0 
1.0 0.0 0.0 
1.0 0.0 0.0 
1.0 0.0 0.0 
1.0 0.0 0.0 
1.0 0.0 0.0 
1.0 0.0 0.0 
1.0 0.0 0.0 
1.0 0.0 0.0 
1.0 0.0 0.0 
1.0 0.0 0.0 
1.0 0.0 0.0 
1.0 0.0 0.0 
1.0 0.0 0.0 
1.0 0.0 0.0 
1.0 0.0 0.0 
1.0 0.0 0.0 
1.0 0.0 0.0 
1.0 0.0 0.0 
1.0 0.0 0.0 
1.0 0.0 0.0 
1.0 0.0 0.0 
1.0 0.0 0.0 
1.0 0.0 0.0 
1.0 0.0 0.0 
1.0 0.0 0.0 
1.0 0.0 0.0 
1.0 0.0 0.0 
1.0 0.0 0.0 
1.0 0.0 0.0 
1.0 0.0 0.0 
1.0 0.0 0.0 
1.0 0.0 0.0 
1.0 0.0 0.0 
1.0 0.0 0.0 
1.0 0.0 0.0 
1.0 0.0 0.0 
1.0 0.0 0.0 
1.0 0.0 0.0 
1.0 0.0 0.0 
1.0 0.0 0.0 
0.0 1.0 0.0 
0.0 1.0 0.0 
0.0 1.0 0.0 
0.0 1.0 0.0 
0.0 1.0 0.0 
0.0 1.0 0.0 
0.0 1.0 0.0 
0.0 1.0 0.0 
0.0 1.0 0.0 
0.0 1.0 0.0 
0.0 1.0 0.0 
0.0 1.0 0.0 
0.0 1.0 0.0 
0.0 1.0 0.0 
0.0 1.0 0.0 
0.0 1.0 0.0 
0.0 1.0 0.0 
0.0 1.0 0.0 
0.0 1.0 0.0 
0.0 1.0 0.0 
0.0 1.0 0.0 
0.0 1.0 0.0 
0.0 1.0 0.0 
0.0 1.0 0.0 
0.0 1.0 0.0 
0.0 1.0 0.0 
0.0 1.0 0.0 
0.0 1.0 0.0 
0.0 1.0 0.0 
0.0 1.0 0.0 
0.0 1.0 0.0 
0.0 1.0 0.0 
0.0 1.0 0.0 
0.0 1.0 0.0 
0.0 1.0 0.0 
0.0 1.0 0.0 
0.0 1.0 0.0 
0.0 1.0 0.0 
0.0 1.0 0.0 
0.0 1.0 0.0 
0.0 1.0 0.0 
0.0 1.0 0.0 
0.0 1.0 0.0 
0.0 1.0 0.0 
0.0 1.0 0.0 
0.0 1.0 0.0 
0.0 1.0 0.0 
0.0 1.0 0.0 
0.0 1.0 0.0 
0.0 1.0 0.0 
0.0 0.0 1.0 
0.0 0.0 1.0 
0.0 0.0 1.0 
0.0 0.0 1.0 
0.0 0.0 1.0 
0.0 0.0 1.0 
0.0 0.0 1.0 
0.0 0.0 1.0 
0.0 0.0 1.0 
0.0 0.0 1.0 
0.0 0.0 1.0 
0.0 0.0 1.0 
0.0 0.0 1.0 
0.0 0.0 1.0 
0.0 0.0 1.0 
0.0 0.0 1.0 
0.0 0.0 1.0 
0.0 0.0 1.0 
0.0 0.0 1.0 
0.0 0.0 1.0 
0.0 0.0 1.0 
0.0 0.0 1.0 
0.0 0.0 1.0 
0.0 0.0 1.0 
0.0 0.0 1.0 
0.0 0.0 1.0 
0.0 0.0 1.0 
0.0 0.0 1.0 
0.0 0.0 1.0 
0.0 0.0 1.0 
0.0 0.0 1.0 
0.0 0.0 1.0 
0.0 0.0 1.0 
0.0 0.0 1.0 
0.0 0.0 1.0 
0.0 0.0 1.0 
0.0 0.0 1.0 
0.0 0.0 1.0 
0.0 0.0 1.0 
0.0 0.0 1.0 
0.0 0.0 1.0 
0.0 0.0 1.0 
0.0 0.0 1.0 
0.0 0.0 1.0 
0.0 0.0 1.0 
0.0 0.0 1.0 
0.0 0.0 1.0 
0.0 0.0 1.0 
0.0 0.0 1.0 
0.0 0.0 1.0 
Learning : 0.25
Momentum : 0.9
Epoch: 100, Error: 0.014547567057057334
Epoch: 200, Error: 0.013328598575680323
Epoch: 300, Error: 0.016444418277591286
Epoch: 400, Error: 0.012784831858219043
Epoch: 500, Error: 0.012187482188016577
Epoch: 600, Error: 0.012862990668076446
Epoch: 700, Error: 0.012549700406970146
Epoch: 800, Error: 0.012141157388014068
Epoch: 900, Error: 0.011962623167200785
Epoch: 1000, Error: 0.011970161671022822
Epoch: 1100, Error: 0.012102168846452
Epoch: 1200, Error: 0.012007803594405293
Epoch: 1300, Error: 0.011975974823354345
Epoch: 1400, Error: 0.012000396216023642
Epoch: 1500, Error: 0.012131143773119886
Epoch: 1600, Error: 0.011893298016695444
Epoch: 1700, Error: 0.011935425944552581
Epoch: 1800, Error: 0.011820883354640984
Epoch: 1900, Error: 0.0118301062450683
Epoch: 2000, Error: 0.0118018836980303
Epoch: 2100, Error: 0.011795599919096967
Epoch: 2200, Error: 0.011776335879730298
Epoch: 2300, Error: 0.013134924893478395
Epoch: 2400, Error: 0.011711360469927105
Epoch: 2500, Error: 0.012274740976369882
Epoch: 2600, Error: 0.01175300555808185
Epoch: 2700, Error: 0.011639184398591813
Epoch: 2800, Error: 0.011647377180023066
Epoch: 2900, Error: 0.011598869441744708
Epoch: 3000, Error: 0.011772008013128046
Epoch: 3100, Error: 0.011231614723243863
Epoch: 3200, Error: 0.011099336606983921
Epoch: 3300, Error: 0.011244133334925589
Epoch: 3400, Error: 0.010466385341327376
Epoch: 3500, Error: 0.01006039872102259
Epoch: 3600, Error: 0.009409588202475214
Epoch: 3700, Error: 0.008933200332089419
Epoch: 3800, Error: 0.008449376034332757
Epoch: 3900, Error: 0.007914081552529945
Epoch: 4000, Error: 0.007630547000285073
Epoch: 4100, Error: 0.007312142797901855
Epoch: 4200, Error: 0.006982357495542888
Epoch: 4300, Error: 0.006841873842472942
Epoch: 4400, Error: 0.00665251264589548
Epoch: 4500, Error: 0.006599099491315531
Epoch: 4600, Error: 0.006383415422302005
Epoch: 4700, Error: 0.006286460473497057
Epoch: 4800, Error: 0.006226417310114572
Epoch: 4900, Error: 0.006182217246071621
Epoch: 5000, Error: 0.006096977871052667
Epoch: 5100, Error: 0.006140098613598602
Epoch: 5200, Error: 0.0063051020455894445
Epoch: 5300, Error: 0.00606660084102753
Epoch: 5400, Error: 0.006156922761979199
Epoch: 5500, Error: 0.0061040748333526145
Epoch: 5600, Error: 0.005997617277623167
Epoch: 5700, Error: 0.005717051295660936
Epoch: 5800, Error: 0.005798367913145224
Epoch: 5900, Error: 0.005810719119084574
Epoch: 6000, Error: 0.005627777578265824
Epoch: 6100, Error: 0.005767085315722628
Epoch: 6200, Error: 0.005610075106488212
Epoch: 6300, Error: 0.0059663235402385864
Epoch: 6400, Error: 0.005491653671408069
Epoch: 6500, Error: 0.005466400256162899
Epoch: 6600, Error: 0.005430167459929811
Epoch: 6700, Error: 0.005448142498264671
Epoch: 6800, Error: 0.005328728783253597
Epoch: 6900, Error: 0.005332315886372086
Epoch: 7000, Error: 0.005281352519743621
Epoch: 7100, Error: 0.005250212251212147
Epoch: 7200, Error: 0.005244165280550035
Epoch: 7300, Error: 0.005234819335432115
Epoch: 7400, Error: 0.005209262817403984
Epoch: 7500, Error: 0.005169713207480283
Epoch: 7600, Error: 0.00518865844672957
Epoch: 7700, Error: 0.005136111336582238
Epoch: 7800, Error: 0.005120996607197196
Epoch: 7900, Error: 0.005158256442290204
Epoch: 8000, Error: 0.0051813984239401974
Epoch: 8100, Error: 0.005080119499958184
Epoch: 8200, Error: 0.005028477614524364
Epoch: 8300, Error: 0.004983879954251064
Epoch: 8400, Error: 0.0050379011674012925
Epoch: 8500, Error: 0.005132399389228643
Epoch: 8600, Error: 0.004848258264727566
Epoch: 8700, Error: 0.004895569015278165
Epoch: 8800, Error: 0.004732597774523038
Epoch: 8900, Error: 0.004620315017444825
Epoch: 9000, Error: 0.00464465832682377
Epoch: 9100, Error: 0.0043951838424490805
Epoch: 9200, Error: 0.004487893918117999
Epoch: 9300, Error: 0.00421346364517755
Epoch: 9400, Error: 0.004179416028853623
Epoch: 9500, Error: 0.0042314776914743465
Epoch: 9600, Error: 0.004560474717654622
Epoch: 9700, Error: 0.003849012853000006
Epoch: 9800, Error: 0.0037842319723566087
Epoch: 9900, Error: 0.0036513232705679913
Epoch: 10000, Error: 0.0038622469325303456
Epoch: 10100, Error: 0.0038124082157738894
Epoch: 10200, Error: 0.005464838376423244
Epoch: 10300, Error: 0.0035800826438470027
Epoch: 10400, Error: 0.003533788384577362
Epoch: 10500, Error: 0.0034484557106047213
Epoch: 10600, Error: 0.003459024570068489
Epoch: 10700, Error: 0.003312567699541019
Epoch: 10800, Error: 0.004704720396300631
Epoch: 10900, Error: 0.0031254917125160646
Epoch: 11000, Error: 0.002985886625864958
Epoch: 11100, Error: 0.0028530563331468535
Epoch: 11200, Error: 0.003115665165015859
Epoch: 11300, Error: 0.002709760695769648
Epoch: 11400, Error: 0.0027551360265621
Epoch: 11500, Error: 0.0032241457123147535
Epoch: 11600, Error: 0.003253012972434843
Epoch: 11700, Error: 0.002404942787547574
Epoch: 11800, Error: 0.0039044591685828303
Epoch: 11900, Error: 0.002416757136973886
Epoch: 12000, Error: 0.004190107456721559
Epoch: 12100, Error: 0.002216891515095288
Epoch: 12200, Error: 0.0020394406384057584
Epoch: 12300, Error: 0.002320673565936732
Epoch: 12400, Error: 0.002230847395424481
Epoch: 12500, Error: 0.003564435426072353
Epoch: 12600, Error: 0.002441236317270881
Epoch: 12700, Error: 0.0016872691824444017
Epoch: 12800, Error: 0.002559424203339869
Epoch: 12900, Error: 0.0015598908570481319
Epoch: 13000, Error: 0.001730331972027516
Epoch: 13100, Error: 0.0020380226558191364
Epoch: 13200, Error: 0.0015426849609382798
Epoch: 13300, Error: 0.00155754745007451
Epoch: 13400, Error: 0.0017329423477633196
Epoch: 13500, Error: 0.0022808518133262605
Epoch: 13600, Error: 0.0021399809708741646
Epoch: 13700, Error: 0.0017222221187418857
Epoch: 13800, Error: 0.0014256901305039079
Epoch: 13900, Error: 0.0019935370291566485
Epoch: 14000, Error: 0.001317831411867218
Epoch: 14100, Error: 0.0014801033815893625
Epoch: 14200, Error: 0.0020025098133400324
Epoch: 14300, Error: 0.001458193249556551
Epoch: 14400, Error: 0.001958331809133717
Epoch: 14500, Error: 0.0013723480280341922
Epoch: 14600, Error: 0.001282424927461578
Epoch: 14700, Error: 0.0015778334928879237
Epoch: 14800, Error: 0.0013823056271577811
Epoch: 14900, Error: 0.0014499924305995636
Epoch: 15000, Error: 0.0013613015984924282
Epoch: 15100, Error: 0.0012939251259048116
Epoch: 15200, Error: 0.0013426896591348422
Epoch: 15300, Error: 0.0014413299505332412
Epoch: 15400, Error: 0.0015177445340454955
Epoch: 15500, Error: 0.0013891194516336383
Epoch: 15600, Error: 0.0013238715983645392
Epoch: 15700, Error: 0.0013918528018196305
Epoch: 15800, Error: 0.0014479819895144403
Epoch: 15900, Error: 0.0013172339000794315
Epoch: 16000, Error: 0.0013539716694168861
Epoch: 16100, Error: 0.0014182306142477433
Epoch: 16200, Error: 0.0014008878977847326
Epoch: 16300, Error: 0.0014976685099541117
Epoch: 16400, Error: 0.0014451368488824854
Epoch: 16500, Error: 0.001444039145905735
Epoch: 16600, Error: 0.001424649227628105
Epoch: 16700, Error: 0.001370043525206024
Epoch: 16800, Error: 0.0014633403969001625
Epoch: 16900, Error: 0.0014229411617416507
Epoch: 17000, Error: 0.001418401823090426
Epoch: 17100, Error: 0.001427485637577103
Epoch: 17200, Error: 0.0013058755835189373
Epoch: 17300, Error: 0.0012194198612560678
Epoch: 17400, Error: 0.001222434827663943
Epoch: 17500, Error: 0.0012320350482183206
Epoch: 17600, Error: 0.0012518834235097987
Epoch: 17700, Error: 0.001181925814043895
Epoch: 17800, Error: 0.0012603311644878588
Epoch: 17900, Error: 0.001185981303934672
Epoch: 18000, Error: 0.0011676740118771168
Epoch: 18100, Error: 0.0011727298651854749
Epoch: 18200, Error: 0.0012170262057069699
Epoch: 18300, Error: 0.0012417944752402762
Epoch: 18400, Error: 0.0012470749476860762
Epoch: 18500, Error: 0.00122246233401345
Epoch: 18600, Error: 0.0011814666750570141
Epoch: 18700, Error: 0.0011788324528350456
Epoch: 18800, Error: 0.0012045836933799634
Epoch: 18900, Error: 0.001231693401452639
Epoch: 19000, Error: 0.0011857869521082766
Epoch: 19100, Error: 0.0011774097193145306
Epoch: 19200, Error: 0.0011589763794506752
Epoch: 19300, Error: 0.001117948583950482
Epoch: 19400, Error: 0.0011249554911108343
Epoch: 19500, Error: 0.001122030442572939
Epoch: 19600, Error: 0.0011396711529157036
Epoch: 19700, Error: 0.001100348036951332
Epoch: 19800, Error: 0.0011013724588535005
Epoch: 19900, Error: 0.001119278837672571
Epoch: 20000, Error: 0.0011437017563680086
Epoch: 20100, Error: 0.001111586839233361
Epoch: 20200, Error: 0.001134883539995743
Epoch: 20300, Error: 0.001118888762662789
Epoch: 20400, Error: 0.0011058898450983766
Epoch: 20500, Error: 0.001119512442932132
Epoch: 20600, Error: 0.0011274417826270182
Epoch: 20700, Error: 0.0011069739025370917
Epoch: 20800, Error: 0.0011184324804503374
Epoch: 20900, Error: 0.0011067975288556718
Epoch: 21000, Error: 0.0011388970971303169
Epoch: 21100, Error: 0.0011216721969463308
Epoch: 21200, Error: 0.0011298252761593052
Epoch: 21300, Error: 0.0011229826929716248
Epoch: 21400, Error: 0.0011128847712128982
Finished
