Input Patterns
0.224 0.624 0.067 0.043 
0.11 0.502 0.051 0.043 
0.196 0.667 0.067 0.043 
0.055 0.584 0.067 0.082 
0.027 0.376 0.067 0.043 
0.306 0.71 0.086 0.043 
0.137 0.416 0.067 0.0 
0.416 0.831 0.035 0.043 
0.306 0.792 0.051 0.125 
0.388 0.749 0.118 0.082 
0.306 0.584 0.118 0.043 
0.082 0.667 0.0 0.043 
0.137 0.584 0.153 0.043 
0.196 0.584 0.102 0.125 
0.251 0.584 0.067 0.043 
0.137 0.459 0.102 0.043 
0.251 0.875 0.086 0.0 
0.165 0.459 0.086 0.043 
0.333 0.624 0.051 0.043 
0.027 0.416 0.051 0.043 
0.196 0.624 0.051 0.082 
0.027 0.502 0.051 0.043 
0.224 0.749 0.153 0.125 
0.224 0.749 0.102 0.043 
0.278 0.71 0.086 0.043 
0.165 0.416 0.067 0.043 
0.082 0.459 0.086 0.043 
0.306 0.792 0.118 0.125 
0.196 0.584 0.086 0.043 
0.165 0.459 0.086 0.0 
0.137 0.584 0.102 0.043 
0.0 0.416 0.016 0.0 
0.388 1.0 0.086 0.125 
0.224 0.624 0.067 0.082 
0.224 0.749 0.086 0.082 
0.224 0.71 0.086 0.125 
0.224 0.541 0.118 0.165 
0.196 0.416 0.102 0.043 
0.251 0.624 0.086 0.043 
0.11 0.502 0.102 0.043 
0.306 0.584 0.086 0.125 
0.333 0.918 0.067 0.043 
0.196 0.502 0.035 0.043 
0.165 0.667 0.067 0.0 
0.224 0.584 0.086 0.043 
0.055 0.125 0.051 0.082 
0.196 0.624 0.102 0.208 
0.137 0.416 0.067 0.082 
0.082 0.502 0.067 0.043 
0.196 0.541 0.067 0.043 
0.749 0.502 0.627 0.541 
0.722 0.459 0.663 0.584 
0.612 0.333 0.612 0.584 
0.557 0.541 0.627 0.624 
0.639 0.376 0.612 0.498 
0.196 0.0 0.424 0.376 
0.471 0.082 0.51 0.376 
0.361 0.376 0.439 0.498 
0.361 0.416 0.592 0.584 
0.529 0.082 0.592 0.584 
0.443 0.502 0.643 0.459 
0.557 0.208 0.663 0.584 
0.584 0.376 0.561 0.498 
0.694 0.333 0.643 0.541 
0.471 0.376 0.592 0.584 
0.333 0.169 0.475 0.416 
0.416 0.29 0.49 0.459 
0.306 0.416 0.592 0.584 
0.667 0.459 0.627 0.584 
0.361 0.416 0.525 0.498 
0.333 0.251 0.576 0.459 
0.416 0.251 0.51 0.459 
0.361 0.29 0.541 0.498 
0.388 0.376 0.541 0.498 
0.224 0.208 0.337 0.416 
0.584 0.502 0.592 0.584 
0.333 0.125 0.51 0.498 
0.388 0.333 0.592 0.498 
0.165 0.169 0.388 0.376 
0.251 0.29 0.49 0.541 
0.443 0.416 0.541 0.584 
0.498 0.376 0.627 0.541 
0.667 0.459 0.576 0.541 
0.416 0.29 0.525 0.376 
0.361 0.208 0.49 0.416 
0.498 0.333 0.51 0.498 
0.498 0.333 0.627 0.459 
0.639 0.416 0.576 0.541 
0.667 0.416 0.678 0.667 
0.388 0.251 0.424 0.376 
0.333 0.169 0.459 0.376 
0.471 0.29 0.694 0.624 
0.471 0.584 0.592 0.624 
0.557 0.125 0.576 0.498 
0.333 0.208 0.51 0.498 
0.498 0.416 0.612 0.541 
0.196 0.125 0.388 0.376 
0.388 0.416 0.541 0.459 
0.529 0.376 0.561 0.498 
0.388 0.333 0.525 0.498 
0.557 0.541 0.847 1.0 
0.776 0.416 0.831 0.831 
0.612 0.416 0.812 0.875 
0.165 0.208 0.592 0.667 
0.667 0.208 0.812 0.71 
0.612 0.502 0.694 0.792 
0.694 0.416 0.761 0.831 
0.416 0.333 0.694 0.957 
0.612 0.416 0.761 0.71 
0.945 0.251 1.0 0.918 
0.722 0.502 0.796 0.918 
0.945 0.333 0.965 0.792 
0.667 0.541 0.796 0.831 
0.529 0.333 0.643 0.71 
0.584 0.333 0.78 0.831 
0.863 0.333 0.863 0.749 
0.584 0.333 0.78 0.875 
0.498 0.251 0.78 0.541 
0.557 0.584 0.78 0.957 
0.471 0.416 0.643 0.71 
0.667 0.459 0.78 0.957 
0.416 0.29 0.694 0.749 
0.667 0.541 0.796 1.0 
0.557 0.208 0.678 0.749 
0.529 0.584 0.745 0.918 
0.416 0.29 0.694 0.749 
0.557 0.376 0.78 0.71 
0.918 0.416 0.949 0.831 
0.835 0.376 0.898 0.71 
0.804 0.667 0.863 1.0 
0.584 0.29 0.729 0.749 
0.388 0.208 0.678 0.792 
0.584 0.502 0.729 0.918 
0.945 0.749 0.965 0.875 
0.471 0.082 0.678 0.584 
0.361 0.333 0.663 0.792 
0.557 0.29 0.663 0.71 
0.804 0.502 0.847 0.71 
0.498 0.416 0.51 0.71 
0.804 0.416 0.812 0.624 
1.0 0.749 0.914 0.792 
0.557 0.333 0.694 0.584 
0.945 0.416 0.863 0.918 
0.584 0.459 0.761 0.71 
0.722 0.459 0.745 0.831 
0.722 0.459 0.694 0.918 
0.694 0.502 0.831 0.918 
0.667 0.416 0.714 0.918 
0.612 0.416 0.714 0.792 
0.443 0.416 0.694 0.71 
Teaching Patterns
1.0 0.0 0.0 
1.0 0.0 0.0 
1.0 0.0 0.0 
1.0 0.0 0.0 
1.0 0.0 0.0 
1.0 0.0 0.0 
1.0 0.0 0.0 
1.0 0.0 0.0 
1.0 0.0 0.0 
1.0 0.0 0.0 
1.0 0.0 0.0 
1.0 0.0 0.0 
1.0 0.0 0.0 
1.0 0.0 0.0 
1.0 0.0 0.0 
1.0 0.0 0.0 
1.0 0.0 0.0 
1.0 0.0 0.0 
1.0 0.0 0.0 
1.0 0.0 0.0 
1.0 0.0 0.0 
1.0 0.0 0.0 
1.0 0.0 0.0 
1.0 0.0 0.0 
1.0 0.0 0.0 
1.0 0.0 0.0 
1.0 0.0 0.0 
1.0 0.0 0.0 
1.0 0.0 0.0 
1.0 0.0 0.0 
1.0 0.0 0.0 
1.0 0.0 0.0 
1.0 0.0 0.0 
1.0 0.0 0.0 
1.0 0.0 0.0 
1.0 0.0 0.0 
1.0 0.0 0.0 
1.0 0.0 0.0 
1.0 0.0 0.0 
1.0 0.0 0.0 
1.0 0.0 0.0 
1.0 0.0 0.0 
1.0 0.0 0.0 
1.0 0.0 0.0 
1.0 0.0 0.0 
1.0 0.0 0.0 
1.0 0.0 0.0 
1.0 0.0 0.0 
1.0 0.0 0.0 
1.0 0.0 0.0 
0.0 1.0 0.0 
0.0 1.0 0.0 
0.0 1.0 0.0 
0.0 1.0 0.0 
0.0 1.0 0.0 
0.0 1.0 0.0 
0.0 1.0 0.0 
0.0 1.0 0.0 
0.0 1.0 0.0 
0.0 1.0 0.0 
0.0 1.0 0.0 
0.0 1.0 0.0 
0.0 1.0 0.0 
0.0 1.0 0.0 
0.0 1.0 0.0 
0.0 1.0 0.0 
0.0 1.0 0.0 
0.0 1.0 0.0 
0.0 1.0 0.0 
0.0 1.0 0.0 
0.0 1.0 0.0 
0.0 1.0 0.0 
0.0 1.0 0.0 
0.0 1.0 0.0 
0.0 1.0 0.0 
0.0 1.0 0.0 
0.0 1.0 0.0 
0.0 1.0 0.0 
0.0 1.0 0.0 
0.0 1.0 0.0 
0.0 1.0 0.0 
0.0 1.0 0.0 
0.0 1.0 0.0 
0.0 1.0 0.0 
0.0 1.0 0.0 
0.0 1.0 0.0 
0.0 1.0 0.0 
0.0 1.0 0.0 
0.0 1.0 0.0 
0.0 1.0 0.0 
0.0 1.0 0.0 
0.0 1.0 0.0 
0.0 1.0 0.0 
0.0 1.0 0.0 
0.0 1.0 0.0 
0.0 1.0 0.0 
0.0 1.0 0.0 
0.0 1.0 0.0 
0.0 1.0 0.0 
0.0 1.0 0.0 
0.0 0.0 1.0 
0.0 0.0 1.0 
0.0 0.0 1.0 
0.0 0.0 1.0 
0.0 0.0 1.0 
0.0 0.0 1.0 
0.0 0.0 1.0 
0.0 0.0 1.0 
0.0 0.0 1.0 
0.0 0.0 1.0 
0.0 0.0 1.0 
0.0 0.0 1.0 
0.0 0.0 1.0 
0.0 0.0 1.0 
0.0 0.0 1.0 
0.0 0.0 1.0 
0.0 0.0 1.0 
0.0 0.0 1.0 
0.0 0.0 1.0 
0.0 0.0 1.0 
0.0 0.0 1.0 
0.0 0.0 1.0 
0.0 0.0 1.0 
0.0 0.0 1.0 
0.0 0.0 1.0 
0.0 0.0 1.0 
0.0 0.0 1.0 
0.0 0.0 1.0 
0.0 0.0 1.0 
0.0 0.0 1.0 
0.0 0.0 1.0 
0.0 0.0 1.0 
0.0 0.0 1.0 
0.0 0.0 1.0 
0.0 0.0 1.0 
0.0 0.0 1.0 
0.0 0.0 1.0 
0.0 0.0 1.0 
0.0 0.0 1.0 
0.0 0.0 1.0 
0.0 0.0 1.0 
0.0 0.0 1.0 
0.0 0.0 1.0 
0.0 0.0 1.0 
0.0 0.0 1.0 
0.0 0.0 1.0 
0.0 0.0 1.0 
0.0 0.0 1.0 
0.0 0.0 1.0 
0.0 0.0 1.0 
Learning : 0.25
Momentum : 0.9
Epoch: 100, Error: 0.014651791914790949
Epoch: 200, Error: 0.015095182578535593
Epoch: 300, Error: 0.015747063033370402
Epoch: 400, Error: 0.012126624526173848
Epoch: 500, Error: 0.012294606818033769
Epoch: 600, Error: 0.012361446663400824
Epoch: 700, Error: 0.012331510357871
Epoch: 800, Error: 0.012192608493980493
Epoch: 900, Error: 0.012041284845321765
Epoch: 1000, Error: 0.01218234227386517
Epoch: 1100, Error: 0.011948625992451188
Epoch: 1200, Error: 0.012228639818902778
Epoch: 1300, Error: 0.013448363508387986
Epoch: 1400, Error: 0.011976740583364419
Epoch: 1500, Error: 0.011874332359136191
Epoch: 1600, Error: 0.012057731323825599
Epoch: 1700, Error: 0.012039016099903292
Epoch: 1800, Error: 0.012040102711019622
Epoch: 1900, Error: 0.012181161592907115
Epoch: 2000, Error: 0.011666435403567385
Epoch: 2100, Error: 0.011788792453490128
Epoch: 2200, Error: 0.012197247275140712
Epoch: 2300, Error: 0.011577809093486937
Epoch: 2400, Error: 0.011648268410132846
Epoch: 2500, Error: 0.011493528321962133
Epoch: 2600, Error: 0.011464168995230048
Epoch: 2700, Error: 0.011593720433136643
Epoch: 2800, Error: 0.01155786267386718
Epoch: 2900, Error: 0.011681343968219238
Epoch: 3000, Error: 0.01153812314729815
Epoch: 3100, Error: 0.01126463790237417
Epoch: 3200, Error: 0.011358604401279032
Epoch: 3300, Error: 0.01106856274751338
Epoch: 3400, Error: 0.0108618078626511
Epoch: 3500, Error: 0.010760229204067457
Epoch: 3600, Error: 0.010733384211615914
Epoch: 3700, Error: 0.010676304602782093
Epoch: 3800, Error: 0.010279261080987815
Epoch: 3900, Error: 0.010110439207329248
Epoch: 4000, Error: 0.009985488530834393
Epoch: 4100, Error: 0.009550974525949546
Epoch: 4200, Error: 0.009269482574306303
Epoch: 4300, Error: 0.009012955834068581
Epoch: 4400, Error: 0.009139706208529004
Epoch: 4500, Error: 0.008580855548272261
Epoch: 4600, Error: 0.008381675326948883
Epoch: 4700, Error: 0.008329726525517597
Epoch: 4800, Error: 0.007989228516983974
Epoch: 4900, Error: 0.007963929949378246
Epoch: 5000, Error: 0.008229072479171966
Epoch: 5100, Error: 0.00770206319754992
Epoch: 5200, Error: 0.009827601776061977
Epoch: 5300, Error: 0.0078092489557887584
Epoch: 5400, Error: 0.007628699221695853
Epoch: 5500, Error: 0.007826686360053663
Epoch: 5600, Error: 0.007667295262147592
Epoch: 5700, Error: 0.0075843610817519416
Epoch: 5800, Error: 0.007579475210259384
Epoch: 5900, Error: 0.0074900789503889965
Epoch: 6000, Error: 0.007334574502872891
Epoch: 6100, Error: 0.00787402063633105
Epoch: 6200, Error: 0.007224494910154793
Epoch: 6300, Error: 0.007326695420909161
Epoch: 6400, Error: 0.00732349330509142
Epoch: 6500, Error: 0.007524767828209436
Epoch: 6600, Error: 0.007642721442648846
Epoch: 6700, Error: 0.007069098866771104
Epoch: 6800, Error: 0.00749147781265156
Epoch: 6900, Error: 0.007087724296147855
Epoch: 7000, Error: 0.007150576698702161
Epoch: 7100, Error: 0.006961750004060523
Epoch: 7200, Error: 0.006788719939369388
Epoch: 7300, Error: 0.006693628838246861
Epoch: 7400, Error: 0.006696728586340412
Epoch: 7500, Error: 0.00663135496218885
Epoch: 7600, Error: 0.006418226914256638
Epoch: 7700, Error: 0.006344656260473789
Epoch: 7800, Error: 0.006313760728998762
Epoch: 7900, Error: 0.006605527873103716
Epoch: 8000, Error: 0.006165932690051453
Epoch: 8100, Error: 0.0063456091334677615
Epoch: 8200, Error: 0.0061665215286870545
Epoch: 8300, Error: 0.006174762577084192
Epoch: 8400, Error: 0.006121539048525783
Epoch: 8500, Error: 0.00606894459805652
Epoch: 8600, Error: 0.006194107237065964
Epoch: 8700, Error: 0.0060580680336689745
Epoch: 8800, Error: 0.006030238603593154
Epoch: 8900, Error: 0.006006387813783634
Epoch: 9000, Error: 0.006001887627692222
Epoch: 9100, Error: 0.005991692182329321
Epoch: 9200, Error: 0.006018621674982002
Epoch: 9300, Error: 0.006015277007305134
Epoch: 9400, Error: 0.006054827888935791
Epoch: 9500, Error: 0.005953828952256743
Epoch: 9600, Error: 0.006108068184000055
Epoch: 9700, Error: 0.005941378070854344
Epoch: 9800, Error: 0.005954694212131822
Epoch: 9900, Error: 0.0060130050071482135
Epoch: 10000, Error: 0.0059441472540815955
Epoch: 10100, Error: 0.005892966174436646
Epoch: 10200, Error: 0.005889518577975753
Epoch: 10300, Error: 0.005904978019326081
Epoch: 10400, Error: 0.005889577347483431
Epoch: 10500, Error: 0.005833047682413884
Epoch: 10600, Error: 0.005883120084426401
Epoch: 10700, Error: 0.005864572558131004
Epoch: 10800, Error: 0.005860384741963955
Epoch: 10900, Error: 0.005855012585513298
Epoch: 11000, Error: 0.005862196463283136
Epoch: 11100, Error: 0.005805570861899068
Epoch: 11200, Error: 0.005810271807239791
Epoch: 11300, Error: 0.005884860868514623
Epoch: 11400, Error: 0.005872242792687951
Epoch: 11500, Error: 0.005818950906766837
Epoch: 11600, Error: 0.005784718589102574
Epoch: 11700, Error: 0.005870245600320047
Epoch: 11800, Error: 0.005858915830798437
Epoch: 11900, Error: 0.0058611407278537815
Epoch: 12000, Error: 0.00586462140156682
Epoch: 12100, Error: 0.005815385748302315
Epoch: 12200, Error: 0.0058149353098990485
Epoch: 12300, Error: 0.005834896962962279
Epoch: 12400, Error: 0.005820879424787321
Epoch: 12500, Error: 0.005835003196930387
Epoch: 12600, Error: 0.005819707877392162
Epoch: 12700, Error: 0.005839574254457878
Epoch: 12800, Error: 0.005823948583434069
Epoch: 12900, Error: 0.005860026366260213
Epoch: 13000, Error: 0.005837421301160516
Epoch: 13100, Error: 0.005812009319287275
Epoch: 13200, Error: 0.005798403476577279
Epoch: 13300, Error: 0.0058218997948201005
Epoch: 13400, Error: 0.005814634796353917
Epoch: 13500, Error: 0.005797619133519468
Epoch: 13600, Error: 0.005811815325751328
Epoch: 13700, Error: 0.005791272085050249
Epoch: 13800, Error: 0.005768583094879427
Epoch: 13900, Error: 0.005775100191062395
Epoch: 14000, Error: 0.005798704296082461
Epoch: 14100, Error: 0.005775060485906578
Epoch: 14200, Error: 0.005775704925646657
Epoch: 14300, Error: 0.005786454532859894
Epoch: 14400, Error: 0.00577758177574462
Epoch: 14500, Error: 0.005772612554447284
Finished
