Input Patterns
0.224 0.624 0.067 0.043 
0.11 0.502 0.051 0.043 
0.196 0.667 0.067 0.043 
0.055 0.584 0.067 0.082 
0.027 0.376 0.067 0.043 
0.306 0.71 0.086 0.043 
0.137 0.416 0.067 0.0 
0.416 0.831 0.035 0.043 
0.306 0.792 0.051 0.125 
0.388 0.749 0.118 0.082 
0.306 0.584 0.118 0.043 
0.082 0.667 0.0 0.043 
0.137 0.584 0.153 0.043 
0.196 0.584 0.102 0.125 
0.251 0.584 0.067 0.043 
0.137 0.459 0.102 0.043 
0.251 0.875 0.086 0.0 
0.165 0.459 0.086 0.043 
0.333 0.624 0.051 0.043 
0.027 0.416 0.051 0.043 
0.196 0.624 0.051 0.082 
0.027 0.502 0.051 0.043 
0.224 0.749 0.153 0.125 
0.224 0.749 0.102 0.043 
0.278 0.71 0.086 0.043 
0.165 0.416 0.067 0.043 
0.082 0.459 0.086 0.043 
0.306 0.792 0.118 0.125 
0.196 0.584 0.086 0.043 
0.165 0.459 0.086 0.0 
0.137 0.584 0.102 0.043 
0.0 0.416 0.016 0.0 
0.388 1.0 0.086 0.125 
0.224 0.624 0.067 0.082 
0.224 0.749 0.086 0.082 
0.224 0.71 0.086 0.125 
0.224 0.541 0.118 0.165 
0.196 0.416 0.102 0.043 
0.251 0.624 0.086 0.043 
0.11 0.502 0.102 0.043 
0.306 0.584 0.086 0.125 
0.333 0.918 0.067 0.043 
0.196 0.502 0.035 0.043 
0.165 0.667 0.067 0.0 
0.224 0.584 0.086 0.043 
0.055 0.125 0.051 0.082 
0.196 0.624 0.102 0.208 
0.137 0.416 0.067 0.082 
0.082 0.502 0.067 0.043 
0.196 0.541 0.067 0.043 
0.749 0.502 0.627 0.541 
0.722 0.459 0.663 0.584 
0.612 0.333 0.612 0.584 
0.557 0.541 0.627 0.624 
0.639 0.376 0.612 0.498 
0.196 0.0 0.424 0.376 
0.471 0.082 0.51 0.376 
0.361 0.376 0.439 0.498 
0.361 0.416 0.592 0.584 
0.529 0.082 0.592 0.584 
0.443 0.502 0.643 0.459 
0.557 0.208 0.663 0.584 
0.584 0.376 0.561 0.498 
0.694 0.333 0.643 0.541 
0.471 0.376 0.592 0.584 
0.333 0.169 0.475 0.416 
0.416 0.29 0.49 0.459 
0.306 0.416 0.592 0.584 
0.667 0.459 0.627 0.584 
0.361 0.416 0.525 0.498 
0.333 0.251 0.576 0.459 
0.416 0.251 0.51 0.459 
0.361 0.29 0.541 0.498 
0.388 0.376 0.541 0.498 
0.224 0.208 0.337 0.416 
0.584 0.502 0.592 0.584 
0.333 0.125 0.51 0.498 
0.388 0.333 0.592 0.498 
0.165 0.169 0.388 0.376 
0.251 0.29 0.49 0.541 
0.443 0.416 0.541 0.584 
0.498 0.376 0.627 0.541 
0.667 0.459 0.576 0.541 
0.416 0.29 0.525 0.376 
0.361 0.208 0.49 0.416 
0.498 0.333 0.51 0.498 
0.498 0.333 0.627 0.459 
0.639 0.416 0.576 0.541 
0.667 0.416 0.678 0.667 
0.388 0.251 0.424 0.376 
0.333 0.169 0.459 0.376 
0.471 0.29 0.694 0.624 
0.471 0.584 0.592 0.624 
0.557 0.125 0.576 0.498 
0.333 0.208 0.51 0.498 
0.498 0.416 0.612 0.541 
0.196 0.125 0.388 0.376 
0.388 0.416 0.541 0.459 
0.529 0.376 0.561 0.498 
0.388 0.333 0.525 0.498 
0.557 0.541 0.847 1.0 
0.776 0.416 0.831 0.831 
0.612 0.416 0.812 0.875 
0.165 0.208 0.592 0.667 
0.667 0.208 0.812 0.71 
0.612 0.502 0.694 0.792 
0.694 0.416 0.761 0.831 
0.416 0.333 0.694 0.957 
0.612 0.416 0.761 0.71 
0.945 0.251 1.0 0.918 
0.722 0.502 0.796 0.918 
0.945 0.333 0.965 0.792 
0.667 0.541 0.796 0.831 
0.529 0.333 0.643 0.71 
0.584 0.333 0.78 0.831 
0.863 0.333 0.863 0.749 
0.584 0.333 0.78 0.875 
0.498 0.251 0.78 0.541 
0.557 0.584 0.78 0.957 
0.471 0.416 0.643 0.71 
0.667 0.459 0.78 0.957 
0.416 0.29 0.694 0.749 
0.667 0.541 0.796 1.0 
0.557 0.208 0.678 0.749 
0.529 0.584 0.745 0.918 
0.416 0.29 0.694 0.749 
0.557 0.376 0.78 0.71 
0.918 0.416 0.949 0.831 
0.835 0.376 0.898 0.71 
0.804 0.667 0.863 1.0 
0.584 0.29 0.729 0.749 
0.388 0.208 0.678 0.792 
0.584 0.502 0.729 0.918 
0.945 0.749 0.965 0.875 
0.471 0.082 0.678 0.584 
0.361 0.333 0.663 0.792 
0.557 0.29 0.663 0.71 
0.804 0.502 0.847 0.71 
0.498 0.416 0.51 0.71 
0.804 0.416 0.812 0.624 
1.0 0.749 0.914 0.792 
0.557 0.333 0.694 0.584 
0.945 0.416 0.863 0.918 
0.584 0.459 0.761 0.71 
0.722 0.459 0.745 0.831 
0.722 0.459 0.694 0.918 
0.694 0.502 0.831 0.918 
0.667 0.416 0.714 0.918 
0.612 0.416 0.714 0.792 
0.443 0.416 0.694 0.71 
Teaching Patterns
1.0 0.0 0.0 
1.0 0.0 0.0 
1.0 0.0 0.0 
1.0 0.0 0.0 
1.0 0.0 0.0 
1.0 0.0 0.0 
1.0 0.0 0.0 
1.0 0.0 0.0 
1.0 0.0 0.0 
1.0 0.0 0.0 
1.0 0.0 0.0 
1.0 0.0 0.0 
1.0 0.0 0.0 
1.0 0.0 0.0 
1.0 0.0 0.0 
1.0 0.0 0.0 
1.0 0.0 0.0 
1.0 0.0 0.0 
1.0 0.0 0.0 
1.0 0.0 0.0 
1.0 0.0 0.0 
1.0 0.0 0.0 
1.0 0.0 0.0 
1.0 0.0 0.0 
1.0 0.0 0.0 
1.0 0.0 0.0 
1.0 0.0 0.0 
1.0 0.0 0.0 
1.0 0.0 0.0 
1.0 0.0 0.0 
1.0 0.0 0.0 
1.0 0.0 0.0 
1.0 0.0 0.0 
1.0 0.0 0.0 
1.0 0.0 0.0 
1.0 0.0 0.0 
1.0 0.0 0.0 
1.0 0.0 0.0 
1.0 0.0 0.0 
1.0 0.0 0.0 
1.0 0.0 0.0 
1.0 0.0 0.0 
1.0 0.0 0.0 
1.0 0.0 0.0 
1.0 0.0 0.0 
1.0 0.0 0.0 
1.0 0.0 0.0 
1.0 0.0 0.0 
1.0 0.0 0.0 
1.0 0.0 0.0 
0.0 1.0 0.0 
0.0 1.0 0.0 
0.0 1.0 0.0 
0.0 1.0 0.0 
0.0 1.0 0.0 
0.0 1.0 0.0 
0.0 1.0 0.0 
0.0 1.0 0.0 
0.0 1.0 0.0 
0.0 1.0 0.0 
0.0 1.0 0.0 
0.0 1.0 0.0 
0.0 1.0 0.0 
0.0 1.0 0.0 
0.0 1.0 0.0 
0.0 1.0 0.0 
0.0 1.0 0.0 
0.0 1.0 0.0 
0.0 1.0 0.0 
0.0 1.0 0.0 
0.0 1.0 0.0 
0.0 1.0 0.0 
0.0 1.0 0.0 
0.0 1.0 0.0 
0.0 1.0 0.0 
0.0 1.0 0.0 
0.0 1.0 0.0 
0.0 1.0 0.0 
0.0 1.0 0.0 
0.0 1.0 0.0 
0.0 1.0 0.0 
0.0 1.0 0.0 
0.0 1.0 0.0 
0.0 1.0 0.0 
0.0 1.0 0.0 
0.0 1.0 0.0 
0.0 1.0 0.0 
0.0 1.0 0.0 
0.0 1.0 0.0 
0.0 1.0 0.0 
0.0 1.0 0.0 
0.0 1.0 0.0 
0.0 1.0 0.0 
0.0 1.0 0.0 
0.0 1.0 0.0 
0.0 1.0 0.0 
0.0 1.0 0.0 
0.0 1.0 0.0 
0.0 1.0 0.0 
0.0 1.0 0.0 
0.0 0.0 1.0 
0.0 0.0 1.0 
0.0 0.0 1.0 
0.0 0.0 1.0 
0.0 0.0 1.0 
0.0 0.0 1.0 
0.0 0.0 1.0 
0.0 0.0 1.0 
0.0 0.0 1.0 
0.0 0.0 1.0 
0.0 0.0 1.0 
0.0 0.0 1.0 
0.0 0.0 1.0 
0.0 0.0 1.0 
0.0 0.0 1.0 
0.0 0.0 1.0 
0.0 0.0 1.0 
0.0 0.0 1.0 
0.0 0.0 1.0 
0.0 0.0 1.0 
0.0 0.0 1.0 
0.0 0.0 1.0 
0.0 0.0 1.0 
0.0 0.0 1.0 
0.0 0.0 1.0 
0.0 0.0 1.0 
0.0 0.0 1.0 
0.0 0.0 1.0 
0.0 0.0 1.0 
0.0 0.0 1.0 
0.0 0.0 1.0 
0.0 0.0 1.0 
0.0 0.0 1.0 
0.0 0.0 1.0 
0.0 0.0 1.0 
0.0 0.0 1.0 
0.0 0.0 1.0 
0.0 0.0 1.0 
0.0 0.0 1.0 
0.0 0.0 1.0 
0.0 0.0 1.0 
0.0 0.0 1.0 
0.0 0.0 1.0 
0.0 0.0 1.0 
0.0 0.0 1.0 
0.0 0.0 1.0 
0.0 0.0 1.0 
0.0 0.0 1.0 
0.0 0.0 1.0 
0.0 0.0 1.0 
Learning : 0.25
Momentum : 0.9
Epoch: 100, Error: 0.015907378342398144
Epoch: 200, Error: 0.012873442640581843
Epoch: 300, Error: 0.015714244619275723
Epoch: 400, Error: 0.02421489471179001
Epoch: 500, Error: 0.012390673397911292
Epoch: 600, Error: 0.012383347694561755
Epoch: 700, Error: 0.012351455308375095
Epoch: 800, Error: 0.012264567800090697
Epoch: 900, Error: 0.012123015339569231
Epoch: 1000, Error: 0.012538820377986893
Epoch: 1100, Error: 0.014266352543821612
Epoch: 1200, Error: 0.012921332322613615
Epoch: 1300, Error: 0.012702259329451633
Epoch: 1400, Error: 0.01207825812883658
Epoch: 1500, Error: 0.012243591166572572
Epoch: 1600, Error: 0.011991236773941705
Epoch: 1700, Error: 0.011993955012536375
Epoch: 1800, Error: 0.01224020072331148
Epoch: 1900, Error: 0.011841962836354808
Epoch: 2000, Error: 0.01178756731378605
Epoch: 2100, Error: 0.011983321766516236
Epoch: 2200, Error: 0.011822675389321177
Epoch: 2300, Error: 0.012434950491682934
Epoch: 2400, Error: 0.011616299495602883
Epoch: 2500, Error: 0.011650511120636349
Epoch: 2600, Error: 0.011423270712709516
Epoch: 2700, Error: 0.011518569151568162
Epoch: 2800, Error: 0.011273049471224322
Epoch: 2900, Error: 0.011116239733709926
Epoch: 3000, Error: 0.011774961976262852
Epoch: 3100, Error: 0.011217097681319751
Epoch: 3200, Error: 0.010656724905624373
Epoch: 3300, Error: 0.010616788712631471
Epoch: 3400, Error: 0.010316311771108802
Epoch: 3500, Error: 0.010066043204765444
Epoch: 3600, Error: 0.00957161935914155
Epoch: 3700, Error: 0.009124685494608863
Epoch: 3800, Error: 0.00855872705684062
Epoch: 3900, Error: 0.008309470150913677
Epoch: 4000, Error: 0.0075112664209829785
Epoch: 4100, Error: 0.007694377444805114
Epoch: 4200, Error: 0.006623676008162856
Epoch: 4300, Error: 0.006650678932918959
Epoch: 4400, Error: 0.006153591510321361
Epoch: 4500, Error: 0.006008852291185064
Epoch: 4600, Error: 0.006060602607581761
Epoch: 4700, Error: 0.005777139695564248
Epoch: 4800, Error: 0.005649314897457029
Epoch: 4900, Error: 0.005600702291459077
Epoch: 5000, Error: 0.005523149815481802
Epoch: 5100, Error: 0.005437159200662517
Epoch: 5200, Error: 0.00545288767507485
Epoch: 5300, Error: 0.005376984718658628
Epoch: 5400, Error: 0.005340787376874706
Epoch: 5500, Error: 0.005311974156186236
Epoch: 5600, Error: 0.005286187834589076
Epoch: 5700, Error: 0.005275165879053886
Epoch: 5800, Error: 0.005233250782120055
Epoch: 5900, Error: 0.0052190401792738235
Epoch: 6000, Error: 0.005195311054696805
Epoch: 6100, Error: 0.005191274772765677
Epoch: 6200, Error: 0.0052087869509083486
Epoch: 6300, Error: 0.0052396365085512426
Epoch: 6400, Error: 0.005206826828439761
Epoch: 6500, Error: 0.005175674894280854
Epoch: 6600, Error: 0.0051432303515874505
Epoch: 6700, Error: 0.005144089105945521
Epoch: 6800, Error: 0.005152495411853932
Epoch: 6900, Error: 0.005131657607122645
Epoch: 7000, Error: 0.005140412835219398
Epoch: 7100, Error: 0.005116553671746084
Epoch: 7200, Error: 0.00510843005979351
Epoch: 7300, Error: 0.005104214490281129
Epoch: 7400, Error: 0.005156154480392451
Epoch: 7500, Error: 0.005087845725980307
Epoch: 7600, Error: 0.005085945932248936
Epoch: 7700, Error: 0.005065199999861958
Epoch: 7800, Error: 0.005042438736996474
Epoch: 7900, Error: 0.005071626705540098
Epoch: 8000, Error: 0.005015489796055278
Epoch: 8100, Error: 0.004996387424668693
Epoch: 8200, Error: 0.004982116406007024
Epoch: 8300, Error: 0.0049943116315997425
Epoch: 8400, Error: 0.004949347163158413
Epoch: 8500, Error: 0.004946722131544641
Epoch: 8600, Error: 0.00496232683937595
Epoch: 8700, Error: 0.004932590700508617
Epoch: 8800, Error: 0.004930512094790556
Epoch: 8900, Error: 0.004829523109191623
Epoch: 9000, Error: 0.004823440343864399
Epoch: 9100, Error: 0.004758892326089128
Epoch: 9200, Error: 0.0047525910857425715
Epoch: 9300, Error: 0.004672326637934416
Epoch: 9400, Error: 0.004581717088298311
Epoch: 9500, Error: 0.0044811626173573765
Epoch: 9600, Error: 0.004453774867417801
Epoch: 9700, Error: 0.004425861540525397
Epoch: 9800, Error: 0.004318336407653476
Epoch: 9900, Error: 0.004231667394966273
Epoch: 10000, Error: 0.004456937300373434
Epoch: 10100, Error: 0.004172243648371527
Epoch: 10200, Error: 0.0040134379124357345
Epoch: 10300, Error: 0.003941313881633349
Epoch: 10400, Error: 0.004083572675532024
Epoch: 10500, Error: 0.00364177384708916
Epoch: 10600, Error: 0.0038573097193621932
Epoch: 10700, Error: 0.003468203782361372
Epoch: 10800, Error: 0.0038774482801262667
Epoch: 10900, Error: 0.003484152432709872
Epoch: 11000, Error: 0.0034106596770328255
Epoch: 11100, Error: 0.0037505494616654964
Epoch: 11200, Error: 0.003449464053022559
Epoch: 11300, Error: 0.0036349030383647234
Epoch: 11400, Error: 0.003156543402867733
Epoch: 11500, Error: 0.0029071380393939006
Epoch: 11600, Error: 0.0034598711624903074
Epoch: 11700, Error: 0.0030048882823881205
Epoch: 11800, Error: 0.00352170451143466
Epoch: 11900, Error: 0.0031111793992497348
Epoch: 12000, Error: 0.002507830166509256
Epoch: 12100, Error: 0.0022302621438906765
Epoch: 12200, Error: 0.0026181849485723816
Epoch: 12300, Error: 0.0023082974563696807
Epoch: 12400, Error: 0.0028425209031892173
Epoch: 12500, Error: 0.002751083165506151
Epoch: 12600, Error: 0.002710822392122905
Epoch: 12700, Error: 0.001949527631289675
Epoch: 12800, Error: 0.0024390217286104176
Epoch: 12900, Error: 0.0020149447751365134
Epoch: 13000, Error: 0.0025003688669384093
Epoch: 13100, Error: 0.0016138620699665018
Epoch: 13200, Error: 0.0017557272550499158
Epoch: 13300, Error: 0.0015281640369716465
Epoch: 13400, Error: 0.0018401294751355156
Epoch: 13500, Error: 0.0014332082782077915
Epoch: 13600, Error: 0.00201980940711442
Epoch: 13700, Error: 0.0015120387812321452
Epoch: 13800, Error: 0.0017074075882066967
Epoch: 13900, Error: 0.001661977333315226
Epoch: 14000, Error: 0.0013009327515399528
Epoch: 14100, Error: 0.0013441529401490354
Epoch: 14200, Error: 0.001391455311316378
Epoch: 14300, Error: 0.0012241227604865854
Epoch: 14400, Error: 0.002143515154931935
Epoch: 14500, Error: 0.0014480025069304936
Epoch: 14600, Error: 0.0011598493789055035
Epoch: 14700, Error: 0.00118465501176679
Epoch: 14800, Error: 0.0011757429193952047
Epoch: 14900, Error: 0.001238143576896541
Epoch: 15000, Error: 0.001513648640896564
Epoch: 15100, Error: 0.0011099353062457586
Epoch: 15200, Error: 0.0013272125320890008
Epoch: 15300, Error: 0.0012228203990708815
Epoch: 15400, Error: 0.0012373072912536696
Epoch: 15500, Error: 0.001066055164380115
Epoch: 15600, Error: 0.0010491267337458332
Epoch: 15700, Error: 0.001061155975522292
Epoch: 15800, Error: 0.0010775551358591555
Epoch: 15900, Error: 0.0010069627869893245
Epoch: 16000, Error: 0.0010377582089570112
Epoch: 16100, Error: 0.0010656059193151768
Epoch: 16200, Error: 0.0010061229471404593
Epoch: 16300, Error: 9.85762039806367E-4
Epoch: 16400, Error: 0.0010135651865634538
Epoch: 16500, Error: 9.899556250296986E-4
Epoch: 16600, Error: 0.0010901712402611198
Epoch: 16700, Error: 0.001040524396226283
Epoch: 16800, Error: 0.0010471665026196002
Epoch: 16900, Error: 0.001006358495467375
Epoch: 17000, Error: 0.0010414277369646073
Epoch: 17100, Error: 9.98809488707192E-4
Epoch: 17200, Error: 0.0010274150913974873
Epoch: 17300, Error: 9.520256945397838E-4
Epoch: 17400, Error: 9.81726182107912E-4
Epoch: 17500, Error: 9.431700656648175E-4
Epoch: 17600, Error: 9.601141754153327E-4
Epoch: 17700, Error: 9.873332015840936E-4
Epoch: 17800, Error: 9.362954349457504E-4
Epoch: 17900, Error: 9.819753829457749E-4
Epoch: 18000, Error: 9.28355626362364E-4
Epoch: 18100, Error: 9.451208044963867E-4
Epoch: 18200, Error: 9.398219516927867E-4
Epoch: 18300, Error: 0.0010229342905690097
Epoch: 18400, Error: 9.464328582682918E-4
Epoch: 18500, Error: 9.516208513321042E-4
Epoch: 18600, Error: 9.718795133484177E-4
Epoch: 18700, Error: 9.629788316016965E-4
Epoch: 18800, Error: 9.7501234449066E-4
Epoch: 18900, Error: 0.0010175941362517277
Epoch: 19000, Error: 9.885482142578956E-4
Epoch: 19100, Error: 0.001015348053277146
Epoch: 19200, Error: 0.0010305897907901056
Epoch: 19300, Error: 0.001116827496306965
Epoch: 19400, Error: 0.0010378152167698647
Epoch: 19500, Error: 0.0010368908851860236
Epoch: 19600, Error: 0.0010380792440261295
Epoch: 19700, Error: 0.0010313677841073366
Epoch: 19800, Error: 0.0010370705450955004
Epoch: 19900, Error: 0.0014481873147328516
Epoch: 20000, Error: 0.0010497878337166519
Epoch: 20100, Error: 0.0010459780844815567
Epoch: 20200, Error: 0.0010520755880553676
Epoch: 20300, Error: 0.0010336924023444795
Epoch: 20400, Error: 0.0010245096355685713
Epoch: 20500, Error: 0.001033278529999265
Epoch: 20600, Error: 0.0010208485462531729
Epoch: 20700, Error: 9.966141415219652E-4
Epoch: 20800, Error: 9.905289155410764E-4
Epoch: 20900, Error: 9.721151537875363E-4
Epoch: 21000, Error: 9.366011435902575E-4
Epoch: 21100, Error: 9.109102157610037E-4
Epoch: 21200, Error: 9.095078069817174E-4
Epoch: 21300, Error: 9.02737340671303E-4
Epoch: 21400, Error: 9.010849932080627E-4
Epoch: 21500, Error: 8.918463878804829E-4
Epoch: 21600, Error: 8.978180269853861E-4
Epoch: 21700, Error: 9.16890586577644E-4
Epoch: 21800, Error: 9.012419607011231E-4
Epoch: 21900, Error: 9.138454019624807E-4
Epoch: 22000, Error: 9.268123798683232E-4
Epoch: 22100, Error: 9.074306041054555E-4
Epoch: 22200, Error: 9.054230027428089E-4
Epoch: 22300, Error: 9.07619581173332E-4
Epoch: 22400, Error: 9.337469380636789E-4
Epoch: 22500, Error: 9.308623457241874E-4
Epoch: 22600, Error: 9.106117390618451E-4
Epoch: 22700, Error: 9.241687094497653E-4
Epoch: 22800, Error: 9.239447115506602E-4
Epoch: 22900, Error: 9.350365692197172E-4
Epoch: 23000, Error: 9.231582164442354E-4
Finished
