Input Patterns
0.224 0.624 0.067 0.043 
0.11 0.502 0.051 0.043 
0.196 0.667 0.067 0.043 
0.055 0.584 0.067 0.082 
0.027 0.376 0.067 0.043 
0.306 0.71 0.086 0.043 
0.137 0.416 0.067 0.0 
0.416 0.831 0.035 0.043 
0.306 0.792 0.051 0.125 
0.388 0.749 0.118 0.082 
0.306 0.584 0.118 0.043 
0.082 0.667 0.0 0.043 
0.137 0.584 0.153 0.043 
0.196 0.584 0.102 0.125 
0.251 0.584 0.067 0.043 
0.137 0.459 0.102 0.043 
0.251 0.875 0.086 0.0 
0.165 0.459 0.086 0.043 
0.333 0.624 0.051 0.043 
0.027 0.416 0.051 0.043 
0.196 0.624 0.051 0.082 
0.027 0.502 0.051 0.043 
0.224 0.749 0.153 0.125 
0.224 0.749 0.102 0.043 
0.278 0.71 0.086 0.043 
0.165 0.416 0.067 0.043 
0.082 0.459 0.086 0.043 
0.306 0.792 0.118 0.125 
0.196 0.584 0.086 0.043 
0.165 0.459 0.086 0.0 
0.137 0.584 0.102 0.043 
0.0 0.416 0.016 0.0 
0.388 1.0 0.086 0.125 
0.224 0.624 0.067 0.082 
0.224 0.749 0.086 0.082 
0.224 0.71 0.086 0.125 
0.224 0.541 0.118 0.165 
0.196 0.416 0.102 0.043 
0.251 0.624 0.086 0.043 
0.11 0.502 0.102 0.043 
0.306 0.584 0.086 0.125 
0.333 0.918 0.067 0.043 
0.196 0.502 0.035 0.043 
0.165 0.667 0.067 0.0 
0.224 0.584 0.086 0.043 
0.055 0.125 0.051 0.082 
0.196 0.624 0.102 0.208 
0.137 0.416 0.067 0.082 
0.082 0.502 0.067 0.043 
0.196 0.541 0.067 0.043 
0.749 0.502 0.627 0.541 
0.722 0.459 0.663 0.584 
0.612 0.333 0.612 0.584 
0.557 0.541 0.627 0.624 
0.639 0.376 0.612 0.498 
0.196 0.0 0.424 0.376 
0.471 0.082 0.51 0.376 
0.361 0.376 0.439 0.498 
0.361 0.416 0.592 0.584 
0.529 0.082 0.592 0.584 
0.443 0.502 0.643 0.459 
0.557 0.208 0.663 0.584 
0.584 0.376 0.561 0.498 
0.694 0.333 0.643 0.541 
0.471 0.376 0.592 0.584 
0.333 0.169 0.475 0.416 
0.416 0.29 0.49 0.459 
0.306 0.416 0.592 0.584 
0.667 0.459 0.627 0.584 
0.361 0.416 0.525 0.498 
0.333 0.251 0.576 0.459 
0.416 0.251 0.51 0.459 
0.361 0.29 0.541 0.498 
0.388 0.376 0.541 0.498 
0.224 0.208 0.337 0.416 
0.584 0.502 0.592 0.584 
0.333 0.125 0.51 0.498 
0.388 0.333 0.592 0.498 
0.165 0.169 0.388 0.376 
0.251 0.29 0.49 0.541 
0.443 0.416 0.541 0.584 
0.498 0.376 0.627 0.541 
0.667 0.459 0.576 0.541 
0.416 0.29 0.525 0.376 
0.361 0.208 0.49 0.416 
0.498 0.333 0.51 0.498 
0.498 0.333 0.627 0.459 
0.639 0.416 0.576 0.541 
0.667 0.416 0.678 0.667 
0.388 0.251 0.424 0.376 
0.333 0.169 0.459 0.376 
0.471 0.29 0.694 0.624 
0.471 0.584 0.592 0.624 
0.557 0.125 0.576 0.498 
0.333 0.208 0.51 0.498 
0.498 0.416 0.612 0.541 
0.196 0.125 0.388 0.376 
0.388 0.416 0.541 0.459 
0.529 0.376 0.561 0.498 
0.388 0.333 0.525 0.498 
0.557 0.541 0.847 1.0 
0.776 0.416 0.831 0.831 
0.612 0.416 0.812 0.875 
0.165 0.208 0.592 0.667 
0.667 0.208 0.812 0.71 
0.612 0.502 0.694 0.792 
0.694 0.416 0.761 0.831 
0.416 0.333 0.694 0.957 
0.612 0.416 0.761 0.71 
0.945 0.251 1.0 0.918 
0.722 0.502 0.796 0.918 
0.945 0.333 0.965 0.792 
0.667 0.541 0.796 0.831 
0.529 0.333 0.643 0.71 
0.584 0.333 0.78 0.831 
0.863 0.333 0.863 0.749 
0.584 0.333 0.78 0.875 
0.498 0.251 0.78 0.541 
0.557 0.584 0.78 0.957 
0.471 0.416 0.643 0.71 
0.667 0.459 0.78 0.957 
0.416 0.29 0.694 0.749 
0.667 0.541 0.796 1.0 
0.557 0.208 0.678 0.749 
0.529 0.584 0.745 0.918 
0.416 0.29 0.694 0.749 
0.557 0.376 0.78 0.71 
0.918 0.416 0.949 0.831 
0.835 0.376 0.898 0.71 
0.804 0.667 0.863 1.0 
0.584 0.29 0.729 0.749 
0.388 0.208 0.678 0.792 
0.584 0.502 0.729 0.918 
0.945 0.749 0.965 0.875 
0.471 0.082 0.678 0.584 
0.361 0.333 0.663 0.792 
0.557 0.29 0.663 0.71 
0.804 0.502 0.847 0.71 
0.498 0.416 0.51 0.71 
0.804 0.416 0.812 0.624 
1.0 0.749 0.914 0.792 
0.557 0.333 0.694 0.584 
0.945 0.416 0.863 0.918 
0.584 0.459 0.761 0.71 
0.722 0.459 0.745 0.831 
0.722 0.459 0.694 0.918 
0.694 0.502 0.831 0.918 
0.667 0.416 0.714 0.918 
0.612 0.416 0.714 0.792 
0.443 0.416 0.694 0.71 
Teaching Patterns
1.0 0.0 0.0 
1.0 0.0 0.0 
1.0 0.0 0.0 
1.0 0.0 0.0 
1.0 0.0 0.0 
1.0 0.0 0.0 
1.0 0.0 0.0 
1.0 0.0 0.0 
1.0 0.0 0.0 
1.0 0.0 0.0 
1.0 0.0 0.0 
1.0 0.0 0.0 
1.0 0.0 0.0 
1.0 0.0 0.0 
1.0 0.0 0.0 
1.0 0.0 0.0 
1.0 0.0 0.0 
1.0 0.0 0.0 
1.0 0.0 0.0 
1.0 0.0 0.0 
1.0 0.0 0.0 
1.0 0.0 0.0 
1.0 0.0 0.0 
1.0 0.0 0.0 
1.0 0.0 0.0 
1.0 0.0 0.0 
1.0 0.0 0.0 
1.0 0.0 0.0 
1.0 0.0 0.0 
1.0 0.0 0.0 
1.0 0.0 0.0 
1.0 0.0 0.0 
1.0 0.0 0.0 
1.0 0.0 0.0 
1.0 0.0 0.0 
1.0 0.0 0.0 
1.0 0.0 0.0 
1.0 0.0 0.0 
1.0 0.0 0.0 
1.0 0.0 0.0 
1.0 0.0 0.0 
1.0 0.0 0.0 
1.0 0.0 0.0 
1.0 0.0 0.0 
1.0 0.0 0.0 
1.0 0.0 0.0 
1.0 0.0 0.0 
1.0 0.0 0.0 
1.0 0.0 0.0 
1.0 0.0 0.0 
0.0 1.0 0.0 
0.0 1.0 0.0 
0.0 1.0 0.0 
0.0 1.0 0.0 
0.0 1.0 0.0 
0.0 1.0 0.0 
0.0 1.0 0.0 
0.0 1.0 0.0 
0.0 1.0 0.0 
0.0 1.0 0.0 
0.0 1.0 0.0 
0.0 1.0 0.0 
0.0 1.0 0.0 
0.0 1.0 0.0 
0.0 1.0 0.0 
0.0 1.0 0.0 
0.0 1.0 0.0 
0.0 1.0 0.0 
0.0 1.0 0.0 
0.0 1.0 0.0 
0.0 1.0 0.0 
0.0 1.0 0.0 
0.0 1.0 0.0 
0.0 1.0 0.0 
0.0 1.0 0.0 
0.0 1.0 0.0 
0.0 1.0 0.0 
0.0 1.0 0.0 
0.0 1.0 0.0 
0.0 1.0 0.0 
0.0 1.0 0.0 
0.0 1.0 0.0 
0.0 1.0 0.0 
0.0 1.0 0.0 
0.0 1.0 0.0 
0.0 1.0 0.0 
0.0 1.0 0.0 
0.0 1.0 0.0 
0.0 1.0 0.0 
0.0 1.0 0.0 
0.0 1.0 0.0 
0.0 1.0 0.0 
0.0 1.0 0.0 
0.0 1.0 0.0 
0.0 1.0 0.0 
0.0 1.0 0.0 
0.0 1.0 0.0 
0.0 1.0 0.0 
0.0 1.0 0.0 
0.0 1.0 0.0 
0.0 0.0 1.0 
0.0 0.0 1.0 
0.0 0.0 1.0 
0.0 0.0 1.0 
0.0 0.0 1.0 
0.0 0.0 1.0 
0.0 0.0 1.0 
0.0 0.0 1.0 
0.0 0.0 1.0 
0.0 0.0 1.0 
0.0 0.0 1.0 
0.0 0.0 1.0 
0.0 0.0 1.0 
0.0 0.0 1.0 
0.0 0.0 1.0 
0.0 0.0 1.0 
0.0 0.0 1.0 
0.0 0.0 1.0 
0.0 0.0 1.0 
0.0 0.0 1.0 
0.0 0.0 1.0 
0.0 0.0 1.0 
0.0 0.0 1.0 
0.0 0.0 1.0 
0.0 0.0 1.0 
0.0 0.0 1.0 
0.0 0.0 1.0 
0.0 0.0 1.0 
0.0 0.0 1.0 
0.0 0.0 1.0 
0.0 0.0 1.0 
0.0 0.0 1.0 
0.0 0.0 1.0 
0.0 0.0 1.0 
0.0 0.0 1.0 
0.0 0.0 1.0 
0.0 0.0 1.0 
0.0 0.0 1.0 
0.0 0.0 1.0 
0.0 0.0 1.0 
0.0 0.0 1.0 
0.0 0.0 1.0 
0.0 0.0 1.0 
0.0 0.0 1.0 
0.0 0.0 1.0 
0.0 0.0 1.0 
0.0 0.0 1.0 
0.0 0.0 1.0 
0.0 0.0 1.0 
0.0 0.0 1.0 
Learning : 0.25
Momentum : 0.9
Epoch: 100, Error: 0.015930030585466614
Epoch: 200, Error: 0.012907215070760843
Epoch: 300, Error: 0.012680916030184997
Epoch: 400, Error: 0.012785236821736731
Epoch: 500, Error: 0.012384322283654619
Epoch: 600, Error: 0.012278426695364707
Epoch: 700, Error: 0.012054943653064828
Epoch: 800, Error: 0.012986486855600497
Epoch: 900, Error: 0.014339864456869989
Epoch: 1000, Error: 0.012638197086142205
Epoch: 1100, Error: 0.012820253519923002
Epoch: 1200, Error: 0.011973578779786076
Epoch: 1300, Error: 0.01192536971494829
Epoch: 1400, Error: 0.012359356881237763
Epoch: 1500, Error: 0.01197724895733471
Epoch: 1600, Error: 0.013049099153159936
Epoch: 1700, Error: 0.01203284477813707
Epoch: 1800, Error: 0.012006248218023416
Epoch: 1900, Error: 0.01173760343271357
Epoch: 2000, Error: 0.011812933328906582
Epoch: 2100, Error: 0.011554666403861573
Epoch: 2200, Error: 0.011475930145103657
Epoch: 2300, Error: 0.011319365470068274
Epoch: 2400, Error: 0.01115430103441342
Epoch: 2500, Error: 0.010924761265129373
Epoch: 2600, Error: 0.01086412780465997
Epoch: 2700, Error: 0.010518661490961739
Epoch: 2800, Error: 0.010275312619279152
Epoch: 2900, Error: 0.00989286180629416
Epoch: 3000, Error: 0.009300292807117558
Epoch: 3100, Error: 0.008759445245548388
Epoch: 3200, Error: 0.008260990326367073
Epoch: 3300, Error: 0.0077010688509931615
Epoch: 3400, Error: 0.0071818907967602826
Epoch: 3500, Error: 0.0068518605240661555
Epoch: 3600, Error: 0.0067478323697627495
Epoch: 3700, Error: 0.006304923986432975
Epoch: 3800, Error: 0.006158317845200668
Epoch: 3900, Error: 0.006006674288851763
Epoch: 4000, Error: 0.006328820292013521
Epoch: 4100, Error: 0.005813907340142433
Epoch: 4200, Error: 0.0056635071388006645
Epoch: 4300, Error: 0.0056150625974778585
Epoch: 4400, Error: 0.00560665517855136
Epoch: 4500, Error: 0.0055159444143651724
Epoch: 4600, Error: 0.005486823317605783
Epoch: 4700, Error: 0.005420462118522719
Epoch: 4800, Error: 0.005407083772397752
Epoch: 4900, Error: 0.005444970636121244
Epoch: 5000, Error: 0.0053818468968751185
Epoch: 5100, Error: 0.005465162248699084
Epoch: 5200, Error: 0.005328691418109083
Epoch: 5300, Error: 0.005345915053049623
Epoch: 5400, Error: 0.005368342458189657
Epoch: 5500, Error: 0.005288411401277195
Epoch: 5600, Error: 0.005260602310707196
Epoch: 5700, Error: 0.0052609468050138445
Epoch: 5800, Error: 0.00522071384300756
Epoch: 5900, Error: 0.005203208112968573
Epoch: 6000, Error: 0.005438408411816092
Epoch: 6100, Error: 0.005239715485361311
Epoch: 6200, Error: 0.005135195986271939
Epoch: 6300, Error: 0.005128364319827265
Epoch: 6400, Error: 0.00509391923552752
Epoch: 6500, Error: 0.00509421888046618
Epoch: 6600, Error: 0.005057122523656481
Epoch: 6700, Error: 0.0050367248506500446
Epoch: 6800, Error: 0.005009450785235196
Epoch: 6900, Error: 0.005079343216441868
Epoch: 7000, Error: 0.005002122300925053
Epoch: 7100, Error: 0.0047809890489535455
Epoch: 7200, Error: 0.004756843406443339
Epoch: 7300, Error: 0.004873800416957658
Epoch: 7400, Error: 0.00473698551082104
Epoch: 7500, Error: 0.004554892207029356
Epoch: 7600, Error: 0.004688687810692205
Epoch: 7700, Error: 0.004540069401819993
Epoch: 7800, Error: 0.004403099538649353
Epoch: 7900, Error: 0.004404107060449765
Epoch: 8000, Error: 0.004174896141318238
Epoch: 8100, Error: 0.004110749190606174
Epoch: 8200, Error: 0.004226001962651089
Epoch: 8300, Error: 0.0038830580099479778
Epoch: 8400, Error: 0.003967855168677482
Epoch: 8500, Error: 0.003848767780595899
Epoch: 8600, Error: 0.00537960527392138
Epoch: 8700, Error: 0.003516194881138704
Epoch: 8800, Error: 0.0054232801797112744
Epoch: 8900, Error: 0.0037454119594414756
Epoch: 9000, Error: 0.0034193447667309174
Epoch: 9100, Error: 0.003972178276064341
Epoch: 9200, Error: 0.0034601138353030528
Epoch: 9300, Error: 0.005281047707059307
Epoch: 9400, Error: 0.0037658138867495646
Epoch: 9500, Error: 0.003178714293831392
Epoch: 9600, Error: 0.0027454731618017716
Epoch: 9700, Error: 0.008421796323981413
Epoch: 9800, Error: 0.0025343707722435883
Epoch: 9900, Error: 0.0024294376667696855
Epoch: 10000, Error: 0.0033587767526355606
Epoch: 10100, Error: 0.0022415468915397015
Epoch: 10200, Error: 0.0028164339953533294
Epoch: 10300, Error: 0.0039187288958229234
Epoch: 10400, Error: 0.0020185060816775824
Epoch: 10500, Error: 0.002244235629756978
Epoch: 10600, Error: 0.0036764438130034486
Epoch: 10700, Error: 0.0018716073122603402
Epoch: 10800, Error: 0.002780734790290964
Epoch: 10900, Error: 0.001882795862974526
Epoch: 11000, Error: 0.002499480515560276
Epoch: 11100, Error: 0.00379330002649281
Epoch: 11200, Error: 0.0023738207461067424
Epoch: 11300, Error: 0.003731973157976017
Epoch: 11400, Error: 0.001716948820854746
Epoch: 11500, Error: 0.0021589415734994976
Epoch: 11600, Error: 0.0014616130523979357
Epoch: 11700, Error: 0.0016453833897075157
Epoch: 11800, Error: 0.002287823528771446
Epoch: 11900, Error: 0.002245064577053643
Epoch: 12000, Error: 0.0014273785490954147
Epoch: 12100, Error: 0.0015181598739865412
Epoch: 12200, Error: 0.0013085105544046625
Epoch: 12300, Error: 0.001457936579138795
Epoch: 12400, Error: 0.001319859407981976
Epoch: 12500, Error: 0.0013955891793803316
Epoch: 12600, Error: 0.0016191794079593888
Epoch: 12700, Error: 0.0012094725017781438
Epoch: 12800, Error: 0.001193260097146637
Epoch: 12900, Error: 0.0013105505103148197
Epoch: 13000, Error: 0.0011786454205311347
Epoch: 13100, Error: 0.0013454822048656583
Epoch: 13200, Error: 0.0012422013167874355
Epoch: 13300, Error: 0.0011032136385190562
Epoch: 13400, Error: 0.0012068586982113896
Epoch: 13500, Error: 0.0014116695606595075
Epoch: 13600, Error: 0.0011286622614786839
Epoch: 13700, Error: 0.0013100953671710202
Epoch: 13800, Error: 0.0010652982785084885
Epoch: 13900, Error: 0.001148296366726141
Epoch: 14000, Error: 0.0011489147067752462
Epoch: 14100, Error: 0.0010665941307714864
Epoch: 14200, Error: 0.0010441789442244649
Epoch: 14300, Error: 0.0010305583279983429
Epoch: 14400, Error: 0.0010485257213147584
Epoch: 14500, Error: 0.0011131051574153866
Epoch: 14600, Error: 0.0010111751467786097
Epoch: 14700, Error: 0.001103967748166256
Epoch: 14800, Error: 0.0010523392365385863
Epoch: 14900, Error: 0.001145062996503539
Epoch: 15000, Error: 0.001006742547971281
Epoch: 15100, Error: 9.812111340701743E-4
Epoch: 15200, Error: 0.0010484603145613398
Epoch: 15300, Error: 0.0010522281857453881
Epoch: 15400, Error: 0.0010072648705883342
Epoch: 15500, Error: 0.0010413408564782423
Epoch: 15600, Error: 9.989484826937462E-4
Epoch: 15700, Error: 9.81467706107797E-4
Epoch: 15800, Error: 9.737265339416385E-4
Epoch: 15900, Error: 0.0010240836018531152
Epoch: 16000, Error: 9.993811799581195E-4
Epoch: 16100, Error: 9.951489389860401E-4
Epoch: 16200, Error: 0.0010247146263107866
Epoch: 16300, Error: 9.960386316763077E-4
Epoch: 16400, Error: 0.0010008746651948273
Epoch: 16500, Error: 0.0010370768258082138
Epoch: 16600, Error: 0.0010154792637092622
Epoch: 16700, Error: 0.0010330973547274087
Epoch: 16800, Error: 0.0010113918042699802
Epoch: 16900, Error: 0.0010215378122607787
Epoch: 17000, Error: 0.0010696553496012662
Epoch: 17100, Error: 0.0010028360056528237
Epoch: 17200, Error: 0.0010124637965240393
Epoch: 17300, Error: 0.0010037721241310047
Epoch: 17400, Error: 0.0010211502784218502
Epoch: 17500, Error: 0.0010048461516481671
Epoch: 17600, Error: 9.967983709801775E-4
Epoch: 17700, Error: 9.81688051807943E-4
Epoch: 17800, Error: 9.659087964172596E-4
Epoch: 17900, Error: 9.428188933737716E-4
Epoch: 18000, Error: 9.444891356623964E-4
Epoch: 18100, Error: 9.37354722958122E-4
Epoch: 18200, Error: 9.823118796796566E-4
Epoch: 18300, Error: 9.19216715424211E-4
Epoch: 18400, Error: 8.989598232186869E-4
Epoch: 18500, Error: 8.998420666121988E-4
Epoch: 18600, Error: 9.256682797524448E-4
Epoch: 18700, Error: 9.374776056571128E-4
Epoch: 18800, Error: 9.131804668762076E-4
Epoch: 18900, Error: 9.345482270561166E-4
Epoch: 19000, Error: 9.097152812447038E-4
Epoch: 19100, Error: 9.192016966228043E-4
Epoch: 19200, Error: 9.146700945527145E-4
Epoch: 19300, Error: 9.368116610180605E-4
Epoch: 19400, Error: 9.215145142358009E-4
Epoch: 19500, Error: 9.337938655741642E-4
Epoch: 19600, Error: 9.619046338211203E-4
Epoch: 19700, Error: 9.339042228478687E-4
Epoch: 19800, Error: 9.348440160700318E-4
Epoch: 19900, Error: 9.338339631060687E-4
Epoch: 20000, Error: 9.498482801112778E-4
Epoch: 20100, Error: 9.35625058930831E-4
Epoch: 20200, Error: 9.653314367548622E-4
Epoch: 20300, Error: 9.494227075406893E-4
Epoch: 20400, Error: 9.456788636235435E-4
Epoch: 20500, Error: 9.455765755848979E-4
Epoch: 20600, Error: 9.547176007206776E-4
Epoch: 20700, Error: 9.672585461131617E-4
Epoch: 20800, Error: 9.538604288693576E-4
Epoch: 20900, Error: 9.681736730261393E-4
Epoch: 21000, Error: 9.485089381806224E-4
Epoch: 21100, Error: 9.452490879661465E-4
Epoch: 21200, Error: 9.539734079245431E-4
Epoch: 21300, Error: 0.0010182219694383802
Epoch: 21400, Error: 9.480238688459311E-4
Epoch: 21500, Error: 9.573900729642543E-4
Epoch: 21600, Error: 9.450462714704943E-4
Epoch: 21700, Error: 9.537230917652532E-4
Epoch: 21800, Error: 9.48553071708861E-4
Epoch: 21900, Error: 9.460895750739367E-4
Epoch: 22000, Error: 9.408501280754242E-4
Epoch: 22100, Error: 9.567368489557935E-4
Epoch: 22200, Error: 9.421104161579578E-4
Epoch: 22300, Error: 9.491539700180555E-4
Epoch: 22400, Error: 9.59383875786514E-4
Epoch: 22500, Error: 9.87684278243071E-4
Epoch: 22600, Error: 9.515416815073865E-4
Epoch: 22700, Error: 9.495690245948041E-4
Epoch: 22800, Error: 9.421373804561715E-4
Epoch: 22900, Error: 9.505558617055277E-4
Epoch: 23000, Error: 9.49862901233665E-4
Epoch: 23100, Error: 9.585612632517283E-4
Finished
