Input Patterns
0.224 0.624 0.067 0.043 
0.11 0.502 0.051 0.043 
0.196 0.667 0.067 0.043 
0.055 0.584 0.067 0.082 
0.027 0.376 0.067 0.043 
0.306 0.71 0.086 0.043 
0.137 0.416 0.067 0.0 
0.416 0.831 0.035 0.043 
0.306 0.792 0.051 0.125 
0.388 0.749 0.118 0.082 
0.306 0.584 0.118 0.043 
0.082 0.667 0.0 0.043 
0.137 0.584 0.153 0.043 
0.196 0.584 0.102 0.125 
0.251 0.584 0.067 0.043 
0.137 0.459 0.102 0.043 
0.251 0.875 0.086 0.0 
0.165 0.459 0.086 0.043 
0.333 0.624 0.051 0.043 
0.027 0.416 0.051 0.043 
0.196 0.624 0.051 0.082 
0.027 0.502 0.051 0.043 
0.224 0.749 0.153 0.125 
0.224 0.749 0.102 0.043 
0.278 0.71 0.086 0.043 
0.165 0.416 0.067 0.043 
0.082 0.459 0.086 0.043 
0.306 0.792 0.118 0.125 
0.196 0.584 0.086 0.043 
0.165 0.459 0.086 0.0 
0.137 0.584 0.102 0.043 
0.0 0.416 0.016 0.0 
0.388 1.0 0.086 0.125 
0.224 0.624 0.067 0.082 
0.224 0.749 0.086 0.082 
0.224 0.71 0.086 0.125 
0.224 0.541 0.118 0.165 
0.196 0.416 0.102 0.043 
0.251 0.624 0.086 0.043 
0.11 0.502 0.102 0.043 
0.306 0.584 0.086 0.125 
0.333 0.918 0.067 0.043 
0.196 0.502 0.035 0.043 
0.165 0.667 0.067 0.0 
0.224 0.584 0.086 0.043 
0.055 0.125 0.051 0.082 
0.196 0.624 0.102 0.208 
0.137 0.416 0.067 0.082 
0.082 0.502 0.067 0.043 
0.196 0.541 0.067 0.043 
0.749 0.502 0.627 0.541 
0.722 0.459 0.663 0.584 
0.612 0.333 0.612 0.584 
0.557 0.541 0.627 0.624 
0.639 0.376 0.612 0.498 
0.196 0.0 0.424 0.376 
0.471 0.082 0.51 0.376 
0.361 0.376 0.439 0.498 
0.361 0.416 0.592 0.584 
0.529 0.082 0.592 0.584 
0.443 0.502 0.643 0.459 
0.557 0.208 0.663 0.584 
0.584 0.376 0.561 0.498 
0.694 0.333 0.643 0.541 
0.471 0.376 0.592 0.584 
0.333 0.169 0.475 0.416 
0.416 0.29 0.49 0.459 
0.306 0.416 0.592 0.584 
0.667 0.459 0.627 0.584 
0.361 0.416 0.525 0.498 
0.333 0.251 0.576 0.459 
0.416 0.251 0.51 0.459 
0.361 0.29 0.541 0.498 
0.388 0.376 0.541 0.498 
0.224 0.208 0.337 0.416 
0.584 0.502 0.592 0.584 
0.333 0.125 0.51 0.498 
0.388 0.333 0.592 0.498 
0.165 0.169 0.388 0.376 
0.251 0.29 0.49 0.541 
0.443 0.416 0.541 0.584 
0.498 0.376 0.627 0.541 
0.667 0.459 0.576 0.541 
0.416 0.29 0.525 0.376 
0.361 0.208 0.49 0.416 
0.498 0.333 0.51 0.498 
0.498 0.333 0.627 0.459 
0.639 0.416 0.576 0.541 
0.667 0.416 0.678 0.667 
0.388 0.251 0.424 0.376 
0.333 0.169 0.459 0.376 
0.471 0.29 0.694 0.624 
0.471 0.584 0.592 0.624 
0.557 0.125 0.576 0.498 
0.333 0.208 0.51 0.498 
0.498 0.416 0.612 0.541 
0.196 0.125 0.388 0.376 
0.388 0.416 0.541 0.459 
0.529 0.376 0.561 0.498 
0.388 0.333 0.525 0.498 
0.557 0.541 0.847 1.0 
0.776 0.416 0.831 0.831 
0.612 0.416 0.812 0.875 
0.165 0.208 0.592 0.667 
0.667 0.208 0.812 0.71 
0.612 0.502 0.694 0.792 
0.694 0.416 0.761 0.831 
0.416 0.333 0.694 0.957 
0.612 0.416 0.761 0.71 
0.945 0.251 1.0 0.918 
0.722 0.502 0.796 0.918 
0.945 0.333 0.965 0.792 
0.667 0.541 0.796 0.831 
0.529 0.333 0.643 0.71 
0.584 0.333 0.78 0.831 
0.863 0.333 0.863 0.749 
0.584 0.333 0.78 0.875 
0.498 0.251 0.78 0.541 
0.557 0.584 0.78 0.957 
0.471 0.416 0.643 0.71 
0.667 0.459 0.78 0.957 
0.416 0.29 0.694 0.749 
0.667 0.541 0.796 1.0 
0.557 0.208 0.678 0.749 
0.529 0.584 0.745 0.918 
0.416 0.29 0.694 0.749 
0.557 0.376 0.78 0.71 
0.918 0.416 0.949 0.831 
0.835 0.376 0.898 0.71 
0.804 0.667 0.863 1.0 
0.584 0.29 0.729 0.749 
0.388 0.208 0.678 0.792 
0.584 0.502 0.729 0.918 
0.945 0.749 0.965 0.875 
0.471 0.082 0.678 0.584 
0.361 0.333 0.663 0.792 
0.557 0.29 0.663 0.71 
0.804 0.502 0.847 0.71 
0.498 0.416 0.51 0.71 
0.804 0.416 0.812 0.624 
1.0 0.749 0.914 0.792 
0.557 0.333 0.694 0.584 
0.945 0.416 0.863 0.918 
0.584 0.459 0.761 0.71 
0.722 0.459 0.745 0.831 
0.722 0.459 0.694 0.918 
0.694 0.502 0.831 0.918 
0.667 0.416 0.714 0.918 
0.612 0.416 0.714 0.792 
0.443 0.416 0.694 0.71 
Teaching Patterns
1.0 0.0 0.0 
1.0 0.0 0.0 
1.0 0.0 0.0 
1.0 0.0 0.0 
1.0 0.0 0.0 
1.0 0.0 0.0 
1.0 0.0 0.0 
1.0 0.0 0.0 
1.0 0.0 0.0 
1.0 0.0 0.0 
1.0 0.0 0.0 
1.0 0.0 0.0 
1.0 0.0 0.0 
1.0 0.0 0.0 
1.0 0.0 0.0 
1.0 0.0 0.0 
1.0 0.0 0.0 
1.0 0.0 0.0 
1.0 0.0 0.0 
1.0 0.0 0.0 
1.0 0.0 0.0 
1.0 0.0 0.0 
1.0 0.0 0.0 
1.0 0.0 0.0 
1.0 0.0 0.0 
1.0 0.0 0.0 
1.0 0.0 0.0 
1.0 0.0 0.0 
1.0 0.0 0.0 
1.0 0.0 0.0 
1.0 0.0 0.0 
1.0 0.0 0.0 
1.0 0.0 0.0 
1.0 0.0 0.0 
1.0 0.0 0.0 
1.0 0.0 0.0 
1.0 0.0 0.0 
1.0 0.0 0.0 
1.0 0.0 0.0 
1.0 0.0 0.0 
1.0 0.0 0.0 
1.0 0.0 0.0 
1.0 0.0 0.0 
1.0 0.0 0.0 
1.0 0.0 0.0 
1.0 0.0 0.0 
1.0 0.0 0.0 
1.0 0.0 0.0 
1.0 0.0 0.0 
1.0 0.0 0.0 
0.0 1.0 0.0 
0.0 1.0 0.0 
0.0 1.0 0.0 
0.0 1.0 0.0 
0.0 1.0 0.0 
0.0 1.0 0.0 
0.0 1.0 0.0 
0.0 1.0 0.0 
0.0 1.0 0.0 
0.0 1.0 0.0 
0.0 1.0 0.0 
0.0 1.0 0.0 
0.0 1.0 0.0 
0.0 1.0 0.0 
0.0 1.0 0.0 
0.0 1.0 0.0 
0.0 1.0 0.0 
0.0 1.0 0.0 
0.0 1.0 0.0 
0.0 1.0 0.0 
0.0 1.0 0.0 
0.0 1.0 0.0 
0.0 1.0 0.0 
0.0 1.0 0.0 
0.0 1.0 0.0 
0.0 1.0 0.0 
0.0 1.0 0.0 
0.0 1.0 0.0 
0.0 1.0 0.0 
0.0 1.0 0.0 
0.0 1.0 0.0 
0.0 1.0 0.0 
0.0 1.0 0.0 
0.0 1.0 0.0 
0.0 1.0 0.0 
0.0 1.0 0.0 
0.0 1.0 0.0 
0.0 1.0 0.0 
0.0 1.0 0.0 
0.0 1.0 0.0 
0.0 1.0 0.0 
0.0 1.0 0.0 
0.0 1.0 0.0 
0.0 1.0 0.0 
0.0 1.0 0.0 
0.0 1.0 0.0 
0.0 1.0 0.0 
0.0 1.0 0.0 
0.0 1.0 0.0 
0.0 1.0 0.0 
0.0 0.0 1.0 
0.0 0.0 1.0 
0.0 0.0 1.0 
0.0 0.0 1.0 
0.0 0.0 1.0 
0.0 0.0 1.0 
0.0 0.0 1.0 
0.0 0.0 1.0 
0.0 0.0 1.0 
0.0 0.0 1.0 
0.0 0.0 1.0 
0.0 0.0 1.0 
0.0 0.0 1.0 
0.0 0.0 1.0 
0.0 0.0 1.0 
0.0 0.0 1.0 
0.0 0.0 1.0 
0.0 0.0 1.0 
0.0 0.0 1.0 
0.0 0.0 1.0 
0.0 0.0 1.0 
0.0 0.0 1.0 
0.0 0.0 1.0 
0.0 0.0 1.0 
0.0 0.0 1.0 
0.0 0.0 1.0 
0.0 0.0 1.0 
0.0 0.0 1.0 
0.0 0.0 1.0 
0.0 0.0 1.0 
0.0 0.0 1.0 
0.0 0.0 1.0 
0.0 0.0 1.0 
0.0 0.0 1.0 
0.0 0.0 1.0 
0.0 0.0 1.0 
0.0 0.0 1.0 
0.0 0.0 1.0 
0.0 0.0 1.0 
0.0 0.0 1.0 
0.0 0.0 1.0 
0.0 0.0 1.0 
0.0 0.0 1.0 
0.0 0.0 1.0 
0.0 0.0 1.0 
0.0 0.0 1.0 
0.0 0.0 1.0 
0.0 0.0 1.0 
0.0 0.0 1.0 
0.0 0.0 1.0 
Learning : 0.25
Momentum : 0.9
Epoch: 100, Error: 0.013981606405685318
Epoch: 200, Error: 0.014064272085877193
Epoch: 300, Error: 0.013267520251865316
Epoch: 400, Error: 0.012187045580636557
Epoch: 500, Error: 0.012057889205815988
Epoch: 600, Error: 0.011895185944318007
Epoch: 700, Error: 0.01239737043149083
Epoch: 800, Error: 0.011987183424367892
Epoch: 900, Error: 0.01224824341053573
Epoch: 1000, Error: 0.012113641856180286
Epoch: 1100, Error: 0.012763044658448377
Epoch: 1200, Error: 0.012076055471969735
Epoch: 1300, Error: 0.012717218802686512
Epoch: 1400, Error: 0.011953896116418172
Epoch: 1500, Error: 0.012498942177904782
Epoch: 1600, Error: 0.012804316773005637
Epoch: 1700, Error: 0.01208754648548553
Epoch: 1800, Error: 0.011909926540698954
Epoch: 1900, Error: 0.01256345051297218
Epoch: 2000, Error: 0.012076089276062746
Epoch: 2100, Error: 0.01204532674114937
Epoch: 2200, Error: 0.011875190007337376
Epoch: 2300, Error: 0.011967541925786671
Epoch: 2400, Error: 0.011840792788135346
Epoch: 2500, Error: 0.01273411136016757
Epoch: 2600, Error: 0.011871728379154354
Epoch: 2700, Error: 0.011780554819176975
Epoch: 2800, Error: 0.0116796555056585
Epoch: 2900, Error: 0.01171480662884503
Epoch: 3000, Error: 0.01158246839383561
Epoch: 3100, Error: 0.011649663855638348
Epoch: 3200, Error: 0.011515168207634449
Epoch: 3300, Error: 0.01165427413513009
Epoch: 3400, Error: 0.012007723057959916
Epoch: 3500, Error: 0.011279335611983382
Epoch: 3600, Error: 0.01086558701372126
Epoch: 3700, Error: 0.01068385630875032
Epoch: 3800, Error: 0.009944238481071755
Epoch: 3900, Error: 0.00932696572653898
Epoch: 4000, Error: 0.008750596595781413
Epoch: 4100, Error: 0.008384418215264918
Epoch: 4200, Error: 0.007748184136834313
Epoch: 4300, Error: 0.00745974058641129
Epoch: 4400, Error: 0.007304634088768425
Epoch: 4500, Error: 0.007262257326641217
Epoch: 4600, Error: 0.0068016318636141306
Epoch: 4700, Error: 0.0068134647427414655
Epoch: 4800, Error: 0.006455557917009078
Epoch: 4900, Error: 0.0062747600866942055
Epoch: 5000, Error: 0.006169684869563233
Epoch: 5100, Error: 0.0061173879257961725
Epoch: 5200, Error: 0.005903905012786455
Epoch: 5300, Error: 0.007398346076734626
Epoch: 5400, Error: 0.005695243667810821
Epoch: 5500, Error: 0.005866286449541565
Epoch: 5600, Error: 0.005650666015718872
Epoch: 5700, Error: 0.0055198530349144835
Epoch: 5800, Error: 0.005465171885137501
Epoch: 5900, Error: 0.005441590949223729
Epoch: 6000, Error: 0.005399003254685719
Epoch: 6100, Error: 0.005373024443725071
Epoch: 6200, Error: 0.005349440769657022
Epoch: 6300, Error: 0.005334550888575469
Epoch: 6400, Error: 0.0053617414491257355
Epoch: 6500, Error: 0.005307959567790334
Epoch: 6600, Error: 0.005262650755505119
Epoch: 6700, Error: 0.005276239434436728
Epoch: 6800, Error: 0.005252496702950789
Epoch: 6900, Error: 0.005334406770379655
Epoch: 7000, Error: 0.0052625083026768375
Epoch: 7100, Error: 0.005239980031349177
Epoch: 7200, Error: 0.005208746755820578
Epoch: 7300, Error: 0.005229361201127452
Epoch: 7400, Error: 0.005191876690101803
Epoch: 7500, Error: 0.005201492443613261
Epoch: 7600, Error: 0.0052047181128879174
Epoch: 7700, Error: 0.005167451493687588
Epoch: 7800, Error: 0.005166930567353552
Epoch: 7900, Error: 0.005155109459434968
Epoch: 8000, Error: 0.005173466805583097
Epoch: 8100, Error: 0.005151588225771318
Epoch: 8200, Error: 0.005130658054629314
Epoch: 8300, Error: 0.005141914641118174
Epoch: 8400, Error: 0.005136647107976748
Epoch: 8500, Error: 0.0051077716990179005
Epoch: 8600, Error: 0.00511327273959525
Epoch: 8700, Error: 0.005108306446590398
Epoch: 8800, Error: 0.0051224539985340115
Epoch: 8900, Error: 0.005104274386325315
Epoch: 9000, Error: 0.005105571022095084
Epoch: 9100, Error: 0.005088265463150248
Epoch: 9200, Error: 0.005077288917670028
Finished
