Input Patterns
0.224 0.624 0.067 0.043 
0.11 0.502 0.051 0.043 
0.196 0.667 0.067 0.043 
0.055 0.584 0.067 0.082 
0.027 0.376 0.067 0.043 
0.306 0.71 0.086 0.043 
0.137 0.416 0.067 0.0 
0.416 0.831 0.035 0.043 
0.306 0.792 0.051 0.125 
0.388 0.749 0.118 0.082 
0.306 0.584 0.118 0.043 
0.082 0.667 0.0 0.043 
0.137 0.584 0.153 0.043 
0.196 0.584 0.102 0.125 
0.251 0.584 0.067 0.043 
0.137 0.459 0.102 0.043 
0.251 0.875 0.086 0.0 
0.165 0.459 0.086 0.043 
0.333 0.624 0.051 0.043 
0.027 0.416 0.051 0.043 
0.196 0.624 0.051 0.082 
0.027 0.502 0.051 0.043 
0.224 0.749 0.153 0.125 
0.224 0.749 0.102 0.043 
0.278 0.71 0.086 0.043 
0.165 0.416 0.067 0.043 
0.082 0.459 0.086 0.043 
0.306 0.792 0.118 0.125 
0.196 0.584 0.086 0.043 
0.165 0.459 0.086 0.0 
0.137 0.584 0.102 0.043 
0.0 0.416 0.016 0.0 
0.388 1.0 0.086 0.125 
0.224 0.624 0.067 0.082 
0.224 0.749 0.086 0.082 
0.224 0.71 0.086 0.125 
0.224 0.541 0.118 0.165 
0.196 0.416 0.102 0.043 
0.251 0.624 0.086 0.043 
0.11 0.502 0.102 0.043 
0.306 0.584 0.086 0.125 
0.333 0.918 0.067 0.043 
0.196 0.502 0.035 0.043 
0.165 0.667 0.067 0.0 
0.224 0.584 0.086 0.043 
0.055 0.125 0.051 0.082 
0.196 0.624 0.102 0.208 
0.137 0.416 0.067 0.082 
0.082 0.502 0.067 0.043 
0.196 0.541 0.067 0.043 
0.749 0.502 0.627 0.541 
0.722 0.459 0.663 0.584 
0.612 0.333 0.612 0.584 
0.557 0.541 0.627 0.624 
0.639 0.376 0.612 0.498 
0.196 0.0 0.424 0.376 
0.471 0.082 0.51 0.376 
0.361 0.376 0.439 0.498 
0.361 0.416 0.592 0.584 
0.529 0.082 0.592 0.584 
0.443 0.502 0.643 0.459 
0.557 0.208 0.663 0.584 
0.584 0.376 0.561 0.498 
0.694 0.333 0.643 0.541 
0.471 0.376 0.592 0.584 
0.333 0.169 0.475 0.416 
0.416 0.29 0.49 0.459 
0.306 0.416 0.592 0.584 
0.667 0.459 0.627 0.584 
0.361 0.416 0.525 0.498 
0.333 0.251 0.576 0.459 
0.416 0.251 0.51 0.459 
0.361 0.29 0.541 0.498 
0.388 0.376 0.541 0.498 
0.224 0.208 0.337 0.416 
0.584 0.502 0.592 0.584 
0.333 0.125 0.51 0.498 
0.388 0.333 0.592 0.498 
0.165 0.169 0.388 0.376 
0.251 0.29 0.49 0.541 
0.443 0.416 0.541 0.584 
0.498 0.376 0.627 0.541 
0.667 0.459 0.576 0.541 
0.416 0.29 0.525 0.376 
0.361 0.208 0.49 0.416 
0.498 0.333 0.51 0.498 
0.498 0.333 0.627 0.459 
0.639 0.416 0.576 0.541 
0.667 0.416 0.678 0.667 
0.388 0.251 0.424 0.376 
0.333 0.169 0.459 0.376 
0.471 0.29 0.694 0.624 
0.471 0.584 0.592 0.624 
0.557 0.125 0.576 0.498 
0.333 0.208 0.51 0.498 
0.498 0.416 0.612 0.541 
0.196 0.125 0.388 0.376 
0.388 0.416 0.541 0.459 
0.529 0.376 0.561 0.498 
0.388 0.333 0.525 0.498 
0.557 0.541 0.847 1.0 
0.776 0.416 0.831 0.831 
0.612 0.416 0.812 0.875 
0.165 0.208 0.592 0.667 
0.667 0.208 0.812 0.71 
0.612 0.502 0.694 0.792 
0.694 0.416 0.761 0.831 
0.416 0.333 0.694 0.957 
0.612 0.416 0.761 0.71 
0.945 0.251 1.0 0.918 
0.722 0.502 0.796 0.918 
0.945 0.333 0.965 0.792 
0.667 0.541 0.796 0.831 
0.529 0.333 0.643 0.71 
0.584 0.333 0.78 0.831 
0.863 0.333 0.863 0.749 
0.584 0.333 0.78 0.875 
0.498 0.251 0.78 0.541 
0.557 0.584 0.78 0.957 
0.471 0.416 0.643 0.71 
0.667 0.459 0.78 0.957 
0.416 0.29 0.694 0.749 
0.667 0.541 0.796 1.0 
0.557 0.208 0.678 0.749 
0.529 0.584 0.745 0.918 
0.416 0.29 0.694 0.749 
0.557 0.376 0.78 0.71 
0.918 0.416 0.949 0.831 
0.835 0.376 0.898 0.71 
0.804 0.667 0.863 1.0 
0.584 0.29 0.729 0.749 
0.388 0.208 0.678 0.792 
0.584 0.502 0.729 0.918 
0.945 0.749 0.965 0.875 
0.471 0.082 0.678 0.584 
0.361 0.333 0.663 0.792 
0.557 0.29 0.663 0.71 
0.804 0.502 0.847 0.71 
0.498 0.416 0.51 0.71 
0.804 0.416 0.812 0.624 
1.0 0.749 0.914 0.792 
0.557 0.333 0.694 0.584 
0.945 0.416 0.863 0.918 
0.584 0.459 0.761 0.71 
0.722 0.459 0.745 0.831 
0.722 0.459 0.694 0.918 
0.694 0.502 0.831 0.918 
0.667 0.416 0.714 0.918 
0.612 0.416 0.714 0.792 
0.443 0.416 0.694 0.71 
Teaching Patterns
1.0 0.0 0.0 
1.0 0.0 0.0 
1.0 0.0 0.0 
1.0 0.0 0.0 
1.0 0.0 0.0 
1.0 0.0 0.0 
1.0 0.0 0.0 
1.0 0.0 0.0 
1.0 0.0 0.0 
1.0 0.0 0.0 
1.0 0.0 0.0 
1.0 0.0 0.0 
1.0 0.0 0.0 
1.0 0.0 0.0 
1.0 0.0 0.0 
1.0 0.0 0.0 
1.0 0.0 0.0 
1.0 0.0 0.0 
1.0 0.0 0.0 
1.0 0.0 0.0 
1.0 0.0 0.0 
1.0 0.0 0.0 
1.0 0.0 0.0 
1.0 0.0 0.0 
1.0 0.0 0.0 
1.0 0.0 0.0 
1.0 0.0 0.0 
1.0 0.0 0.0 
1.0 0.0 0.0 
1.0 0.0 0.0 
1.0 0.0 0.0 
1.0 0.0 0.0 
1.0 0.0 0.0 
1.0 0.0 0.0 
1.0 0.0 0.0 
1.0 0.0 0.0 
1.0 0.0 0.0 
1.0 0.0 0.0 
1.0 0.0 0.0 
1.0 0.0 0.0 
1.0 0.0 0.0 
1.0 0.0 0.0 
1.0 0.0 0.0 
1.0 0.0 0.0 
1.0 0.0 0.0 
1.0 0.0 0.0 
1.0 0.0 0.0 
1.0 0.0 0.0 
1.0 0.0 0.0 
1.0 0.0 0.0 
0.0 1.0 0.0 
0.0 1.0 0.0 
0.0 1.0 0.0 
0.0 1.0 0.0 
0.0 1.0 0.0 
0.0 1.0 0.0 
0.0 1.0 0.0 
0.0 1.0 0.0 
0.0 1.0 0.0 
0.0 1.0 0.0 
0.0 1.0 0.0 
0.0 1.0 0.0 
0.0 1.0 0.0 
0.0 1.0 0.0 
0.0 1.0 0.0 
0.0 1.0 0.0 
0.0 1.0 0.0 
0.0 1.0 0.0 
0.0 1.0 0.0 
0.0 1.0 0.0 
0.0 1.0 0.0 
0.0 1.0 0.0 
0.0 1.0 0.0 
0.0 1.0 0.0 
0.0 1.0 0.0 
0.0 1.0 0.0 
0.0 1.0 0.0 
0.0 1.0 0.0 
0.0 1.0 0.0 
0.0 1.0 0.0 
0.0 1.0 0.0 
0.0 1.0 0.0 
0.0 1.0 0.0 
0.0 1.0 0.0 
0.0 1.0 0.0 
0.0 1.0 0.0 
0.0 1.0 0.0 
0.0 1.0 0.0 
0.0 1.0 0.0 
0.0 1.0 0.0 
0.0 1.0 0.0 
0.0 1.0 0.0 
0.0 1.0 0.0 
0.0 1.0 0.0 
0.0 1.0 0.0 
0.0 1.0 0.0 
0.0 1.0 0.0 
0.0 1.0 0.0 
0.0 1.0 0.0 
0.0 1.0 0.0 
0.0 0.0 1.0 
0.0 0.0 1.0 
0.0 0.0 1.0 
0.0 0.0 1.0 
0.0 0.0 1.0 
0.0 0.0 1.0 
0.0 0.0 1.0 
0.0 0.0 1.0 
0.0 0.0 1.0 
0.0 0.0 1.0 
0.0 0.0 1.0 
0.0 0.0 1.0 
0.0 0.0 1.0 
0.0 0.0 1.0 
0.0 0.0 1.0 
0.0 0.0 1.0 
0.0 0.0 1.0 
0.0 0.0 1.0 
0.0 0.0 1.0 
0.0 0.0 1.0 
0.0 0.0 1.0 
0.0 0.0 1.0 
0.0 0.0 1.0 
0.0 0.0 1.0 
0.0 0.0 1.0 
0.0 0.0 1.0 
0.0 0.0 1.0 
0.0 0.0 1.0 
0.0 0.0 1.0 
0.0 0.0 1.0 
0.0 0.0 1.0 
0.0 0.0 1.0 
0.0 0.0 1.0 
0.0 0.0 1.0 
0.0 0.0 1.0 
0.0 0.0 1.0 
0.0 0.0 1.0 
0.0 0.0 1.0 
0.0 0.0 1.0 
0.0 0.0 1.0 
0.0 0.0 1.0 
0.0 0.0 1.0 
0.0 0.0 1.0 
0.0 0.0 1.0 
0.0 0.0 1.0 
0.0 0.0 1.0 
0.0 0.0 1.0 
0.0 0.0 1.0 
0.0 0.0 1.0 
0.0 0.0 1.0 
Learning : 0.25
Momentum : 0.9
Epoch: 100, Error: 0.015338066274893144
Epoch: 200, Error: 0.013095720474912122
Epoch: 300, Error: 0.01468229964903983
Epoch: 400, Error: 0.013187934372115887
Epoch: 500, Error: 0.01251805135920128
Epoch: 600, Error: 0.012437540894907841
Epoch: 700, Error: 0.011981495833467162
Epoch: 800, Error: 0.01188171193409153
Epoch: 900, Error: 0.011954891761077453
Epoch: 1000, Error: 0.012029517620345709
Epoch: 1100, Error: 0.012000393901437473
Epoch: 1200, Error: 0.011993191935242502
Epoch: 1300, Error: 0.012121229712680827
Epoch: 1400, Error: 0.01173225422022797
Epoch: 1500, Error: 0.011763345218076383
Epoch: 1600, Error: 0.011685759680590295
Epoch: 1700, Error: 0.011778094188144144
Epoch: 1800, Error: 0.011607885820027567
Epoch: 1900, Error: 0.011472009921649262
Epoch: 2000, Error: 0.011550766207361913
Epoch: 2100, Error: 0.011499516059758172
Epoch: 2200, Error: 0.011427970058925548
Epoch: 2300, Error: 0.010479271268547885
Epoch: 2400, Error: 0.010834431498331017
Epoch: 2500, Error: 0.009261217604707982
Epoch: 2600, Error: 0.00873438410260332
Epoch: 2700, Error: 0.008380701077320137
Epoch: 2800, Error: 0.007623290009831792
Epoch: 2900, Error: 0.007144595448555911
Epoch: 3000, Error: 0.00689231699962632
Epoch: 3100, Error: 0.006829566650527689
Epoch: 3200, Error: 0.006484844028946675
Epoch: 3300, Error: 0.0062392407987877435
Epoch: 3400, Error: 0.006081275728859301
Epoch: 3500, Error: 0.005954139852218854
Epoch: 3600, Error: 0.005854568136592627
Epoch: 3700, Error: 0.0057459587576367144
Epoch: 3800, Error: 0.005700808834044254
Epoch: 3900, Error: 0.005670908379143568
Epoch: 4000, Error: 0.006273301639952095
Epoch: 4100, Error: 0.005598735138782011
Epoch: 4200, Error: 0.005609733285018065
Epoch: 4300, Error: 0.00554548764860485
Epoch: 4400, Error: 0.00554128402300998
Epoch: 4500, Error: 0.005523822726131039
Epoch: 4600, Error: 0.005554251900761199
Epoch: 4700, Error: 0.005522183368729498
Epoch: 4800, Error: 0.005460795351073041
Epoch: 4900, Error: 0.005556345374055293
Epoch: 5000, Error: 0.0055260058465426126
Epoch: 5100, Error: 0.0054954729121981655
Epoch: 5200, Error: 0.005550222913554646
Epoch: 5300, Error: 0.005512697146440269
Epoch: 5400, Error: 0.0055206752407873354
Epoch: 5500, Error: 0.005495612604713339
Epoch: 5600, Error: 0.0054879816781015535
Epoch: 5700, Error: 0.005542230934749667
Epoch: 5800, Error: 0.005491361887577844
Epoch: 5900, Error: 0.005493883122900071
Epoch: 6000, Error: 0.005423820420769561
Epoch: 6100, Error: 0.005433088375789338
Epoch: 6200, Error: 0.005434704396761411
Epoch: 6300, Error: 0.005395326650290524
Epoch: 6400, Error: 0.005426874974616051
Epoch: 6500, Error: 0.00538103202973488
Epoch: 6600, Error: 0.005374122708164205
Epoch: 6700, Error: 0.00534584512353304
Epoch: 6800, Error: 0.005347697053116781
Epoch: 6900, Error: 0.005367003044814342
Epoch: 7000, Error: 0.005309476552340818
Epoch: 7100, Error: 0.005297636297981534
Epoch: 7200, Error: 0.005248052990813337
Epoch: 7300, Error: 0.005282331232022148
Epoch: 7400, Error: 0.005259101960360741
Epoch: 7500, Error: 0.005226251355251772
Epoch: 7600, Error: 0.005241187207455093
Epoch: 7700, Error: 0.005219573132757984
Epoch: 7800, Error: 0.005194328435034844
Epoch: 7900, Error: 0.005206722645424294
Epoch: 8000, Error: 0.005140943225092971
Epoch: 8100, Error: 0.005112714664855214
Epoch: 8200, Error: 0.0051542835382710015
Epoch: 8300, Error: 0.005070025332835104
Epoch: 8400, Error: 0.005071250206866411
Epoch: 8500, Error: 0.0050631716812221264
Epoch: 8600, Error: 0.0052029754019057625
Epoch: 8700, Error: 0.005010623865614481
Epoch: 8800, Error: 0.005047157692460129
Epoch: 8900, Error: 0.004835080459450652
Epoch: 9000, Error: 0.004784960214893232
Epoch: 9100, Error: 0.004755353997280772
Epoch: 9200, Error: 0.004649240071999772
Epoch: 9300, Error: 0.0047924606784385555
Epoch: 9400, Error: 0.004769841079295369
Epoch: 9500, Error: 0.004627783682721176
Epoch: 9600, Error: 0.004490734212017339
Epoch: 9700, Error: 0.004436668774858386
Epoch: 9800, Error: 0.00427633198310037
Epoch: 9900, Error: 0.0043857468523343405
Epoch: 10000, Error: 0.004123967300224251
Epoch: 10100, Error: 0.004315343116698792
Epoch: 10200, Error: 0.0039625875693047674
Epoch: 10300, Error: 0.0037505005730119434
Epoch: 10400, Error: 0.004121623675832781
Epoch: 10500, Error: 0.00463065875498541
Epoch: 10600, Error: 0.0040870528823728535
Epoch: 10700, Error: 0.0036817502850593838
Epoch: 10800, Error: 0.0033078574538948097
Epoch: 10900, Error: 0.003181562668696649
Epoch: 11000, Error: 0.0034882676606811255
Epoch: 11100, Error: 0.008133396803438227
Epoch: 11200, Error: 0.003551332263536067
Epoch: 11300, Error: 0.0035044525980454555
Epoch: 11400, Error: 0.0034452443423169596
Epoch: 11500, Error: 0.002923689105572482
Epoch: 11600, Error: 0.0027176778203621727
Epoch: 11700, Error: 0.0026628549942468516
Epoch: 11800, Error: 0.0024277347484459853
Epoch: 11900, Error: 0.004076738008027305
Epoch: 12000, Error: 0.0029101253197067944
Epoch: 12100, Error: 0.0025424979246771433
Epoch: 12200, Error: 0.0020846890776812332
Epoch: 12300, Error: 0.0022902894327112094
Epoch: 12400, Error: 0.0027598120653033542
Epoch: 12500, Error: 0.0018841372772867764
Epoch: 12600, Error: 0.0027185287262956885
Epoch: 12700, Error: 0.003407484491928805
Epoch: 12800, Error: 0.0021958134673910733
Epoch: 12900, Error: 0.001734061433166896
Epoch: 13000, Error: 0.0021745491844039587
Epoch: 13100, Error: 0.0029762664241500428
Epoch: 13200, Error: 0.0015957753576213952
Epoch: 13300, Error: 0.0025929671451950754
Epoch: 13400, Error: 0.0020744875216964754
Epoch: 13500, Error: 0.0020229216932706354
Epoch: 13600, Error: 0.0018446439697844153
Epoch: 13700, Error: 0.00181467214145301
Epoch: 13800, Error: 0.0070786733301499575
Epoch: 13900, Error: 0.0013574897042683495
Epoch: 14000, Error: 0.0016261914194137584
Epoch: 14100, Error: 0.001511671874079502
Epoch: 14200, Error: 0.0019058818422250543
Epoch: 14300, Error: 0.0012757776337832356
Epoch: 14400, Error: 0.00142762143169978
Epoch: 14500, Error: 0.0014137676316302136
Epoch: 14600, Error: 0.0012383802724381847
Epoch: 14700, Error: 0.0014651150391970602
Epoch: 14800, Error: 0.0013101964820149527
Epoch: 14900, Error: 0.0012355081648578105
Epoch: 15000, Error: 0.0011959634356879768
Epoch: 15100, Error: 0.001346702907886529
Epoch: 15200, Error: 0.0014758013489252991
Epoch: 15300, Error: 0.0011791410454671976
Epoch: 15400, Error: 0.0011938939483209436
Epoch: 15500, Error: 0.001264279778656307
Epoch: 15600, Error: 0.0012445493122218742
Epoch: 15700, Error: 0.001300513187175946
Epoch: 15800, Error: 0.001232036222567118
Epoch: 15900, Error: 0.0012538531617196235
Epoch: 16000, Error: 0.0011748350966323364
Epoch: 16100, Error: 0.0011545426796950515
Epoch: 16200, Error: 0.0011846652758541543
Epoch: 16300, Error: 0.0012607895474887622
Epoch: 16400, Error: 0.0012500130373853076
Epoch: 16500, Error: 0.0011439176129215017
Epoch: 16600, Error: 0.0012110019780939543
Epoch: 16700, Error: 0.0011432649242636098
Epoch: 16800, Error: 0.001148623168329512
Epoch: 16900, Error: 0.0011321845509182612
Epoch: 17000, Error: 0.001191589188650967
Epoch: 17100, Error: 0.0011786158277862883
Epoch: 17200, Error: 0.0011649427513214146
Epoch: 17300, Error: 0.001171340900727558
Epoch: 17400, Error: 0.00115026846171871
Epoch: 17500, Error: 0.0011703335411383726
Epoch: 17600, Error: 0.0011548452703792806
Epoch: 17700, Error: 0.0011534956144808972
Epoch: 17800, Error: 0.0011331387031461898
Epoch: 17900, Error: 0.0011435356628224833
Epoch: 18000, Error: 0.0011497851878840793
Epoch: 18100, Error: 0.0011171483940737627
Epoch: 18200, Error: 0.0011305194576930926
Epoch: 18300, Error: 0.001118544962940426
Epoch: 18400, Error: 0.0010809572033221426
Epoch: 18500, Error: 0.0010464627779896765
Epoch: 18600, Error: 0.0010718669278826272
Epoch: 18700, Error: 0.0010880772789441365
Epoch: 18800, Error: 0.001147997419343065
Epoch: 18900, Error: 0.0010586019596960387
Epoch: 19000, Error: 0.001021703371299213
Epoch: 19100, Error: 9.61248045730166E-4
Epoch: 19200, Error: 9.353749085620071E-4
Epoch: 19300, Error: 8.661763170846064E-4
Epoch: 19400, Error: 8.292759519151016E-4
Epoch: 19500, Error: 8.342592662026731E-4
Epoch: 19600, Error: 8.263333275813989E-4
Epoch: 19700, Error: 8.083807065945401E-4
Epoch: 19800, Error: 8.129579359803925E-4
Epoch: 19900, Error: 8.017092299611223E-4
Epoch: 20000, Error: 7.867220722843547E-4
Epoch: 20100, Error: 7.858691821575558E-4
Epoch: 20200, Error: 7.920638717874883E-4
Epoch: 20300, Error: 7.897661516139274E-4
Epoch: 20400, Error: 7.88896548488876E-4
Epoch: 20500, Error: 7.834204599077469E-4
Epoch: 20600, Error: 8.03153616619332E-4
Epoch: 20700, Error: 7.922090835919721E-4
Epoch: 20800, Error: 7.943567333100711E-4
Epoch: 20900, Error: 7.88472034436507E-4
Epoch: 21000, Error: 7.860495796520929E-4
Finished
