Input Patterns
0.224 0.624 0.067 0.043 
0.11 0.502 0.051 0.043 
0.196 0.667 0.067 0.043 
0.055 0.584 0.067 0.082 
0.027 0.376 0.067 0.043 
0.306 0.71 0.086 0.043 
0.137 0.416 0.067 0.0 
0.416 0.831 0.035 0.043 
0.306 0.792 0.051 0.125 
0.388 0.749 0.118 0.082 
0.306 0.584 0.118 0.043 
0.082 0.667 0.0 0.043 
0.137 0.584 0.153 0.043 
0.196 0.584 0.102 0.125 
0.251 0.584 0.067 0.043 
0.137 0.459 0.102 0.043 
0.251 0.875 0.086 0.0 
0.165 0.459 0.086 0.043 
0.333 0.624 0.051 0.043 
0.027 0.416 0.051 0.043 
0.196 0.624 0.051 0.082 
0.027 0.502 0.051 0.043 
0.224 0.749 0.153 0.125 
0.224 0.749 0.102 0.043 
0.278 0.71 0.086 0.043 
0.165 0.416 0.067 0.043 
0.082 0.459 0.086 0.043 
0.306 0.792 0.118 0.125 
0.196 0.584 0.086 0.043 
0.165 0.459 0.086 0.0 
0.137 0.584 0.102 0.043 
0.0 0.416 0.016 0.0 
0.388 1.0 0.086 0.125 
0.224 0.624 0.067 0.082 
0.224 0.749 0.086 0.082 
0.224 0.71 0.086 0.125 
0.224 0.541 0.118 0.165 
0.196 0.416 0.102 0.043 
0.251 0.624 0.086 0.043 
0.11 0.502 0.102 0.043 
0.306 0.584 0.086 0.125 
0.333 0.918 0.067 0.043 
0.196 0.502 0.035 0.043 
0.165 0.667 0.067 0.0 
0.224 0.584 0.086 0.043 
0.055 0.125 0.051 0.082 
0.196 0.624 0.102 0.208 
0.137 0.416 0.067 0.082 
0.082 0.502 0.067 0.043 
0.196 0.541 0.067 0.043 
0.749 0.502 0.627 0.541 
0.722 0.459 0.663 0.584 
0.612 0.333 0.612 0.584 
0.557 0.541 0.627 0.624 
0.639 0.376 0.612 0.498 
0.196 0.0 0.424 0.376 
0.471 0.082 0.51 0.376 
0.361 0.376 0.439 0.498 
0.361 0.416 0.592 0.584 
0.529 0.082 0.592 0.584 
0.443 0.502 0.643 0.459 
0.557 0.208 0.663 0.584 
0.584 0.376 0.561 0.498 
0.694 0.333 0.643 0.541 
0.471 0.376 0.592 0.584 
0.333 0.169 0.475 0.416 
0.416 0.29 0.49 0.459 
0.306 0.416 0.592 0.584 
0.667 0.459 0.627 0.584 
0.361 0.416 0.525 0.498 
0.333 0.251 0.576 0.459 
0.416 0.251 0.51 0.459 
0.361 0.29 0.541 0.498 
0.388 0.376 0.541 0.498 
0.224 0.208 0.337 0.416 
0.584 0.502 0.592 0.584 
0.333 0.125 0.51 0.498 
0.388 0.333 0.592 0.498 
0.165 0.169 0.388 0.376 
0.251 0.29 0.49 0.541 
0.443 0.416 0.541 0.584 
0.498 0.376 0.627 0.541 
0.667 0.459 0.576 0.541 
0.416 0.29 0.525 0.376 
0.361 0.208 0.49 0.416 
0.498 0.333 0.51 0.498 
0.498 0.333 0.627 0.459 
0.639 0.416 0.576 0.541 
0.667 0.416 0.678 0.667 
0.388 0.251 0.424 0.376 
0.333 0.169 0.459 0.376 
0.471 0.29 0.694 0.624 
0.471 0.584 0.592 0.624 
0.557 0.125 0.576 0.498 
0.333 0.208 0.51 0.498 
0.498 0.416 0.612 0.541 
0.196 0.125 0.388 0.376 
0.388 0.416 0.541 0.459 
0.529 0.376 0.561 0.498 
0.388 0.333 0.525 0.498 
0.557 0.541 0.847 1.0 
0.776 0.416 0.831 0.831 
0.612 0.416 0.812 0.875 
0.165 0.208 0.592 0.667 
0.667 0.208 0.812 0.71 
0.612 0.502 0.694 0.792 
0.694 0.416 0.761 0.831 
0.416 0.333 0.694 0.957 
0.612 0.416 0.761 0.71 
0.945 0.251 1.0 0.918 
0.722 0.502 0.796 0.918 
0.945 0.333 0.965 0.792 
0.667 0.541 0.796 0.831 
0.529 0.333 0.643 0.71 
0.584 0.333 0.78 0.831 
0.863 0.333 0.863 0.749 
0.584 0.333 0.78 0.875 
0.498 0.251 0.78 0.541 
0.557 0.584 0.78 0.957 
0.471 0.416 0.643 0.71 
0.667 0.459 0.78 0.957 
0.416 0.29 0.694 0.749 
0.667 0.541 0.796 1.0 
0.557 0.208 0.678 0.749 
0.529 0.584 0.745 0.918 
0.416 0.29 0.694 0.749 
0.557 0.376 0.78 0.71 
0.918 0.416 0.949 0.831 
0.835 0.376 0.898 0.71 
0.804 0.667 0.863 1.0 
0.584 0.29 0.729 0.749 
0.388 0.208 0.678 0.792 
0.584 0.502 0.729 0.918 
0.945 0.749 0.965 0.875 
0.471 0.082 0.678 0.584 
0.361 0.333 0.663 0.792 
0.557 0.29 0.663 0.71 
0.804 0.502 0.847 0.71 
0.498 0.416 0.51 0.71 
0.804 0.416 0.812 0.624 
1.0 0.749 0.914 0.792 
0.557 0.333 0.694 0.584 
0.945 0.416 0.863 0.918 
0.584 0.459 0.761 0.71 
0.722 0.459 0.745 0.831 
0.722 0.459 0.694 0.918 
0.694 0.502 0.831 0.918 
0.667 0.416 0.714 0.918 
0.612 0.416 0.714 0.792 
0.443 0.416 0.694 0.71 
Teaching Patterns
1.0 0.0 0.0 
1.0 0.0 0.0 
1.0 0.0 0.0 
1.0 0.0 0.0 
1.0 0.0 0.0 
1.0 0.0 0.0 
1.0 0.0 0.0 
1.0 0.0 0.0 
1.0 0.0 0.0 
1.0 0.0 0.0 
1.0 0.0 0.0 
1.0 0.0 0.0 
1.0 0.0 0.0 
1.0 0.0 0.0 
1.0 0.0 0.0 
1.0 0.0 0.0 
1.0 0.0 0.0 
1.0 0.0 0.0 
1.0 0.0 0.0 
1.0 0.0 0.0 
1.0 0.0 0.0 
1.0 0.0 0.0 
1.0 0.0 0.0 
1.0 0.0 0.0 
1.0 0.0 0.0 
1.0 0.0 0.0 
1.0 0.0 0.0 
1.0 0.0 0.0 
1.0 0.0 0.0 
1.0 0.0 0.0 
1.0 0.0 0.0 
1.0 0.0 0.0 
1.0 0.0 0.0 
1.0 0.0 0.0 
1.0 0.0 0.0 
1.0 0.0 0.0 
1.0 0.0 0.0 
1.0 0.0 0.0 
1.0 0.0 0.0 
1.0 0.0 0.0 
1.0 0.0 0.0 
1.0 0.0 0.0 
1.0 0.0 0.0 
1.0 0.0 0.0 
1.0 0.0 0.0 
1.0 0.0 0.0 
1.0 0.0 0.0 
1.0 0.0 0.0 
1.0 0.0 0.0 
1.0 0.0 0.0 
0.0 1.0 0.0 
0.0 1.0 0.0 
0.0 1.0 0.0 
0.0 1.0 0.0 
0.0 1.0 0.0 
0.0 1.0 0.0 
0.0 1.0 0.0 
0.0 1.0 0.0 
0.0 1.0 0.0 
0.0 1.0 0.0 
0.0 1.0 0.0 
0.0 1.0 0.0 
0.0 1.0 0.0 
0.0 1.0 0.0 
0.0 1.0 0.0 
0.0 1.0 0.0 
0.0 1.0 0.0 
0.0 1.0 0.0 
0.0 1.0 0.0 
0.0 1.0 0.0 
0.0 1.0 0.0 
0.0 1.0 0.0 
0.0 1.0 0.0 
0.0 1.0 0.0 
0.0 1.0 0.0 
0.0 1.0 0.0 
0.0 1.0 0.0 
0.0 1.0 0.0 
0.0 1.0 0.0 
0.0 1.0 0.0 
0.0 1.0 0.0 
0.0 1.0 0.0 
0.0 1.0 0.0 
0.0 1.0 0.0 
0.0 1.0 0.0 
0.0 1.0 0.0 
0.0 1.0 0.0 
0.0 1.0 0.0 
0.0 1.0 0.0 
0.0 1.0 0.0 
0.0 1.0 0.0 
0.0 1.0 0.0 
0.0 1.0 0.0 
0.0 1.0 0.0 
0.0 1.0 0.0 
0.0 1.0 0.0 
0.0 1.0 0.0 
0.0 1.0 0.0 
0.0 1.0 0.0 
0.0 1.0 0.0 
0.0 0.0 1.0 
0.0 0.0 1.0 
0.0 0.0 1.0 
0.0 0.0 1.0 
0.0 0.0 1.0 
0.0 0.0 1.0 
0.0 0.0 1.0 
0.0 0.0 1.0 
0.0 0.0 1.0 
0.0 0.0 1.0 
0.0 0.0 1.0 
0.0 0.0 1.0 
0.0 0.0 1.0 
0.0 0.0 1.0 
0.0 0.0 1.0 
0.0 0.0 1.0 
0.0 0.0 1.0 
0.0 0.0 1.0 
0.0 0.0 1.0 
0.0 0.0 1.0 
0.0 0.0 1.0 
0.0 0.0 1.0 
0.0 0.0 1.0 
0.0 0.0 1.0 
0.0 0.0 1.0 
0.0 0.0 1.0 
0.0 0.0 1.0 
0.0 0.0 1.0 
0.0 0.0 1.0 
0.0 0.0 1.0 
0.0 0.0 1.0 
0.0 0.0 1.0 
0.0 0.0 1.0 
0.0 0.0 1.0 
0.0 0.0 1.0 
0.0 0.0 1.0 
0.0 0.0 1.0 
0.0 0.0 1.0 
0.0 0.0 1.0 
0.0 0.0 1.0 
0.0 0.0 1.0 
0.0 0.0 1.0 
0.0 0.0 1.0 
0.0 0.0 1.0 
0.0 0.0 1.0 
0.0 0.0 1.0 
0.0 0.0 1.0 
0.0 0.0 1.0 
0.0 0.0 1.0 
0.0 0.0 1.0 
Learning : 0.25
Momentum : 0.9
Epoch: 100, Error: 0.013951511931679332
Epoch: 200, Error: 0.01940240237156883
Epoch: 300, Error: 0.012721055895704792
Epoch: 400, Error: 0.01216711506448242
Epoch: 500, Error: 0.012124274251994577
Epoch: 600, Error: 0.012035506964887525
Epoch: 700, Error: 0.011802769686000346
Epoch: 800, Error: 0.01184122428546762
Epoch: 900, Error: 0.011722500508595721
Epoch: 1000, Error: 0.011619660209492379
Epoch: 1100, Error: 0.01292536342001914
Epoch: 1200, Error: 0.011946816644766605
Epoch: 1300, Error: 0.011565021118329867
Epoch: 1400, Error: 0.011867477173293702
Epoch: 1500, Error: 0.011877190140409836
Epoch: 1600, Error: 0.012558111945675125
Epoch: 1700, Error: 0.011245736879499847
Epoch: 1800, Error: 0.011105994573702292
Epoch: 1900, Error: 0.011561550114622477
Epoch: 2000, Error: 0.011346412524929912
Epoch: 2100, Error: 0.01100007406330715
Epoch: 2200, Error: 0.0106318526530588
Epoch: 2300, Error: 0.010530319113935045
Epoch: 2400, Error: 0.01032844325861546
Epoch: 2500, Error: 0.011535346577448638
Epoch: 2600, Error: 0.009854330749122158
Epoch: 2700, Error: 0.009717109136980559
Epoch: 2800, Error: 0.009197339072005532
Epoch: 2900, Error: 0.00853885423301073
Epoch: 3000, Error: 0.008098161084630833
Epoch: 3100, Error: 0.007811633595112962
Epoch: 3200, Error: 0.007427275826473997
Epoch: 3300, Error: 0.006768878941242949
Epoch: 3400, Error: 0.006736993213118281
Epoch: 3500, Error: 0.006218943441152071
Epoch: 3600, Error: 0.006111861246049087
Epoch: 3700, Error: 0.0060041529511974
Epoch: 3800, Error: 0.006598038055656695
Epoch: 3900, Error: 0.005885365178188293
Epoch: 4000, Error: 0.005655099648075807
Epoch: 4100, Error: 0.005584245944765072
Epoch: 4200, Error: 0.005756566775518338
Epoch: 4300, Error: 0.005535230326364904
Epoch: 4400, Error: 0.005515576329800167
Epoch: 4500, Error: 0.005479281576318124
Epoch: 4600, Error: 0.0055946326300548525
Epoch: 4700, Error: 0.005441866366797375
Epoch: 4800, Error: 0.005483031953014228
Epoch: 4900, Error: 0.005469079565511069
Epoch: 5000, Error: 0.005546333036929459
Epoch: 5100, Error: 0.005495250594678016
Epoch: 5200, Error: 0.0056035079107191335
Epoch: 5300, Error: 0.005653198918985932
Epoch: 5400, Error: 0.005639620037966473
Epoch: 5500, Error: 0.00563868363025112
Epoch: 5600, Error: 0.005624391970707434
Epoch: 5700, Error: 0.005640816533512669
Epoch: 5800, Error: 0.005496359302596435
Epoch: 5900, Error: 0.005617099656338919
Epoch: 6000, Error: 0.005598697702098832
Epoch: 6100, Error: 0.005524625029315275
Epoch: 6200, Error: 0.005521062952783949
Epoch: 6300, Error: 0.005576671092720199
Epoch: 6400, Error: 0.005548170287635576
Epoch: 6500, Error: 0.005515494896913556
Epoch: 6600, Error: 0.005538201351808388
Epoch: 6700, Error: 0.00550015928691557
Epoch: 6800, Error: 0.00553796743782581
Epoch: 6900, Error: 0.005494976973520128
Epoch: 7000, Error: 0.005496157610861685
Epoch: 7100, Error: 0.005483930715430876
Epoch: 7200, Error: 0.005496472402150131
Epoch: 7300, Error: 0.005464618832558431
Epoch: 7400, Error: 0.005513583424626218
Epoch: 7500, Error: 0.005424399657964735
Epoch: 7600, Error: 0.005440798899117991
Epoch: 7700, Error: 0.00543488963816733
Epoch: 7800, Error: 0.005414639552492321
Epoch: 7900, Error: 0.005436645542774754
Epoch: 8000, Error: 0.0054158190576548085
Epoch: 8100, Error: 0.005375268658633947
Epoch: 8200, Error: 0.005404860963580474
Epoch: 8300, Error: 0.005381030107250314
Epoch: 8400, Error: 0.00536182155376925
Epoch: 8500, Error: 0.0053483719045353696
Epoch: 8600, Error: 0.005362414194249911
Epoch: 8700, Error: 0.00535663410890762
Epoch: 8800, Error: 0.005341106751083305
Epoch: 8900, Error: 0.005311617761517715
Finished
