Input Patterns
0.224 0.624 0.067 0.043 
0.11 0.502 0.051 0.043 
0.196 0.667 0.067 0.043 
0.055 0.584 0.067 0.082 
0.027 0.376 0.067 0.043 
0.306 0.71 0.086 0.043 
0.137 0.416 0.067 0.0 
0.416 0.831 0.035 0.043 
0.306 0.792 0.051 0.125 
0.388 0.749 0.118 0.082 
0.306 0.584 0.118 0.043 
0.082 0.667 0.0 0.043 
0.137 0.584 0.153 0.043 
0.196 0.584 0.102 0.125 
0.251 0.584 0.067 0.043 
0.137 0.459 0.102 0.043 
0.251 0.875 0.086 0.0 
0.165 0.459 0.086 0.043 
0.333 0.624 0.051 0.043 
0.027 0.416 0.051 0.043 
0.196 0.624 0.051 0.082 
0.027 0.502 0.051 0.043 
0.224 0.749 0.153 0.125 
0.224 0.749 0.102 0.043 
0.278 0.71 0.086 0.043 
0.165 0.416 0.067 0.043 
0.082 0.459 0.086 0.043 
0.306 0.792 0.118 0.125 
0.196 0.584 0.086 0.043 
0.165 0.459 0.086 0.0 
0.137 0.584 0.102 0.043 
0.0 0.416 0.016 0.0 
0.388 1.0 0.086 0.125 
0.224 0.624 0.067 0.082 
0.224 0.749 0.086 0.082 
0.224 0.71 0.086 0.125 
0.224 0.541 0.118 0.165 
0.196 0.416 0.102 0.043 
0.251 0.624 0.086 0.043 
0.11 0.502 0.102 0.043 
0.306 0.584 0.086 0.125 
0.333 0.918 0.067 0.043 
0.196 0.502 0.035 0.043 
0.165 0.667 0.067 0.0 
0.224 0.584 0.086 0.043 
0.055 0.125 0.051 0.082 
0.196 0.624 0.102 0.208 
0.137 0.416 0.067 0.082 
0.082 0.502 0.067 0.043 
0.196 0.541 0.067 0.043 
0.749 0.502 0.627 0.541 
0.722 0.459 0.663 0.584 
0.612 0.333 0.612 0.584 
0.557 0.541 0.627 0.624 
0.639 0.376 0.612 0.498 
0.196 0.0 0.424 0.376 
0.471 0.082 0.51 0.376 
0.361 0.376 0.439 0.498 
0.361 0.416 0.592 0.584 
0.529 0.082 0.592 0.584 
0.443 0.502 0.643 0.459 
0.557 0.208 0.663 0.584 
0.584 0.376 0.561 0.498 
0.694 0.333 0.643 0.541 
0.471 0.376 0.592 0.584 
0.333 0.169 0.475 0.416 
0.416 0.29 0.49 0.459 
0.306 0.416 0.592 0.584 
0.667 0.459 0.627 0.584 
0.361 0.416 0.525 0.498 
0.333 0.251 0.576 0.459 
0.416 0.251 0.51 0.459 
0.361 0.29 0.541 0.498 
0.388 0.376 0.541 0.498 
0.224 0.208 0.337 0.416 
0.584 0.502 0.592 0.584 
0.333 0.125 0.51 0.498 
0.388 0.333 0.592 0.498 
0.165 0.169 0.388 0.376 
0.251 0.29 0.49 0.541 
0.443 0.416 0.541 0.584 
0.498 0.376 0.627 0.541 
0.667 0.459 0.576 0.541 
0.416 0.29 0.525 0.376 
0.361 0.208 0.49 0.416 
0.498 0.333 0.51 0.498 
0.498 0.333 0.627 0.459 
0.639 0.416 0.576 0.541 
0.667 0.416 0.678 0.667 
0.388 0.251 0.424 0.376 
0.333 0.169 0.459 0.376 
0.471 0.29 0.694 0.624 
0.471 0.584 0.592 0.624 
0.557 0.125 0.576 0.498 
0.333 0.208 0.51 0.498 
0.498 0.416 0.612 0.541 
0.196 0.125 0.388 0.376 
0.388 0.416 0.541 0.459 
0.529 0.376 0.561 0.498 
0.388 0.333 0.525 0.498 
0.557 0.541 0.847 1.0 
0.776 0.416 0.831 0.831 
0.612 0.416 0.812 0.875 
0.165 0.208 0.592 0.667 
0.667 0.208 0.812 0.71 
0.612 0.502 0.694 0.792 
0.694 0.416 0.761 0.831 
0.416 0.333 0.694 0.957 
0.612 0.416 0.761 0.71 
0.945 0.251 1.0 0.918 
0.722 0.502 0.796 0.918 
0.945 0.333 0.965 0.792 
0.667 0.541 0.796 0.831 
0.529 0.333 0.643 0.71 
0.584 0.333 0.78 0.831 
0.863 0.333 0.863 0.749 
0.584 0.333 0.78 0.875 
0.498 0.251 0.78 0.541 
0.557 0.584 0.78 0.957 
0.471 0.416 0.643 0.71 
0.667 0.459 0.78 0.957 
0.416 0.29 0.694 0.749 
0.667 0.541 0.796 1.0 
0.557 0.208 0.678 0.749 
0.529 0.584 0.745 0.918 
0.416 0.29 0.694 0.749 
0.557 0.376 0.78 0.71 
0.918 0.416 0.949 0.831 
0.835 0.376 0.898 0.71 
0.804 0.667 0.863 1.0 
0.584 0.29 0.729 0.749 
0.388 0.208 0.678 0.792 
0.584 0.502 0.729 0.918 
0.945 0.749 0.965 0.875 
0.471 0.082 0.678 0.584 
0.361 0.333 0.663 0.792 
0.557 0.29 0.663 0.71 
0.804 0.502 0.847 0.71 
0.498 0.416 0.51 0.71 
0.804 0.416 0.812 0.624 
1.0 0.749 0.914 0.792 
0.557 0.333 0.694 0.584 
0.945 0.416 0.863 0.918 
0.584 0.459 0.761 0.71 
0.722 0.459 0.745 0.831 
0.722 0.459 0.694 0.918 
0.694 0.502 0.831 0.918 
0.667 0.416 0.714 0.918 
0.612 0.416 0.714 0.792 
0.443 0.416 0.694 0.71 
Teaching Patterns
1.0 0.0 0.0 
1.0 0.0 0.0 
1.0 0.0 0.0 
1.0 0.0 0.0 
1.0 0.0 0.0 
1.0 0.0 0.0 
1.0 0.0 0.0 
1.0 0.0 0.0 
1.0 0.0 0.0 
1.0 0.0 0.0 
1.0 0.0 0.0 
1.0 0.0 0.0 
1.0 0.0 0.0 
1.0 0.0 0.0 
1.0 0.0 0.0 
1.0 0.0 0.0 
1.0 0.0 0.0 
1.0 0.0 0.0 
1.0 0.0 0.0 
1.0 0.0 0.0 
1.0 0.0 0.0 
1.0 0.0 0.0 
1.0 0.0 0.0 
1.0 0.0 0.0 
1.0 0.0 0.0 
1.0 0.0 0.0 
1.0 0.0 0.0 
1.0 0.0 0.0 
1.0 0.0 0.0 
1.0 0.0 0.0 
1.0 0.0 0.0 
1.0 0.0 0.0 
1.0 0.0 0.0 
1.0 0.0 0.0 
1.0 0.0 0.0 
1.0 0.0 0.0 
1.0 0.0 0.0 
1.0 0.0 0.0 
1.0 0.0 0.0 
1.0 0.0 0.0 
1.0 0.0 0.0 
1.0 0.0 0.0 
1.0 0.0 0.0 
1.0 0.0 0.0 
1.0 0.0 0.0 
1.0 0.0 0.0 
1.0 0.0 0.0 
1.0 0.0 0.0 
1.0 0.0 0.0 
1.0 0.0 0.0 
0.0 1.0 0.0 
0.0 1.0 0.0 
0.0 1.0 0.0 
0.0 1.0 0.0 
0.0 1.0 0.0 
0.0 1.0 0.0 
0.0 1.0 0.0 
0.0 1.0 0.0 
0.0 1.0 0.0 
0.0 1.0 0.0 
0.0 1.0 0.0 
0.0 1.0 0.0 
0.0 1.0 0.0 
0.0 1.0 0.0 
0.0 1.0 0.0 
0.0 1.0 0.0 
0.0 1.0 0.0 
0.0 1.0 0.0 
0.0 1.0 0.0 
0.0 1.0 0.0 
0.0 1.0 0.0 
0.0 1.0 0.0 
0.0 1.0 0.0 
0.0 1.0 0.0 
0.0 1.0 0.0 
0.0 1.0 0.0 
0.0 1.0 0.0 
0.0 1.0 0.0 
0.0 1.0 0.0 
0.0 1.0 0.0 
0.0 1.0 0.0 
0.0 1.0 0.0 
0.0 1.0 0.0 
0.0 1.0 0.0 
0.0 1.0 0.0 
0.0 1.0 0.0 
0.0 1.0 0.0 
0.0 1.0 0.0 
0.0 1.0 0.0 
0.0 1.0 0.0 
0.0 1.0 0.0 
0.0 1.0 0.0 
0.0 1.0 0.0 
0.0 1.0 0.0 
0.0 1.0 0.0 
0.0 1.0 0.0 
0.0 1.0 0.0 
0.0 1.0 0.0 
0.0 1.0 0.0 
0.0 1.0 0.0 
0.0 0.0 1.0 
0.0 0.0 1.0 
0.0 0.0 1.0 
0.0 0.0 1.0 
0.0 0.0 1.0 
0.0 0.0 1.0 
0.0 0.0 1.0 
0.0 0.0 1.0 
0.0 0.0 1.0 
0.0 0.0 1.0 
0.0 0.0 1.0 
0.0 0.0 1.0 
0.0 0.0 1.0 
0.0 0.0 1.0 
0.0 0.0 1.0 
0.0 0.0 1.0 
0.0 0.0 1.0 
0.0 0.0 1.0 
0.0 0.0 1.0 
0.0 0.0 1.0 
0.0 0.0 1.0 
0.0 0.0 1.0 
0.0 0.0 1.0 
0.0 0.0 1.0 
0.0 0.0 1.0 
0.0 0.0 1.0 
0.0 0.0 1.0 
0.0 0.0 1.0 
0.0 0.0 1.0 
0.0 0.0 1.0 
0.0 0.0 1.0 
0.0 0.0 1.0 
0.0 0.0 1.0 
0.0 0.0 1.0 
0.0 0.0 1.0 
0.0 0.0 1.0 
0.0 0.0 1.0 
0.0 0.0 1.0 
0.0 0.0 1.0 
0.0 0.0 1.0 
0.0 0.0 1.0 
0.0 0.0 1.0 
0.0 0.0 1.0 
0.0 0.0 1.0 
0.0 0.0 1.0 
0.0 0.0 1.0 
0.0 0.0 1.0 
0.0 0.0 1.0 
0.0 0.0 1.0 
0.0 0.0 1.0 
Learning : 0.6000000238418579
Momentum : 0.9
Epoch: 100, Error: 0.012986981539996662
Epoch: 200, Error: 0.014638985980407398
Epoch: 300, Error: 0.012350953723751931
Epoch: 400, Error: 0.014373534377157745
Epoch: 500, Error: 0.012524164249458255
Epoch: 600, Error: 0.013276206233045441
Epoch: 700, Error: 0.01472781806585597
Epoch: 800, Error: 0.012492565658858984
Epoch: 900, Error: 0.012469034350074107
Epoch: 1000, Error: 0.013077140230810328
Epoch: 1100, Error: 0.012312715478063249
Epoch: 1200, Error: 0.013997525920619586
Epoch: 1300, Error: 0.012453712245311442
Epoch: 1400, Error: 0.014276605718630257
Epoch: 1500, Error: 0.013223884633511247
Epoch: 1600, Error: 0.013204689927599617
Epoch: 1700, Error: 0.012193101020280593
Epoch: 1800, Error: 0.012208989185418406
Epoch: 1900, Error: 0.01220931400374903
Epoch: 2000, Error: 0.012529428271808385
Epoch: 2100, Error: 0.013565881231169457
Epoch: 2200, Error: 0.012215495229611375
Epoch: 2300, Error: 0.012137398777807314
Epoch: 2400, Error: 0.012168664714850182
Epoch: 2500, Error: 0.012178916621077819
Epoch: 2600, Error: 0.012186443757985088
Epoch: 2700, Error: 0.012157716316133969
Epoch: 2800, Error: 0.01200803346649695
Epoch: 2900, Error: 0.012243066828873267
Epoch: 3000, Error: 0.012605613374607135
Epoch: 3100, Error: 0.012566001869867206
Epoch: 3200, Error: 0.011967045547883306
Epoch: 3300, Error: 0.012053236181418823
Epoch: 3400, Error: 0.013175879748419354
Epoch: 3500, Error: 0.012376275100507199
Epoch: 3600, Error: 0.012571384187393102
Epoch: 3700, Error: 0.011969882810050927
Epoch: 3800, Error: 0.011983454470596825
Epoch: 3900, Error: 0.01251336764139774
Epoch: 4000, Error: 0.012032050350364096
Epoch: 4100, Error: 0.01187230954784681
Epoch: 4200, Error: 0.011716351280472624
Epoch: 4300, Error: 0.011681880794115031
Epoch: 4400, Error: 0.011994138196239063
Epoch: 4500, Error: 0.011521991884722062
Epoch: 4600, Error: 0.011595667150423768
Epoch: 4700, Error: 0.011521238351314963
Epoch: 4800, Error: 0.011998623371842121
Epoch: 4900, Error: 0.012062069545106429
Epoch: 5000, Error: 0.011385373693899366
Epoch: 5100, Error: 0.011298526435833432
Epoch: 5200, Error: 0.011423037404031472
Epoch: 5300, Error: 0.011089268008979981
Epoch: 5400, Error: 0.011219344046616285
Epoch: 5500, Error: 0.010892239978028578
Epoch: 5600, Error: 0.010935019666118626
Epoch: 5700, Error: 0.01074775686937839
Epoch: 5800, Error: 0.01068805918973328
Epoch: 5900, Error: 0.01072924568461955
Epoch: 6000, Error: 0.010503895433852039
Epoch: 6100, Error: 0.010504665835782873
Epoch: 6200, Error: 0.010341623904560079
Epoch: 6300, Error: 0.010233611710992673
Epoch: 6400, Error: 0.010346208946076893
Epoch: 6500, Error: 0.010213957253394293
Epoch: 6600, Error: 0.010447798459412164
Epoch: 6700, Error: 0.010115878954435045
Epoch: 6800, Error: 0.009999283531330705
Epoch: 6900, Error: 0.009980883335310662
Epoch: 7000, Error: 0.009882316509531615
Epoch: 7100, Error: 0.009801636049720997
Epoch: 7200, Error: 0.009701030145519122
Epoch: 7300, Error: 0.009787264626418064
Epoch: 7400, Error: 0.00964792839370875
Epoch: 7500, Error: 0.009683812806208563
Epoch: 7600, Error: 0.00972492520190278
Epoch: 7700, Error: 0.009568127876655513
Epoch: 7800, Error: 0.009576156184761743
Epoch: 7900, Error: 0.009560616607454784
Epoch: 8000, Error: 0.009519529040232741
Epoch: 8100, Error: 0.009520152852212456
Epoch: 8200, Error: 0.009567001418276268
Epoch: 8300, Error: 0.009513975535382089
Epoch: 8400, Error: 0.009560923443416709
Epoch: 8500, Error: 0.009512172965262187
Epoch: 8600, Error: 0.009487852858718119
Epoch: 8700, Error: 0.009508705869311306
Epoch: 8800, Error: 0.009540734322800181
Epoch: 8900, Error: 0.009459187212354935
Epoch: 9000, Error: 0.009512708807170102
Epoch: 9100, Error: 0.009498238769695841
Epoch: 9200, Error: 0.009500014882813023
Epoch: 9300, Error: 0.009457360791022662
Epoch: 9400, Error: 0.009481325033026154
Epoch: 9500, Error: 0.009490368261903262
Epoch: 9600, Error: 0.009487911088001573
Epoch: 9700, Error: 0.009499395751585824
Epoch: 9800, Error: 0.009494890487260415
Epoch: 9900, Error: 0.009525836560505277
Epoch: 10000, Error: 0.0095145817020232
Epoch: 10100, Error: 0.00936436409102121
Epoch: 10200, Error: 0.0094436376556262
Epoch: 10300, Error: 0.009515414169881728
Epoch: 10400, Error: 0.009431259763192519
Epoch: 10500, Error: 0.009500341999432445
Epoch: 10600, Error: 0.009384043327534779
Epoch: 10700, Error: 0.009374506524202192
Epoch: 10800, Error: 0.009492003402977523
Epoch: 10900, Error: 0.009418550339066599
Epoch: 11000, Error: 0.00940191055714145
Epoch: 11100, Error: 0.009404067879245399
Epoch: 11200, Error: 0.00942883031895089
Epoch: 11300, Error: 0.00936037814953688
Epoch: 11400, Error: 0.00934858312282387
Epoch: 11500, Error: 0.009344287550105163
Epoch: 11600, Error: 0.009421161474801857
Epoch: 11700, Error: 0.009480397018923038
Epoch: 11800, Error: 0.009378979323746844
Epoch: 11900, Error: 0.009483255812266946
Epoch: 12000, Error: 0.009371543278811388
Epoch: 12100, Error: 0.009328813020100017
Epoch: 12200, Error: 0.00938097102946784
Epoch: 12300, Error: 0.009552915538407683
Epoch: 12400, Error: 0.009331608049732255
Epoch: 12500, Error: 0.009354075562697068
Epoch: 12600, Error: 0.009320375452636023
Epoch: 12700, Error: 0.009319799533170504
Epoch: 12800, Error: 0.009305462782346998
Epoch: 12900, Error: 0.009489043626966311
Epoch: 13000, Error: 0.009320929474100521
Epoch: 13100, Error: 0.009327622050117354
Epoch: 13200, Error: 0.009346530772666293
Epoch: 13300, Error: 0.009469763045032357
Epoch: 13400, Error: 0.009326045425268124
Epoch: 13500, Error: 0.009297462361166024
Epoch: 13600, Error: 0.009344915495522804
Epoch: 13700, Error: 0.009365244279435284
Epoch: 13800, Error: 0.00947458152379929
Epoch: 13900, Error: 0.009341918426968581
Epoch: 14000, Error: 0.009278984896294822
Epoch: 14100, Error: 0.0094476538968368
Epoch: 14200, Error: 0.009359845109851701
Epoch: 14300, Error: 0.009298410951138012
Epoch: 14400, Error: 0.009391759018657863
Epoch: 14500, Error: 0.009274966472040552
Epoch: 14600, Error: 0.009257398052007667
Epoch: 14700, Error: 0.009421905766740976
Epoch: 14800, Error: 0.009271409750573396
Epoch: 14900, Error: 0.009250103226473134
Epoch: 15000, Error: 0.00940430214346152
Epoch: 15100, Error: 0.009273922620570403
Epoch: 15200, Error: 0.009252029719559386
Epoch: 15300, Error: 0.00929109789787157
Epoch: 15400, Error: 0.009247726651341222
Epoch: 15500, Error: 0.009263085808974553
Epoch: 15600, Error: 0.009267829892516025
Epoch: 15700, Error: 0.009424691296372183
Epoch: 15800, Error: 0.009272236088648654
Epoch: 15900, Error: 0.00930099835500708
Epoch: 16000, Error: 0.009204744888984918
Epoch: 16100, Error: 0.009373541574492161
Epoch: 16200, Error: 0.009211298900523118
Epoch: 16300, Error: 0.00926197757279724
Epoch: 16400, Error: 0.00919542674135827
Epoch: 16500, Error: 0.009369378609037735
Epoch: 16600, Error: 0.009203199361133016
Epoch: 16700, Error: 0.009198461085644451
Epoch: 16800, Error: 0.009190349756482695
Epoch: 16900, Error: 0.009366752618661886
Epoch: 17000, Error: 0.009179802889933248
Epoch: 17100, Error: 0.009355397157583665
Epoch: 17200, Error: 0.009167721708063568
Epoch: 17300, Error: 0.0092106038391966
Epoch: 17400, Error: 0.009160922724623472
Epoch: 17500, Error: 0.009172374926080055
Epoch: 17600, Error: 0.009224791515177392
Epoch: 17700, Error: 0.009208354355761568
Epoch: 17800, Error: 0.009270310735804862
Epoch: 17900, Error: 0.009205937804367445
Epoch: 18000, Error: 0.009171669465338773
Epoch: 18100, Error: 0.009181988654072628
Epoch: 18200, Error: 0.00915443215260629
Epoch: 18300, Error: 0.009185805378205184
Epoch: 18400, Error: 0.009160975012411816
Epoch: 18500, Error: 0.00916590123855177
Epoch: 18600, Error: 0.009139218194984516
Epoch: 18700, Error: 0.009201296210810478
Epoch: 18800, Error: 0.009157915176725451
Epoch: 18900, Error: 0.00914511897159749
Epoch: 19000, Error: 0.009232799222880358
Epoch: 19100, Error: 0.009185258000005636
Epoch: 19200, Error: 0.009136127432250903
Epoch: 19300, Error: 0.009168609467373004
Epoch: 19400, Error: 0.009155237990063748
Epoch: 19500, Error: 0.009191153904099756
Epoch: 19600, Error: 0.00911662232448083
Epoch: 19700, Error: 0.009224545923112596
Epoch: 19800, Error: 0.009132437899764473
Epoch: 19900, Error: 0.009127278845531717
Epoch: 20000, Error: 0.009127915481688613
Epoch: 20100, Error: 0.009122054637664434
Epoch: 20200, Error: 0.009129535317330547
Epoch: 20300, Error: 0.009347139625390733
Epoch: 20400, Error: 0.009353613127246934
Epoch: 20500, Error: 0.009133600979428974
Epoch: 20600, Error: 0.009227796412742038
Epoch: 20700, Error: 0.009125680696203682
Epoch: 20800, Error: 0.009128095036770298
Epoch: 20900, Error: 0.009136321511748155
Epoch: 21000, Error: 0.009124788308165002
Epoch: 21100, Error: 0.009115711889805532
Epoch: 21200, Error: 0.00918224419907476
Epoch: 21300, Error: 0.009086088682023102
Epoch: 21400, Error: 0.009282827854781147
Epoch: 21500, Error: 0.00927127682218286
Epoch: 21600, Error: 0.009301061040485987
Epoch: 21700, Error: 0.00908507538563902
Epoch: 21800, Error: 0.009061482478595161
Epoch: 21900, Error: 0.009175852335762442
Epoch: 22000, Error: 0.009124037628974358
Epoch: 22100, Error: 0.009115547287151008
Epoch: 22200, Error: 0.009032636051539264
Epoch: 22300, Error: 0.009061307451428318
Epoch: 22400, Error: 0.008993982562183454
Epoch: 22500, Error: 0.008986890594019109
Epoch: 22600, Error: 0.009072364054926797
Epoch: 22700, Error: 0.009091177867087723
Epoch: 22800, Error: 0.009096829798806095
Epoch: 22900, Error: 0.008911470807640381
Epoch: 23000, Error: 0.00895620731088465
Epoch: 23100, Error: 0.008956169306916667
Epoch: 23200, Error: 0.008946830947170477
Epoch: 23300, Error: 0.008444580890712523
Epoch: 23400, Error: 0.007351540225262612
Epoch: 23500, Error: 0.008299873547741301
Epoch: 23600, Error: 0.005900961940309881
Epoch: 23700, Error: 0.005751761598894606
Epoch: 23800, Error: 0.005588122272949672
Epoch: 23900, Error: 0.005530283984628216
Epoch: 24000, Error: 0.005505635117759002
Epoch: 24100, Error: 0.005456388584401616
Epoch: 24200, Error: 0.005457900016803953
Epoch: 24300, Error: 0.005437717182819655
Epoch: 24400, Error: 0.005441355172900358
Epoch: 24500, Error: 0.005413559953888031
Epoch: 24600, Error: 0.005412479167398724
Epoch: 24700, Error: 0.005408054807066546
Epoch: 24800, Error: 0.005396523639778771
Epoch: 24900, Error: 0.005405654998970785
Epoch: 25000, Error: 0.005393308514403599
Epoch: 25100, Error: 0.0053790593911505966
finished
