Input Patterns
0.224 0.624 0.067 0.043 
0.11 0.502 0.051 0.043 
0.196 0.667 0.067 0.043 
0.055 0.584 0.067 0.082 
0.027 0.376 0.067 0.043 
0.306 0.71 0.086 0.043 
0.137 0.416 0.067 0.0 
0.416 0.831 0.035 0.043 
0.306 0.792 0.051 0.125 
0.388 0.749 0.118 0.082 
0.306 0.584 0.118 0.043 
0.082 0.667 0.0 0.043 
0.137 0.584 0.153 0.043 
0.196 0.584 0.102 0.125 
0.251 0.584 0.067 0.043 
0.137 0.459 0.102 0.043 
0.251 0.875 0.086 0.0 
0.165 0.459 0.086 0.043 
0.333 0.624 0.051 0.043 
0.027 0.416 0.051 0.043 
0.196 0.624 0.051 0.082 
0.027 0.502 0.051 0.043 
0.224 0.749 0.153 0.125 
0.224 0.749 0.102 0.043 
0.278 0.71 0.086 0.043 
0.165 0.416 0.067 0.043 
0.082 0.459 0.086 0.043 
0.306 0.792 0.118 0.125 
0.196 0.584 0.086 0.043 
0.165 0.459 0.086 0.0 
0.137 0.584 0.102 0.043 
0.0 0.416 0.016 0.0 
0.388 1.0 0.086 0.125 
0.224 0.624 0.067 0.082 
0.224 0.749 0.086 0.082 
0.224 0.71 0.086 0.125 
0.224 0.541 0.118 0.165 
0.196 0.416 0.102 0.043 
0.251 0.624 0.086 0.043 
0.11 0.502 0.102 0.043 
0.306 0.584 0.086 0.125 
0.333 0.918 0.067 0.043 
0.196 0.502 0.035 0.043 
0.165 0.667 0.067 0.0 
0.224 0.584 0.086 0.043 
0.055 0.125 0.051 0.082 
0.196 0.624 0.102 0.208 
0.137 0.416 0.067 0.082 
0.082 0.502 0.067 0.043 
0.196 0.541 0.067 0.043 
0.749 0.502 0.627 0.541 
0.722 0.459 0.663 0.584 
0.612 0.333 0.612 0.584 
0.557 0.541 0.627 0.624 
0.639 0.376 0.612 0.498 
0.196 0.0 0.424 0.376 
0.471 0.082 0.51 0.376 
0.361 0.376 0.439 0.498 
0.361 0.416 0.592 0.584 
0.529 0.082 0.592 0.584 
0.443 0.502 0.643 0.459 
0.557 0.208 0.663 0.584 
0.584 0.376 0.561 0.498 
0.694 0.333 0.643 0.541 
0.471 0.376 0.592 0.584 
0.333 0.169 0.475 0.416 
0.416 0.29 0.49 0.459 
0.306 0.416 0.592 0.584 
0.667 0.459 0.627 0.584 
0.361 0.416 0.525 0.498 
0.333 0.251 0.576 0.459 
0.416 0.251 0.51 0.459 
0.361 0.29 0.541 0.498 
0.388 0.376 0.541 0.498 
0.224 0.208 0.337 0.416 
0.584 0.502 0.592 0.584 
0.333 0.125 0.51 0.498 
0.388 0.333 0.592 0.498 
0.165 0.169 0.388 0.376 
0.251 0.29 0.49 0.541 
0.443 0.416 0.541 0.584 
0.498 0.376 0.627 0.541 
0.667 0.459 0.576 0.541 
0.416 0.29 0.525 0.376 
0.361 0.208 0.49 0.416 
0.498 0.333 0.51 0.498 
0.498 0.333 0.627 0.459 
0.639 0.416 0.576 0.541 
0.667 0.416 0.678 0.667 
0.388 0.251 0.424 0.376 
0.333 0.169 0.459 0.376 
0.471 0.29 0.694 0.624 
0.471 0.584 0.592 0.624 
0.557 0.125 0.576 0.498 
0.333 0.208 0.51 0.498 
0.498 0.416 0.612 0.541 
0.196 0.125 0.388 0.376 
0.388 0.416 0.541 0.459 
0.529 0.376 0.561 0.498 
0.388 0.333 0.525 0.498 
0.557 0.541 0.847 1.0 
0.776 0.416 0.831 0.831 
0.612 0.416 0.812 0.875 
0.165 0.208 0.592 0.667 
0.667 0.208 0.812 0.71 
0.612 0.502 0.694 0.792 
0.694 0.416 0.761 0.831 
0.416 0.333 0.694 0.957 
0.612 0.416 0.761 0.71 
0.945 0.251 1.0 0.918 
0.722 0.502 0.796 0.918 
0.945 0.333 0.965 0.792 
0.667 0.541 0.796 0.831 
0.529 0.333 0.643 0.71 
0.584 0.333 0.78 0.831 
0.863 0.333 0.863 0.749 
0.584 0.333 0.78 0.875 
0.498 0.251 0.78 0.541 
0.557 0.584 0.78 0.957 
0.471 0.416 0.643 0.71 
0.667 0.459 0.78 0.957 
0.416 0.29 0.694 0.749 
0.667 0.541 0.796 1.0 
0.557 0.208 0.678 0.749 
0.529 0.584 0.745 0.918 
0.416 0.29 0.694 0.749 
0.557 0.376 0.78 0.71 
0.918 0.416 0.949 0.831 
0.835 0.376 0.898 0.71 
0.804 0.667 0.863 1.0 
0.584 0.29 0.729 0.749 
0.388 0.208 0.678 0.792 
0.584 0.502 0.729 0.918 
0.945 0.749 0.965 0.875 
0.471 0.082 0.678 0.584 
0.361 0.333 0.663 0.792 
0.557 0.29 0.663 0.71 
0.804 0.502 0.847 0.71 
0.498 0.416 0.51 0.71 
0.804 0.416 0.812 0.624 
1.0 0.749 0.914 0.792 
0.557 0.333 0.694 0.584 
0.945 0.416 0.863 0.918 
0.584 0.459 0.761 0.71 
0.722 0.459 0.745 0.831 
0.722 0.459 0.694 0.918 
0.694 0.502 0.831 0.918 
0.667 0.416 0.714 0.918 
0.612 0.416 0.714 0.792 
0.443 0.416 0.694 0.71 
Teaching Patterns
1.0 0.0 0.0 
1.0 0.0 0.0 
1.0 0.0 0.0 
1.0 0.0 0.0 
1.0 0.0 0.0 
1.0 0.0 0.0 
1.0 0.0 0.0 
1.0 0.0 0.0 
1.0 0.0 0.0 
1.0 0.0 0.0 
1.0 0.0 0.0 
1.0 0.0 0.0 
1.0 0.0 0.0 
1.0 0.0 0.0 
1.0 0.0 0.0 
1.0 0.0 0.0 
1.0 0.0 0.0 
1.0 0.0 0.0 
1.0 0.0 0.0 
1.0 0.0 0.0 
1.0 0.0 0.0 
1.0 0.0 0.0 
1.0 0.0 0.0 
1.0 0.0 0.0 
1.0 0.0 0.0 
1.0 0.0 0.0 
1.0 0.0 0.0 
1.0 0.0 0.0 
1.0 0.0 0.0 
1.0 0.0 0.0 
1.0 0.0 0.0 
1.0 0.0 0.0 
1.0 0.0 0.0 
1.0 0.0 0.0 
1.0 0.0 0.0 
1.0 0.0 0.0 
1.0 0.0 0.0 
1.0 0.0 0.0 
1.0 0.0 0.0 
1.0 0.0 0.0 
1.0 0.0 0.0 
1.0 0.0 0.0 
1.0 0.0 0.0 
1.0 0.0 0.0 
1.0 0.0 0.0 
1.0 0.0 0.0 
1.0 0.0 0.0 
1.0 0.0 0.0 
1.0 0.0 0.0 
1.0 0.0 0.0 
0.0 1.0 0.0 
0.0 1.0 0.0 
0.0 1.0 0.0 
0.0 1.0 0.0 
0.0 1.0 0.0 
0.0 1.0 0.0 
0.0 1.0 0.0 
0.0 1.0 0.0 
0.0 1.0 0.0 
0.0 1.0 0.0 
0.0 1.0 0.0 
0.0 1.0 0.0 
0.0 1.0 0.0 
0.0 1.0 0.0 
0.0 1.0 0.0 
0.0 1.0 0.0 
0.0 1.0 0.0 
0.0 1.0 0.0 
0.0 1.0 0.0 
0.0 1.0 0.0 
0.0 1.0 0.0 
0.0 1.0 0.0 
0.0 1.0 0.0 
0.0 1.0 0.0 
0.0 1.0 0.0 
0.0 1.0 0.0 
0.0 1.0 0.0 
0.0 1.0 0.0 
0.0 1.0 0.0 
0.0 1.0 0.0 
0.0 1.0 0.0 
0.0 1.0 0.0 
0.0 1.0 0.0 
0.0 1.0 0.0 
0.0 1.0 0.0 
0.0 1.0 0.0 
0.0 1.0 0.0 
0.0 1.0 0.0 
0.0 1.0 0.0 
0.0 1.0 0.0 
0.0 1.0 0.0 
0.0 1.0 0.0 
0.0 1.0 0.0 
0.0 1.0 0.0 
0.0 1.0 0.0 
0.0 1.0 0.0 
0.0 1.0 0.0 
0.0 1.0 0.0 
0.0 1.0 0.0 
0.0 1.0 0.0 
0.0 0.0 1.0 
0.0 0.0 1.0 
0.0 0.0 1.0 
0.0 0.0 1.0 
0.0 0.0 1.0 
0.0 0.0 1.0 
0.0 0.0 1.0 
0.0 0.0 1.0 
0.0 0.0 1.0 
0.0 0.0 1.0 
0.0 0.0 1.0 
0.0 0.0 1.0 
0.0 0.0 1.0 
0.0 0.0 1.0 
0.0 0.0 1.0 
0.0 0.0 1.0 
0.0 0.0 1.0 
0.0 0.0 1.0 
0.0 0.0 1.0 
0.0 0.0 1.0 
0.0 0.0 1.0 
0.0 0.0 1.0 
0.0 0.0 1.0 
0.0 0.0 1.0 
0.0 0.0 1.0 
0.0 0.0 1.0 
0.0 0.0 1.0 
0.0 0.0 1.0 
0.0 0.0 1.0 
0.0 0.0 1.0 
0.0 0.0 1.0 
0.0 0.0 1.0 
0.0 0.0 1.0 
0.0 0.0 1.0 
0.0 0.0 1.0 
0.0 0.0 1.0 
0.0 0.0 1.0 
0.0 0.0 1.0 
0.0 0.0 1.0 
0.0 0.0 1.0 
0.0 0.0 1.0 
0.0 0.0 1.0 
0.0 0.0 1.0 
0.0 0.0 1.0 
0.0 0.0 1.0 
0.0 0.0 1.0 
0.0 0.0 1.0 
0.0 0.0 1.0 
0.0 0.0 1.0 
0.0 0.0 1.0 
Learning : 0.15000000596046448
Momentum : 0.9
Epoch: 100, Error: 0.01649499321927136
Epoch: 200, Error: 0.013976150420226882
Epoch: 300, Error: 0.014594072597678493
Epoch: 400, Error: 0.013881115716705198
Epoch: 500, Error: 0.012829662427786007
Epoch: 600, Error: 0.012914162926507473
Epoch: 700, Error: 0.012651738424472285
Epoch: 800, Error: 0.014013317499783367
Epoch: 900, Error: 0.012197705951840887
Epoch: 1000, Error: 0.012222250852570884
Epoch: 1100, Error: 0.01264410405733851
Epoch: 1200, Error: 0.012126256868228326
Epoch: 1300, Error: 0.012125722562819167
Epoch: 1400, Error: 0.013054781949613646
Epoch: 1500, Error: 0.013369620947955801
Epoch: 1600, Error: 0.012806851025355993
Epoch: 1700, Error: 0.012100671819243842
Epoch: 1800, Error: 0.012093574620253483
Epoch: 1900, Error: 0.012197021700495699
Epoch: 2000, Error: 0.012244824521850956
Epoch: 2100, Error: 0.01200244709262544
Epoch: 2200, Error: 0.012217813006245193
Epoch: 2300, Error: 0.011951632435482975
Epoch: 2400, Error: 0.0119568561230236
Epoch: 2500, Error: 0.01243645977041908
Epoch: 2600, Error: 0.011845792582944381
Epoch: 2700, Error: 0.01183358593139115
Epoch: 2800, Error: 0.0120338684192487
Epoch: 2900, Error: 0.011641763909111721
Epoch: 3000, Error: 0.011542262215468477
Epoch: 3100, Error: 0.011426280842354938
Epoch: 3200, Error: 0.011544890530671734
Epoch: 3300, Error: 0.011300450885402684
Epoch: 3400, Error: 0.011110924489415424
Epoch: 3500, Error: 0.01111887107727185
Epoch: 3600, Error: 0.010913231998256171
Epoch: 3700, Error: 0.010700276590956206
Epoch: 3800, Error: 0.010630090914329928
Epoch: 3900, Error: 0.010390641836436981
Epoch: 4000, Error: 0.010195662922478057
Epoch: 4100, Error: 0.010004217543148862
Epoch: 4200, Error: 0.009811334641750376
Epoch: 4300, Error: 0.009633217826142246
Epoch: 4400, Error: 0.009338167686651074
Epoch: 4500, Error: 0.009183989040176192
Epoch: 4600, Error: 0.00916031201331394
Epoch: 4700, Error: 0.008619799203247958
Epoch: 4800, Error: 0.008351294444576357
Epoch: 4900, Error: 0.008264831591117853
Epoch: 5000, Error: 0.007890799385319232
Epoch: 5100, Error: 0.007670216128367242
Epoch: 5200, Error: 0.007421014507500931
Epoch: 5300, Error: 0.0073160871957846756
Epoch: 5400, Error: 0.007106707245810533
Epoch: 5500, Error: 0.0070793791525541674
Epoch: 5600, Error: 0.0067284723597780816
Epoch: 5700, Error: 0.006665316652839857
Epoch: 5800, Error: 0.006487362702030796
Epoch: 5900, Error: 0.006407780818339422
Epoch: 6000, Error: 0.0062728882676829
Epoch: 6100, Error: 0.006213077046177152
Epoch: 6200, Error: 0.006077363557360404
Epoch: 6300, Error: 0.006067201561068329
Epoch: 6400, Error: 0.0059527141468815855
Epoch: 6500, Error: 0.0059063420789682965
Epoch: 6600, Error: 0.005855349811669561
Epoch: 6700, Error: 0.00591893618650836
Epoch: 6800, Error: 0.005779231537536647
Epoch: 6900, Error: 0.005823559400287625
Epoch: 7000, Error: 0.005697638044682033
Epoch: 7100, Error: 0.005672347134550567
Epoch: 7200, Error: 0.005725917546460418
Epoch: 7300, Error: 0.005701395466068123
Epoch: 7400, Error: 0.005683231651561656
Epoch: 7500, Error: 0.005699557918432246
Epoch: 7600, Error: 0.005732659022021062
Epoch: 7700, Error: 0.005685630318571696
Epoch: 7800, Error: 0.005687499437808469
Epoch: 7900, Error: 0.005720977696365299
Epoch: 8000, Error: 0.00567691281817375
Epoch: 8100, Error: 0.00567446020245766
Epoch: 8200, Error: 0.005656530608244962
Epoch: 8300, Error: 0.005637854142241313
Epoch: 8400, Error: 0.005659005942833159
Epoch: 8500, Error: 0.005679871351632777
Epoch: 8600, Error: 0.005712535194461662
Epoch: 8700, Error: 0.005651696785715318
Epoch: 8800, Error: 0.005661625714911584
Epoch: 8900, Error: 0.005639743330976635
Epoch: 9000, Error: 0.005637226856240429
Epoch: 9100, Error: 0.005662737251210135
Epoch: 9200, Error: 0.005641941498435616
Epoch: 9300, Error: 0.0056723552016597414
Epoch: 9400, Error: 0.005630380916194879
Epoch: 9500, Error: 0.005655018660091334
Epoch: 9600, Error: 0.005623826533292265
Epoch: 9700, Error: 0.005611051413791129
Epoch: 9800, Error: 0.005640621987432006
Epoch: 9900, Error: 0.005674766844995695
Epoch: 10000, Error: 0.005646993280041183
Epoch: 10100, Error: 0.005702657366787079
Epoch: 10200, Error: 0.005759301838853519
Epoch: 10300, Error: 0.005725121644797944
Epoch: 10400, Error: 0.005711090816146753
Epoch: 10500, Error: 0.005753209869028067
Epoch: 10600, Error: 0.005747920379907079
Epoch: 10700, Error: 0.005726595456501254
Epoch: 10800, Error: 0.005710475376016939
Epoch: 10900, Error: 0.005747041544209853
Epoch: 11000, Error: 0.005714188505784722
Epoch: 11100, Error: 0.005691247385104619
finished
