Input Patterns
0.224 0.624 0.067 0.043 
0.11 0.502 0.051 0.043 
0.196 0.667 0.067 0.043 
0.055 0.584 0.067 0.082 
0.027 0.376 0.067 0.043 
0.306 0.71 0.086 0.043 
0.137 0.416 0.067 0.0 
0.416 0.831 0.035 0.043 
0.306 0.792 0.051 0.125 
0.388 0.749 0.118 0.082 
0.306 0.584 0.118 0.043 
0.082 0.667 0.0 0.043 
0.137 0.584 0.153 0.043 
0.196 0.584 0.102 0.125 
0.251 0.584 0.067 0.043 
0.137 0.459 0.102 0.043 
0.251 0.875 0.086 0.0 
0.165 0.459 0.086 0.043 
0.333 0.624 0.051 0.043 
0.027 0.416 0.051 0.043 
0.196 0.624 0.051 0.082 
0.027 0.502 0.051 0.043 
0.224 0.749 0.153 0.125 
0.224 0.749 0.102 0.043 
0.278 0.71 0.086 0.043 
0.165 0.416 0.067 0.043 
0.082 0.459 0.086 0.043 
0.306 0.792 0.118 0.125 
0.196 0.584 0.086 0.043 
0.165 0.459 0.086 0.0 
0.137 0.584 0.102 0.043 
0.0 0.416 0.016 0.0 
0.388 1.0 0.086 0.125 
0.224 0.624 0.067 0.082 
0.224 0.749 0.086 0.082 
0.224 0.71 0.086 0.125 
0.224 0.541 0.118 0.165 
0.196 0.416 0.102 0.043 
0.251 0.624 0.086 0.043 
0.11 0.502 0.102 0.043 
0.306 0.584 0.086 0.125 
0.333 0.918 0.067 0.043 
0.196 0.502 0.035 0.043 
0.165 0.667 0.067 0.0 
0.224 0.584 0.086 0.043 
0.055 0.125 0.051 0.082 
0.196 0.624 0.102 0.208 
0.137 0.416 0.067 0.082 
0.082 0.502 0.067 0.043 
0.196 0.541 0.067 0.043 
0.749 0.502 0.627 0.541 
0.722 0.459 0.663 0.584 
0.612 0.333 0.612 0.584 
0.557 0.541 0.627 0.624 
0.639 0.376 0.612 0.498 
0.196 0.0 0.424 0.376 
0.471 0.082 0.51 0.376 
0.361 0.376 0.439 0.498 
0.361 0.416 0.592 0.584 
0.529 0.082 0.592 0.584 
0.443 0.502 0.643 0.459 
0.557 0.208 0.663 0.584 
0.584 0.376 0.561 0.498 
0.694 0.333 0.643 0.541 
0.471 0.376 0.592 0.584 
0.333 0.169 0.475 0.416 
0.416 0.29 0.49 0.459 
0.306 0.416 0.592 0.584 
0.667 0.459 0.627 0.584 
0.361 0.416 0.525 0.498 
0.333 0.251 0.576 0.459 
0.416 0.251 0.51 0.459 
0.361 0.29 0.541 0.498 
0.388 0.376 0.541 0.498 
0.224 0.208 0.337 0.416 
0.584 0.502 0.592 0.584 
0.333 0.125 0.51 0.498 
0.388 0.333 0.592 0.498 
0.165 0.169 0.388 0.376 
0.251 0.29 0.49 0.541 
0.443 0.416 0.541 0.584 
0.498 0.376 0.627 0.541 
0.667 0.459 0.576 0.541 
0.416 0.29 0.525 0.376 
0.361 0.208 0.49 0.416 
0.498 0.333 0.51 0.498 
0.498 0.333 0.627 0.459 
0.639 0.416 0.576 0.541 
0.667 0.416 0.678 0.667 
0.388 0.251 0.424 0.376 
0.333 0.169 0.459 0.376 
0.471 0.29 0.694 0.624 
0.471 0.584 0.592 0.624 
0.557 0.125 0.576 0.498 
0.333 0.208 0.51 0.498 
0.498 0.416 0.612 0.541 
0.196 0.125 0.388 0.376 
0.388 0.416 0.541 0.459 
0.529 0.376 0.561 0.498 
0.388 0.333 0.525 0.498 
0.557 0.541 0.847 1.0 
0.776 0.416 0.831 0.831 
0.612 0.416 0.812 0.875 
0.165 0.208 0.592 0.667 
0.667 0.208 0.812 0.71 
0.612 0.502 0.694 0.792 
0.694 0.416 0.761 0.831 
0.416 0.333 0.694 0.957 
0.612 0.416 0.761 0.71 
0.945 0.251 1.0 0.918 
0.722 0.502 0.796 0.918 
0.945 0.333 0.965 0.792 
0.667 0.541 0.796 0.831 
0.529 0.333 0.643 0.71 
0.584 0.333 0.78 0.831 
0.863 0.333 0.863 0.749 
0.584 0.333 0.78 0.875 
0.498 0.251 0.78 0.541 
0.557 0.584 0.78 0.957 
0.471 0.416 0.643 0.71 
0.667 0.459 0.78 0.957 
0.416 0.29 0.694 0.749 
0.667 0.541 0.796 1.0 
0.557 0.208 0.678 0.749 
0.529 0.584 0.745 0.918 
0.416 0.29 0.694 0.749 
0.557 0.376 0.78 0.71 
0.918 0.416 0.949 0.831 
0.835 0.376 0.898 0.71 
0.804 0.667 0.863 1.0 
0.584 0.29 0.729 0.749 
0.388 0.208 0.678 0.792 
0.584 0.502 0.729 0.918 
0.945 0.749 0.965 0.875 
0.471 0.082 0.678 0.584 
0.361 0.333 0.663 0.792 
0.557 0.29 0.663 0.71 
0.804 0.502 0.847 0.71 
0.498 0.416 0.51 0.71 
0.804 0.416 0.812 0.624 
1.0 0.749 0.914 0.792 
0.557 0.333 0.694 0.584 
0.945 0.416 0.863 0.918 
0.584 0.459 0.761 0.71 
0.722 0.459 0.745 0.831 
0.722 0.459 0.694 0.918 
0.694 0.502 0.831 0.918 
0.667 0.416 0.714 0.918 
0.612 0.416 0.714 0.792 
0.443 0.416 0.694 0.71 
Teaching Patterns
1.0 0.0 0.0 
1.0 0.0 0.0 
1.0 0.0 0.0 
1.0 0.0 0.0 
1.0 0.0 0.0 
1.0 0.0 0.0 
1.0 0.0 0.0 
1.0 0.0 0.0 
1.0 0.0 0.0 
1.0 0.0 0.0 
1.0 0.0 0.0 
1.0 0.0 0.0 
1.0 0.0 0.0 
1.0 0.0 0.0 
1.0 0.0 0.0 
1.0 0.0 0.0 
1.0 0.0 0.0 
1.0 0.0 0.0 
1.0 0.0 0.0 
1.0 0.0 0.0 
1.0 0.0 0.0 
1.0 0.0 0.0 
1.0 0.0 0.0 
1.0 0.0 0.0 
1.0 0.0 0.0 
1.0 0.0 0.0 
1.0 0.0 0.0 
1.0 0.0 0.0 
1.0 0.0 0.0 
1.0 0.0 0.0 
1.0 0.0 0.0 
1.0 0.0 0.0 
1.0 0.0 0.0 
1.0 0.0 0.0 
1.0 0.0 0.0 
1.0 0.0 0.0 
1.0 0.0 0.0 
1.0 0.0 0.0 
1.0 0.0 0.0 
1.0 0.0 0.0 
1.0 0.0 0.0 
1.0 0.0 0.0 
1.0 0.0 0.0 
1.0 0.0 0.0 
1.0 0.0 0.0 
1.0 0.0 0.0 
1.0 0.0 0.0 
1.0 0.0 0.0 
1.0 0.0 0.0 
1.0 0.0 0.0 
0.0 1.0 0.0 
0.0 1.0 0.0 
0.0 1.0 0.0 
0.0 1.0 0.0 
0.0 1.0 0.0 
0.0 1.0 0.0 
0.0 1.0 0.0 
0.0 1.0 0.0 
0.0 1.0 0.0 
0.0 1.0 0.0 
0.0 1.0 0.0 
0.0 1.0 0.0 
0.0 1.0 0.0 
0.0 1.0 0.0 
0.0 1.0 0.0 
0.0 1.0 0.0 
0.0 1.0 0.0 
0.0 1.0 0.0 
0.0 1.0 0.0 
0.0 1.0 0.0 
0.0 1.0 0.0 
0.0 1.0 0.0 
0.0 1.0 0.0 
0.0 1.0 0.0 
0.0 1.0 0.0 
0.0 1.0 0.0 
0.0 1.0 0.0 
0.0 1.0 0.0 
0.0 1.0 0.0 
0.0 1.0 0.0 
0.0 1.0 0.0 
0.0 1.0 0.0 
0.0 1.0 0.0 
0.0 1.0 0.0 
0.0 1.0 0.0 
0.0 1.0 0.0 
0.0 1.0 0.0 
0.0 1.0 0.0 
0.0 1.0 0.0 
0.0 1.0 0.0 
0.0 1.0 0.0 
0.0 1.0 0.0 
0.0 1.0 0.0 
0.0 1.0 0.0 
0.0 1.0 0.0 
0.0 1.0 0.0 
0.0 1.0 0.0 
0.0 1.0 0.0 
0.0 1.0 0.0 
0.0 1.0 0.0 
0.0 0.0 1.0 
0.0 0.0 1.0 
0.0 0.0 1.0 
0.0 0.0 1.0 
0.0 0.0 1.0 
0.0 0.0 1.0 
0.0 0.0 1.0 
0.0 0.0 1.0 
0.0 0.0 1.0 
0.0 0.0 1.0 
0.0 0.0 1.0 
0.0 0.0 1.0 
0.0 0.0 1.0 
0.0 0.0 1.0 
0.0 0.0 1.0 
0.0 0.0 1.0 
0.0 0.0 1.0 
0.0 0.0 1.0 
0.0 0.0 1.0 
0.0 0.0 1.0 
0.0 0.0 1.0 
0.0 0.0 1.0 
0.0 0.0 1.0 
0.0 0.0 1.0 
0.0 0.0 1.0 
0.0 0.0 1.0 
0.0 0.0 1.0 
0.0 0.0 1.0 
0.0 0.0 1.0 
0.0 0.0 1.0 
0.0 0.0 1.0 
0.0 0.0 1.0 
0.0 0.0 1.0 
0.0 0.0 1.0 
0.0 0.0 1.0 
0.0 0.0 1.0 
0.0 0.0 1.0 
0.0 0.0 1.0 
0.0 0.0 1.0 
0.0 0.0 1.0 
0.0 0.0 1.0 
0.0 0.0 1.0 
0.0 0.0 1.0 
0.0 0.0 1.0 
0.0 0.0 1.0 
0.0 0.0 1.0 
0.0 0.0 1.0 
0.0 0.0 1.0 
0.0 0.0 1.0 
0.0 0.0 1.0 
Learning : 0.15000000596046448
Momentum : 0.9
Epoch: 100, Error: 0.015632278538935538
Epoch: 200, Error: 0.013420865772184308
Epoch: 300, Error: 0.014475852145514787
Epoch: 400, Error: 0.013330777865177413
Epoch: 500, Error: 0.01228042418890466
Epoch: 600, Error: 0.01210576798357628
Epoch: 700, Error: 0.012411130168055371
Epoch: 800, Error: 0.013127629873476486
Epoch: 900, Error: 0.012103201924467765
Epoch: 1000, Error: 0.011852465051325414
Epoch: 1100, Error: 0.012123979360148994
Epoch: 1200, Error: 0.012049919503149507
Epoch: 1300, Error: 0.011766661096827532
Epoch: 1400, Error: 0.012317166650535064
Epoch: 1500, Error: 0.011848668366987739
Epoch: 1600, Error: 0.011736590382899783
Epoch: 1700, Error: 0.012217803189357966
Epoch: 1800, Error: 0.011545800748361647
Epoch: 1900, Error: 0.011665383672394716
Epoch: 2000, Error: 0.011525921716963344
Epoch: 2100, Error: 0.011859976445005506
Epoch: 2200, Error: 0.011859256470450663
Epoch: 2300, Error: 0.011439147970447486
Epoch: 2400, Error: 0.011438038191440753
Epoch: 2500, Error: 0.011468661020222046
Epoch: 2600, Error: 0.011675170365818116
Epoch: 2700, Error: 0.011129950906690257
Epoch: 2800, Error: 0.011063775053717006
Epoch: 2900, Error: 0.012026620335882057
Epoch: 3000, Error: 0.011486171790249236
Epoch: 3100, Error: 0.010736406720552812
Epoch: 3200, Error: 0.010937590132137858
Epoch: 3300, Error: 0.01098710465174228
Epoch: 3400, Error: 0.01078160875876155
Epoch: 3500, Error: 0.01020029411313143
Epoch: 3600, Error: 0.009912836396622117
Epoch: 3700, Error: 0.009669154251587566
Epoch: 3800, Error: 0.009494477821463393
Epoch: 3900, Error: 0.009531182138396035
Epoch: 4000, Error: 0.009072940998349458
Epoch: 4100, Error: 0.008669598539582966
Epoch: 4200, Error: 0.008675723011923007
Epoch: 4300, Error: 0.008256002056899813
Epoch: 4400, Error: 0.007927322546012755
Epoch: 4500, Error: 0.007767335542789805
Epoch: 4600, Error: 0.007365838635071911
Epoch: 4700, Error: 0.007109347535166782
Epoch: 4800, Error: 0.006908622594122465
Epoch: 4900, Error: 0.006758481036569393
Epoch: 5000, Error: 0.0073712020080560926
Epoch: 5100, Error: 0.006443500294250483
Epoch: 5200, Error: 0.006307147672337527
Epoch: 5300, Error: 0.006316709566940611
Epoch: 5400, Error: 0.006101838678959664
Epoch: 5500, Error: 0.006164005129871824
Epoch: 5600, Error: 0.005901403489729355
Epoch: 5700, Error: 0.005908689809982802
Epoch: 5800, Error: 0.005772474472743174
Epoch: 5900, Error: 0.00574929406300971
Epoch: 6000, Error: 0.005859470070836474
Epoch: 6100, Error: 0.005638722478871491
Epoch: 6200, Error: 0.005626870148941161
Epoch: 6300, Error: 0.005542956490774499
Epoch: 6400, Error: 0.005521483739159417
Epoch: 6500, Error: 0.005521109156358833
Epoch: 6600, Error: 0.005574492645644438
Epoch: 6700, Error: 0.005461481316011974
Epoch: 6800, Error: 0.005445158859268864
Epoch: 6900, Error: 0.005481003415073817
Epoch: 7000, Error: 0.005480424935537242
Epoch: 7100, Error: 0.005492597106602825
Epoch: 7200, Error: 0.005438091291820429
Epoch: 7300, Error: 0.005507526180891546
Epoch: 7400, Error: 0.005491542229731265
Epoch: 7500, Error: 0.005543425401898867
Epoch: 7600, Error: 0.005576606500140157
Epoch: 7700, Error: 0.005522913526634339
Epoch: 7800, Error: 0.0055259825774531595
Epoch: 7900, Error: 0.005561586865479009
Epoch: 8000, Error: 0.005512393359727776
Epoch: 8100, Error: 0.005545118695441236
Epoch: 8200, Error: 0.005483767628807271
Epoch: 8300, Error: 0.005498254457999483
Epoch: 8400, Error: 0.0054646881689012355
Epoch: 8500, Error: 0.005440361578010397
Epoch: 8600, Error: 0.005421144594876864
Epoch: 8700, Error: 0.005437647581297938
Epoch: 8800, Error: 0.005402576010589708
Epoch: 8900, Error: 0.005450368020795815
Epoch: 9000, Error: 0.005415109339284181
Epoch: 9100, Error: 0.005432234162236467
Epoch: 9200, Error: 0.005396210968529627
Epoch: 9300, Error: 0.005446989673505871
Epoch: 9400, Error: 0.005419668599383897
finished
