Input Patterns
0.224 0.624 0.067 0.043 
0.11 0.502 0.051 0.043 
0.196 0.667 0.067 0.043 
0.055 0.584 0.067 0.082 
0.027 0.376 0.067 0.043 
0.306 0.71 0.086 0.043 
0.137 0.416 0.067 0.0 
0.416 0.831 0.035 0.043 
0.306 0.792 0.051 0.125 
0.388 0.749 0.118 0.082 
0.306 0.584 0.118 0.043 
0.082 0.667 0.0 0.043 
0.137 0.584 0.153 0.043 
0.196 0.584 0.102 0.125 
0.251 0.584 0.067 0.043 
0.137 0.459 0.102 0.043 
0.251 0.875 0.086 0.0 
0.165 0.459 0.086 0.043 
0.333 0.624 0.051 0.043 
0.027 0.416 0.051 0.043 
0.196 0.624 0.051 0.082 
0.027 0.502 0.051 0.043 
0.224 0.749 0.153 0.125 
0.224 0.749 0.102 0.043 
0.278 0.71 0.086 0.043 
0.165 0.416 0.067 0.043 
0.082 0.459 0.086 0.043 
0.306 0.792 0.118 0.125 
0.196 0.584 0.086 0.043 
0.165 0.459 0.086 0.0 
0.137 0.584 0.102 0.043 
0.0 0.416 0.016 0.0 
0.388 1.0 0.086 0.125 
0.224 0.624 0.067 0.082 
0.224 0.749 0.086 0.082 
0.224 0.71 0.086 0.125 
0.224 0.541 0.118 0.165 
0.196 0.416 0.102 0.043 
0.251 0.624 0.086 0.043 
0.11 0.502 0.102 0.043 
0.306 0.584 0.086 0.125 
0.333 0.918 0.067 0.043 
0.196 0.502 0.035 0.043 
0.165 0.667 0.067 0.0 
0.224 0.584 0.086 0.043 
0.055 0.125 0.051 0.082 
0.196 0.624 0.102 0.208 
0.137 0.416 0.067 0.082 
0.082 0.502 0.067 0.043 
0.196 0.541 0.067 0.043 
0.749 0.502 0.627 0.541 
0.722 0.459 0.663 0.584 
0.612 0.333 0.612 0.584 
0.557 0.541 0.627 0.624 
0.639 0.376 0.612 0.498 
0.196 0.0 0.424 0.376 
0.471 0.082 0.51 0.376 
0.361 0.376 0.439 0.498 
0.361 0.416 0.592 0.584 
0.529 0.082 0.592 0.584 
0.443 0.502 0.643 0.459 
0.557 0.208 0.663 0.584 
0.584 0.376 0.561 0.498 
0.694 0.333 0.643 0.541 
0.471 0.376 0.592 0.584 
0.333 0.169 0.475 0.416 
0.416 0.29 0.49 0.459 
0.306 0.416 0.592 0.584 
0.667 0.459 0.627 0.584 
0.361 0.416 0.525 0.498 
0.333 0.251 0.576 0.459 
0.416 0.251 0.51 0.459 
0.361 0.29 0.541 0.498 
0.388 0.376 0.541 0.498 
0.224 0.208 0.337 0.416 
0.584 0.502 0.592 0.584 
0.333 0.125 0.51 0.498 
0.388 0.333 0.592 0.498 
0.165 0.169 0.388 0.376 
0.251 0.29 0.49 0.541 
0.443 0.416 0.541 0.584 
0.498 0.376 0.627 0.541 
0.667 0.459 0.576 0.541 
0.416 0.29 0.525 0.376 
0.361 0.208 0.49 0.416 
0.498 0.333 0.51 0.498 
0.498 0.333 0.627 0.459 
0.639 0.416 0.576 0.541 
0.667 0.416 0.678 0.667 
0.388 0.251 0.424 0.376 
0.333 0.169 0.459 0.376 
0.471 0.29 0.694 0.624 
0.471 0.584 0.592 0.624 
0.557 0.125 0.576 0.498 
0.333 0.208 0.51 0.498 
0.498 0.416 0.612 0.541 
0.196 0.125 0.388 0.376 
0.388 0.416 0.541 0.459 
0.529 0.376 0.561 0.498 
0.388 0.333 0.525 0.498 
0.557 0.541 0.847 1.0 
0.776 0.416 0.831 0.831 
0.612 0.416 0.812 0.875 
0.165 0.208 0.592 0.667 
0.667 0.208 0.812 0.71 
0.612 0.502 0.694 0.792 
0.694 0.416 0.761 0.831 
0.416 0.333 0.694 0.957 
0.612 0.416 0.761 0.71 
0.945 0.251 1.0 0.918 
0.722 0.502 0.796 0.918 
0.945 0.333 0.965 0.792 
0.667 0.541 0.796 0.831 
0.529 0.333 0.643 0.71 
0.584 0.333 0.78 0.831 
0.863 0.333 0.863 0.749 
0.584 0.333 0.78 0.875 
0.498 0.251 0.78 0.541 
0.557 0.584 0.78 0.957 
0.471 0.416 0.643 0.71 
0.667 0.459 0.78 0.957 
0.416 0.29 0.694 0.749 
0.667 0.541 0.796 1.0 
0.557 0.208 0.678 0.749 
0.529 0.584 0.745 0.918 
0.416 0.29 0.694 0.749 
0.557 0.376 0.78 0.71 
0.918 0.416 0.949 0.831 
0.835 0.376 0.898 0.71 
0.804 0.667 0.863 1.0 
0.584 0.29 0.729 0.749 
0.388 0.208 0.678 0.792 
0.584 0.502 0.729 0.918 
0.945 0.749 0.965 0.875 
0.471 0.082 0.678 0.584 
0.361 0.333 0.663 0.792 
0.557 0.29 0.663 0.71 
0.804 0.502 0.847 0.71 
0.498 0.416 0.51 0.71 
0.804 0.416 0.812 0.624 
1.0 0.749 0.914 0.792 
0.557 0.333 0.694 0.584 
0.945 0.416 0.863 0.918 
0.584 0.459 0.761 0.71 
0.722 0.459 0.745 0.831 
0.722 0.459 0.694 0.918 
0.694 0.502 0.831 0.918 
0.667 0.416 0.714 0.918 
0.612 0.416 0.714 0.792 
0.443 0.416 0.694 0.71 
Teaching Patterns
1.0 0.0 0.0 
1.0 0.0 0.0 
1.0 0.0 0.0 
1.0 0.0 0.0 
1.0 0.0 0.0 
1.0 0.0 0.0 
1.0 0.0 0.0 
1.0 0.0 0.0 
1.0 0.0 0.0 
1.0 0.0 0.0 
1.0 0.0 0.0 
1.0 0.0 0.0 
1.0 0.0 0.0 
1.0 0.0 0.0 
1.0 0.0 0.0 
1.0 0.0 0.0 
1.0 0.0 0.0 
1.0 0.0 0.0 
1.0 0.0 0.0 
1.0 0.0 0.0 
1.0 0.0 0.0 
1.0 0.0 0.0 
1.0 0.0 0.0 
1.0 0.0 0.0 
1.0 0.0 0.0 
1.0 0.0 0.0 
1.0 0.0 0.0 
1.0 0.0 0.0 
1.0 0.0 0.0 
1.0 0.0 0.0 
1.0 0.0 0.0 
1.0 0.0 0.0 
1.0 0.0 0.0 
1.0 0.0 0.0 
1.0 0.0 0.0 
1.0 0.0 0.0 
1.0 0.0 0.0 
1.0 0.0 0.0 
1.0 0.0 0.0 
1.0 0.0 0.0 
1.0 0.0 0.0 
1.0 0.0 0.0 
1.0 0.0 0.0 
1.0 0.0 0.0 
1.0 0.0 0.0 
1.0 0.0 0.0 
1.0 0.0 0.0 
1.0 0.0 0.0 
1.0 0.0 0.0 
1.0 0.0 0.0 
0.0 1.0 0.0 
0.0 1.0 0.0 
0.0 1.0 0.0 
0.0 1.0 0.0 
0.0 1.0 0.0 
0.0 1.0 0.0 
0.0 1.0 0.0 
0.0 1.0 0.0 
0.0 1.0 0.0 
0.0 1.0 0.0 
0.0 1.0 0.0 
0.0 1.0 0.0 
0.0 1.0 0.0 
0.0 1.0 0.0 
0.0 1.0 0.0 
0.0 1.0 0.0 
0.0 1.0 0.0 
0.0 1.0 0.0 
0.0 1.0 0.0 
0.0 1.0 0.0 
0.0 1.0 0.0 
0.0 1.0 0.0 
0.0 1.0 0.0 
0.0 1.0 0.0 
0.0 1.0 0.0 
0.0 1.0 0.0 
0.0 1.0 0.0 
0.0 1.0 0.0 
0.0 1.0 0.0 
0.0 1.0 0.0 
0.0 1.0 0.0 
0.0 1.0 0.0 
0.0 1.0 0.0 
0.0 1.0 0.0 
0.0 1.0 0.0 
0.0 1.0 0.0 
0.0 1.0 0.0 
0.0 1.0 0.0 
0.0 1.0 0.0 
0.0 1.0 0.0 
0.0 1.0 0.0 
0.0 1.0 0.0 
0.0 1.0 0.0 
0.0 1.0 0.0 
0.0 1.0 0.0 
0.0 1.0 0.0 
0.0 1.0 0.0 
0.0 1.0 0.0 
0.0 1.0 0.0 
0.0 1.0 0.0 
0.0 0.0 1.0 
0.0 0.0 1.0 
0.0 0.0 1.0 
0.0 0.0 1.0 
0.0 0.0 1.0 
0.0 0.0 1.0 
0.0 0.0 1.0 
0.0 0.0 1.0 
0.0 0.0 1.0 
0.0 0.0 1.0 
0.0 0.0 1.0 
0.0 0.0 1.0 
0.0 0.0 1.0 
0.0 0.0 1.0 
0.0 0.0 1.0 
0.0 0.0 1.0 
0.0 0.0 1.0 
0.0 0.0 1.0 
0.0 0.0 1.0 
0.0 0.0 1.0 
0.0 0.0 1.0 
0.0 0.0 1.0 
0.0 0.0 1.0 
0.0 0.0 1.0 
0.0 0.0 1.0 
0.0 0.0 1.0 
0.0 0.0 1.0 
0.0 0.0 1.0 
0.0 0.0 1.0 
0.0 0.0 1.0 
0.0 0.0 1.0 
0.0 0.0 1.0 
0.0 0.0 1.0 
0.0 0.0 1.0 
0.0 0.0 1.0 
0.0 0.0 1.0 
0.0 0.0 1.0 
0.0 0.0 1.0 
0.0 0.0 1.0 
0.0 0.0 1.0 
0.0 0.0 1.0 
0.0 0.0 1.0 
0.0 0.0 1.0 
0.0 0.0 1.0 
0.0 0.0 1.0 
0.0 0.0 1.0 
0.0 0.0 1.0 
0.0 0.0 1.0 
0.0 0.0 1.0 
0.0 0.0 1.0 
Learning : 0.15000000596046448
Momentum : 0.9
Epoch: 100, Error: 0.01573325948215957
Epoch: 200, Error: 0.013958621574645034
Epoch: 300, Error: 0.013318389138764769
Epoch: 400, Error: 0.012651438977216083
Epoch: 500, Error: 0.012469226151674057
Epoch: 600, Error: 0.012318549460676608
Epoch: 700, Error: 0.012957796201297271
Epoch: 800, Error: 0.013393193564266243
Epoch: 900, Error: 0.012608788824253493
Epoch: 1000, Error: 0.012920177988965028
Epoch: 1100, Error: 0.012255870146953687
Epoch: 1200, Error: 0.012234681439757871
Epoch: 1300, Error: 0.012206071001675622
Epoch: 1400, Error: 0.012020067031768536
Epoch: 1500, Error: 0.012840329868565268
Epoch: 1600, Error: 0.011950932502465025
Epoch: 1700, Error: 0.011939442439550396
Epoch: 1800, Error: 0.012248784745119564
Epoch: 1900, Error: 0.011897246837913777
Epoch: 2000, Error: 0.011795997922798684
Epoch: 2100, Error: 0.012171300848105145
Epoch: 2200, Error: 0.011778911222891512
Epoch: 2300, Error: 0.011833830405079838
Epoch: 2400, Error: 0.01423351681108303
Epoch: 2500, Error: 0.011641534939163749
Epoch: 2600, Error: 0.011672644801578206
Epoch: 2700, Error: 0.011682339366837682
Epoch: 2800, Error: 0.013511465789069133
Epoch: 2900, Error: 0.011785163968249414
Epoch: 3000, Error: 0.011664397141888857
Epoch: 3100, Error: 0.012038231029691183
Epoch: 3200, Error: 0.011485470029163362
Epoch: 3300, Error: 0.011596928767239877
Epoch: 3400, Error: 0.011392847129005804
Epoch: 3500, Error: 0.011272581014919552
Epoch: 3600, Error: 0.011202214147037317
Epoch: 3700, Error: 0.011126762472839594
Epoch: 3800, Error: 0.011041886360803598
Epoch: 3900, Error: 0.010934769157602407
Epoch: 4000, Error: 0.01087419668270142
Epoch: 4100, Error: 0.011063862048148871
Epoch: 4200, Error: 0.011243106113836561
Epoch: 4300, Error: 0.010493837319892712
Epoch: 4400, Error: 0.010152903642047162
Epoch: 4500, Error: 0.01002544003258792
Epoch: 4600, Error: 0.009633441399230242
Epoch: 4700, Error: 0.009415757286344166
Epoch: 4800, Error: 0.009104723667590362
Epoch: 4900, Error: 0.008849638869872467
Epoch: 5000, Error: 0.00852104466096216
Epoch: 5100, Error: 0.008210143520431814
Epoch: 5200, Error: 0.007915073050060926
Epoch: 5300, Error: 0.007831513164675499
Epoch: 5400, Error: 0.0075061670388496295
Epoch: 5500, Error: 0.0072283539711807026
Epoch: 5600, Error: 0.0069908548920809025
Epoch: 5700, Error: 0.00708459184133414
Epoch: 5800, Error: 0.006617533269351067
Epoch: 5900, Error: 0.006565916041193998
Epoch: 6000, Error: 0.006291081620040208
Epoch: 6100, Error: 0.006365529319492094
Epoch: 6200, Error: 0.006126868549447134
Epoch: 6300, Error: 0.0060745018610673576
Epoch: 6400, Error: 0.005992693136019106
Epoch: 6500, Error: 0.005972624353985659
Epoch: 6600, Error: 0.005845648012430376
Epoch: 6700, Error: 0.005815735665326136
Epoch: 6800, Error: 0.005805397108530177
Epoch: 6900, Error: 0.0057845359158534
Epoch: 7000, Error: 0.005698130195368017
Epoch: 7100, Error: 0.00569315400235784
Epoch: 7200, Error: 0.005874297975746332
Epoch: 7300, Error: 0.00565974296234767
Epoch: 7400, Error: 0.005749749897627068
Epoch: 7500, Error: 0.005748218280760852
Epoch: 7600, Error: 0.0055733683332668356
Epoch: 7700, Error: 0.005558776114138979
Epoch: 7800, Error: 0.005494355892178594
Epoch: 7900, Error: 0.005571129285453911
Epoch: 8000, Error: 0.005651840889953666
Epoch: 8100, Error: 0.005593994422338629
Epoch: 8200, Error: 0.005566969632115705
Epoch: 8300, Error: 0.005466546673210821
Epoch: 8400, Error: 0.005464558905330096
Epoch: 8500, Error: 0.005511523286881141
Epoch: 8600, Error: 0.005582526925852559
Epoch: 8700, Error: 0.005540380833598472
Epoch: 8800, Error: 0.0054542574993653265
Epoch: 8900, Error: 0.005414878766129982
Epoch: 9000, Error: 0.005428922225358759
Epoch: 9100, Error: 0.0053644266913586884
Epoch: 9200, Error: 0.005426785468282073
Epoch: 9300, Error: 0.0053043824445732175
Epoch: 9400, Error: 0.005264640468077675
Epoch: 9500, Error: 0.005282973902995471
Epoch: 9600, Error: 0.005205711405168741
Epoch: 9700, Error: 0.0052316882976638415
Epoch: 9800, Error: 0.005122749269155029
Epoch: 9900, Error: 0.0051115849983822915
Epoch: 10000, Error: 0.005069436440174128
Epoch: 10100, Error: 0.005020752138797507
Epoch: 10200, Error: 0.00512328947417945
Epoch: 10300, Error: 0.00501291215731006
Epoch: 10400, Error: 0.004996654711504373
Epoch: 10500, Error: 0.004921329627746866
Epoch: 10600, Error: 0.004845840110822519
Epoch: 10700, Error: 0.004776618631580553
Epoch: 10800, Error: 0.004670703385449815
Epoch: 10900, Error: 0.0046119730599915795
Epoch: 11000, Error: 0.004640704321813835
Epoch: 11100, Error: 0.00463658577176721
Epoch: 11200, Error: 0.004396730347180799
Epoch: 11300, Error: 0.004289476025223232
Epoch: 11400, Error: 0.005370761269437327
Epoch: 11500, Error: 0.004261158635363917
Epoch: 11600, Error: 0.004231973050964963
Epoch: 11700, Error: 0.0040970987408919
Epoch: 11800, Error: 0.003906222244326784
Epoch: 11900, Error: 0.003776472024078008
Epoch: 12000, Error: 0.004048473041102554
Epoch: 12100, Error: 0.0037426550503172995
Epoch: 12200, Error: 0.004189486960050531
Epoch: 12300, Error: 0.0035693818553649472
Epoch: 12400, Error: 0.003486493591784771
Epoch: 12500, Error: 0.003690063158903534
Epoch: 12600, Error: 0.003377168591380251
Epoch: 12700, Error: 0.003736893447419733
Epoch: 12800, Error: 0.004991231492203337
Epoch: 12900, Error: 0.003324455487173892
Epoch: 13000, Error: 0.0032386238563003058
Epoch: 13100, Error: 0.003409910801083788
Epoch: 13200, Error: 0.003003214108473611
Epoch: 13300, Error: 0.0029469504639442422
Epoch: 13400, Error: 0.003405897843823656
Epoch: 13500, Error: 0.0028678386216086822
Epoch: 13600, Error: 0.0028762018778682864
Epoch: 13700, Error: 0.003067467242098028
Epoch: 13800, Error: 0.00348937679226999
Epoch: 13900, Error: 0.0027417485106423743
Epoch: 14000, Error: 0.0024907164688313323
Epoch: 14100, Error: 0.0026796319637667656
Epoch: 14200, Error: 0.002427065858504135
Epoch: 14300, Error: 0.002821182845469965
Epoch: 14400, Error: 0.002476904688747129
Epoch: 14500, Error: 0.002853811344745279
Epoch: 14600, Error: 0.002308856494031731
Epoch: 14700, Error: 0.0020969603517228437
Epoch: 14800, Error: 0.0020530809454974083
Epoch: 14900, Error: 0.0020014380501220622
Epoch: 15000, Error: 0.001963295585109354
Epoch: 15100, Error: 0.0022942707801279095
Epoch: 15200, Error: 0.002073465420371822
Epoch: 15300, Error: 0.0022084951717036665
Epoch: 15400, Error: 0.003419901787767781
Epoch: 15500, Error: 0.0018686322996578101
Epoch: 15600, Error: 0.002082459144665367
Epoch: 15700, Error: 0.002671866992965819
Epoch: 15800, Error: 0.0018658219521124886
Epoch: 15900, Error: 0.001826059861119663
Epoch: 16000, Error: 0.0017880070278370802
Epoch: 16100, Error: 0.002392770097401639
Epoch: 16200, Error: 0.0016604779058271325
Epoch: 16300, Error: 0.00228844711332076
Epoch: 16400, Error: 0.0017957270880620856
Epoch: 16500, Error: 0.00171137440342208
Epoch: 16600, Error: 0.001956056756355285
Epoch: 16700, Error: 0.0014664147005604025
Epoch: 16800, Error: 0.0016347005399498457
Epoch: 16900, Error: 0.0016642483805477575
Epoch: 17000, Error: 0.0019825694475717904
Epoch: 17100, Error: 0.001461835766770538
Epoch: 17200, Error: 0.0013733826815308132
Epoch: 17300, Error: 0.001403296309878958
Epoch: 17400, Error: 0.0014597564349693765
Epoch: 17500, Error: 0.0019300347633607563
Epoch: 17600, Error: 0.0015058048454225175
Epoch: 17700, Error: 0.0013925438640967625
Epoch: 17800, Error: 0.0013191869157997019
Epoch: 17900, Error: 0.0012291480207723999
Epoch: 18000, Error: 0.0012235422030816262
Epoch: 18100, Error: 0.0011969101553344318
Epoch: 18200, Error: 0.0012608218001528846
Epoch: 18300, Error: 0.0012195953781333028
Epoch: 18400, Error: 0.0012297578455357097
Epoch: 18500, Error: 0.0011585940252547247
Epoch: 18600, Error: 0.0011748303118821917
Epoch: 18700, Error: 0.001123501513806107
Epoch: 18800, Error: 0.0011365643317346858
Epoch: 18900, Error: 0.0013298961886177958
Epoch: 19000, Error: 0.0011363397599215576
Epoch: 19100, Error: 0.0011946725611586718
Epoch: 19200, Error: 0.0010640999441784153
Epoch: 19300, Error: 0.0010561006856493699
Epoch: 19400, Error: 0.0010394829638730731
Epoch: 19500, Error: 0.0011645488620843337
Epoch: 19600, Error: 0.00102035990289173
Epoch: 19700, Error: 0.0010510120606998766
Epoch: 19800, Error: 0.0010955996761845726
Epoch: 19900, Error: 0.0010401900472841077
Epoch: 20000, Error: 9.95819602244364E-4
Epoch: 20100, Error: 0.0010340210230691043
Epoch: 20200, Error: 0.0010419199261851619
Epoch: 20300, Error: 0.0010333848245765458
Epoch: 20400, Error: 0.0010352955105621944
Epoch: 20500, Error: 9.902558159815046E-4
Epoch: 20600, Error: 0.0010028202755223824
Epoch: 20700, Error: 9.706228763704342E-4
Epoch: 20800, Error: 0.001036395040978694
Epoch: 20900, Error: 9.969067943120646E-4
Epoch: 21000, Error: 0.0010021433195895213
Epoch: 21100, Error: 9.822916448845621E-4
Epoch: 21200, Error: 9.675664346182609E-4
Epoch: 21300, Error: 9.542049803842615E-4
Epoch: 21400, Error: 9.754734063624539E-4
Epoch: 21500, Error: 0.001072125307520805
Epoch: 21600, Error: 9.924923427824756E-4
Epoch: 21700, Error: 9.448393126202535E-4
Epoch: 21800, Error: 9.729588599954759E-4
Epoch: 21900, Error: 9.205907139409261E-4
Epoch: 22000, Error: 9.03260646701487E-4
Epoch: 22100, Error: 9.532259217179736E-4
Epoch: 22200, Error: 9.404858550962673E-4
Epoch: 22300, Error: 9.386171713872389E-4
Epoch: 22400, Error: 9.349511410190414E-4
Epoch: 22500, Error: 9.322945339303904E-4
Epoch: 22600, Error: 9.353115683369624E-4
Epoch: 22700, Error: 9.317687161790051E-4
Epoch: 22800, Error: 9.114977435282029E-4
Epoch: 22900, Error: 9.06014528831588E-4
Epoch: 23000, Error: 9.510566868616076E-4
Epoch: 23100, Error: 9.590670323285622E-4
Epoch: 23200, Error: 9.527873443187391E-4
Epoch: 23300, Error: 9.649291302564237E-4
Epoch: 23400, Error: 9.914773152690398E-4
Epoch: 23500, Error: 9.791915227148461E-4
Epoch: 23600, Error: 9.265974017549346E-4
Epoch: 23700, Error: 9.300528662296965E-4
Epoch: 23800, Error: 9.128572135131718E-4
Epoch: 23900, Error: 9.558723442916657E-4
Epoch: 24000, Error: 9.325744014293491E-4
Epoch: 24100, Error: 9.164452805769024E-4
Epoch: 24200, Error: 9.095224565689334E-4
Epoch: 24300, Error: 9.241728128730089E-4
Epoch: 24400, Error: 9.094004210010059E-4
Epoch: 24500, Error: 9.479584547233707E-4
Epoch: 24600, Error: 9.413376889190577E-4
Epoch: 24700, Error: 9.80837191092736E-4
Epoch: 24800, Error: 9.886555980782121E-4
Epoch: 24900, Error: 9.96165375627009E-4
Epoch: 25000, Error: 9.885897063373699E-4
Epoch: 25100, Error: 0.0010230600108640342
Epoch: 25200, Error: 9.905022751349308E-4
Epoch: 25300, Error: 9.863898758543758E-4
Epoch: 25400, Error: 9.77063343967704E-4
Epoch: 25500, Error: 9.749762393199439E-4
Epoch: 25600, Error: 9.651998310893415E-4
Epoch: 25700, Error: 9.594640974092631E-4
Epoch: 25800, Error: 9.597367155139765E-4
Epoch: 25900, Error: 9.83437739787069E-4
Epoch: 26000, Error: 9.459950708594826E-4
Epoch: 26100, Error: 9.284430817581022E-4
Epoch: 26200, Error: 9.30576645440828E-4
Epoch: 26300, Error: 9.20673447699308E-4
Epoch: 26400, Error: 9.572238199624072E-4
Epoch: 26500, Error: 9.377928006928937E-4
Epoch: 26600, Error: 9.41597801806498E-4
Epoch: 26700, Error: 9.070085749330795E-4
Epoch: 26800, Error: 8.873199916780784E-4
Epoch: 26900, Error: 8.890523143149059E-4
Epoch: 27000, Error: 8.673577213322568E-4
Epoch: 27100, Error: 8.452161320296805E-4
Epoch: 27200, Error: 8.334708871084367E-4
Epoch: 27300, Error: 8.395655029081246E-4
Epoch: 27400, Error: 8.46878131262183E-4
Epoch: 27500, Error: 8.667349737373265E-4
Epoch: 27600, Error: 8.20424957330681E-4
Epoch: 27700, Error: 8.235662389439943E-4
Epoch: 27800, Error: 8.314136598589137E-4
Epoch: 27900, Error: 8.436828101640538E-4
Epoch: 28000, Error: 8.244229988106402E-4
Epoch: 28100, Error: 8.342831295675335E-4
Epoch: 28200, Error: 8.346151428360324E-4
finished
