Input Patterns
0.224 0.624 0.067 0.043 
0.11 0.502 0.051 0.043 
0.196 0.667 0.067 0.043 
0.055 0.584 0.067 0.082 
0.027 0.376 0.067 0.043 
0.306 0.71 0.086 0.043 
0.137 0.416 0.067 0.0 
0.416 0.831 0.035 0.043 
0.306 0.792 0.051 0.125 
0.388 0.749 0.118 0.082 
0.306 0.584 0.118 0.043 
0.082 0.667 0.0 0.043 
0.137 0.584 0.153 0.043 
0.196 0.584 0.102 0.125 
0.251 0.584 0.067 0.043 
0.137 0.459 0.102 0.043 
0.251 0.875 0.086 0.0 
0.165 0.459 0.086 0.043 
0.333 0.624 0.051 0.043 
0.027 0.416 0.051 0.043 
0.196 0.624 0.051 0.082 
0.027 0.502 0.051 0.043 
0.224 0.749 0.153 0.125 
0.224 0.749 0.102 0.043 
0.278 0.71 0.086 0.043 
0.165 0.416 0.067 0.043 
0.082 0.459 0.086 0.043 
0.306 0.792 0.118 0.125 
0.196 0.584 0.086 0.043 
0.165 0.459 0.086 0.0 
0.137 0.584 0.102 0.043 
0.0 0.416 0.016 0.0 
0.388 1.0 0.086 0.125 
0.224 0.624 0.067 0.082 
0.224 0.749 0.086 0.082 
0.224 0.71 0.086 0.125 
0.224 0.541 0.118 0.165 
0.196 0.416 0.102 0.043 
0.251 0.624 0.086 0.043 
0.11 0.502 0.102 0.043 
0.306 0.584 0.086 0.125 
0.333 0.918 0.067 0.043 
0.196 0.502 0.035 0.043 
0.165 0.667 0.067 0.0 
0.224 0.584 0.086 0.043 
0.055 0.125 0.051 0.082 
0.196 0.624 0.102 0.208 
0.137 0.416 0.067 0.082 
0.082 0.502 0.067 0.043 
0.196 0.541 0.067 0.043 
0.749 0.502 0.627 0.541 
0.722 0.459 0.663 0.584 
0.612 0.333 0.612 0.584 
0.557 0.541 0.627 0.624 
0.639 0.376 0.612 0.498 
0.196 0.0 0.424 0.376 
0.471 0.082 0.51 0.376 
0.361 0.376 0.439 0.498 
0.361 0.416 0.592 0.584 
0.529 0.082 0.592 0.584 
0.443 0.502 0.643 0.459 
0.557 0.208 0.663 0.584 
0.584 0.376 0.561 0.498 
0.694 0.333 0.643 0.541 
0.471 0.376 0.592 0.584 
0.333 0.169 0.475 0.416 
0.416 0.29 0.49 0.459 
0.306 0.416 0.592 0.584 
0.667 0.459 0.627 0.584 
0.361 0.416 0.525 0.498 
0.333 0.251 0.576 0.459 
0.416 0.251 0.51 0.459 
0.361 0.29 0.541 0.498 
0.388 0.376 0.541 0.498 
0.224 0.208 0.337 0.416 
0.584 0.502 0.592 0.584 
0.333 0.125 0.51 0.498 
0.388 0.333 0.592 0.498 
0.165 0.169 0.388 0.376 
0.251 0.29 0.49 0.541 
0.443 0.416 0.541 0.584 
0.498 0.376 0.627 0.541 
0.667 0.459 0.576 0.541 
0.416 0.29 0.525 0.376 
0.361 0.208 0.49 0.416 
0.498 0.333 0.51 0.498 
0.498 0.333 0.627 0.459 
0.639 0.416 0.576 0.541 
0.667 0.416 0.678 0.667 
0.388 0.251 0.424 0.376 
0.333 0.169 0.459 0.376 
0.471 0.29 0.694 0.624 
0.471 0.584 0.592 0.624 
0.557 0.125 0.576 0.498 
0.333 0.208 0.51 0.498 
0.498 0.416 0.612 0.541 
0.196 0.125 0.388 0.376 
0.388 0.416 0.541 0.459 
0.529 0.376 0.561 0.498 
0.388 0.333 0.525 0.498 
0.557 0.541 0.847 1.0 
0.776 0.416 0.831 0.831 
0.612 0.416 0.812 0.875 
0.165 0.208 0.592 0.667 
0.667 0.208 0.812 0.71 
0.612 0.502 0.694 0.792 
0.694 0.416 0.761 0.831 
0.416 0.333 0.694 0.957 
0.612 0.416 0.761 0.71 
0.945 0.251 1.0 0.918 
0.722 0.502 0.796 0.918 
0.945 0.333 0.965 0.792 
0.667 0.541 0.796 0.831 
0.529 0.333 0.643 0.71 
0.584 0.333 0.78 0.831 
0.863 0.333 0.863 0.749 
0.584 0.333 0.78 0.875 
0.498 0.251 0.78 0.541 
0.557 0.584 0.78 0.957 
0.471 0.416 0.643 0.71 
0.667 0.459 0.78 0.957 
0.416 0.29 0.694 0.749 
0.667 0.541 0.796 1.0 
0.557 0.208 0.678 0.749 
0.529 0.584 0.745 0.918 
0.416 0.29 0.694 0.749 
0.557 0.376 0.78 0.71 
0.918 0.416 0.949 0.831 
0.835 0.376 0.898 0.71 
0.804 0.667 0.863 1.0 
0.584 0.29 0.729 0.749 
0.388 0.208 0.678 0.792 
0.584 0.502 0.729 0.918 
0.945 0.749 0.965 0.875 
0.471 0.082 0.678 0.584 
0.361 0.333 0.663 0.792 
0.557 0.29 0.663 0.71 
0.804 0.502 0.847 0.71 
0.498 0.416 0.51 0.71 
0.804 0.416 0.812 0.624 
1.0 0.749 0.914 0.792 
0.557 0.333 0.694 0.584 
0.945 0.416 0.863 0.918 
0.584 0.459 0.761 0.71 
0.722 0.459 0.745 0.831 
0.722 0.459 0.694 0.918 
0.694 0.502 0.831 0.918 
0.667 0.416 0.714 0.918 
0.612 0.416 0.714 0.792 
0.443 0.416 0.694 0.71 
Teaching Patterns
1.0 0.0 0.0 
1.0 0.0 0.0 
1.0 0.0 0.0 
1.0 0.0 0.0 
1.0 0.0 0.0 
1.0 0.0 0.0 
1.0 0.0 0.0 
1.0 0.0 0.0 
1.0 0.0 0.0 
1.0 0.0 0.0 
1.0 0.0 0.0 
1.0 0.0 0.0 
1.0 0.0 0.0 
1.0 0.0 0.0 
1.0 0.0 0.0 
1.0 0.0 0.0 
1.0 0.0 0.0 
1.0 0.0 0.0 
1.0 0.0 0.0 
1.0 0.0 0.0 
1.0 0.0 0.0 
1.0 0.0 0.0 
1.0 0.0 0.0 
1.0 0.0 0.0 
1.0 0.0 0.0 
1.0 0.0 0.0 
1.0 0.0 0.0 
1.0 0.0 0.0 
1.0 0.0 0.0 
1.0 0.0 0.0 
1.0 0.0 0.0 
1.0 0.0 0.0 
1.0 0.0 0.0 
1.0 0.0 0.0 
1.0 0.0 0.0 
1.0 0.0 0.0 
1.0 0.0 0.0 
1.0 0.0 0.0 
1.0 0.0 0.0 
1.0 0.0 0.0 
1.0 0.0 0.0 
1.0 0.0 0.0 
1.0 0.0 0.0 
1.0 0.0 0.0 
1.0 0.0 0.0 
1.0 0.0 0.0 
1.0 0.0 0.0 
1.0 0.0 0.0 
1.0 0.0 0.0 
1.0 0.0 0.0 
0.0 1.0 0.0 
0.0 1.0 0.0 
0.0 1.0 0.0 
0.0 1.0 0.0 
0.0 1.0 0.0 
0.0 1.0 0.0 
0.0 1.0 0.0 
0.0 1.0 0.0 
0.0 1.0 0.0 
0.0 1.0 0.0 
0.0 1.0 0.0 
0.0 1.0 0.0 
0.0 1.0 0.0 
0.0 1.0 0.0 
0.0 1.0 0.0 
0.0 1.0 0.0 
0.0 1.0 0.0 
0.0 1.0 0.0 
0.0 1.0 0.0 
0.0 1.0 0.0 
0.0 1.0 0.0 
0.0 1.0 0.0 
0.0 1.0 0.0 
0.0 1.0 0.0 
0.0 1.0 0.0 
0.0 1.0 0.0 
0.0 1.0 0.0 
0.0 1.0 0.0 
0.0 1.0 0.0 
0.0 1.0 0.0 
0.0 1.0 0.0 
0.0 1.0 0.0 
0.0 1.0 0.0 
0.0 1.0 0.0 
0.0 1.0 0.0 
0.0 1.0 0.0 
0.0 1.0 0.0 
0.0 1.0 0.0 
0.0 1.0 0.0 
0.0 1.0 0.0 
0.0 1.0 0.0 
0.0 1.0 0.0 
0.0 1.0 0.0 
0.0 1.0 0.0 
0.0 1.0 0.0 
0.0 1.0 0.0 
0.0 1.0 0.0 
0.0 1.0 0.0 
0.0 1.0 0.0 
0.0 1.0 0.0 
0.0 0.0 1.0 
0.0 0.0 1.0 
0.0 0.0 1.0 
0.0 0.0 1.0 
0.0 0.0 1.0 
0.0 0.0 1.0 
0.0 0.0 1.0 
0.0 0.0 1.0 
0.0 0.0 1.0 
0.0 0.0 1.0 
0.0 0.0 1.0 
0.0 0.0 1.0 
0.0 0.0 1.0 
0.0 0.0 1.0 
0.0 0.0 1.0 
0.0 0.0 1.0 
0.0 0.0 1.0 
0.0 0.0 1.0 
0.0 0.0 1.0 
0.0 0.0 1.0 
0.0 0.0 1.0 
0.0 0.0 1.0 
0.0 0.0 1.0 
0.0 0.0 1.0 
0.0 0.0 1.0 
0.0 0.0 1.0 
0.0 0.0 1.0 
0.0 0.0 1.0 
0.0 0.0 1.0 
0.0 0.0 1.0 
0.0 0.0 1.0 
0.0 0.0 1.0 
0.0 0.0 1.0 
0.0 0.0 1.0 
0.0 0.0 1.0 
0.0 0.0 1.0 
0.0 0.0 1.0 
0.0 0.0 1.0 
0.0 0.0 1.0 
0.0 0.0 1.0 
0.0 0.0 1.0 
0.0 0.0 1.0 
0.0 0.0 1.0 
0.0 0.0 1.0 
0.0 0.0 1.0 
0.0 0.0 1.0 
0.0 0.0 1.0 
0.0 0.0 1.0 
0.0 0.0 1.0 
0.0 0.0 1.0 
Learning : 0.05
Momentum : 0.6000000238418579
Epoch: 100, Error: 0.046092769233868326
Epoch: 200, Error: 0.02022998867515728
Epoch: 300, Error: 0.01677886714612418
Epoch: 400, Error: 0.015051206737175568
Epoch: 500, Error: 0.014201841373960317
Epoch: 600, Error: 0.013640661691891933
Epoch: 700, Error: 0.013319312508568704
Epoch: 800, Error: 0.01315063850421265
Epoch: 900, Error: 0.012853416532311635
Epoch: 1000, Error: 0.012892202676778229
Epoch: 1100, Error: 0.01261156170429044
Epoch: 1200, Error: 0.01250685907140043
Epoch: 1300, Error: 0.012572639056279838
Epoch: 1400, Error: 0.012470271771897237
Epoch: 1500, Error: 0.012579354681218
Epoch: 1600, Error: 0.01247844080360206
Epoch: 1700, Error: 0.01244583990462577
Epoch: 1800, Error: 0.012374955213846713
Epoch: 1900, Error: 0.012404148121258842
Epoch: 2000, Error: 0.012336979288789707
Epoch: 2100, Error: 0.012198018330442036
Epoch: 2200, Error: 0.012241683298301947
Epoch: 2300, Error: 0.01209458512079394
Epoch: 2400, Error: 0.012104296557695774
Epoch: 2500, Error: 0.012250923190719201
Epoch: 2600, Error: 0.012054851772303905
Epoch: 2700, Error: 0.012054793392256314
Epoch: 2800, Error: 0.012111928869964388
Epoch: 2900, Error: 0.012109875811520305
Epoch: 3000, Error: 0.011997873845007072
Epoch: 3100, Error: 0.012000489680044697
Epoch: 3200, Error: 0.011981836025332265
Epoch: 3300, Error: 0.011965575799113415
Epoch: 3400, Error: 0.011981638627689816
Epoch: 3500, Error: 0.012181503323199427
Epoch: 3600, Error: 0.011940747645590558
Epoch: 3700, Error: 0.011938306395035476
Epoch: 3800, Error: 0.011934248967842195
Epoch: 3900, Error: 0.01194710962695865
Epoch: 4000, Error: 0.011900192571067508
Epoch: 4100, Error: 0.011903435846325836
Epoch: 4200, Error: 0.01187049187206515
Epoch: 4300, Error: 0.011859613650326659
Epoch: 4400, Error: 0.011843376500562353
Epoch: 4500, Error: 0.011837579218327253
Epoch: 4600, Error: 0.01180865510153211
Epoch: 4700, Error: 0.011799817127183886
Epoch: 4800, Error: 0.011988555443750827
Epoch: 4900, Error: 0.01173647544751255
Epoch: 5000, Error: 0.01170353998242266
Epoch: 5100, Error: 0.011682699284325488
Epoch: 5200, Error: 0.011669195474919155
Epoch: 5300, Error: 0.01172205084479011
Epoch: 5400, Error: 0.011640575114990623
Epoch: 5500, Error: 0.011638437565889684
Epoch: 5600, Error: 0.011640515171902757
Epoch: 5700, Error: 0.011706761859720864
Epoch: 5800, Error: 0.011707600598562597
Epoch: 5900, Error: 0.011634796398952797
Epoch: 6000, Error: 0.011614145423691848
Epoch: 6100, Error: 0.01164113917398554
Epoch: 6200, Error: 0.011592699511967052
Epoch: 6300, Error: 0.011603518816770922
Epoch: 6400, Error: 0.011586656412654533
Epoch: 6500, Error: 0.011580676082696943
Epoch: 6600, Error: 0.011590658923883832
Epoch: 6700, Error: 0.011769380655813918
Epoch: 6800, Error: 0.011583759192570571
Epoch: 6900, Error: 0.011549413864086606
Epoch: 7000, Error: 0.011530955823477903
Epoch: 7100, Error: 0.01155285713570075
Epoch: 7200, Error: 0.011511319350335275
Epoch: 7300, Error: 0.011500936157918494
Epoch: 7400, Error: 0.011457940168085733
Epoch: 7500, Error: 0.011443943935699015
Epoch: 7600, Error: 0.011444713140139786
Epoch: 7700, Error: 0.01145093907781316
Epoch: 7800, Error: 0.011464230772166755
Epoch: 7900, Error: 0.011351531588927936
Epoch: 8000, Error: 0.01135813967862061
Epoch: 8100, Error: 0.011323817903979015
Epoch: 8200, Error: 0.011410734795843655
Epoch: 8300, Error: 0.011254803848723478
Epoch: 8400, Error: 0.011229893219562637
Epoch: 8500, Error: 0.011209519101806623
Epoch: 8600, Error: 0.011213012798396734
Epoch: 8700, Error: 0.01119458469257898
Epoch: 8800, Error: 0.011166645468640584
Epoch: 8900, Error: 0.011096945881828295
Epoch: 9000, Error: 0.011069187432171293
Epoch: 9100, Error: 0.011032287015550977
Epoch: 9200, Error: 0.010988333556345277
Epoch: 9300, Error: 0.01094884072897502
Epoch: 9400, Error: 0.010952347730244666
Epoch: 9500, Error: 0.010867791102668674
Epoch: 9600, Error: 0.010821899136688283
Epoch: 9700, Error: 0.0107645091317227
Epoch: 9800, Error: 0.01087223139724494
Epoch: 9900, Error: 0.010723611705297793
Epoch: 10000, Error: 0.010623186017919251
Epoch: 10100, Error: 0.010566070095998685
Epoch: 10200, Error: 0.010526773657081752
Epoch: 10300, Error: 0.010441645243306218
Epoch: 10400, Error: 0.010371209281855993
Epoch: 10500, Error: 0.010280631540435481
Epoch: 10600, Error: 0.010239732559927398
Epoch: 10700, Error: 0.010163170423545816
Epoch: 10800, Error: 0.010088638713915042
Epoch: 10900, Error: 0.010006588547193065
Epoch: 11000, Error: 0.009943298353330977
Epoch: 11100, Error: 0.009810831018733085
Epoch: 11200, Error: 0.009726989775019144
Epoch: 11300, Error: 0.009609320955192062
Epoch: 11400, Error: 0.009506902499450038
Epoch: 11500, Error: 0.009407954436095892
Epoch: 11600, Error: 0.009308918293860094
Epoch: 11700, Error: 0.00920616194942403
Epoch: 11800, Error: 0.009102895384553073
Epoch: 11900, Error: 0.009012647483150222
Epoch: 12000, Error: 0.008888140153505383
Epoch: 12100, Error: 0.00884854989824961
Epoch: 12200, Error: 0.008783518873420826
Epoch: 12300, Error: 0.008587298410375796
Epoch: 12400, Error: 0.008460953184468004
Epoch: 12500, Error: 0.008375215519870596
Epoch: 12600, Error: 0.00825452944406078
Epoch: 12700, Error: 0.008157045784010856
Epoch: 12800, Error: 0.008065197175309633
Epoch: 12900, Error: 0.007974879128586443
Epoch: 13000, Error: 0.007884830289421146
Epoch: 13100, Error: 0.007798776341105136
Epoch: 13200, Error: 0.007777904926900067
Epoch: 13300, Error: 0.007658851939020125
Epoch: 13400, Error: 0.007578871764499961
Epoch: 13500, Error: 0.007492209776491599
Epoch: 13600, Error: 0.007429361715335976
Epoch: 13700, Error: 0.007359758890541532
Epoch: 13800, Error: 0.007271787062325628
Epoch: 13900, Error: 0.007200042851781823
Epoch: 14000, Error: 0.007146166554955548
Epoch: 14100, Error: 0.007075925795195317
Epoch: 14200, Error: 0.007024486560474038
Epoch: 14300, Error: 0.006968923980564202
Epoch: 14400, Error: 0.006918936162147177
Epoch: 14500, Error: 0.006870505664494036
Epoch: 14600, Error: 0.006825642682816386
Epoch: 14700, Error: 0.006780754750792682
Epoch: 14800, Error: 0.0067313097864948
Epoch: 14900, Error: 0.006683132023987781
Epoch: 15000, Error: 0.006648968642054225
Epoch: 15100, Error: 0.0066061196455808185
Epoch: 15200, Error: 0.0065627728249595795
Epoch: 15300, Error: 0.006537793092173756
Epoch: 15400, Error: 0.0064939572993711805
Epoch: 15500, Error: 0.00644897859354213
Epoch: 15600, Error: 0.00642557186729699
Epoch: 15700, Error: 0.006366279581551764
Epoch: 15800, Error: 0.006335519284490611
Epoch: 15900, Error: 0.00627294011420867
Epoch: 16000, Error: 0.006237739777742436
Epoch: 16100, Error: 0.006221893540138616
Epoch: 16200, Error: 0.006176692641324175
Epoch: 16300, Error: 0.006177400887186395
Epoch: 16400, Error: 0.006141033144538722
Epoch: 16500, Error: 0.006120570935846121
Epoch: 16600, Error: 0.006107659242094952
Epoch: 16700, Error: 0.006057832343301409
Epoch: 16800, Error: 0.006070867002368834
Epoch: 16900, Error: 0.0060518668478291085
Epoch: 17000, Error: 0.006036955564841382
Epoch: 17100, Error: 0.0060116384897299655
Epoch: 17200, Error: 0.006006863827264294
Epoch: 17300, Error: 0.006024710092703636
Epoch: 17400, Error: 0.005989559498760309
Epoch: 17500, Error: 0.005995748393227962
Epoch: 17600, Error: 0.005976426761896303
Epoch: 17700, Error: 0.005982511220532729
Epoch: 17800, Error: 0.005988586611451533
Epoch: 17900, Error: 0.006009515353858203
Epoch: 18000, Error: 0.005961232885350961
Epoch: 18100, Error: 0.005984076359542129
Epoch: 18200, Error: 0.0060010942148190066
Epoch: 18300, Error: 0.005991966963430409
Epoch: 18400, Error: 0.0059904912550545865
Epoch: 18500, Error: 0.005969704695996394
Epoch: 18600, Error: 0.005959505769388416
Epoch: 18700, Error: 0.00594597184830971
Epoch: 18800, Error: 0.005927219889017746
Epoch: 18900, Error: 0.005923425991782973
Epoch: 19000, Error: 0.005914461841175943
Epoch: 19100, Error: 0.005935037420599253
Epoch: 19200, Error: 0.0059197530972664655
Epoch: 19300, Error: 0.005875295561111997
Epoch: 19400, Error: 0.005852501829051564
Epoch: 19500, Error: 0.005847084448471807
Epoch: 19600, Error: 0.005833599718772479
Epoch: 19700, Error: 0.005828053100351852
Epoch: 19800, Error: 0.005818046562734055
Epoch: 19900, Error: 0.005807020529346608
Epoch: 20000, Error: 0.005805425773403227
Epoch: 20100, Error: 0.005785469295202398
Epoch: 20200, Error: 0.00579185335292486
Epoch: 20300, Error: 0.005773445116160658
Epoch: 20400, Error: 0.005764158319291128
Epoch: 20500, Error: 0.005760365999304371
Epoch: 20600, Error: 0.005753427625409403
Epoch: 20700, Error: 0.005740413050457489
Epoch: 20800, Error: 0.005733178202834091
Epoch: 20900, Error: 0.005737851401293729
Finished
