Input Patterns
0.224 0.624 0.067 0.043 
0.11 0.502 0.051 0.043 
0.196 0.667 0.067 0.043 
0.055 0.584 0.067 0.082 
0.027 0.376 0.067 0.043 
0.306 0.71 0.086 0.043 
0.137 0.416 0.067 0.0 
0.416 0.831 0.035 0.043 
0.306 0.792 0.051 0.125 
0.388 0.749 0.118 0.082 
0.306 0.584 0.118 0.043 
0.082 0.667 0.0 0.043 
0.137 0.584 0.153 0.043 
0.196 0.584 0.102 0.125 
0.251 0.584 0.067 0.043 
0.137 0.459 0.102 0.043 
0.251 0.875 0.086 0.0 
0.165 0.459 0.086 0.043 
0.333 0.624 0.051 0.043 
0.027 0.416 0.051 0.043 
0.196 0.624 0.051 0.082 
0.027 0.502 0.051 0.043 
0.224 0.749 0.153 0.125 
0.224 0.749 0.102 0.043 
0.278 0.71 0.086 0.043 
0.165 0.416 0.067 0.043 
0.082 0.459 0.086 0.043 
0.306 0.792 0.118 0.125 
0.196 0.584 0.086 0.043 
0.165 0.459 0.086 0.0 
0.137 0.584 0.102 0.043 
0.0 0.416 0.016 0.0 
0.388 1.0 0.086 0.125 
0.224 0.624 0.067 0.082 
0.224 0.749 0.086 0.082 
0.224 0.71 0.086 0.125 
0.224 0.541 0.118 0.165 
0.196 0.416 0.102 0.043 
0.251 0.624 0.086 0.043 
0.11 0.502 0.102 0.043 
0.306 0.584 0.086 0.125 
0.333 0.918 0.067 0.043 
0.196 0.502 0.035 0.043 
0.165 0.667 0.067 0.0 
0.224 0.584 0.086 0.043 
0.055 0.125 0.051 0.082 
0.196 0.624 0.102 0.208 
0.137 0.416 0.067 0.082 
0.082 0.502 0.067 0.043 
0.196 0.541 0.067 0.043 
0.749 0.502 0.627 0.541 
0.722 0.459 0.663 0.584 
0.612 0.333 0.612 0.584 
0.557 0.541 0.627 0.624 
0.639 0.376 0.612 0.498 
0.196 0.0 0.424 0.376 
0.471 0.082 0.51 0.376 
0.361 0.376 0.439 0.498 
0.361 0.416 0.592 0.584 
0.529 0.082 0.592 0.584 
0.443 0.502 0.643 0.459 
0.557 0.208 0.663 0.584 
0.584 0.376 0.561 0.498 
0.694 0.333 0.643 0.541 
0.471 0.376 0.592 0.584 
0.333 0.169 0.475 0.416 
0.416 0.29 0.49 0.459 
0.306 0.416 0.592 0.584 
0.667 0.459 0.627 0.584 
0.361 0.416 0.525 0.498 
0.333 0.251 0.576 0.459 
0.416 0.251 0.51 0.459 
0.361 0.29 0.541 0.498 
0.388 0.376 0.541 0.498 
0.224 0.208 0.337 0.416 
0.584 0.502 0.592 0.584 
0.333 0.125 0.51 0.498 
0.388 0.333 0.592 0.498 
0.165 0.169 0.388 0.376 
0.251 0.29 0.49 0.541 
0.443 0.416 0.541 0.584 
0.498 0.376 0.627 0.541 
0.667 0.459 0.576 0.541 
0.416 0.29 0.525 0.376 
0.361 0.208 0.49 0.416 
0.498 0.333 0.51 0.498 
0.498 0.333 0.627 0.459 
0.639 0.416 0.576 0.541 
0.667 0.416 0.678 0.667 
0.388 0.251 0.424 0.376 
0.333 0.169 0.459 0.376 
0.471 0.29 0.694 0.624 
0.471 0.584 0.592 0.624 
0.557 0.125 0.576 0.498 
0.333 0.208 0.51 0.498 
0.498 0.416 0.612 0.541 
0.196 0.125 0.388 0.376 
0.388 0.416 0.541 0.459 
0.529 0.376 0.561 0.498 
0.388 0.333 0.525 0.498 
0.557 0.541 0.847 1.0 
0.776 0.416 0.831 0.831 
0.612 0.416 0.812 0.875 
0.165 0.208 0.592 0.667 
0.667 0.208 0.812 0.71 
0.612 0.502 0.694 0.792 
0.694 0.416 0.761 0.831 
0.416 0.333 0.694 0.957 
0.612 0.416 0.761 0.71 
0.945 0.251 1.0 0.918 
0.722 0.502 0.796 0.918 
0.945 0.333 0.965 0.792 
0.667 0.541 0.796 0.831 
0.529 0.333 0.643 0.71 
0.584 0.333 0.78 0.831 
0.863 0.333 0.863 0.749 
0.584 0.333 0.78 0.875 
0.498 0.251 0.78 0.541 
0.557 0.584 0.78 0.957 
0.471 0.416 0.643 0.71 
0.667 0.459 0.78 0.957 
0.416 0.29 0.694 0.749 
0.667 0.541 0.796 1.0 
0.557 0.208 0.678 0.749 
0.529 0.584 0.745 0.918 
0.416 0.29 0.694 0.749 
0.557 0.376 0.78 0.71 
0.918 0.416 0.949 0.831 
0.835 0.376 0.898 0.71 
0.804 0.667 0.863 1.0 
0.584 0.29 0.729 0.749 
0.388 0.208 0.678 0.792 
0.584 0.502 0.729 0.918 
0.945 0.749 0.965 0.875 
0.471 0.082 0.678 0.584 
0.361 0.333 0.663 0.792 
0.557 0.29 0.663 0.71 
0.804 0.502 0.847 0.71 
0.498 0.416 0.51 0.71 
0.804 0.416 0.812 0.624 
1.0 0.749 0.914 0.792 
0.557 0.333 0.694 0.584 
0.945 0.416 0.863 0.918 
0.584 0.459 0.761 0.71 
0.722 0.459 0.745 0.831 
0.722 0.459 0.694 0.918 
0.694 0.502 0.831 0.918 
0.667 0.416 0.714 0.918 
0.612 0.416 0.714 0.792 
0.443 0.416 0.694 0.71 
Teaching Patterns
1.0 0.0 0.0 
1.0 0.0 0.0 
1.0 0.0 0.0 
1.0 0.0 0.0 
1.0 0.0 0.0 
1.0 0.0 0.0 
1.0 0.0 0.0 
1.0 0.0 0.0 
1.0 0.0 0.0 
1.0 0.0 0.0 
1.0 0.0 0.0 
1.0 0.0 0.0 
1.0 0.0 0.0 
1.0 0.0 0.0 
1.0 0.0 0.0 
1.0 0.0 0.0 
1.0 0.0 0.0 
1.0 0.0 0.0 
1.0 0.0 0.0 
1.0 0.0 0.0 
1.0 0.0 0.0 
1.0 0.0 0.0 
1.0 0.0 0.0 
1.0 0.0 0.0 
1.0 0.0 0.0 
1.0 0.0 0.0 
1.0 0.0 0.0 
1.0 0.0 0.0 
1.0 0.0 0.0 
1.0 0.0 0.0 
1.0 0.0 0.0 
1.0 0.0 0.0 
1.0 0.0 0.0 
1.0 0.0 0.0 
1.0 0.0 0.0 
1.0 0.0 0.0 
1.0 0.0 0.0 
1.0 0.0 0.0 
1.0 0.0 0.0 
1.0 0.0 0.0 
1.0 0.0 0.0 
1.0 0.0 0.0 
1.0 0.0 0.0 
1.0 0.0 0.0 
1.0 0.0 0.0 
1.0 0.0 0.0 
1.0 0.0 0.0 
1.0 0.0 0.0 
1.0 0.0 0.0 
1.0 0.0 0.0 
0.0 1.0 0.0 
0.0 1.0 0.0 
0.0 1.0 0.0 
0.0 1.0 0.0 
0.0 1.0 0.0 
0.0 1.0 0.0 
0.0 1.0 0.0 
0.0 1.0 0.0 
0.0 1.0 0.0 
0.0 1.0 0.0 
0.0 1.0 0.0 
0.0 1.0 0.0 
0.0 1.0 0.0 
0.0 1.0 0.0 
0.0 1.0 0.0 
0.0 1.0 0.0 
0.0 1.0 0.0 
0.0 1.0 0.0 
0.0 1.0 0.0 
0.0 1.0 0.0 
0.0 1.0 0.0 
0.0 1.0 0.0 
0.0 1.0 0.0 
0.0 1.0 0.0 
0.0 1.0 0.0 
0.0 1.0 0.0 
0.0 1.0 0.0 
0.0 1.0 0.0 
0.0 1.0 0.0 
0.0 1.0 0.0 
0.0 1.0 0.0 
0.0 1.0 0.0 
0.0 1.0 0.0 
0.0 1.0 0.0 
0.0 1.0 0.0 
0.0 1.0 0.0 
0.0 1.0 0.0 
0.0 1.0 0.0 
0.0 1.0 0.0 
0.0 1.0 0.0 
0.0 1.0 0.0 
0.0 1.0 0.0 
0.0 1.0 0.0 
0.0 1.0 0.0 
0.0 1.0 0.0 
0.0 1.0 0.0 
0.0 1.0 0.0 
0.0 1.0 0.0 
0.0 1.0 0.0 
0.0 1.0 0.0 
0.0 0.0 1.0 
0.0 0.0 1.0 
0.0 0.0 1.0 
0.0 0.0 1.0 
0.0 0.0 1.0 
0.0 0.0 1.0 
0.0 0.0 1.0 
0.0 0.0 1.0 
0.0 0.0 1.0 
0.0 0.0 1.0 
0.0 0.0 1.0 
0.0 0.0 1.0 
0.0 0.0 1.0 
0.0 0.0 1.0 
0.0 0.0 1.0 
0.0 0.0 1.0 
0.0 0.0 1.0 
0.0 0.0 1.0 
0.0 0.0 1.0 
0.0 0.0 1.0 
0.0 0.0 1.0 
0.0 0.0 1.0 
0.0 0.0 1.0 
0.0 0.0 1.0 
0.0 0.0 1.0 
0.0 0.0 1.0 
0.0 0.0 1.0 
0.0 0.0 1.0 
0.0 0.0 1.0 
0.0 0.0 1.0 
0.0 0.0 1.0 
0.0 0.0 1.0 
0.0 0.0 1.0 
0.0 0.0 1.0 
0.0 0.0 1.0 
0.0 0.0 1.0 
0.0 0.0 1.0 
0.0 0.0 1.0 
0.0 0.0 1.0 
0.0 0.0 1.0 
0.0 0.0 1.0 
0.0 0.0 1.0 
0.0 0.0 1.0 
0.0 0.0 1.0 
0.0 0.0 1.0 
0.0 0.0 1.0 
0.0 0.0 1.0 
0.0 0.0 1.0 
0.0 0.0 1.0 
0.0 0.0 1.0 
Learning : 0.05
Momentum : 0.6000000238418579
Epoch: 100, Error: 0.04725071368357634
Epoch: 200, Error: 0.020649125545646806
Epoch: 300, Error: 0.016814758409612975
Epoch: 400, Error: 0.015354731232331194
Epoch: 500, Error: 0.014448248710793752
Epoch: 600, Error: 0.01399004477412653
Epoch: 700, Error: 0.013539071289817808
Epoch: 800, Error: 0.01325994991705803
Epoch: 900, Error: 0.013090366852615172
Epoch: 1000, Error: 0.012927381007398833
Epoch: 1100, Error: 0.012820351880422583
Epoch: 1200, Error: 0.012717758979211204
Epoch: 1300, Error: 0.012613249125673515
Epoch: 1400, Error: 0.012727601640750819
Epoch: 1500, Error: 0.0126303924564703
Epoch: 1600, Error: 0.012472186180751129
Epoch: 1700, Error: 0.012427530473170178
Epoch: 1800, Error: 0.012360737495296495
Epoch: 1900, Error: 0.012345018947985516
Epoch: 2000, Error: 0.012245375791182638
Epoch: 2100, Error: 0.012208724157723666
Epoch: 2200, Error: 0.0122166001035347
Epoch: 2300, Error: 0.012186336399190123
Epoch: 2400, Error: 0.012410536746703591
Epoch: 2500, Error: 0.012154516242090853
Epoch: 2600, Error: 0.012146332631367647
Epoch: 2700, Error: 0.01210057543985756
Epoch: 2800, Error: 0.012106872732688225
Epoch: 2900, Error: 0.01213817905461927
Epoch: 3000, Error: 0.012141231813066214
Epoch: 3100, Error: 0.01209302168242717
Epoch: 3200, Error: 0.012103883526903362
Epoch: 3300, Error: 0.01201114287408242
Epoch: 3400, Error: 0.012002843817095037
Epoch: 3500, Error: 0.012308770622589863
Epoch: 3600, Error: 0.012033420736577257
Epoch: 3700, Error: 0.012021665576187748
Epoch: 3800, Error: 0.01202715869922849
Epoch: 3900, Error: 0.012064355448328288
Epoch: 4000, Error: 0.012109892379720332
Epoch: 4100, Error: 0.012020590940247334
Epoch: 4200, Error: 0.012039386073715361
Epoch: 4300, Error: 0.012064593418635005
Epoch: 4400, Error: 0.011991163885519731
Epoch: 4500, Error: 0.011990342574276452
Epoch: 4600, Error: 0.012034895583490803
Epoch: 4700, Error: 0.01200432541667082
Epoch: 4800, Error: 0.011922069098659883
Epoch: 4900, Error: 0.01192939346948081
Epoch: 5000, Error: 0.011949522268020709
Epoch: 5100, Error: 0.01201568814091946
Epoch: 5200, Error: 0.011915382877037537
Epoch: 5300, Error: 0.011932868498989028
Epoch: 5400, Error: 0.011963547494554486
Epoch: 5500, Error: 0.011962898137855454
Epoch: 5600, Error: 0.012028896565985365
Epoch: 5700, Error: 0.01194077620301925
Epoch: 5800, Error: 0.011887849826150116
Epoch: 5900, Error: 0.011896226489882117
Epoch: 6000, Error: 0.01192340903344448
Epoch: 6100, Error: 0.01197727499591923
Epoch: 6200, Error: 0.012015563584137258
Epoch: 6300, Error: 0.011971480426518483
Epoch: 6400, Error: 0.011902807066184067
Epoch: 6500, Error: 0.011888445651969861
Epoch: 6600, Error: 0.012058755306362304
Epoch: 6700, Error: 0.011906377159148433
Epoch: 6800, Error: 0.011875542474836997
Epoch: 6900, Error: 0.012042562696237059
Epoch: 7000, Error: 0.011945584012134022
Epoch: 7100, Error: 0.011885485725339014
Epoch: 7200, Error: 0.011868152988688586
Epoch: 7300, Error: 0.011896124610408829
Epoch: 7400, Error: 0.011857162556713555
Epoch: 7500, Error: 0.011842782472948269
Epoch: 7600, Error: 0.011864566813885834
Epoch: 7700, Error: 0.01180680738179789
Epoch: 7800, Error: 0.011922848375637776
Epoch: 7900, Error: 0.011878488129678679
Epoch: 8000, Error: 0.011828695024446596
Epoch: 8100, Error: 0.011818347095123489
Epoch: 8200, Error: 0.011896388902109586
Epoch: 8300, Error: 0.011918469593657331
Epoch: 8400, Error: 0.011843132719837269
Epoch: 8500, Error: 0.011843583422803016
Epoch: 8600, Error: 0.011910606745522953
Epoch: 8700, Error: 0.011908141614794683
Epoch: 8800, Error: 0.011882604431322205
Epoch: 8900, Error: 0.011863854602733852
Epoch: 9000, Error: 0.011922897084009962
Epoch: 9100, Error: 0.01191792771875808
Epoch: 9200, Error: 0.011932810177700572
Epoch: 9300, Error: 0.011919263215828712
Epoch: 9400, Error: 0.011927802231261952
Epoch: 9500, Error: 0.011920249290886762
Epoch: 9600, Error: 0.011928064790898368
Epoch: 9700, Error: 0.011960474373032605
Epoch: 9800, Error: 0.011894336317574486
Epoch: 9900, Error: 0.011889623298561896
Epoch: 10000, Error: 0.01192106375751351
Epoch: 10100, Error: 0.011924368163087657
Epoch: 10200, Error: 0.011936030433588173
Epoch: 10300, Error: 0.011952068225072148
Epoch: 10400, Error: 0.011836758599950252
Epoch: 10500, Error: 0.011858540681831668
Epoch: 10600, Error: 0.011906086879359748
Epoch: 10700, Error: 0.011912846217314218
Epoch: 10800, Error: 0.011917074830101397
Epoch: 10900, Error: 0.011866160964241031
Epoch: 11000, Error: 0.011873649486009524
Epoch: 11100, Error: 0.011883137501753838
Epoch: 11200, Error: 0.011861273819798703
Epoch: 11300, Error: 0.011845478313851276
Epoch: 11400, Error: 0.011861103711919277
Epoch: 11500, Error: 0.011850438440320459
Epoch: 11600, Error: 0.011847198850171884
Epoch: 11700, Error: 0.012008267910450125
Epoch: 11800, Error: 0.011801478142308218
Epoch: 11900, Error: 0.01183954931947724
Epoch: 12000, Error: 0.011812632937632763
Epoch: 12100, Error: 0.011824780788979038
Epoch: 12200, Error: 0.011816600740340116
Epoch: 12300, Error: 0.01181770149431975
Epoch: 12400, Error: 0.01181148689675903
Epoch: 12500, Error: 0.011819387595919854
Epoch: 12600, Error: 0.011785037876008818
Epoch: 12700, Error: 0.011786813329875018
Epoch: 12800, Error: 0.01180333339002594
Epoch: 12900, Error: 0.011779985488947662
Epoch: 13000, Error: 0.011796955523130698
Epoch: 13100, Error: 0.011858494211427657
Epoch: 13200, Error: 0.011769080430801396
Epoch: 13300, Error: 0.011805813962412837
Epoch: 13400, Error: 0.011765358903799102
Epoch: 13500, Error: 0.01176923002160727
Epoch: 13600, Error: 0.011799779662203223
Epoch: 13700, Error: 0.011831928609592793
Epoch: 13800, Error: 0.01177517085193546
Epoch: 13900, Error: 0.011770598768469516
Epoch: 14000, Error: 0.011787120690548453
Epoch: 14100, Error: 0.011740275272759804
Epoch: 14200, Error: 0.011742735970265773
Epoch: 14300, Error: 0.01178043369613395
Epoch: 14400, Error: 0.01172769707387891
Epoch: 14500, Error: 0.011752254447146804
Epoch: 14600, Error: 0.011742270369538614
Epoch: 14700, Error: 0.011696648792149766
Epoch: 14800, Error: 0.011632006017756505
Epoch: 14900, Error: 0.011682757750754787
Epoch: 15000, Error: 0.011713641931472318
Epoch: 15100, Error: 0.011600481201232617
Epoch: 15200, Error: 0.011642807508687363
Epoch: 15300, Error: 0.011698209383532117
Epoch: 15400, Error: 0.01159852950178457
Epoch: 15500, Error: 0.011643519960105467
Epoch: 15600, Error: 0.011588312192319466
Epoch: 15700, Error: 0.011615002537546984
Epoch: 15800, Error: 0.011508100364356441
Epoch: 15900, Error: 0.011543391152034357
Epoch: 16000, Error: 0.011462758343043377
Epoch: 16100, Error: 0.011411108615341423
Epoch: 16200, Error: 0.011384855728351956
Epoch: 16300, Error: 0.011309961260363988
Epoch: 16400, Error: 0.011334335118217988
Epoch: 16500, Error: 0.011264945200458315
Epoch: 16600, Error: 0.011209159804591251
Epoch: 16700, Error: 0.011085967571080392
Epoch: 16800, Error: 0.011060015805754022
Epoch: 16900, Error: 0.010976077037815777
Epoch: 17000, Error: 0.010966020925165193
Epoch: 17100, Error: 0.01083277414869825
Epoch: 17200, Error: 0.010741902008899934
Epoch: 17300, Error: 0.010677570988823614
Epoch: 17400, Error: 0.0105877428584791
Epoch: 17500, Error: 0.010556935772264728
Epoch: 17600, Error: 0.01046216589492441
Epoch: 17700, Error: 0.01036348145552189
Epoch: 17800, Error: 0.010256953209928197
Epoch: 17900, Error: 0.010230240793735065
Epoch: 18000, Error: 0.010174941932119527
Epoch: 18100, Error: 0.010037634191887182
Epoch: 18200, Error: 0.010005980928982885
Epoch: 18300, Error: 0.009950396914044871
Epoch: 18400, Error: 0.00983764815423599
Epoch: 18500, Error: 0.009804689833394293
Epoch: 18600, Error: 0.009764149496315579
Epoch: 18700, Error: 0.009713913719367251
Epoch: 18800, Error: 0.009777308353664672
Epoch: 18900, Error: 0.009596787939690724
Epoch: 19000, Error: 0.009555146588804362
Epoch: 19100, Error: 0.009510144158486564
Epoch: 19200, Error: 0.0094517953054826
Epoch: 19300, Error: 0.009489446886638312
Epoch: 19400, Error: 0.009336197675380317
Epoch: 19500, Error: 0.00930177119895228
Epoch: 19600, Error: 0.009227903442953132
Epoch: 19700, Error: 0.009158295341057896
Epoch: 19800, Error: 0.009105747895576645
Epoch: 19900, Error: 0.009045061963699651
Epoch: 20000, Error: 0.008997206498113424
Epoch: 20100, Error: 0.008916992669649834
Epoch: 20200, Error: 0.008876367956690235
Epoch: 20300, Error: 0.008816065987164837
Epoch: 20400, Error: 0.008752768768435188
Epoch: 20500, Error: 0.008700062571213167
Epoch: 20600, Error: 0.00865050309879852
Epoch: 20700, Error: 0.008622484750008447
Epoch: 20800, Error: 0.008512454548984116
Epoch: 20900, Error: 0.008470301524559264
Epoch: 21000, Error: 0.008397062446774798
Epoch: 21100, Error: 0.008349406485809022
Epoch: 21200, Error: 0.008299067373588709
Epoch: 21300, Error: 0.00825469824515292
Epoch: 21400, Error: 0.008202955633897238
Epoch: 21500, Error: 0.00816682477751306
Epoch: 21600, Error: 0.008111896225560912
Epoch: 21700, Error: 0.008055524096136454
Epoch: 21800, Error: 0.008017313878200441
Epoch: 21900, Error: 0.00798050440479251
Epoch: 22000, Error: 0.007931987848873704
Epoch: 22100, Error: 0.007877757416493712
Epoch: 22200, Error: 0.007832802563285808
Epoch: 22300, Error: 0.007796813377445471
Epoch: 22400, Error: 0.007777904454627885
Epoch: 22500, Error: 0.007727983037939933
Epoch: 22600, Error: 0.007682599152808912
Epoch: 22700, Error: 0.007644373514215126
Epoch: 22800, Error: 0.007614708600163559
Epoch: 22900, Error: 0.007569083435687011
Epoch: 23000, Error: 0.007543779531420657
Epoch: 23100, Error: 0.007528097568083205
Epoch: 23200, Error: 0.007507098045916348
Epoch: 23300, Error: 0.007456627780399934
Epoch: 23400, Error: 0.007478350317121888
Epoch: 23500, Error: 0.0074127557680141575
Epoch: 23600, Error: 0.007390938577070246
Epoch: 23700, Error: 0.0073782135913582955
Epoch: 23800, Error: 0.00734168232855271
Epoch: 23900, Error: 0.007306842713943632
Epoch: 24000, Error: 0.007311005338852224
Epoch: 24100, Error: 0.007262846152363561
Epoch: 24200, Error: 0.007239346671034267
Epoch: 24300, Error: 0.007243434338689825
Epoch: 24400, Error: 0.007240476697907097
Epoch: 24500, Error: 0.007204698829338443
Epoch: 24600, Error: 0.007181250213492512
Epoch: 24700, Error: 0.007196839778677335
Epoch: 24800, Error: 0.007171768184075346
Epoch: 24900, Error: 0.007153602124722737
Epoch: 25000, Error: 0.00712797549965347
Epoch: 25100, Error: 0.007132628210498761
Epoch: 25200, Error: 0.007126915230177125
Epoch: 25300, Error: 0.007113831656353563
Epoch: 25400, Error: 0.007119524651879313
Epoch: 25500, Error: 0.007100130909813261
Epoch: 25600, Error: 0.007085696712099477
Epoch: 25700, Error: 0.007105809325792534
Epoch: 25800, Error: 0.007133710870703462
Epoch: 25900, Error: 0.0072031213851703035
Epoch: 26000, Error: 0.007193915317270361
Epoch: 26100, Error: 0.007173075571849467
Epoch: 26200, Error: 0.007185705660956173
Epoch: 26300, Error: 0.007218664263768492
Epoch: 26400, Error: 0.007193386888580723
Epoch: 26500, Error: 0.007213636791369063
Epoch: 26600, Error: 0.007304902509203007
Epoch: 26700, Error: 0.00721963554251316
Epoch: 26800, Error: 0.007209895056030971
Epoch: 26900, Error: 0.007294917142971601
Epoch: 27000, Error: 0.007195088289067791
Epoch: 27100, Error: 0.007186863740774935
Epoch: 27200, Error: 0.00716488770681238
Epoch: 27300, Error: 0.007104757143663491
Epoch: 27400, Error: 0.007110584395431549
Epoch: 27500, Error: 0.007136844199325888
Epoch: 27600, Error: 0.007164931040474301
Epoch: 27700, Error: 0.007036025718740539
Epoch: 27800, Error: 0.0070015356231253574
Epoch: 27900, Error: 0.006979470004295188
Epoch: 28000, Error: 0.006974903293725441
Epoch: 28100, Error: 0.0069071444412399175
Epoch: 28200, Error: 0.006895666918487229
Epoch: 28300, Error: 0.006861087940684719
Epoch: 28400, Error: 0.006822873045986406
Epoch: 28500, Error: 0.006765381785238651
Epoch: 28600, Error: 0.0067714867145084985
Epoch: 28700, Error: 0.006743820746998137
Epoch: 28800, Error: 0.006741799914303891
Epoch: 28900, Error: 0.006710418905817348
Epoch: 29000, Error: 0.006707056226254094
Epoch: 29100, Error: 0.00663594279911733
Epoch: 29200, Error: 0.006604889534718024
Epoch: 29300, Error: 0.006609765682884849
Epoch: 29400, Error: 0.006578798541166658
Epoch: 29500, Error: 0.006578453847358525
Epoch: 29600, Error: 0.006600083437334979
Epoch: 29700, Error: 0.0065678759323278
Epoch: 29800, Error: 0.006579168470725967
Epoch: 29900, Error: 0.0065898681418033915
Epoch: 30000, Error: 0.00658620303082948
Epoch: 30100, Error: 0.006577551096143699
Epoch: 30200, Error: 0.0065789717158543405
Finished
