Input Patterns
0.224 0.624 0.067 0.043 
0.11 0.502 0.051 0.043 
0.196 0.667 0.067 0.043 
0.055 0.584 0.067 0.082 
0.027 0.376 0.067 0.043 
0.306 0.71 0.086 0.043 
0.137 0.416 0.067 0.0 
0.416 0.831 0.035 0.043 
0.306 0.792 0.051 0.125 
0.388 0.749 0.118 0.082 
0.306 0.584 0.118 0.043 
0.082 0.667 0.0 0.043 
0.137 0.584 0.153 0.043 
0.196 0.584 0.102 0.125 
0.251 0.584 0.067 0.043 
0.137 0.459 0.102 0.043 
0.251 0.875 0.086 0.0 
0.165 0.459 0.086 0.043 
0.333 0.624 0.051 0.043 
0.027 0.416 0.051 0.043 
0.196 0.624 0.051 0.082 
0.027 0.502 0.051 0.043 
0.224 0.749 0.153 0.125 
0.224 0.749 0.102 0.043 
0.278 0.71 0.086 0.043 
0.165 0.416 0.067 0.043 
0.082 0.459 0.086 0.043 
0.306 0.792 0.118 0.125 
0.196 0.584 0.086 0.043 
0.165 0.459 0.086 0.0 
0.137 0.584 0.102 0.043 
0.0 0.416 0.016 0.0 
0.388 1.0 0.086 0.125 
0.224 0.624 0.067 0.082 
0.224 0.749 0.086 0.082 
0.224 0.71 0.086 0.125 
0.224 0.541 0.118 0.165 
0.196 0.416 0.102 0.043 
0.251 0.624 0.086 0.043 
0.11 0.502 0.102 0.043 
0.306 0.584 0.086 0.125 
0.333 0.918 0.067 0.043 
0.196 0.502 0.035 0.043 
0.165 0.667 0.067 0.0 
0.224 0.584 0.086 0.043 
0.055 0.125 0.051 0.082 
0.196 0.624 0.102 0.208 
0.137 0.416 0.067 0.082 
0.082 0.502 0.067 0.043 
0.196 0.541 0.067 0.043 
0.749 0.502 0.627 0.541 
0.722 0.459 0.663 0.584 
0.612 0.333 0.612 0.584 
0.557 0.541 0.627 0.624 
0.639 0.376 0.612 0.498 
0.196 0.0 0.424 0.376 
0.471 0.082 0.51 0.376 
0.361 0.376 0.439 0.498 
0.361 0.416 0.592 0.584 
0.529 0.082 0.592 0.584 
0.443 0.502 0.643 0.459 
0.557 0.208 0.663 0.584 
0.584 0.376 0.561 0.498 
0.694 0.333 0.643 0.541 
0.471 0.376 0.592 0.584 
0.333 0.169 0.475 0.416 
0.416 0.29 0.49 0.459 
0.306 0.416 0.592 0.584 
0.667 0.459 0.627 0.584 
0.361 0.416 0.525 0.498 
0.333 0.251 0.576 0.459 
0.416 0.251 0.51 0.459 
0.361 0.29 0.541 0.498 
0.388 0.376 0.541 0.498 
0.224 0.208 0.337 0.416 
0.584 0.502 0.592 0.584 
0.333 0.125 0.51 0.498 
0.388 0.333 0.592 0.498 
0.165 0.169 0.388 0.376 
0.251 0.29 0.49 0.541 
0.443 0.416 0.541 0.584 
0.498 0.376 0.627 0.541 
0.667 0.459 0.576 0.541 
0.416 0.29 0.525 0.376 
0.361 0.208 0.49 0.416 
0.498 0.333 0.51 0.498 
0.498 0.333 0.627 0.459 
0.639 0.416 0.576 0.541 
0.667 0.416 0.678 0.667 
0.388 0.251 0.424 0.376 
0.333 0.169 0.459 0.376 
0.471 0.29 0.694 0.624 
0.471 0.584 0.592 0.624 
0.557 0.125 0.576 0.498 
0.333 0.208 0.51 0.498 
0.498 0.416 0.612 0.541 
0.196 0.125 0.388 0.376 
0.388 0.416 0.541 0.459 
0.529 0.376 0.561 0.498 
0.388 0.333 0.525 0.498 
0.557 0.541 0.847 1.0 
0.776 0.416 0.831 0.831 
0.612 0.416 0.812 0.875 
0.165 0.208 0.592 0.667 
0.667 0.208 0.812 0.71 
0.612 0.502 0.694 0.792 
0.694 0.416 0.761 0.831 
0.416 0.333 0.694 0.957 
0.612 0.416 0.761 0.71 
0.945 0.251 1.0 0.918 
0.722 0.502 0.796 0.918 
0.945 0.333 0.965 0.792 
0.667 0.541 0.796 0.831 
0.529 0.333 0.643 0.71 
0.584 0.333 0.78 0.831 
0.863 0.333 0.863 0.749 
0.584 0.333 0.78 0.875 
0.498 0.251 0.78 0.541 
0.557 0.584 0.78 0.957 
0.471 0.416 0.643 0.71 
0.667 0.459 0.78 0.957 
0.416 0.29 0.694 0.749 
0.667 0.541 0.796 1.0 
0.557 0.208 0.678 0.749 
0.529 0.584 0.745 0.918 
0.416 0.29 0.694 0.749 
0.557 0.376 0.78 0.71 
0.918 0.416 0.949 0.831 
0.835 0.376 0.898 0.71 
0.804 0.667 0.863 1.0 
0.584 0.29 0.729 0.749 
0.388 0.208 0.678 0.792 
0.584 0.502 0.729 0.918 
0.945 0.749 0.965 0.875 
0.471 0.082 0.678 0.584 
0.361 0.333 0.663 0.792 
0.557 0.29 0.663 0.71 
0.804 0.502 0.847 0.71 
0.498 0.416 0.51 0.71 
0.804 0.416 0.812 0.624 
1.0 0.749 0.914 0.792 
0.557 0.333 0.694 0.584 
0.945 0.416 0.863 0.918 
0.584 0.459 0.761 0.71 
0.722 0.459 0.745 0.831 
0.722 0.459 0.694 0.918 
0.694 0.502 0.831 0.918 
0.667 0.416 0.714 0.918 
0.612 0.416 0.714 0.792 
0.443 0.416 0.694 0.71 
Teaching Patterns
1.0 0.0 0.0 
1.0 0.0 0.0 
1.0 0.0 0.0 
1.0 0.0 0.0 
1.0 0.0 0.0 
1.0 0.0 0.0 
1.0 0.0 0.0 
1.0 0.0 0.0 
1.0 0.0 0.0 
1.0 0.0 0.0 
1.0 0.0 0.0 
1.0 0.0 0.0 
1.0 0.0 0.0 
1.0 0.0 0.0 
1.0 0.0 0.0 
1.0 0.0 0.0 
1.0 0.0 0.0 
1.0 0.0 0.0 
1.0 0.0 0.0 
1.0 0.0 0.0 
1.0 0.0 0.0 
1.0 0.0 0.0 
1.0 0.0 0.0 
1.0 0.0 0.0 
1.0 0.0 0.0 
1.0 0.0 0.0 
1.0 0.0 0.0 
1.0 0.0 0.0 
1.0 0.0 0.0 
1.0 0.0 0.0 
1.0 0.0 0.0 
1.0 0.0 0.0 
1.0 0.0 0.0 
1.0 0.0 0.0 
1.0 0.0 0.0 
1.0 0.0 0.0 
1.0 0.0 0.0 
1.0 0.0 0.0 
1.0 0.0 0.0 
1.0 0.0 0.0 
1.0 0.0 0.0 
1.0 0.0 0.0 
1.0 0.0 0.0 
1.0 0.0 0.0 
1.0 0.0 0.0 
1.0 0.0 0.0 
1.0 0.0 0.0 
1.0 0.0 0.0 
1.0 0.0 0.0 
1.0 0.0 0.0 
0.0 1.0 0.0 
0.0 1.0 0.0 
0.0 1.0 0.0 
0.0 1.0 0.0 
0.0 1.0 0.0 
0.0 1.0 0.0 
0.0 1.0 0.0 
0.0 1.0 0.0 
0.0 1.0 0.0 
0.0 1.0 0.0 
0.0 1.0 0.0 
0.0 1.0 0.0 
0.0 1.0 0.0 
0.0 1.0 0.0 
0.0 1.0 0.0 
0.0 1.0 0.0 
0.0 1.0 0.0 
0.0 1.0 0.0 
0.0 1.0 0.0 
0.0 1.0 0.0 
0.0 1.0 0.0 
0.0 1.0 0.0 
0.0 1.0 0.0 
0.0 1.0 0.0 
0.0 1.0 0.0 
0.0 1.0 0.0 
0.0 1.0 0.0 
0.0 1.0 0.0 
0.0 1.0 0.0 
0.0 1.0 0.0 
0.0 1.0 0.0 
0.0 1.0 0.0 
0.0 1.0 0.0 
0.0 1.0 0.0 
0.0 1.0 0.0 
0.0 1.0 0.0 
0.0 1.0 0.0 
0.0 1.0 0.0 
0.0 1.0 0.0 
0.0 1.0 0.0 
0.0 1.0 0.0 
0.0 1.0 0.0 
0.0 1.0 0.0 
0.0 1.0 0.0 
0.0 1.0 0.0 
0.0 1.0 0.0 
0.0 1.0 0.0 
0.0 1.0 0.0 
0.0 1.0 0.0 
0.0 1.0 0.0 
0.0 0.0 1.0 
0.0 0.0 1.0 
0.0 0.0 1.0 
0.0 0.0 1.0 
0.0 0.0 1.0 
0.0 0.0 1.0 
0.0 0.0 1.0 
0.0 0.0 1.0 
0.0 0.0 1.0 
0.0 0.0 1.0 
0.0 0.0 1.0 
0.0 0.0 1.0 
0.0 0.0 1.0 
0.0 0.0 1.0 
0.0 0.0 1.0 
0.0 0.0 1.0 
0.0 0.0 1.0 
0.0 0.0 1.0 
0.0 0.0 1.0 
0.0 0.0 1.0 
0.0 0.0 1.0 
0.0 0.0 1.0 
0.0 0.0 1.0 
0.0 0.0 1.0 
0.0 0.0 1.0 
0.0 0.0 1.0 
0.0 0.0 1.0 
0.0 0.0 1.0 
0.0 0.0 1.0 
0.0 0.0 1.0 
0.0 0.0 1.0 
0.0 0.0 1.0 
0.0 0.0 1.0 
0.0 0.0 1.0 
0.0 0.0 1.0 
0.0 0.0 1.0 
0.0 0.0 1.0 
0.0 0.0 1.0 
0.0 0.0 1.0 
0.0 0.0 1.0 
0.0 0.0 1.0 
0.0 0.0 1.0 
0.0 0.0 1.0 
0.0 0.0 1.0 
0.0 0.0 1.0 
0.0 0.0 1.0 
0.0 0.0 1.0 
0.0 0.0 1.0 
0.0 0.0 1.0 
0.0 0.0 1.0 
Learning : 0.05
Momentum : 0.6000000238418579
Epoch: 100, Error: 0.046820797693578664
Epoch: 200, Error: 0.019934403535858493
Epoch: 300, Error: 0.015993946773203108
Epoch: 400, Error: 0.014777911181951934
Epoch: 500, Error: 0.013788760446052414
Epoch: 600, Error: 0.013197056848155695
Epoch: 700, Error: 0.012850280590191925
Epoch: 800, Error: 0.012583339985284998
Epoch: 900, Error: 0.012464116157467856
Epoch: 1000, Error: 0.012306925649210685
Epoch: 1100, Error: 0.01227928066618813
Epoch: 1200, Error: 0.012103868813325149
Epoch: 1300, Error: 0.012060283175006237
Epoch: 1400, Error: 0.011969459981934329
Epoch: 1500, Error: 0.012011633378455532
Epoch: 1600, Error: 0.011936165044941292
Epoch: 1700, Error: 0.01192269062167968
Epoch: 1800, Error: 0.011926954937827722
Epoch: 1900, Error: 0.011898491277568138
Epoch: 2000, Error: 0.011887486716423873
Epoch: 2100, Error: 0.011911163463205175
Epoch: 2200, Error: 0.011912491964409976
Epoch: 2300, Error: 0.011873051875446293
Epoch: 2400, Error: 0.011860455798869433
Epoch: 2500, Error: 0.0119416772276803
Epoch: 2600, Error: 0.011838618161435471
Epoch: 2700, Error: 0.011812173176023377
Epoch: 2800, Error: 0.011794311983852578
Epoch: 2900, Error: 0.012055325812994584
Epoch: 3000, Error: 0.011791645994734118
Epoch: 3100, Error: 0.011794998650217912
Epoch: 3200, Error: 0.011779460406304006
Epoch: 3300, Error: 0.011765797810228889
Epoch: 3400, Error: 0.011779110080807337
Epoch: 3500, Error: 0.011789288973690653
Epoch: 3600, Error: 0.011767788156656914
Epoch: 3700, Error: 0.011854653770232938
Epoch: 3800, Error: 0.011773776938776884
Epoch: 3900, Error: 0.01177609288275709
Epoch: 4000, Error: 0.01175302889743935
Epoch: 4100, Error: 0.011758101842768017
Epoch: 4200, Error: 0.011756354126464379
Epoch: 4300, Error: 0.011785886167947407
Epoch: 4400, Error: 0.011746052449337283
Epoch: 4500, Error: 0.011789520191967225
Epoch: 4600, Error: 0.011761383677217253
Epoch: 4700, Error: 0.011741315229049934
Epoch: 4800, Error: 0.011764089458494057
Epoch: 4900, Error: 0.011726124711359432
Epoch: 5000, Error: 0.011705313279636202
Epoch: 5100, Error: 0.0117587866251262
Epoch: 5200, Error: 0.011730126513254412
Epoch: 5300, Error: 0.01167486008994477
Epoch: 5400, Error: 0.01168467524427611
Epoch: 5500, Error: 0.01165796611657842
Epoch: 5600, Error: 0.011657974010323409
Epoch: 5700, Error: 0.011636635330394513
Epoch: 5800, Error: 0.01162124441803667
Epoch: 5900, Error: 0.01161097249979324
Epoch: 6000, Error: 0.01159660569119175
Epoch: 6100, Error: 0.011586706937281517
Epoch: 6200, Error: 0.01161430047276353
Epoch: 6300, Error: 0.011546242351970526
Epoch: 6400, Error: 0.01153039012745168
Epoch: 6500, Error: 0.011546021047907836
Epoch: 6600, Error: 0.011488800310611702
Epoch: 6700, Error: 0.011486606029669907
Epoch: 6800, Error: 0.011454267450048992
Epoch: 6900, Error: 0.011425599425147993
Epoch: 7000, Error: 0.011407599938248346
Epoch: 7100, Error: 0.0113790681072804
Epoch: 7200, Error: 0.01167428003409446
Epoch: 7300, Error: 0.011412405183873462
Epoch: 7400, Error: 0.011319622338391731
Epoch: 7500, Error: 0.011274481612414422
Epoch: 7600, Error: 0.01125205998363033
Epoch: 7700, Error: 0.011177308584436042
Epoch: 7800, Error: 0.011156920094921221
Epoch: 7900, Error: 0.011075079638978006
Epoch: 8000, Error: 0.011039426305631069
Epoch: 8100, Error: 0.010969403489076763
Epoch: 8200, Error: 0.010932819480403727
Epoch: 8300, Error: 0.010865105022694123
Epoch: 8400, Error: 0.010790022234148778
Epoch: 8500, Error: 0.010695257899302823
Epoch: 8600, Error: 0.010606796391120346
Epoch: 8700, Error: 0.010516457718082246
Epoch: 8800, Error: 0.010416037580317759
Epoch: 8900, Error: 0.010326843628081402
Epoch: 9000, Error: 0.010335366814632471
Epoch: 9100, Error: 0.01020783575605643
Epoch: 9200, Error: 0.010004955531168619
Epoch: 9300, Error: 0.009858969973752824
Epoch: 9400, Error: 0.009772687716109528
Epoch: 9500, Error: 0.009667227549886219
Epoch: 9600, Error: 0.009547527256856623
Epoch: 9700, Error: 0.00940443896044051
Epoch: 9800, Error: 0.009267545532782587
Epoch: 9900, Error: 0.009124933285449078
Epoch: 10000, Error: 0.00899786411591085
Epoch: 10100, Error: 0.008880341339526662
Epoch: 10200, Error: 0.008753172905169401
Epoch: 10300, Error: 0.008612932170525825
Epoch: 10400, Error: 0.008502761682068679
Epoch: 10500, Error: 0.008415608905256779
Epoch: 10600, Error: 0.008291861126383422
Epoch: 10700, Error: 0.008167866915794818
Epoch: 10800, Error: 0.008067575456124677
Epoch: 10900, Error: 0.00796279115276207
Epoch: 11000, Error: 0.0078768751615514
Epoch: 11100, Error: 0.007810965723602675
Epoch: 11200, Error: 0.0077370492187156074
Epoch: 11300, Error: 0.007614072524034312
Epoch: 11400, Error: 0.007568535254267008
Epoch: 11500, Error: 0.007491396498720445
Epoch: 11600, Error: 0.007409864132211206
Epoch: 11700, Error: 0.007368351810088155
Epoch: 11800, Error: 0.007266612866027586
Epoch: 11900, Error: 0.007199152037590567
Epoch: 12000, Error: 0.007138032859014631
Epoch: 12100, Error: 0.007065358874875318
Epoch: 12200, Error: 0.007000025217214707
Epoch: 12300, Error: 0.006957868280926279
Epoch: 12400, Error: 0.006926851973220225
Epoch: 12500, Error: 0.006852168781275716
Epoch: 12600, Error: 0.006797411595083262
Epoch: 12700, Error: 0.006764764724344211
Epoch: 12800, Error: 0.006718084347546247
Epoch: 12900, Error: 0.006732181567237194
Epoch: 13000, Error: 0.0066518402435564875
Epoch: 13100, Error: 0.006672882027532012
Epoch: 13200, Error: 0.006590970517519873
Epoch: 13300, Error: 0.00656238617331373
Epoch: 13400, Error: 0.00651076197234128
Epoch: 13500, Error: 0.006487716686953374
Epoch: 13600, Error: 0.006446038314661001
Epoch: 13700, Error: 0.0064277028038190725
Epoch: 13800, Error: 0.00640015062571844
Epoch: 13900, Error: 0.006367508205882219
Epoch: 14000, Error: 0.006357586782866213
Epoch: 14100, Error: 0.006311044447154649
Epoch: 14200, Error: 0.006297095642205845
Epoch: 14300, Error: 0.006271506525078163
Epoch: 14400, Error: 0.006221344714648536
Epoch: 14500, Error: 0.006226686492379652
Epoch: 14600, Error: 0.006196221804038952
Epoch: 14700, Error: 0.006180974961448755
Epoch: 14800, Error: 0.00619020142176154
Epoch: 14900, Error: 0.006162448547737898
Epoch: 15000, Error: 0.006199281868244985
Epoch: 15100, Error: 0.006121910752745459
Epoch: 15200, Error: 0.00611887343471574
Epoch: 15300, Error: 0.006117384385847316
Epoch: 15400, Error: 0.00610540583290739
Epoch: 15500, Error: 0.0060429713855396595
Epoch: 15600, Error: 0.006046975855342507
Epoch: 15700, Error: 0.006018844236646965
Epoch: 15800, Error: 0.0060068054590736285
Epoch: 15900, Error: 0.005944491089089932
Epoch: 16000, Error: 0.0059425324320261435
Epoch: 16100, Error: 0.005867114222276531
Epoch: 16200, Error: 0.005830912693204237
Epoch: 16300, Error: 0.0057467354936385434
Epoch: 16400, Error: 0.005713606807166775
Epoch: 16500, Error: 0.005684319429561966
Epoch: 16600, Error: 0.005647191104568082
Epoch: 16700, Error: 0.0055834541361681036
Epoch: 16800, Error: 0.005535705814838523
Epoch: 16900, Error: 0.005499139806370507
Epoch: 17000, Error: 0.00545965564125129
Epoch: 17100, Error: 0.005424760190653931
Epoch: 17200, Error: 0.005393353032300072
Epoch: 17300, Error: 0.005363302994495319
Epoch: 17400, Error: 0.005327548014999123
Epoch: 17500, Error: 0.005297416413303565
Epoch: 17600, Error: 0.005292343851696087
Epoch: 17700, Error: 0.005276097306511365
Epoch: 17800, Error: 0.005236647666243128
Epoch: 17900, Error: 0.005211618775811245
Epoch: 18000, Error: 0.005210480962688024
Epoch: 18100, Error: 0.005151145038726531
Epoch: 18200, Error: 0.005127196164826491
Epoch: 18300, Error: 0.005160497435240403
Epoch: 18400, Error: 0.005102437073300679
Epoch: 18500, Error: 0.005045442126044253
Epoch: 18600, Error: 0.005015452271452431
Epoch: 18700, Error: 0.005000101209943168
Epoch: 18800, Error: 0.004983181714449273
Epoch: 18900, Error: 0.004974240486786489
Epoch: 19000, Error: 0.004958417830990685
Epoch: 19100, Error: 0.004923958642972284
Epoch: 19200, Error: 0.004900729196291634
Epoch: 19300, Error: 0.004912644071053907
Epoch: 19400, Error: 0.004872340476513234
Epoch: 19500, Error: 0.0048425880506711835
Epoch: 19600, Error: 0.004825163892602313
Epoch: 19700, Error: 0.0048985473675661655
Epoch: 19800, Error: 0.004805460865786006
Epoch: 19900, Error: 0.004805020474928878
Epoch: 20000, Error: 0.0048019420565502255
Epoch: 20100, Error: 0.0047596064575666395
Epoch: 20200, Error: 0.004706032427218975
Epoch: 20300, Error: 0.004669878427558642
Epoch: 20400, Error: 0.00469037661487657
Epoch: 20500, Error: 0.004633425237254505
Epoch: 20600, Error: 0.004618574426035872
Epoch: 20700, Error: 0.004655359371272072
Epoch: 20800, Error: 0.004565074006143824
Epoch: 20900, Error: 0.004567701166823482
Epoch: 21000, Error: 0.004592024284878961
Epoch: 21100, Error: 0.004479647060139305
Epoch: 21200, Error: 0.004445887008841639
Epoch: 21300, Error: 0.004426003173130871
Epoch: 21400, Error: 0.004407480843776986
Epoch: 21500, Error: 0.004398286250504423
Epoch: 21600, Error: 0.0043948149616637455
Epoch: 21700, Error: 0.004339273138846662
Epoch: 21800, Error: 0.004286408859149536
Epoch: 21900, Error: 0.004252923085600995
Epoch: 22000, Error: 0.004236096781197112
Epoch: 22100, Error: 0.004211095107644118
Epoch: 22200, Error: 0.004186409542517089
Epoch: 22300, Error: 0.004177686328497413
Epoch: 22400, Error: 0.004137997282695307
Epoch: 22500, Error: 0.004153527160500063
Epoch: 22600, Error: 0.004100535211275542
Epoch: 22700, Error: 0.004094945104139763
Epoch: 22800, Error: 0.004067730083958086
Epoch: 22900, Error: 0.0040361939517714685
Epoch: 23000, Error: 0.004023495721882924
Epoch: 23100, Error: 0.00402838503934586
Epoch: 23200, Error: 0.003958401397759487
Epoch: 23300, Error: 0.003933645836924293
Epoch: 23400, Error: 0.00398340427815192
Epoch: 23500, Error: 0.003885605770883945
Epoch: 23600, Error: 0.0038827970400675624
Epoch: 23700, Error: 0.003826256991987575
Epoch: 23800, Error: 0.00380445996874784
Epoch: 23900, Error: 0.003800717733197657
Epoch: 24000, Error: 0.003809977466064275
Epoch: 24100, Error: 0.0037431386886371933
Epoch: 24200, Error: 0.0037714224611453246
Epoch: 24300, Error: 0.003708986471313631
Epoch: 24400, Error: 0.0036635948949171097
Epoch: 24500, Error: 0.0036397901208212275
Epoch: 24600, Error: 0.003637806756361453
Epoch: 24700, Error: 0.003603221685842615
Epoch: 24800, Error: 0.0035795747781602744
Epoch: 24900, Error: 0.003562818288194977
Epoch: 25000, Error: 0.0035413352882932895
Epoch: 25100, Error: 0.003521033975215251
Epoch: 25200, Error: 0.0034959264827215146
Epoch: 25300, Error: 0.003459327499325993
Epoch: 25400, Error: 0.0034529133986744083
Epoch: 25500, Error: 0.0034288280135744997
Epoch: 25600, Error: 0.003442827113510731
Epoch: 25700, Error: 0.00338355238749011
Epoch: 25800, Error: 0.00337826419122481
Epoch: 25900, Error: 0.0033302409834181272
Epoch: 26000, Error: 0.0033234988447241056
Epoch: 26100, Error: 0.0033038805758679626
Epoch: 26200, Error: 0.003285495052905032
Epoch: 26300, Error: 0.0032534361855923863
Epoch: 26400, Error: 0.003343621099702045
Epoch: 26500, Error: 0.003270844625736546
Epoch: 26600, Error: 0.0032383177951503233
Epoch: 26700, Error: 0.003206145501645274
Epoch: 26800, Error: 0.003177674017262614
Epoch: 26900, Error: 0.003226017001586367
Epoch: 27000, Error: 0.00314707987690936
Epoch: 27100, Error: 0.003134148013271219
Epoch: 27200, Error: 0.0031912323261484798
Epoch: 27300, Error: 0.0031032512476781263
Epoch: 27400, Error: 0.0030939234864253776
Epoch: 27500, Error: 0.0030788057979843192
Epoch: 27600, Error: 0.003079709907061073
Epoch: 27700, Error: 0.0030832302477036585
Epoch: 27800, Error: 0.003015314140609763
Epoch: 27900, Error: 0.0030035125476353597
Epoch: 28000, Error: 0.002966587203723484
Epoch: 28100, Error: 0.0029584558186186373
Epoch: 28200, Error: 0.0030238339193769817
Epoch: 28300, Error: 0.0029167557992995584
Epoch: 28400, Error: 0.002896081854667775
Epoch: 28500, Error: 0.0028702947785786753
Epoch: 28600, Error: 0.002866040414822571
Epoch: 28700, Error: 0.002832998600463268
Epoch: 28800, Error: 0.0028126833938739754
Epoch: 28900, Error: 0.00279013541055556
Epoch: 29000, Error: 0.0028260741677399695
Epoch: 29100, Error: 0.00280703516599556
Epoch: 29200, Error: 0.0027398196597464342
Epoch: 29300, Error: 0.0027663887046232376
Epoch: 29400, Error: 0.002707575939593432
Epoch: 29500, Error: 0.002698656061725477
Epoch: 29600, Error: 0.0026754265394096865
Epoch: 29700, Error: 0.0027038809708474043
Epoch: 29800, Error: 0.0026373360469519962
Epoch: 29900, Error: 0.0026155009968043498
Epoch: 30000, Error: 0.002588873599216314
Epoch: 30100, Error: 0.0025659268573108083
Epoch: 30200, Error: 0.002624481283723584
Epoch: 30300, Error: 0.0025633953905873654
Epoch: 30400, Error: 0.002516958883261529
Epoch: 30500, Error: 0.0025058355857390867
Epoch: 30600, Error: 0.002533759563469667
Epoch: 30700, Error: 0.0024733163144068085
Epoch: 30800, Error: 0.002456354042077182
Epoch: 30900, Error: 0.0024629584734672406
Epoch: 31000, Error: 0.002412356185181569
Epoch: 31100, Error: 0.002421064976278484
Epoch: 31200, Error: 0.002391255552870047
Epoch: 31300, Error: 0.002398922463328885
Epoch: 31400, Error: 0.002443053773731691
Epoch: 31500, Error: 0.0023822984484476806
Epoch: 31600, Error: 0.002327555272056818
Epoch: 31700, Error: 0.002325655163887254
Epoch: 31800, Error: 0.0023482340083315124
Epoch: 31900, Error: 0.002345495885759837
Epoch: 32000, Error: 0.0022693343918126314
Epoch: 32100, Error: 0.002276646010262981
Epoch: 32200, Error: 0.0022865348494154145
Epoch: 32300, Error: 0.002223926038325669
Epoch: 32400, Error: 0.0022341342180486118
Epoch: 32500, Error: 0.002263522944588314
Epoch: 32600, Error: 0.0021919024870217982
Epoch: 32700, Error: 0.002237492511483323
Epoch: 32800, Error: 0.0022929531734950026
Epoch: 32900, Error: 0.002181952042221906
Epoch: 33000, Error: 0.002127018500314327
Epoch: 33100, Error: 0.0021463823065185506
Epoch: 33200, Error: 0.0021219216918107386
Epoch: 33300, Error: 0.002088937677881661
Epoch: 33400, Error: 0.0020712240830148055
Epoch: 33500, Error: 0.0020657418483779584
Epoch: 33600, Error: 0.0020752483142969648
Epoch: 33700, Error: 0.0020672473079954676
Epoch: 33800, Error: 0.0020466384091399007
Epoch: 33900, Error: 0.002060250032494904
Epoch: 34000, Error: 0.002040622966059595
Epoch: 34100, Error: 0.00200039121061389
Epoch: 34200, Error: 0.002026971258136341
Epoch: 34300, Error: 0.0020022579886574718
Epoch: 34400, Error: 0.0020134012835883296
Epoch: 34500, Error: 0.001968302751016652
Epoch: 34600, Error: 0.0019469388203707143
Epoch: 34700, Error: 0.0020053601356912884
Epoch: 34800, Error: 0.001948031449926179
Epoch: 34900, Error: 0.0019455197196001795
Epoch: 35000, Error: 0.0019121147543951422
Epoch: 35100, Error: 0.0019153941018526994
Epoch: 35200, Error: 0.0019072528316993794
Epoch: 35300, Error: 0.001869499952532509
Epoch: 35400, Error: 0.0018582661410876985
Epoch: 35500, Error: 0.001917720483453212
Epoch: 35600, Error: 0.0018547268329043192
Epoch: 35700, Error: 0.0018216714060236248
Epoch: 35800, Error: 0.001827273044312568
Epoch: 35900, Error: 0.0017943061351147931
Epoch: 36000, Error: 0.001834009760074575
Epoch: 36100, Error: 0.0017794419393543977
Epoch: 36200, Error: 0.001766902918111317
Epoch: 36300, Error: 0.0017769050606874983
Epoch: 36400, Error: 0.0017578977788748084
Epoch: 36500, Error: 0.0017385885292956521
Epoch: 36600, Error: 0.0017365884292493345
Epoch: 36700, Error: 0.001728393182353844
Epoch: 36800, Error: 0.001724348921938181
Epoch: 36900, Error: 0.0017531687513499628
Epoch: 37000, Error: 0.0017283819388107745
Epoch: 37100, Error: 0.0019029785783268006
Epoch: 37200, Error: 0.0017473068916969787
Epoch: 37300, Error: 0.0016756945861393197
Epoch: 37400, Error: 0.0016924760837065754
Epoch: 37500, Error: 0.001660359568776109
Epoch: 37600, Error: 0.0016547626999967758
Epoch: 37700, Error: 0.001644593610280274
Epoch: 37800, Error: 0.0016412587758338774
Epoch: 37900, Error: 0.0016300784741496107
Epoch: 38000, Error: 0.0016367711185437338
Epoch: 38100, Error: 0.0016252769311231022
Epoch: 38200, Error: 0.0016446801451304202
Epoch: 38300, Error: 0.0016296346340721453
Epoch: 38400, Error: 0.0016029772769133757
Epoch: 38500, Error: 0.0015983060755301699
Epoch: 38600, Error: 0.001638217573133522
Epoch: 38700, Error: 0.0015857659183481818
Epoch: 38800, Error: 0.0015742384986215765
Epoch: 38900, Error: 0.0015933164469537507
Epoch: 39000, Error: 0.0015773966605250626
Epoch: 39100, Error: 0.0015639845041636466
Epoch: 39200, Error: 0.0015508120743808814
Epoch: 39300, Error: 0.0015598369967837716
Epoch: 39400, Error: 0.001567523524192987
Epoch: 39500, Error: 0.0015523062734764887
Epoch: 39600, Error: 0.0015375819951016893
Epoch: 39700, Error: 0.0015309357728611444
Epoch: 39800, Error: 0.0015300783448040382
Epoch: 39900, Error: 0.0015443377493110785
Epoch: 40000, Error: 0.00151915693890295
Epoch: 40100, Error: 0.0015213678140264999
Epoch: 40200, Error: 0.0015113768400056987
Epoch: 40300, Error: 0.0015068149794366264
Epoch: 40400, Error: 0.0015039322554917891
Epoch: 40500, Error: 0.0015020672415887466
Epoch: 40600, Error: 0.0015197513074279377
Epoch: 40700, Error: 0.0014956701659223474
Epoch: 40800, Error: 0.0015870019991061051
Epoch: 40900, Error: 0.0014815625143006492
Epoch: 41000, Error: 0.0014862811690899743
Epoch: 41100, Error: 0.0014822676723594027
Epoch: 41200, Error: 0.0014738360969485844
Epoch: 41300, Error: 0.0014906510689791726
Epoch: 41400, Error: 0.0014669476719327867
Epoch: 41500, Error: 0.0014659591737375655
Epoch: 41600, Error: 0.001525104691293441
Epoch: 41700, Error: 0.0014761762159043199
Epoch: 41800, Error: 0.0014633197971527015
Epoch: 41900, Error: 0.0014571370308163471
Epoch: 42000, Error: 0.0014577459522059986
Epoch: 42100, Error: 0.001448473185561423
Epoch: 42200, Error: 0.001460784921879383
Epoch: 42300, Error: 0.0014532721264525765
Epoch: 42400, Error: 0.0014669376237583492
Epoch: 42500, Error: 0.0014533221166393845
Epoch: 42600, Error: 0.0014592860256604908
Epoch: 42700, Error: 0.001457714031849957
Epoch: 42800, Error: 0.0014365457295202374
Finished
