Input Patterns
0.224 0.624 0.067 0.043 
0.11 0.502 0.051 0.043 
0.196 0.667 0.067 0.043 
0.055 0.584 0.067 0.082 
0.027 0.376 0.067 0.043 
0.306 0.71 0.086 0.043 
0.137 0.416 0.067 0.0 
0.416 0.831 0.035 0.043 
0.306 0.792 0.051 0.125 
0.388 0.749 0.118 0.082 
0.306 0.584 0.118 0.043 
0.082 0.667 0.0 0.043 
0.137 0.584 0.153 0.043 
0.196 0.584 0.102 0.125 
0.251 0.584 0.067 0.043 
0.137 0.459 0.102 0.043 
0.251 0.875 0.086 0.0 
0.165 0.459 0.086 0.043 
0.333 0.624 0.051 0.043 
0.027 0.416 0.051 0.043 
0.196 0.624 0.051 0.082 
0.027 0.502 0.051 0.043 
0.224 0.749 0.153 0.125 
0.224 0.749 0.102 0.043 
0.278 0.71 0.086 0.043 
0.165 0.416 0.067 0.043 
0.082 0.459 0.086 0.043 
0.306 0.792 0.118 0.125 
0.196 0.584 0.086 0.043 
0.165 0.459 0.086 0.0 
0.137 0.584 0.102 0.043 
0.0 0.416 0.016 0.0 
0.388 1.0 0.086 0.125 
0.224 0.624 0.067 0.082 
0.224 0.749 0.086 0.082 
0.224 0.71 0.086 0.125 
0.224 0.541 0.118 0.165 
0.196 0.416 0.102 0.043 
0.251 0.624 0.086 0.043 
0.11 0.502 0.102 0.043 
0.306 0.584 0.086 0.125 
0.333 0.918 0.067 0.043 
0.196 0.502 0.035 0.043 
0.165 0.667 0.067 0.0 
0.224 0.584 0.086 0.043 
0.055 0.125 0.051 0.082 
0.196 0.624 0.102 0.208 
0.137 0.416 0.067 0.082 
0.082 0.502 0.067 0.043 
0.196 0.541 0.067 0.043 
0.749 0.502 0.627 0.541 
0.722 0.459 0.663 0.584 
0.612 0.333 0.612 0.584 
0.557 0.541 0.627 0.624 
0.639 0.376 0.612 0.498 
0.196 0.0 0.424 0.376 
0.471 0.082 0.51 0.376 
0.361 0.376 0.439 0.498 
0.361 0.416 0.592 0.584 
0.529 0.082 0.592 0.584 
0.443 0.502 0.643 0.459 
0.557 0.208 0.663 0.584 
0.584 0.376 0.561 0.498 
0.694 0.333 0.643 0.541 
0.471 0.376 0.592 0.584 
0.333 0.169 0.475 0.416 
0.416 0.29 0.49 0.459 
0.306 0.416 0.592 0.584 
0.667 0.459 0.627 0.584 
0.361 0.416 0.525 0.498 
0.333 0.251 0.576 0.459 
0.416 0.251 0.51 0.459 
0.361 0.29 0.541 0.498 
0.388 0.376 0.541 0.498 
0.224 0.208 0.337 0.416 
0.584 0.502 0.592 0.584 
0.333 0.125 0.51 0.498 
0.388 0.333 0.592 0.498 
0.165 0.169 0.388 0.376 
0.251 0.29 0.49 0.541 
0.443 0.416 0.541 0.584 
0.498 0.376 0.627 0.541 
0.667 0.459 0.576 0.541 
0.416 0.29 0.525 0.376 
0.361 0.208 0.49 0.416 
0.498 0.333 0.51 0.498 
0.498 0.333 0.627 0.459 
0.639 0.416 0.576 0.541 
0.667 0.416 0.678 0.667 
0.388 0.251 0.424 0.376 
0.333 0.169 0.459 0.376 
0.471 0.29 0.694 0.624 
0.471 0.584 0.592 0.624 
0.557 0.125 0.576 0.498 
0.333 0.208 0.51 0.498 
0.498 0.416 0.612 0.541 
0.196 0.125 0.388 0.376 
0.388 0.416 0.541 0.459 
0.529 0.376 0.561 0.498 
0.388 0.333 0.525 0.498 
0.557 0.541 0.847 1.0 
0.776 0.416 0.831 0.831 
0.612 0.416 0.812 0.875 
0.165 0.208 0.592 0.667 
0.667 0.208 0.812 0.71 
0.612 0.502 0.694 0.792 
0.694 0.416 0.761 0.831 
0.416 0.333 0.694 0.957 
0.612 0.416 0.761 0.71 
0.945 0.251 1.0 0.918 
0.722 0.502 0.796 0.918 
0.945 0.333 0.965 0.792 
0.667 0.541 0.796 0.831 
0.529 0.333 0.643 0.71 
0.584 0.333 0.78 0.831 
0.863 0.333 0.863 0.749 
0.584 0.333 0.78 0.875 
0.498 0.251 0.78 0.541 
0.557 0.584 0.78 0.957 
0.471 0.416 0.643 0.71 
0.667 0.459 0.78 0.957 
0.416 0.29 0.694 0.749 
0.667 0.541 0.796 1.0 
0.557 0.208 0.678 0.749 
0.529 0.584 0.745 0.918 
0.416 0.29 0.694 0.749 
0.557 0.376 0.78 0.71 
0.918 0.416 0.949 0.831 
0.835 0.376 0.898 0.71 
0.804 0.667 0.863 1.0 
0.584 0.29 0.729 0.749 
0.388 0.208 0.678 0.792 
0.584 0.502 0.729 0.918 
0.945 0.749 0.965 0.875 
0.471 0.082 0.678 0.584 
0.361 0.333 0.663 0.792 
0.557 0.29 0.663 0.71 
0.804 0.502 0.847 0.71 
0.498 0.416 0.51 0.71 
0.804 0.416 0.812 0.624 
1.0 0.749 0.914 0.792 
0.557 0.333 0.694 0.584 
0.945 0.416 0.863 0.918 
0.584 0.459 0.761 0.71 
0.722 0.459 0.745 0.831 
0.722 0.459 0.694 0.918 
0.694 0.502 0.831 0.918 
0.667 0.416 0.714 0.918 
0.612 0.416 0.714 0.792 
0.443 0.416 0.694 0.71 
Teaching Patterns
1.0 0.0 0.0 
1.0 0.0 0.0 
1.0 0.0 0.0 
1.0 0.0 0.0 
1.0 0.0 0.0 
1.0 0.0 0.0 
1.0 0.0 0.0 
1.0 0.0 0.0 
1.0 0.0 0.0 
1.0 0.0 0.0 
1.0 0.0 0.0 
1.0 0.0 0.0 
1.0 0.0 0.0 
1.0 0.0 0.0 
1.0 0.0 0.0 
1.0 0.0 0.0 
1.0 0.0 0.0 
1.0 0.0 0.0 
1.0 0.0 0.0 
1.0 0.0 0.0 
1.0 0.0 0.0 
1.0 0.0 0.0 
1.0 0.0 0.0 
1.0 0.0 0.0 
1.0 0.0 0.0 
1.0 0.0 0.0 
1.0 0.0 0.0 
1.0 0.0 0.0 
1.0 0.0 0.0 
1.0 0.0 0.0 
1.0 0.0 0.0 
1.0 0.0 0.0 
1.0 0.0 0.0 
1.0 0.0 0.0 
1.0 0.0 0.0 
1.0 0.0 0.0 
1.0 0.0 0.0 
1.0 0.0 0.0 
1.0 0.0 0.0 
1.0 0.0 0.0 
1.0 0.0 0.0 
1.0 0.0 0.0 
1.0 0.0 0.0 
1.0 0.0 0.0 
1.0 0.0 0.0 
1.0 0.0 0.0 
1.0 0.0 0.0 
1.0 0.0 0.0 
1.0 0.0 0.0 
1.0 0.0 0.0 
0.0 1.0 0.0 
0.0 1.0 0.0 
0.0 1.0 0.0 
0.0 1.0 0.0 
0.0 1.0 0.0 
0.0 1.0 0.0 
0.0 1.0 0.0 
0.0 1.0 0.0 
0.0 1.0 0.0 
0.0 1.0 0.0 
0.0 1.0 0.0 
0.0 1.0 0.0 
0.0 1.0 0.0 
0.0 1.0 0.0 
0.0 1.0 0.0 
0.0 1.0 0.0 
0.0 1.0 0.0 
0.0 1.0 0.0 
0.0 1.0 0.0 
0.0 1.0 0.0 
0.0 1.0 0.0 
0.0 1.0 0.0 
0.0 1.0 0.0 
0.0 1.0 0.0 
0.0 1.0 0.0 
0.0 1.0 0.0 
0.0 1.0 0.0 
0.0 1.0 0.0 
0.0 1.0 0.0 
0.0 1.0 0.0 
0.0 1.0 0.0 
0.0 1.0 0.0 
0.0 1.0 0.0 
0.0 1.0 0.0 
0.0 1.0 0.0 
0.0 1.0 0.0 
0.0 1.0 0.0 
0.0 1.0 0.0 
0.0 1.0 0.0 
0.0 1.0 0.0 
0.0 1.0 0.0 
0.0 1.0 0.0 
0.0 1.0 0.0 
0.0 1.0 0.0 
0.0 1.0 0.0 
0.0 1.0 0.0 
0.0 1.0 0.0 
0.0 1.0 0.0 
0.0 1.0 0.0 
0.0 1.0 0.0 
0.0 0.0 1.0 
0.0 0.0 1.0 
0.0 0.0 1.0 
0.0 0.0 1.0 
0.0 0.0 1.0 
0.0 0.0 1.0 
0.0 0.0 1.0 
0.0 0.0 1.0 
0.0 0.0 1.0 
0.0 0.0 1.0 
0.0 0.0 1.0 
0.0 0.0 1.0 
0.0 0.0 1.0 
0.0 0.0 1.0 
0.0 0.0 1.0 
0.0 0.0 1.0 
0.0 0.0 1.0 
0.0 0.0 1.0 
0.0 0.0 1.0 
0.0 0.0 1.0 
0.0 0.0 1.0 
0.0 0.0 1.0 
0.0 0.0 1.0 
0.0 0.0 1.0 
0.0 0.0 1.0 
0.0 0.0 1.0 
0.0 0.0 1.0 
0.0 0.0 1.0 
0.0 0.0 1.0 
0.0 0.0 1.0 
0.0 0.0 1.0 
0.0 0.0 1.0 
0.0 0.0 1.0 
0.0 0.0 1.0 
0.0 0.0 1.0 
0.0 0.0 1.0 
0.0 0.0 1.0 
0.0 0.0 1.0 
0.0 0.0 1.0 
0.0 0.0 1.0 
0.0 0.0 1.0 
0.0 0.0 1.0 
0.0 0.0 1.0 
0.0 0.0 1.0 
0.0 0.0 1.0 
0.0 0.0 1.0 
0.0 0.0 1.0 
0.0 0.0 1.0 
0.0 0.0 1.0 
0.0 0.0 1.0 
Learning : 0.05
Momentum : 0.6000000238418579
Epoch: 100, Error: 0.0477716558057643
Epoch: 200, Error: 0.0215471933808527
Epoch: 300, Error: 0.017268654477388293
Epoch: 400, Error: 0.01576391519707001
Epoch: 500, Error: 0.014884231154050619
Epoch: 600, Error: 0.0146701704648063
Epoch: 700, Error: 0.013818736530779323
Epoch: 800, Error: 0.013544106557129742
Epoch: 900, Error: 0.013259335287602805
Epoch: 1000, Error: 0.013130683758724641
Epoch: 1100, Error: 0.01293674568616745
Epoch: 1200, Error: 0.012858670782029274
Epoch: 1300, Error: 0.012709648779499566
Epoch: 1400, Error: 0.012640918126522266
Epoch: 1500, Error: 0.012531402171784587
Epoch: 1600, Error: 0.012504428135196978
Epoch: 1700, Error: 0.012424266059202053
Epoch: 1800, Error: 0.012527016758399349
Epoch: 1900, Error: 0.012374592409826593
Epoch: 2000, Error: 0.012452841489424445
Epoch: 2100, Error: 0.012336180792671347
Epoch: 2200, Error: 0.012484358559697172
Epoch: 2300, Error: 0.012299520069524093
Epoch: 2400, Error: 0.012236872514434312
Epoch: 2500, Error: 0.012259259470693187
Epoch: 2600, Error: 0.012264046150344363
Epoch: 2700, Error: 0.012240763349391537
Epoch: 2800, Error: 0.012306304533572766
Epoch: 2900, Error: 0.012270517237554478
Epoch: 3000, Error: 0.012253576311979375
Epoch: 3100, Error: 0.012264925432478932
Epoch: 3200, Error: 0.01224621729740891
Epoch: 3300, Error: 0.012226153392049537
Epoch: 3400, Error: 0.012233073726269942
Epoch: 3500, Error: 0.012247475822419194
Epoch: 3600, Error: 0.012212993531030293
Epoch: 3700, Error: 0.012198086450234671
Epoch: 3800, Error: 0.012204682338038472
Epoch: 3900, Error: 0.012206737246131742
Epoch: 4000, Error: 0.012190577832995915
Epoch: 4100, Error: 0.012176862611404266
Epoch: 4200, Error: 0.012262702886360855
Epoch: 4300, Error: 0.012287927628991932
Epoch: 4400, Error: 0.01213594439164096
Epoch: 4500, Error: 0.012146296780445914
Epoch: 4600, Error: 0.012152703449396356
Epoch: 4700, Error: 0.012137699151077453
Epoch: 4800, Error: 0.012117456281547288
Epoch: 4900, Error: 0.012100942056803699
Epoch: 5000, Error: 0.012115799381001963
Epoch: 5100, Error: 0.0121136273273395
Epoch: 5200, Error: 0.012085252165811178
Epoch: 5300, Error: 0.012057948804818853
Epoch: 5400, Error: 0.012065383350157338
Epoch: 5500, Error: 0.012110178872190836
Epoch: 5600, Error: 0.012041975017528994
Epoch: 5700, Error: 0.012028636566486076
Epoch: 5800, Error: 0.012025592177826755
Epoch: 5900, Error: 0.012035565824116596
Epoch: 6000, Error: 0.01203935611253304
Epoch: 6100, Error: 0.012033545663479205
Epoch: 6200, Error: 0.012110692133646675
Epoch: 6300, Error: 0.011996719892855761
Epoch: 6400, Error: 0.011990106804207158
Epoch: 6500, Error: 0.012015560787439055
Epoch: 6600, Error: 0.011981407581664013
Epoch: 6700, Error: 0.01198732912711131
Epoch: 6800, Error: 0.011996300300594075
Epoch: 6900, Error: 0.011947945352923938
Epoch: 7000, Error: 0.011920544161500847
Epoch: 7100, Error: 0.011928934859408704
Epoch: 7200, Error: 0.011925853975810844
Epoch: 7300, Error: 0.011904939132654953
Epoch: 7400, Error: 0.011904492216055931
Epoch: 7500, Error: 0.011927503533732252
Epoch: 7600, Error: 0.011969286728400298
Epoch: 7700, Error: 0.011836536248086576
Epoch: 7800, Error: 0.011878494377946247
Epoch: 7900, Error: 0.011862680051937352
Epoch: 8000, Error: 0.011839762596469365
Epoch: 8100, Error: 0.011828127166598668
Epoch: 8200, Error: 0.011804318438455124
Epoch: 8300, Error: 0.011789605077856759
Epoch: 8400, Error: 0.011806053879454334
Epoch: 8500, Error: 0.01180245259288802
Epoch: 8600, Error: 0.011728417168158737
Epoch: 8700, Error: 0.011765796592094393
Epoch: 8800, Error: 0.011730049161544001
Epoch: 8900, Error: 0.011687824333192234
Epoch: 9000, Error: 0.011819769608688845
Epoch: 9100, Error: 0.011723886855905582
Epoch: 9200, Error: 0.011737422027259045
Epoch: 9300, Error: 0.011639009665167226
Epoch: 9400, Error: 0.011619707265759366
Epoch: 9500, Error: 0.011629330250546115
Epoch: 9600, Error: 0.011597546155200596
Epoch: 9700, Error: 0.011553524918799908
Epoch: 9800, Error: 0.011654596503771729
Epoch: 9900, Error: 0.011484828862214178
Epoch: 10000, Error: 0.011451166985172756
Epoch: 10100, Error: 0.011455101992434883
Epoch: 10200, Error: 0.011411564902918277
Epoch: 10300, Error: 0.011401492020892887
Epoch: 10400, Error: 0.011330277410617135
Epoch: 10500, Error: 0.011290748907699308
Epoch: 10600, Error: 0.011240488733153966
Epoch: 10700, Error: 0.011198678065360543
Epoch: 10800, Error: 0.011312428478840052
Epoch: 10900, Error: 0.011096148653741936
Epoch: 11000, Error: 0.011034283693294381
Epoch: 11100, Error: 0.011077694376409429
Epoch: 11200, Error: 0.010894794239291287
Epoch: 11300, Error: 0.010887163410974265
Epoch: 11400, Error: 0.010778722461557007
Epoch: 11500, Error: 0.010711058172057832
Epoch: 11600, Error: 0.010619768619089545
Epoch: 11700, Error: 0.010697279653705616
Epoch: 11800, Error: 0.010467509389877479
Epoch: 11900, Error: 0.010375223197721384
Epoch: 12000, Error: 0.01022216035615382
Epoch: 12100, Error: 0.010114530294203304
Epoch: 12200, Error: 0.010063100301755985
Epoch: 12300, Error: 0.009939545026300517
Epoch: 12400, Error: 0.009796857684398684
Epoch: 12500, Error: 0.009704581435862988
Epoch: 12600, Error: 0.009624650393450201
Epoch: 12700, Error: 0.009483886441721812
Epoch: 12800, Error: 0.009397628422856883
Epoch: 12900, Error: 0.009240131298207386
Epoch: 13000, Error: 0.009128123394855372
Epoch: 13100, Error: 0.009033185556886762
Epoch: 13200, Error: 0.00891799990315733
Epoch: 13300, Error: 0.008912274919698942
Epoch: 13400, Error: 0.0087026907872379
Epoch: 13500, Error: 0.008705230920227836
Epoch: 13600, Error: 0.008515097810161807
Epoch: 13700, Error: 0.008449589372961435
Epoch: 13800, Error: 0.008354756097181759
Epoch: 13900, Error: 0.008261145205317092
Epoch: 14000, Error: 0.008185422903686282
Epoch: 14100, Error: 0.00810786240692135
Epoch: 14200, Error: 0.008052940599845139
Epoch: 14300, Error: 0.007953070320608312
Epoch: 14400, Error: 0.007901274321283232
Epoch: 14500, Error: 0.007851959247196571
Epoch: 14600, Error: 0.007736789748504725
Epoch: 14700, Error: 0.0076975437733785715
Epoch: 14800, Error: 0.007620916640192616
Epoch: 14900, Error: 0.007542430617523174
Epoch: 15000, Error: 0.007466841165960256
Epoch: 15100, Error: 0.007410137315769719
Epoch: 15200, Error: 0.007400907175063906
Epoch: 15300, Error: 0.0073423391563477765
Epoch: 15400, Error: 0.007299664623750065
Epoch: 15500, Error: 0.007247006614420193
Epoch: 15600, Error: 0.007214091864966989
Epoch: 15700, Error: 0.007170766286899749
Epoch: 15800, Error: 0.007162828455465472
Epoch: 15900, Error: 0.00709497308290233
Epoch: 16000, Error: 0.007089365994006211
Epoch: 16100, Error: 0.007051652307729628
Epoch: 16200, Error: 0.00701923325754419
Epoch: 16300, Error: 0.006992175422185114
Epoch: 16400, Error: 0.007003641615810282
Epoch: 16500, Error: 0.006960315687449555
Epoch: 16600, Error: 0.006931749824454996
Epoch: 16700, Error: 0.0069004432093642196
Epoch: 16800, Error: 0.006881384079425472
Epoch: 16900, Error: 0.006861043841969105
Epoch: 17000, Error: 0.006868326217760547
Epoch: 17100, Error: 0.006831253459434825
Epoch: 17200, Error: 0.006798411964631835
Epoch: 17300, Error: 0.006792650931463971
Epoch: 17400, Error: 0.006780175550164426
Epoch: 17500, Error: 0.006774982817150077
Epoch: 17600, Error: 0.006749645177653148
Epoch: 17700, Error: 0.006729114265614677
Epoch: 17800, Error: 0.006721466373202458
Epoch: 17900, Error: 0.006708845505581881
Epoch: 18000, Error: 0.006736308364640338
Epoch: 18100, Error: 0.0066945233276227
Epoch: 18200, Error: 0.0066929440313399854
Epoch: 18300, Error: 0.0066965528042735555
Epoch: 18400, Error: 0.006694994100600892
Epoch: 18500, Error: 0.006675145812406536
Epoch: 18600, Error: 0.0066596579093996956
Epoch: 18700, Error: 0.0066642648964798535
Epoch: 18800, Error: 0.006645698263621949
Epoch: 18900, Error: 0.006644485423851857
Epoch: 19000, Error: 0.0066292587638186315
Epoch: 19100, Error: 0.0066071640848562605
Epoch: 19200, Error: 0.006642763556791519
Epoch: 19300, Error: 0.006574496978105688
Epoch: 19400, Error: 0.006567144127206573
Epoch: 19500, Error: 0.0065365749332474635
Epoch: 19600, Error: 0.00653657132125918
Epoch: 19700, Error: 0.0065298423951974886
Epoch: 19800, Error: 0.006487322717397437
Epoch: 19900, Error: 0.006484208835930122
Epoch: 20000, Error: 0.006454629129468384
Epoch: 20100, Error: 0.0064375486279764724
Epoch: 20200, Error: 0.006456842441960898
Epoch: 20300, Error: 0.006427723444621746
Epoch: 20400, Error: 0.006406434179381532
Epoch: 20500, Error: 0.0063886750301754254
Epoch: 20600, Error: 0.006381482335782112
Epoch: 20700, Error: 0.006359405886359149
Epoch: 20800, Error: 0.006336194799803802
Epoch: 20900, Error: 0.006353246242445989
Epoch: 21000, Error: 0.006330678864857108
Epoch: 21100, Error: 0.0063245728137481605
Epoch: 21200, Error: 0.006354061378820981
Epoch: 21300, Error: 0.006320358973042082
Epoch: 21400, Error: 0.006307660974706395
Epoch: 21500, Error: 0.006291756837390588
Epoch: 21600, Error: 0.006308529815398282
Epoch: 21700, Error: 0.006297626006720183
Finished
