Input Patterns
0.224 0.624 0.067 0.043 
0.11 0.502 0.051 0.043 
0.196 0.667 0.067 0.043 
0.055 0.584 0.067 0.082 
0.027 0.376 0.067 0.043 
0.306 0.71 0.086 0.043 
0.137 0.416 0.067 0.0 
0.416 0.831 0.035 0.043 
0.306 0.792 0.051 0.125 
0.388 0.749 0.118 0.082 
0.306 0.584 0.118 0.043 
0.082 0.667 0.0 0.043 
0.137 0.584 0.153 0.043 
0.196 0.584 0.102 0.125 
0.251 0.584 0.067 0.043 
0.137 0.459 0.102 0.043 
0.251 0.875 0.086 0.0 
0.165 0.459 0.086 0.043 
0.333 0.624 0.051 0.043 
0.027 0.416 0.051 0.043 
0.196 0.624 0.051 0.082 
0.027 0.502 0.051 0.043 
0.224 0.749 0.153 0.125 
0.224 0.749 0.102 0.043 
0.278 0.71 0.086 0.043 
0.165 0.416 0.067 0.043 
0.082 0.459 0.086 0.043 
0.306 0.792 0.118 0.125 
0.196 0.584 0.086 0.043 
0.165 0.459 0.086 0.0 
0.137 0.584 0.102 0.043 
0.0 0.416 0.016 0.0 
0.388 1.0 0.086 0.125 
0.224 0.624 0.067 0.082 
0.224 0.749 0.086 0.082 
0.224 0.71 0.086 0.125 
0.224 0.541 0.118 0.165 
0.196 0.416 0.102 0.043 
0.251 0.624 0.086 0.043 
0.11 0.502 0.102 0.043 
0.306 0.584 0.086 0.125 
0.333 0.918 0.067 0.043 
0.196 0.502 0.035 0.043 
0.165 0.667 0.067 0.0 
0.224 0.584 0.086 0.043 
0.055 0.125 0.051 0.082 
0.196 0.624 0.102 0.208 
0.137 0.416 0.067 0.082 
0.082 0.502 0.067 0.043 
0.196 0.541 0.067 0.043 
0.749 0.502 0.627 0.541 
0.722 0.459 0.663 0.584 
0.612 0.333 0.612 0.584 
0.557 0.541 0.627 0.624 
0.639 0.376 0.612 0.498 
0.196 0.0 0.424 0.376 
0.471 0.082 0.51 0.376 
0.361 0.376 0.439 0.498 
0.361 0.416 0.592 0.584 
0.529 0.082 0.592 0.584 
0.443 0.502 0.643 0.459 
0.557 0.208 0.663 0.584 
0.584 0.376 0.561 0.498 
0.694 0.333 0.643 0.541 
0.471 0.376 0.592 0.584 
0.333 0.169 0.475 0.416 
0.416 0.29 0.49 0.459 
0.306 0.416 0.592 0.584 
0.667 0.459 0.627 0.584 
0.361 0.416 0.525 0.498 
0.333 0.251 0.576 0.459 
0.416 0.251 0.51 0.459 
0.361 0.29 0.541 0.498 
0.388 0.376 0.541 0.498 
0.224 0.208 0.337 0.416 
0.584 0.502 0.592 0.584 
0.333 0.125 0.51 0.498 
0.388 0.333 0.592 0.498 
0.165 0.169 0.388 0.376 
0.251 0.29 0.49 0.541 
0.443 0.416 0.541 0.584 
0.498 0.376 0.627 0.541 
0.667 0.459 0.576 0.541 
0.416 0.29 0.525 0.376 
0.361 0.208 0.49 0.416 
0.498 0.333 0.51 0.498 
0.498 0.333 0.627 0.459 
0.639 0.416 0.576 0.541 
0.667 0.416 0.678 0.667 
0.388 0.251 0.424 0.376 
0.333 0.169 0.459 0.376 
0.471 0.29 0.694 0.624 
0.471 0.584 0.592 0.624 
0.557 0.125 0.576 0.498 
0.333 0.208 0.51 0.498 
0.498 0.416 0.612 0.541 
0.196 0.125 0.388 0.376 
0.388 0.416 0.541 0.459 
0.529 0.376 0.561 0.498 
0.388 0.333 0.525 0.498 
0.557 0.541 0.847 1.0 
0.776 0.416 0.831 0.831 
0.612 0.416 0.812 0.875 
0.165 0.208 0.592 0.667 
0.667 0.208 0.812 0.71 
0.612 0.502 0.694 0.792 
0.694 0.416 0.761 0.831 
0.416 0.333 0.694 0.957 
0.612 0.416 0.761 0.71 
0.945 0.251 1.0 0.918 
0.722 0.502 0.796 0.918 
0.945 0.333 0.965 0.792 
0.667 0.541 0.796 0.831 
0.529 0.333 0.643 0.71 
0.584 0.333 0.78 0.831 
0.863 0.333 0.863 0.749 
0.584 0.333 0.78 0.875 
0.498 0.251 0.78 0.541 
0.557 0.584 0.78 0.957 
0.471 0.416 0.643 0.71 
0.667 0.459 0.78 0.957 
0.416 0.29 0.694 0.749 
0.667 0.541 0.796 1.0 
0.557 0.208 0.678 0.749 
0.529 0.584 0.745 0.918 
0.416 0.29 0.694 0.749 
0.557 0.376 0.78 0.71 
0.918 0.416 0.949 0.831 
0.835 0.376 0.898 0.71 
0.804 0.667 0.863 1.0 
0.584 0.29 0.729 0.749 
0.388 0.208 0.678 0.792 
0.584 0.502 0.729 0.918 
0.945 0.749 0.965 0.875 
0.471 0.082 0.678 0.584 
0.361 0.333 0.663 0.792 
0.557 0.29 0.663 0.71 
0.804 0.502 0.847 0.71 
0.498 0.416 0.51 0.71 
0.804 0.416 0.812 0.624 
1.0 0.749 0.914 0.792 
0.557 0.333 0.694 0.584 
0.945 0.416 0.863 0.918 
0.584 0.459 0.761 0.71 
0.722 0.459 0.745 0.831 
0.722 0.459 0.694 0.918 
0.694 0.502 0.831 0.918 
0.667 0.416 0.714 0.918 
0.612 0.416 0.714 0.792 
0.443 0.416 0.694 0.71 
Teaching Patterns
1.0 0.0 0.0 
1.0 0.0 0.0 
1.0 0.0 0.0 
1.0 0.0 0.0 
1.0 0.0 0.0 
1.0 0.0 0.0 
1.0 0.0 0.0 
1.0 0.0 0.0 
1.0 0.0 0.0 
1.0 0.0 0.0 
1.0 0.0 0.0 
1.0 0.0 0.0 
1.0 0.0 0.0 
1.0 0.0 0.0 
1.0 0.0 0.0 
1.0 0.0 0.0 
1.0 0.0 0.0 
1.0 0.0 0.0 
1.0 0.0 0.0 
1.0 0.0 0.0 
1.0 0.0 0.0 
1.0 0.0 0.0 
1.0 0.0 0.0 
1.0 0.0 0.0 
1.0 0.0 0.0 
1.0 0.0 0.0 
1.0 0.0 0.0 
1.0 0.0 0.0 
1.0 0.0 0.0 
1.0 0.0 0.0 
1.0 0.0 0.0 
1.0 0.0 0.0 
1.0 0.0 0.0 
1.0 0.0 0.0 
1.0 0.0 0.0 
1.0 0.0 0.0 
1.0 0.0 0.0 
1.0 0.0 0.0 
1.0 0.0 0.0 
1.0 0.0 0.0 
1.0 0.0 0.0 
1.0 0.0 0.0 
1.0 0.0 0.0 
1.0 0.0 0.0 
1.0 0.0 0.0 
1.0 0.0 0.0 
1.0 0.0 0.0 
1.0 0.0 0.0 
1.0 0.0 0.0 
1.0 0.0 0.0 
0.0 1.0 0.0 
0.0 1.0 0.0 
0.0 1.0 0.0 
0.0 1.0 0.0 
0.0 1.0 0.0 
0.0 1.0 0.0 
0.0 1.0 0.0 
0.0 1.0 0.0 
0.0 1.0 0.0 
0.0 1.0 0.0 
0.0 1.0 0.0 
0.0 1.0 0.0 
0.0 1.0 0.0 
0.0 1.0 0.0 
0.0 1.0 0.0 
0.0 1.0 0.0 
0.0 1.0 0.0 
0.0 1.0 0.0 
0.0 1.0 0.0 
0.0 1.0 0.0 
0.0 1.0 0.0 
0.0 1.0 0.0 
0.0 1.0 0.0 
0.0 1.0 0.0 
0.0 1.0 0.0 
0.0 1.0 0.0 
0.0 1.0 0.0 
0.0 1.0 0.0 
0.0 1.0 0.0 
0.0 1.0 0.0 
0.0 1.0 0.0 
0.0 1.0 0.0 
0.0 1.0 0.0 
0.0 1.0 0.0 
0.0 1.0 0.0 
0.0 1.0 0.0 
0.0 1.0 0.0 
0.0 1.0 0.0 
0.0 1.0 0.0 
0.0 1.0 0.0 
0.0 1.0 0.0 
0.0 1.0 0.0 
0.0 1.0 0.0 
0.0 1.0 0.0 
0.0 1.0 0.0 
0.0 1.0 0.0 
0.0 1.0 0.0 
0.0 1.0 0.0 
0.0 1.0 0.0 
0.0 1.0 0.0 
0.0 0.0 1.0 
0.0 0.0 1.0 
0.0 0.0 1.0 
0.0 0.0 1.0 
0.0 0.0 1.0 
0.0 0.0 1.0 
0.0 0.0 1.0 
0.0 0.0 1.0 
0.0 0.0 1.0 
0.0 0.0 1.0 
0.0 0.0 1.0 
0.0 0.0 1.0 
0.0 0.0 1.0 
0.0 0.0 1.0 
0.0 0.0 1.0 
0.0 0.0 1.0 
0.0 0.0 1.0 
0.0 0.0 1.0 
0.0 0.0 1.0 
0.0 0.0 1.0 
0.0 0.0 1.0 
0.0 0.0 1.0 
0.0 0.0 1.0 
0.0 0.0 1.0 
0.0 0.0 1.0 
0.0 0.0 1.0 
0.0 0.0 1.0 
0.0 0.0 1.0 
0.0 0.0 1.0 
0.0 0.0 1.0 
0.0 0.0 1.0 
0.0 0.0 1.0 
0.0 0.0 1.0 
0.0 0.0 1.0 
0.0 0.0 1.0 
0.0 0.0 1.0 
0.0 0.0 1.0 
0.0 0.0 1.0 
0.0 0.0 1.0 
0.0 0.0 1.0 
0.0 0.0 1.0 
0.0 0.0 1.0 
0.0 0.0 1.0 
0.0 0.0 1.0 
0.0 0.0 1.0 
0.0 0.0 1.0 
0.0 0.0 1.0 
0.0 0.0 1.0 
0.0 0.0 1.0 
0.0 0.0 1.0 
Learning : 0.05
Momentum : 0.6000000238418579
Epoch: 100, Error: 0.055021096974930364
Epoch: 200, Error: 0.020545119078959787
Epoch: 300, Error: 0.016515815650315426
Epoch: 400, Error: 0.014925376480466969
Epoch: 500, Error: 0.01419004209512452
Epoch: 600, Error: 0.013497595342634318
Epoch: 700, Error: 0.01313498477470381
Epoch: 800, Error: 0.013009799713048484
Epoch: 900, Error: 0.012726571448067818
Epoch: 1000, Error: 0.012603065880354527
Epoch: 1100, Error: 0.012500249461567681
Epoch: 1200, Error: 0.012494795923556196
Epoch: 1300, Error: 0.012512091303531654
Epoch: 1400, Error: 0.012296329009951068
Epoch: 1500, Error: 0.01228608225266733
Epoch: 1600, Error: 0.012222858747212573
Epoch: 1700, Error: 0.012229495551188175
Epoch: 1800, Error: 0.012270396560282469
Epoch: 1900, Error: 0.012202729023654681
Epoch: 2000, Error: 0.012413216815588017
Epoch: 2100, Error: 0.012330271760950926
Epoch: 2200, Error: 0.012109666520009187
Epoch: 2300, Error: 0.01207852847825443
Epoch: 2400, Error: 0.01207120181658046
Epoch: 2500, Error: 0.012058912770947899
Epoch: 2600, Error: 0.012091899560266616
Epoch: 2700, Error: 0.012027964738552787
Epoch: 2800, Error: 0.012003254068266944
Epoch: 2900, Error: 0.011999154209441336
Epoch: 3000, Error: 0.012014838062189689
Epoch: 3100, Error: 0.012025780946840012
Epoch: 3200, Error: 0.011967913802930096
Epoch: 3300, Error: 0.011955670358534053
Epoch: 3400, Error: 0.01217222390015648
Epoch: 3500, Error: 0.012031591251866714
Epoch: 3600, Error: 0.011969327475678025
Epoch: 3700, Error: 0.011973648801814372
Epoch: 3800, Error: 0.011954949416151234
Epoch: 3900, Error: 0.012021748220287787
Epoch: 4000, Error: 0.011951347696420428
Epoch: 4100, Error: 0.01202068277706285
Epoch: 4200, Error: 0.011966390250099504
Epoch: 4300, Error: 0.011938812695603582
Epoch: 4400, Error: 0.01190807508205879
Epoch: 4500, Error: 0.011894324036176043
Epoch: 4600, Error: 0.011910493088473204
Epoch: 4700, Error: 0.011911172532712686
Epoch: 4800, Error: 0.011877405274207095
Epoch: 4900, Error: 0.011880209004862632
Epoch: 5000, Error: 0.011864686683435162
Epoch: 5100, Error: 0.01187351979772103
Epoch: 5200, Error: 0.011843794081195595
Epoch: 5300, Error: 0.011849616708791404
Epoch: 5400, Error: 0.011836128710452724
Epoch: 5500, Error: 0.011832771643911931
Epoch: 5600, Error: 0.01182049553275045
Epoch: 5700, Error: 0.011821881033627503
Epoch: 5800, Error: 0.01181145192799466
Epoch: 5900, Error: 0.011811606038106843
Epoch: 6000, Error: 0.011843642667768273
Epoch: 6100, Error: 0.011841342665386516
Epoch: 6200, Error: 0.011790598727520887
Epoch: 6300, Error: 0.011783483163212453
Epoch: 6400, Error: 0.011785026588474419
Epoch: 6500, Error: 0.011808720077659918
Epoch: 6600, Error: 0.011828477161428881
Epoch: 6700, Error: 0.01174272096760727
Epoch: 6800, Error: 0.011735280213846627
Epoch: 6900, Error: 0.011762452002786895
Epoch: 7000, Error: 0.011702837951875463
Epoch: 7100, Error: 0.011702796018754106
Epoch: 7200, Error: 0.01170547352260073
Epoch: 7300, Error: 0.011705865360849988
Epoch: 7400, Error: 0.011642296895390817
Epoch: 7500, Error: 0.011645766562170066
Epoch: 7600, Error: 0.011585583214401356
Epoch: 7700, Error: 0.011584989255830788
Epoch: 7800, Error: 0.011721715432252483
Epoch: 7900, Error: 0.011506835722397243
Epoch: 8000, Error: 0.011487818066011133
Epoch: 8100, Error: 0.011482389019234892
Epoch: 8200, Error: 0.011453933624727602
Epoch: 8300, Error: 0.011383761766927162
Epoch: 8400, Error: 0.011370828639133232
Epoch: 8500, Error: 0.011322447258752269
Epoch: 8600, Error: 0.011280105009804208
Epoch: 8700, Error: 0.01126823137101245
Epoch: 8800, Error: 0.011202226702603707
Epoch: 8900, Error: 0.011196096681247375
Epoch: 9000, Error: 0.011118656586857482
Epoch: 9100, Error: 0.011094697534310083
Epoch: 9200, Error: 0.011052434191023868
Epoch: 9300, Error: 0.011015310544758967
Epoch: 9400, Error: 0.010936943692531407
Epoch: 9500, Error: 0.010875624685376489
Epoch: 9600, Error: 0.010825013370597361
Epoch: 9700, Error: 0.010782839568061395
Epoch: 9800, Error: 0.010767187583660633
Epoch: 9900, Error: 0.0107193853424385
Epoch: 10000, Error: 0.010596165174289941
Epoch: 10100, Error: 0.01056025614998564
Epoch: 10200, Error: 0.010470614291788229
Epoch: 10300, Error: 0.010451382062294401
Epoch: 10400, Error: 0.010366885540841508
Epoch: 10500, Error: 0.010257579880653898
Epoch: 10600, Error: 0.010155844303866084
Epoch: 10700, Error: 0.010065018150390117
Epoch: 10800, Error: 0.010008568732183558
Epoch: 10900, Error: 0.009908638634285939
Epoch: 11000, Error: 0.009800873245791314
Epoch: 11100, Error: 0.009702596082836232
Epoch: 11200, Error: 0.009598102779572936
Epoch: 11300, Error: 0.009487507978737271
Epoch: 11400, Error: 0.009415577398511914
Epoch: 11500, Error: 0.009295111248259281
Epoch: 11600, Error: 0.009192911318914887
Epoch: 11700, Error: 0.009268685957667664
Epoch: 11800, Error: 0.009010246615237666
Epoch: 11900, Error: 0.008863386427081874
Epoch: 12000, Error: 0.008797059578687746
Epoch: 12100, Error: 0.008669849641901957
Epoch: 12200, Error: 0.008563428428770548
Epoch: 12300, Error: 0.00846672583207671
Epoch: 12400, Error: 0.008368390301211209
Epoch: 12500, Error: 0.008265562406992224
Epoch: 12600, Error: 0.00817362606987003
Epoch: 12700, Error: 0.008119648543688213
Epoch: 12800, Error: 0.007987807212279126
Epoch: 12900, Error: 0.007907434839489623
Epoch: 13000, Error: 0.007845338756309717
Epoch: 13100, Error: 0.007720422402292109
Epoch: 13200, Error: 0.0076465692626677155
Epoch: 13300, Error: 0.007576984407955906
Epoch: 13400, Error: 0.007527790474717226
Epoch: 13500, Error: 0.007419515746296296
Epoch: 13600, Error: 0.007370191084555235
Epoch: 13700, Error: 0.0072931170525547765
Epoch: 13800, Error: 0.007247932752303223
Epoch: 13900, Error: 0.007179956372970978
Epoch: 14000, Error: 0.007129303803407224
Epoch: 14100, Error: 0.0070667952230499785
Epoch: 14200, Error: 0.0070176368289872
Epoch: 14300, Error: 0.006971859134939825
Epoch: 14400, Error: 0.006903105317852025
Epoch: 14500, Error: 0.0068590487268469546
Epoch: 14600, Error: 0.0068159482099643875
Epoch: 14700, Error: 0.006760333057247407
Epoch: 14800, Error: 0.006720228315883467
Epoch: 14900, Error: 0.006672643089680828
Epoch: 15000, Error: 0.006631188282944427
Epoch: 15100, Error: 0.006603483202616201
Epoch: 15200, Error: 0.0065381798870827726
Epoch: 15300, Error: 0.006498810555425156
Epoch: 15400, Error: 0.006473151380646079
Epoch: 15500, Error: 0.006490702507812912
Epoch: 15600, Error: 0.006419883240280093
Epoch: 15700, Error: 0.006400818893238474
Epoch: 15800, Error: 0.00638018642565767
Epoch: 15900, Error: 0.006351421231593378
Epoch: 16000, Error: 0.006340527429349137
Epoch: 16100, Error: 0.00631814925069855
Epoch: 16200, Error: 0.006286803619358262
Epoch: 16300, Error: 0.006269572350009401
Epoch: 16400, Error: 0.006252960095815381
Epoch: 16500, Error: 0.006243073938395419
Epoch: 16600, Error: 0.006208096365356999
Epoch: 16700, Error: 0.006203049739812159
Epoch: 16800, Error: 0.006195342087433337
Epoch: 16900, Error: 0.006161121909819436
Epoch: 17000, Error: 0.006164830584851669
Epoch: 17100, Error: 0.0061755470335037935
Epoch: 17200, Error: 0.006142872538494972
Epoch: 17300, Error: 0.006122213836452757
Epoch: 17400, Error: 0.006146452791099694
Epoch: 17500, Error: 0.00608976452033825
Epoch: 17600, Error: 0.006077342243189754
Epoch: 17700, Error: 0.006075723354708982
Epoch: 17800, Error: 0.006047502421348705
Epoch: 17900, Error: 0.006054102782877727
Epoch: 18000, Error: 0.00602399699715185
Epoch: 18100, Error: 0.006001746649159748
Epoch: 18200, Error: 0.005981394865731846
Epoch: 18300, Error: 0.005999159069552836
Epoch: 18400, Error: 0.005963711563881964
Epoch: 18500, Error: 0.005955365389781209
Epoch: 18600, Error: 0.005930888119033296
Epoch: 18700, Error: 0.005924252971003997
Epoch: 18800, Error: 0.005940139645820778
Epoch: 18900, Error: 0.005893463348859846
Epoch: 19000, Error: 0.005895563862880376
Epoch: 19100, Error: 0.005875706829442132
Epoch: 19200, Error: 0.005863874559542118
Epoch: 19300, Error: 0.0058755905068097695
Epoch: 19400, Error: 0.00584354464609707
Epoch: 19500, Error: 0.005825982143494603
Epoch: 19600, Error: 0.005848675098895078
Epoch: 19700, Error: 0.00581478081853338
Epoch: 19800, Error: 0.00579821586161529
Epoch: 19900, Error: 0.00578653071783717
Epoch: 20000, Error: 0.005790618844356024
Epoch: 20100, Error: 0.005766128344988051
Epoch: 20200, Error: 0.005765625955560321
Finished
