Input Patterns
0.224 0.624 0.067 0.043 
0.11 0.502 0.051 0.043 
0.196 0.667 0.067 0.043 
0.055 0.584 0.067 0.082 
0.027 0.376 0.067 0.043 
0.306 0.71 0.086 0.043 
0.137 0.416 0.067 0.0 
0.416 0.831 0.035 0.043 
0.306 0.792 0.051 0.125 
0.388 0.749 0.118 0.082 
0.306 0.584 0.118 0.043 
0.082 0.667 0.0 0.043 
0.137 0.584 0.153 0.043 
0.196 0.584 0.102 0.125 
0.251 0.584 0.067 0.043 
0.137 0.459 0.102 0.043 
0.251 0.875 0.086 0.0 
0.165 0.459 0.086 0.043 
0.333 0.624 0.051 0.043 
0.027 0.416 0.051 0.043 
0.196 0.624 0.051 0.082 
0.027 0.502 0.051 0.043 
0.224 0.749 0.153 0.125 
0.224 0.749 0.102 0.043 
0.278 0.71 0.086 0.043 
0.165 0.416 0.067 0.043 
0.082 0.459 0.086 0.043 
0.306 0.792 0.118 0.125 
0.196 0.584 0.086 0.043 
0.165 0.459 0.086 0.0 
0.137 0.584 0.102 0.043 
0.0 0.416 0.016 0.0 
0.388 1.0 0.086 0.125 
0.224 0.624 0.067 0.082 
0.224 0.749 0.086 0.082 
0.224 0.71 0.086 0.125 
0.224 0.541 0.118 0.165 
0.196 0.416 0.102 0.043 
0.251 0.624 0.086 0.043 
0.11 0.502 0.102 0.043 
0.306 0.584 0.086 0.125 
0.333 0.918 0.067 0.043 
0.196 0.502 0.035 0.043 
0.165 0.667 0.067 0.0 
0.224 0.584 0.086 0.043 
0.055 0.125 0.051 0.082 
0.196 0.624 0.102 0.208 
0.137 0.416 0.067 0.082 
0.082 0.502 0.067 0.043 
0.196 0.541 0.067 0.043 
0.749 0.502 0.627 0.541 
0.722 0.459 0.663 0.584 
0.612 0.333 0.612 0.584 
0.557 0.541 0.627 0.624 
0.639 0.376 0.612 0.498 
0.196 0.0 0.424 0.376 
0.471 0.082 0.51 0.376 
0.361 0.376 0.439 0.498 
0.361 0.416 0.592 0.584 
0.529 0.082 0.592 0.584 
0.443 0.502 0.643 0.459 
0.557 0.208 0.663 0.584 
0.584 0.376 0.561 0.498 
0.694 0.333 0.643 0.541 
0.471 0.376 0.592 0.584 
0.333 0.169 0.475 0.416 
0.416 0.29 0.49 0.459 
0.306 0.416 0.592 0.584 
0.667 0.459 0.627 0.584 
0.361 0.416 0.525 0.498 
0.333 0.251 0.576 0.459 
0.416 0.251 0.51 0.459 
0.361 0.29 0.541 0.498 
0.388 0.376 0.541 0.498 
0.224 0.208 0.337 0.416 
0.584 0.502 0.592 0.584 
0.333 0.125 0.51 0.498 
0.388 0.333 0.592 0.498 
0.165 0.169 0.388 0.376 
0.251 0.29 0.49 0.541 
0.443 0.416 0.541 0.584 
0.498 0.376 0.627 0.541 
0.667 0.459 0.576 0.541 
0.416 0.29 0.525 0.376 
0.361 0.208 0.49 0.416 
0.498 0.333 0.51 0.498 
0.498 0.333 0.627 0.459 
0.639 0.416 0.576 0.541 
0.667 0.416 0.678 0.667 
0.388 0.251 0.424 0.376 
0.333 0.169 0.459 0.376 
0.471 0.29 0.694 0.624 
0.471 0.584 0.592 0.624 
0.557 0.125 0.576 0.498 
0.333 0.208 0.51 0.498 
0.498 0.416 0.612 0.541 
0.196 0.125 0.388 0.376 
0.388 0.416 0.541 0.459 
0.529 0.376 0.561 0.498 
0.388 0.333 0.525 0.498 
0.557 0.541 0.847 1.0 
0.776 0.416 0.831 0.831 
0.612 0.416 0.812 0.875 
0.165 0.208 0.592 0.667 
0.667 0.208 0.812 0.71 
0.612 0.502 0.694 0.792 
0.694 0.416 0.761 0.831 
0.416 0.333 0.694 0.957 
0.612 0.416 0.761 0.71 
0.945 0.251 1.0 0.918 
0.722 0.502 0.796 0.918 
0.945 0.333 0.965 0.792 
0.667 0.541 0.796 0.831 
0.529 0.333 0.643 0.71 
0.584 0.333 0.78 0.831 
0.863 0.333 0.863 0.749 
0.584 0.333 0.78 0.875 
0.498 0.251 0.78 0.541 
0.557 0.584 0.78 0.957 
0.471 0.416 0.643 0.71 
0.667 0.459 0.78 0.957 
0.416 0.29 0.694 0.749 
0.667 0.541 0.796 1.0 
0.557 0.208 0.678 0.749 
0.529 0.584 0.745 0.918 
0.416 0.29 0.694 0.749 
0.557 0.376 0.78 0.71 
0.918 0.416 0.949 0.831 
0.835 0.376 0.898 0.71 
0.804 0.667 0.863 1.0 
0.584 0.29 0.729 0.749 
0.388 0.208 0.678 0.792 
0.584 0.502 0.729 0.918 
0.945 0.749 0.965 0.875 
0.471 0.082 0.678 0.584 
0.361 0.333 0.663 0.792 
0.557 0.29 0.663 0.71 
0.804 0.502 0.847 0.71 
0.498 0.416 0.51 0.71 
0.804 0.416 0.812 0.624 
1.0 0.749 0.914 0.792 
0.557 0.333 0.694 0.584 
0.945 0.416 0.863 0.918 
0.584 0.459 0.761 0.71 
0.722 0.459 0.745 0.831 
0.722 0.459 0.694 0.918 
0.694 0.502 0.831 0.918 
0.667 0.416 0.714 0.918 
0.612 0.416 0.714 0.792 
0.443 0.416 0.694 0.71 
Teaching Patterns
1.0 0.0 0.0 
1.0 0.0 0.0 
1.0 0.0 0.0 
1.0 0.0 0.0 
1.0 0.0 0.0 
1.0 0.0 0.0 
1.0 0.0 0.0 
1.0 0.0 0.0 
1.0 0.0 0.0 
1.0 0.0 0.0 
1.0 0.0 0.0 
1.0 0.0 0.0 
1.0 0.0 0.0 
1.0 0.0 0.0 
1.0 0.0 0.0 
1.0 0.0 0.0 
1.0 0.0 0.0 
1.0 0.0 0.0 
1.0 0.0 0.0 
1.0 0.0 0.0 
1.0 0.0 0.0 
1.0 0.0 0.0 
1.0 0.0 0.0 
1.0 0.0 0.0 
1.0 0.0 0.0 
1.0 0.0 0.0 
1.0 0.0 0.0 
1.0 0.0 0.0 
1.0 0.0 0.0 
1.0 0.0 0.0 
1.0 0.0 0.0 
1.0 0.0 0.0 
1.0 0.0 0.0 
1.0 0.0 0.0 
1.0 0.0 0.0 
1.0 0.0 0.0 
1.0 0.0 0.0 
1.0 0.0 0.0 
1.0 0.0 0.0 
1.0 0.0 0.0 
1.0 0.0 0.0 
1.0 0.0 0.0 
1.0 0.0 0.0 
1.0 0.0 0.0 
1.0 0.0 0.0 
1.0 0.0 0.0 
1.0 0.0 0.0 
1.0 0.0 0.0 
1.0 0.0 0.0 
1.0 0.0 0.0 
0.0 1.0 0.0 
0.0 1.0 0.0 
0.0 1.0 0.0 
0.0 1.0 0.0 
0.0 1.0 0.0 
0.0 1.0 0.0 
0.0 1.0 0.0 
0.0 1.0 0.0 
0.0 1.0 0.0 
0.0 1.0 0.0 
0.0 1.0 0.0 
0.0 1.0 0.0 
0.0 1.0 0.0 
0.0 1.0 0.0 
0.0 1.0 0.0 
0.0 1.0 0.0 
0.0 1.0 0.0 
0.0 1.0 0.0 
0.0 1.0 0.0 
0.0 1.0 0.0 
0.0 1.0 0.0 
0.0 1.0 0.0 
0.0 1.0 0.0 
0.0 1.0 0.0 
0.0 1.0 0.0 
0.0 1.0 0.0 
0.0 1.0 0.0 
0.0 1.0 0.0 
0.0 1.0 0.0 
0.0 1.0 0.0 
0.0 1.0 0.0 
0.0 1.0 0.0 
0.0 1.0 0.0 
0.0 1.0 0.0 
0.0 1.0 0.0 
0.0 1.0 0.0 
0.0 1.0 0.0 
0.0 1.0 0.0 
0.0 1.0 0.0 
0.0 1.0 0.0 
0.0 1.0 0.0 
0.0 1.0 0.0 
0.0 1.0 0.0 
0.0 1.0 0.0 
0.0 1.0 0.0 
0.0 1.0 0.0 
0.0 1.0 0.0 
0.0 1.0 0.0 
0.0 1.0 0.0 
0.0 1.0 0.0 
0.0 0.0 1.0 
0.0 0.0 1.0 
0.0 0.0 1.0 
0.0 0.0 1.0 
0.0 0.0 1.0 
0.0 0.0 1.0 
0.0 0.0 1.0 
0.0 0.0 1.0 
0.0 0.0 1.0 
0.0 0.0 1.0 
0.0 0.0 1.0 
0.0 0.0 1.0 
0.0 0.0 1.0 
0.0 0.0 1.0 
0.0 0.0 1.0 
0.0 0.0 1.0 
0.0 0.0 1.0 
0.0 0.0 1.0 
0.0 0.0 1.0 
0.0 0.0 1.0 
0.0 0.0 1.0 
0.0 0.0 1.0 
0.0 0.0 1.0 
0.0 0.0 1.0 
0.0 0.0 1.0 
0.0 0.0 1.0 
0.0 0.0 1.0 
0.0 0.0 1.0 
0.0 0.0 1.0 
0.0 0.0 1.0 
0.0 0.0 1.0 
0.0 0.0 1.0 
0.0 0.0 1.0 
0.0 0.0 1.0 
0.0 0.0 1.0 
0.0 0.0 1.0 
0.0 0.0 1.0 
0.0 0.0 1.0 
0.0 0.0 1.0 
0.0 0.0 1.0 
0.0 0.0 1.0 
0.0 0.0 1.0 
0.0 0.0 1.0 
0.0 0.0 1.0 
0.0 0.0 1.0 
0.0 0.0 1.0 
0.0 0.0 1.0 
0.0 0.0 1.0 
0.0 0.0 1.0 
0.0 0.0 1.0 
Learning : 0.05
Momentum : 0.6000000238418579
Epoch: 100, Error: 0.038897075752730575
Epoch: 200, Error: 0.019972853497368187
Epoch: 300, Error: 0.016750414934037457
Epoch: 400, Error: 0.01555372736164097
Epoch: 500, Error: 0.01472017900135951
Epoch: 600, Error: 0.014241457064291701
Epoch: 700, Error: 0.013770675811057346
Epoch: 800, Error: 0.013541429683695377
Epoch: 900, Error: 0.013316839065078124
Epoch: 1000, Error: 0.013400424795270831
Epoch: 1100, Error: 0.013103232540462788
Epoch: 1200, Error: 0.01325138205493798
Epoch: 1300, Error: 0.012988727114360716
Epoch: 1400, Error: 0.012871483498614769
Epoch: 1500, Error: 0.012686672080179049
Epoch: 1600, Error: 0.012681105649416869
Epoch: 1700, Error: 0.012630195279895003
Epoch: 1800, Error: 0.012511938898564272
Epoch: 1900, Error: 0.012477074010747404
Epoch: 2000, Error: 0.012330374648867222
Epoch: 2100, Error: 0.012340163640103503
Epoch: 2200, Error: 0.012357791631481239
Epoch: 2300, Error: 0.012245900285011156
Epoch: 2400, Error: 0.01222969875273878
Epoch: 2500, Error: 0.012189776703692538
Epoch: 2600, Error: 0.012369101039277124
Epoch: 2700, Error: 0.012321577934805292
Epoch: 2800, Error: 0.01219337604603031
Epoch: 2900, Error: 0.012201510180988046
Epoch: 3000, Error: 0.012178114787540733
Epoch: 3100, Error: 0.012156050421146983
Epoch: 3200, Error: 0.012141415868829688
Epoch: 3300, Error: 0.012143897893890778
Epoch: 3400, Error: 0.012147109907678217
Epoch: 3500, Error: 0.012140986582460066
Epoch: 3600, Error: 0.012150684842206997
Epoch: 3700, Error: 0.012233908323617832
Epoch: 3800, Error: 0.0122720972969811
Epoch: 3900, Error: 0.012200158173829143
Epoch: 4000, Error: 0.012170945380894603
Epoch: 4100, Error: 0.012158851174763848
Epoch: 4200, Error: 0.012149835663785963
Epoch: 4300, Error: 0.012165588746366938
Epoch: 4400, Error: 0.012139979783590493
Epoch: 4500, Error: 0.012141735641021351
Epoch: 4600, Error: 0.012136664272652179
Epoch: 4700, Error: 0.01214318305912353
Epoch: 4800, Error: 0.012106743496242146
Epoch: 4900, Error: 0.012103320864799968
Epoch: 5000, Error: 0.012087225187144125
Epoch: 5100, Error: 0.01209313996406626
Epoch: 5200, Error: 0.012088975615695228
Epoch: 5300, Error: 0.01208298888579591
Epoch: 5400, Error: 0.012076761924648677
Epoch: 5500, Error: 0.012111226647384862
Epoch: 5600, Error: 0.012062529214387937
Epoch: 5700, Error: 0.01205168208667859
Epoch: 5800, Error: 0.012045491293587892
Epoch: 5900, Error: 0.012028682290827465
Epoch: 6000, Error: 0.012174440458213876
Epoch: 6100, Error: 0.012022767325107021
Epoch: 6200, Error: 0.012067658942773516
Epoch: 6300, Error: 0.012041060896133712
Epoch: 6400, Error: 0.011991772027014893
Epoch: 6500, Error: 0.01197693684525093
Epoch: 6600, Error: 0.012002907735092726
Epoch: 6700, Error: 0.012009225499375671
Epoch: 6800, Error: 0.011975284469410931
Epoch: 6900, Error: 0.01195183026890183
Epoch: 7000, Error: 0.01202290073651238
Epoch: 7100, Error: 0.011925270335470806
Epoch: 7200, Error: 0.011915523579477977
Epoch: 7300, Error: 0.011914500639194707
Epoch: 7400, Error: 0.011887674413258607
Epoch: 7500, Error: 0.011892501539277265
Epoch: 7600, Error: 0.011877806645329525
Epoch: 7700, Error: 0.011887878676986093
Epoch: 7800, Error: 0.01181973687061633
Epoch: 7900, Error: 0.011863051030789445
Epoch: 8000, Error: 0.011821390572237462
Epoch: 8100, Error: 0.01183146119659476
Epoch: 8200, Error: 0.011788338902927156
Epoch: 8300, Error: 0.011767924237938062
Epoch: 8400, Error: 0.011748046459642959
Epoch: 8500, Error: 0.01173610104945779
Epoch: 8600, Error: 0.011703891583137525
Epoch: 8700, Error: 0.01169722218786902
Epoch: 8800, Error: 0.011678701536753414
Epoch: 8900, Error: 0.01167850710270331
Epoch: 9000, Error: 0.011620855546358028
Epoch: 9100, Error: 0.011632988575765859
Epoch: 9200, Error: 0.011595806657448375
Epoch: 9300, Error: 0.011524843545658216
Epoch: 9400, Error: 0.011497714710199003
Epoch: 9500, Error: 0.011473621369041951
Epoch: 9600, Error: 0.011423366751015936
Epoch: 9700, Error: 0.011379543252170311
Epoch: 9800, Error: 0.0114108635163668
Epoch: 9900, Error: 0.011302404189142039
Epoch: 10000, Error: 0.011242541992853775
Epoch: 10100, Error: 0.011193055930934047
Epoch: 10200, Error: 0.011183561130225363
Epoch: 10300, Error: 0.011055985257584052
Epoch: 10400, Error: 0.011003466416201332
Epoch: 10500, Error: 0.010916688233541121
Epoch: 10600, Error: 0.010849923330237324
Epoch: 10700, Error: 0.010762106523048683
Epoch: 10800, Error: 0.010743136111382279
Epoch: 10900, Error: 0.010673420292845582
Epoch: 11000, Error: 0.010490853661441585
Epoch: 11100, Error: 0.010405346439353315
Epoch: 11200, Error: 0.010377498552084547
Epoch: 11300, Error: 0.010201672330804481
Epoch: 11400, Error: 0.010114413526708397
Epoch: 11500, Error: 0.00998647719629108
Epoch: 11600, Error: 0.009864416528833915
Epoch: 11700, Error: 0.009794603346437907
Epoch: 11800, Error: 0.00964631741148917
Epoch: 11900, Error: 0.009540769970131967
Epoch: 12000, Error: 0.00939963105300829
Epoch: 12100, Error: 0.00928208994001193
Epoch: 12200, Error: 0.009176205194309067
Epoch: 12300, Error: 0.009058975685159017
Epoch: 12400, Error: 0.008931607091476237
Epoch: 12500, Error: 0.008922356162345515
Epoch: 12600, Error: 0.008762981345344742
Epoch: 12700, Error: 0.008624083669057078
Epoch: 12800, Error: 0.008539971142237543
Epoch: 12900, Error: 0.008443052301156561
Epoch: 13000, Error: 0.008349271487942695
Epoch: 13100, Error: 0.008282383693047053
Epoch: 13200, Error: 0.008213814379995354
Epoch: 13300, Error: 0.008162395168361649
Epoch: 13400, Error: 0.008060912558115274
Epoch: 13500, Error: 0.007985320473987445
Epoch: 13600, Error: 0.007922048085149857
Epoch: 13700, Error: 0.007834331532854334
Epoch: 13800, Error: 0.007787721026534199
Epoch: 13900, Error: 0.007739493743184886
Epoch: 14000, Error: 0.007669053226308685
Epoch: 14100, Error: 0.007612071024635415
Epoch: 14200, Error: 0.0075501915578112125
Epoch: 14300, Error: 0.007473763371165889
Epoch: 14400, Error: 0.007406484526819218
Epoch: 14500, Error: 0.007349065343618779
Epoch: 14600, Error: 0.007271851372555938
Epoch: 14700, Error: 0.007199789273828698
Epoch: 14800, Error: 0.007150807774074212
Epoch: 14900, Error: 0.007092138053881745
Epoch: 15000, Error: 0.0070347360619222735
Epoch: 15100, Error: 0.006970732412159575
Epoch: 15200, Error: 0.006934924379356956
Epoch: 15300, Error: 0.006895091923423856
Epoch: 15400, Error: 0.006908449316584458
Epoch: 15500, Error: 0.00682770642417874
Epoch: 15600, Error: 0.00678149657418606
Epoch: 15700, Error: 0.006739566827583573
Epoch: 15800, Error: 0.006733896639092293
Epoch: 15900, Error: 0.006715038920483137
Epoch: 16000, Error: 0.006688065977687539
Epoch: 16100, Error: 0.006693377237147058
Epoch: 16200, Error: 0.006633118897766938
Epoch: 16300, Error: 0.006610563182899109
Epoch: 16400, Error: 0.006578235830072571
Epoch: 16500, Error: 0.00655412358627716
Epoch: 16600, Error: 0.006563195885110901
Epoch: 16700, Error: 0.006515653732942846
Epoch: 16800, Error: 0.006495923960251074
Epoch: 16900, Error: 0.006474971347307506
Epoch: 17000, Error: 0.006469115741529893
Epoch: 17100, Error: 0.0064453034016566145
Epoch: 17200, Error: 0.00642580006833373
Epoch: 17300, Error: 0.006411348486096693
Epoch: 17400, Error: 0.006399992797924631
Epoch: 17500, Error: 0.006373000451073471
Epoch: 17600, Error: 0.006351962598306078
Epoch: 17700, Error: 0.006338230325051448
Epoch: 17800, Error: 0.006323186115944586
Epoch: 17900, Error: 0.0063090289858955505
Epoch: 18000, Error: 0.006292818032544615
Epoch: 18100, Error: 0.006278203469224192
Epoch: 18200, Error: 0.006268969074905777
Epoch: 18300, Error: 0.006237426810913777
Epoch: 18400, Error: 0.006223688127235493
Epoch: 18500, Error: 0.006214980589701503
Epoch: 18600, Error: 0.0062057067184297455
Epoch: 18700, Error: 0.00618265980715349
Epoch: 18800, Error: 0.006175496873708523
Epoch: 18900, Error: 0.006117859555258251
Epoch: 19000, Error: 0.006103132785999036
Epoch: 19100, Error: 0.006077631848039764
Epoch: 19200, Error: 0.006083721095030645
Epoch: 19300, Error: 0.0060570670621523034
Epoch: 19400, Error: 0.006046916632520287
Epoch: 19500, Error: 0.006065567400130258
Epoch: 19600, Error: 0.006063870476622639
Epoch: 19700, Error: 0.006010143558330721
Epoch: 19800, Error: 0.006028684878126938
Epoch: 19900, Error: 0.006003153887316204
Epoch: 20000, Error: 0.006013128510039589
Epoch: 20100, Error: 0.005987572229702481
Epoch: 20200, Error: 0.00596614914709705
Epoch: 20300, Error: 0.005937027359971646
Epoch: 20400, Error: 0.005913582739091282
Epoch: 20500, Error: 0.005889751901715502
Epoch: 20600, Error: 0.005893366970679526
Epoch: 20700, Error: 0.005866337159099396
Epoch: 20800, Error: 0.005856606476592419
Epoch: 20900, Error: 0.005850333008237925
Epoch: 21000, Error: 0.005834783634092923
Epoch: 21100, Error: 0.0058021886702121165
Epoch: 21200, Error: 0.005808801788674072
Epoch: 21300, Error: 0.005765168850547175
Epoch: 21400, Error: 0.005750259138866698
Epoch: 21500, Error: 0.005733830223388483
Epoch: 21600, Error: 0.005722531757042058
Epoch: 21700, Error: 0.005719337413601011
Epoch: 21800, Error: 0.005760546451026285
Epoch: 21900, Error: 0.005735107281603603
Epoch: 22000, Error: 0.005661246474868443
Epoch: 22100, Error: 0.005651646164204886
Epoch: 22200, Error: 0.005629283853968634
Epoch: 22300, Error: 0.005624837252525532
Epoch: 22400, Error: 0.005611433909113785
Epoch: 22500, Error: 0.005597060127696328
Epoch: 22600, Error: 0.005594407345301364
Epoch: 22700, Error: 0.005560920620530041
Epoch: 22800, Error: 0.005552017854842708
Epoch: 22900, Error: 0.005551568354937955
Epoch: 23000, Error: 0.005519260208023217
Epoch: 23100, Error: 0.005505989301022538
Epoch: 23200, Error: 0.0054896876725075575
Epoch: 23300, Error: 0.005473745943883417
Epoch: 23400, Error: 0.005468147587830825
Epoch: 23500, Error: 0.005456519626306882
Epoch: 23600, Error: 0.005432011659899138
Epoch: 23700, Error: 0.005427851057630348
Epoch: 23800, Error: 0.005417558707401212
Epoch: 23900, Error: 0.005413251622566764
Epoch: 24000, Error: 0.0053946764137432004
Epoch: 24100, Error: 0.0053839779886172825
Epoch: 24200, Error: 0.005365719790379199
Epoch: 24300, Error: 0.005351070774555765
Epoch: 24400, Error: 0.005333287371636563
Epoch: 24500, Error: 0.005328581896246311
Epoch: 24600, Error: 0.0053189812591723454
Epoch: 24700, Error: 0.005313617523734006
Epoch: 24800, Error: 0.0052926304418493084
Epoch: 24900, Error: 0.005276610150415756
Epoch: 25000, Error: 0.005311770552530874
Epoch: 25100, Error: 0.005259099676273963
Epoch: 25200, Error: 0.005237107345372678
Epoch: 25300, Error: 0.005236258773132399
Epoch: 25400, Error: 0.0051907226483976585
Epoch: 25500, Error: 0.005181224490715817
Epoch: 25600, Error: 0.0052202806782445125
Epoch: 25700, Error: 0.005144341308447208
Epoch: 25800, Error: 0.0051390553499466255
Epoch: 25900, Error: 0.005102802251676381
Epoch: 26000, Error: 0.005090520769638951
Epoch: 26100, Error: 0.005094927752777224
Epoch: 26200, Error: 0.005088342815579752
Epoch: 26300, Error: 0.005073917583244011
Epoch: 26400, Error: 0.005040787798243653
Epoch: 26500, Error: 0.005008467268344965
Epoch: 26600, Error: 0.0049669364337925044
Epoch: 26700, Error: 0.00499979830899919
Epoch: 26800, Error: 0.0049641694759687705
Epoch: 26900, Error: 0.004935694689486499
Epoch: 27000, Error: 0.004886918205162779
Epoch: 27100, Error: 0.004970378705696842
Epoch: 27200, Error: 0.00485726681227491
Epoch: 27300, Error: 0.0048251924187756095
Epoch: 27400, Error: 0.004821815941577298
Epoch: 27500, Error: 0.0047962973590145366
Epoch: 27600, Error: 0.004769359590639512
Epoch: 27700, Error: 0.004754250260339093
Epoch: 27800, Error: 0.004737631116550481
Epoch: 27900, Error: 0.004728363257789327
Epoch: 28000, Error: 0.004716467735702723
Epoch: 28100, Error: 0.00469396709942645
Epoch: 28200, Error: 0.004651860934760889
Epoch: 28300, Error: 0.0046207171823604625
Epoch: 28400, Error: 0.004643685319896634
Epoch: 28500, Error: 0.00459011075980247
Epoch: 28600, Error: 0.004551441403521085
Epoch: 28700, Error: 0.0046105361631966725
Epoch: 28800, Error: 0.004515769744370625
Epoch: 28900, Error: 0.00448185846454847
Epoch: 29000, Error: 0.004500107395098837
Epoch: 29100, Error: 0.004450394770426676
Epoch: 29200, Error: 0.004422923915684851
Epoch: 29300, Error: 0.004409525663711628
Epoch: 29400, Error: 0.004383739336089797
Epoch: 29500, Error: 0.004365156214631766
Epoch: 29600, Error: 0.004356696932227541
Epoch: 29700, Error: 0.004326820321518879
Epoch: 29800, Error: 0.004312262266696411
Epoch: 29900, Error: 0.004310676990334628
Epoch: 30000, Error: 0.004269463421025442
Epoch: 30100, Error: 0.004283901440080576
Epoch: 30200, Error: 0.004246797105111253
Epoch: 30300, Error: 0.0042475315685683536
Epoch: 30400, Error: 0.004196570869912638
Epoch: 30500, Error: 0.0042023569575595915
Epoch: 30600, Error: 0.0041812275599103655
Epoch: 30700, Error: 0.004192807439720482
Epoch: 30800, Error: 0.004176511390550332
Epoch: 30900, Error: 0.004168597907182024
Epoch: 31000, Error: 0.004148028974636158
Epoch: 31100, Error: 0.004156708340752728
Epoch: 31200, Error: 0.004145958718327056
Epoch: 31300, Error: 0.004129101056945136
Epoch: 31400, Error: 0.004101925068046276
Epoch: 31500, Error: 0.004083253924290139
Epoch: 31600, Error: 0.004091623168464239
Epoch: 31700, Error: 0.004095662682014973
Epoch: 31800, Error: 0.004050407699643417
Epoch: 31900, Error: 0.004028009850113046
Epoch: 32000, Error: 0.004021754056872508
Epoch: 32100, Error: 0.004024469090387728
Epoch: 32200, Error: 0.003999795328880694
Epoch: 32300, Error: 0.003974626925176778
Epoch: 32400, Error: 0.0039613998299765345
Epoch: 32500, Error: 0.003938447463634443
Epoch: 32600, Error: 0.003936248458211601
Epoch: 32700, Error: 0.00396410921451198
Epoch: 32800, Error: 0.003921824509305761
Epoch: 32900, Error: 0.003942467411580675
Epoch: 33000, Error: 0.003913583050617218
Epoch: 33100, Error: 0.003930583547984198
Epoch: 33200, Error: 0.003851965563900998
Epoch: 33300, Error: 0.003827843805384746
Epoch: 33400, Error: 0.003819819837674991
Epoch: 33500, Error: 0.003799658351402971
Epoch: 33600, Error: 0.003794388324233791
Epoch: 33700, Error: 0.003774962549865955
Epoch: 33800, Error: 0.0037380973852584546
Epoch: 33900, Error: 0.003757784112435246
Epoch: 34000, Error: 0.0037206578369488445
Epoch: 34100, Error: 0.0037116589051372105
Epoch: 34200, Error: 0.003734053456682099
Epoch: 34300, Error: 0.0036546011063543445
Epoch: 34400, Error: 0.0036513862304461404
Epoch: 34500, Error: 0.0036467608570943597
Epoch: 34600, Error: 0.003660072140844577
Epoch: 34700, Error: 0.003613710482564188
Epoch: 34800, Error: 0.003630223603877843
Epoch: 34900, Error: 0.0035465082378492467
Epoch: 35000, Error: 0.0035382866178670473
Epoch: 35100, Error: 0.0035231020974632603
Epoch: 35200, Error: 0.0035591846677041454
Epoch: 35300, Error: 0.003449419719615224
Epoch: 35400, Error: 0.003578148138164894
Epoch: 35500, Error: 0.0033894185856545864
Epoch: 35600, Error: 0.0034034725437451507
Epoch: 35700, Error: 0.0033858960064791508
Epoch: 35800, Error: 0.003341554319206953
Epoch: 35900, Error: 0.003325096632674337
Epoch: 36000, Error: 0.0033512097268969905
Epoch: 36100, Error: 0.0033887395713155712
Epoch: 36200, Error: 0.003293497215069419
Epoch: 36300, Error: 0.003241527896698929
Epoch: 36400, Error: 0.0032973411960607875
Epoch: 36500, Error: 0.0032172377064371865
Epoch: 36600, Error: 0.003250466725091649
Epoch: 36700, Error: 0.003219218242945846
Epoch: 36800, Error: 0.003182201672611153
Epoch: 36900, Error: 0.003153984938424165
Epoch: 37000, Error: 0.003164381254301969
Epoch: 37100, Error: 0.003140818692759271
Epoch: 37200, Error: 0.003173330100997319
Epoch: 37300, Error: 0.0030940495167730785
Epoch: 37400, Error: 0.003109911847770948
Epoch: 37500, Error: 0.0030963524101372923
Epoch: 37600, Error: 0.0030842131240967985
Epoch: 37700, Error: 0.003073564854620576
Epoch: 37800, Error: 0.0030254011451536114
Epoch: 37900, Error: 0.0029873764807764945
Epoch: 38000, Error: 0.003012653371774366
Epoch: 38100, Error: 0.002972544260706834
Epoch: 38200, Error: 0.002964075348475907
Epoch: 38300, Error: 0.0029737116614560097
Epoch: 38400, Error: 0.002943698153287655
Epoch: 38500, Error: 0.002917015699998456
Epoch: 38600, Error: 0.00290962018588488
Epoch: 38700, Error: 0.002923407808912747
Epoch: 38800, Error: 0.002867053473635114
Epoch: 38900, Error: 0.0029100883115714417
Epoch: 39000, Error: 0.0028679208462239233
Epoch: 39100, Error: 0.0028198343454584334
Epoch: 39200, Error: 0.0028073793597110665
Epoch: 39300, Error: 0.002984507449341826
Epoch: 39400, Error: 0.002783909010573107
Epoch: 39500, Error: 0.0027960933533493983
Epoch: 39600, Error: 0.002781387845855447
Epoch: 39700, Error: 0.002761412909606083
Epoch: 39800, Error: 0.002752618961756087
Epoch: 39900, Error: 0.002749664380453104
Epoch: 40000, Error: 0.0027415577919005832
Epoch: 40100, Error: 0.0027363971163956303
Epoch: 40200, Error: 0.002794376633057769
Epoch: 40300, Error: 0.002693634549547566
Epoch: 40400, Error: 0.002698211660537493
Epoch: 40500, Error: 0.0026871479477524603
Epoch: 40600, Error: 0.002660592122136443
Epoch: 40700, Error: 0.0026506091585272304
Epoch: 40800, Error: 0.0026639679762251057
Epoch: 40900, Error: 0.0026348237793969733
Epoch: 41000, Error: 0.0026908985100337745
Epoch: 41100, Error: 0.002628249663137573
Epoch: 41200, Error: 0.002638341723144972
Epoch: 41300, Error: 0.002607247981361309
Epoch: 41400, Error: 0.002635030968502007
Epoch: 41500, Error: 0.0026196868038635425
Epoch: 41600, Error: 0.002579184461728649
Epoch: 41700, Error: 0.0025555595462338236
Epoch: 41800, Error: 0.002549878690853434
Epoch: 41900, Error: 0.0025281066551825085
Epoch: 42000, Error: 0.002556085990180609
Epoch: 42100, Error: 0.0025638053829556587
Epoch: 42200, Error: 0.0025224586975843076
Epoch: 42300, Error: 0.002493831628980423
Epoch: 42400, Error: 0.002480961620925904
Epoch: 42500, Error: 0.0025075600343729804
Epoch: 42600, Error: 0.0024635305969056896
Epoch: 42700, Error: 0.0024568122537543227
Epoch: 42800, Error: 0.0024463404408817824
Epoch: 42900, Error: 0.0024350365293472277
Epoch: 43000, Error: 0.0024339512331312753
Epoch: 43100, Error: 0.0024094390423811296
Epoch: 43200, Error: 0.0024236792322945445
Epoch: 43300, Error: 0.002376838265199997
Epoch: 43400, Error: 0.0023649673795645473
Epoch: 43500, Error: 0.0023574915613323155
Epoch: 43600, Error: 0.0023667452425450318
Epoch: 43700, Error: 0.0023394780385974394
Epoch: 43800, Error: 0.0023286567375138717
Epoch: 43900, Error: 0.002302713530504962
Epoch: 44000, Error: 0.0022813144184289664
Epoch: 44100, Error: 0.002277999516255177
Epoch: 44200, Error: 0.0022815125713247825
Epoch: 44300, Error: 0.0022614081503491324
Epoch: 44400, Error: 0.0022432769652103355
Epoch: 44500, Error: 0.0022447231138525625
Epoch: 44600, Error: 0.002233440364960737
Epoch: 44700, Error: 0.002216543317994608
Epoch: 44800, Error: 0.0022110844357040335
Epoch: 44900, Error: 0.0022050087299581027
Epoch: 45000, Error: 0.0021908196582782987
Epoch: 45100, Error: 0.0021936883138160136
Epoch: 45200, Error: 0.0021676944128106953
Epoch: 45300, Error: 0.0021594325821448815
Epoch: 45400, Error: 0.0021504270036313356
Epoch: 45500, Error: 0.0021436391818040147
Epoch: 45600, Error: 0.0021401447428686955
Epoch: 45700, Error: 0.002138586614342669
Epoch: 45800, Error: 0.0021313990485792482
Epoch: 45900, Error: 0.002131741403378452
Epoch: 46000, Error: 0.0021089996614010293
Epoch: 46100, Error: 0.002144906986354865
Epoch: 46200, Error: 0.002119403541969037
Epoch: 46300, Error: 0.0021177147863215844
Epoch: 46400, Error: 0.002083081370337063
Epoch: 46500, Error: 0.002093755207798042
Epoch: 46600, Error: 0.002083830806927858
Epoch: 46700, Error: 0.0020657620341522263
Epoch: 46800, Error: 0.0020773952809297583
Epoch: 46900, Error: 0.0020563256290219902
Epoch: 47000, Error: 0.0020502971013725063
Finished
