Input Patterns
0.224 0.624 0.067 0.043 
0.11 0.502 0.051 0.043 
0.196 0.667 0.067 0.043 
0.055 0.584 0.067 0.082 
0.027 0.376 0.067 0.043 
0.306 0.71 0.086 0.043 
0.137 0.416 0.067 0.0 
0.416 0.831 0.035 0.043 
0.306 0.792 0.051 0.125 
0.388 0.749 0.118 0.082 
0.306 0.584 0.118 0.043 
0.082 0.667 0.0 0.043 
0.137 0.584 0.153 0.043 
0.196 0.584 0.102 0.125 
0.251 0.584 0.067 0.043 
0.137 0.459 0.102 0.043 
0.251 0.875 0.086 0.0 
0.165 0.459 0.086 0.043 
0.333 0.624 0.051 0.043 
0.027 0.416 0.051 0.043 
0.196 0.624 0.051 0.082 
0.027 0.502 0.051 0.043 
0.224 0.749 0.153 0.125 
0.224 0.749 0.102 0.043 
0.278 0.71 0.086 0.043 
0.165 0.416 0.067 0.043 
0.082 0.459 0.086 0.043 
0.306 0.792 0.118 0.125 
0.196 0.584 0.086 0.043 
0.165 0.459 0.086 0.0 
0.137 0.584 0.102 0.043 
0.0 0.416 0.016 0.0 
0.388 1.0 0.086 0.125 
0.224 0.624 0.067 0.082 
0.224 0.749 0.086 0.082 
0.224 0.71 0.086 0.125 
0.224 0.541 0.118 0.165 
0.196 0.416 0.102 0.043 
0.251 0.624 0.086 0.043 
0.11 0.502 0.102 0.043 
0.306 0.584 0.086 0.125 
0.333 0.918 0.067 0.043 
0.196 0.502 0.035 0.043 
0.165 0.667 0.067 0.0 
0.224 0.584 0.086 0.043 
0.055 0.125 0.051 0.082 
0.196 0.624 0.102 0.208 
0.137 0.416 0.067 0.082 
0.082 0.502 0.067 0.043 
0.196 0.541 0.067 0.043 
0.749 0.502 0.627 0.541 
0.722 0.459 0.663 0.584 
0.612 0.333 0.612 0.584 
0.557 0.541 0.627 0.624 
0.639 0.376 0.612 0.498 
0.196 0.0 0.424 0.376 
0.471 0.082 0.51 0.376 
0.361 0.376 0.439 0.498 
0.361 0.416 0.592 0.584 
0.529 0.082 0.592 0.584 
0.443 0.502 0.643 0.459 
0.557 0.208 0.663 0.584 
0.584 0.376 0.561 0.498 
0.694 0.333 0.643 0.541 
0.471 0.376 0.592 0.584 
0.333 0.169 0.475 0.416 
0.416 0.29 0.49 0.459 
0.306 0.416 0.592 0.584 
0.667 0.459 0.627 0.584 
0.361 0.416 0.525 0.498 
0.333 0.251 0.576 0.459 
0.416 0.251 0.51 0.459 
0.361 0.29 0.541 0.498 
0.388 0.376 0.541 0.498 
0.224 0.208 0.337 0.416 
0.584 0.502 0.592 0.584 
0.333 0.125 0.51 0.498 
0.388 0.333 0.592 0.498 
0.165 0.169 0.388 0.376 
0.251 0.29 0.49 0.541 
0.443 0.416 0.541 0.584 
0.498 0.376 0.627 0.541 
0.667 0.459 0.576 0.541 
0.416 0.29 0.525 0.376 
0.361 0.208 0.49 0.416 
0.498 0.333 0.51 0.498 
0.498 0.333 0.627 0.459 
0.639 0.416 0.576 0.541 
0.667 0.416 0.678 0.667 
0.388 0.251 0.424 0.376 
0.333 0.169 0.459 0.376 
0.471 0.29 0.694 0.624 
0.471 0.584 0.592 0.624 
0.557 0.125 0.576 0.498 
0.333 0.208 0.51 0.498 
0.498 0.416 0.612 0.541 
0.196 0.125 0.388 0.376 
0.388 0.416 0.541 0.459 
0.529 0.376 0.561 0.498 
0.388 0.333 0.525 0.498 
0.557 0.541 0.847 1.0 
0.776 0.416 0.831 0.831 
0.612 0.416 0.812 0.875 
0.165 0.208 0.592 0.667 
0.667 0.208 0.812 0.71 
0.612 0.502 0.694 0.792 
0.694 0.416 0.761 0.831 
0.416 0.333 0.694 0.957 
0.612 0.416 0.761 0.71 
0.945 0.251 1.0 0.918 
0.722 0.502 0.796 0.918 
0.945 0.333 0.965 0.792 
0.667 0.541 0.796 0.831 
0.529 0.333 0.643 0.71 
0.584 0.333 0.78 0.831 
0.863 0.333 0.863 0.749 
0.584 0.333 0.78 0.875 
0.498 0.251 0.78 0.541 
0.557 0.584 0.78 0.957 
0.471 0.416 0.643 0.71 
0.667 0.459 0.78 0.957 
0.416 0.29 0.694 0.749 
0.667 0.541 0.796 1.0 
0.557 0.208 0.678 0.749 
0.529 0.584 0.745 0.918 
0.416 0.29 0.694 0.749 
0.557 0.376 0.78 0.71 
0.918 0.416 0.949 0.831 
0.835 0.376 0.898 0.71 
0.804 0.667 0.863 1.0 
0.584 0.29 0.729 0.749 
0.388 0.208 0.678 0.792 
0.584 0.502 0.729 0.918 
0.945 0.749 0.965 0.875 
0.471 0.082 0.678 0.584 
0.361 0.333 0.663 0.792 
0.557 0.29 0.663 0.71 
0.804 0.502 0.847 0.71 
0.498 0.416 0.51 0.71 
0.804 0.416 0.812 0.624 
1.0 0.749 0.914 0.792 
0.557 0.333 0.694 0.584 
0.945 0.416 0.863 0.918 
0.584 0.459 0.761 0.71 
0.722 0.459 0.745 0.831 
0.722 0.459 0.694 0.918 
0.694 0.502 0.831 0.918 
0.667 0.416 0.714 0.918 
0.612 0.416 0.714 0.792 
0.443 0.416 0.694 0.71 
Teaching Patterns
1.0 0.0 0.0 
1.0 0.0 0.0 
1.0 0.0 0.0 
1.0 0.0 0.0 
1.0 0.0 0.0 
1.0 0.0 0.0 
1.0 0.0 0.0 
1.0 0.0 0.0 
1.0 0.0 0.0 
1.0 0.0 0.0 
1.0 0.0 0.0 
1.0 0.0 0.0 
1.0 0.0 0.0 
1.0 0.0 0.0 
1.0 0.0 0.0 
1.0 0.0 0.0 
1.0 0.0 0.0 
1.0 0.0 0.0 
1.0 0.0 0.0 
1.0 0.0 0.0 
1.0 0.0 0.0 
1.0 0.0 0.0 
1.0 0.0 0.0 
1.0 0.0 0.0 
1.0 0.0 0.0 
1.0 0.0 0.0 
1.0 0.0 0.0 
1.0 0.0 0.0 
1.0 0.0 0.0 
1.0 0.0 0.0 
1.0 0.0 0.0 
1.0 0.0 0.0 
1.0 0.0 0.0 
1.0 0.0 0.0 
1.0 0.0 0.0 
1.0 0.0 0.0 
1.0 0.0 0.0 
1.0 0.0 0.0 
1.0 0.0 0.0 
1.0 0.0 0.0 
1.0 0.0 0.0 
1.0 0.0 0.0 
1.0 0.0 0.0 
1.0 0.0 0.0 
1.0 0.0 0.0 
1.0 0.0 0.0 
1.0 0.0 0.0 
1.0 0.0 0.0 
1.0 0.0 0.0 
1.0 0.0 0.0 
0.0 1.0 0.0 
0.0 1.0 0.0 
0.0 1.0 0.0 
0.0 1.0 0.0 
0.0 1.0 0.0 
0.0 1.0 0.0 
0.0 1.0 0.0 
0.0 1.0 0.0 
0.0 1.0 0.0 
0.0 1.0 0.0 
0.0 1.0 0.0 
0.0 1.0 0.0 
0.0 1.0 0.0 
0.0 1.0 0.0 
0.0 1.0 0.0 
0.0 1.0 0.0 
0.0 1.0 0.0 
0.0 1.0 0.0 
0.0 1.0 0.0 
0.0 1.0 0.0 
0.0 1.0 0.0 
0.0 1.0 0.0 
0.0 1.0 0.0 
0.0 1.0 0.0 
0.0 1.0 0.0 
0.0 1.0 0.0 
0.0 1.0 0.0 
0.0 1.0 0.0 
0.0 1.0 0.0 
0.0 1.0 0.0 
0.0 1.0 0.0 
0.0 1.0 0.0 
0.0 1.0 0.0 
0.0 1.0 0.0 
0.0 1.0 0.0 
0.0 1.0 0.0 
0.0 1.0 0.0 
0.0 1.0 0.0 
0.0 1.0 0.0 
0.0 1.0 0.0 
0.0 1.0 0.0 
0.0 1.0 0.0 
0.0 1.0 0.0 
0.0 1.0 0.0 
0.0 1.0 0.0 
0.0 1.0 0.0 
0.0 1.0 0.0 
0.0 1.0 0.0 
0.0 1.0 0.0 
0.0 1.0 0.0 
0.0 0.0 1.0 
0.0 0.0 1.0 
0.0 0.0 1.0 
0.0 0.0 1.0 
0.0 0.0 1.0 
0.0 0.0 1.0 
0.0 0.0 1.0 
0.0 0.0 1.0 
0.0 0.0 1.0 
0.0 0.0 1.0 
0.0 0.0 1.0 
0.0 0.0 1.0 
0.0 0.0 1.0 
0.0 0.0 1.0 
0.0 0.0 1.0 
0.0 0.0 1.0 
0.0 0.0 1.0 
0.0 0.0 1.0 
0.0 0.0 1.0 
0.0 0.0 1.0 
0.0 0.0 1.0 
0.0 0.0 1.0 
0.0 0.0 1.0 
0.0 0.0 1.0 
0.0 0.0 1.0 
0.0 0.0 1.0 
0.0 0.0 1.0 
0.0 0.0 1.0 
0.0 0.0 1.0 
0.0 0.0 1.0 
0.0 0.0 1.0 
0.0 0.0 1.0 
0.0 0.0 1.0 
0.0 0.0 1.0 
0.0 0.0 1.0 
0.0 0.0 1.0 
0.0 0.0 1.0 
0.0 0.0 1.0 
0.0 0.0 1.0 
0.0 0.0 1.0 
0.0 0.0 1.0 
0.0 0.0 1.0 
0.0 0.0 1.0 
0.0 0.0 1.0 
0.0 0.0 1.0 
0.0 0.0 1.0 
0.0 0.0 1.0 
0.0 0.0 1.0 
0.0 0.0 1.0 
0.0 0.0 1.0 
Learning : 0.05
Momentum : 0.6000000238418579
Epoch: 100, Error: 0.05433562943129623
Epoch: 200, Error: 0.02026314262135975
Epoch: 300, Error: 0.01619592211338697
Epoch: 400, Error: 0.01467494139377579
Epoch: 500, Error: 0.013868856306029822
Epoch: 600, Error: 0.013416849443310404
Epoch: 700, Error: 0.013056036882779924
Epoch: 800, Error: 0.012847504883096142
Epoch: 900, Error: 0.012673085736291211
Epoch: 1000, Error: 0.012524696998998299
Epoch: 1100, Error: 0.012431696249189404
Epoch: 1200, Error: 0.012454057077497641
Epoch: 1300, Error: 0.012321117421354317
Epoch: 1400, Error: 0.012357212283774312
Epoch: 1500, Error: 0.012201750293514326
Epoch: 1600, Error: 0.012164688976675136
Epoch: 1700, Error: 0.012143878180013154
Epoch: 1800, Error: 0.01213216421601671
Epoch: 1900, Error: 0.012062016326356737
Epoch: 2000, Error: 0.012043759632790946
Epoch: 2100, Error: 0.012067384620266028
Epoch: 2200, Error: 0.012027905165189184
Epoch: 2300, Error: 0.012016773968829667
Epoch: 2400, Error: 0.012034276568519764
Epoch: 2500, Error: 0.011989661453292888
Epoch: 2600, Error: 0.011982134575872357
Epoch: 2700, Error: 0.012012129086148128
Epoch: 2800, Error: 0.011959971623147603
Epoch: 2900, Error: 0.011968298471038105
Epoch: 3000, Error: 0.012015778583325984
Epoch: 3100, Error: 0.012051367196851423
Epoch: 3200, Error: 0.011943739329473763
Epoch: 3300, Error: 0.012033906906982956
Epoch: 3400, Error: 0.01195457995821387
Epoch: 3500, Error: 0.012025201880033816
Epoch: 3600, Error: 0.011937791636381754
Epoch: 3700, Error: 0.011930626259961117
Epoch: 3800, Error: 0.011985961315516084
Epoch: 3900, Error: 0.011955873234493647
Epoch: 4000, Error: 0.011930792258953523
Epoch: 4100, Error: 0.011982282097102307
Epoch: 4200, Error: 0.011965926392552593
Epoch: 4300, Error: 0.01200559181771975
Epoch: 4400, Error: 0.011962497899176801
Epoch: 4500, Error: 0.012005928011309628
Epoch: 4600, Error: 0.011980605925944842
Epoch: 4700, Error: 0.011959542923704587
Epoch: 4800, Error: 0.01196346136930326
Epoch: 4900, Error: 0.011974579108406014
Epoch: 5000, Error: 0.011990592074684807
Epoch: 5100, Error: 0.011987684474295527
Epoch: 5200, Error: 0.011964524559020676
Epoch: 5300, Error: 0.012024557642547711
Epoch: 5400, Error: 0.01198395081903436
Epoch: 5500, Error: 0.01195466377131075
Epoch: 5600, Error: 0.011974535468699565
Epoch: 5700, Error: 0.011980897794736538
Epoch: 5800, Error: 0.01198314409869959
Epoch: 5900, Error: 0.0120173057172431
Epoch: 6000, Error: 0.011958753425463422
Epoch: 6100, Error: 0.011968401608896354
Epoch: 6200, Error: 0.011950182766036778
Epoch: 6300, Error: 0.01198618193455297
Epoch: 6400, Error: 0.011926135924551433
Epoch: 6500, Error: 0.011950136764183501
Epoch: 6600, Error: 0.011991444674488184
Epoch: 6700, Error: 0.011934429314425073
Epoch: 6800, Error: 0.011969332602193588
Epoch: 6900, Error: 0.01189265919062547
Epoch: 7000, Error: 0.011904251412715911
Epoch: 7100, Error: 0.011891680107192276
Epoch: 7200, Error: 0.011915634086434373
Epoch: 7300, Error: 0.011895724262727914
Epoch: 7400, Error: 0.011916850470112142
Epoch: 7500, Error: 0.011886595308340518
Epoch: 7600, Error: 0.011880532210016944
Epoch: 7700, Error: 0.011868866271318546
Epoch: 7800, Error: 0.011954363885522887
Epoch: 7900, Error: 0.011830249642390487
Epoch: 8000, Error: 0.011807783644349909
Epoch: 8100, Error: 0.011812196141004407
Epoch: 8200, Error: 0.011805823531163074
Epoch: 8300, Error: 0.011775296785731519
Epoch: 8400, Error: 0.011770125653230636
Epoch: 8500, Error: 0.011768154544856538
Epoch: 8600, Error: 0.011786608610797156
Epoch: 8700, Error: 0.011767111235022797
Epoch: 8800, Error: 0.011769654377616222
Epoch: 8900, Error: 0.011769954100846265
Epoch: 9000, Error: 0.011911485651258926
Epoch: 9100, Error: 0.011759697533242843
Epoch: 9200, Error: 0.011729627512269497
Epoch: 9300, Error: 0.011776981690129255
Epoch: 9400, Error: 0.011695287031430367
Epoch: 9500, Error: 0.011667947490049138
Epoch: 9600, Error: 0.011661519561116265
Epoch: 9700, Error: 0.011665482019094882
Epoch: 9800, Error: 0.011661636160623696
Epoch: 9900, Error: 0.01163568603579212
Epoch: 10000, Error: 0.01172901539798794
Epoch: 10100, Error: 0.01160814420528855
Epoch: 10200, Error: 0.01158026769842651
Epoch: 10300, Error: 0.011553367891450145
Epoch: 10400, Error: 0.011561060267006588
Epoch: 10500, Error: 0.011590538141216435
Epoch: 10600, Error: 0.011492205044789153
Epoch: 10700, Error: 0.011559424833130813
Epoch: 10800, Error: 0.011447842347632735
Epoch: 10900, Error: 0.011413921016101657
Epoch: 11000, Error: 0.011390889489335785
Epoch: 11100, Error: 0.011366412207260534
Epoch: 11200, Error: 0.01137894773117308
Epoch: 11300, Error: 0.011316400821553876
Epoch: 11400, Error: 0.01130015545049774
Epoch: 11500, Error: 0.0113300142302383
Epoch: 11600, Error: 0.011275688588509138
Epoch: 11700, Error: 0.011214860367383764
Epoch: 11800, Error: 0.011259387121401671
Epoch: 11900, Error: 0.011146593508709442
Epoch: 12000, Error: 0.011116981832630766
Epoch: 12100, Error: 0.011233903209367301
Epoch: 12200, Error: 0.011137858766908195
Epoch: 12300, Error: 0.01110096568556558
Epoch: 12400, Error: 0.011003999773070197
Epoch: 12500, Error: 0.010986475248786287
Epoch: 12600, Error: 0.010939112458712085
Epoch: 12700, Error: 0.01092341187134457
Epoch: 12800, Error: 0.010868781314300541
Epoch: 12900, Error: 0.010842625589884546
Epoch: 13000, Error: 0.01085930925254345
Epoch: 13100, Error: 0.010740429610156494
Epoch: 13200, Error: 0.010703883650210178
Epoch: 13300, Error: 0.010656296004136702
Epoch: 13400, Error: 0.010607589983384435
Epoch: 13500, Error: 0.010564595350157888
Epoch: 13600, Error: 0.010524416056565955
Epoch: 13700, Error: 0.010475049041322447
Epoch: 13800, Error: 0.010433263722789476
Epoch: 13900, Error: 0.010378677281954551
Epoch: 14000, Error: 0.010328114413437024
Epoch: 14100, Error: 0.010306062425564349
Epoch: 14200, Error: 0.010441469169373097
Epoch: 14300, Error: 0.010211221989194169
Epoch: 14400, Error: 0.010154726300875523
Epoch: 14500, Error: 0.010094308099877065
Epoch: 14600, Error: 0.010026390236299887
Epoch: 14700, Error: 0.009976633297945955
Epoch: 14800, Error: 0.009909055797049697
Epoch: 14900, Error: 0.009851088748960254
Epoch: 15000, Error: 0.009765964103359746
Epoch: 15100, Error: 0.009657059124352805
Epoch: 15200, Error: 0.009591877784562365
Epoch: 15300, Error: 0.009486205211933225
Epoch: 15400, Error: 0.009417679348725762
Epoch: 15500, Error: 0.00933066503330825
Epoch: 15600, Error: 0.009253052794820594
Epoch: 15700, Error: 0.0091747218700252
Epoch: 15800, Error: 0.009106375726098135
Epoch: 15900, Error: 0.009076822013460916
Epoch: 16000, Error: 0.00903283108413351
Epoch: 16100, Error: 0.00891492799302034
Epoch: 16200, Error: 0.008844408718695866
Epoch: 16300, Error: 0.008792259512748094
Epoch: 16400, Error: 0.008716302788426644
Epoch: 16500, Error: 0.008647851014388488
Epoch: 16600, Error: 0.008617467393903955
Epoch: 16700, Error: 0.008525365811113102
Epoch: 16800, Error: 0.008481888004724521
Epoch: 16900, Error: 0.00838194879870153
Epoch: 17000, Error: 0.008321271577358935
Epoch: 17100, Error: 0.008240442004416223
Epoch: 17200, Error: 0.008124366423951085
Epoch: 17300, Error: 0.008036000455105635
Epoch: 17400, Error: 0.007936016133701845
Epoch: 17500, Error: 0.007832001058175567
Epoch: 17600, Error: 0.00773496850920545
Epoch: 17700, Error: 0.00768025341935791
Epoch: 17800, Error: 0.007604766623849685
Epoch: 17900, Error: 0.007479086358793643
Epoch: 18000, Error: 0.0073817102840878415
Epoch: 18100, Error: 0.007273741578561983
Epoch: 18200, Error: 0.007193275760802995
Epoch: 18300, Error: 0.007100817654867885
Epoch: 18400, Error: 0.007017560059725235
Epoch: 18500, Error: 0.006922141147552073
Epoch: 18600, Error: 0.006848141610461324
Epoch: 18700, Error: 0.006771576370729752
Epoch: 18800, Error: 0.006706739066848904
Epoch: 18900, Error: 0.006648896580550783
Epoch: 19000, Error: 0.0065724546198686565
Epoch: 19100, Error: 0.006521614228877355
Epoch: 19200, Error: 0.006468360343658722
Epoch: 19300, Error: 0.006408649352251443
Epoch: 19400, Error: 0.006362797240025637
Epoch: 19500, Error: 0.006307515531128281
Epoch: 19600, Error: 0.00625280802466593
Epoch: 19700, Error: 0.006212941200261784
Epoch: 19800, Error: 0.006179430594029704
Epoch: 19900, Error: 0.006144490231584509
Epoch: 20000, Error: 0.006095657684058359
Epoch: 20100, Error: 0.006059842532642602
Epoch: 20200, Error: 0.006015172705206973
Epoch: 20300, Error: 0.005967099087830841
Epoch: 20400, Error: 0.005946892521051347
Epoch: 20500, Error: 0.005909598176168503
Epoch: 20600, Error: 0.005913812076982084
Epoch: 20700, Error: 0.005847142941444922
Epoch: 20800, Error: 0.00583654191272086
Epoch: 20900, Error: 0.005796371491149605
Epoch: 21000, Error: 0.00576901031944606
Epoch: 21100, Error: 0.005743970828621475
Epoch: 21200, Error: 0.005720042640813318
Epoch: 21300, Error: 0.005688255986778908
Epoch: 21400, Error: 0.005808823709695482
Epoch: 21500, Error: 0.005664877433749334
Epoch: 21600, Error: 0.005635144351075541
Epoch: 21700, Error: 0.005617757366566887
Epoch: 21800, Error: 0.005589126442938439
Epoch: 21900, Error: 0.0055494099868812746
Epoch: 22000, Error: 0.005551886995946137
Epoch: 22100, Error: 0.005521618636205606
Epoch: 22200, Error: 0.005489164243728872
Epoch: 22300, Error: 0.005477695207580829
Epoch: 22400, Error: 0.0054421086246574666
Epoch: 22500, Error: 0.005427755263140763
Epoch: 22600, Error: 0.005405218511458781
Epoch: 22700, Error: 0.005398504049392339
Epoch: 22800, Error: 0.005394417234774316
Epoch: 22900, Error: 0.005370550519329531
Epoch: 23000, Error: 0.005373081810457666
Epoch: 23100, Error: 0.005363089700359222
Epoch: 23200, Error: 0.005359744075740226
Epoch: 23300, Error: 0.00537476032028989
Epoch: 23400, Error: 0.005349719618891355
Epoch: 23500, Error: 0.005353389896187294
Finished
