Input Patterns
0.224 0.624 0.067 0.043 
0.11 0.502 0.051 0.043 
0.196 0.667 0.067 0.043 
0.055 0.584 0.067 0.082 
0.027 0.376 0.067 0.043 
0.306 0.71 0.086 0.043 
0.137 0.416 0.067 0.0 
0.416 0.831 0.035 0.043 
0.306 0.792 0.051 0.125 
0.388 0.749 0.118 0.082 
0.306 0.584 0.118 0.043 
0.082 0.667 0.0 0.043 
0.137 0.584 0.153 0.043 
0.196 0.584 0.102 0.125 
0.251 0.584 0.067 0.043 
0.137 0.459 0.102 0.043 
0.251 0.875 0.086 0.0 
0.165 0.459 0.086 0.043 
0.333 0.624 0.051 0.043 
0.027 0.416 0.051 0.043 
0.196 0.624 0.051 0.082 
0.027 0.502 0.051 0.043 
0.224 0.749 0.153 0.125 
0.224 0.749 0.102 0.043 
0.278 0.71 0.086 0.043 
0.165 0.416 0.067 0.043 
0.082 0.459 0.086 0.043 
0.306 0.792 0.118 0.125 
0.196 0.584 0.086 0.043 
0.165 0.459 0.086 0.0 
0.137 0.584 0.102 0.043 
0.0 0.416 0.016 0.0 
0.388 1.0 0.086 0.125 
0.224 0.624 0.067 0.082 
0.224 0.749 0.086 0.082 
0.224 0.71 0.086 0.125 
0.224 0.541 0.118 0.165 
0.196 0.416 0.102 0.043 
0.251 0.624 0.086 0.043 
0.11 0.502 0.102 0.043 
0.306 0.584 0.086 0.125 
0.333 0.918 0.067 0.043 
0.196 0.502 0.035 0.043 
0.165 0.667 0.067 0.0 
0.224 0.584 0.086 0.043 
0.055 0.125 0.051 0.082 
0.196 0.624 0.102 0.208 
0.137 0.416 0.067 0.082 
0.082 0.502 0.067 0.043 
0.196 0.541 0.067 0.043 
0.749 0.502 0.627 0.541 
0.722 0.459 0.663 0.584 
0.612 0.333 0.612 0.584 
0.557 0.541 0.627 0.624 
0.639 0.376 0.612 0.498 
0.196 0.0 0.424 0.376 
0.471 0.082 0.51 0.376 
0.361 0.376 0.439 0.498 
0.361 0.416 0.592 0.584 
0.529 0.082 0.592 0.584 
0.443 0.502 0.643 0.459 
0.557 0.208 0.663 0.584 
0.584 0.376 0.561 0.498 
0.694 0.333 0.643 0.541 
0.471 0.376 0.592 0.584 
0.333 0.169 0.475 0.416 
0.416 0.29 0.49 0.459 
0.306 0.416 0.592 0.584 
0.667 0.459 0.627 0.584 
0.361 0.416 0.525 0.498 
0.333 0.251 0.576 0.459 
0.416 0.251 0.51 0.459 
0.361 0.29 0.541 0.498 
0.388 0.376 0.541 0.498 
0.224 0.208 0.337 0.416 
0.584 0.502 0.592 0.584 
0.333 0.125 0.51 0.498 
0.388 0.333 0.592 0.498 
0.165 0.169 0.388 0.376 
0.251 0.29 0.49 0.541 
0.443 0.416 0.541 0.584 
0.498 0.376 0.627 0.541 
0.667 0.459 0.576 0.541 
0.416 0.29 0.525 0.376 
0.361 0.208 0.49 0.416 
0.498 0.333 0.51 0.498 
0.498 0.333 0.627 0.459 
0.639 0.416 0.576 0.541 
0.667 0.416 0.678 0.667 
0.388 0.251 0.424 0.376 
0.333 0.169 0.459 0.376 
0.471 0.29 0.694 0.624 
0.471 0.584 0.592 0.624 
0.557 0.125 0.576 0.498 
0.333 0.208 0.51 0.498 
0.498 0.416 0.612 0.541 
0.196 0.125 0.388 0.376 
0.388 0.416 0.541 0.459 
0.529 0.376 0.561 0.498 
0.388 0.333 0.525 0.498 
0.557 0.541 0.847 1.0 
0.776 0.416 0.831 0.831 
0.612 0.416 0.812 0.875 
0.165 0.208 0.592 0.667 
0.667 0.208 0.812 0.71 
0.612 0.502 0.694 0.792 
0.694 0.416 0.761 0.831 
0.416 0.333 0.694 0.957 
0.612 0.416 0.761 0.71 
0.945 0.251 1.0 0.918 
0.722 0.502 0.796 0.918 
0.945 0.333 0.965 0.792 
0.667 0.541 0.796 0.831 
0.529 0.333 0.643 0.71 
0.584 0.333 0.78 0.831 
0.863 0.333 0.863 0.749 
0.584 0.333 0.78 0.875 
0.498 0.251 0.78 0.541 
0.557 0.584 0.78 0.957 
0.471 0.416 0.643 0.71 
0.667 0.459 0.78 0.957 
0.416 0.29 0.694 0.749 
0.667 0.541 0.796 1.0 
0.557 0.208 0.678 0.749 
0.529 0.584 0.745 0.918 
0.416 0.29 0.694 0.749 
0.557 0.376 0.78 0.71 
0.918 0.416 0.949 0.831 
0.835 0.376 0.898 0.71 
0.804 0.667 0.863 1.0 
0.584 0.29 0.729 0.749 
0.388 0.208 0.678 0.792 
0.584 0.502 0.729 0.918 
0.945 0.749 0.965 0.875 
0.471 0.082 0.678 0.584 
0.361 0.333 0.663 0.792 
0.557 0.29 0.663 0.71 
0.804 0.502 0.847 0.71 
0.498 0.416 0.51 0.71 
0.804 0.416 0.812 0.624 
1.0 0.749 0.914 0.792 
0.557 0.333 0.694 0.584 
0.945 0.416 0.863 0.918 
0.584 0.459 0.761 0.71 
0.722 0.459 0.745 0.831 
0.722 0.459 0.694 0.918 
0.694 0.502 0.831 0.918 
0.667 0.416 0.714 0.918 
0.612 0.416 0.714 0.792 
0.443 0.416 0.694 0.71 
Teaching Patterns
1.0 0.0 0.0 
1.0 0.0 0.0 
1.0 0.0 0.0 
1.0 0.0 0.0 
1.0 0.0 0.0 
1.0 0.0 0.0 
1.0 0.0 0.0 
1.0 0.0 0.0 
1.0 0.0 0.0 
1.0 0.0 0.0 
1.0 0.0 0.0 
1.0 0.0 0.0 
1.0 0.0 0.0 
1.0 0.0 0.0 
1.0 0.0 0.0 
1.0 0.0 0.0 
1.0 0.0 0.0 
1.0 0.0 0.0 
1.0 0.0 0.0 
1.0 0.0 0.0 
1.0 0.0 0.0 
1.0 0.0 0.0 
1.0 0.0 0.0 
1.0 0.0 0.0 
1.0 0.0 0.0 
1.0 0.0 0.0 
1.0 0.0 0.0 
1.0 0.0 0.0 
1.0 0.0 0.0 
1.0 0.0 0.0 
1.0 0.0 0.0 
1.0 0.0 0.0 
1.0 0.0 0.0 
1.0 0.0 0.0 
1.0 0.0 0.0 
1.0 0.0 0.0 
1.0 0.0 0.0 
1.0 0.0 0.0 
1.0 0.0 0.0 
1.0 0.0 0.0 
1.0 0.0 0.0 
1.0 0.0 0.0 
1.0 0.0 0.0 
1.0 0.0 0.0 
1.0 0.0 0.0 
1.0 0.0 0.0 
1.0 0.0 0.0 
1.0 0.0 0.0 
1.0 0.0 0.0 
1.0 0.0 0.0 
0.0 1.0 0.0 
0.0 1.0 0.0 
0.0 1.0 0.0 
0.0 1.0 0.0 
0.0 1.0 0.0 
0.0 1.0 0.0 
0.0 1.0 0.0 
0.0 1.0 0.0 
0.0 1.0 0.0 
0.0 1.0 0.0 
0.0 1.0 0.0 
0.0 1.0 0.0 
0.0 1.0 0.0 
0.0 1.0 0.0 
0.0 1.0 0.0 
0.0 1.0 0.0 
0.0 1.0 0.0 
0.0 1.0 0.0 
0.0 1.0 0.0 
0.0 1.0 0.0 
0.0 1.0 0.0 
0.0 1.0 0.0 
0.0 1.0 0.0 
0.0 1.0 0.0 
0.0 1.0 0.0 
0.0 1.0 0.0 
0.0 1.0 0.0 
0.0 1.0 0.0 
0.0 1.0 0.0 
0.0 1.0 0.0 
0.0 1.0 0.0 
0.0 1.0 0.0 
0.0 1.0 0.0 
0.0 1.0 0.0 
0.0 1.0 0.0 
0.0 1.0 0.0 
0.0 1.0 0.0 
0.0 1.0 0.0 
0.0 1.0 0.0 
0.0 1.0 0.0 
0.0 1.0 0.0 
0.0 1.0 0.0 
0.0 1.0 0.0 
0.0 1.0 0.0 
0.0 1.0 0.0 
0.0 1.0 0.0 
0.0 1.0 0.0 
0.0 1.0 0.0 
0.0 1.0 0.0 
0.0 1.0 0.0 
0.0 0.0 1.0 
0.0 0.0 1.0 
0.0 0.0 1.0 
0.0 0.0 1.0 
0.0 0.0 1.0 
0.0 0.0 1.0 
0.0 0.0 1.0 
0.0 0.0 1.0 
0.0 0.0 1.0 
0.0 0.0 1.0 
0.0 0.0 1.0 
0.0 0.0 1.0 
0.0 0.0 1.0 
0.0 0.0 1.0 
0.0 0.0 1.0 
0.0 0.0 1.0 
0.0 0.0 1.0 
0.0 0.0 1.0 
0.0 0.0 1.0 
0.0 0.0 1.0 
0.0 0.0 1.0 
0.0 0.0 1.0 
0.0 0.0 1.0 
0.0 0.0 1.0 
0.0 0.0 1.0 
0.0 0.0 1.0 
0.0 0.0 1.0 
0.0 0.0 1.0 
0.0 0.0 1.0 
0.0 0.0 1.0 
0.0 0.0 1.0 
0.0 0.0 1.0 
0.0 0.0 1.0 
0.0 0.0 1.0 
0.0 0.0 1.0 
0.0 0.0 1.0 
0.0 0.0 1.0 
0.0 0.0 1.0 
0.0 0.0 1.0 
0.0 0.0 1.0 
0.0 0.0 1.0 
0.0 0.0 1.0 
0.0 0.0 1.0 
0.0 0.0 1.0 
0.0 0.0 1.0 
0.0 0.0 1.0 
0.0 0.0 1.0 
0.0 0.0 1.0 
0.0 0.0 1.0 
0.0 0.0 1.0 
Learning : 0.05
Momentum : 0.6000000238418579
Epoch: 100, Error: 0.04334322065418832
Epoch: 200, Error: 0.02002119530974041
Epoch: 300, Error: 0.016910883395613818
Epoch: 400, Error: 0.014705075356506139
Epoch: 500, Error: 0.014004464250138248
Epoch: 600, Error: 0.013405501094775537
Epoch: 700, Error: 0.012995408256366848
Epoch: 800, Error: 0.012964669491983044
Epoch: 900, Error: 0.012562655240738017
Epoch: 1000, Error: 0.01243238294600283
Epoch: 1100, Error: 0.012368877827268315
Epoch: 1200, Error: 0.012280385001213028
Epoch: 1300, Error: 0.012278706321081584
Epoch: 1400, Error: 0.012207990932818269
Epoch: 1500, Error: 0.01221107278289583
Epoch: 1600, Error: 0.012156524072686211
Epoch: 1700, Error: 0.012146331788136363
Epoch: 1800, Error: 0.012122885651379782
Epoch: 1900, Error: 0.012108822505610729
Epoch: 2000, Error: 0.012134503685877917
Epoch: 2100, Error: 0.012117459812342425
Epoch: 2200, Error: 0.012145561756019616
Epoch: 2300, Error: 0.012120174942289346
Epoch: 2400, Error: 0.012104612882506314
Epoch: 2500, Error: 0.01215681958823808
Epoch: 2600, Error: 0.012093441744012886
Epoch: 2700, Error: 0.012110981555746934
Epoch: 2800, Error: 0.012133791538367944
Epoch: 2900, Error: 0.012047264897506339
Epoch: 3000, Error: 0.012045877316590499
Epoch: 3100, Error: 0.012077566515234608
Epoch: 3200, Error: 0.012148925226100686
Epoch: 3300, Error: 0.012015511969037633
Epoch: 3400, Error: 0.012032673428425893
Epoch: 3500, Error: 0.012047514279521077
Epoch: 3600, Error: 0.012005881563647307
Epoch: 3700, Error: 0.011962309436030593
Epoch: 3800, Error: 0.012000321107961521
Epoch: 3900, Error: 0.011973924610765166
Epoch: 4000, Error: 0.011988686273622933
Epoch: 4100, Error: 0.012026021252038922
Epoch: 4200, Error: 0.011981011080404757
Epoch: 4300, Error: 0.011889462672984664
Epoch: 4400, Error: 0.011902938374299636
Epoch: 4500, Error: 0.01193241014516873
Epoch: 4600, Error: 0.012012281890556874
Epoch: 4700, Error: 0.011966960963328999
Epoch: 4800, Error: 0.012070850783937229
Epoch: 4900, Error: 0.011899846064999532
Epoch: 5000, Error: 0.01191854796289954
Epoch: 5100, Error: 0.011908972182748456
Epoch: 5200, Error: 0.011897759565271088
Epoch: 5300, Error: 0.011936960676463717
Epoch: 5400, Error: 0.011877974288841962
Epoch: 5500, Error: 0.011877965251431095
Epoch: 5600, Error: 0.011886252792129659
Epoch: 5700, Error: 0.011861625208668245
Epoch: 5800, Error: 0.011814797994255336
Epoch: 5900, Error: 0.011805601237146602
Epoch: 6000, Error: 0.011814232478145573
Epoch: 6100, Error: 0.011831184238963987
Epoch: 6200, Error: 0.011843671714387037
Epoch: 6300, Error: 0.01183831564277943
Epoch: 6400, Error: 0.011780122775268883
Epoch: 6500, Error: 0.011951614807727811
Epoch: 6600, Error: 0.011810011655996955
Epoch: 6700, Error: 0.011714821464759497
Epoch: 6800, Error: 0.011660599119877782
Epoch: 6900, Error: 0.01163563814832159
Epoch: 7000, Error: 0.011598301971339538
Epoch: 7100, Error: 0.011580402439570096
Epoch: 7200, Error: 0.011545514144354539
Epoch: 7300, Error: 0.011488869708046754
Epoch: 7400, Error: 0.011500396110957808
Epoch: 7500, Error: 0.01142856267408796
Epoch: 7600, Error: 0.011401274978272303
Epoch: 7700, Error: 0.011382924058621085
Epoch: 7800, Error: 0.011355221919240068
Epoch: 7900, Error: 0.011325881782956213
Epoch: 8000, Error: 0.011313007605182996
Epoch: 8100, Error: 0.011264912225523503
Epoch: 8200, Error: 0.011252883247215769
Epoch: 8300, Error: 0.011200749256042135
Epoch: 8400, Error: 0.011181391048341793
Epoch: 8500, Error: 0.011165053731388248
Epoch: 8600, Error: 0.011094719278195721
Epoch: 8700, Error: 0.011041362928332587
Epoch: 8800, Error: 0.011026507657000601
Epoch: 8900, Error: 0.011027728213896614
Epoch: 9000, Error: 0.010912420898091626
Epoch: 9100, Error: 0.010851658302010476
Epoch: 9200, Error: 0.010778181190714834
Epoch: 9300, Error: 0.010774671949615719
Epoch: 9400, Error: 0.010675923439102876
Epoch: 9500, Error: 0.010613749773341993
Epoch: 9600, Error: 0.010565727881762476
Epoch: 9700, Error: 0.010510211290461332
Epoch: 9800, Error: 0.010450349270657293
Epoch: 9900, Error: 0.010352585872152596
Epoch: 10000, Error: 0.010268913372765132
Epoch: 10100, Error: 0.010184889361285698
Epoch: 10200, Error: 0.010068073912231235
Epoch: 10300, Error: 0.010073738529328686
Epoch: 10400, Error: 0.009903428585636944
Epoch: 10500, Error: 0.00981478387473436
Epoch: 10600, Error: 0.009730825322494151
Epoch: 10700, Error: 0.009621066544264048
Epoch: 10800, Error: 0.009582055683310008
Epoch: 10900, Error: 0.009403524881516216
Epoch: 11000, Error: 0.009296412975911241
Epoch: 11100, Error: 0.00919030621056372
Epoch: 11200, Error: 0.009086195367916985
Epoch: 11300, Error: 0.00902296736718761
Epoch: 11400, Error: 0.008878327031889162
Epoch: 11500, Error: 0.00876982901520329
Epoch: 11600, Error: 0.008664770645256769
Epoch: 11700, Error: 0.008555103642219364
Epoch: 11800, Error: 0.008446899051365685
Epoch: 11900, Error: 0.008348012421630002
Epoch: 12000, Error: 0.00823698771913829
Epoch: 12100, Error: 0.008133354274690408
Epoch: 12200, Error: 0.008037957382939446
Epoch: 12300, Error: 0.008055166959999879
Epoch: 12400, Error: 0.007862469250196399
Epoch: 12500, Error: 0.0077930805055318126
Epoch: 12600, Error: 0.007702265523571384
Epoch: 12700, Error: 0.007607937225714645
Epoch: 12800, Error: 0.007533406338382483
Epoch: 12900, Error: 0.0074872880320991635
Epoch: 13000, Error: 0.007396998719837995
Epoch: 13100, Error: 0.0073438993946265164
Epoch: 13200, Error: 0.007260674389480122
Epoch: 13300, Error: 0.00719331999967782
Epoch: 13400, Error: 0.007144196469248929
Epoch: 13500, Error: 0.007090686531254051
Epoch: 13600, Error: 0.007019237036714109
Epoch: 13700, Error: 0.006956932756172325
Epoch: 13800, Error: 0.006905122207149825
Epoch: 13900, Error: 0.006850186906692331
Epoch: 14000, Error: 0.00679981688630506
Epoch: 14100, Error: 0.006750108802775489
Epoch: 14200, Error: 0.006714990811408761
Epoch: 14300, Error: 0.006663462088418332
Epoch: 14400, Error: 0.006608602206021468
Epoch: 14500, Error: 0.006605462364446864
Epoch: 14600, Error: 0.006539421416290498
Epoch: 14700, Error: 0.006495965021457295
Epoch: 14800, Error: 0.00646736194903537
Epoch: 14900, Error: 0.006461373492278503
Epoch: 15000, Error: 0.0064189223327402135
Epoch: 15100, Error: 0.006373888966749006
Epoch: 15200, Error: 0.006339957204141974
Epoch: 15300, Error: 0.006319548737204407
Epoch: 15400, Error: 0.0062951876527466135
Epoch: 15500, Error: 0.006235909636171316
Epoch: 15600, Error: 0.006192189344732171
Epoch: 15700, Error: 0.0061786968808129695
Epoch: 15800, Error: 0.0061729447007728535
Epoch: 15900, Error: 0.0061341461613031514
Epoch: 16000, Error: 0.006124946529009519
Epoch: 16100, Error: 0.006110991092637528
Epoch: 16200, Error: 0.006070904080925207
Epoch: 16300, Error: 0.006067682168894414
Epoch: 16400, Error: 0.0060429286011646445
Epoch: 16500, Error: 0.006008589106242991
Epoch: 16600, Error: 0.006023725451136841
Epoch: 16700, Error: 0.005959290053455763
Epoch: 16800, Error: 0.005935259902797344
Epoch: 16900, Error: 0.005922574594239761
Epoch: 17000, Error: 0.0059466300726318515
Epoch: 17100, Error: 0.005911866490473713
Epoch: 17200, Error: 0.005925564039096314
Epoch: 17300, Error: 0.0058702448041027646
Epoch: 17400, Error: 0.0058704945759036195
Epoch: 17500, Error: 0.005855542289310382
Epoch: 17600, Error: 0.005878019183046414
Epoch: 17700, Error: 0.005841810486213496
Epoch: 17800, Error: 0.005844120100856116
Epoch: 17900, Error: 0.005800043893646274
Epoch: 18000, Error: 0.005809397438280439
Epoch: 18100, Error: 0.005797257713816287
Epoch: 18200, Error: 0.0057540314870949206
Epoch: 18300, Error: 0.005714860844707809
Epoch: 18400, Error: 0.005700019332205926
Epoch: 18500, Error: 0.0057135321183351614
Epoch: 18600, Error: 0.005664867383107711
Epoch: 18700, Error: 0.005631218070959546
Epoch: 18800, Error: 0.005616353591732028
Epoch: 18900, Error: 0.005566480570311942
Epoch: 19000, Error: 0.005556360745941451
Epoch: 19100, Error: 0.005543547961337655
Epoch: 19200, Error: 0.005494730885310918
Epoch: 19300, Error: 0.005463232498729668
Epoch: 19400, Error: 0.005436716707978255
Epoch: 19500, Error: 0.005398946667103111
Epoch: 19600, Error: 0.005358581834249605
Epoch: 19700, Error: 0.0053302834126214916
Epoch: 19800, Error: 0.005301908870868361
Epoch: 19900, Error: 0.005273372680425812
Epoch: 20000, Error: 0.005263425618133315
Epoch: 20100, Error: 0.005244633186662721
Epoch: 20200, Error: 0.005268863370706533
Epoch: 20300, Error: 0.005206708640610575
Epoch: 20400, Error: 0.005184747889722551
Epoch: 20500, Error: 0.005172335750789678
Epoch: 20600, Error: 0.005208367124272988
Epoch: 20700, Error: 0.005162392322907464
Epoch: 20800, Error: 0.0051411103995453395
Epoch: 20900, Error: 0.005174342769030647
Epoch: 21000, Error: 0.005115533568283151
Epoch: 21100, Error: 0.0051401716633537025
Epoch: 21200, Error: 0.005098188893641724
Epoch: 21300, Error: 0.005084479161406598
Epoch: 21400, Error: 0.0050932992628568395
Epoch: 21500, Error: 0.0050763118770266406
Epoch: 21600, Error: 0.005062418957145277
Epoch: 21700, Error: 0.005029474092810012
Epoch: 21800, Error: 0.005008183016530987
Epoch: 21900, Error: 0.0050025730518307035
Epoch: 22000, Error: 0.004965705760188262
Epoch: 22100, Error: 0.0049551439569137995
Epoch: 22200, Error: 0.004922152890430336
Epoch: 22300, Error: 0.004916657791992637
Epoch: 22400, Error: 0.004884368638139603
Epoch: 22500, Error: 0.004861424484205888
Epoch: 22600, Error: 0.004839029170532799
Epoch: 22700, Error: 0.004816706699283273
Epoch: 22800, Error: 0.004790632400189196
Epoch: 22900, Error: 0.0047761704672341
Epoch: 23000, Error: 0.004757739732274623
Epoch: 23100, Error: 0.004744849811628032
Epoch: 23200, Error: 0.0047045636898842445
Epoch: 23300, Error: 0.004695700873043574
Epoch: 23400, Error: 0.00477251776358543
Epoch: 23500, Error: 0.004637422934518149
Epoch: 23600, Error: 0.004650729906624169
Epoch: 23700, Error: 0.004606622856168994
Epoch: 23800, Error: 0.004572948640617363
Epoch: 23900, Error: 0.00455959986437491
Epoch: 24000, Error: 0.004570644411258585
Epoch: 24100, Error: 0.0045360120528613965
Epoch: 24200, Error: 0.004499460340174635
Epoch: 24300, Error: 0.004482296426745417
Epoch: 24400, Error: 0.004454842791421497
Epoch: 24500, Error: 0.004487209750992817
Epoch: 24600, Error: 0.004445579739835723
Epoch: 24700, Error: 0.004373600913269522
Epoch: 24800, Error: 0.004368967128009438
Epoch: 24900, Error: 0.004323051049305754
Epoch: 25000, Error: 0.004305989176343949
Epoch: 25100, Error: 0.0043011949493068045
Epoch: 25200, Error: 0.004250975901666738
Epoch: 25300, Error: 0.00422980852112794
Epoch: 25400, Error: 0.004191269332246391
Epoch: 25500, Error: 0.0041706989599563935
Epoch: 25600, Error: 0.004136110770633512
Epoch: 25700, Error: 0.004109787151770112
Epoch: 25800, Error: 0.004081617258972054
Epoch: 25900, Error: 0.004095299270156921
Epoch: 26000, Error: 0.004046246981120941
Epoch: 26100, Error: 0.004037686921349671
Epoch: 26200, Error: 0.004016106438148555
Epoch: 26300, Error: 0.003949173698105591
Epoch: 26400, Error: 0.00393404509699239
Epoch: 26500, Error: 0.003933291935792848
Epoch: 26600, Error: 0.003972638510824867
Epoch: 26700, Error: 0.0038482350547738528
Epoch: 26800, Error: 0.003941602946225141
Epoch: 26900, Error: 0.0038017852928123215
Epoch: 27000, Error: 0.003787187652399401
Epoch: 27100, Error: 0.0038056682748903547
Epoch: 27200, Error: 0.0037374729844129
Epoch: 27300, Error: 0.003765028157379816
Epoch: 27400, Error: 0.003691120684060002
Epoch: 27500, Error: 0.003697586690939187
Epoch: 27600, Error: 0.003682141499235546
Epoch: 27700, Error: 0.0036555617351155516
Epoch: 27800, Error: 0.003633573192312671
Epoch: 27900, Error: 0.0035815599397276947
Epoch: 28000, Error: 0.00355012510167017
Epoch: 28100, Error: 0.0035291466717654327
Epoch: 28200, Error: 0.0035206910046088826
Epoch: 28300, Error: 0.0034851488306617768
Epoch: 28400, Error: 0.0034832925102067282
Epoch: 28500, Error: 0.0034932701511626316
Epoch: 28600, Error: 0.0034331634271599206
Epoch: 28700, Error: 0.003438262871729127
Epoch: 28800, Error: 0.0034288645147066833
Epoch: 28900, Error: 0.0033918928772159844
Epoch: 29000, Error: 0.0033465206783504313
Epoch: 29100, Error: 0.003348216660721422
Epoch: 29200, Error: 0.0033311744551859043
Epoch: 29300, Error: 0.0032879974077705335
Epoch: 29400, Error: 0.00324965025671378
Epoch: 29500, Error: 0.003249002839179215
Epoch: 29600, Error: 0.003323740734564156
Epoch: 29700, Error: 0.003186885957416897
Epoch: 29800, Error: 0.0031819915171441096
Epoch: 29900, Error: 0.0031484352052816404
Epoch: 30000, Error: 0.0031493235854287466
Epoch: 30100, Error: 0.00317985624000414
Epoch: 30200, Error: 0.003172100907840895
Epoch: 30300, Error: 0.0030545035135535834
Epoch: 30400, Error: 0.00311819025775332
Epoch: 30500, Error: 0.0030293290457273025
Epoch: 30600, Error: 0.0030266126704641336
Epoch: 30700, Error: 0.0029702049435584186
Epoch: 30800, Error: 0.0029614390788526585
Epoch: 30900, Error: 0.002962314469865709
Epoch: 31000, Error: 0.002896968243800071
Epoch: 31100, Error: 0.002968496725534425
Epoch: 31200, Error: 0.002848034750103811
Epoch: 31300, Error: 0.00289106875717391
Epoch: 31400, Error: 0.002819350030253424
Epoch: 31500, Error: 0.0027925415847250335
Epoch: 31600, Error: 0.0028240069502356653
Epoch: 31700, Error: 0.0027502249690892397
Epoch: 31800, Error: 0.0027601176730763237
Epoch: 31900, Error: 0.0027199867337930426
Epoch: 32000, Error: 0.0027050012482073274
Epoch: 32100, Error: 0.002685405941202519
Epoch: 32200, Error: 0.0026899869731284503
Epoch: 32300, Error: 0.0027050272971270977
Epoch: 32400, Error: 0.00261419506757401
Epoch: 32500, Error: 0.0026185802592498513
Epoch: 32600, Error: 0.002572949376108273
Epoch: 32700, Error: 0.002598417731938101
Epoch: 32800, Error: 0.0025352685749050574
Epoch: 32900, Error: 0.00252450740793997
Epoch: 33000, Error: 0.002526792270350144
Epoch: 33100, Error: 0.002634513777097554
Epoch: 33200, Error: 0.0024613168164170527
Epoch: 33300, Error: 0.0026090407348877483
Epoch: 33400, Error: 0.0024542648983943167
Epoch: 33500, Error: 0.002426875060814783
Epoch: 33600, Error: 0.002400639364283642
Epoch: 33700, Error: 0.0024633845077566465
Epoch: 33800, Error: 0.0023720744903154025
Epoch: 33900, Error: 0.0023483564515295132
Epoch: 34000, Error: 0.002332601703329436
Epoch: 34100, Error: 0.0023199462444704424
Epoch: 34200, Error: 0.0025935764805969184
Epoch: 34300, Error: 0.002443899954042924
Epoch: 34400, Error: 0.0023143421819961075
Epoch: 34500, Error: 0.0022851797199993098
Epoch: 34600, Error: 0.0022421195895870566
Epoch: 34700, Error: 0.0022230553327573146
Epoch: 34800, Error: 0.0022227806552827527
Epoch: 34900, Error: 0.0022700539538772387
Epoch: 35000, Error: 0.0022260930782513886
Epoch: 35100, Error: 0.0021735365349332637
Epoch: 35200, Error: 0.002162770093661304
Epoch: 35300, Error: 0.002199135294567907
Epoch: 35400, Error: 0.0021401168162804456
Epoch: 35500, Error: 0.0021178306258155207
Epoch: 35600, Error: 0.002150979797124019
Epoch: 35700, Error: 0.0021157228324231382
Epoch: 35800, Error: 0.0021358831135051895
Epoch: 35900, Error: 0.0020799251672488487
Epoch: 36000, Error: 0.002081742242088987
Epoch: 36100, Error: 0.00208454621058176
Epoch: 36200, Error: 0.002111526378766199
Epoch: 36300, Error: 0.002021299755419097
Epoch: 36400, Error: 0.002045938101656185
Epoch: 36500, Error: 0.0019980334122291863
Epoch: 36600, Error: 0.0019862631190933045
Epoch: 36700, Error: 0.002046493324933641
Epoch: 36800, Error: 0.002016625402870161
Epoch: 36900, Error: 0.0019648928309051266
Epoch: 37000, Error: 0.001978268371257823
Epoch: 37100, Error: 0.0020824901512690097
Epoch: 37200, Error: 0.0019480043719283253
Epoch: 37300, Error: 0.001954069366445985
Epoch: 37400, Error: 0.001900980039806535
Epoch: 37500, Error: 0.0019376823446991284
Epoch: 37600, Error: 0.0019264307889868837
Epoch: 37700, Error: 0.0019287000055180738
Epoch: 37800, Error: 0.001879118083499315
Epoch: 37900, Error: 0.0018660019816987231
Epoch: 38000, Error: 0.0018878767658194778
Epoch: 38100, Error: 0.0018335602178067454
Epoch: 38200, Error: 0.001831584475520803
Epoch: 38300, Error: 0.001823527478152706
Epoch: 38400, Error: 0.001801246399266187
Epoch: 38500, Error: 0.0018326150770879258
Epoch: 38600, Error: 0.0017828176609655003
Epoch: 38700, Error: 0.0017807053323438873
Epoch: 38800, Error: 0.0017640672010631915
Epoch: 38900, Error: 0.001814134917513974
Epoch: 39000, Error: 0.001745628230850051
Epoch: 39100, Error: 0.0017309433348582366
Epoch: 39200, Error: 0.0017202150424560137
Epoch: 39300, Error: 0.001761791709310623
Epoch: 39400, Error: 0.0017499551097026576
Epoch: 39500, Error: 0.001693778591583326
Epoch: 39600, Error: 0.001694071521264858
Epoch: 39700, Error: 0.0017042300152736887
Epoch: 39800, Error: 0.001686052004241146
Epoch: 39900, Error: 0.001656671456012652
Epoch: 40000, Error: 0.0016505057258804565
Epoch: 40100, Error: 0.0016543694306711174
Epoch: 40200, Error: 0.0016570314990300432
Epoch: 40300, Error: 0.0016282221684636457
Epoch: 40400, Error: 0.0016240937064468906
Epoch: 40500, Error: 0.0016291319367060496
Epoch: 40600, Error: 0.0016018498604888033
Epoch: 40700, Error: 0.0016005693472802343
Epoch: 40800, Error: 0.0016074526032025206
Epoch: 40900, Error: 0.001604186940750479
Epoch: 41000, Error: 0.0015659587830072052
Epoch: 41100, Error: 0.001575250524649907
Epoch: 41200, Error: 0.0015489166546210087
Epoch: 41300, Error: 0.0015740150798889373
Epoch: 41400, Error: 0.001538374594313491
Epoch: 41500, Error: 0.0015348589764652809
Epoch: 41600, Error: 0.001539504626855838
Epoch: 41700, Error: 0.0015394630121509526
Epoch: 41800, Error: 0.0015180910963016017
Epoch: 41900, Error: 0.0015159467800564392
Epoch: 42000, Error: 0.0015260591587993582
Epoch: 42100, Error: 0.0015002397100091166
Epoch: 42200, Error: 0.0014983953374478759
Epoch: 42300, Error: 0.001490471063828239
Epoch: 42400, Error: 0.0015002430494282432
Epoch: 42500, Error: 0.0014914660477396249
Epoch: 42600, Error: 0.0014990633473994707
Epoch: 42700, Error: 0.001490433259717898
Epoch: 42800, Error: 0.001482465390636897
Epoch: 42900, Error: 0.0014843630401398587
Epoch: 43000, Error: 0.0014737262648988312
Epoch: 43100, Error: 0.0014666421368510468
Epoch: 43200, Error: 0.001468427870095852
Epoch: 43300, Error: 0.0014603291899820208
Epoch: 43400, Error: 0.0014725591675669855
Epoch: 43500, Error: 0.0014579440195017553
Epoch: 43600, Error: 0.0014712418517595339
Epoch: 43700, Error: 0.0014650866862608255
Epoch: 43800, Error: 0.0014564552327352735
Epoch: 43900, Error: 0.0014674977869532267
Epoch: 44000, Error: 0.0014530541449701954
Epoch: 44100, Error: 0.0014558659687629117
Epoch: 44200, Error: 0.0016037575558427869
Epoch: 44300, Error: 0.001464787383471952
Epoch: 44400, Error: 0.0014672558429364188
Epoch: 44500, Error: 0.0014794946515729306
Epoch: 44600, Error: 0.0015536113548712423
Epoch: 44700, Error: 0.0014945260888092745
Epoch: 44800, Error: 0.0014892908475868001
Epoch: 44900, Error: 0.0014858170758036123
Epoch: 45000, Error: 0.0014842792272307852
Epoch: 45100, Error: 0.0014932231840479662
Epoch: 45200, Error: 0.0015064117712862463
Epoch: 45300, Error: 0.0015107489970096481
Epoch: 45400, Error: 0.0015041738513055796
Epoch: 45500, Error: 0.0014878171274945134
Finished
