Input Patterns
0.224 0.624 0.067 0.043 
0.11 0.502 0.051 0.043 
0.196 0.667 0.067 0.043 
0.055 0.584 0.067 0.082 
0.027 0.376 0.067 0.043 
0.306 0.71 0.086 0.043 
0.137 0.416 0.067 0.0 
0.416 0.831 0.035 0.043 
0.306 0.792 0.051 0.125 
0.388 0.749 0.118 0.082 
0.306 0.584 0.118 0.043 
0.082 0.667 0.0 0.043 
0.137 0.584 0.153 0.043 
0.196 0.584 0.102 0.125 
0.251 0.584 0.067 0.043 
0.137 0.459 0.102 0.043 
0.251 0.875 0.086 0.0 
0.165 0.459 0.086 0.043 
0.333 0.624 0.051 0.043 
0.027 0.416 0.051 0.043 
0.196 0.624 0.051 0.082 
0.027 0.502 0.051 0.043 
0.224 0.749 0.153 0.125 
0.224 0.749 0.102 0.043 
0.278 0.71 0.086 0.043 
0.165 0.416 0.067 0.043 
0.082 0.459 0.086 0.043 
0.306 0.792 0.118 0.125 
0.196 0.584 0.086 0.043 
0.165 0.459 0.086 0.0 
0.137 0.584 0.102 0.043 
0.0 0.416 0.016 0.0 
0.388 1.0 0.086 0.125 
0.224 0.624 0.067 0.082 
0.224 0.749 0.086 0.082 
0.224 0.71 0.086 0.125 
0.224 0.541 0.118 0.165 
0.196 0.416 0.102 0.043 
0.251 0.624 0.086 0.043 
0.11 0.502 0.102 0.043 
0.306 0.584 0.086 0.125 
0.333 0.918 0.067 0.043 
0.196 0.502 0.035 0.043 
0.165 0.667 0.067 0.0 
0.224 0.584 0.086 0.043 
0.055 0.125 0.051 0.082 
0.196 0.624 0.102 0.208 
0.137 0.416 0.067 0.082 
0.082 0.502 0.067 0.043 
0.196 0.541 0.067 0.043 
0.749 0.502 0.627 0.541 
0.722 0.459 0.663 0.584 
0.612 0.333 0.612 0.584 
0.557 0.541 0.627 0.624 
0.639 0.376 0.612 0.498 
0.196 0.0 0.424 0.376 
0.471 0.082 0.51 0.376 
0.361 0.376 0.439 0.498 
0.361 0.416 0.592 0.584 
0.529 0.082 0.592 0.584 
0.443 0.502 0.643 0.459 
0.557 0.208 0.663 0.584 
0.584 0.376 0.561 0.498 
0.694 0.333 0.643 0.541 
0.471 0.376 0.592 0.584 
0.333 0.169 0.475 0.416 
0.416 0.29 0.49 0.459 
0.306 0.416 0.592 0.584 
0.667 0.459 0.627 0.584 
0.361 0.416 0.525 0.498 
0.333 0.251 0.576 0.459 
0.416 0.251 0.51 0.459 
0.361 0.29 0.541 0.498 
0.388 0.376 0.541 0.498 
0.224 0.208 0.337 0.416 
0.584 0.502 0.592 0.584 
0.333 0.125 0.51 0.498 
0.388 0.333 0.592 0.498 
0.165 0.169 0.388 0.376 
0.251 0.29 0.49 0.541 
0.443 0.416 0.541 0.584 
0.498 0.376 0.627 0.541 
0.667 0.459 0.576 0.541 
0.416 0.29 0.525 0.376 
0.361 0.208 0.49 0.416 
0.498 0.333 0.51 0.498 
0.498 0.333 0.627 0.459 
0.639 0.416 0.576 0.541 
0.667 0.416 0.678 0.667 
0.388 0.251 0.424 0.376 
0.333 0.169 0.459 0.376 
0.471 0.29 0.694 0.624 
0.471 0.584 0.592 0.624 
0.557 0.125 0.576 0.498 
0.333 0.208 0.51 0.498 
0.498 0.416 0.612 0.541 
0.196 0.125 0.388 0.376 
0.388 0.416 0.541 0.459 
0.529 0.376 0.561 0.498 
0.388 0.333 0.525 0.498 
0.557 0.541 0.847 1.0 
0.776 0.416 0.831 0.831 
0.612 0.416 0.812 0.875 
0.165 0.208 0.592 0.667 
0.667 0.208 0.812 0.71 
0.612 0.502 0.694 0.792 
0.694 0.416 0.761 0.831 
0.416 0.333 0.694 0.957 
0.612 0.416 0.761 0.71 
0.945 0.251 1.0 0.918 
0.722 0.502 0.796 0.918 
0.945 0.333 0.965 0.792 
0.667 0.541 0.796 0.831 
0.529 0.333 0.643 0.71 
0.584 0.333 0.78 0.831 
0.863 0.333 0.863 0.749 
0.584 0.333 0.78 0.875 
0.498 0.251 0.78 0.541 
0.557 0.584 0.78 0.957 
0.471 0.416 0.643 0.71 
0.667 0.459 0.78 0.957 
0.416 0.29 0.694 0.749 
0.667 0.541 0.796 1.0 
0.557 0.208 0.678 0.749 
0.529 0.584 0.745 0.918 
0.416 0.29 0.694 0.749 
0.557 0.376 0.78 0.71 
0.918 0.416 0.949 0.831 
0.835 0.376 0.898 0.71 
0.804 0.667 0.863 1.0 
0.584 0.29 0.729 0.749 
0.388 0.208 0.678 0.792 
0.584 0.502 0.729 0.918 
0.945 0.749 0.965 0.875 
0.471 0.082 0.678 0.584 
0.361 0.333 0.663 0.792 
0.557 0.29 0.663 0.71 
0.804 0.502 0.847 0.71 
0.498 0.416 0.51 0.71 
0.804 0.416 0.812 0.624 
1.0 0.749 0.914 0.792 
0.557 0.333 0.694 0.584 
0.945 0.416 0.863 0.918 
0.584 0.459 0.761 0.71 
0.722 0.459 0.745 0.831 
0.722 0.459 0.694 0.918 
0.694 0.502 0.831 0.918 
0.667 0.416 0.714 0.918 
0.612 0.416 0.714 0.792 
0.443 0.416 0.694 0.71 
Teaching Patterns
1.0 0.0 0.0 
1.0 0.0 0.0 
1.0 0.0 0.0 
1.0 0.0 0.0 
1.0 0.0 0.0 
1.0 0.0 0.0 
1.0 0.0 0.0 
1.0 0.0 0.0 
1.0 0.0 0.0 
1.0 0.0 0.0 
1.0 0.0 0.0 
1.0 0.0 0.0 
1.0 0.0 0.0 
1.0 0.0 0.0 
1.0 0.0 0.0 
1.0 0.0 0.0 
1.0 0.0 0.0 
1.0 0.0 0.0 
1.0 0.0 0.0 
1.0 0.0 0.0 
1.0 0.0 0.0 
1.0 0.0 0.0 
1.0 0.0 0.0 
1.0 0.0 0.0 
1.0 0.0 0.0 
1.0 0.0 0.0 
1.0 0.0 0.0 
1.0 0.0 0.0 
1.0 0.0 0.0 
1.0 0.0 0.0 
1.0 0.0 0.0 
1.0 0.0 0.0 
1.0 0.0 0.0 
1.0 0.0 0.0 
1.0 0.0 0.0 
1.0 0.0 0.0 
1.0 0.0 0.0 
1.0 0.0 0.0 
1.0 0.0 0.0 
1.0 0.0 0.0 
1.0 0.0 0.0 
1.0 0.0 0.0 
1.0 0.0 0.0 
1.0 0.0 0.0 
1.0 0.0 0.0 
1.0 0.0 0.0 
1.0 0.0 0.0 
1.0 0.0 0.0 
1.0 0.0 0.0 
1.0 0.0 0.0 
0.0 1.0 0.0 
0.0 1.0 0.0 
0.0 1.0 0.0 
0.0 1.0 0.0 
0.0 1.0 0.0 
0.0 1.0 0.0 
0.0 1.0 0.0 
0.0 1.0 0.0 
0.0 1.0 0.0 
0.0 1.0 0.0 
0.0 1.0 0.0 
0.0 1.0 0.0 
0.0 1.0 0.0 
0.0 1.0 0.0 
0.0 1.0 0.0 
0.0 1.0 0.0 
0.0 1.0 0.0 
0.0 1.0 0.0 
0.0 1.0 0.0 
0.0 1.0 0.0 
0.0 1.0 0.0 
0.0 1.0 0.0 
0.0 1.0 0.0 
0.0 1.0 0.0 
0.0 1.0 0.0 
0.0 1.0 0.0 
0.0 1.0 0.0 
0.0 1.0 0.0 
0.0 1.0 0.0 
0.0 1.0 0.0 
0.0 1.0 0.0 
0.0 1.0 0.0 
0.0 1.0 0.0 
0.0 1.0 0.0 
0.0 1.0 0.0 
0.0 1.0 0.0 
0.0 1.0 0.0 
0.0 1.0 0.0 
0.0 1.0 0.0 
0.0 1.0 0.0 
0.0 1.0 0.0 
0.0 1.0 0.0 
0.0 1.0 0.0 
0.0 1.0 0.0 
0.0 1.0 0.0 
0.0 1.0 0.0 
0.0 1.0 0.0 
0.0 1.0 0.0 
0.0 1.0 0.0 
0.0 1.0 0.0 
0.0 0.0 1.0 
0.0 0.0 1.0 
0.0 0.0 1.0 
0.0 0.0 1.0 
0.0 0.0 1.0 
0.0 0.0 1.0 
0.0 0.0 1.0 
0.0 0.0 1.0 
0.0 0.0 1.0 
0.0 0.0 1.0 
0.0 0.0 1.0 
0.0 0.0 1.0 
0.0 0.0 1.0 
0.0 0.0 1.0 
0.0 0.0 1.0 
0.0 0.0 1.0 
0.0 0.0 1.0 
0.0 0.0 1.0 
0.0 0.0 1.0 
0.0 0.0 1.0 
0.0 0.0 1.0 
0.0 0.0 1.0 
0.0 0.0 1.0 
0.0 0.0 1.0 
0.0 0.0 1.0 
0.0 0.0 1.0 
0.0 0.0 1.0 
0.0 0.0 1.0 
0.0 0.0 1.0 
0.0 0.0 1.0 
0.0 0.0 1.0 
0.0 0.0 1.0 
0.0 0.0 1.0 
0.0 0.0 1.0 
0.0 0.0 1.0 
0.0 0.0 1.0 
0.0 0.0 1.0 
0.0 0.0 1.0 
0.0 0.0 1.0 
0.0 0.0 1.0 
0.0 0.0 1.0 
0.0 0.0 1.0 
0.0 0.0 1.0 
0.0 0.0 1.0 
0.0 0.0 1.0 
0.0 0.0 1.0 
0.0 0.0 1.0 
0.0 0.0 1.0 
0.0 0.0 1.0 
0.0 0.0 1.0 
Learning : 0.05
Momentum : 0.6000000238418579
Epoch: 100, Error: 0.060219007445760156
Epoch: 200, Error: 0.020947631457531268
Epoch: 300, Error: 0.016531152376743317
Epoch: 400, Error: 0.014853234899768869
Epoch: 500, Error: 0.014032443463277687
Epoch: 600, Error: 0.013973313539539244
Epoch: 700, Error: 0.013189183070094307
Epoch: 800, Error: 0.012909703715025412
Epoch: 900, Error: 0.012721739302539706
Epoch: 1000, Error: 0.01256816931129498
Epoch: 1100, Error: 0.012478559399109223
Epoch: 1200, Error: 0.012380709481359177
Epoch: 1300, Error: 0.012272841416385034
Epoch: 1400, Error: 0.01220897907865754
Epoch: 1500, Error: 0.012236826485097127
Epoch: 1600, Error: 0.012120076397937414
Epoch: 1700, Error: 0.012126878730225272
Epoch: 1800, Error: 0.012032185592755757
Epoch: 1900, Error: 0.01200843239733779
Epoch: 2000, Error: 0.012022714101578364
Epoch: 2100, Error: 0.011991285708488232
Epoch: 2200, Error: 0.012009470121932804
Epoch: 2300, Error: 0.012026521147240218
Epoch: 2400, Error: 0.012026600293799638
Epoch: 2500, Error: 0.012043397051028328
Epoch: 2600, Error: 0.012017467013079108
Epoch: 2700, Error: 0.011995340999483656
Epoch: 2800, Error: 0.012006630618830795
Epoch: 2900, Error: 0.012153842630713205
Epoch: 3000, Error: 0.012024281512953875
Epoch: 3100, Error: 0.011987349588610838
Epoch: 3200, Error: 0.01195951382884411
Epoch: 3300, Error: 0.011966994278974385
Epoch: 3400, Error: 0.01199582207807084
Epoch: 3500, Error: 0.012077198566603923
Epoch: 3600, Error: 0.01207350139879711
Epoch: 3700, Error: 0.01211459583389324
Epoch: 3800, Error: 0.01203795967348808
Epoch: 3900, Error: 0.011988074220172099
Epoch: 4000, Error: 0.011964924952214268
Epoch: 4100, Error: 0.011966549398852206
Epoch: 4200, Error: 0.012015836619047591
Epoch: 4300, Error: 0.011960541428420093
Epoch: 4400, Error: 0.012049987831783255
Epoch: 4500, Error: 0.011977105350801365
Epoch: 4600, Error: 0.011980016178031112
Epoch: 4700, Error: 0.011957951017777472
Epoch: 4800, Error: 0.011924369023067455
Epoch: 4900, Error: 0.011940763448813944
Epoch: 5000, Error: 0.012018901706991377
Epoch: 5100, Error: 0.011957511460623715
Epoch: 5200, Error: 0.011948429638202515
Epoch: 5300, Error: 0.011983765051976123
Epoch: 5400, Error: 0.01198915008232915
Epoch: 5500, Error: 0.01190924281045921
Epoch: 5600, Error: 0.011924880196267477
Epoch: 5700, Error: 0.012176687013593989
Epoch: 5800, Error: 0.011943948665948017
Epoch: 5900, Error: 0.01196223785942812
Epoch: 6000, Error: 0.012081279314377932
Epoch: 6100, Error: 0.011936502957712508
Epoch: 6200, Error: 0.01192864983724594
Epoch: 6300, Error: 0.011935480609133655
Epoch: 6400, Error: 0.011939754720688804
Epoch: 6500, Error: 0.012014613030487281
Epoch: 6600, Error: 0.011977730479121531
Epoch: 6700, Error: 0.011954063281864248
Epoch: 6800, Error: 0.011948152349759643
Epoch: 6900, Error: 0.011967542673331902
Epoch: 7000, Error: 0.011946751149925525
Epoch: 7100, Error: 0.011975819363384665
Epoch: 7200, Error: 0.011957421254031406
Epoch: 7300, Error: 0.011934593352965416
Epoch: 7400, Error: 0.01196823230737466
Epoch: 7500, Error: 0.011949880816419182
Epoch: 7600, Error: 0.011965507855223455
Epoch: 7700, Error: 0.011985558761116523
Epoch: 7800, Error: 0.011935089573141697
Epoch: 7900, Error: 0.011927358048631398
Epoch: 8000, Error: 0.011991701866290517
Epoch: 8100, Error: 0.012051318290396866
Epoch: 8200, Error: 0.011995443306875095
Epoch: 8300, Error: 0.011966243162758463
Epoch: 8400, Error: 0.011969747535128339
Epoch: 8500, Error: 0.011909201563315416
Epoch: 8600, Error: 0.011926020654719814
Epoch: 8700, Error: 0.011913114259108338
Epoch: 8800, Error: 0.012009317413583463
Epoch: 8900, Error: 0.011958427857584575
Epoch: 9000, Error: 0.012009620572815379
Epoch: 9100, Error: 0.012015476265557396
Epoch: 9200, Error: 0.01194844629092383
Epoch: 9300, Error: 0.011953709962850691
Epoch: 9400, Error: 0.011991505235426173
Epoch: 9500, Error: 0.01194108428126446
Epoch: 9600, Error: 0.011944715295192242
Epoch: 9700, Error: 0.011981666841018592
Epoch: 9800, Error: 0.011924323664206076
Epoch: 9900, Error: 0.01195252416872393
Epoch: 10000, Error: 0.011985729617368152
Epoch: 10100, Error: 0.011933262859026038
Epoch: 10200, Error: 0.011956349023392718
Epoch: 10300, Error: 0.011950952155295824
Epoch: 10400, Error: 0.01194465988841278
Epoch: 10500, Error: 0.011997949879800584
Epoch: 10600, Error: 0.011987152715372212
Epoch: 10700, Error: 0.011908429748640504
Epoch: 10800, Error: 0.01192523607464156
Epoch: 10900, Error: 0.011972930272296628
Epoch: 11000, Error: 0.01201100052863139
Epoch: 11100, Error: 0.012004654548981662
Epoch: 11200, Error: 0.01203343503976286
Epoch: 11300, Error: 0.01198690658492103
Epoch: 11400, Error: 0.011993150335890539
Epoch: 11500, Error: 0.011941427369890357
Epoch: 11600, Error: 0.011957364602621201
Epoch: 11700, Error: 0.011945143558977914
Epoch: 11800, Error: 0.011916596773032483
Epoch: 11900, Error: 0.011991278990987026
Epoch: 12000, Error: 0.011977852803006816
Epoch: 12100, Error: 0.011967852038824592
Epoch: 12200, Error: 0.011962866948823451
Epoch: 12300, Error: 0.011986267655887367
Epoch: 12400, Error: 0.012007065381918054
Epoch: 12500, Error: 0.012048568763154974
Epoch: 12600, Error: 0.01200057517548554
Epoch: 12700, Error: 0.011990234388983449
Epoch: 12800, Error: 0.011962163648167155
Epoch: 12900, Error: 0.01195215987197146
Epoch: 13000, Error: 0.011982616361475852
Epoch: 13100, Error: 0.011929743305157767
Epoch: 13200, Error: 0.011948239458809377
Epoch: 13300, Error: 0.011961108991331456
Epoch: 13400, Error: 0.011979380112273936
Epoch: 13500, Error: 0.011953311550848639
Epoch: 13600, Error: 0.012006213586440544
Epoch: 13700, Error: 0.012000622679973672
Epoch: 13800, Error: 0.011968528710063172
Epoch: 13900, Error: 0.011985615908382529
Epoch: 14000, Error: 0.012053311207285016
Epoch: 14100, Error: 0.012023253626249753
Epoch: 14200, Error: 0.011994460209080973
Epoch: 14300, Error: 0.012016058320044874
Epoch: 14400, Error: 0.012042012925194657
Epoch: 14500, Error: 0.012030676674759733
Epoch: 14600, Error: 0.012005010929776506
Epoch: 14700, Error: 0.01197729536031655
Epoch: 14800, Error: 0.012061364778517098
Epoch: 14900, Error: 0.011982518824613713
Epoch: 15000, Error: 0.01201636902949482
Epoch: 15100, Error: 0.01196303505397245
Epoch: 15200, Error: 0.011999600364106619
Epoch: 15300, Error: 0.01204935687892371
Epoch: 15400, Error: 0.012036754325810844
Epoch: 15500, Error: 0.012007286063177101
Epoch: 15600, Error: 0.01199252742542713
Epoch: 15700, Error: 0.012001992275120022
Epoch: 15800, Error: 0.012019628666236666
Epoch: 15900, Error: 0.01205712363726169
Epoch: 16000, Error: 0.012010981978952593
Epoch: 16100, Error: 0.01206934150767337
Epoch: 16200, Error: 0.012035231035290174
Epoch: 16300, Error: 0.012042914531954906
Epoch: 16400, Error: 0.012076641905857463
Epoch: 16500, Error: 0.012042320797181842
Epoch: 16600, Error: 0.012046833980965574
Epoch: 16700, Error: 0.011998156491574739
Epoch: 16800, Error: 0.011999023436342094
Epoch: 16900, Error: 0.012047885297291023
Epoch: 17000, Error: 0.012007690194670923
Epoch: 17100, Error: 0.012001399710988419
Epoch: 17200, Error: 0.011975225039194686
Epoch: 17300, Error: 0.01200833212087057
Epoch: 17400, Error: 0.012000348392864402
Epoch: 17500, Error: 0.012054111559149145
Epoch: 17600, Error: 0.012003378239355376
Epoch: 17700, Error: 0.01197360110444242
Epoch: 17800, Error: 0.012020065171816505
Epoch: 17900, Error: 0.012035520263957069
Epoch: 18000, Error: 0.011999558058385183
Epoch: 18100, Error: 0.012026672131255248
Epoch: 18200, Error: 0.012000619462226332
Epoch: 18300, Error: 0.011967471822535023
Epoch: 18400, Error: 0.011962080185294544
Epoch: 18500, Error: 0.011943423362099193
Epoch: 18600, Error: 0.011919520207132125
Epoch: 18700, Error: 0.011899144974153232
Epoch: 18800, Error: 0.01187010067599469
Epoch: 18900, Error: 0.011806049153101031
Epoch: 19000, Error: 0.011781588051741839
Epoch: 19100, Error: 0.011818468979081329
Epoch: 19200, Error: 0.011748340300682834
Epoch: 19300, Error: 0.01175318080044406
Epoch: 19400, Error: 0.011751940748122578
Epoch: 19500, Error: 0.011656935578305787
Epoch: 19600, Error: 0.011687103014018744
Epoch: 19700, Error: 0.011677991158629598
Epoch: 19800, Error: 0.01170262048958101
Epoch: 19900, Error: 0.01164178473247771
Epoch: 20000, Error: 0.011619796592274157
Epoch: 20100, Error: 0.011624251428721278
Epoch: 20200, Error: 0.011639196607560921
Epoch: 20300, Error: 0.011650954856910584
Epoch: 20400, Error: 0.011558962232958322
Epoch: 20500, Error: 0.011548644722984372
Epoch: 20600, Error: 0.01153549922732145
Epoch: 20700, Error: 0.011473147967091766
Epoch: 20800, Error: 0.011488308189967737
Epoch: 20900, Error: 0.011466015564345131
Epoch: 21000, Error: 0.011450069099935659
Epoch: 21100, Error: 0.011402603604314731
Epoch: 21200, Error: 0.011335309393067882
Epoch: 21300, Error: 0.011314386329175724
Epoch: 21400, Error: 0.011297655583110711
Epoch: 21500, Error: 0.011236561350182084
Epoch: 21600, Error: 0.011217014208494535
Epoch: 21700, Error: 0.011134867682752032
Epoch: 21800, Error: 0.01111532012614922
Epoch: 21900, Error: 0.011126916217161515
Epoch: 22000, Error: 0.011136345144690406
Epoch: 22100, Error: 0.011104583767260479
Epoch: 22200, Error: 0.011104351720463255
Epoch: 22300, Error: 0.011097798643532062
Epoch: 22400, Error: 0.01105878488917342
Epoch: 22500, Error: 0.011054385657074851
Epoch: 22600, Error: 0.011084843154739248
Epoch: 22700, Error: 0.01104250409743886
Epoch: 22800, Error: 0.011004930491781004
Epoch: 22900, Error: 0.010959851407434468
Epoch: 23000, Error: 0.010921389675201548
Epoch: 23100, Error: 0.010856402491497694
Epoch: 23200, Error: 0.010820345809257342
Epoch: 23300, Error: 0.010790996370016166
Epoch: 23400, Error: 0.01075920335177578
Epoch: 23500, Error: 0.010709739867981993
Epoch: 23600, Error: 0.010651034414618636
Epoch: 23700, Error: 0.010563148943841033
Epoch: 23800, Error: 0.010557984575248163
Epoch: 23900, Error: 0.01048360660925329
Epoch: 24000, Error: 0.010472334749197322
Epoch: 24100, Error: 0.010381699042190459
Epoch: 24200, Error: 0.010328934868502814
Epoch: 24300, Error: 0.010279119939200991
Epoch: 24400, Error: 0.010206507507997693
Epoch: 24500, Error: 0.010187712444670288
Epoch: 24600, Error: 0.010166723392490843
Epoch: 24700, Error: 0.01007218761212357
Epoch: 24800, Error: 0.010024349881706104
Epoch: 24900, Error: 0.009988704397522887
Epoch: 25000, Error: 0.009925632639427287
Epoch: 25100, Error: 0.009837386393829787
Epoch: 25200, Error: 0.009799299308701997
Epoch: 25300, Error: 0.009740686424034462
Epoch: 25400, Error: 0.009657677014757745
Epoch: 25500, Error: 0.009603340051225713
Epoch: 25600, Error: 0.009551719972466932
Epoch: 25700, Error: 0.009485054493048196
Epoch: 25800, Error: 0.009426620427792737
Epoch: 25900, Error: 0.009359968894450973
Epoch: 26000, Error: 0.00928129270474748
Epoch: 26100, Error: 0.009211926605589086
Epoch: 26200, Error: 0.009154281000616335
Epoch: 26300, Error: 0.009071451147982976
Epoch: 26400, Error: 0.00901225354810965
Epoch: 26500, Error: 0.008944368519238277
Epoch: 26600, Error: 0.008851129632137756
Epoch: 26700, Error: 0.008772685554226797
Epoch: 26800, Error: 0.008720957330790832
Epoch: 26900, Error: 0.008687769314964101
Epoch: 27000, Error: 0.008690309838738629
Epoch: 27100, Error: 0.008621207149053992
Epoch: 27200, Error: 0.008575526379500731
Epoch: 27300, Error: 0.008575767248721477
Epoch: 27400, Error: 0.008496182966839814
Epoch: 27500, Error: 0.00851708038329499
Epoch: 27600, Error: 0.008442714504361397
Epoch: 27700, Error: 0.00840039010603959
Epoch: 27800, Error: 0.008375165369479904
Epoch: 27900, Error: 0.008344955374534325
Epoch: 28000, Error: 0.008347185578889523
Epoch: 28100, Error: 0.008325811039496863
Epoch: 28200, Error: 0.008325383960825073
Epoch: 28300, Error: 0.008306812957835832
Epoch: 28400, Error: 0.00831807278648014
Epoch: 28500, Error: 0.008320101136383496
Epoch: 28600, Error: 0.008320501291025208
Epoch: 28700, Error: 0.008318351235885072
Finished
