Input Patterns
0.224 0.624 0.067 0.043 
0.11 0.502 0.051 0.043 
0.196 0.667 0.067 0.043 
0.055 0.584 0.067 0.082 
0.027 0.376 0.067 0.043 
0.306 0.71 0.086 0.043 
0.137 0.416 0.067 0.0 
0.416 0.831 0.035 0.043 
0.306 0.792 0.051 0.125 
0.388 0.749 0.118 0.082 
0.306 0.584 0.118 0.043 
0.082 0.667 0.0 0.043 
0.137 0.584 0.153 0.043 
0.196 0.584 0.102 0.125 
0.251 0.584 0.067 0.043 
0.137 0.459 0.102 0.043 
0.251 0.875 0.086 0.0 
0.165 0.459 0.086 0.043 
0.333 0.624 0.051 0.043 
0.027 0.416 0.051 0.043 
0.196 0.624 0.051 0.082 
0.027 0.502 0.051 0.043 
0.224 0.749 0.153 0.125 
0.224 0.749 0.102 0.043 
0.278 0.71 0.086 0.043 
0.165 0.416 0.067 0.043 
0.082 0.459 0.086 0.043 
0.306 0.792 0.118 0.125 
0.196 0.584 0.086 0.043 
0.165 0.459 0.086 0.0 
0.137 0.584 0.102 0.043 
0.0 0.416 0.016 0.0 
0.388 1.0 0.086 0.125 
0.224 0.624 0.067 0.082 
0.224 0.749 0.086 0.082 
0.224 0.71 0.086 0.125 
0.224 0.541 0.118 0.165 
0.196 0.416 0.102 0.043 
0.251 0.624 0.086 0.043 
0.11 0.502 0.102 0.043 
0.306 0.584 0.086 0.125 
0.333 0.918 0.067 0.043 
0.196 0.502 0.035 0.043 
0.165 0.667 0.067 0.0 
0.224 0.584 0.086 0.043 
0.055 0.125 0.051 0.082 
0.196 0.624 0.102 0.208 
0.137 0.416 0.067 0.082 
0.082 0.502 0.067 0.043 
0.196 0.541 0.067 0.043 
0.749 0.502 0.627 0.541 
0.722 0.459 0.663 0.584 
0.612 0.333 0.612 0.584 
0.557 0.541 0.627 0.624 
0.639 0.376 0.612 0.498 
0.196 0.0 0.424 0.376 
0.471 0.082 0.51 0.376 
0.361 0.376 0.439 0.498 
0.361 0.416 0.592 0.584 
0.529 0.082 0.592 0.584 
0.443 0.502 0.643 0.459 
0.557 0.208 0.663 0.584 
0.584 0.376 0.561 0.498 
0.694 0.333 0.643 0.541 
0.471 0.376 0.592 0.584 
0.333 0.169 0.475 0.416 
0.416 0.29 0.49 0.459 
0.306 0.416 0.592 0.584 
0.667 0.459 0.627 0.584 
0.361 0.416 0.525 0.498 
0.333 0.251 0.576 0.459 
0.416 0.251 0.51 0.459 
0.361 0.29 0.541 0.498 
0.388 0.376 0.541 0.498 
0.224 0.208 0.337 0.416 
0.584 0.502 0.592 0.584 
0.333 0.125 0.51 0.498 
0.388 0.333 0.592 0.498 
0.165 0.169 0.388 0.376 
0.251 0.29 0.49 0.541 
0.443 0.416 0.541 0.584 
0.498 0.376 0.627 0.541 
0.667 0.459 0.576 0.541 
0.416 0.29 0.525 0.376 
0.361 0.208 0.49 0.416 
0.498 0.333 0.51 0.498 
0.498 0.333 0.627 0.459 
0.639 0.416 0.576 0.541 
0.667 0.416 0.678 0.667 
0.388 0.251 0.424 0.376 
0.333 0.169 0.459 0.376 
0.471 0.29 0.694 0.624 
0.471 0.584 0.592 0.624 
0.557 0.125 0.576 0.498 
0.333 0.208 0.51 0.498 
0.498 0.416 0.612 0.541 
0.196 0.125 0.388 0.376 
0.388 0.416 0.541 0.459 
0.529 0.376 0.561 0.498 
0.388 0.333 0.525 0.498 
0.557 0.541 0.847 1.0 
0.776 0.416 0.831 0.831 
0.612 0.416 0.812 0.875 
0.165 0.208 0.592 0.667 
0.667 0.208 0.812 0.71 
0.612 0.502 0.694 0.792 
0.694 0.416 0.761 0.831 
0.416 0.333 0.694 0.957 
0.612 0.416 0.761 0.71 
0.945 0.251 1.0 0.918 
0.722 0.502 0.796 0.918 
0.945 0.333 0.965 0.792 
0.667 0.541 0.796 0.831 
0.529 0.333 0.643 0.71 
0.584 0.333 0.78 0.831 
0.863 0.333 0.863 0.749 
0.584 0.333 0.78 0.875 
0.498 0.251 0.78 0.541 
0.557 0.584 0.78 0.957 
0.471 0.416 0.643 0.71 
0.667 0.459 0.78 0.957 
0.416 0.29 0.694 0.749 
0.667 0.541 0.796 1.0 
0.557 0.208 0.678 0.749 
0.529 0.584 0.745 0.918 
0.416 0.29 0.694 0.749 
0.557 0.376 0.78 0.71 
0.918 0.416 0.949 0.831 
0.835 0.376 0.898 0.71 
0.804 0.667 0.863 1.0 
0.584 0.29 0.729 0.749 
0.388 0.208 0.678 0.792 
0.584 0.502 0.729 0.918 
0.945 0.749 0.965 0.875 
0.471 0.082 0.678 0.584 
0.361 0.333 0.663 0.792 
0.557 0.29 0.663 0.71 
0.804 0.502 0.847 0.71 
0.498 0.416 0.51 0.71 
0.804 0.416 0.812 0.624 
1.0 0.749 0.914 0.792 
0.557 0.333 0.694 0.584 
0.945 0.416 0.863 0.918 
0.584 0.459 0.761 0.71 
0.722 0.459 0.745 0.831 
0.722 0.459 0.694 0.918 
0.694 0.502 0.831 0.918 
0.667 0.416 0.714 0.918 
0.612 0.416 0.714 0.792 
0.443 0.416 0.694 0.71 
Teaching Patterns
1.0 0.0 0.0 
1.0 0.0 0.0 
1.0 0.0 0.0 
1.0 0.0 0.0 
1.0 0.0 0.0 
1.0 0.0 0.0 
1.0 0.0 0.0 
1.0 0.0 0.0 
1.0 0.0 0.0 
1.0 0.0 0.0 
1.0 0.0 0.0 
1.0 0.0 0.0 
1.0 0.0 0.0 
1.0 0.0 0.0 
1.0 0.0 0.0 
1.0 0.0 0.0 
1.0 0.0 0.0 
1.0 0.0 0.0 
1.0 0.0 0.0 
1.0 0.0 0.0 
1.0 0.0 0.0 
1.0 0.0 0.0 
1.0 0.0 0.0 
1.0 0.0 0.0 
1.0 0.0 0.0 
1.0 0.0 0.0 
1.0 0.0 0.0 
1.0 0.0 0.0 
1.0 0.0 0.0 
1.0 0.0 0.0 
1.0 0.0 0.0 
1.0 0.0 0.0 
1.0 0.0 0.0 
1.0 0.0 0.0 
1.0 0.0 0.0 
1.0 0.0 0.0 
1.0 0.0 0.0 
1.0 0.0 0.0 
1.0 0.0 0.0 
1.0 0.0 0.0 
1.0 0.0 0.0 
1.0 0.0 0.0 
1.0 0.0 0.0 
1.0 0.0 0.0 
1.0 0.0 0.0 
1.0 0.0 0.0 
1.0 0.0 0.0 
1.0 0.0 0.0 
1.0 0.0 0.0 
1.0 0.0 0.0 
0.0 1.0 0.0 
0.0 1.0 0.0 
0.0 1.0 0.0 
0.0 1.0 0.0 
0.0 1.0 0.0 
0.0 1.0 0.0 
0.0 1.0 0.0 
0.0 1.0 0.0 
0.0 1.0 0.0 
0.0 1.0 0.0 
0.0 1.0 0.0 
0.0 1.0 0.0 
0.0 1.0 0.0 
0.0 1.0 0.0 
0.0 1.0 0.0 
0.0 1.0 0.0 
0.0 1.0 0.0 
0.0 1.0 0.0 
0.0 1.0 0.0 
0.0 1.0 0.0 
0.0 1.0 0.0 
0.0 1.0 0.0 
0.0 1.0 0.0 
0.0 1.0 0.0 
0.0 1.0 0.0 
0.0 1.0 0.0 
0.0 1.0 0.0 
0.0 1.0 0.0 
0.0 1.0 0.0 
0.0 1.0 0.0 
0.0 1.0 0.0 
0.0 1.0 0.0 
0.0 1.0 0.0 
0.0 1.0 0.0 
0.0 1.0 0.0 
0.0 1.0 0.0 
0.0 1.0 0.0 
0.0 1.0 0.0 
0.0 1.0 0.0 
0.0 1.0 0.0 
0.0 1.0 0.0 
0.0 1.0 0.0 
0.0 1.0 0.0 
0.0 1.0 0.0 
0.0 1.0 0.0 
0.0 1.0 0.0 
0.0 1.0 0.0 
0.0 1.0 0.0 
0.0 1.0 0.0 
0.0 1.0 0.0 
0.0 0.0 1.0 
0.0 0.0 1.0 
0.0 0.0 1.0 
0.0 0.0 1.0 
0.0 0.0 1.0 
0.0 0.0 1.0 
0.0 0.0 1.0 
0.0 0.0 1.0 
0.0 0.0 1.0 
0.0 0.0 1.0 
0.0 0.0 1.0 
0.0 0.0 1.0 
0.0 0.0 1.0 
0.0 0.0 1.0 
0.0 0.0 1.0 
0.0 0.0 1.0 
0.0 0.0 1.0 
0.0 0.0 1.0 
0.0 0.0 1.0 
0.0 0.0 1.0 
0.0 0.0 1.0 
0.0 0.0 1.0 
0.0 0.0 1.0 
0.0 0.0 1.0 
0.0 0.0 1.0 
0.0 0.0 1.0 
0.0 0.0 1.0 
0.0 0.0 1.0 
0.0 0.0 1.0 
0.0 0.0 1.0 
0.0 0.0 1.0 
0.0 0.0 1.0 
0.0 0.0 1.0 
0.0 0.0 1.0 
0.0 0.0 1.0 
0.0 0.0 1.0 
0.0 0.0 1.0 
0.0 0.0 1.0 
0.0 0.0 1.0 
0.0 0.0 1.0 
0.0 0.0 1.0 
0.0 0.0 1.0 
0.0 0.0 1.0 
0.0 0.0 1.0 
0.0 0.0 1.0 
0.0 0.0 1.0 
0.0 0.0 1.0 
0.0 0.0 1.0 
0.0 0.0 1.0 
0.0 0.0 1.0 
Learning : 0.05
Momentum : 0.6000000238418579
Epoch: 100, Error: 0.04890588747775149
Epoch: 200, Error: 0.020229468662817607
Epoch: 300, Error: 0.016565762095599422
Epoch: 400, Error: 0.01471097843689811
Epoch: 500, Error: 0.013991809525288206
Epoch: 600, Error: 0.013395047547385871
Epoch: 700, Error: 0.012986442983602036
Epoch: 800, Error: 0.012716780511759077
Epoch: 900, Error: 0.012903048361875332
Epoch: 1000, Error: 0.012512515875523688
Epoch: 1100, Error: 0.012407164017177903
Epoch: 1200, Error: 0.012336365604635177
Epoch: 1300, Error: 0.012225944488635157
Epoch: 1400, Error: 0.012227213766339009
Epoch: 1500, Error: 0.012174215042092392
Epoch: 1600, Error: 0.01219392837620351
Epoch: 1700, Error: 0.012133806204273812
Epoch: 1800, Error: 0.012079708965243406
Epoch: 1900, Error: 0.012090056172057282
Epoch: 2000, Error: 0.012099961355458065
Epoch: 2100, Error: 0.012094550133274236
Epoch: 2200, Error: 0.012148505698503986
Epoch: 2300, Error: 0.01207763015814684
Epoch: 2400, Error: 0.01208554596102998
Epoch: 2500, Error: 0.01204918335774507
Epoch: 2600, Error: 0.0120873889308583
Epoch: 2700, Error: 0.012052411637698357
Epoch: 2800, Error: 0.012125481251140673
Epoch: 2900, Error: 0.012078014389129955
Epoch: 3000, Error: 0.012021665442895686
Epoch: 3100, Error: 0.012002915517389476
Epoch: 3200, Error: 0.012074620485871846
Epoch: 3300, Error: 0.012059054704618256
Epoch: 3400, Error: 0.012045258473432026
Epoch: 3500, Error: 0.012018594561417868
Epoch: 3600, Error: 0.012016359797267635
Epoch: 3700, Error: 0.012079930022798337
Epoch: 3800, Error: 0.012009133168234107
Epoch: 3900, Error: 0.012022076678687045
Epoch: 4000, Error: 0.01198208050827353
Epoch: 4100, Error: 0.011989258576829042
Epoch: 4200, Error: 0.012006123731689874
Epoch: 4300, Error: 0.012053515782849055
Epoch: 4400, Error: 0.01204033752179562
Epoch: 4500, Error: 0.011956870105706677
Epoch: 4600, Error: 0.012051772842083005
Epoch: 4700, Error: 0.012010825631244997
Epoch: 4800, Error: 0.011976203728649257
Epoch: 4900, Error: 0.011966665314498644
Epoch: 5000, Error: 0.011984248504698435
Epoch: 5100, Error: 0.011984949251795595
Epoch: 5200, Error: 0.011965650219375332
Epoch: 5300, Error: 0.012037767176921
Epoch: 5400, Error: 0.01201017539453531
Epoch: 5500, Error: 0.01199080245207777
Epoch: 5600, Error: 0.011998625307258847
Epoch: 5700, Error: 0.011981758883128484
Epoch: 5800, Error: 0.012087892423293783
Epoch: 5900, Error: 0.011958432556780167
Epoch: 6000, Error: 0.011961999069999136
Epoch: 6100, Error: 0.011968516444421835
Epoch: 6200, Error: 0.011976736540658213
Epoch: 6300, Error: 0.011910941550565666
Epoch: 6400, Error: 0.011894399353744305
Epoch: 6500, Error: 0.011895672760199916
Epoch: 6600, Error: 0.011881686390041321
Epoch: 6700, Error: 0.01187248061463379
Epoch: 6800, Error: 0.011839243479702896
Epoch: 6900, Error: 0.011839283183750835
Epoch: 7000, Error: 0.01184649831742248
Epoch: 7100, Error: 0.011854635628593011
Epoch: 7200, Error: 0.011863469280756865
Epoch: 7300, Error: 0.011845093743678597
Epoch: 7400, Error: 0.011797110903359949
Epoch: 7500, Error: 0.011783659497384155
Epoch: 7600, Error: 0.011770906893377212
Epoch: 7700, Error: 0.011777839291999558
Epoch: 7800, Error: 0.011782586161234824
Epoch: 7900, Error: 0.011729877908710518
Epoch: 8000, Error: 0.0117672873101838
Epoch: 8100, Error: 0.011689630181963916
Epoch: 8200, Error: 0.011712860585406997
Epoch: 8300, Error: 0.011681047194410056
Epoch: 8400, Error: 0.01162989770075534
Epoch: 8500, Error: 0.011605770888269216
Epoch: 8600, Error: 0.011579493644996526
Epoch: 8700, Error: 0.011581662120453438
Epoch: 8800, Error: 0.011535080567502479
Epoch: 8900, Error: 0.011501574234197596
Epoch: 9000, Error: 0.011490152848368202
Epoch: 9100, Error: 0.011515611859994852
Epoch: 9200, Error: 0.011559226303291266
Epoch: 9300, Error: 0.011479191490352994
Epoch: 9400, Error: 0.01151186127733849
Epoch: 9500, Error: 0.01139883234491458
Epoch: 9600, Error: 0.011343945097456367
Epoch: 9700, Error: 0.011325077248215425
Epoch: 9800, Error: 0.011298461372108638
Epoch: 9900, Error: 0.011279248415584642
Epoch: 10000, Error: 0.011246208913108253
Epoch: 10100, Error: 0.01120520768513224
Epoch: 10200, Error: 0.011140225592792437
Epoch: 10300, Error: 0.011093059949868332
Epoch: 10400, Error: 0.011052421013265427
Epoch: 10500, Error: 0.011052886308277752
Epoch: 10600, Error: 0.010978807863909954
Epoch: 10700, Error: 0.010919985142716419
Epoch: 10800, Error: 0.010868968904239697
Epoch: 10900, Error: 0.010821163830633355
Epoch: 11000, Error: 0.010767318849338145
Epoch: 11100, Error: 0.010748923459688597
Epoch: 11200, Error: 0.010676866801827794
Epoch: 11300, Error: 0.010655214416176667
Epoch: 11400, Error: 0.010568755152004203
Epoch: 11500, Error: 0.010519967504027034
Epoch: 11600, Error: 0.010471181062323838
Epoch: 11700, Error: 0.010424744845087184
Epoch: 11800, Error: 0.010358122244175878
Epoch: 11900, Error: 0.010304034683558295
Epoch: 12000, Error: 0.010267494588085015
Epoch: 12100, Error: 0.010175154525676232
Epoch: 12200, Error: 0.010182950048552077
Epoch: 12300, Error: 0.010063863364121914
Epoch: 12400, Error: 0.010019208275770713
Epoch: 12500, Error: 0.009986618156169969
Epoch: 12600, Error: 0.009879352302082686
Epoch: 12700, Error: 0.009786083845898439
Epoch: 12800, Error: 0.009705931979738729
Epoch: 12900, Error: 0.009635278115544498
Epoch: 13000, Error: 0.009551780320170239
Epoch: 13100, Error: 0.00947560379415228
Epoch: 13200, Error: 0.009377546782921478
Epoch: 13300, Error: 0.00929269944252231
Epoch: 13400, Error: 0.0092033941537946
Epoch: 13500, Error: 0.009100623997429972
Epoch: 13600, Error: 0.009013750704466554
Epoch: 13700, Error: 0.008896310541370644
Epoch: 13800, Error: 0.008789533887256897
Epoch: 13900, Error: 0.008668147066586224
Epoch: 14000, Error: 0.00858600213020644
Epoch: 14100, Error: 0.008466460782519504
Epoch: 14200, Error: 0.008405438942180408
Epoch: 14300, Error: 0.008259846884956267
Epoch: 14400, Error: 0.008140646122389237
Epoch: 14500, Error: 0.008041305684062567
Epoch: 14600, Error: 0.007960091189174555
Epoch: 14700, Error: 0.007840437281822453
Epoch: 14800, Error: 0.007837278476403399
Epoch: 14900, Error: 0.0077070633471600855
Epoch: 15000, Error: 0.007554920371828519
Epoch: 15100, Error: 0.007444590942665568
Epoch: 15200, Error: 0.007383533368416923
Epoch: 15300, Error: 0.007275011241456046
Epoch: 15400, Error: 0.007172750325502932
Epoch: 15500, Error: 0.007145466699218005
Epoch: 15600, Error: 0.007041350576306269
Epoch: 15700, Error: 0.0069793364514628906
Epoch: 15800, Error: 0.006894177129273246
Epoch: 15900, Error: 0.006808171456258458
Epoch: 16000, Error: 0.00672747856815485
Epoch: 16100, Error: 0.00668252538055516
Epoch: 16200, Error: 0.006584062272153365
Epoch: 16300, Error: 0.006540724458276816
Epoch: 16400, Error: 0.0064605615579165655
Epoch: 16500, Error: 0.0064075726257605695
Epoch: 16600, Error: 0.0063609946841603655
Epoch: 16700, Error: 0.0063041002817000365
Epoch: 16800, Error: 0.0062976758650809695
Epoch: 16900, Error: 0.0062095427367148265
Epoch: 17000, Error: 0.006164881001857396
Epoch: 17100, Error: 0.006116584201065938
Epoch: 17200, Error: 0.006079862197259002
Epoch: 17300, Error: 0.006034540592355124
Epoch: 17400, Error: 0.006004950865052881
Epoch: 17500, Error: 0.005966550839372105
Epoch: 17600, Error: 0.005951419911033706
Epoch: 17700, Error: 0.005891036840058898
Epoch: 17800, Error: 0.005868190669181212
Epoch: 17900, Error: 0.005844468809488157
Epoch: 18000, Error: 0.005806595799180445
Epoch: 18100, Error: 0.005846311985922107
Epoch: 18200, Error: 0.005791483486880213
Epoch: 18300, Error: 0.005765792276077265
Epoch: 18400, Error: 0.005755536411208128
Epoch: 18500, Error: 0.0056910356652070055
Epoch: 18600, Error: 0.005692551100841312
Epoch: 18700, Error: 0.0056447881191354935
Epoch: 18800, Error: 0.005622181185715956
Epoch: 18900, Error: 0.005600750762658105
Epoch: 19000, Error: 0.005577571108464153
Epoch: 19100, Error: 0.005560113114247291
Epoch: 19200, Error: 0.00553903344830153
Epoch: 19300, Error: 0.005517726616817376
Epoch: 19400, Error: 0.0054907751413897565
Epoch: 19500, Error: 0.005467154048813336
Epoch: 19600, Error: 0.005445499407732199
Epoch: 19700, Error: 0.00541833239964953
Epoch: 19800, Error: 0.005403731551271263
Epoch: 19900, Error: 0.005387528410220379
Epoch: 20000, Error: 0.005365991828632305
Epoch: 20100, Error: 0.005347679191321835
Epoch: 20200, Error: 0.005316265903686674
Epoch: 20300, Error: 0.005293431863276617
Epoch: 20400, Error: 0.005291200865562043
Epoch: 20500, Error: 0.005330189283108986
Epoch: 20600, Error: 0.0052449688689351565
Epoch: 20700, Error: 0.005218024300418504
Epoch: 20800, Error: 0.005243130749851105
Epoch: 20900, Error: 0.005172934020468038
Epoch: 21000, Error: 0.005193701083182909
Epoch: 21100, Error: 0.005134557651835143
Epoch: 21200, Error: 0.005110064398285213
Epoch: 21300, Error: 0.005101215923564994
Epoch: 21400, Error: 0.005082152157680259
Epoch: 21500, Error: 0.0050764771021579395
Epoch: 21600, Error: 0.005053466849076654
Epoch: 21700, Error: 0.005012511737368571
Epoch: 21800, Error: 0.0049990630360022366
Epoch: 21900, Error: 0.004989766362191888
Epoch: 22000, Error: 0.005089343617981996
Epoch: 22100, Error: 0.004955095937127448
Epoch: 22200, Error: 0.004983481950440537
Epoch: 22300, Error: 0.004897922049167604
Epoch: 22400, Error: 0.004903066888339627
Epoch: 22500, Error: 0.004866560831395868
Epoch: 22600, Error: 0.00487854124522599
Epoch: 22700, Error: 0.004829806361532373
Epoch: 22800, Error: 0.004831617949975743
Epoch: 22900, Error: 0.004792758391419395
Epoch: 23000, Error: 0.004780936191444861
Epoch: 23100, Error: 0.004736243482644395
Epoch: 23200, Error: 0.004717662673137398
Epoch: 23300, Error: 0.0047020487602554145
Epoch: 23400, Error: 0.004702213378117208
Epoch: 23500, Error: 0.004654043782280813
Epoch: 23600, Error: 0.004600238096041647
Epoch: 23700, Error: 0.0045602467803688915
Epoch: 23800, Error: 0.004566726680428726
Epoch: 23900, Error: 0.004529776569935603
Epoch: 24000, Error: 0.004669080640083048
Epoch: 24100, Error: 0.004512529368576811
Epoch: 24200, Error: 0.004486358554933269
Epoch: 24300, Error: 0.004518538203959674
Epoch: 24400, Error: 0.004435666049547837
Epoch: 24500, Error: 0.004393149354922709
Epoch: 24600, Error: 0.004387999333399048
Epoch: 24700, Error: 0.004357471505396929
Epoch: 24800, Error: 0.004310832271034952
Epoch: 24900, Error: 0.004286332328116509
Epoch: 25000, Error: 0.004305539518373388
Epoch: 25100, Error: 0.004237001754861538
Epoch: 25200, Error: 0.004215441882963806
Epoch: 25300, Error: 0.004193651500753683
Epoch: 25400, Error: 0.004193380097552077
Epoch: 25500, Error: 0.004177171328867574
Epoch: 25600, Error: 0.0040890431052610044
Epoch: 25700, Error: 0.00407997807825355
Epoch: 25800, Error: 0.0040555551295648464
Epoch: 25900, Error: 0.004022064586491945
Epoch: 26000, Error: 0.003996213597132183
Epoch: 26100, Error: 0.003971322740663085
Epoch: 26200, Error: 0.003967248900434333
Epoch: 26300, Error: 0.003933815432346543
Epoch: 26400, Error: 0.0039326053438414445
Epoch: 26500, Error: 0.0038624675972935936
Epoch: 26600, Error: 0.003838259392809622
Epoch: 26700, Error: 0.0038234247606093257
Epoch: 26800, Error: 0.0038031187684360044
Epoch: 26900, Error: 0.0037808494160070554
Epoch: 27000, Error: 0.0037489346956323293
Epoch: 27100, Error: 0.0037262208511356885
Epoch: 27200, Error: 0.003725687072682265
Epoch: 27300, Error: 0.0036784359059608565
Epoch: 27400, Error: 0.003678180988822367
Epoch: 27500, Error: 0.003669350379350671
Epoch: 27600, Error: 0.0036165249873829942
Epoch: 27700, Error: 0.0036250269974926167
Epoch: 27800, Error: 0.003584642677550693
Epoch: 27900, Error: 0.0035569034697181144
Epoch: 28000, Error: 0.0035498344342123197
Epoch: 28100, Error: 0.0035267164213849994
Epoch: 28200, Error: 0.003662486191203141
Epoch: 28300, Error: 0.0035437051756784543
Epoch: 28400, Error: 0.0035254554463195202
Epoch: 28500, Error: 0.0034611610508717573
Epoch: 28600, Error: 0.0034449571384373725
Epoch: 28700, Error: 0.0034369925357124425
Epoch: 28800, Error: 0.0034178793402361808
Epoch: 28900, Error: 0.003439342026405262
Epoch: 29000, Error: 0.003461201313333495
Epoch: 29100, Error: 0.00345331592706451
Epoch: 29200, Error: 0.003380604540885447
Epoch: 29300, Error: 0.0033678188478296943
Epoch: 29400, Error: 0.003329953696460029
Epoch: 29500, Error: 0.0034270462481938036
Epoch: 29600, Error: 0.0033024543994553913
Epoch: 29700, Error: 0.0032942150205167325
Epoch: 29800, Error: 0.0032916676734830157
Epoch: 29900, Error: 0.0032657123570464875
Epoch: 30000, Error: 0.003324139210998636
Epoch: 30100, Error: 0.003255225771616965
Epoch: 30200, Error: 0.003261859790881751
Epoch: 30300, Error: 0.0033034339526661367
Epoch: 30400, Error: 0.0032279478891332463
Epoch: 30500, Error: 0.0032164327098812154
Epoch: 30600, Error: 0.0032649235495640764
Epoch: 30700, Error: 0.0031570400846873707
Epoch: 30800, Error: 0.0032056988759890655
Epoch: 30900, Error: 0.003142045464591739
Epoch: 31000, Error: 0.003144528859195682
Epoch: 31100, Error: 0.0031130631420652117
Epoch: 31200, Error: 0.0031686540520399625
Epoch: 31300, Error: 0.003101050387754057
Epoch: 31400, Error: 0.003062313482562474
Epoch: 31500, Error: 0.0030481535291042544
Epoch: 31600, Error: 0.0030239261102621142
Epoch: 31700, Error: 0.003090328996751925
Epoch: 31800, Error: 0.002991224559574986
Epoch: 31900, Error: 0.003029363344987948
Epoch: 32000, Error: 0.003004008764877756
Epoch: 32100, Error: 0.0030639555109360206
Epoch: 32200, Error: 0.0029667812276849472
Epoch: 32300, Error: 0.0029292548620478546
Epoch: 32400, Error: 0.003060692075725013
Epoch: 32500, Error: 0.002876823902211149
Epoch: 32600, Error: 0.0029035651162016216
Epoch: 32700, Error: 0.002854823515435246
Epoch: 32800, Error: 0.0028598660763085823
Epoch: 32900, Error: 0.002937649131154048
Epoch: 33000, Error: 0.0029020435762582577
Epoch: 33100, Error: 0.0027771352972309994
Epoch: 33200, Error: 0.003180135359858397
Epoch: 33300, Error: 0.002814221934847992
Epoch: 33400, Error: 0.002747327565668663
Epoch: 33500, Error: 0.0027271568227096098
Epoch: 33600, Error: 0.002759744003749021
Epoch: 33700, Error: 0.002695007459196905
Epoch: 33800, Error: 0.0026953654152645293
Epoch: 33900, Error: 0.002689955498080552
Epoch: 34000, Error: 0.0026727611982425054
Epoch: 34100, Error: 0.0026321013649012125
Epoch: 34200, Error: 0.0026406117068895267
Epoch: 34300, Error: 0.0026799070073833943
Epoch: 34400, Error: 0.002701485226219008
Epoch: 34500, Error: 0.002606530121342453
Epoch: 34600, Error: 0.0025949562691661506
Epoch: 34700, Error: 0.002585853425669965
Epoch: 34800, Error: 0.002540446772077433
Epoch: 34900, Error: 0.002554607304752453
Epoch: 35000, Error: 0.0025468223065127633
Epoch: 35100, Error: 0.0024921496678900774
Epoch: 35200, Error: 0.0024860622681026337
Epoch: 35300, Error: 0.0025490109817088735
Epoch: 35400, Error: 0.002458721558583043
Epoch: 35500, Error: 0.0024397861495744815
Epoch: 35600, Error: 0.002417421898754707
Epoch: 35700, Error: 0.0024666182511553607
Epoch: 35800, Error: 0.002430263692817545
Epoch: 35900, Error: 0.002412917795152438
Epoch: 36000, Error: 0.002401518651243031
Epoch: 36100, Error: 0.0024818025549451384
Epoch: 36200, Error: 0.0024903539488364103
Epoch: 36300, Error: 0.002377106059321828
Epoch: 36400, Error: 0.002347963636434194
Epoch: 36500, Error: 0.0023758621150569317
Epoch: 36600, Error: 0.0024191735496944503
Epoch: 36700, Error: 0.002398723475433568
Epoch: 36800, Error: 0.002371235028141846
Epoch: 36900, Error: 0.0023082337793367954
Epoch: 37000, Error: 0.002739535770229271
Epoch: 37100, Error: 0.002314671497461327
Epoch: 37200, Error: 0.0022752318962790045
Epoch: 37300, Error: 0.0022877956480762095
Epoch: 37400, Error: 0.002259498781603389
Epoch: 37500, Error: 0.0022347127111158782
Epoch: 37600, Error: 0.0022371747276648548
Epoch: 37700, Error: 0.00222205422956686
Epoch: 37800, Error: 0.0022260225190934464
Epoch: 37900, Error: 0.0022115681848066775
Epoch: 38000, Error: 0.002231293424455126
Epoch: 38100, Error: 0.0022168877837238513
Epoch: 38200, Error: 0.002246936656366309
Epoch: 38300, Error: 0.00216897495910585
Epoch: 38400, Error: 0.002203714894737194
Epoch: 38500, Error: 0.0021633225830735145
Epoch: 38600, Error: 0.0022209279727901823
Epoch: 38700, Error: 0.0021782879118331885
Epoch: 38800, Error: 0.0021667760526189227
Epoch: 38900, Error: 0.002155016342177162
Epoch: 39000, Error: 0.0021797060055718854
Epoch: 39100, Error: 0.002146498496767136
Epoch: 39200, Error: 0.0021496366542042133
Epoch: 39300, Error: 0.0021468077736293695
Epoch: 39400, Error: 0.0021433047668958337
Epoch: 39500, Error: 0.0022144488107828375
Epoch: 39600, Error: 0.002140631809058735
Epoch: 39700, Error: 0.0021349915357249485
Epoch: 39800, Error: 0.0021007906000289163
Epoch: 39900, Error: 0.002084964415961924
Epoch: 40000, Error: 0.0021267870020327535
Epoch: 40100, Error: 0.002094734282222826
Epoch: 40200, Error: 0.002145606639182782
Epoch: 40300, Error: 0.002107235603335416
Epoch: 40400, Error: 0.0020801685025224536
Epoch: 40500, Error: 0.0020915904897809154
Epoch: 40600, Error: 0.0020807087021423847
Epoch: 40700, Error: 0.002066690413029058
Epoch: 40800, Error: 0.002082733773265888
Epoch: 40900, Error: 0.0020685085359853964
Epoch: 41000, Error: 0.0020594481393764624
Epoch: 41100, Error: 0.0020429747920981908
Epoch: 41200, Error: 0.002106312999156191
Epoch: 41300, Error: 0.002045694917678297
Epoch: 41400, Error: 0.0020688187446143685
Epoch: 41500, Error: 0.002067526053361202
Epoch: 41600, Error: 0.0020789860048598973
Epoch: 41700, Error: 0.0020442462592453175
Epoch: 41800, Error: 0.002100517895042534
Epoch: 41900, Error: 0.002042199917474112
Epoch: 42000, Error: 0.0020456584426516984
Epoch: 42100, Error: 0.002043190155572804
Epoch: 42200, Error: 0.0020790148735965763
Epoch: 42300, Error: 0.0020385906243339563
Epoch: 42400, Error: 0.0020309210542391824
Epoch: 42500, Error: 0.0020393630206400467
Epoch: 42600, Error: 0.002041901456768092
Epoch: 42700, Error: 0.0020183681158359563
Epoch: 42800, Error: 0.0020075258099224082
Epoch: 42900, Error: 0.0020213490599264535
Epoch: 43000, Error: 0.002044604797532624
Epoch: 43100, Error: 0.0020081953840392075
Epoch: 43200, Error: 0.0020404705605572
Epoch: 43300, Error: 0.0020036048988566007
Epoch: 43400, Error: 0.0020134736517810232
Epoch: 43500, Error: 0.0020009205489767033
Epoch: 43600, Error: 0.001987414146761933
Epoch: 43700, Error: 0.001985781275042699
Epoch: 43800, Error: 0.002000883433661871
Epoch: 43900, Error: 0.0019947141888642613
Epoch: 44000, Error: 0.002037794258915166
Epoch: 44100, Error: 0.002002865306107718
Epoch: 44200, Error: 0.001973751520079573
Epoch: 44300, Error: 0.001937820772736402
Epoch: 44400, Error: 0.001960864592642768
Epoch: 44500, Error: 0.0019238925580349348
Epoch: 44600, Error: 0.0019343241420210556
Epoch: 44700, Error: 0.0019492835036430502
Epoch: 44800, Error: 0.001933325271450287
Epoch: 44900, Error: 0.0019135039729290353
Epoch: 45000, Error: 0.001908711809104389
Epoch: 45100, Error: 0.0019092445459155585
Epoch: 45200, Error: 0.0019029440751929562
Epoch: 45300, Error: 0.0018898549294046668
Epoch: 45400, Error: 0.0018892940391983931
Epoch: 45500, Error: 0.00186030886134672
Epoch: 45600, Error: 0.00185169303758868
Epoch: 45700, Error: 0.0018628979633828892
Epoch: 45800, Error: 0.0018603725151255795
Epoch: 45900, Error: 0.0018558533265951313
Epoch: 46000, Error: 0.0018450647393349181
Epoch: 46100, Error: 0.0018183192887225844
Finished
