Input Patterns
0.224 0.624 0.067 0.043 
0.11 0.502 0.051 0.043 
0.196 0.667 0.067 0.043 
0.055 0.584 0.067 0.082 
0.027 0.376 0.067 0.043 
0.306 0.71 0.086 0.043 
0.137 0.416 0.067 0.0 
0.416 0.831 0.035 0.043 
0.306 0.792 0.051 0.125 
0.388 0.749 0.118 0.082 
0.306 0.584 0.118 0.043 
0.082 0.667 0.0 0.043 
0.137 0.584 0.153 0.043 
0.196 0.584 0.102 0.125 
0.251 0.584 0.067 0.043 
0.137 0.459 0.102 0.043 
0.251 0.875 0.086 0.0 
0.165 0.459 0.086 0.043 
0.333 0.624 0.051 0.043 
0.027 0.416 0.051 0.043 
0.196 0.624 0.051 0.082 
0.027 0.502 0.051 0.043 
0.224 0.749 0.153 0.125 
0.224 0.749 0.102 0.043 
0.278 0.71 0.086 0.043 
0.165 0.416 0.067 0.043 
0.082 0.459 0.086 0.043 
0.306 0.792 0.118 0.125 
0.196 0.584 0.086 0.043 
0.165 0.459 0.086 0.0 
0.137 0.584 0.102 0.043 
0.0 0.416 0.016 0.0 
0.388 1.0 0.086 0.125 
0.224 0.624 0.067 0.082 
0.224 0.749 0.086 0.082 
0.224 0.71 0.086 0.125 
0.224 0.541 0.118 0.165 
0.196 0.416 0.102 0.043 
0.251 0.624 0.086 0.043 
0.11 0.502 0.102 0.043 
0.306 0.584 0.086 0.125 
0.333 0.918 0.067 0.043 
0.196 0.502 0.035 0.043 
0.165 0.667 0.067 0.0 
0.224 0.584 0.086 0.043 
0.055 0.125 0.051 0.082 
0.196 0.624 0.102 0.208 
0.137 0.416 0.067 0.082 
0.082 0.502 0.067 0.043 
0.196 0.541 0.067 0.043 
0.749 0.502 0.627 0.541 
0.722 0.459 0.663 0.584 
0.612 0.333 0.612 0.584 
0.557 0.541 0.627 0.624 
0.639 0.376 0.612 0.498 
0.196 0.0 0.424 0.376 
0.471 0.082 0.51 0.376 
0.361 0.376 0.439 0.498 
0.361 0.416 0.592 0.584 
0.529 0.082 0.592 0.584 
0.443 0.502 0.643 0.459 
0.557 0.208 0.663 0.584 
0.584 0.376 0.561 0.498 
0.694 0.333 0.643 0.541 
0.471 0.376 0.592 0.584 
0.333 0.169 0.475 0.416 
0.416 0.29 0.49 0.459 
0.306 0.416 0.592 0.584 
0.667 0.459 0.627 0.584 
0.361 0.416 0.525 0.498 
0.333 0.251 0.576 0.459 
0.416 0.251 0.51 0.459 
0.361 0.29 0.541 0.498 
0.388 0.376 0.541 0.498 
0.224 0.208 0.337 0.416 
0.584 0.502 0.592 0.584 
0.333 0.125 0.51 0.498 
0.388 0.333 0.592 0.498 
0.165 0.169 0.388 0.376 
0.251 0.29 0.49 0.541 
0.443 0.416 0.541 0.584 
0.498 0.376 0.627 0.541 
0.667 0.459 0.576 0.541 
0.416 0.29 0.525 0.376 
0.361 0.208 0.49 0.416 
0.498 0.333 0.51 0.498 
0.498 0.333 0.627 0.459 
0.639 0.416 0.576 0.541 
0.667 0.416 0.678 0.667 
0.388 0.251 0.424 0.376 
0.333 0.169 0.459 0.376 
0.471 0.29 0.694 0.624 
0.471 0.584 0.592 0.624 
0.557 0.125 0.576 0.498 
0.333 0.208 0.51 0.498 
0.498 0.416 0.612 0.541 
0.196 0.125 0.388 0.376 
0.388 0.416 0.541 0.459 
0.529 0.376 0.561 0.498 
0.388 0.333 0.525 0.498 
0.557 0.541 0.847 1.0 
0.776 0.416 0.831 0.831 
0.612 0.416 0.812 0.875 
0.165 0.208 0.592 0.667 
0.667 0.208 0.812 0.71 
0.612 0.502 0.694 0.792 
0.694 0.416 0.761 0.831 
0.416 0.333 0.694 0.957 
0.612 0.416 0.761 0.71 
0.945 0.251 1.0 0.918 
0.722 0.502 0.796 0.918 
0.945 0.333 0.965 0.792 
0.667 0.541 0.796 0.831 
0.529 0.333 0.643 0.71 
0.584 0.333 0.78 0.831 
0.863 0.333 0.863 0.749 
0.584 0.333 0.78 0.875 
0.498 0.251 0.78 0.541 
0.557 0.584 0.78 0.957 
0.471 0.416 0.643 0.71 
0.667 0.459 0.78 0.957 
0.416 0.29 0.694 0.749 
0.667 0.541 0.796 1.0 
0.557 0.208 0.678 0.749 
0.529 0.584 0.745 0.918 
0.416 0.29 0.694 0.749 
0.557 0.376 0.78 0.71 
0.918 0.416 0.949 0.831 
0.835 0.376 0.898 0.71 
0.804 0.667 0.863 1.0 
0.584 0.29 0.729 0.749 
0.388 0.208 0.678 0.792 
0.584 0.502 0.729 0.918 
0.945 0.749 0.965 0.875 
0.471 0.082 0.678 0.584 
0.361 0.333 0.663 0.792 
0.557 0.29 0.663 0.71 
0.804 0.502 0.847 0.71 
0.498 0.416 0.51 0.71 
0.804 0.416 0.812 0.624 
1.0 0.749 0.914 0.792 
0.557 0.333 0.694 0.584 
0.945 0.416 0.863 0.918 
0.584 0.459 0.761 0.71 
0.722 0.459 0.745 0.831 
0.722 0.459 0.694 0.918 
0.694 0.502 0.831 0.918 
0.667 0.416 0.714 0.918 
0.612 0.416 0.714 0.792 
0.443 0.416 0.694 0.71 
Teaching Patterns
1.0 0.0 0.0 
1.0 0.0 0.0 
1.0 0.0 0.0 
1.0 0.0 0.0 
1.0 0.0 0.0 
1.0 0.0 0.0 
1.0 0.0 0.0 
1.0 0.0 0.0 
1.0 0.0 0.0 
1.0 0.0 0.0 
1.0 0.0 0.0 
1.0 0.0 0.0 
1.0 0.0 0.0 
1.0 0.0 0.0 
1.0 0.0 0.0 
1.0 0.0 0.0 
1.0 0.0 0.0 
1.0 0.0 0.0 
1.0 0.0 0.0 
1.0 0.0 0.0 
1.0 0.0 0.0 
1.0 0.0 0.0 
1.0 0.0 0.0 
1.0 0.0 0.0 
1.0 0.0 0.0 
1.0 0.0 0.0 
1.0 0.0 0.0 
1.0 0.0 0.0 
1.0 0.0 0.0 
1.0 0.0 0.0 
1.0 0.0 0.0 
1.0 0.0 0.0 
1.0 0.0 0.0 
1.0 0.0 0.0 
1.0 0.0 0.0 
1.0 0.0 0.0 
1.0 0.0 0.0 
1.0 0.0 0.0 
1.0 0.0 0.0 
1.0 0.0 0.0 
1.0 0.0 0.0 
1.0 0.0 0.0 
1.0 0.0 0.0 
1.0 0.0 0.0 
1.0 0.0 0.0 
1.0 0.0 0.0 
1.0 0.0 0.0 
1.0 0.0 0.0 
1.0 0.0 0.0 
1.0 0.0 0.0 
0.0 1.0 0.0 
0.0 1.0 0.0 
0.0 1.0 0.0 
0.0 1.0 0.0 
0.0 1.0 0.0 
0.0 1.0 0.0 
0.0 1.0 0.0 
0.0 1.0 0.0 
0.0 1.0 0.0 
0.0 1.0 0.0 
0.0 1.0 0.0 
0.0 1.0 0.0 
0.0 1.0 0.0 
0.0 1.0 0.0 
0.0 1.0 0.0 
0.0 1.0 0.0 
0.0 1.0 0.0 
0.0 1.0 0.0 
0.0 1.0 0.0 
0.0 1.0 0.0 
0.0 1.0 0.0 
0.0 1.0 0.0 
0.0 1.0 0.0 
0.0 1.0 0.0 
0.0 1.0 0.0 
0.0 1.0 0.0 
0.0 1.0 0.0 
0.0 1.0 0.0 
0.0 1.0 0.0 
0.0 1.0 0.0 
0.0 1.0 0.0 
0.0 1.0 0.0 
0.0 1.0 0.0 
0.0 1.0 0.0 
0.0 1.0 0.0 
0.0 1.0 0.0 
0.0 1.0 0.0 
0.0 1.0 0.0 
0.0 1.0 0.0 
0.0 1.0 0.0 
0.0 1.0 0.0 
0.0 1.0 0.0 
0.0 1.0 0.0 
0.0 1.0 0.0 
0.0 1.0 0.0 
0.0 1.0 0.0 
0.0 1.0 0.0 
0.0 1.0 0.0 
0.0 1.0 0.0 
0.0 1.0 0.0 
0.0 0.0 1.0 
0.0 0.0 1.0 
0.0 0.0 1.0 
0.0 0.0 1.0 
0.0 0.0 1.0 
0.0 0.0 1.0 
0.0 0.0 1.0 
0.0 0.0 1.0 
0.0 0.0 1.0 
0.0 0.0 1.0 
0.0 0.0 1.0 
0.0 0.0 1.0 
0.0 0.0 1.0 
0.0 0.0 1.0 
0.0 0.0 1.0 
0.0 0.0 1.0 
0.0 0.0 1.0 
0.0 0.0 1.0 
0.0 0.0 1.0 
0.0 0.0 1.0 
0.0 0.0 1.0 
0.0 0.0 1.0 
0.0 0.0 1.0 
0.0 0.0 1.0 
0.0 0.0 1.0 
0.0 0.0 1.0 
0.0 0.0 1.0 
0.0 0.0 1.0 
0.0 0.0 1.0 
0.0 0.0 1.0 
0.0 0.0 1.0 
0.0 0.0 1.0 
0.0 0.0 1.0 
0.0 0.0 1.0 
0.0 0.0 1.0 
0.0 0.0 1.0 
0.0 0.0 1.0 
0.0 0.0 1.0 
0.0 0.0 1.0 
0.0 0.0 1.0 
0.0 0.0 1.0 
0.0 0.0 1.0 
0.0 0.0 1.0 
0.0 0.0 1.0 
0.0 0.0 1.0 
0.0 0.0 1.0 
0.0 0.0 1.0 
0.0 0.0 1.0 
0.0 0.0 1.0 
0.0 0.0 1.0 
Learning : 0.05
Momentum : 0.6000000238418579
Epoch: 100, Error: 0.05949764041694726
Epoch: 200, Error: 0.020522606270610397
Epoch: 300, Error: 0.016753533764175415
Epoch: 400, Error: 0.01504647180357276
Epoch: 500, Error: 0.014216917937447842
Epoch: 600, Error: 0.013817196425233838
Epoch: 700, Error: 0.013429206786811433
Epoch: 800, Error: 0.01342427115808426
Epoch: 900, Error: 0.01294977803823899
Epoch: 1000, Error: 0.012827207727985783
Epoch: 1100, Error: 0.012726791518309398
Epoch: 1200, Error: 0.01269691203136932
Epoch: 1300, Error: 0.012626287726038838
Epoch: 1400, Error: 0.012680409527467101
Epoch: 1500, Error: 0.012705404627089087
Epoch: 1600, Error: 0.012807611237088625
Epoch: 1700, Error: 0.012762068161280827
Epoch: 1800, Error: 0.012767932269071629
Epoch: 1900, Error: 0.012724462796601627
Epoch: 2000, Error: 0.012720910202028153
Epoch: 2100, Error: 0.012674454727233152
Epoch: 2200, Error: 0.012713577355221545
Epoch: 2300, Error: 0.012545876426273608
Epoch: 2400, Error: 0.012600673091466494
Epoch: 2500, Error: 0.01268314681033564
Epoch: 2600, Error: 0.012639103310382198
Epoch: 2700, Error: 0.012572699019529832
Epoch: 2800, Error: 0.012493363393573603
Epoch: 2900, Error: 0.012524123915042528
Epoch: 3000, Error: 0.01248746689099854
Epoch: 3100, Error: 0.012533637649959392
Epoch: 3200, Error: 0.012515726667221042
Epoch: 3300, Error: 0.012448564892069953
Epoch: 3400, Error: 0.012431285120509446
Epoch: 3500, Error: 0.01244398141546208
Epoch: 3600, Error: 0.012479865226834861
Epoch: 3700, Error: 0.012447990604947433
Epoch: 3800, Error: 0.012350805656935391
Epoch: 3900, Error: 0.012323009483808423
Epoch: 4000, Error: 0.012355499116355353
Epoch: 4100, Error: 0.012360510130975355
Epoch: 4200, Error: 0.0123849239355299
Epoch: 4300, Error: 0.012309557516472116
Epoch: 4400, Error: 0.012300173139517675
Epoch: 4500, Error: 0.012337927963310942
Epoch: 4600, Error: 0.012312590909125228
Epoch: 4700, Error: 0.012463664276635002
Epoch: 4800, Error: 0.012293566723347166
Epoch: 4900, Error: 0.012270951789257285
Epoch: 5000, Error: 0.012251662295108406
Epoch: 5100, Error: 0.012168369114545583
Epoch: 5200, Error: 0.012148028421960866
Epoch: 5300, Error: 0.012171786288881046
Epoch: 5400, Error: 0.012178738782698793
Epoch: 5500, Error: 0.012107228243551092
Epoch: 5600, Error: 0.012055799117828427
Epoch: 5700, Error: 0.01203129562417558
Epoch: 5800, Error: 0.012004215983363993
Epoch: 5900, Error: 0.011967605877713387
Epoch: 6000, Error: 0.011970395189410944
Epoch: 6100, Error: 0.01197763042739174
Epoch: 6200, Error: 0.012004190107957013
Epoch: 6300, Error: 0.011994685975478434
Epoch: 6400, Error: 0.012021799045700585
Epoch: 6500, Error: 0.012035340750109135
Epoch: 6600, Error: 0.012057288241182577
Epoch: 6700, Error: 0.012030488103900006
Epoch: 6800, Error: 0.012083115660745334
Epoch: 6900, Error: 0.012040308667034542
Epoch: 7000, Error: 0.012026595856784178
Epoch: 7100, Error: 0.012067822155617493
Epoch: 7200, Error: 0.01196010795678946
Epoch: 7300, Error: 0.011939354422275929
Epoch: 7400, Error: 0.01193146391561147
Epoch: 7500, Error: 0.011879120592742076
Epoch: 7600, Error: 0.01193067439768597
Epoch: 7700, Error: 0.011868439271650306
Epoch: 7800, Error: 0.011893729888591309
Epoch: 7900, Error: 0.011849786039507912
Epoch: 8000, Error: 0.011807880700390221
Epoch: 8100, Error: 0.011780978902561376
Epoch: 8200, Error: 0.01175298578532712
Epoch: 8300, Error: 0.01176316997945286
Epoch: 8400, Error: 0.011734692812474338
Epoch: 8500, Error: 0.011714703673641597
Epoch: 8600, Error: 0.011712674372487112
Epoch: 8700, Error: 0.011699023197978886
Epoch: 8800, Error: 0.011754969182360325
Epoch: 8900, Error: 0.011657322829388358
Epoch: 9000, Error: 0.011682579078142985
Epoch: 9100, Error: 0.01162797466453471
Epoch: 9200, Error: 0.011594186472387137
Epoch: 9300, Error: 0.011570488011953964
Epoch: 9400, Error: 0.011549300757576523
Epoch: 9500, Error: 0.011541833843569042
Epoch: 9600, Error: 0.011551246022647637
Epoch: 9700, Error: 0.0114969972012524
Epoch: 9800, Error: 0.011491077931297538
Epoch: 9900, Error: 0.011478836415477839
Epoch: 10000, Error: 0.011545658069652848
Epoch: 10100, Error: 0.01142514269409616
Epoch: 10200, Error: 0.011401458440391315
Epoch: 10300, Error: 0.011376737466008703
Epoch: 10400, Error: 0.011354618835856471
Epoch: 10500, Error: 0.011332069219154785
Epoch: 10600, Error: 0.011303819613061476
Epoch: 10700, Error: 0.011271041038183357
Epoch: 10800, Error: 0.011233989006536792
Epoch: 10900, Error: 0.011198048639829995
Epoch: 11000, Error: 0.011176626313275666
Epoch: 11100, Error: 0.011144800747147082
Epoch: 11200, Error: 0.011127095333196993
Epoch: 11300, Error: 0.011066209578371206
Epoch: 11400, Error: 0.010985226585901368
Epoch: 11500, Error: 0.010960289143529865
Epoch: 11600, Error: 0.01092943861923198
Epoch: 11700, Error: 0.010881958350690618
Epoch: 11800, Error: 0.010836069969021435
Epoch: 11900, Error: 0.010805726448365601
Epoch: 12000, Error: 0.01076164177605927
Epoch: 12100, Error: 0.010786804598507983
Epoch: 12200, Error: 0.010584351748595369
Epoch: 12300, Error: 0.010555308119448187
Epoch: 12400, Error: 0.01047938063543983
Epoch: 12500, Error: 0.010432319589734302
Epoch: 12600, Error: 0.010395852265540888
Epoch: 12700, Error: 0.010306682185041568
Epoch: 12800, Error: 0.010230668346505751
Epoch: 12900, Error: 0.010177693716621595
Epoch: 13000, Error: 0.010099705189179525
Epoch: 13100, Error: 0.010047480097562891
Epoch: 13200, Error: 0.009951280693650384
Epoch: 13300, Error: 0.009895330166465864
Epoch: 13400, Error: 0.009816462812791932
Epoch: 13500, Error: 0.009755440595584908
Epoch: 13600, Error: 0.009721438407706319
Epoch: 13700, Error: 0.009628967398041288
Epoch: 13800, Error: 0.009559270665599215
Epoch: 13900, Error: 0.009446471944694433
Epoch: 14000, Error: 0.009337154711399844
Epoch: 14100, Error: 0.009258167788975681
Epoch: 14200, Error: 0.009181213090950964
Epoch: 14300, Error: 0.009084074650099359
Epoch: 14400, Error: 0.008983065953456175
Epoch: 14500, Error: 0.008911603579535693
Epoch: 14600, Error: 0.0087955924285169
Epoch: 14700, Error: 0.008711350829079225
Epoch: 14800, Error: 0.008606970011664368
Epoch: 14900, Error: 0.00857921700504938
Epoch: 15000, Error: 0.008423614369674195
Epoch: 15100, Error: 0.008340212036719792
Epoch: 15200, Error: 0.008219787099359022
Epoch: 15300, Error: 0.008118350244814424
Epoch: 15400, Error: 0.008037229584876997
Epoch: 15500, Error: 0.007919175642741822
Epoch: 15600, Error: 0.007822751813827132
Epoch: 15700, Error: 0.007779512396836094
Epoch: 15800, Error: 0.0076583307913407565
Epoch: 15900, Error: 0.007579739644580294
Epoch: 16000, Error: 0.007468585695282542
Epoch: 16100, Error: 0.007383794876588597
Epoch: 16200, Error: 0.007326275190929908
Epoch: 16300, Error: 0.007237801843452455
Epoch: 16400, Error: 0.007141754142889918
Epoch: 16500, Error: 0.007052134161065841
Epoch: 16600, Error: 0.006981791654699126
Epoch: 16700, Error: 0.006903975172662344
Epoch: 16800, Error: 0.006826617822278312
Epoch: 16900, Error: 0.0067443823573071545
Epoch: 17000, Error: 0.006682039401516942
Epoch: 17100, Error: 0.006589724846644299
Epoch: 17200, Error: 0.006512865109912807
Epoch: 17300, Error: 0.006464359940354774
Epoch: 17400, Error: 0.006385552291032608
Epoch: 17500, Error: 0.00634364694769475
Epoch: 17600, Error: 0.006311760244389965
Epoch: 17700, Error: 0.0062279393216097085
Epoch: 17800, Error: 0.006190245887447544
Epoch: 17900, Error: 0.006132051581901212
Epoch: 18000, Error: 0.006088875756648382
Epoch: 18100, Error: 0.006051426643153776
Epoch: 18200, Error: 0.00602202983034433
Epoch: 18300, Error: 0.005994699172641869
Epoch: 18400, Error: 0.005978887967227284
Epoch: 18500, Error: 0.005962009029045293
Epoch: 18600, Error: 0.005939974311579968
Epoch: 18700, Error: 0.005899584553287051
Epoch: 18800, Error: 0.005869164864421169
Epoch: 18900, Error: 0.005844865824395458
Epoch: 19000, Error: 0.005845637008340807
Epoch: 19100, Error: 0.005787007292658032
Epoch: 19200, Error: 0.005778713826490764
Epoch: 19300, Error: 0.00573769452436168
Epoch: 19400, Error: 0.005714161399145786
Epoch: 19500, Error: 0.005729723572857163
Epoch: 19600, Error: 0.0056844057103524765
Epoch: 19700, Error: 0.005673798485029375
Epoch: 19800, Error: 0.005651148530202152
Epoch: 19900, Error: 0.005662083264784043
Epoch: 20000, Error: 0.0056139395814697275
Epoch: 20100, Error: 0.005607796950667495
Epoch: 20200, Error: 0.00558745990785925
Epoch: 20300, Error: 0.005586321152394938
Epoch: 20400, Error: 0.0055424530375784145
Epoch: 20500, Error: 0.005522469270583396
Epoch: 20600, Error: 0.005515376630292445
Epoch: 20700, Error: 0.005497208015679427
Epoch: 20800, Error: 0.005465444241312633
Epoch: 20900, Error: 0.005452131124841092
Epoch: 21000, Error: 0.005459701941718952
Epoch: 21100, Error: 0.0054204470382456
Epoch: 21200, Error: 0.005409034619264125
Epoch: 21300, Error: 0.005380214871001498
Epoch: 21400, Error: 0.005365120558147269
Epoch: 21500, Error: 0.005414914571362294
Epoch: 21600, Error: 0.0053423889359620405
Epoch: 21700, Error: 0.005323694132980995
Epoch: 21800, Error: 0.0052882021571841985
Epoch: 21900, Error: 0.0052374689860271596
Epoch: 22000, Error: 0.0052464177346283536
Epoch: 22100, Error: 0.00519422381677517
Epoch: 22200, Error: 0.0051808806847363316
Epoch: 22300, Error: 0.005142496482542181
Epoch: 22400, Error: 0.005140971683733381
Epoch: 22500, Error: 0.005095091304286835
Epoch: 22600, Error: 0.00509907568406802
Epoch: 22700, Error: 0.005051850544750649
Epoch: 22800, Error: 0.0050321553794070994
Epoch: 22900, Error: 0.005009005981282947
Epoch: 23000, Error: 0.004987005323193762
Epoch: 23100, Error: 0.004935959619767926
Epoch: 23200, Error: 0.004934312260613669
Epoch: 23300, Error: 0.00491009997690458
Epoch: 23400, Error: 0.004886787430525818
Epoch: 23500, Error: 0.004872174086462461
Epoch: 23600, Error: 0.004857830149625725
Epoch: 23700, Error: 0.0048232623510483545
Epoch: 23800, Error: 0.004803358079229282
Epoch: 23900, Error: 0.004779100629672987
Epoch: 24000, Error: 0.004745751408053265
Epoch: 24100, Error: 0.0047315065105728565
Epoch: 24200, Error: 0.004717631384622347
Epoch: 24300, Error: 0.0047049075811673524
Epoch: 24400, Error: 0.004681514199260105
Epoch: 24500, Error: 0.004668681763071734
Epoch: 24600, Error: 0.004637992620970335
Epoch: 24700, Error: 0.004615414891893644
Epoch: 24800, Error: 0.004593816889818622
Epoch: 24900, Error: 0.004570679793180627
Epoch: 25000, Error: 0.004562339452752696
Epoch: 25100, Error: 0.004535895265835639
Epoch: 25200, Error: 0.004511349440156648
Epoch: 25300, Error: 0.0045025668129466
Epoch: 25400, Error: 0.004491305573783326
Epoch: 25500, Error: 0.0045084591403712175
Epoch: 25600, Error: 0.004447486926749142
Epoch: 25700, Error: 0.004444115271427262
Epoch: 25800, Error: 0.004418324097463708
Epoch: 25900, Error: 0.004405000911826264
Epoch: 26000, Error: 0.004398527697431312
Epoch: 26100, Error: 0.004371998677816671
Epoch: 26200, Error: 0.004353145705835829
Epoch: 26300, Error: 0.004332812235342896
Epoch: 26400, Error: 0.004334009941251121
Epoch: 26500, Error: 0.004283692057924054
Epoch: 26600, Error: 0.004263276496991385
Epoch: 26700, Error: 0.004239816768148528
Epoch: 26800, Error: 0.004228741798283839
Epoch: 26900, Error: 0.0041999341147268094
Epoch: 27000, Error: 0.004179094677600848
Epoch: 27100, Error: 0.004145116802490836
Epoch: 27200, Error: 0.004121128756896623
Epoch: 27300, Error: 0.004111453159628765
Epoch: 27400, Error: 0.004068995827318109
Epoch: 27500, Error: 0.004043688442561179
Epoch: 27600, Error: 0.004039752223991347
Epoch: 27700, Error: 0.00399280626539928
Epoch: 27800, Error: 0.0039754423102639855
Epoch: 27900, Error: 0.004039812696591381
Epoch: 28000, Error: 0.0039395544031681105
Epoch: 28100, Error: 0.003897126107923393
Epoch: 28200, Error: 0.003902052739144521
Epoch: 28300, Error: 0.0038575483759528896
Epoch: 28400, Error: 0.003825215479967851
Epoch: 28500, Error: 0.0038513751507516457
Epoch: 28600, Error: 0.0038086950671377276
Epoch: 28700, Error: 0.003761282755541654
Epoch: 28800, Error: 0.00372579204891704
Epoch: 28900, Error: 0.0037412744235009354
Epoch: 29000, Error: 0.0036938349062996772
Epoch: 29100, Error: 0.0036821709250974654
Epoch: 29200, Error: 0.003653184238839454
Epoch: 29300, Error: 0.003623107332773239
Epoch: 29400, Error: 0.003605204237039587
Epoch: 29500, Error: 0.0035969749071516855
Epoch: 29600, Error: 0.0035647447716499222
Epoch: 29700, Error: 0.0035637288058217457
Epoch: 29800, Error: 0.0035160201253718526
Epoch: 29900, Error: 0.003531831132006489
Epoch: 30000, Error: 0.0034829890920894985
Epoch: 30100, Error: 0.0034618747256950698
Epoch: 30200, Error: 0.003420006729562956
Epoch: 30300, Error: 0.003416254560932542
Epoch: 30400, Error: 0.0033808958298526246
Epoch: 30500, Error: 0.0033623632102972767
Epoch: 30600, Error: 0.00335328317884395
Epoch: 30700, Error: 0.0033331213526361235
Epoch: 30800, Error: 0.0033252468688224567
Epoch: 30900, Error: 0.0033007953031527087
Epoch: 31000, Error: 0.0033860563264483264
Epoch: 31100, Error: 0.0033197276258855445
Epoch: 31200, Error: 0.00321398019060355
Epoch: 31300, Error: 0.0032170441904413698
Epoch: 31400, Error: 0.0031783250928710746
Epoch: 31500, Error: 0.0032066383320747795
Epoch: 31600, Error: 0.0031621250097785187
Epoch: 31700, Error: 0.003139818427678538
Epoch: 31800, Error: 0.0031131340191256334
Epoch: 31900, Error: 0.0030742974381057263
Epoch: 32000, Error: 0.003059903843374444
Epoch: 32100, Error: 0.00303607509062157
Epoch: 32200, Error: 0.0030331302653434254
Epoch: 32300, Error: 0.0029954011789741835
Epoch: 32400, Error: 0.002980805175766045
Epoch: 32500, Error: 0.002991533882241894
Epoch: 32600, Error: 0.0029488986237230434
Epoch: 32700, Error: 0.002930494554320385
Epoch: 32800, Error: 0.002914051881673181
Epoch: 32900, Error: 0.002904518642828806
Epoch: 33000, Error: 0.0029018821709828556
Epoch: 33100, Error: 0.002866459597268415
Epoch: 33200, Error: 0.0028991323622094846
Epoch: 33300, Error: 0.002833017279498926
Epoch: 33400, Error: 0.0028197136452282764
Epoch: 33500, Error: 0.002800065375865142
Epoch: 33600, Error: 0.002779788468577455
Epoch: 33700, Error: 0.002941584615275388
Epoch: 33800, Error: 0.002761170096690774
Epoch: 33900, Error: 0.0027582990602073244
Epoch: 34000, Error: 0.002791306875903443
Epoch: 34100, Error: 0.002736891487545666
Epoch: 34200, Error: 0.0027638037859188
Epoch: 34300, Error: 0.0027590893344600293
Epoch: 34400, Error: 0.0027353943218519665
Epoch: 34500, Error: 0.002755688569868529
Epoch: 34600, Error: 0.0027405194613764074
Epoch: 34700, Error: 0.002706320489716213
Epoch: 34800, Error: 0.002684121017409936
Epoch: 34900, Error: 0.0026638542928928022
Epoch: 35000, Error: 0.002642168299038668
Epoch: 35100, Error: 0.0026347223013777595
Epoch: 35200, Error: 0.0025877746992162753
Epoch: 35300, Error: 0.0025948592788199608
Epoch: 35400, Error: 0.0025635076925536538
Epoch: 35500, Error: 0.0025467806176461675
Epoch: 35600, Error: 0.002533997516272416
Epoch: 35700, Error: 0.002481930916761291
Epoch: 35800, Error: 0.0024558476238219543
Epoch: 35900, Error: 0.002432947742162545
Epoch: 36000, Error: 0.0025604538007892694
Epoch: 36100, Error: 0.002414886801874305
Epoch: 36200, Error: 0.002370333082875556
Epoch: 36300, Error: 0.0023510789145332936
Epoch: 36400, Error: 0.00235015894746946
Epoch: 36500, Error: 0.002314614575971599
Epoch: 36600, Error: 0.002310838172714818
Epoch: 36700, Error: 0.002270057440757515
Epoch: 36800, Error: 0.002278332266463915
Epoch: 36900, Error: 0.0022420921585099263
Epoch: 37000, Error: 0.002214125934842415
Epoch: 37100, Error: 0.002245537938223402
Epoch: 37200, Error: 0.0021812781790940213
Epoch: 37300, Error: 0.0021642434708308545
Epoch: 37400, Error: 0.0021460517909836553
Epoch: 37500, Error: 0.0021675747614802923
Epoch: 37600, Error: 0.002185395870314145
Epoch: 37700, Error: 0.0020976118221369177
Epoch: 37800, Error: 0.002115700819522265
Epoch: 37900, Error: 0.00209520649162115
Epoch: 38000, Error: 0.002033060802055508
Epoch: 38100, Error: 0.0020288664340618935
Epoch: 38200, Error: 0.0020005708975953072
Epoch: 38300, Error: 0.002029154995546869
Epoch: 38400, Error: 0.002039337059597277
Epoch: 38500, Error: 0.0019786905861091425
Epoch: 38600, Error: 0.0019522303903628075
Epoch: 38700, Error: 0.001922047048348134
Epoch: 38800, Error: 0.0019126884054837979
Epoch: 38900, Error: 0.001908936011960961
Epoch: 39000, Error: 0.0018779355307199312
Epoch: 39100, Error: 0.0019634632273485744
Epoch: 39200, Error: 0.0018581997681059689
Epoch: 39300, Error: 0.0018730137497071603
Epoch: 39400, Error: 0.001831925858937214
Epoch: 39500, Error: 0.001813740912900512
Epoch: 39600, Error: 0.0018350774754630724
Epoch: 39700, Error: 0.0018306119829242747
Epoch: 39800, Error: 0.0018163511146704378
Epoch: 39900, Error: 0.0017596538741572
Epoch: 40000, Error: 0.0017470841305873847
Epoch: 40100, Error: 0.0017495374812700562
Epoch: 40200, Error: 0.0017962149453838805
Epoch: 40300, Error: 0.0017271973216451476
Epoch: 40400, Error: 0.0017261465267104997
Epoch: 40500, Error: 0.0016862909156192421
Epoch: 40600, Error: 0.001674824549354751
Epoch: 40700, Error: 0.0016913318294286466
Epoch: 40800, Error: 0.0016610521578900523
Epoch: 40900, Error: 0.0016588354942757226
Epoch: 41000, Error: 0.001639348144213845
Epoch: 41100, Error: 0.001647875798825648
Epoch: 41200, Error: 0.0016084642269693081
Epoch: 41300, Error: 0.0015949019342589605
Epoch: 41400, Error: 0.001606060091704235
Epoch: 41500, Error: 0.001591684494339259
Epoch: 41600, Error: 0.0015736052060666562
Epoch: 41700, Error: 0.0015741807788239846
Epoch: 41800, Error: 0.0015424631502987559
Epoch: 41900, Error: 0.0015623199579997082
Epoch: 42000, Error: 0.0015328399863598252
Epoch: 42100, Error: 0.0015703851953318233
Epoch: 42200, Error: 0.0015060950077420059
Epoch: 42300, Error: 0.001502654346916443
Epoch: 42400, Error: 0.001489086295965067
Epoch: 42500, Error: 0.0014890645401140698
Epoch: 42600, Error: 0.0015169014852027482
Epoch: 42700, Error: 0.0014649213061508936
Epoch: 42800, Error: 0.0014746029850161476
Epoch: 42900, Error: 0.001462583653655634
Epoch: 43000, Error: 0.00143922628969146
Epoch: 43100, Error: 0.0014263526208638901
Epoch: 43200, Error: 0.0014600435837244514
Epoch: 43300, Error: 0.0014116980608657808
Epoch: 43400, Error: 0.0014061548992473233
Epoch: 43500, Error: 0.0014176983207879368
Epoch: 43600, Error: 0.001395460653064051
Epoch: 43700, Error: 0.001390719733266816
Epoch: 43800, Error: 0.0013717952028069118
Epoch: 43900, Error: 0.0013712871115618588
Epoch: 44000, Error: 0.0013620180368474463
Epoch: 44100, Error: 0.0013842540001836818
Epoch: 44200, Error: 0.0013459316913109413
Epoch: 44300, Error: 0.0013400444706236643
Epoch: 44400, Error: 0.0013342719559221766
Epoch: 44500, Error: 0.001326236448488297
Epoch: 44600, Error: 0.0013209820260278423
Epoch: 44700, Error: 0.0013170485745773177
Epoch: 44800, Error: 0.0013123735377829036
Epoch: 44900, Error: 0.0013140944826015902
Epoch: 45000, Error: 0.0013110375263242146
Epoch: 45100, Error: 0.0012942677625721875
Epoch: 45200, Error: 0.0012973491791549874
Epoch: 45300, Error: 0.001291492336682174
Epoch: 45400, Error: 0.0012837987207003137
Epoch: 45500, Error: 0.0012772950265171168
Epoch: 45600, Error: 0.0012655894173553613
Epoch: 45700, Error: 0.0012590500609069386
Epoch: 45800, Error: 0.001244539577944903
Epoch: 45900, Error: 0.0012438386514869533
Epoch: 46000, Error: 0.0012355742108721068
Epoch: 46100, Error: 0.00125149758557094
Epoch: 46200, Error: 0.0012438144924130983
Epoch: 46300, Error: 0.0012281682938182297
Finished
