Input Patterns
0.224 0.624 0.067 0.043 
0.11 0.502 0.051 0.043 
0.196 0.667 0.067 0.043 
0.055 0.584 0.067 0.082 
0.027 0.376 0.067 0.043 
0.306 0.71 0.086 0.043 
0.137 0.416 0.067 0.0 
0.416 0.831 0.035 0.043 
0.306 0.792 0.051 0.125 
0.388 0.749 0.118 0.082 
0.306 0.584 0.118 0.043 
0.082 0.667 0.0 0.043 
0.137 0.584 0.153 0.043 
0.196 0.584 0.102 0.125 
0.251 0.584 0.067 0.043 
0.137 0.459 0.102 0.043 
0.251 0.875 0.086 0.0 
0.165 0.459 0.086 0.043 
0.333 0.624 0.051 0.043 
0.027 0.416 0.051 0.043 
0.196 0.624 0.051 0.082 
0.027 0.502 0.051 0.043 
0.224 0.749 0.153 0.125 
0.224 0.749 0.102 0.043 
0.278 0.71 0.086 0.043 
0.165 0.416 0.067 0.043 
0.082 0.459 0.086 0.043 
0.306 0.792 0.118 0.125 
0.196 0.584 0.086 0.043 
0.165 0.459 0.086 0.0 
0.137 0.584 0.102 0.043 
0.0 0.416 0.016 0.0 
0.388 1.0 0.086 0.125 
0.224 0.624 0.067 0.082 
0.224 0.749 0.086 0.082 
0.224 0.71 0.086 0.125 
0.224 0.541 0.118 0.165 
0.196 0.416 0.102 0.043 
0.251 0.624 0.086 0.043 
0.11 0.502 0.102 0.043 
0.306 0.584 0.086 0.125 
0.333 0.918 0.067 0.043 
0.196 0.502 0.035 0.043 
0.165 0.667 0.067 0.0 
0.224 0.584 0.086 0.043 
0.055 0.125 0.051 0.082 
0.196 0.624 0.102 0.208 
0.137 0.416 0.067 0.082 
0.082 0.502 0.067 0.043 
0.196 0.541 0.067 0.043 
0.749 0.502 0.627 0.541 
0.722 0.459 0.663 0.584 
0.612 0.333 0.612 0.584 
0.557 0.541 0.627 0.624 
0.639 0.376 0.612 0.498 
0.196 0.0 0.424 0.376 
0.471 0.082 0.51 0.376 
0.361 0.376 0.439 0.498 
0.361 0.416 0.592 0.584 
0.529 0.082 0.592 0.584 
0.443 0.502 0.643 0.459 
0.557 0.208 0.663 0.584 
0.584 0.376 0.561 0.498 
0.694 0.333 0.643 0.541 
0.471 0.376 0.592 0.584 
0.333 0.169 0.475 0.416 
0.416 0.29 0.49 0.459 
0.306 0.416 0.592 0.584 
0.667 0.459 0.627 0.584 
0.361 0.416 0.525 0.498 
0.333 0.251 0.576 0.459 
0.416 0.251 0.51 0.459 
0.361 0.29 0.541 0.498 
0.388 0.376 0.541 0.498 
0.224 0.208 0.337 0.416 
0.584 0.502 0.592 0.584 
0.333 0.125 0.51 0.498 
0.388 0.333 0.592 0.498 
0.165 0.169 0.388 0.376 
0.251 0.29 0.49 0.541 
0.443 0.416 0.541 0.584 
0.498 0.376 0.627 0.541 
0.667 0.459 0.576 0.541 
0.416 0.29 0.525 0.376 
0.361 0.208 0.49 0.416 
0.498 0.333 0.51 0.498 
0.498 0.333 0.627 0.459 
0.639 0.416 0.576 0.541 
0.667 0.416 0.678 0.667 
0.388 0.251 0.424 0.376 
0.333 0.169 0.459 0.376 
0.471 0.29 0.694 0.624 
0.471 0.584 0.592 0.624 
0.557 0.125 0.576 0.498 
0.333 0.208 0.51 0.498 
0.498 0.416 0.612 0.541 
0.196 0.125 0.388 0.376 
0.388 0.416 0.541 0.459 
0.529 0.376 0.561 0.498 
0.388 0.333 0.525 0.498 
0.557 0.541 0.847 1.0 
0.776 0.416 0.831 0.831 
0.612 0.416 0.812 0.875 
0.165 0.208 0.592 0.667 
0.667 0.208 0.812 0.71 
0.612 0.502 0.694 0.792 
0.694 0.416 0.761 0.831 
0.416 0.333 0.694 0.957 
0.612 0.416 0.761 0.71 
0.945 0.251 1.0 0.918 
0.722 0.502 0.796 0.918 
0.945 0.333 0.965 0.792 
0.667 0.541 0.796 0.831 
0.529 0.333 0.643 0.71 
0.584 0.333 0.78 0.831 
0.863 0.333 0.863 0.749 
0.584 0.333 0.78 0.875 
0.498 0.251 0.78 0.541 
0.557 0.584 0.78 0.957 
0.471 0.416 0.643 0.71 
0.667 0.459 0.78 0.957 
0.416 0.29 0.694 0.749 
0.667 0.541 0.796 1.0 
0.557 0.208 0.678 0.749 
0.529 0.584 0.745 0.918 
0.416 0.29 0.694 0.749 
0.557 0.376 0.78 0.71 
0.918 0.416 0.949 0.831 
0.835 0.376 0.898 0.71 
0.804 0.667 0.863 1.0 
0.584 0.29 0.729 0.749 
0.388 0.208 0.678 0.792 
0.584 0.502 0.729 0.918 
0.945 0.749 0.965 0.875 
0.471 0.082 0.678 0.584 
0.361 0.333 0.663 0.792 
0.557 0.29 0.663 0.71 
0.804 0.502 0.847 0.71 
0.498 0.416 0.51 0.71 
0.804 0.416 0.812 0.624 
1.0 0.749 0.914 0.792 
0.557 0.333 0.694 0.584 
0.945 0.416 0.863 0.918 
0.584 0.459 0.761 0.71 
0.722 0.459 0.745 0.831 
0.722 0.459 0.694 0.918 
0.694 0.502 0.831 0.918 
0.667 0.416 0.714 0.918 
0.612 0.416 0.714 0.792 
0.443 0.416 0.694 0.71 
Teaching Patterns
1.0 0.0 0.0 
1.0 0.0 0.0 
1.0 0.0 0.0 
1.0 0.0 0.0 
1.0 0.0 0.0 
1.0 0.0 0.0 
1.0 0.0 0.0 
1.0 0.0 0.0 
1.0 0.0 0.0 
1.0 0.0 0.0 
1.0 0.0 0.0 
1.0 0.0 0.0 
1.0 0.0 0.0 
1.0 0.0 0.0 
1.0 0.0 0.0 
1.0 0.0 0.0 
1.0 0.0 0.0 
1.0 0.0 0.0 
1.0 0.0 0.0 
1.0 0.0 0.0 
1.0 0.0 0.0 
1.0 0.0 0.0 
1.0 0.0 0.0 
1.0 0.0 0.0 
1.0 0.0 0.0 
1.0 0.0 0.0 
1.0 0.0 0.0 
1.0 0.0 0.0 
1.0 0.0 0.0 
1.0 0.0 0.0 
1.0 0.0 0.0 
1.0 0.0 0.0 
1.0 0.0 0.0 
1.0 0.0 0.0 
1.0 0.0 0.0 
1.0 0.0 0.0 
1.0 0.0 0.0 
1.0 0.0 0.0 
1.0 0.0 0.0 
1.0 0.0 0.0 
1.0 0.0 0.0 
1.0 0.0 0.0 
1.0 0.0 0.0 
1.0 0.0 0.0 
1.0 0.0 0.0 
1.0 0.0 0.0 
1.0 0.0 0.0 
1.0 0.0 0.0 
1.0 0.0 0.0 
1.0 0.0 0.0 
0.0 1.0 0.0 
0.0 1.0 0.0 
0.0 1.0 0.0 
0.0 1.0 0.0 
0.0 1.0 0.0 
0.0 1.0 0.0 
0.0 1.0 0.0 
0.0 1.0 0.0 
0.0 1.0 0.0 
0.0 1.0 0.0 
0.0 1.0 0.0 
0.0 1.0 0.0 
0.0 1.0 0.0 
0.0 1.0 0.0 
0.0 1.0 0.0 
0.0 1.0 0.0 
0.0 1.0 0.0 
0.0 1.0 0.0 
0.0 1.0 0.0 
0.0 1.0 0.0 
0.0 1.0 0.0 
0.0 1.0 0.0 
0.0 1.0 0.0 
0.0 1.0 0.0 
0.0 1.0 0.0 
0.0 1.0 0.0 
0.0 1.0 0.0 
0.0 1.0 0.0 
0.0 1.0 0.0 
0.0 1.0 0.0 
0.0 1.0 0.0 
0.0 1.0 0.0 
0.0 1.0 0.0 
0.0 1.0 0.0 
0.0 1.0 0.0 
0.0 1.0 0.0 
0.0 1.0 0.0 
0.0 1.0 0.0 
0.0 1.0 0.0 
0.0 1.0 0.0 
0.0 1.0 0.0 
0.0 1.0 0.0 
0.0 1.0 0.0 
0.0 1.0 0.0 
0.0 1.0 0.0 
0.0 1.0 0.0 
0.0 1.0 0.0 
0.0 1.0 0.0 
0.0 1.0 0.0 
0.0 1.0 0.0 
0.0 0.0 1.0 
0.0 0.0 1.0 
0.0 0.0 1.0 
0.0 0.0 1.0 
0.0 0.0 1.0 
0.0 0.0 1.0 
0.0 0.0 1.0 
0.0 0.0 1.0 
0.0 0.0 1.0 
0.0 0.0 1.0 
0.0 0.0 1.0 
0.0 0.0 1.0 
0.0 0.0 1.0 
0.0 0.0 1.0 
0.0 0.0 1.0 
0.0 0.0 1.0 
0.0 0.0 1.0 
0.0 0.0 1.0 
0.0 0.0 1.0 
0.0 0.0 1.0 
0.0 0.0 1.0 
0.0 0.0 1.0 
0.0 0.0 1.0 
0.0 0.0 1.0 
0.0 0.0 1.0 
0.0 0.0 1.0 
0.0 0.0 1.0 
0.0 0.0 1.0 
0.0 0.0 1.0 
0.0 0.0 1.0 
0.0 0.0 1.0 
0.0 0.0 1.0 
0.0 0.0 1.0 
0.0 0.0 1.0 
0.0 0.0 1.0 
0.0 0.0 1.0 
0.0 0.0 1.0 
0.0 0.0 1.0 
0.0 0.0 1.0 
0.0 0.0 1.0 
0.0 0.0 1.0 
0.0 0.0 1.0 
0.0 0.0 1.0 
0.0 0.0 1.0 
0.0 0.0 1.0 
0.0 0.0 1.0 
0.0 0.0 1.0 
0.0 0.0 1.0 
0.0 0.0 1.0 
0.0 0.0 1.0 
Learning : 0.05
Momentum : 0.6000000238418579
Epoch: 100, Error: 0.05010734077598278
Epoch: 200, Error: 0.020354306891077426
Epoch: 300, Error: 0.01659984724219803
Epoch: 400, Error: 0.015151761794923915
Epoch: 500, Error: 0.014358407745119556
Epoch: 600, Error: 0.013869014286594686
Epoch: 700, Error: 0.013457628100916368
Epoch: 800, Error: 0.013226976196973892
Epoch: 900, Error: 0.013078365356994349
Epoch: 1000, Error: 0.01294093438529004
Epoch: 1100, Error: 0.012824861470032563
Epoch: 1200, Error: 0.012754363134390927
Epoch: 1300, Error: 0.012729669125090428
Epoch: 1400, Error: 0.01260201715408954
Epoch: 1500, Error: 0.012580227126853612
Epoch: 1600, Error: 0.012541016019412108
Epoch: 1700, Error: 0.01251075698846121
Epoch: 1800, Error: 0.012530458475733105
Epoch: 1900, Error: 0.01243515134217245
Epoch: 2000, Error: 0.012493009408688319
Epoch: 2100, Error: 0.012459004364119524
Epoch: 2200, Error: 0.012425630592750944
Epoch: 2300, Error: 0.012509470237818204
Epoch: 2400, Error: 0.012426506673222867
Epoch: 2500, Error: 0.012438637018746963
Epoch: 2600, Error: 0.012607756035790247
Epoch: 2700, Error: 0.012511801728992489
Epoch: 2800, Error: 0.012540582031507892
Epoch: 2900, Error: 0.012399875721123632
Epoch: 3000, Error: 0.012415245570469541
Epoch: 3100, Error: 0.012312538958867013
Epoch: 3200, Error: 0.012206790355264535
Epoch: 3300, Error: 0.012143360965862653
Epoch: 3400, Error: 0.01208798808473071
Epoch: 3500, Error: 0.012036902536781028
Epoch: 3600, Error: 0.011960758355828917
Epoch: 3700, Error: 0.011974196382429424
Epoch: 3800, Error: 0.01188818820799128
Epoch: 3900, Error: 0.011851684465597466
Epoch: 4000, Error: 0.011785802534768974
Epoch: 4100, Error: 0.011780658765050515
Epoch: 4200, Error: 0.01175562839306738
Epoch: 4300, Error: 0.011769948088160165
Epoch: 4400, Error: 0.01172904969325975
Epoch: 4500, Error: 0.011721891808164539
Epoch: 4600, Error: 0.011717061583102638
Epoch: 4700, Error: 0.011743968217364092
Epoch: 4800, Error: 0.011705623872470748
Epoch: 4900, Error: 0.011700133416016441
Epoch: 5000, Error: 0.01169876147678233
Epoch: 5100, Error: 0.011706897191451009
Epoch: 5200, Error: 0.011691751132583642
Epoch: 5300, Error: 0.011688453396029993
Epoch: 5400, Error: 0.011723179359708286
Epoch: 5500, Error: 0.01169722464585351
Epoch: 5600, Error: 0.011682940722099721
Epoch: 5700, Error: 0.011669479811950155
Epoch: 5800, Error: 0.011776380477843885
Epoch: 5900, Error: 0.0116686605088102
Epoch: 6000, Error: 0.011785777144096142
Epoch: 6100, Error: 0.011689739304442169
Epoch: 6200, Error: 0.01165186825741574
Epoch: 6300, Error: 0.011719493025786789
Epoch: 6400, Error: 0.011644570737614112
Epoch: 6500, Error: 0.011657196670818043
Epoch: 6600, Error: 0.011633655630445711
Epoch: 6700, Error: 0.011623045009207864
Epoch: 6800, Error: 0.011659689619831496
Epoch: 6900, Error: 0.011621401712756
Epoch: 7000, Error: 0.011660179774988295
Epoch: 7100, Error: 0.011612510462984683
Epoch: 7200, Error: 0.011612111969557486
Epoch: 7300, Error: 0.011615031967784469
Epoch: 7400, Error: 0.011614651310827867
Epoch: 7500, Error: 0.011594284795279231
Epoch: 7600, Error: 0.011648196608683962
Epoch: 7700, Error: 0.011663583192502639
Epoch: 7800, Error: 0.011603249643104694
Epoch: 7900, Error: 0.01158050273444519
Epoch: 8000, Error: 0.011573334854497184
Epoch: 8100, Error: 0.011573351529132601
Epoch: 8200, Error: 0.011575282537255314
Epoch: 8300, Error: 0.011580086717545094
Epoch: 8400, Error: 0.011569927723397906
Epoch: 8500, Error: 0.011562349001449302
Epoch: 8600, Error: 0.011553554010292249
Epoch: 8700, Error: 0.011538925231365842
Epoch: 8800, Error: 0.011634414782649875
Epoch: 8900, Error: 0.011535696210478853
Epoch: 9000, Error: 0.011552494355716172
Epoch: 9100, Error: 0.011613081085670222
Epoch: 9200, Error: 0.011530966870598052
Epoch: 9300, Error: 0.011532811322172721
Epoch: 9400, Error: 0.01151098119652677
Epoch: 9500, Error: 0.011539117957595572
Epoch: 9600, Error: 0.01150018902584973
Epoch: 9700, Error: 0.01149670045490897
Epoch: 9800, Error: 0.011482570451144924
Epoch: 9900, Error: 0.011515416711311417
Epoch: 10000, Error: 0.01148921183904258
Epoch: 10100, Error: 0.011460933454980735
Epoch: 10200, Error: 0.011448483931987928
Epoch: 10300, Error: 0.011442378796938876
Epoch: 10400, Error: 0.011431131530369622
Epoch: 10500, Error: 0.011423826875712714
Epoch: 10600, Error: 0.011447853543311211
Epoch: 10700, Error: 0.011431709637220408
Epoch: 10800, Error: 0.011385031492145084
Epoch: 10900, Error: 0.011378497328144473
Epoch: 11000, Error: 0.01139490682177276
Epoch: 11100, Error: 0.011365958077863727
Epoch: 11200, Error: 0.011357836845978022
Epoch: 11300, Error: 0.011333409715557173
Epoch: 11400, Error: 0.011345491142872696
Epoch: 11500, Error: 0.011303559088544465
Epoch: 11600, Error: 0.011288515012146358
Epoch: 11700, Error: 0.011283618692797617
Epoch: 11800, Error: 0.011263646103592748
Epoch: 11900, Error: 0.011243952636414051
Epoch: 12000, Error: 0.011235953575332603
Epoch: 12100, Error: 0.011212571409994524
Epoch: 12200, Error: 0.011225791159706872
Epoch: 12300, Error: 0.011167908203745754
Epoch: 12400, Error: 0.011147421241080976
Epoch: 12500, Error: 0.011131723043134877
Epoch: 12600, Error: 0.011102517387466385
Epoch: 12700, Error: 0.011092318109552593
Epoch: 12800, Error: 0.011064160767502348
Epoch: 12900, Error: 0.011029122417239497
Epoch: 13000, Error: 0.011004577931732597
Epoch: 13100, Error: 0.011014450043783765
Epoch: 13200, Error: 0.010959205292287234
Epoch: 13300, Error: 0.010939428681972603
Epoch: 13400, Error: 0.010940239346559017
Epoch: 13500, Error: 0.010904684985274277
Epoch: 13600, Error: 0.01084233246189268
Epoch: 13700, Error: 0.01081635470687307
Epoch: 13800, Error: 0.01077656889332033
Epoch: 13900, Error: 0.01077627750046059
Epoch: 14000, Error: 0.010762585969744776
Epoch: 14100, Error: 0.010691931039762438
Epoch: 14200, Error: 0.010638393295301066
Epoch: 14300, Error: 0.010610244734304651
Epoch: 14400, Error: 0.010565216824969668
Epoch: 14500, Error: 0.010550580964183865
Epoch: 14600, Error: 0.010507747812080801
Epoch: 14700, Error: 0.010459665677966254
Epoch: 14800, Error: 0.010413698983516708
Epoch: 14900, Error: 0.010376253358995375
Epoch: 15000, Error: 0.010339382520449329
Epoch: 15100, Error: 0.010315349017056937
Epoch: 15200, Error: 0.01026526516769416
Epoch: 15300, Error: 0.010198868132859971
Epoch: 15400, Error: 0.010151768715711608
Epoch: 15500, Error: 0.010120170283081015
Epoch: 15600, Error: 0.01006373202325407
Epoch: 15700, Error: 0.01004471903064954
Epoch: 15800, Error: 0.009940767675341631
Epoch: 15900, Error: 0.009903532788690628
Epoch: 16000, Error: 0.009839971218312645
Epoch: 16100, Error: 0.009807207742104704
Epoch: 16200, Error: 0.009737174256917388
Epoch: 16300, Error: 0.009677355721411068
Epoch: 16400, Error: 0.009621553157686003
Epoch: 16500, Error: 0.009561944240776537
Epoch: 16600, Error: 0.009506517765079615
Epoch: 16700, Error: 0.009448601328107252
Epoch: 16800, Error: 0.009393557887815577
Epoch: 16900, Error: 0.009345691221974425
Epoch: 17000, Error: 0.009275356479861056
Epoch: 17100, Error: 0.009238122707382567
Epoch: 17200, Error: 0.009173178187680665
Epoch: 17300, Error: 0.009105972808283937
Epoch: 17400, Error: 0.009048946207152573
Epoch: 17500, Error: 0.008985770338612604
Epoch: 17600, Error: 0.008973700465965878
Epoch: 17700, Error: 0.00887699087620324
Epoch: 17800, Error: 0.008818428913515624
Epoch: 17900, Error: 0.008754824610920003
Epoch: 18000, Error: 0.008686288455064587
Epoch: 18100, Error: 0.008619601349972627
Epoch: 18200, Error: 0.008556512669878807
Epoch: 18300, Error: 0.008513689057617126
Epoch: 18400, Error: 0.008438870954945853
Epoch: 18500, Error: 0.00839070402389863
Epoch: 18600, Error: 0.008339878434676498
Epoch: 18700, Error: 0.008269263546972806
Epoch: 18800, Error: 0.008218029830400802
Epoch: 18900, Error: 0.00812644497515865
Epoch: 19000, Error: 0.008060148970271708
Epoch: 19100, Error: 0.007997649894948118
Epoch: 19200, Error: 0.007925850682731408
Epoch: 19300, Error: 0.007870874334171427
Epoch: 19400, Error: 0.007826897520218642
Epoch: 19500, Error: 0.0077628001999652365
Epoch: 19600, Error: 0.007683923350114849
Epoch: 19700, Error: 0.0076312139835805134
Epoch: 19800, Error: 0.007570226980656477
Epoch: 19900, Error: 0.007551668126771823
Epoch: 20000, Error: 0.007512274441629456
Epoch: 20100, Error: 0.007465338474800476
Epoch: 20200, Error: 0.007405855541109541
Epoch: 20300, Error: 0.0073573929821446815
Epoch: 20400, Error: 0.007313925822891325
Epoch: 20500, Error: 0.0072614782887782375
Epoch: 20600, Error: 0.0072244675047772105
Epoch: 20700, Error: 0.007160864399586499
Epoch: 20800, Error: 0.007120855510005823
Epoch: 20900, Error: 0.007083690569841389
Epoch: 21000, Error: 0.007031370396799301
Epoch: 21100, Error: 0.006987282829073974
Epoch: 21200, Error: 0.006949357159079046
Epoch: 21300, Error: 0.00690813344118315
Epoch: 21400, Error: 0.00685829455323201
Epoch: 21500, Error: 0.006820686976365326
Epoch: 21600, Error: 0.0067758200693954
Epoch: 21700, Error: 0.006744258996959707
Epoch: 21800, Error: 0.0067089788892015405
Epoch: 21900, Error: 0.0066723900590534855
Epoch: 22000, Error: 0.0066317256862327145
Epoch: 22100, Error: 0.0065925457641824465
Epoch: 22200, Error: 0.006550941151709553
Epoch: 22300, Error: 0.006521005344870496
Epoch: 22400, Error: 0.006485347589562633
Epoch: 22500, Error: 0.006451292429540255
Epoch: 22600, Error: 0.006417957846371704
Epoch: 22700, Error: 0.0063842420624690265
Epoch: 22800, Error: 0.0063546218465316
Epoch: 22900, Error: 0.006321040554128871
Epoch: 23000, Error: 0.006301747174842179
Epoch: 23100, Error: 0.006274487407791805
Epoch: 23200, Error: 0.006260409358901989
Epoch: 23300, Error: 0.006226584545020546
Epoch: 23400, Error: 0.0061934924269736544
Epoch: 23500, Error: 0.0061722027339779564
Epoch: 23600, Error: 0.0061697389127270885
Epoch: 23700, Error: 0.006116365320128602
Epoch: 23800, Error: 0.006089261533884359
Epoch: 23900, Error: 0.006068447006267762
Epoch: 24000, Error: 0.006052832232826048
Epoch: 24100, Error: 0.006027030511289365
Epoch: 24200, Error: 0.006002893351514718
Epoch: 24300, Error: 0.005994079139657828
Epoch: 24400, Error: 0.005964355574454379
Epoch: 24500, Error: 0.005957556843150349
Epoch: 24600, Error: 0.005936551966609257
Epoch: 24700, Error: 0.0058957128146287265
Epoch: 24800, Error: 0.005878212588247025
Epoch: 24900, Error: 0.005866235497997465
Epoch: 25000, Error: 0.005866882042626362
Epoch: 25100, Error: 0.005824144614825754
Epoch: 25200, Error: 0.005806777894254494
Epoch: 25300, Error: 0.005776618467023239
Epoch: 25400, Error: 0.005761605538195961
Epoch: 25500, Error: 0.005735116006097978
Epoch: 25600, Error: 0.005709381155648405
Epoch: 25700, Error: 0.005715107006600146
Epoch: 25800, Error: 0.005665757870484135
Epoch: 25900, Error: 0.005648693018705959
Epoch: 26000, Error: 0.005635670625881652
Epoch: 26100, Error: 0.005613768435664638
Epoch: 26200, Error: 0.00561396878443801
Epoch: 26300, Error: 0.0055639317494515445
Epoch: 26400, Error: 0.005566754392354292
Epoch: 26500, Error: 0.005534791002586649
Epoch: 26600, Error: 0.005513451065456317
Epoch: 26700, Error: 0.0054980049798964235
Epoch: 26800, Error: 0.005508615251861582
Epoch: 26900, Error: 0.005498551909570272
Epoch: 27000, Error: 0.005468301651921202
Epoch: 27100, Error: 0.005453706484525659
Epoch: 27200, Error: 0.005444328114043236
Epoch: 27300, Error: 0.005412499033366344
Epoch: 27400, Error: 0.005398418810094322
Epoch: 27500, Error: 0.005422553780236309
Epoch: 27600, Error: 0.005362088653488336
Epoch: 27700, Error: 0.005342831388040576
Epoch: 27800, Error: 0.005313834659378883
Epoch: 27900, Error: 0.0053012112265829695
Epoch: 28000, Error: 0.005271824188392165
Epoch: 28100, Error: 0.005242724709392264
Epoch: 28200, Error: 0.005255128718119218
Epoch: 28300, Error: 0.0051607971152720445
Epoch: 28400, Error: 0.005141200075980444
Epoch: 28500, Error: 0.005139869002032166
Epoch: 28600, Error: 0.005110205453261068
Epoch: 28700, Error: 0.005091533812214354
Epoch: 28800, Error: 0.0050974285444721976
Epoch: 28900, Error: 0.005066549023108932
Epoch: 29000, Error: 0.005049302618889667
Epoch: 29100, Error: 0.005147143179301439
Epoch: 29200, Error: 0.005135525599304576
Epoch: 29300, Error: 0.005044624397322734
Epoch: 29400, Error: 0.005033317681014004
Epoch: 29500, Error: 0.005022843755300113
Epoch: 29600, Error: 0.005000343218138126
Epoch: 29700, Error: 0.004990691834414177
Epoch: 29800, Error: 0.004973326470075872
Epoch: 29900, Error: 0.004965561514391816
Epoch: 30000, Error: 0.004996498724983968
Epoch: 30100, Error: 0.0049661416257896565
Epoch: 30200, Error: 0.005035877965899648
Epoch: 30300, Error: 0.004991799063001034
Epoch: 30400, Error: 0.00503542390297909
Finished
