Input Patterns
0.224 0.624 0.067 0.043 
0.11 0.502 0.051 0.043 
0.196 0.667 0.067 0.043 
0.055 0.584 0.067 0.082 
0.027 0.376 0.067 0.043 
0.306 0.71 0.086 0.043 
0.137 0.416 0.067 0.0 
0.416 0.831 0.035 0.043 
0.306 0.792 0.051 0.125 
0.388 0.749 0.118 0.082 
0.306 0.584 0.118 0.043 
0.082 0.667 0.0 0.043 
0.137 0.584 0.153 0.043 
0.196 0.584 0.102 0.125 
0.251 0.584 0.067 0.043 
0.137 0.459 0.102 0.043 
0.251 0.875 0.086 0.0 
0.165 0.459 0.086 0.043 
0.333 0.624 0.051 0.043 
0.027 0.416 0.051 0.043 
0.196 0.624 0.051 0.082 
0.027 0.502 0.051 0.043 
0.224 0.749 0.153 0.125 
0.224 0.749 0.102 0.043 
0.278 0.71 0.086 0.043 
0.165 0.416 0.067 0.043 
0.082 0.459 0.086 0.043 
0.306 0.792 0.118 0.125 
0.196 0.584 0.086 0.043 
0.165 0.459 0.086 0.0 
0.137 0.584 0.102 0.043 
0.0 0.416 0.016 0.0 
0.388 1.0 0.086 0.125 
0.224 0.624 0.067 0.082 
0.224 0.749 0.086 0.082 
0.224 0.71 0.086 0.125 
0.224 0.541 0.118 0.165 
0.196 0.416 0.102 0.043 
0.251 0.624 0.086 0.043 
0.11 0.502 0.102 0.043 
0.306 0.584 0.086 0.125 
0.333 0.918 0.067 0.043 
0.196 0.502 0.035 0.043 
0.165 0.667 0.067 0.0 
0.224 0.584 0.086 0.043 
0.055 0.125 0.051 0.082 
0.196 0.624 0.102 0.208 
0.137 0.416 0.067 0.082 
0.082 0.502 0.067 0.043 
0.196 0.541 0.067 0.043 
0.749 0.502 0.627 0.541 
0.722 0.459 0.663 0.584 
0.612 0.333 0.612 0.584 
0.557 0.541 0.627 0.624 
0.639 0.376 0.612 0.498 
0.196 0.0 0.424 0.376 
0.471 0.082 0.51 0.376 
0.361 0.376 0.439 0.498 
0.361 0.416 0.592 0.584 
0.529 0.082 0.592 0.584 
0.443 0.502 0.643 0.459 
0.557 0.208 0.663 0.584 
0.584 0.376 0.561 0.498 
0.694 0.333 0.643 0.541 
0.471 0.376 0.592 0.584 
0.333 0.169 0.475 0.416 
0.416 0.29 0.49 0.459 
0.306 0.416 0.592 0.584 
0.667 0.459 0.627 0.584 
0.361 0.416 0.525 0.498 
0.333 0.251 0.576 0.459 
0.416 0.251 0.51 0.459 
0.361 0.29 0.541 0.498 
0.388 0.376 0.541 0.498 
0.224 0.208 0.337 0.416 
0.584 0.502 0.592 0.584 
0.333 0.125 0.51 0.498 
0.388 0.333 0.592 0.498 
0.165 0.169 0.388 0.376 
0.251 0.29 0.49 0.541 
0.443 0.416 0.541 0.584 
0.498 0.376 0.627 0.541 
0.667 0.459 0.576 0.541 
0.416 0.29 0.525 0.376 
0.361 0.208 0.49 0.416 
0.498 0.333 0.51 0.498 
0.498 0.333 0.627 0.459 
0.639 0.416 0.576 0.541 
0.667 0.416 0.678 0.667 
0.388 0.251 0.424 0.376 
0.333 0.169 0.459 0.376 
0.471 0.29 0.694 0.624 
0.471 0.584 0.592 0.624 
0.557 0.125 0.576 0.498 
0.333 0.208 0.51 0.498 
0.498 0.416 0.612 0.541 
0.196 0.125 0.388 0.376 
0.388 0.416 0.541 0.459 
0.529 0.376 0.561 0.498 
0.388 0.333 0.525 0.498 
0.557 0.541 0.847 1.0 
0.776 0.416 0.831 0.831 
0.612 0.416 0.812 0.875 
0.165 0.208 0.592 0.667 
0.667 0.208 0.812 0.71 
0.612 0.502 0.694 0.792 
0.694 0.416 0.761 0.831 
0.416 0.333 0.694 0.957 
0.612 0.416 0.761 0.71 
0.945 0.251 1.0 0.918 
0.722 0.502 0.796 0.918 
0.945 0.333 0.965 0.792 
0.667 0.541 0.796 0.831 
0.529 0.333 0.643 0.71 
0.584 0.333 0.78 0.831 
0.863 0.333 0.863 0.749 
0.584 0.333 0.78 0.875 
0.498 0.251 0.78 0.541 
0.557 0.584 0.78 0.957 
0.471 0.416 0.643 0.71 
0.667 0.459 0.78 0.957 
0.416 0.29 0.694 0.749 
0.667 0.541 0.796 1.0 
0.557 0.208 0.678 0.749 
0.529 0.584 0.745 0.918 
0.416 0.29 0.694 0.749 
0.557 0.376 0.78 0.71 
0.918 0.416 0.949 0.831 
0.835 0.376 0.898 0.71 
0.804 0.667 0.863 1.0 
0.584 0.29 0.729 0.749 
0.388 0.208 0.678 0.792 
0.584 0.502 0.729 0.918 
0.945 0.749 0.965 0.875 
0.471 0.082 0.678 0.584 
0.361 0.333 0.663 0.792 
0.557 0.29 0.663 0.71 
0.804 0.502 0.847 0.71 
0.498 0.416 0.51 0.71 
0.804 0.416 0.812 0.624 
1.0 0.749 0.914 0.792 
0.557 0.333 0.694 0.584 
0.945 0.416 0.863 0.918 
0.584 0.459 0.761 0.71 
0.722 0.459 0.745 0.831 
0.722 0.459 0.694 0.918 
0.694 0.502 0.831 0.918 
0.667 0.416 0.714 0.918 
0.612 0.416 0.714 0.792 
0.443 0.416 0.694 0.71 
Teaching Patterns
1.0 0.0 0.0 
1.0 0.0 0.0 
1.0 0.0 0.0 
1.0 0.0 0.0 
1.0 0.0 0.0 
1.0 0.0 0.0 
1.0 0.0 0.0 
1.0 0.0 0.0 
1.0 0.0 0.0 
1.0 0.0 0.0 
1.0 0.0 0.0 
1.0 0.0 0.0 
1.0 0.0 0.0 
1.0 0.0 0.0 
1.0 0.0 0.0 
1.0 0.0 0.0 
1.0 0.0 0.0 
1.0 0.0 0.0 
1.0 0.0 0.0 
1.0 0.0 0.0 
1.0 0.0 0.0 
1.0 0.0 0.0 
1.0 0.0 0.0 
1.0 0.0 0.0 
1.0 0.0 0.0 
1.0 0.0 0.0 
1.0 0.0 0.0 
1.0 0.0 0.0 
1.0 0.0 0.0 
1.0 0.0 0.0 
1.0 0.0 0.0 
1.0 0.0 0.0 
1.0 0.0 0.0 
1.0 0.0 0.0 
1.0 0.0 0.0 
1.0 0.0 0.0 
1.0 0.0 0.0 
1.0 0.0 0.0 
1.0 0.0 0.0 
1.0 0.0 0.0 
1.0 0.0 0.0 
1.0 0.0 0.0 
1.0 0.0 0.0 
1.0 0.0 0.0 
1.0 0.0 0.0 
1.0 0.0 0.0 
1.0 0.0 0.0 
1.0 0.0 0.0 
1.0 0.0 0.0 
1.0 0.0 0.0 
0.0 1.0 0.0 
0.0 1.0 0.0 
0.0 1.0 0.0 
0.0 1.0 0.0 
0.0 1.0 0.0 
0.0 1.0 0.0 
0.0 1.0 0.0 
0.0 1.0 0.0 
0.0 1.0 0.0 
0.0 1.0 0.0 
0.0 1.0 0.0 
0.0 1.0 0.0 
0.0 1.0 0.0 
0.0 1.0 0.0 
0.0 1.0 0.0 
0.0 1.0 0.0 
0.0 1.0 0.0 
0.0 1.0 0.0 
0.0 1.0 0.0 
0.0 1.0 0.0 
0.0 1.0 0.0 
0.0 1.0 0.0 
0.0 1.0 0.0 
0.0 1.0 0.0 
0.0 1.0 0.0 
0.0 1.0 0.0 
0.0 1.0 0.0 
0.0 1.0 0.0 
0.0 1.0 0.0 
0.0 1.0 0.0 
0.0 1.0 0.0 
0.0 1.0 0.0 
0.0 1.0 0.0 
0.0 1.0 0.0 
0.0 1.0 0.0 
0.0 1.0 0.0 
0.0 1.0 0.0 
0.0 1.0 0.0 
0.0 1.0 0.0 
0.0 1.0 0.0 
0.0 1.0 0.0 
0.0 1.0 0.0 
0.0 1.0 0.0 
0.0 1.0 0.0 
0.0 1.0 0.0 
0.0 1.0 0.0 
0.0 1.0 0.0 
0.0 1.0 0.0 
0.0 1.0 0.0 
0.0 1.0 0.0 
0.0 0.0 1.0 
0.0 0.0 1.0 
0.0 0.0 1.0 
0.0 0.0 1.0 
0.0 0.0 1.0 
0.0 0.0 1.0 
0.0 0.0 1.0 
0.0 0.0 1.0 
0.0 0.0 1.0 
0.0 0.0 1.0 
0.0 0.0 1.0 
0.0 0.0 1.0 
0.0 0.0 1.0 
0.0 0.0 1.0 
0.0 0.0 1.0 
0.0 0.0 1.0 
0.0 0.0 1.0 
0.0 0.0 1.0 
0.0 0.0 1.0 
0.0 0.0 1.0 
0.0 0.0 1.0 
0.0 0.0 1.0 
0.0 0.0 1.0 
0.0 0.0 1.0 
0.0 0.0 1.0 
0.0 0.0 1.0 
0.0 0.0 1.0 
0.0 0.0 1.0 
0.0 0.0 1.0 
0.0 0.0 1.0 
0.0 0.0 1.0 
0.0 0.0 1.0 
0.0 0.0 1.0 
0.0 0.0 1.0 
0.0 0.0 1.0 
0.0 0.0 1.0 
0.0 0.0 1.0 
0.0 0.0 1.0 
0.0 0.0 1.0 
0.0 0.0 1.0 
0.0 0.0 1.0 
0.0 0.0 1.0 
0.0 0.0 1.0 
0.0 0.0 1.0 
0.0 0.0 1.0 
0.0 0.0 1.0 
0.0 0.0 1.0 
0.0 0.0 1.0 
0.0 0.0 1.0 
0.0 0.0 1.0 
Learning : 0.05
Momentum : 0.6000000238418579
Epoch: 100, Error: 0.05062084762026734
Epoch: 200, Error: 0.020305936800480564
Epoch: 300, Error: 0.016334354277094787
Epoch: 400, Error: 0.014867654982422483
Epoch: 500, Error: 0.013965273785974192
Epoch: 600, Error: 0.014197463448675498
Epoch: 700, Error: 0.013116889148932177
Epoch: 800, Error: 0.012843712313421886
Epoch: 900, Error: 0.012696195972444917
Epoch: 1000, Error: 0.01261834521909782
Epoch: 1100, Error: 0.012514422788385243
Epoch: 1200, Error: 0.01242425043735597
Epoch: 1300, Error: 0.012307882908133802
Epoch: 1400, Error: 0.012198969118616817
Epoch: 1500, Error: 0.012198978121577017
Epoch: 1600, Error: 0.012118132541589945
Epoch: 1700, Error: 0.012116285891076207
Epoch: 1800, Error: 0.012127672946511351
Epoch: 1900, Error: 0.012107449440194328
Epoch: 2000, Error: 0.012047909306678713
Epoch: 2100, Error: 0.012028247838143907
Epoch: 2200, Error: 0.012023156889331544
Epoch: 2300, Error: 0.012000974974333632
Epoch: 2400, Error: 0.011974755303889759
Epoch: 2500, Error: 0.01200017603774684
Epoch: 2600, Error: 0.012012886941745226
Epoch: 2700, Error: 0.011994106569799965
Epoch: 2800, Error: 0.012198242668095697
Epoch: 2900, Error: 0.011938677318795523
Epoch: 3000, Error: 0.011920370374528673
Epoch: 3100, Error: 0.012116977719332775
Epoch: 3200, Error: 0.011939655468319037
Epoch: 3300, Error: 0.011927706694824253
Epoch: 3400, Error: 0.011905029102144317
Epoch: 3500, Error: 0.011896035316682606
Epoch: 3600, Error: 0.011915051321546891
Epoch: 3700, Error: 0.011854782637451624
Epoch: 3800, Error: 0.011964198906381613
Epoch: 3900, Error: 0.011880325174325431
Epoch: 4000, Error: 0.011853175304429983
Epoch: 4100, Error: 0.011863051948325194
Epoch: 4200, Error: 0.011907779504787264
Epoch: 4300, Error: 0.011924474319512815
Epoch: 4400, Error: 0.011896532479747606
Epoch: 4500, Error: 0.011917620745078402
Epoch: 4600, Error: 0.011987659354833901
Epoch: 4700, Error: 0.011850269402550653
Epoch: 4800, Error: 0.011873259664169439
Epoch: 4900, Error: 0.011832446694403078
Epoch: 5000, Error: 0.011898781762758165
Epoch: 5100, Error: 0.01182394290320557
Epoch: 5200, Error: 0.011829344917292617
Epoch: 5300, Error: 0.011784719020923389
Epoch: 5400, Error: 0.011770744030300888
Epoch: 5500, Error: 0.0117625312498148
Epoch: 5600, Error: 0.011796715737325353
Epoch: 5700, Error: 0.01177359029080009
Epoch: 5800, Error: 0.011844915397742706
Epoch: 5900, Error: 0.011788828096930718
Epoch: 6000, Error: 0.011801758707171012
Epoch: 6100, Error: 0.011913597035048623
Epoch: 6200, Error: 0.011781385306257561
Epoch: 6300, Error: 0.01177027449985722
Epoch: 6400, Error: 0.011740478895420254
Epoch: 6500, Error: 0.01177684940314364
Epoch: 6600, Error: 0.011699547536547224
Epoch: 6700, Error: 0.011700750084606531
Epoch: 6800, Error: 0.011685882118494275
Epoch: 6900, Error: 0.011707651570854712
Epoch: 7000, Error: 0.011686329068499281
Epoch: 7100, Error: 0.011651020491079687
Epoch: 7200, Error: 0.011612885166443465
Epoch: 7300, Error: 0.011675016168678776
Epoch: 7400, Error: 0.011615594442166203
Epoch: 7500, Error: 0.01160016195262688
Epoch: 7600, Error: 0.011579830430427492
Epoch: 7700, Error: 0.0115300104290707
Epoch: 7800, Error: 0.011514803144406473
Epoch: 7900, Error: 0.011457791812527127
Epoch: 8000, Error: 0.01158095943298725
Epoch: 8100, Error: 0.0114004065012873
Epoch: 8200, Error: 0.011451380988866531
Epoch: 8300, Error: 0.01142690400476775
Epoch: 8400, Error: 0.011502651159389093
Epoch: 8500, Error: 0.011312226214709897
Epoch: 8600, Error: 0.011303971629344696
Epoch: 8700, Error: 0.011209019558974362
Epoch: 8800, Error: 0.011207560340417136
Epoch: 8900, Error: 0.011140046836527136
Epoch: 9000, Error: 0.011100479453254368
Epoch: 9100, Error: 0.011065167336376816
Epoch: 9200, Error: 0.0109986614597796
Epoch: 9300, Error: 0.010961909094449515
Epoch: 9400, Error: 0.010891774504532766
Epoch: 9500, Error: 0.010919510781665696
Epoch: 9600, Error: 0.010832064567246056
Epoch: 9700, Error: 0.010769173299864713
Epoch: 9800, Error: 0.010695835010056408
Epoch: 9900, Error: 0.010661891642278534
Epoch: 10000, Error: 0.010598446642879455
Epoch: 10100, Error: 0.010576464906396571
Epoch: 10200, Error: 0.010577718939418265
Epoch: 10300, Error: 0.010426340276773582
Epoch: 10400, Error: 0.010341833174618393
Epoch: 10500, Error: 0.010304494227832866
Epoch: 10600, Error: 0.010210555281169143
Epoch: 10700, Error: 0.01015631385085564
Epoch: 10800, Error: 0.010090188361011991
Epoch: 10900, Error: 0.010054220726410183
Epoch: 11000, Error: 0.010050469667556688
Epoch: 11100, Error: 0.009888129934824182
Epoch: 11200, Error: 0.009846413338340854
Epoch: 11300, Error: 0.009793252179819665
Epoch: 11400, Error: 0.009641348039622506
Epoch: 11500, Error: 0.009551988226576701
Epoch: 11600, Error: 0.009465560976533062
Epoch: 11700, Error: 0.009366404076800337
Epoch: 11800, Error: 0.009301678704069902
Epoch: 11900, Error: 0.009203946256756614
Epoch: 12000, Error: 0.00911060877830133
Epoch: 12100, Error: 0.009007120189769903
Epoch: 12200, Error: 0.008937049455465723
Epoch: 12300, Error: 0.008823047283533048
Epoch: 12400, Error: 0.008822018433259762
Epoch: 12500, Error: 0.008700388188063816
Epoch: 12600, Error: 0.00856377560523093
Epoch: 12700, Error: 0.008435787744320796
Epoch: 12800, Error: 0.00834573490541114
Epoch: 12900, Error: 0.008269765040803423
Epoch: 13000, Error: 0.008170562978085674
Epoch: 13100, Error: 0.008049158804632453
Epoch: 13200, Error: 0.008053956018599661
Epoch: 13300, Error: 0.00784570131387969
Epoch: 13400, Error: 0.007747833966055024
Epoch: 13500, Error: 0.0076419536893301086
Epoch: 13600, Error: 0.007541853006160515
Epoch: 13700, Error: 0.007503234092976114
Epoch: 13800, Error: 0.0074287367073759035
Epoch: 13900, Error: 0.0073079746025034534
Epoch: 14000, Error: 0.007220543573414583
Epoch: 14100, Error: 0.007141886083503124
Epoch: 14200, Error: 0.007068924291211557
Epoch: 14300, Error: 0.007000211895086028
Epoch: 14400, Error: 0.006890902211321848
Epoch: 14500, Error: 0.006834676643512892
Epoch: 14600, Error: 0.006739407101789147
Epoch: 14700, Error: 0.006660162982714508
Epoch: 14800, Error: 0.006582638536421016
Epoch: 14900, Error: 0.0065246988791271485
Epoch: 15000, Error: 0.00645434938821699
Epoch: 15100, Error: 0.006407346165533171
Epoch: 15200, Error: 0.0063580175625138615
Epoch: 15300, Error: 0.006298059691094725
Epoch: 15400, Error: 0.006259785087910753
Epoch: 15500, Error: 0.006216581930291005
Epoch: 15600, Error: 0.006167578366343608
Epoch: 15700, Error: 0.006132733439245316
Epoch: 15800, Error: 0.006102637940945808
Epoch: 15900, Error: 0.006057585334724592
Epoch: 16000, Error: 0.0060277046361211775
Epoch: 16100, Error: 0.005981033832722417
Epoch: 16200, Error: 0.0059594047243672135
Epoch: 16300, Error: 0.005916954230455189
Epoch: 16400, Error: 0.005881751483662334
Epoch: 16500, Error: 0.005857042980314564
Epoch: 16600, Error: 0.005844043708158737
Epoch: 16700, Error: 0.005796591244908026
Epoch: 16800, Error: 0.005769292088404483
Epoch: 16900, Error: 0.0057452418849092005
Epoch: 17000, Error: 0.0057242783539185405
Epoch: 17100, Error: 0.0056982723092894195
Epoch: 17200, Error: 0.005691274349030393
Epoch: 17300, Error: 0.005642902972324379
Epoch: 17400, Error: 0.0056285076615731405
Epoch: 17500, Error: 0.0056232570172661586
Epoch: 17600, Error: 0.0056028898379631474
Epoch: 17700, Error: 0.005566054184758412
Epoch: 17800, Error: 0.0055486757533452615
Epoch: 17900, Error: 0.0055257878453016775
Epoch: 18000, Error: 0.005505522940112552
Epoch: 18100, Error: 0.005479489001867215
Epoch: 18200, Error: 0.0054585608769843665
Epoch: 18300, Error: 0.005446678780736602
Epoch: 18400, Error: 0.005446660155137456
Epoch: 18500, Error: 0.005412759635633646
Epoch: 18600, Error: 0.0054055014096663695
Epoch: 18700, Error: 0.005365848240313855
Epoch: 18800, Error: 0.00534651238500466
Epoch: 18900, Error: 0.0053261055784578374
Epoch: 19000, Error: 0.005322901247013263
Epoch: 19100, Error: 0.005289441690411294
Epoch: 19200, Error: 0.00529621347260699
Epoch: 19300, Error: 0.0052749964649976624
Epoch: 19400, Error: 0.005245505357854584
Epoch: 19500, Error: 0.005219440886306905
Epoch: 19600, Error: 0.005201687387081992
Epoch: 19700, Error: 0.00517935165992205
Epoch: 19800, Error: 0.005170292660225027
Epoch: 19900, Error: 0.00516214847951235
Epoch: 20000, Error: 0.005136894274528437
Epoch: 20100, Error: 0.005116929642468246
Epoch: 20200, Error: 0.005096079785415041
Epoch: 20300, Error: 0.005077618146039986
Epoch: 20400, Error: 0.005072393880083374
Epoch: 20500, Error: 0.00508032590974401
Epoch: 20600, Error: 0.005035067577730432
Epoch: 20700, Error: 0.0050188420964851965
Epoch: 20800, Error: 0.004994630531364197
Epoch: 20900, Error: 0.0049783257090100915
Epoch: 21000, Error: 0.0049520746959243155
Epoch: 21100, Error: 0.004930722086674223
Epoch: 21200, Error: 0.0049412015339491315
Epoch: 21300, Error: 0.004902687332337302
Epoch: 21400, Error: 0.004888081809051445
Epoch: 21500, Error: 0.004864352157471415
Epoch: 21600, Error: 0.004837074060722691
Epoch: 21700, Error: 0.004830665215719301
Epoch: 21800, Error: 0.004859473618874095
Epoch: 21900, Error: 0.0047714468226243935
Epoch: 22000, Error: 0.004734224806659548
Epoch: 22100, Error: 0.0047026507226543765
Epoch: 22200, Error: 0.0046889573053724674
Epoch: 22300, Error: 0.00467184181077694
Epoch: 22400, Error: 0.0046413664586947845
Epoch: 22500, Error: 0.004609974687778187
Epoch: 22600, Error: 0.004586730078300566
Epoch: 22700, Error: 0.004551374628291994
Epoch: 22800, Error: 0.004520540753265722
Epoch: 22900, Error: 0.004476842037531357
Epoch: 23000, Error: 0.004456610628559502
Epoch: 23100, Error: 0.00444117809100675
Epoch: 23200, Error: 0.004417645768680486
Epoch: 23300, Error: 0.004387282657502714
Epoch: 23400, Error: 0.004385623739222359
Epoch: 23500, Error: 0.004342038581293753
Epoch: 23600, Error: 0.0043009401605560915
Epoch: 23700, Error: 0.004260073706497561
Epoch: 23800, Error: 0.004261347848856093
Epoch: 23900, Error: 0.004322863074822782
Epoch: 24000, Error: 0.004211085418372787
Epoch: 24100, Error: 0.004162782855747663
Epoch: 24200, Error: 0.00413657413707792
Epoch: 24300, Error: 0.004128100075423219
Epoch: 24400, Error: 0.004096314515857166
Epoch: 24500, Error: 0.004079188622318569
Epoch: 24600, Error: 0.00409592215010536
Epoch: 24700, Error: 0.004018491282485965
Epoch: 24800, Error: 0.004008455208207167
Epoch: 24900, Error: 0.0039870719649693215
Epoch: 25000, Error: 0.003965913027532808
Epoch: 25100, Error: 0.003960993269743764
Epoch: 25200, Error: 0.003954174601720417
Epoch: 25300, Error: 0.003904789176058389
Epoch: 25400, Error: 0.003894171580252185
Epoch: 25500, Error: 0.0038702948673487838
Epoch: 25600, Error: 0.003830521269628385
Epoch: 25700, Error: 0.0038628173555538313
Epoch: 25800, Error: 0.0037731848078965927
Epoch: 25900, Error: 0.003765502626955618
Epoch: 26000, Error: 0.0037341486024145493
Epoch: 26100, Error: 0.003716566494592988
Epoch: 26200, Error: 0.003682223570544696
Epoch: 26300, Error: 0.003657641665316221
Epoch: 26400, Error: 0.003642078105304768
Epoch: 26500, Error: 0.003628273389725871
Epoch: 26600, Error: 0.0036210829355356796
Epoch: 26700, Error: 0.0036150163122413976
Epoch: 26800, Error: 0.003548911640421592
Epoch: 26900, Error: 0.0035490109035458102
Epoch: 27000, Error: 0.0035429011752931908
Epoch: 27100, Error: 0.0034974091799663052
Epoch: 27200, Error: 0.003514110693134583
Epoch: 27300, Error: 0.0034525526733675165
Epoch: 27400, Error: 0.003463002262855966
Epoch: 27500, Error: 0.00343846073145231
Epoch: 27600, Error: 0.003387562669173895
Epoch: 27700, Error: 0.0033721854144668374
Epoch: 27800, Error: 0.003499970581305656
Epoch: 27900, Error: 0.0034462333246832663
Epoch: 28000, Error: 0.003409047853226259
Epoch: 28100, Error: 0.0033158785066697842
Epoch: 28200, Error: 0.0032734332854363643
Epoch: 28300, Error: 0.0032992286260284873
Epoch: 28400, Error: 0.0032450999787560515
Epoch: 28500, Error: 0.0031857601667568455
Epoch: 28600, Error: 0.0032934656090467165
Epoch: 28700, Error: 0.0031790211507208383
Epoch: 28800, Error: 0.003131556201516108
Epoch: 28900, Error: 0.003100581432747222
Epoch: 29000, Error: 0.0030716782348912527
Epoch: 29100, Error: 0.003083216960451974
Epoch: 29200, Error: 0.003030662861756091
Epoch: 29300, Error: 0.0031062111000932286
Epoch: 29400, Error: 0.0029880893477618794
Epoch: 29500, Error: 0.0030041304738934967
Epoch: 29600, Error: 0.002952657317648102
Epoch: 29700, Error: 0.0029284458283515345
Epoch: 29800, Error: 0.002933510920745254
Epoch: 29900, Error: 0.0029328322227462947
Epoch: 30000, Error: 0.002904341398930599
Epoch: 30100, Error: 0.002861768595855823
Epoch: 30200, Error: 0.002884440972161011
Epoch: 30300, Error: 0.00280156288041478
Epoch: 30400, Error: 0.00278408810199732
Epoch: 30500, Error: 0.0027656584644941682
Epoch: 30600, Error: 0.0027511405645186298
Epoch: 30700, Error: 0.00278909761515065
Epoch: 30800, Error: 0.0027259007540968603
Epoch: 30900, Error: 0.0027278483225085413
Epoch: 31000, Error: 0.0027361627599807523
Epoch: 31100, Error: 0.0026999951295432765
Epoch: 31200, Error: 0.0026313497482145986
Epoch: 31300, Error: 0.0030416720158776295
Epoch: 31400, Error: 0.002611398692649495
Epoch: 31500, Error: 0.002579941499526097
Epoch: 31600, Error: 0.00261780007203978
Epoch: 31700, Error: 0.0025368968499791416
Epoch: 31800, Error: 0.002517298462317969
Epoch: 31900, Error: 0.0025445265639386337
Epoch: 32000, Error: 0.0025607087343595364
Epoch: 32100, Error: 0.002476545688962018
Epoch: 32200, Error: 0.0024773335631109385
Epoch: 32300, Error: 0.0024230939762424912
Epoch: 32400, Error: 0.0024736093594126185
Epoch: 32500, Error: 0.002396708188392231
Epoch: 32600, Error: 0.002360313792280302
Epoch: 32700, Error: 0.0023872809134223767
Epoch: 32800, Error: 0.002399798467611291
Epoch: 32900, Error: 0.002346434220580873
Epoch: 33000, Error: 0.0023216237845103717
Epoch: 33100, Error: 0.0022825361252251644
Epoch: 33200, Error: 0.002377854447178771
Epoch: 33300, Error: 0.002241996442802964
Epoch: 33400, Error: 0.0022283359901043628
Epoch: 33500, Error: 0.0022225135337008914
Epoch: 33600, Error: 0.002224068787495054
Epoch: 33700, Error: 0.002320020197750822
Epoch: 33800, Error: 0.0021732919474514887
Epoch: 33900, Error: 0.0021861198207717655
Epoch: 34000, Error: 0.0021368743758241795
Epoch: 34100, Error: 0.0021767714227811353
Epoch: 34200, Error: 0.002572195507066441
Epoch: 34300, Error: 0.002111268198112011
Epoch: 34400, Error: 0.002098531375005595
Epoch: 34500, Error: 0.0020794389816583985
Epoch: 34600, Error: 0.002123992501669542
Epoch: 34700, Error: 0.0020725108351600436
Epoch: 34800, Error: 0.002081414796918341
Epoch: 34900, Error: 0.002131618176271782
Epoch: 35000, Error: 0.002062521870669693
Epoch: 35100, Error: 0.0020039605973535203
Epoch: 35200, Error: 0.0021069225388745307
Epoch: 35300, Error: 0.0019963091408881626
Epoch: 35400, Error: 0.0019650170481707325
Epoch: 35500, Error: 0.001987421375585946
Epoch: 35600, Error: 0.001948565125717945
Epoch: 35700, Error: 0.002013092880850717
Epoch: 35800, Error: 0.0019702669042389147
Epoch: 35900, Error: 0.0019060107370492323
Epoch: 36000, Error: 0.0019143619163618658
Epoch: 36100, Error: 0.0018947600460895038
Epoch: 36200, Error: 0.0018838440228066467
Epoch: 36300, Error: 0.001881536582874179
Epoch: 36400, Error: 0.001851156683791254
Epoch: 36500, Error: 0.0018422307052767626
Epoch: 36600, Error: 0.0018676449651307365
Epoch: 36700, Error: 0.001810524633205498
Epoch: 36800, Error: 0.0018055346857036103
Epoch: 36900, Error: 0.001810130267575076
Epoch: 37000, Error: 0.0017725371717075198
Epoch: 37100, Error: 0.001847092928309575
Epoch: 37200, Error: 0.0018036615926010663
Epoch: 37300, Error: 0.001774330347288528
Epoch: 37400, Error: 0.0017621504803948327
Epoch: 37500, Error: 0.0017416030763732055
Epoch: 37600, Error: 0.001731694920225515
Epoch: 37700, Error: 0.0017475825125883818
Epoch: 37800, Error: 0.0017285296556283306
Epoch: 37900, Error: 0.0017264127730510425
Epoch: 38000, Error: 0.0017288938906361545
Epoch: 38100, Error: 0.001737679442322531
Epoch: 38200, Error: 0.0016807777402674628
Epoch: 38300, Error: 0.0016773039072435396
Epoch: 38400, Error: 0.0016442203641182191
Epoch: 38500, Error: 0.0017082165933579624
Epoch: 38600, Error: 0.0017124718202684147
Epoch: 38700, Error: 0.001626608252990733
Epoch: 38800, Error: 0.0016240431970893632
Epoch: 38900, Error: 0.0018433316994275395
Epoch: 39000, Error: 0.0016034714673184153
Epoch: 39100, Error: 0.0016370914621438386
Epoch: 39200, Error: 0.0016189048129764529
Epoch: 39300, Error: 0.001626942783720229
Epoch: 39400, Error: 0.0016047794832918956
Epoch: 39500, Error: 0.0016095978551978873
Epoch: 39600, Error: 0.0016098466592379254
Epoch: 39700, Error: 0.0015594664577823158
Epoch: 39800, Error: 0.0015465737464536021
Epoch: 39900, Error: 0.001567012033580645
Epoch: 40000, Error: 0.0015209082201117084
Epoch: 40100, Error: 0.001515984892009169
Epoch: 40200, Error: 0.0015629557064666334
Epoch: 40300, Error: 0.0015021806274207303
Epoch: 40400, Error: 0.001499821005119686
Epoch: 40500, Error: 0.0014905037018742556
Epoch: 40600, Error: 0.0015009656365311149
Epoch: 40700, Error: 0.0014964318702884276
Epoch: 40800, Error: 0.0015076135828923155
Epoch: 40900, Error: 0.0015061657500246035
Epoch: 41000, Error: 0.0014665580141056754
Epoch: 41100, Error: 0.0014766473421096524
Epoch: 41200, Error: 0.001455374770196282
Epoch: 41300, Error: 0.001480517950315085
Epoch: 41400, Error: 0.0014568665891193412
Epoch: 41500, Error: 0.0014607917724529685
Epoch: 41600, Error: 0.00148404290157244
Epoch: 41700, Error: 0.0014589475139790596
Epoch: 41800, Error: 0.0014338739555197393
Epoch: 41900, Error: 0.001436586827080266
Epoch: 42000, Error: 0.0014232132985051132
Epoch: 42100, Error: 0.0014316968818308545
Epoch: 42200, Error: 0.0014486317017399154
Epoch: 42300, Error: 0.0014217010543031458
Epoch: 42400, Error: 0.0014188711320290827
Epoch: 42500, Error: 0.0014355978800762912
Epoch: 42600, Error: 0.0013977849357388204
Epoch: 42700, Error: 0.0014210057739732923
Epoch: 42800, Error: 0.0014501615182012496
Epoch: 42900, Error: 0.001421728831624383
Epoch: 43000, Error: 0.001407030369663566
Epoch: 43100, Error: 0.0014032837287253847
Epoch: 43200, Error: 0.0014528858686082267
Epoch: 43300, Error: 0.0014329771149607835
Epoch: 43400, Error: 0.0013991430127142878
Epoch: 43500, Error: 0.0014436005313491686
Epoch: 43600, Error: 0.001410709202734601
Epoch: 43700, Error: 0.0013938180644440807
Epoch: 43800, Error: 0.001432615739905656
Epoch: 43900, Error: 0.0014096623406674319
Epoch: 44000, Error: 0.0014190153354508835
Epoch: 44100, Error: 0.0014425103410633142
Epoch: 44200, Error: 0.0014079942151261208
Epoch: 44300, Error: 0.0014225867452669998
Epoch: 44400, Error: 0.0014050529241531676
Epoch: 44500, Error: 0.0014087582888022455
Epoch: 44600, Error: 0.001404323392386866
Epoch: 44700, Error: 0.0013986704802875672
Epoch: 44800, Error: 0.001396947304865452
Epoch: 44900, Error: 0.0014017153866788662
Epoch: 45000, Error: 0.0013968413244580644
Epoch: 45100, Error: 0.0014277731360126742
Epoch: 45200, Error: 0.0014007802781543853
Epoch: 45300, Error: 0.0014028016938482024
Epoch: 45400, Error: 0.0013944772499721628
Epoch: 45500, Error: 0.001389568278830114
Epoch: 45600, Error: 0.0014074942525093286
Epoch: 45700, Error: 0.0013905710762715175
Epoch: 45800, Error: 0.001398165431231999
Epoch: 45900, Error: 0.0013871531094097678
Epoch: 46000, Error: 0.0013881550089058954
Epoch: 46100, Error: 0.0013897267703770486
Epoch: 46200, Error: 0.001410317761428213
Epoch: 46300, Error: 0.0013810099010959935
Epoch: 46400, Error: 0.0014076141416339892
Epoch: 46500, Error: 0.0013966910852282696
Epoch: 46600, Error: 0.0013819949916962625
Epoch: 46700, Error: 0.0013837632577228338
Epoch: 46800, Error: 0.0013833919101109626
Epoch: 46900, Error: 0.0013806713345774645
Epoch: 47000, Error: 0.0013824344206394394
Epoch: 47100, Error: 0.0013954572001628768
Epoch: 47200, Error: 0.0013854083372429925
Epoch: 47300, Error: 0.0013891003421078922
Epoch: 47400, Error: 0.0013790910435536236
Epoch: 47500, Error: 0.0013779136299863625
Epoch: 47600, Error: 0.001392488499778378
Epoch: 47700, Error: 0.0013897981624781547
Finished
