Epoch: 24300, Error: 0.005547559128988319
Epoch: 20900, Error: 0.005737851401293729
Epoch: 24100, Error: 0.005340469325863097
Epoch: 30200, Error: 0.0065789717158543405
Epoch: 48200, Error: 0.0011092941763798502
Epoch: 42800, Error: 0.0014365457295202374
Epoch: 22800, Error: 0.005871414345941383
Epoch: 21700, Error: 0.006297626006720183
Epoch: 20200, Error: 0.005765625955560321
Epoch: 50400, Error: 0.0012660321395522084
Epoch: 22000, Error: 0.005449238882056187
Epoch: 47000, Error: 0.0018049965137022555
Epoch: 27000, Error: 0.007569405173628132
Epoch: 34000, Error: 0.004907481079943892
Epoch: 33100, Error: 0.005927043356809983
Epoch: 47000, Error: 0.0020502971013725063
Epoch: 23500, Error: 0.005353389896187294
Epoch: 30700, Error: 0.006040789772365283
Epoch: 31200, Error: 0.006757921776539948
Epoch: 47700, Error: 0.0016143666678536056
Epoch: 49900, Error: 0.0016279559454721927
Epoch: 45500, Error: 0.0014878171274945134
Epoch: 39400, Error: 0.006562099709645944
Epoch: 25600, Error: 0.007506019644149562
Epoch: 33200, Error: 0.006895045580844523
Epoch: 41700, Error: 0.0022998227103994975
Epoch: 30100, Error: 0.006156579440723892
Epoch: 28700, Error: 0.008318351235885072
Epoch: 48300, Error: 0.0015906635741956073
Epoch: 50800, Error: 0.0015896089883471872
Epoch: 27100, Error: 0.005746987534001916
Epoch: 46800, Error: 0.0012996638328396904
Epoch: 44600, Error: 0.0018194653591939865
Epoch: 46100, Error: 0.0018183192887225844
Epoch: 23600, Error: 0.0065745192595885685
Epoch: 21700, Error: 0.005756599652377655
Epoch: 45700, Error: 0.0017894091783664289
Epoch: 25600, Error: 0.00731606891153384
Epoch: 47500, Error: 0.0015503614456926103
Epoch: 34600, Error: 0.006896714804407229
Epoch: 20800, Error: 0.0060422072665830585
Epoch: 37300, Error: 0.008981416000506235
Epoch: 20600, Error: 0.005684774321017549
Epoch: 46300, Error: 0.0012281682938182297
Epoch: 18500, Error: 0.0057901061652947524
Epoch: 43600, Error: 0.0020097157808966325
Epoch: 32100, Error: 0.0063050501511203606
Epoch: 30400, Error: 0.00503542390297909
Epoch: 47700, Error: 0.0013897981624781547
Epoch: 28700, Error: 0.0059917140269270565
