Epoch: 5700, Error: 0.011769654617591697
Epoch: 6600, Error: 0.012114190113919837
Epoch: 5300, Error: 0.011935542935332279
Epoch: 29500, Error: 0.004489015378721673
Epoch: 41400, Error: 0.0020272859350778287
Epoch: 6800, Error: 0.011613415232649705
Epoch: 9500, Error: 0.011701566123123702
Epoch: 9500, Error: 0.01196002940250096
Epoch: 24000, Error: 0.00599753948596847
Epoch: 18900, Error: 0.006358295567226629
Epoch: 7600, Error: 0.012447966898575018
Epoch: 6400, Error: 0.01187305538490319
Epoch: 10100, Error: 0.012150698817962217
Epoch: 5900, Error: 0.011704252169707337
Epoch: 6500, Error: 0.011893184854874835
Epoch: 5900, Error: 0.012001331906513132
Epoch: 9700, Error: 0.011761265530887412
Epoch: 5900, Error: 0.01205829529785319
Epoch: 5500, Error: 0.01200352069286137
Epoch: 7900, Error: 0.012056802496207017
Epoch: 8000, Error: 0.011804392564536607
Epoch: 21600, Error: 0.005873725589137276
Epoch: 7400, Error: 0.011775668197027848
Epoch: 38100, Error: 0.0022049648835875115
Epoch: 21700, Error: 0.011989500629430794
Epoch: 39700, Error: 0.0019534794258212317
Epoch: 7200, Error: 0.01206416517921633
Epoch: 8800, Error: 0.011765180947829272
Epoch: 5400, Error: 0.011984396743401494
Epoch: 21200, Error: 0.005910445542492508
Epoch: 4500, Error: 0.011521787379283034
Epoch: 23900, Error: 0.005662751721704682
Epoch: 7200, Error: 0.011623095088342302
Epoch: 5900, Error: 0.012025487436912395
Epoch: 6500, Error: 0.011647017846676964
Epoch: 10100, Error: 0.012062932026689784
Epoch: 20400, Error: 0.005918148167288739
Epoch: 23500, Error: 0.006312330996936832
Epoch: 39600, Error: 0.0012794914277287188
Epoch: 7600, Error: 0.011982819703230575
Epoch: 40800, Error: 0.0017845328626663064
Epoch: 19700, Error: 0.006321475930078011
Epoch: 7200, Error: 0.011745534320679853
Epoch: 40400, Error: 0.002054219417585441
Epoch: 9800, Error: 0.011836257474704485
Epoch: 7500, Error: 0.012072933077587694
Epoch: 6300, Error: 0.011923177058169858
Epoch: 7500, Error: 0.011678817511398215
Epoch: 40600, Error: 0.001944235301434648
Epoch: 6100, Error: 0.0119041915009713
