Epoch: 64300, Error: 0.0018014718421719685
Epoch: 47000, Error: 0.0015132302617171319
Epoch: 36700, Error: 0.005972422312186074
Epoch: 82400, Error: 9.635045156436505E-4
Epoch: 21900, Error: 0.005758528061138011
Epoch: 44400, Error: 0.0015015520154105302
Epoch: 42600, Error: 0.0015902805141847862
Epoch: 49400, Error: 0.0013281547398236908
Epoch: 50500, Error: 0.001503263834329693
Epoch: 68800, Error: 0.0015337331492261026
Epoch: 64400, Error: 0.006138168019608978
Epoch: 40600, Error: 0.006700405034345497
Epoch: 20200, Error: 0.006250418076432172
Epoch: 67500, Error: 0.0010800122382411635
Epoch: 45400, Error: 0.00129438401778362
Epoch: 23500, Error: 0.005683295102360945
Epoch: 51600, Error: 0.0015048302076919643
Epoch: 44000, Error: 0.0013660994715765885
Epoch: 70100, Error: 0.0019293674045739182
Epoch: 51500, Error: 0.001480025186269347
Epoch: 53400, Error: 0.0010308133315360534
Epoch: 44900, Error: 0.0017301558605447114
Epoch: 42900, Error: 0.0014301316020686502
Epoch: 21800, Error: 0.005789724673258387
Epoch: 51900, Error: 0.0015912660351045736
Epoch: 48600, Error: 0.001452951852870355
Epoch: 61900, Error: 0.0013258681019281064
Epoch: 50300, Error: 0.001492198540719534
Epoch: 48200, Error: 0.0013234890990156264
Epoch: 29700, Error: 0.0058773935302024235
Epoch: 18800, Error: 0.006181391626052831
Epoch: 42500, Error: 0.0021178290010235848
Epoch: 20200, Error: 0.005775293140680503
Epoch: 50500, Error: 0.001064705333778917
Epoch: 51900, Error: 0.001120485457135195
Epoch: 25300, Error: 0.005473989146035187
Epoch: 50000, Error: 0.001835283467488554
Epoch: 67900, Error: 0.0022826161251271767
Epoch: 23600, Error: 0.005629124450212478
Epoch: 56000, Error: 7.64777095087867E-4
Epoch: 54200, Error: 7.90764493549079E-4
Epoch: 29000, Error: 0.006191574103013113
Epoch: 45000, Error: 0.0016843574664072724
Epoch: 43100, Error: 0.0015063813422789122
Epoch: 51400, Error: 0.0011200319472852705
Epoch: 21200, Error: 0.005757489712213862
Epoch: 70400, Error: 0.001270845856908499
Epoch: 67000, Error: 0.0014321386742408135
Epoch: 57600, Error: 0.0063743682555604106
Epoch: 42100, Error: 0.0016511980551869308
Epoch: 59300, Error: 0.0010342335771579736
Epoch: 18200, Error: 0.006431604841812727
Epoch: 54300, Error: 0.006147930121618811
Epoch: 65100, Error: 8.306181095705167E-4
Epoch: 23300, Error: 0.0056452917209024395
Epoch: 43100, Error: 0.007196986741063776
Epoch: 47600, Error: 0.001395296699610336
Epoch: 47200, Error: 0.0015901462756410948
Epoch: 45900, Error: 0.0012552540764999938
Epoch: 53400, Error: 0.001376354131329362
Epoch: 82600, Error: 0.001228086229004803
Epoch: 48400, Error: 0.0017293995119005633
Epoch: 46400, Error: 0.0013418296395301455
Epoch: 46900, Error: 0.0010184361802801495
Epoch: 51800, Error: 0.0014833205583093022
Epoch: 23300, Error: 0.005677818979114054
Epoch: 21200, Error: 0.005697286701555506
Epoch: 50000, Error: 0.0012205068011615504
Epoch: 53200, Error: 0.0010025134379145796
Epoch: 19600, Error: 0.005754610100571426
Epoch: 43100, Error: 0.0015836377016844902
Epoch: 42200, Error: 0.001153215981796068
Epoch: 64500, Error: 0.006710929618937592
Epoch: 71400, Error: 0.0014332895733985085
Epoch: 45300, Error: 0.0013642474727558215
Epoch: 53900, Error: 0.001167733965026358
Epoch: 44700, Error: 0.007422083386951307
Epoch: 20200, Error: 0.0057174570052277406
Epoch: 49300, Error: 0.0013169156739777639
Epoch: 46800, Error: 0.005150950384042497
Epoch: 19500, Error: 0.005517254876916482
Epoch: 45700, Error: 0.001078613900943811
Epoch: 21600, Error: 0.005523386701987765
Epoch: 47300, Error: 0.001369833054907865
Epoch: 22900, Error: 0.005523834311717776
Epoch: 48900, Error: 0.0013061108971852376
Epoch: 53100, Error: 9.654226895302064E-4
Epoch: 20200, Error: 0.006384498168788894
Epoch: 50200, Error: 0.0015281322316180593
Epoch: 19200, Error: 0.005972124696643643
Epoch: 46000, Error: 0.001204775033175563
Epoch: 50900, Error: 0.0010164602725590975
Epoch: 76000, Error: 9.298085445193385E-4
Epoch: 47900, Error: 0.0012589880786443995
Epoch: 48400, Error: 0.0012432717947300975
Epoch: 25400, Error: 0.005497286908971332
Epoch: 65200, Error: 0.0015792219402260622
Epoch: 20300, Error: 0.005474817292580008
Epoch: 30600, Error: 0.0057011637009540825
Epoch: 31900, Error: 0.006124731164722287
