Input Patterns
0.224 0.624 0.067 0.043 
0.11 0.502 0.051 0.043 
0.196 0.667 0.067 0.043 
0.055 0.584 0.067 0.082 
0.027 0.376 0.067 0.043 
0.306 0.71 0.086 0.043 
0.137 0.416 0.067 0.0 
0.416 0.831 0.035 0.043 
0.306 0.792 0.051 0.125 
0.388 0.749 0.118 0.082 
0.306 0.584 0.118 0.043 
0.082 0.667 0.0 0.043 
0.137 0.584 0.153 0.043 
0.196 0.584 0.102 0.125 
0.251 0.584 0.067 0.043 
0.137 0.459 0.102 0.043 
0.251 0.875 0.086 0.0 
0.165 0.459 0.086 0.043 
0.333 0.624 0.051 0.043 
0.027 0.416 0.051 0.043 
0.196 0.624 0.051 0.082 
0.027 0.502 0.051 0.043 
0.224 0.749 0.153 0.125 
0.224 0.749 0.102 0.043 
0.278 0.71 0.086 0.043 
0.165 0.416 0.067 0.043 
0.082 0.459 0.086 0.043 
0.306 0.792 0.118 0.125 
0.196 0.584 0.086 0.043 
0.165 0.459 0.086 0.0 
0.137 0.584 0.102 0.043 
0.0 0.416 0.016 0.0 
0.388 1.0 0.086 0.125 
0.224 0.624 0.067 0.082 
0.224 0.749 0.086 0.082 
0.224 0.71 0.086 0.125 
0.224 0.541 0.118 0.165 
0.196 0.416 0.102 0.043 
0.251 0.624 0.086 0.043 
0.11 0.502 0.102 0.043 
0.306 0.584 0.086 0.125 
0.333 0.918 0.067 0.043 
0.196 0.502 0.035 0.043 
0.165 0.667 0.067 0.0 
0.224 0.584 0.086 0.043 
0.055 0.125 0.051 0.082 
0.196 0.624 0.102 0.208 
0.137 0.416 0.067 0.082 
0.082 0.502 0.067 0.043 
0.196 0.541 0.067 0.043 
0.749 0.502 0.627 0.541 
0.722 0.459 0.663 0.584 
0.612 0.333 0.612 0.584 
0.557 0.541 0.627 0.624 
0.639 0.376 0.612 0.498 
0.196 0.0 0.424 0.376 
0.471 0.082 0.51 0.376 
0.361 0.376 0.439 0.498 
0.361 0.416 0.592 0.584 
0.529 0.082 0.592 0.584 
0.443 0.502 0.643 0.459 
0.557 0.208 0.663 0.584 
0.584 0.376 0.561 0.498 
0.694 0.333 0.643 0.541 
0.471 0.376 0.592 0.584 
0.333 0.169 0.475 0.416 
0.416 0.29 0.49 0.459 
0.306 0.416 0.592 0.584 
0.667 0.459 0.627 0.584 
0.361 0.416 0.525 0.498 
0.333 0.251 0.576 0.459 
0.416 0.251 0.51 0.459 
0.361 0.29 0.541 0.498 
0.388 0.376 0.541 0.498 
0.224 0.208 0.337 0.416 
0.584 0.502 0.592 0.584 
0.333 0.125 0.51 0.498 
0.388 0.333 0.592 0.498 
0.165 0.169 0.388 0.376 
0.251 0.29 0.49 0.541 
0.443 0.416 0.541 0.584 
0.498 0.376 0.627 0.541 
0.667 0.459 0.576 0.541 
0.416 0.29 0.525 0.376 
0.361 0.208 0.49 0.416 
0.498 0.333 0.51 0.498 
0.498 0.333 0.627 0.459 
0.639 0.416 0.576 0.541 
0.667 0.416 0.678 0.667 
0.388 0.251 0.424 0.376 
0.333 0.169 0.459 0.376 
0.471 0.29 0.694 0.624 
0.471 0.584 0.592 0.624 
0.557 0.125 0.576 0.498 
0.333 0.208 0.51 0.498 
0.498 0.416 0.612 0.541 
0.196 0.125 0.388 0.376 
0.388 0.416 0.541 0.459 
0.529 0.376 0.561 0.498 
0.388 0.333 0.525 0.498 
0.557 0.541 0.847 1.0 
0.776 0.416 0.831 0.831 
0.612 0.416 0.812 0.875 
0.165 0.208 0.592 0.667 
0.667 0.208 0.812 0.71 
0.612 0.502 0.694 0.792 
0.694 0.416 0.761 0.831 
0.416 0.333 0.694 0.957 
0.612 0.416 0.761 0.71 
0.945 0.251 1.0 0.918 
0.722 0.502 0.796 0.918 
0.945 0.333 0.965 0.792 
0.667 0.541 0.796 0.831 
0.529 0.333 0.643 0.71 
0.584 0.333 0.78 0.831 
0.863 0.333 0.863 0.749 
0.584 0.333 0.78 0.875 
0.498 0.251 0.78 0.541 
0.557 0.584 0.78 0.957 
0.471 0.416 0.643 0.71 
0.667 0.459 0.78 0.957 
0.416 0.29 0.694 0.749 
0.667 0.541 0.796 1.0 
0.557 0.208 0.678 0.749 
0.529 0.584 0.745 0.918 
0.416 0.29 0.694 0.749 
0.557 0.376 0.78 0.71 
0.918 0.416 0.949 0.831 
0.835 0.376 0.898 0.71 
0.804 0.667 0.863 1.0 
0.584 0.29 0.729 0.749 
0.388 0.208 0.678 0.792 
0.584 0.502 0.729 0.918 
0.945 0.749 0.965 0.875 
0.471 0.082 0.678 0.584 
0.361 0.333 0.663 0.792 
0.557 0.29 0.663 0.71 
0.804 0.502 0.847 0.71 
0.498 0.416 0.51 0.71 
0.804 0.416 0.812 0.624 
1.0 0.749 0.914 0.792 
0.557 0.333 0.694 0.584 
0.945 0.416 0.863 0.918 
0.584 0.459 0.761 0.71 
0.722 0.459 0.745 0.831 
0.722 0.459 0.694 0.918 
0.694 0.502 0.831 0.918 
0.667 0.416 0.714 0.918 
0.612 0.416 0.714 0.792 
0.443 0.416 0.694 0.71 
Teaching Patterns
1.0 0.0 0.0 
1.0 0.0 0.0 
1.0 0.0 0.0 
1.0 0.0 0.0 
1.0 0.0 0.0 
1.0 0.0 0.0 
1.0 0.0 0.0 
1.0 0.0 0.0 
1.0 0.0 0.0 
1.0 0.0 0.0 
1.0 0.0 0.0 
1.0 0.0 0.0 
1.0 0.0 0.0 
1.0 0.0 0.0 
1.0 0.0 0.0 
1.0 0.0 0.0 
1.0 0.0 0.0 
1.0 0.0 0.0 
1.0 0.0 0.0 
1.0 0.0 0.0 
1.0 0.0 0.0 
1.0 0.0 0.0 
1.0 0.0 0.0 
1.0 0.0 0.0 
1.0 0.0 0.0 
1.0 0.0 0.0 
1.0 0.0 0.0 
1.0 0.0 0.0 
1.0 0.0 0.0 
1.0 0.0 0.0 
1.0 0.0 0.0 
1.0 0.0 0.0 
1.0 0.0 0.0 
1.0 0.0 0.0 
1.0 0.0 0.0 
1.0 0.0 0.0 
1.0 0.0 0.0 
1.0 0.0 0.0 
1.0 0.0 0.0 
1.0 0.0 0.0 
1.0 0.0 0.0 
1.0 0.0 0.0 
1.0 0.0 0.0 
1.0 0.0 0.0 
1.0 0.0 0.0 
1.0 0.0 0.0 
1.0 0.0 0.0 
1.0 0.0 0.0 
1.0 0.0 0.0 
1.0 0.0 0.0 
0.0 1.0 0.0 
0.0 1.0 0.0 
0.0 1.0 0.0 
0.0 1.0 0.0 
0.0 1.0 0.0 
0.0 1.0 0.0 
0.0 1.0 0.0 
0.0 1.0 0.0 
0.0 1.0 0.0 
0.0 1.0 0.0 
0.0 1.0 0.0 
0.0 1.0 0.0 
0.0 1.0 0.0 
0.0 1.0 0.0 
0.0 1.0 0.0 
0.0 1.0 0.0 
0.0 1.0 0.0 
0.0 1.0 0.0 
0.0 1.0 0.0 
0.0 1.0 0.0 
0.0 1.0 0.0 
0.0 1.0 0.0 
0.0 1.0 0.0 
0.0 1.0 0.0 
0.0 1.0 0.0 
0.0 1.0 0.0 
0.0 1.0 0.0 
0.0 1.0 0.0 
0.0 1.0 0.0 
0.0 1.0 0.0 
0.0 1.0 0.0 
0.0 1.0 0.0 
0.0 1.0 0.0 
0.0 1.0 0.0 
0.0 1.0 0.0 
0.0 1.0 0.0 
0.0 1.0 0.0 
0.0 1.0 0.0 
0.0 1.0 0.0 
0.0 1.0 0.0 
0.0 1.0 0.0 
0.0 1.0 0.0 
0.0 1.0 0.0 
0.0 1.0 0.0 
0.0 1.0 0.0 
0.0 1.0 0.0 
0.0 1.0 0.0 
0.0 1.0 0.0 
0.0 1.0 0.0 
0.0 1.0 0.0 
0.0 0.0 1.0 
0.0 0.0 1.0 
0.0 0.0 1.0 
0.0 0.0 1.0 
0.0 0.0 1.0 
0.0 0.0 1.0 
0.0 0.0 1.0 
0.0 0.0 1.0 
0.0 0.0 1.0 
0.0 0.0 1.0 
0.0 0.0 1.0 
0.0 0.0 1.0 
0.0 0.0 1.0 
0.0 0.0 1.0 
0.0 0.0 1.0 
0.0 0.0 1.0 
0.0 0.0 1.0 
0.0 0.0 1.0 
0.0 0.0 1.0 
0.0 0.0 1.0 
0.0 0.0 1.0 
0.0 0.0 1.0 
0.0 0.0 1.0 
0.0 0.0 1.0 
0.0 0.0 1.0 
0.0 0.0 1.0 
0.0 0.0 1.0 
0.0 0.0 1.0 
0.0 0.0 1.0 
0.0 0.0 1.0 
0.0 0.0 1.0 
0.0 0.0 1.0 
0.0 0.0 1.0 
0.0 0.0 1.0 
0.0 0.0 1.0 
0.0 0.0 1.0 
0.0 0.0 1.0 
0.0 0.0 1.0 
0.0 0.0 1.0 
0.0 0.0 1.0 
0.0 0.0 1.0 
0.0 0.0 1.0 
0.0 0.0 1.0 
0.0 0.0 1.0 
0.0 0.0 1.0 
0.0 0.0 1.0 
0.0 0.0 1.0 
0.0 0.0 1.0 
0.0 0.0 1.0 
0.0 0.0 1.0 
Learning : 0.800000011920929
Momentum : 0.9
Epoch: 100, Error: 0.01365166562647129
Epoch: 200, Error: 0.01271653999578467
Epoch: 300, Error: 0.023293503020342703
Epoch: 400, Error: 0.012414088647672022
Epoch: 500, Error: 0.013202848956176636
Epoch: 600, Error: 0.012345307925911746
Epoch: 700, Error: 0.014427612398379227
Epoch: 800, Error: 0.01245507149012329
Epoch: 900, Error: 0.012936938638807646
Epoch: 1000, Error: 0.012213204227974388
Epoch: 1100, Error: 0.012266720995645672
Epoch: 1200, Error: 0.015869959522176905
Epoch: 1300, Error: 0.020530067535878167
Epoch: 1400, Error: 0.011751849278804388
Epoch: 1500, Error: 0.011932074835162404
Epoch: 1600, Error: 0.011626038772807785
Epoch: 1700, Error: 0.01202887750388005
Epoch: 1800, Error: 0.0113054323200767
Epoch: 1900, Error: 0.011367872167383213
Epoch: 2000, Error: 0.01467075552669217
Epoch: 2100, Error: 0.011327657740825088
Epoch: 2200, Error: 0.01060123694390476
Epoch: 2300, Error: 0.010845587789482716
Epoch: 2400, Error: 0.009912022368381072
Epoch: 2500, Error: 0.009495066568310062
Epoch: 2600, Error: 0.007951426869649352
Epoch: 2700, Error: 0.008554283724494278
Epoch: 2800, Error: 0.006554476195994502
Epoch: 2900, Error: 0.0059433379805467115
Epoch: 3000, Error: 0.005780494280209361
Epoch: 3100, Error: 0.00567905962930745
Epoch: 3200, Error: 0.005555891487273948
Epoch: 3300, Error: 0.005535062683269538
Epoch: 3400, Error: 0.00565886647866753
Epoch: 3500, Error: 0.005681902000009013
Epoch: 3600, Error: 0.00561640260347002
Epoch: 3700, Error: 0.005578596924501363
Epoch: 3800, Error: 0.005577720244934383
Epoch: 3900, Error: 0.0055687887280808845
Epoch: 4000, Error: 0.005567296926314593
Epoch: 4100, Error: 0.005557298593586082
Epoch: 4200, Error: 0.005589372035260588
Epoch: 4300, Error: 0.0055496081706597885
Epoch: 4400, Error: 0.005528935597799242
Epoch: 4500, Error: 0.0055128453145376
Epoch: 4600, Error: 0.005530183416660649
Epoch: 4700, Error: 0.005518470563735569
Epoch: 4800, Error: 0.00551128191434805
Epoch: 4900, Error: 0.00553051774164565
Epoch: 5000, Error: 0.005510137570470784
Epoch: 5100, Error: 0.005508543661785328
Epoch: 5200, Error: 0.005568665628692358
Epoch: 5300, Error: 0.005524019703185368
Epoch: 5400, Error: 0.005506027063432717
Epoch: 5500, Error: 0.005511865815115159
Epoch: 5600, Error: 0.005524856517943938
Epoch: 5700, Error: 0.005568009641560455
Epoch: 5800, Error: 0.005529876585536263
Epoch: 5900, Error: 0.005508514407657657
Epoch: 6000, Error: 0.005537465860798585
Epoch: 6100, Error: 0.005526846935949037
Epoch: 6200, Error: 0.005653425951437147
Epoch: 6300, Error: 0.00558522797646827
Epoch: 6400, Error: 0.005530463027988442
Epoch: 6500, Error: 0.0055204933254947314
Epoch: 6600, Error: 0.005577063486954159
Epoch: 6700, Error: 0.005493910216342776
Epoch: 6800, Error: 0.00550173105547037
Epoch: 6900, Error: 0.005454174212127297
Epoch: 7000, Error: 0.005576547815374
Epoch: 7100, Error: 0.005470154352548272
Epoch: 7200, Error: 0.00543252089342667
Epoch: 7300, Error: 0.0053668476894639045
Epoch: 7400, Error: 0.005344406118399929
Epoch: 7500, Error: 0.005362236708707146
Epoch: 7600, Error: 0.005257547357470455
Epoch: 7700, Error: 0.0054960201793996435
Epoch: 7800, Error: 0.0054458969121351985
Epoch: 7900, Error: 0.005242405278323645
Epoch: 8000, Error: 0.00503684807666773
Epoch: 8100, Error: 0.005004397533092358
Epoch: 8200, Error: 0.004992640790761318
Epoch: 8300, Error: 0.004963039540812223
Epoch: 8400, Error: 0.005070158859823426
Epoch: 8500, Error: 0.0048993888960108915
Epoch: 8600, Error: 0.00436290682616867
Epoch: 8700, Error: 0.004894350431586873
Epoch: 8800, Error: 0.004787369209610986
Epoch: 8900, Error: 0.008822792662615521
Epoch: 9000, Error: 0.004000067419392772
Epoch: 9100, Error: 0.004789968781829084
Epoch: 9200, Error: 0.0035789653379258842
Epoch: 9300, Error: 0.0032167010818019365
Epoch: 9400, Error: 0.003789103547359964
Epoch: 9500, Error: 0.0034313039687404513
Epoch: 9600, Error: 0.003278523868764217
Epoch: 9700, Error: 0.003194112394455722
Epoch: 9800, Error: 0.002562394665760247
Epoch: 9900, Error: 0.0028121309918060005
Epoch: 10000, Error: 0.0026036037352228053
Epoch: 10100, Error: 0.002567582317823344
Epoch: 10200, Error: 0.0019035762526860031
Epoch: 10300, Error: 0.00276354270870667
Epoch: 10400, Error: 0.002315615155525892
Epoch: 10500, Error: 0.0032536012454197558
Epoch: 10600, Error: 0.0036799963120018424
Epoch: 10700, Error: 0.0017873688171053575
Epoch: 10800, Error: 0.004367305955630001
Epoch: 10900, Error: 0.003054998125381405
Epoch: 11000, Error: 0.002261492822876015
Epoch: 11100, Error: 0.005246433504355736
Epoch: 11200, Error: 0.0011006769475922372
Epoch: 11300, Error: 0.0018566807008616258
Epoch: 11400, Error: 0.0011763695609531201
Epoch: 11500, Error: 0.0010760577449836345
Epoch: 11600, Error: 0.0011385438886472895
Epoch: 11700, Error: 0.0011023890264439825
Epoch: 11800, Error: 0.001089144272927856
Epoch: 11900, Error: 0.0010855640890655774
Epoch: 12000, Error: 0.001071945865802909
Epoch: 12100, Error: 0.001077262918211632
Epoch: 12200, Error: 0.0010441008921601434
Epoch: 12300, Error: 0.0010564115771020733
Epoch: 12400, Error: 0.0010699714886815291
Epoch: 12500, Error: 0.0010332082541271669
Epoch: 12600, Error: 0.0010214591776879717
Epoch: 12700, Error: 9.760810516816534E-4
Epoch: 12800, Error: 9.834871607821106E-4
Epoch: 12900, Error: 9.722910586186282E-4
Epoch: 13000, Error: 9.375137279497102E-4
Epoch: 13100, Error: 9.10190796551339E-4
Epoch: 13200, Error: 9.123984541270948E-4
Epoch: 13300, Error: 8.905958352060961E-4
Epoch: 13400, Error: 8.859498966643203E-4
Epoch: 13500, Error: 8.768986138823344E-4
Epoch: 13600, Error: 8.680219031141472E-4
Epoch: 13700, Error: 8.649721636264318E-4
Epoch: 13800, Error: 8.485337346464178E-4
Epoch: 13900, Error: 8.496407776930582E-4
Epoch: 14000, Error: 8.531924947280292E-4
Finished
