Input Patterns
0.224 0.624 0.067 0.043 
0.11 0.502 0.051 0.043 
0.196 0.667 0.067 0.043 
0.055 0.584 0.067 0.082 
0.027 0.376 0.067 0.043 
0.306 0.71 0.086 0.043 
0.137 0.416 0.067 0.0 
0.416 0.831 0.035 0.043 
0.306 0.792 0.051 0.125 
0.388 0.749 0.118 0.082 
0.306 0.584 0.118 0.043 
0.082 0.667 0.0 0.043 
0.137 0.584 0.153 0.043 
0.196 0.584 0.102 0.125 
0.251 0.584 0.067 0.043 
0.137 0.459 0.102 0.043 
0.251 0.875 0.086 0.0 
0.165 0.459 0.086 0.043 
0.333 0.624 0.051 0.043 
0.027 0.416 0.051 0.043 
0.196 0.624 0.051 0.082 
0.027 0.502 0.051 0.043 
0.224 0.749 0.153 0.125 
0.224 0.749 0.102 0.043 
0.278 0.71 0.086 0.043 
0.165 0.416 0.067 0.043 
0.082 0.459 0.086 0.043 
0.306 0.792 0.118 0.125 
0.196 0.584 0.086 0.043 
0.165 0.459 0.086 0.0 
0.137 0.584 0.102 0.043 
0.0 0.416 0.016 0.0 
0.388 1.0 0.086 0.125 
0.224 0.624 0.067 0.082 
0.224 0.749 0.086 0.082 
0.224 0.71 0.086 0.125 
0.224 0.541 0.118 0.165 
0.196 0.416 0.102 0.043 
0.251 0.624 0.086 0.043 
0.11 0.502 0.102 0.043 
0.306 0.584 0.086 0.125 
0.333 0.918 0.067 0.043 
0.196 0.502 0.035 0.043 
0.165 0.667 0.067 0.0 
0.224 0.584 0.086 0.043 
0.055 0.125 0.051 0.082 
0.196 0.624 0.102 0.208 
0.137 0.416 0.067 0.082 
0.082 0.502 0.067 0.043 
0.196 0.541 0.067 0.043 
0.749 0.502 0.627 0.541 
0.722 0.459 0.663 0.584 
0.612 0.333 0.612 0.584 
0.557 0.541 0.627 0.624 
0.639 0.376 0.612 0.498 
0.196 0.0 0.424 0.376 
0.471 0.082 0.51 0.376 
0.361 0.376 0.439 0.498 
0.361 0.416 0.592 0.584 
0.529 0.082 0.592 0.584 
0.443 0.502 0.643 0.459 
0.557 0.208 0.663 0.584 
0.584 0.376 0.561 0.498 
0.694 0.333 0.643 0.541 
0.471 0.376 0.592 0.584 
0.333 0.169 0.475 0.416 
0.416 0.29 0.49 0.459 
0.306 0.416 0.592 0.584 
0.667 0.459 0.627 0.584 
0.361 0.416 0.525 0.498 
0.333 0.251 0.576 0.459 
0.416 0.251 0.51 0.459 
0.361 0.29 0.541 0.498 
0.388 0.376 0.541 0.498 
0.224 0.208 0.337 0.416 
0.584 0.502 0.592 0.584 
0.333 0.125 0.51 0.498 
0.388 0.333 0.592 0.498 
0.165 0.169 0.388 0.376 
0.251 0.29 0.49 0.541 
0.443 0.416 0.541 0.584 
0.498 0.376 0.627 0.541 
0.667 0.459 0.576 0.541 
0.416 0.29 0.525 0.376 
0.361 0.208 0.49 0.416 
0.498 0.333 0.51 0.498 
0.498 0.333 0.627 0.459 
0.639 0.416 0.576 0.541 
0.667 0.416 0.678 0.667 
0.388 0.251 0.424 0.376 
0.333 0.169 0.459 0.376 
0.471 0.29 0.694 0.624 
0.471 0.584 0.592 0.624 
0.557 0.125 0.576 0.498 
0.333 0.208 0.51 0.498 
0.498 0.416 0.612 0.541 
0.196 0.125 0.388 0.376 
0.388 0.416 0.541 0.459 
0.529 0.376 0.561 0.498 
0.388 0.333 0.525 0.498 
0.557 0.541 0.847 1.0 
0.776 0.416 0.831 0.831 
0.612 0.416 0.812 0.875 
0.165 0.208 0.592 0.667 
0.667 0.208 0.812 0.71 
0.612 0.502 0.694 0.792 
0.694 0.416 0.761 0.831 
0.416 0.333 0.694 0.957 
0.612 0.416 0.761 0.71 
0.945 0.251 1.0 0.918 
0.722 0.502 0.796 0.918 
0.945 0.333 0.965 0.792 
0.667 0.541 0.796 0.831 
0.529 0.333 0.643 0.71 
0.584 0.333 0.78 0.831 
0.863 0.333 0.863 0.749 
0.584 0.333 0.78 0.875 
0.498 0.251 0.78 0.541 
0.557 0.584 0.78 0.957 
0.471 0.416 0.643 0.71 
0.667 0.459 0.78 0.957 
0.416 0.29 0.694 0.749 
0.667 0.541 0.796 1.0 
0.557 0.208 0.678 0.749 
0.529 0.584 0.745 0.918 
0.416 0.29 0.694 0.749 
0.557 0.376 0.78 0.71 
0.918 0.416 0.949 0.831 
0.835 0.376 0.898 0.71 
0.804 0.667 0.863 1.0 
0.584 0.29 0.729 0.749 
0.388 0.208 0.678 0.792 
0.584 0.502 0.729 0.918 
0.945 0.749 0.965 0.875 
0.471 0.082 0.678 0.584 
0.361 0.333 0.663 0.792 
0.557 0.29 0.663 0.71 
0.804 0.502 0.847 0.71 
0.498 0.416 0.51 0.71 
0.804 0.416 0.812 0.624 
1.0 0.749 0.914 0.792 
0.557 0.333 0.694 0.584 
0.945 0.416 0.863 0.918 
0.584 0.459 0.761 0.71 
0.722 0.459 0.745 0.831 
0.722 0.459 0.694 0.918 
0.694 0.502 0.831 0.918 
0.667 0.416 0.714 0.918 
0.612 0.416 0.714 0.792 
0.443 0.416 0.694 0.71 
Teaching Patterns
1.0 0.0 0.0 
1.0 0.0 0.0 
1.0 0.0 0.0 
1.0 0.0 0.0 
1.0 0.0 0.0 
1.0 0.0 0.0 
1.0 0.0 0.0 
1.0 0.0 0.0 
1.0 0.0 0.0 
1.0 0.0 0.0 
1.0 0.0 0.0 
1.0 0.0 0.0 
1.0 0.0 0.0 
1.0 0.0 0.0 
1.0 0.0 0.0 
1.0 0.0 0.0 
1.0 0.0 0.0 
1.0 0.0 0.0 
1.0 0.0 0.0 
1.0 0.0 0.0 
1.0 0.0 0.0 
1.0 0.0 0.0 
1.0 0.0 0.0 
1.0 0.0 0.0 
1.0 0.0 0.0 
1.0 0.0 0.0 
1.0 0.0 0.0 
1.0 0.0 0.0 
1.0 0.0 0.0 
1.0 0.0 0.0 
1.0 0.0 0.0 
1.0 0.0 0.0 
1.0 0.0 0.0 
1.0 0.0 0.0 
1.0 0.0 0.0 
1.0 0.0 0.0 
1.0 0.0 0.0 
1.0 0.0 0.0 
1.0 0.0 0.0 
1.0 0.0 0.0 
1.0 0.0 0.0 
1.0 0.0 0.0 
1.0 0.0 0.0 
1.0 0.0 0.0 
1.0 0.0 0.0 
1.0 0.0 0.0 
1.0 0.0 0.0 
1.0 0.0 0.0 
1.0 0.0 0.0 
1.0 0.0 0.0 
0.0 1.0 0.0 
0.0 1.0 0.0 
0.0 1.0 0.0 
0.0 1.0 0.0 
0.0 1.0 0.0 
0.0 1.0 0.0 
0.0 1.0 0.0 
0.0 1.0 0.0 
0.0 1.0 0.0 
0.0 1.0 0.0 
0.0 1.0 0.0 
0.0 1.0 0.0 
0.0 1.0 0.0 
0.0 1.0 0.0 
0.0 1.0 0.0 
0.0 1.0 0.0 
0.0 1.0 0.0 
0.0 1.0 0.0 
0.0 1.0 0.0 
0.0 1.0 0.0 
0.0 1.0 0.0 
0.0 1.0 0.0 
0.0 1.0 0.0 
0.0 1.0 0.0 
0.0 1.0 0.0 
0.0 1.0 0.0 
0.0 1.0 0.0 
0.0 1.0 0.0 
0.0 1.0 0.0 
0.0 1.0 0.0 
0.0 1.0 0.0 
0.0 1.0 0.0 
0.0 1.0 0.0 
0.0 1.0 0.0 
0.0 1.0 0.0 
0.0 1.0 0.0 
0.0 1.0 0.0 
0.0 1.0 0.0 
0.0 1.0 0.0 
0.0 1.0 0.0 
0.0 1.0 0.0 
0.0 1.0 0.0 
0.0 1.0 0.0 
0.0 1.0 0.0 
0.0 1.0 0.0 
0.0 1.0 0.0 
0.0 1.0 0.0 
0.0 1.0 0.0 
0.0 1.0 0.0 
0.0 1.0 0.0 
0.0 0.0 1.0 
0.0 0.0 1.0 
0.0 0.0 1.0 
0.0 0.0 1.0 
0.0 0.0 1.0 
0.0 0.0 1.0 
0.0 0.0 1.0 
0.0 0.0 1.0 
0.0 0.0 1.0 
0.0 0.0 1.0 
0.0 0.0 1.0 
0.0 0.0 1.0 
0.0 0.0 1.0 
0.0 0.0 1.0 
0.0 0.0 1.0 
0.0 0.0 1.0 
0.0 0.0 1.0 
0.0 0.0 1.0 
0.0 0.0 1.0 
0.0 0.0 1.0 
0.0 0.0 1.0 
0.0 0.0 1.0 
0.0 0.0 1.0 
0.0 0.0 1.0 
0.0 0.0 1.0 
0.0 0.0 1.0 
0.0 0.0 1.0 
0.0 0.0 1.0 
0.0 0.0 1.0 
0.0 0.0 1.0 
0.0 0.0 1.0 
0.0 0.0 1.0 
0.0 0.0 1.0 
0.0 0.0 1.0 
0.0 0.0 1.0 
0.0 0.0 1.0 
0.0 0.0 1.0 
0.0 0.0 1.0 
0.0 0.0 1.0 
0.0 0.0 1.0 
0.0 0.0 1.0 
0.0 0.0 1.0 
0.0 0.0 1.0 
0.0 0.0 1.0 
0.0 0.0 1.0 
0.0 0.0 1.0 
0.0 0.0 1.0 
0.0 0.0 1.0 
0.0 0.0 1.0 
0.0 0.0 1.0 
Learning : 0.800000011920929
Momentum : 0.9
Epoch: 100, Error: 0.01281496108802025
Epoch: 200, Error: 0.020043546299310377
Epoch: 300, Error: 0.012198756796345443
Epoch: 400, Error: 0.012242247983300194
Epoch: 500, Error: 0.012876816947077648
Epoch: 600, Error: 0.012818521181252695
Epoch: 700, Error: 0.012126111429691036
Epoch: 800, Error: 0.012465017642989228
Epoch: 900, Error: 0.012251855270436957
Epoch: 1000, Error: 0.012521119490714232
Epoch: 1100, Error: 0.012172391783935404
Epoch: 1200, Error: 0.01180961542766903
Epoch: 1300, Error: 0.012266251314078852
Epoch: 1400, Error: 0.011922253045120592
Epoch: 1500, Error: 0.012829822712645836
Epoch: 1600, Error: 0.011847639644597913
Epoch: 1700, Error: 0.013668129077627596
Epoch: 1800, Error: 0.015263368160065776
Epoch: 1900, Error: 0.011918167690682505
Epoch: 2000, Error: 0.011763807889435356
Epoch: 2100, Error: 0.0111134389656947
Epoch: 2200, Error: 0.010960249946059207
Epoch: 2300, Error: 0.011604744914740983
Epoch: 2400, Error: 0.013791079016906295
Epoch: 2500, Error: 0.011558225720723013
Epoch: 2600, Error: 0.01076849838999823
Epoch: 2700, Error: 0.011033941740164865
Epoch: 2800, Error: 0.011744128745024422
Epoch: 2900, Error: 0.013813939730441028
Epoch: 3000, Error: 0.010574877892236332
Epoch: 3100, Error: 0.012367175367989048
Epoch: 3200, Error: 0.011348925668647175
Epoch: 3300, Error: 0.010528209475791106
Epoch: 3400, Error: 0.025210874853050406
Epoch: 3500, Error: 0.010738372949038563
Epoch: 3600, Error: 0.010590203914083786
Epoch: 3700, Error: 0.011855019603089847
Epoch: 3800, Error: 0.010452066648553788
Epoch: 3900, Error: 0.010605301529298556
Epoch: 4000, Error: 0.012429320343983544
Epoch: 4100, Error: 0.010371240191064049
Epoch: 4200, Error: 0.011258201102098353
Epoch: 4300, Error: 0.010747474101426931
Epoch: 4400, Error: 0.009497051727327704
Epoch: 4500, Error: 0.00935606740719033
Epoch: 4600, Error: 0.010018386675289804
Epoch: 4700, Error: 0.008653410931003473
Epoch: 4800, Error: 0.008095920232399172
Epoch: 4900, Error: 0.007951603034828043
Epoch: 5000, Error: 0.008194750222860077
Epoch: 5100, Error: 0.007923158686224665
Epoch: 5200, Error: 0.007233759383667592
Epoch: 5300, Error: 0.00692652903128095
Epoch: 5400, Error: 0.007558112498416258
Epoch: 5500, Error: 0.007688226703046871
Epoch: 5600, Error: 0.006191208100767866
Epoch: 5700, Error: 0.0059917799489621
Epoch: 5800, Error: 0.005963805782614553
Epoch: 5900, Error: 0.006463935056122078
Epoch: 6000, Error: 0.006471920155967
Epoch: 6100, Error: 0.0054883000195148236
Epoch: 6200, Error: 0.005641889756292364
Epoch: 6300, Error: 0.005509910202626282
Epoch: 6400, Error: 0.005307258145043872
Epoch: 6500, Error: 0.005512822678510005
Epoch: 6600, Error: 0.005744335751642136
Epoch: 6700, Error: 0.005077146938523312
Epoch: 6800, Error: 0.005318523421028323
Epoch: 6900, Error: 0.005165735559587281
Epoch: 7000, Error: 0.005178788830684341
Epoch: 7100, Error: 0.00513116193366535
Epoch: 7200, Error: 0.005192524626785846
Epoch: 7300, Error: 0.005099781717350742
Epoch: 7400, Error: 0.005132878498771824
Epoch: 7500, Error: 0.0047043271998934285
Epoch: 7600, Error: 0.004649274374603282
Epoch: 7700, Error: 0.005304429856184634
Epoch: 7800, Error: 0.004592627487785338
Epoch: 7900, Error: 0.004575572332640686
Epoch: 8000, Error: 0.004907915239651818
Epoch: 8100, Error: 0.004956591398529434
Epoch: 8200, Error: 0.004843945550640673
Epoch: 8300, Error: 0.005826030630375327
Epoch: 8400, Error: 0.004053577338411556
Epoch: 8500, Error: 0.004454301168295491
Epoch: 8600, Error: 0.004185204262242691
Epoch: 8700, Error: 0.004389347015738187
Epoch: 8800, Error: 0.003468475697161421
Epoch: 8900, Error: 0.003979725226712274
Epoch: 9000, Error: 0.0037456237924116025
Epoch: 9100, Error: 0.003272062373135456
Epoch: 9200, Error: 0.005064764073024175
Epoch: 9300, Error: 0.006233267017784758
Epoch: 9400, Error: 0.003111317666365205
Epoch: 9500, Error: 0.003727366528343281
Epoch: 9600, Error: 0.004145870205105715
Epoch: 9700, Error: 0.0038503159413672723
Epoch: 9800, Error: 0.005901162936377279
Epoch: 9900, Error: 0.003794065575484095
Epoch: 10000, Error: 0.0027666280371936467
Epoch: 10100, Error: 0.002575521665065683
Epoch: 10200, Error: 0.005564958934670197
Epoch: 10300, Error: 0.0023898138584464313
Epoch: 10400, Error: 0.0016081147494845828
Epoch: 10500, Error: 0.007996992431503596
Epoch: 10600, Error: 0.003725779718377136
Epoch: 10700, Error: 0.0034605429970724004
Epoch: 10800, Error: 0.0012504048384970835
Epoch: 10900, Error: 0.001222929192447344
Epoch: 11000, Error: 0.0011960815587673578
Epoch: 11100, Error: 0.0012998112640004791
Epoch: 11200, Error: 0.0013258770522235341
Epoch: 11300, Error: 0.0012757965196371552
Epoch: 11400, Error: 0.001260521674931778
Epoch: 11500, Error: 0.0012637336058879353
Epoch: 11600, Error: 0.001281213674509177
Epoch: 11700, Error: 0.0013047302883307486
Epoch: 11800, Error: 0.0012663162091897965
Epoch: 11900, Error: 0.0012844523746022203
Epoch: 12000, Error: 0.001294476196832631
Epoch: 12100, Error: 0.0012929520701673006
Epoch: 12200, Error: 0.0012788084698437336
Epoch: 12300, Error: 0.0013016923822433471
Epoch: 12400, Error: 0.001312793861131795
Epoch: 12500, Error: 0.001290732186275178
Epoch: 12600, Error: 0.0013568233655776832
Epoch: 12700, Error: 0.001265706250113105
Finished
