Input Patterns
0.224 0.624 0.067 0.043 
0.11 0.502 0.051 0.043 
0.196 0.667 0.067 0.043 
0.055 0.584 0.067 0.082 
0.027 0.376 0.067 0.043 
0.306 0.71 0.086 0.043 
0.137 0.416 0.067 0.0 
0.416 0.831 0.035 0.043 
0.306 0.792 0.051 0.125 
0.388 0.749 0.118 0.082 
0.306 0.584 0.118 0.043 
0.082 0.667 0.0 0.043 
0.137 0.584 0.153 0.043 
0.196 0.584 0.102 0.125 
0.251 0.584 0.067 0.043 
0.137 0.459 0.102 0.043 
0.251 0.875 0.086 0.0 
0.165 0.459 0.086 0.043 
0.333 0.624 0.051 0.043 
0.027 0.416 0.051 0.043 
0.196 0.624 0.051 0.082 
0.027 0.502 0.051 0.043 
0.224 0.749 0.153 0.125 
0.224 0.749 0.102 0.043 
0.278 0.71 0.086 0.043 
0.165 0.416 0.067 0.043 
0.082 0.459 0.086 0.043 
0.306 0.792 0.118 0.125 
0.196 0.584 0.086 0.043 
0.165 0.459 0.086 0.0 
0.137 0.584 0.102 0.043 
0.0 0.416 0.016 0.0 
0.388 1.0 0.086 0.125 
0.224 0.624 0.067 0.082 
0.224 0.749 0.086 0.082 
0.224 0.71 0.086 0.125 
0.224 0.541 0.118 0.165 
0.196 0.416 0.102 0.043 
0.251 0.624 0.086 0.043 
0.11 0.502 0.102 0.043 
0.306 0.584 0.086 0.125 
0.333 0.918 0.067 0.043 
0.196 0.502 0.035 0.043 
0.165 0.667 0.067 0.0 
0.224 0.584 0.086 0.043 
0.055 0.125 0.051 0.082 
0.196 0.624 0.102 0.208 
0.137 0.416 0.067 0.082 
0.082 0.502 0.067 0.043 
0.196 0.541 0.067 0.043 
0.749 0.502 0.627 0.541 
0.722 0.459 0.663 0.584 
0.612 0.333 0.612 0.584 
0.557 0.541 0.627 0.624 
0.639 0.376 0.612 0.498 
0.196 0.0 0.424 0.376 
0.471 0.082 0.51 0.376 
0.361 0.376 0.439 0.498 
0.361 0.416 0.592 0.584 
0.529 0.082 0.592 0.584 
0.443 0.502 0.643 0.459 
0.557 0.208 0.663 0.584 
0.584 0.376 0.561 0.498 
0.694 0.333 0.643 0.541 
0.471 0.376 0.592 0.584 
0.333 0.169 0.475 0.416 
0.416 0.29 0.49 0.459 
0.306 0.416 0.592 0.584 
0.667 0.459 0.627 0.584 
0.361 0.416 0.525 0.498 
0.333 0.251 0.576 0.459 
0.416 0.251 0.51 0.459 
0.361 0.29 0.541 0.498 
0.388 0.376 0.541 0.498 
0.224 0.208 0.337 0.416 
0.584 0.502 0.592 0.584 
0.333 0.125 0.51 0.498 
0.388 0.333 0.592 0.498 
0.165 0.169 0.388 0.376 
0.251 0.29 0.49 0.541 
0.443 0.416 0.541 0.584 
0.498 0.376 0.627 0.541 
0.667 0.459 0.576 0.541 
0.416 0.29 0.525 0.376 
0.361 0.208 0.49 0.416 
0.498 0.333 0.51 0.498 
0.498 0.333 0.627 0.459 
0.639 0.416 0.576 0.541 
0.667 0.416 0.678 0.667 
0.388 0.251 0.424 0.376 
0.333 0.169 0.459 0.376 
0.471 0.29 0.694 0.624 
0.471 0.584 0.592 0.624 
0.557 0.125 0.576 0.498 
0.333 0.208 0.51 0.498 
0.498 0.416 0.612 0.541 
0.196 0.125 0.388 0.376 
0.388 0.416 0.541 0.459 
0.529 0.376 0.561 0.498 
0.388 0.333 0.525 0.498 
0.557 0.541 0.847 1.0 
0.776 0.416 0.831 0.831 
0.612 0.416 0.812 0.875 
0.165 0.208 0.592 0.667 
0.667 0.208 0.812 0.71 
0.612 0.502 0.694 0.792 
0.694 0.416 0.761 0.831 
0.416 0.333 0.694 0.957 
0.612 0.416 0.761 0.71 
0.945 0.251 1.0 0.918 
0.722 0.502 0.796 0.918 
0.945 0.333 0.965 0.792 
0.667 0.541 0.796 0.831 
0.529 0.333 0.643 0.71 
0.584 0.333 0.78 0.831 
0.863 0.333 0.863 0.749 
0.584 0.333 0.78 0.875 
0.498 0.251 0.78 0.541 
0.557 0.584 0.78 0.957 
0.471 0.416 0.643 0.71 
0.667 0.459 0.78 0.957 
0.416 0.29 0.694 0.749 
0.667 0.541 0.796 1.0 
0.557 0.208 0.678 0.749 
0.529 0.584 0.745 0.918 
0.416 0.29 0.694 0.749 
0.557 0.376 0.78 0.71 
0.918 0.416 0.949 0.831 
0.835 0.376 0.898 0.71 
0.804 0.667 0.863 1.0 
0.584 0.29 0.729 0.749 
0.388 0.208 0.678 0.792 
0.584 0.502 0.729 0.918 
0.945 0.749 0.965 0.875 
0.471 0.082 0.678 0.584 
0.361 0.333 0.663 0.792 
0.557 0.29 0.663 0.71 
0.804 0.502 0.847 0.71 
0.498 0.416 0.51 0.71 
0.804 0.416 0.812 0.624 
1.0 0.749 0.914 0.792 
0.557 0.333 0.694 0.584 
0.945 0.416 0.863 0.918 
0.584 0.459 0.761 0.71 
0.722 0.459 0.745 0.831 
0.722 0.459 0.694 0.918 
0.694 0.502 0.831 0.918 
0.667 0.416 0.714 0.918 
0.612 0.416 0.714 0.792 
0.443 0.416 0.694 0.71 
Teaching Patterns
1.0 0.0 0.0 
1.0 0.0 0.0 
1.0 0.0 0.0 
1.0 0.0 0.0 
1.0 0.0 0.0 
1.0 0.0 0.0 
1.0 0.0 0.0 
1.0 0.0 0.0 
1.0 0.0 0.0 
1.0 0.0 0.0 
1.0 0.0 0.0 
1.0 0.0 0.0 
1.0 0.0 0.0 
1.0 0.0 0.0 
1.0 0.0 0.0 
1.0 0.0 0.0 
1.0 0.0 0.0 
1.0 0.0 0.0 
1.0 0.0 0.0 
1.0 0.0 0.0 
1.0 0.0 0.0 
1.0 0.0 0.0 
1.0 0.0 0.0 
1.0 0.0 0.0 
1.0 0.0 0.0 
1.0 0.0 0.0 
1.0 0.0 0.0 
1.0 0.0 0.0 
1.0 0.0 0.0 
1.0 0.0 0.0 
1.0 0.0 0.0 
1.0 0.0 0.0 
1.0 0.0 0.0 
1.0 0.0 0.0 
1.0 0.0 0.0 
1.0 0.0 0.0 
1.0 0.0 0.0 
1.0 0.0 0.0 
1.0 0.0 0.0 
1.0 0.0 0.0 
1.0 0.0 0.0 
1.0 0.0 0.0 
1.0 0.0 0.0 
1.0 0.0 0.0 
1.0 0.0 0.0 
1.0 0.0 0.0 
1.0 0.0 0.0 
1.0 0.0 0.0 
1.0 0.0 0.0 
1.0 0.0 0.0 
0.0 1.0 0.0 
0.0 1.0 0.0 
0.0 1.0 0.0 
0.0 1.0 0.0 
0.0 1.0 0.0 
0.0 1.0 0.0 
0.0 1.0 0.0 
0.0 1.0 0.0 
0.0 1.0 0.0 
0.0 1.0 0.0 
0.0 1.0 0.0 
0.0 1.0 0.0 
0.0 1.0 0.0 
0.0 1.0 0.0 
0.0 1.0 0.0 
0.0 1.0 0.0 
0.0 1.0 0.0 
0.0 1.0 0.0 
0.0 1.0 0.0 
0.0 1.0 0.0 
0.0 1.0 0.0 
0.0 1.0 0.0 
0.0 1.0 0.0 
0.0 1.0 0.0 
0.0 1.0 0.0 
0.0 1.0 0.0 
0.0 1.0 0.0 
0.0 1.0 0.0 
0.0 1.0 0.0 
0.0 1.0 0.0 
0.0 1.0 0.0 
0.0 1.0 0.0 
0.0 1.0 0.0 
0.0 1.0 0.0 
0.0 1.0 0.0 
0.0 1.0 0.0 
0.0 1.0 0.0 
0.0 1.0 0.0 
0.0 1.0 0.0 
0.0 1.0 0.0 
0.0 1.0 0.0 
0.0 1.0 0.0 
0.0 1.0 0.0 
0.0 1.0 0.0 
0.0 1.0 0.0 
0.0 1.0 0.0 
0.0 1.0 0.0 
0.0 1.0 0.0 
0.0 1.0 0.0 
0.0 1.0 0.0 
0.0 0.0 1.0 
0.0 0.0 1.0 
0.0 0.0 1.0 
0.0 0.0 1.0 
0.0 0.0 1.0 
0.0 0.0 1.0 
0.0 0.0 1.0 
0.0 0.0 1.0 
0.0 0.0 1.0 
0.0 0.0 1.0 
0.0 0.0 1.0 
0.0 0.0 1.0 
0.0 0.0 1.0 
0.0 0.0 1.0 
0.0 0.0 1.0 
0.0 0.0 1.0 
0.0 0.0 1.0 
0.0 0.0 1.0 
0.0 0.0 1.0 
0.0 0.0 1.0 
0.0 0.0 1.0 
0.0 0.0 1.0 
0.0 0.0 1.0 
0.0 0.0 1.0 
0.0 0.0 1.0 
0.0 0.0 1.0 
0.0 0.0 1.0 
0.0 0.0 1.0 
0.0 0.0 1.0 
0.0 0.0 1.0 
0.0 0.0 1.0 
0.0 0.0 1.0 
0.0 0.0 1.0 
0.0 0.0 1.0 
0.0 0.0 1.0 
0.0 0.0 1.0 
0.0 0.0 1.0 
0.0 0.0 1.0 
0.0 0.0 1.0 
0.0 0.0 1.0 
0.0 0.0 1.0 
0.0 0.0 1.0 
0.0 0.0 1.0 
0.0 0.0 1.0 
0.0 0.0 1.0 
0.0 0.0 1.0 
0.0 0.0 1.0 
0.0 0.0 1.0 
0.0 0.0 1.0 
0.0 0.0 1.0 
Learning : 0.800000011920929
Momentum : 0.9
Epoch: 100, Error: 0.012876362103099032
Epoch: 200, Error: 0.01603714604856993
Epoch: 300, Error: 0.012185646760521134
Epoch: 400, Error: 0.011667681237051036
Epoch: 500, Error: 0.011895334784277399
Epoch: 600, Error: 0.012041069025418669
Epoch: 700, Error: 0.018106982928714096
Epoch: 800, Error: 0.011817711192219168
Epoch: 900, Error: 0.01449396617987125
Epoch: 1000, Error: 0.01177336128153827
Epoch: 1100, Error: 0.011639755632888753
Epoch: 1200, Error: 0.011480612308751938
Epoch: 1300, Error: 0.012029173345914763
Epoch: 1400, Error: 0.0122257626503808
Epoch: 1500, Error: 0.011621350957482518
Epoch: 1600, Error: 0.010895055911791728
Epoch: 1700, Error: 0.010794762666491082
Epoch: 1800, Error: 0.010693836300864373
Epoch: 1900, Error: 0.010352779661664143
Epoch: 2000, Error: 0.010375066538473747
Epoch: 2100, Error: 0.009530997352442538
Epoch: 2200, Error: 0.007891841325050426
Epoch: 2300, Error: 0.007008769308088667
Epoch: 2400, Error: 0.006646308543978285
Epoch: 2500, Error: 0.005773661855977181
Epoch: 2600, Error: 0.0054095079693234314
Epoch: 2700, Error: 0.005607121930592212
Epoch: 2800, Error: 0.005278224691304321
Epoch: 2900, Error: 0.005200697498333387
Epoch: 3000, Error: 0.005314241001698763
Epoch: 3100, Error: 0.005189669009495088
Epoch: 3200, Error: 0.0051763734864088305
Epoch: 3300, Error: 0.005157378284015729
Epoch: 3400, Error: 0.005156804665800129
Epoch: 3500, Error: 0.0051376326722976946
Epoch: 3600, Error: 0.005137232402061626
Epoch: 3700, Error: 0.005128727083341725
Epoch: 3800, Error: 0.005124903063027332
Epoch: 3900, Error: 0.005134962575004603
Epoch: 4000, Error: 0.005138196024518767
Epoch: 4100, Error: 0.005123348586807484
Epoch: 4200, Error: 0.005111351107562133
Epoch: 4300, Error: 0.005139665661074284
Epoch: 4400, Error: 0.005103533574977125
Epoch: 4500, Error: 0.005150414135789984
Epoch: 4600, Error: 0.005113701736948779
Epoch: 4700, Error: 0.0050956634188767174
Epoch: 4800, Error: 0.0050995236587838035
Epoch: 4900, Error: 0.005096209427810521
Epoch: 5000, Error: 0.005082203078983589
Epoch: 5100, Error: 0.005103225278481966
Epoch: 5200, Error: 0.005053389066231184
Epoch: 5300, Error: 0.0051441180853992515
Epoch: 5400, Error: 0.005099349605798504
Epoch: 5500, Error: 0.005085670034432947
Epoch: 5600, Error: 0.0050905251806431856
Epoch: 5700, Error: 0.005075585946718668
Epoch: 5800, Error: 0.005170453876219694
Epoch: 5900, Error: 0.005077821125187328
Epoch: 6000, Error: 0.0050071219694952694
Epoch: 6100, Error: 0.005172046379583836
Epoch: 6200, Error: 0.005099336448793796
Epoch: 6300, Error: 0.004944453531805037
Epoch: 6400, Error: 0.0049984273015817576
Epoch: 6500, Error: 0.00486285752270416
Epoch: 6600, Error: 0.004939647641483422
Epoch: 6700, Error: 0.005112616342211713
Epoch: 6800, Error: 0.006357162541498342
Epoch: 6900, Error: 0.004941518119108649
Epoch: 7000, Error: 0.004725122018915418
Epoch: 7100, Error: 0.004151870434720302
Epoch: 7200, Error: 0.004082426590701959
Epoch: 7300, Error: 0.00447347630735801
Epoch: 7400, Error: 0.004315103980283497
Epoch: 7500, Error: 0.007076421160144216
Epoch: 7600, Error: 0.003401981877322333
Epoch: 7700, Error: 0.004176188220066359
Epoch: 7800, Error: 0.004062837924260759
Epoch: 7900, Error: 0.0032025219797580658
Epoch: 8000, Error: 0.0039006106462298566
Epoch: 8100, Error: 0.0025534587452889952
Epoch: 8200, Error: 0.005481745234303849
Epoch: 8300, Error: 0.0036166860566841067
Epoch: 8400, Error: 0.005603875565262682
Epoch: 8500, Error: 0.004186619650394249
Epoch: 8600, Error: 0.0038492162370227997
Epoch: 8700, Error: 0.0026587772923666003
Epoch: 8800, Error: 0.0026139461756131553
Epoch: 8900, Error: 0.0027034338190347865
Epoch: 9000, Error: 0.0037959858518951685
Epoch: 9100, Error: 0.004261937621380141
Epoch: 9200, Error: 0.0019325297777291993
Epoch: 9300, Error: 0.002630347385994557
Epoch: 9400, Error: 0.0016238825538709076
Epoch: 9500, Error: 0.0028844808036014215
Epoch: 9600, Error: 0.0024922768732379284
Epoch: 9700, Error: 0.002906078283682619
Epoch: 9800, Error: 0.002158759592501868
Epoch: 9900, Error: 0.0021560657221643825
Epoch: 10000, Error: 0.001391319710602205
Epoch: 10100, Error: 0.0011629301975277777
Epoch: 10200, Error: 0.0010645151774519705
Epoch: 10300, Error: 0.0011201217371859772
Epoch: 10400, Error: 0.0010852478972087818
Epoch: 10500, Error: 0.0010680511497942607
Epoch: 10600, Error: 0.0010163443994222578
Epoch: 10700, Error: 9.646406122635877E-4
Epoch: 10800, Error: 9.811762345638755E-4
Epoch: 10900, Error: 0.0010077838616985746
Epoch: 11000, Error: 9.80157208972702E-4
Epoch: 11100, Error: 9.346343812390564E-4
Epoch: 11200, Error: 9.451368454693986E-4
Epoch: 11300, Error: 9.567446376872615E-4
Epoch: 11400, Error: 9.37287557114882E-4
Epoch: 11500, Error: 9.321005196979423E-4
Epoch: 11600, Error: 8.706836295653465E-4
Epoch: 11700, Error: 7.441144843128085E-4
Epoch: 11800, Error: 7.608333240093643E-4
Epoch: 11900, Error: 7.021945043496201E-4
Epoch: 12000, Error: 6.803442053686039E-4
Epoch: 12100, Error: 6.688898570874332E-4
Epoch: 12200, Error: 6.587240226822788E-4
Epoch: 12300, Error: 6.476382877850686E-4
Epoch: 12400, Error: 6.337607800333013E-4
Epoch: 12500, Error: 6.320095112185006E-4
Epoch: 12600, Error: 6.166205892224544E-4
Epoch: 12700, Error: 6.075022868574949E-4
Epoch: 12800, Error: 6.218786763203673E-4
Epoch: 12900, Error: 6.097623045957398E-4
Epoch: 13000, Error: 6.094270932464008E-4
Epoch: 13100, Error: 6.069945632323708E-4
Epoch: 13200, Error: 6.156050146648148E-4
Epoch: 13300, Error: 6.016105423489695E-4
Epoch: 13400, Error: 6.00359226918371E-4
Epoch: 13500, Error: 5.925155615165002E-4
Epoch: 13600, Error: 5.924660322554451E-4
Epoch: 13700, Error: 5.860811266352479E-4
Epoch: 13800, Error: 5.832040975844084E-4
Epoch: 13900, Error: 5.822019585492488E-4
Epoch: 14000, Error: 5.839588393542806E-4
Epoch: 14100, Error: 5.903039700363745E-4
Epoch: 14200, Error: 5.795363881442097E-4
Epoch: 14300, Error: 5.801855293944552E-4
Epoch: 14400, Error: 5.887611589131456E-4
Epoch: 14500, Error: 5.767679014521481E-4
Finished
